expe,clients,clients_size,clients_subset,agg_size,method,days,days_size,days_total,time,valid,valid_sum,success,nsols,wall_hit,wall_time,pooled,valid_sums
./expes/v2_2020-11-23_di_200-prng-1,daily_issda_250,250,rng-250,181,rng,num-start-141,141,536,2.436439037322998,True,,True,1,False,1000,True,1.0
./expes/v2_2020-11-23_di_200-prng-1,daily_issda_250,250,rng-250,221,rng,num-start-131,131,536,1.9787359237670898,True,,True,1,False,1000,True,1.0
./expes/v2_2020-11-23_di_200-prng-1,daily_issda_250,250,rng-250,61,rng,num-start-161,161,536,3.1900618076324463,True,,True,1,False,1000,True,1.0
./expes/v2_2020-11-23_di_200-prng-1,daily_issda_250,250,rng-250,241,rng,num-start-271,271,536,4.331758260726929,True,,True,1,False,1000,True,1.0
./expes/v2_2020-11-23_di_200-prng-1,daily_issda_250,250,rng-250,111,rng,num-start-31,31,536,1000.5327696800232,False,,False,0,True,1000,True,0.0
./expes/v2_2020-11-23_di_200-prng-1,daily_issda_250,250,rng-250,11,rng,num-start-61,61,536,0.9692652225494385,True,,True,1,False,1000,True,1.0
./expes/v2_2020-11-23_di_200-prng-1,daily_issda_250,250,rng-250,201,rng,num-start-201,201,536,3.8281891345977783,True,,True,1,False,1000,True,1.0
./expes/v2_2020-11-23_di_200-prng-1,daily_issda_250,250,rng-250,191,rng,num-start-201,201,536,3.711704969406128,True,,True,1,False,1000,True,1.0
./expes/v2_2020-11-23_di_200-prng-1,daily_issda_250,250,rng-250,191,rng,num-start-151,151,536,2.4831295013427734,True,,True,1,False,1000,True,1.0
./expes/v2_2020-11-23_di_200-prng-1,daily_issda_250,250,rng-250,51,rng,num-start-171,171,536,3.060819149017334,True,,True,1,False,1000,True,1.0
./expes/v2_2020-11-23_di_200-prng-1,daily_issda_250,250,rng-250,201,rng,num-start-221,221,536,3.798429250717163,True,,True,1,False,1000,True,1.0
./expes/v2_2020-11-23_di_200-prng-1,daily_issda_250,250,rng-250,151,rng,num-start-71,71,536,1000.9558970928192,False,,False,0,True,1000,True,0.0
./expes/v2_2020-11-23_di_200-prng-1,daily_issda_250,250,rng-250,41,rng,num-start-81,81,536,1.2746164798736572,True,,True,1,False,1000,True,1.0
./expes/v2_2020-11-23_di_200-prng-1,daily_issda_250,250,rng-250,81,rng,num-start-241,241,536,3.84506893157959,True,,True,1,False,1000,True,1.0
./expes/v2_2020-11-23_di_200-prng-1,daily_issda_250,250,rng-250,91,rng,num-start-151,151,536,2.8472230434417725,True,,True,1,False,1000,True,1.0
./expes/v2_2020-11-23_di_200-prng-1,daily_issda_250,250,rng-250,71,rng,num-start-51,51,536,1000.8090221881866,False,,False,0,True,1000,True,0.0
./expes/v2_2020-11-23_di_200-prng-1,daily_issda_250,250,rng-250,51,rng,num-start-11,11,536,1000.1880729198456,False,,False,0,True,1000,True,0.0
./expes/v2_2020-11-23_di_200-prng-1,daily_issda_250,250,rng-250,111,rng,num-start-271,271,536,5.017323732376099,True,,True,1,False,1000,True,1.0
./expes/v2_2020-11-23_di_200-prng-1,daily_issda_250,250,rng-250,191,rng,num-start-121,121,536,2.5202178955078125,True,,True,1,False,1000,True,1.0
./expes/v2_2020-11-23_di_200-prng-1,daily_issda_250,250,rng-250,101,rng,num-start-1,1,536,1.1270158290863037,False,,False,2,False,1000,True,1.0
./expes/v2_2020-11-23_di_200-prng-1,daily_issda_250,250,rng-250,71,rng,num-start-91,91,536,4.195052862167358,True,,True,1,False,1000,True,1.0
./expes/v2_2020-11-23_di_200-prng-1,daily_issda_250,250,rng-250,81,rng,num-start-21,21,536,1000.3034081459045,False,,False,0,True,1000,True,0.0
./expes/v2_2020-11-23_di_200-prng-1,daily_issda_250,250,rng-250,221,rng,num-start-191,191,536,3.2942795753479004,True,,True,1,False,1000,True,1.0
./expes/v2_2020-11-23_di_200-prng-1,daily_issda_250,250,rng-250,1,rng,num-start-101,101,536,1.1775307655334473,True,,True,1,False,1000,True,1.0
./expes/v2_2020-11-23_di_200-prng-1,daily_issda_250,250,rng-250,141,rng,num-start-101,101,536,3.339752197265625,True,,True,1,False,1000,True,1.0
./expes/v2_2020-11-23_di_200-prng-1,daily_issda_250,250,rng-250,21,rng,num-start-31,31,536,10.491124629974365,True,,True,1,False,1000,True,1.0
./expes/v2_2020-11-23_di_200-prng-1,daily_issda_250,250,rng-250,161,rng,num-start-121,121,536,4.531067848205566,True,,True,1,False,1000,True,1.0
./expes/v2_2020-11-23_di_200-prng-1,daily_issda_250,250,rng-250,71,rng,num-start-41,41,536,1000.5389969348907,False,,False,0,True,1000,True,0.0
./expes/v2_2020-11-23_di_200-prng-1,daily_issda_250,250,rng-250,221,rng,num-start-151,151,536,2.6403870582580566,True,,True,1,False,1000,True,1.0
./expes/v2_2020-11-23_di_200-prng-1,daily_issda_250,250,rng-250,111,rng,num-start-191,191,536,3.282898426055908,True,,True,1,False,1000,True,1.0
./expes/v2_2020-11-23_di_200-prng-1,daily_issda_250,250,rng-250,91,rng,num-start-211,211,536,4.1194775104522705,True,,True,1,False,1000,True,1.0
./expes/v2_2020-11-23_di_200-prng-1,daily_issda_250,250,rng-250,141,rng,num-start-71,71,536,1000.9208943843842,False,,False,0,True,1000,True,0.0
./expes/v2_2020-11-23_di_200-prng-1,daily_issda_250,250,rng-250,121,rng,num-start-271,271,536,5.578388929367065,True,,True,1,False,1000,True,1.0
./expes/v2_2020-11-23_di_200-prng-1,daily_issda_250,250,rng-250,41,rng,num-start-61,61,536,2.4827075004577637,True,,True,1,False,1000,True,1.0
./expes/v2_2020-11-23_di_200-prng-1,daily_issda_250,250,rng-250,171,rng,num-start-291,291,536,5.2348339557647705,True,,True,1,False,1000,True,1.0
./expes/v2_2020-11-23_di_200-prng-1,daily_issda_250,250,rng-250,191,rng,num-start-101,101,536,2.1150341033935547,True,,True,1,False,1000,True,1.0
./expes/v2_2020-11-23_di_200-prng-1,daily_issda_250,250,rng-250,131,rng,num-start-231,231,536,4.6434807777404785,True,,True,1,False,1000,True,1.0
./expes/v2_2020-11-23_di_200-prng-1,daily_issda_250,250,rng-250,241,rng,num-start-61,61,536,0.9185636043548584,True,,True,1,False,1000,True,1.0
./expes/v2_2020-11-23_di_200-prng-1,daily_issda_250,250,rng-250,101,rng,num-start-91,91,536,5.439388990402222,True,,True,1,False,1000,True,1.0
./expes/v2_2020-11-23_di_200-prng-1,daily_issda_250,250,rng-250,121,rng,num-start-51,51,536,1000.7428886890411,False,,False,0,True,1000,True,0.0
./expes/v2_2020-11-23_di_200-prng-1,daily_issda_250,250,rng-250,191,rng,num-start-41,41,536,1000.6023218631744,False,,False,0,True,1000,True,0.0
./expes/v2_2020-11-23_di_200-prng-1,daily_issda_250,250,rng-250,91,rng,num-start-141,141,536,3.014718532562256,True,,True,1,False,1000,True,1.0
./expes/v2_2020-11-23_di_200-prng-1,daily_issda_250,250,rng-250,151,rng,num-start-141,141,536,2.783184289932251,True,,True,1,False,1000,True,1.0
./expes/v2_2020-11-23_di_200-prng-1,daily_issda_250,250,rng-250,201,rng,num-start-51,51,536,1000.6761317253113,False,,False,0,True,1000,True,0.0
./expes/v2_2020-11-23_di_200-prng-1,daily_issda_250,250,rng-250,61,rng,num-start-201,201,536,3.9747397899627686,True,,True,1,False,1000,True,1.0
./expes/v2_2020-11-23_di_200-prng-1,daily_issda_250,250,rng-250,71,rng,num-start-191,191,536,3.664485454559326,True,,True,1,False,1000,True,1.0
./expes/v2_2020-11-23_di_200-prng-1,daily_issda_250,250,rng-250,181,rng,num-start-211,211,536,3.947918653488159,True,,True,1,False,1000,True,1.0
./expes/v2_2020-11-23_di_200-prng-1,daily_issda_250,250,rng-250,101,rng,num-start-291,291,536,5.892096519470215,True,,True,1,False,1000,True,1.0
./expes/v2_2020-11-23_di_200-prng-1,daily_issda_250,250,rng-250,171,rng,num-start-71,71,536,1000.9593336582184,False,,False,0,True,1000,True,0.0
./expes/v2_2020-11-23_di_200-prng-1,daily_issda_250,250,rng-250,61,rng,num-start-11,11,536,1000.221173286438,False,,False,0,True,1000,True,0.0
./expes/v2_2020-11-23_di_200-prng-1,daily_issda_250,250,rng-250,71,rng,num-start-161,161,536,3.2463247776031494,True,,True,1,False,1000,True,1.0
./expes/v2_2020-11-23_di_200-prng-1,daily_issda_250,250,rng-250,211,rng,num-start-221,221,536,4.01832914352417,True,,True,1,False,1000,True,1.0
./expes/v2_2020-11-23_di_200-prng-1,daily_issda_250,250,rng-250,61,rng,num-start-91,91,536,3.3336539268493652,True,,True,1,False,1000,True,1.0
./expes/v2_2020-11-23_di_200-prng-1,daily_issda_250,250,rng-250,61,rng,num-start-231,231,536,4.279717922210693,True,,True,1,False,1000,True,1.0
./expes/v2_2020-11-23_di_200-prng-1,daily_issda_250,250,rng-250,241,rng,num-start-191,191,536,2.917086362838745,True,,True,1,False,1000,True,1.0
./expes/v2_2020-11-23_di_200-prng-1,daily_issda_250,250,rng-250,71,rng,num-start-51,51,536,1000.7195148468018,False,,False,0,True,1000,True,0.0
./expes/v2_2020-11-23_di_200-prng-1,daily_issda_250,250,rng-250,141,rng,num-start-241,241,536,4.060827016830444,True,,True,1,False,1000,True,1.0
./expes/v2_2020-11-23_di_200-prng-1,daily_issda_250,250,rng-250,151,rng,num-start-131,131,536,2.8544490337371826,True,,True,1,False,1000,True,1.0
./expes/v2_2020-11-23_di_200-prng-1,daily_issda_250,250,rng-250,51,rng,num-start-81,81,536,2.551582098007202,True,,True,1,False,1000,True,1.0
./expes/v2_2020-11-23_di_200-prng-1,daily_issda_250,250,rng-250,11,rng,num-start-211,211,536,3.520400047302246,True,,True,1,False,1000,True,1.0
./expes/v2_2020-11-23_di_200-prng-1,daily_issda_250,250,rng-250,241,rng,num-start-121,121,536,1.8401963710784912,True,,True,1,False,1000,True,1.0
./expes/v2_2020-11-23_di_200-prng-1,daily_issda_250,250,rng-250,191,rng,num-start-71,71,536,27.1012921333313,True,,True,1,False,1000,True,1.0
./expes/v2_2020-11-23_di_200-prng-1,daily_issda_250,250,rng-250,241,rng,num-start-141,141,536,2.272822380065918,True,,True,1,False,1000,True,1.0
./expes/v2_2020-11-23_di_200-prng-1,daily_issda_250,250,rng-250,91,rng,num-start-11,11,536,1000.2159690856934,False,,False,0,True,1000,True,0.0
./expes/v2_2020-11-23_di_200-prng-1,daily_issda_250,250,rng-250,201,rng,num-start-221,221,536,3.9142138957977295,True,,True,1,False,1000,True,1.0
./expes/v2_2020-11-23_di_200-prng-1,daily_issda_250,250,rng-250,161,rng,num-start-211,211,536,4.726154804229736,True,,True,1,False,1000,True,1.0
./expes/v2_2020-11-23_di_200-prng-1,daily_issda_250,250,rng-250,191,rng,num-start-141,141,536,2.7450380325317383,True,,True,1,False,1000,True,1.0
./expes/v2_2020-11-23_di_200-prng-1,daily_issda_250,250,rng-250,181,rng,num-start-21,21,536,1000.3528583049774,False,,False,0,True,1000,True,0.0
./expes/v2_2020-11-23_di_200-prng-1,daily_issda_250,250,rng-250,41,rng,num-start-261,261,536,6.054366588592529,True,,True,1,False,1000,True,1.0
./expes/v2_2020-11-23_di_200-prng-1,daily_issda_250,250,rng-250,11,rng,num-start-101,101,536,1.5263144969940186,True,,True,1,False,1000,True,1.0
./expes/v2_2020-11-23_di_200-prng-1,daily_issda_250,250,rng-250,191,rng,num-start-141,141,536,2.5313339233398438,True,,True,1,False,1000,True,1.0
./expes/v2_2020-11-23_di_200-prng-1,daily_issda_250,250,rng-250,191,rng,num-start-51,51,536,1000.7063870429993,False,,False,0,True,1000,True,0.0
./expes/v2_2020-11-23_di_200-prng-1,daily_issda_250,250,rng-250,11,rng,num-start-201,201,536,3.4142401218414307,True,,True,1,False,1000,True,1.0
./expes/v2_2020-11-23_di_200-prng-1,daily_issda_250,250,rng-250,51,rng,num-start-271,271,536,4.221595048904419,True,,True,1,False,1000,True,1.0
./expes/v2_2020-11-23_di_200-prng-1,daily_issda_250,250,rng-250,41,rng,num-start-261,261,536,4.684870958328247,True,,True,1,False,1000,True,1.0
./expes/v2_2020-11-23_di_200-prng-1,daily_issda_250,250,rng-250,141,rng,num-start-21,21,536,1000.5313761234283,False,,False,0,True,1000,True,0.0
./expes/v2_2020-11-23_di_200-prng-1,daily_issda_250,250,rng-250,121,rng,num-start-91,91,536,5.949572563171387,True,,True,1,False,1000,True,1.0
./expes/v2_2020-11-23_di_200-prng-1,daily_issda_250,250,rng-250,101,rng,num-start-161,161,536,3.1367781162261963,True,,True,1,False,1000,True,1.0
./expes/v2_2020-11-23_di_200-prng-1,daily_issda_250,250,rng-250,161,rng,num-start-271,271,536,5.186067342758179,True,,True,1,False,1000,True,1.0
./expes/v2_2020-11-23_di_200-prng-1,daily_issda_250,250,rng-250,211,rng,num-start-141,141,536,2.1167871952056885,True,,True,1,False,1000,True,1.0
./expes/v2_2020-11-23_di_200-prng-1,daily_issda_250,250,rng-250,181,rng,num-start-271,271,536,5.3839192390441895,True,,True,1,False,1000,True,1.0
./expes/v2_2020-11-23_di_200-prng-1,daily_issda_250,250,rng-250,21,rng,num-start-261,261,536,4.965740442276001,True,,True,1,False,1000,True,1.0
./expes/v2_2020-11-23_di_200-prng-1,daily_issda_250,250,rng-250,101,rng,num-start-161,161,536,3.277719497680664,True,,True,1,False,1000,True,1.0
./expes/v2_2020-11-23_di_200-prng-1,daily_issda_250,250,rng-250,101,rng,num-start-161,161,536,2.9648282527923584,True,,True,1,False,1000,True,1.0
./expes/v2_2020-11-23_di_200-prng-1,daily_issda_250,250,rng-250,101,rng,num-start-91,91,536,9.798604011535645,True,,True,1,False,1000,True,1.0
./expes/v2_2020-11-23_di_200-prng-1,daily_issda_250,250,rng-250,211,rng,num-start-121,121,536,1.9338293075561523,True,,True,1,False,1000,True,1.0
./expes/v2_2020-11-23_di_200-prng-1,daily_issda_250,250,rng-250,231,rng,num-start-161,161,536,2.592517852783203,True,,True,1,False,1000,True,1.0
./expes/v2_2020-11-23_di_200-prng-1,daily_issda_250,250,rng-250,211,rng,num-start-161,161,536,2.9099574089050293,True,,True,1,False,1000,True,1.0
./expes/v2_2020-11-23_di_200-prng-1,daily_issda_250,250,rng-250,161,rng,num-start-91,91,536,16.45234751701355,True,,True,1,False,1000,True,1.0
./expes/v2_2020-11-23_di_200-prng-1,daily_issda_250,250,rng-250,141,rng,num-start-261,261,536,4.00949501991272,True,,True,1,False,1000,True,1.0
./expes/v2_2020-11-23_di_200-prng-1,daily_issda_250,250,rng-250,31,rng,num-start-161,161,536,2.6416056156158447,True,,True,1,False,1000,True,1.0
./expes/v2_2020-11-23_di_200-prng-1,daily_issda_250,250,rng-250,121,rng,num-start-271,271,536,5.7190539836883545,True,,True,1,False,1000,True,1.0
./expes/v2_2020-11-23_di_200-prng-1,daily_issda_250,250,rng-250,241,rng,num-start-181,181,536,2.7249276638031006,True,,True,1,False,1000,True,1.0
./expes/v2_2020-11-23_di_200-prng-1,daily_issda_250,250,rng-250,131,rng,num-start-41,41,536,1000.5681290626526,False,,False,0,True,1000,True,0.0
./expes/v2_2020-11-23_di_200-prng-1,daily_issda_250,250,rng-250,1,rng,num-start-101,101,536,1.2369604110717773,True,,True,1,False,1000,True,1.0
./expes/v2_2020-11-23_di_200-prng-1,daily_issda_250,250,rng-250,61,rng,num-start-271,271,536,5.655458450317383,True,,True,1,False,1000,True,1.0
./expes/v2_2020-11-23_di_200-prng-1,daily_issda_250,250,rng-250,201,rng,num-start-231,231,536,4.363267183303833,True,,True,1,False,1000,True,1.0
./expes/v2_2020-11-23_di_200-prng-1,daily_issda_250,250,rng-250,221,rng,num-start-181,181,536,3.1100564002990723,True,,True,1,False,1000,True,1.0
./expes/v2_2020-11-23_di_200-prng-1,daily_issda_250,250,rng-250,211,rng,num-start-271,271,536,4.723320722579956,True,,True,1,False,1000,True,1.0
./expes/v2_2020-11-23_di_200-prng-1,daily_issda_250,250,rng-250,111,rng,num-start-251,251,536,5.11917519569397,True,,True,1,False,1000,True,1.0
./expes/v2_2020-11-23_di_200-prng-1,daily_issda_250,250,rng-250,231,rng,num-start-121,121,536,2.295652389526367,True,,True,1,False,1000,True,1.0
./expes/v2_2020-11-23_di_200-prng-1,daily_issda_250,250,rng-250,111,rng,num-start-261,261,536,5.267414808273315,True,,True,1,False,1000,True,1.0
./expes/v2_2020-11-23_di_200-prng-1,daily_issda_250,250,rng-250,81,rng,num-start-241,241,536,4.5941760540008545,True,,True,1,False,1000,True,1.0
./expes/v2_2020-11-23_di_200-prng-1,daily_issda_250,250,rng-250,121,rng,num-start-291,291,536,5.88847804069519,True,,True,1,False,1000,True,1.0
./expes/v2_2020-11-23_di_200-prng-1,daily_issda_250,250,rng-250,101,rng,num-start-191,191,536,4.270067453384399,True,,True,1,False,1000,True,1.0
./expes/v2_2020-11-23_di_200-prng-1,daily_issda_250,250,rng-250,241,rng,num-start-101,101,536,1.5264012813568115,True,,True,1,False,1000,True,1.0
./expes/v2_2020-11-23_di_200-prng-1,daily_issda_250,250,rng-250,211,rng,num-start-171,171,536,3.1913957595825195,True,,True,1,False,1000,True,1.0
./expes/v2_2020-11-23_di_200-prng-1,daily_issda_250,250,rng-250,61,rng,num-start-111,111,536,2.1401824951171875,True,,True,1,False,1000,True,1.0
./expes/v2_2020-11-23_di_200-prng-1,daily_issda_250,250,rng-250,21,rng,num-start-31,31,536,1013.6220052242279,False,,False,1,True,1000,True,0.0
./expes/v2_2020-11-23_di_200-prng-1,daily_issda_250,250,rng-250,221,rng,num-start-61,61,536,0.9764561653137207,True,,True,1,False,1000,True,1.0
./expes/v2_2020-11-23_di_200-prng-1,daily_issda_250,250,rng-250,31,rng,num-start-31,31,536,1002.331533908844,False,,False,0,True,1000,True,0.0
./expes/v2_2020-11-23_di_200-prng-1,daily_issda_250,250,rng-250,1,rng,num-start-201,201,536,2.393613576889038,True,,True,1,False,1000,True,1.0
./expes/v2_2020-11-23_di_200-prng-1,daily_issda_250,250,rng-250,201,rng,num-start-81,81,536,2.7939116954803467,True,,True,1,False,1000,True,1.0
./expes/v2_2020-11-23_di_200-prng-1,daily_issda_250,250,rng-250,131,rng,num-start-1,1,536,1.1203432083129883,False,,False,2,False,1000,True,0.0
./expes/v2_2020-11-23_di_200-prng-1,daily_issda_250,250,rng-250,161,rng,num-start-171,171,536,3.3267459869384766,True,,True,1,False,1000,True,1.0
./expes/v2_2020-11-23_di_200-prng-1,daily_issda_250,250,rng-250,51,rng,num-start-221,221,536,4.210949420928955,True,,True,1,False,1000,True,1.0
./expes/v2_2020-11-23_di_200-prng-1,daily_issda_250,250,rng-250,31,rng,num-start-31,31,536,1004.2446320056915,False,,False,0,True,1000,True,0.0
./expes/v2_2020-11-23_di_200-prng-1,daily_issda_250,250,rng-250,241,rng,num-start-31,31,536,0.8888864517211914,True,,True,1,False,1000,True,1.0
./expes/v2_2020-11-23_di_200-prng-1,daily_issda_250,250,rng-250,61,rng,num-start-121,121,536,2.0962750911712646,True,,True,1,False,1000,True,1.0
./expes/v2_2020-11-23_di_200-prng-1,daily_issda_250,250,rng-250,141,rng,num-start-221,221,536,4.6242756843566895,True,,True,1,False,1000,True,1.0
./expes/v2_2020-11-23_di_200-prng-1,daily_issda_250,250,rng-250,191,rng,num-start-231,231,536,4.087674617767334,True,,True,1,False,1000,True,1.0
./expes/v2_2020-11-23_di_200-prng-1,daily_issda_250,250,rng-250,21,rng,num-start-201,201,536,3.3868839740753174,True,,True,1,False,1000,True,1.0
./expes/v2_2020-11-23_di_200-prng-1,daily_issda_250,250,rng-250,241,rng,num-start-211,211,536,2.9362854957580566,True,,True,1,False,1000,True,1.0
./expes/v2_2020-11-23_di_200-prng-1,daily_issda_250,250,rng-250,1,rng,num-start-271,271,536,3.209827423095703,True,,True,1,False,1000,True,1.0
./expes/v2_2020-11-23_di_200-prng-1,daily_issda_250,250,rng-250,161,rng,num-start-121,121,536,2.3442459106445312,True,,True,1,False,1000,True,1.0
./expes/v2_2020-11-23_di_200-prng-1,daily_issda_250,250,rng-250,241,rng,num-start-211,211,536,3.37060809135437,True,,True,1,False,1000,True,1.0
./expes/v2_2020-11-23_di_200-prng-1,daily_issda_250,250,rng-250,1,rng,num-start-161,161,536,1.9055442810058594,True,,True,1,False,1000,True,1.0
./expes/v2_2020-11-23_di_200-prng-1,daily_issda_250,250,rng-250,91,rng,num-start-271,271,536,4.7576210498809814,True,,True,1,False,1000,True,1.0
./expes/v2_2020-11-23_di_200-prng-1,daily_issda_250,250,rng-250,171,rng,num-start-31,31,536,1000.4188370704651,False,,False,0,True,1000,True,0.0
./expes/v2_2020-11-23_di_200-prng-1,daily_issda_250,250,rng-250,21,rng,num-start-91,91,536,1.8001210689544678,True,,True,1,False,1000,True,1.0
./expes/v2_2020-11-23_di_200-prng-1,daily_issda_250,250,rng-250,71,rng,num-start-281,281,536,5.231446027755737,True,,True,1,False,1000,True,1.0
./expes/v2_2020-11-23_di_200-prng-1,daily_issda_250,250,rng-250,81,rng,num-start-81,81,536,29.91310691833496,True,,True,1,False,1000,True,1.0
./expes/v2_2020-11-23_di_200-prng-1,daily_issda_250,250,rng-250,191,rng,num-start-1,1,536,1.7345914840698242,False,,False,2,False,1000,True,1.0
./expes/v2_2020-11-23_di_200-prng-1,daily_issda_250,250,rng-250,161,rng,num-start-221,221,536,4.356977224349976,True,,True,1,False,1000,True,1.0
./expes/v2_2020-11-23_di_200-prng-1,daily_issda_250,250,rng-250,111,rng,num-start-21,21,536,1000.2836401462555,False,,False,0,True,1000,True,0.0
./expes/v2_2020-11-23_di_200-prng-1,daily_issda_250,250,rng-250,241,rng,num-start-261,261,536,4.499074697494507,True,,True,1,False,1000,True,1.0
./expes/v2_2020-11-23_di_200-prng-1,daily_issda_250,250,rng-250,141,rng,num-start-61,61,536,1000.7411885261536,False,,False,0,True,1000,True,0.0
./expes/v2_2020-11-23_di_200-prng-1,daily_issda_250,250,rng-250,161,rng,num-start-251,251,536,4.66671347618103,True,,True,1,False,1000,True,1.0
./expes/v2_2020-11-23_di_200-prng-1,daily_issda_250,250,rng-250,221,rng,num-start-141,141,536,2.3631675243377686,True,,True,1,False,1000,True,1.0
./expes/v2_2020-11-23_di_200-prng-1,daily_issda_250,250,rng-250,1,rng,num-start-231,231,536,2.7525763511657715,True,,True,1,False,1000,True,1.0
./expes/v2_2020-11-23_di_200-prng-1,daily_issda_250,250,rng-250,31,rng,num-start-251,251,536,4.062113046646118,True,,True,1,False,1000,True,1.0
./expes/v2_2020-11-23_di_200-prng-1,daily_issda_250,250,rng-250,111,rng,num-start-11,11,536,1000.1865177154541,False,,False,0,True,1000,True,0.0
./expes/v2_2020-11-23_di_200-prng-1,daily_issda_250,250,rng-250,191,rng,num-start-1,1,536,1.3605852127075195,False,,False,2,False,1000,True,1.0
./expes/v2_2020-11-23_di_200-prng-1,daily_issda_250,250,rng-250,11,rng,num-start-101,101,536,1.6521592140197754,True,,True,1,False,1000,True,1.0
./expes/v2_2020-11-23_di_200-prng-1,daily_issda_250,250,rng-250,1,rng,num-start-281,281,536,3.3102262020111084,True,,True,1,False,1000,True,1.0
./expes/v2_2020-11-23_di_200-prng-1,daily_issda_250,250,rng-250,121,rng,num-start-231,231,536,4.570506572723389,True,,True,1,False,1000,True,1.0
./expes/v2_2020-11-23_di_200-prng-1,daily_issda_250,250,rng-250,21,rng,num-start-171,171,536,3.009632110595703,True,,True,1,False,1000,True,1.0
./expes/v2_2020-11-23_di_200-prng-1,daily_issda_250,250,rng-250,81,rng,num-start-171,171,536,2.878805160522461,True,,True,1,False,1000,True,1.0
./expes/v2_2020-11-23_di_200-prng-1,daily_issda_250,250,rng-250,191,rng,num-start-191,191,536,3.5540690422058105,True,,True,1,False,1000,True,1.0
./expes/v2_2020-11-23_di_200-prng-1,daily_issda_250,250,rng-250,51,rng,num-start-141,141,536,2.6804606914520264,True,,True,1,False,1000,True,1.0
./expes/v2_2020-11-23_di_200-prng-1,daily_issda_250,250,rng-250,41,rng,num-start-1,1,536,1.1932904720306396,False,,False,2,False,1000,True,1.0
./expes/v2_2020-11-23_di_200-prng-1,daily_issda_250,250,rng-250,131,rng,num-start-91,91,536,26.161103010177612,True,,True,1,False,1000,True,1.0
./expes/v2_2020-11-23_di_200-prng-1,daily_issda_250,250,rng-250,191,rng,num-start-71,71,536,47.34430694580078,True,,True,1,False,1000,True,1.0
./expes/v2_2020-11-23_di_200-prng-1,daily_issda_250,250,rng-250,221,rng,num-start-81,81,536,1.4417064189910889,True,,True,1,False,1000,True,1.0
./expes/v2_2020-11-23_di_200-prng-1,daily_issda_250,250,rng-250,21,rng,num-start-71,71,536,1.31882905960083,True,,True,1,False,1000,True,1.0
./expes/v2_2020-11-23_di_200-prng-1,daily_issda_250,250,rng-250,71,rng,num-start-11,11,536,1000.176771402359,False,,False,0,True,1000,True,0.0
./expes/v2_2020-11-23_di_200-prng-1,daily_issda_250,250,rng-250,121,rng,num-start-101,101,536,4.157472848892212,True,,True,1,False,1000,True,1.0
./expes/v2_2020-11-23_di_200-prng-1,daily_issda_250,250,rng-250,81,rng,num-start-91,91,536,15.809927701950073,True,,True,1,False,1000,True,1.0
./expes/v2_2020-11-23_di_200-prng-1,daily_issda_250,250,rng-250,91,rng,num-start-241,241,536,4.822352647781372,True,,True,1,False,1000,True,1.0
./expes/v2_2020-11-23_di_200-prng-1,daily_issda_250,250,rng-250,201,rng,num-start-261,261,536,4.49053430557251,True,,True,1,False,1000,True,1.0
./expes/v2_2020-11-23_di_200-prng-1,daily_issda_250,250,rng-250,131,rng,num-start-71,71,536,1000.8564794063568,False,,False,0,True,1000,True,0.0
./expes/v2_2020-11-23_di_200-prng-1,daily_issda_250,250,rng-250,71,rng,num-start-131,131,536,2.6484060287475586,True,,True,1,False,1000,True,1.0
./expes/v2_2020-11-23_di_200-prng-1,daily_issda_250,250,rng-250,211,rng,num-start-151,151,536,2.824869155883789,True,,True,1,False,1000,True,1.0
./expes/v2_2020-11-23_di_200-prng-1,daily_issda_250,250,rng-250,101,rng,num-start-51,51,536,1000.7127461433411,False,,False,0,True,1000,True,0.0
./expes/v2_2020-11-23_di_200-prng-1,daily_issda_250,250,rng-250,41,rng,num-start-41,41,536,1000.6331837177277,False,,False,0,True,1000,True,0.0
./expes/v2_2020-11-23_di_200-prng-1,daily_issda_250,250,rng-250,231,rng,num-start-41,41,536,1.4445478916168213,True,,True,1,False,1000,True,1.0
./expes/v2_2020-11-23_di_200-prng-1,daily_issda_250,250,rng-250,101,rng,num-start-31,31,536,1000.4490747451782,False,,False,0,True,1000,True,0.0
./expes/v2_2020-11-23_di_200-prng-1,daily_issda_250,250,rng-250,91,rng,num-start-51,51,536,1000.6875672340393,False,,False,0,True,1000,True,0.0
./expes/v2_2020-11-23_di_200-prng-1,daily_issda_250,250,rng-250,61,rng,num-start-81,81,536,3.2899675369262695,True,,True,1,False,1000,True,1.0
./expes/v2_2020-11-23_di_200-prng-1,daily_issda_250,250,rng-250,131,rng,num-start-131,131,536,2.8118221759796143,True,,True,1,False,1000,True,1.0
./expes/v2_2020-11-23_di_200-prng-1,daily_issda_250,250,rng-250,51,rng,num-start-41,41,536,1000.5734267234802,False,,False,0,True,1000,True,0.0
./expes/v2_2020-11-23_di_200-prng-1,daily_issda_250,250,rng-250,11,rng,num-start-41,41,536,0.6630587577819824,True,,True,1,False,1000,True,1.0
./expes/v2_2020-11-23_di_200-prng-1,daily_issda_250,250,rng-250,71,rng,num-start-141,141,536,2.968801736831665,True,,True,1,False,1000,True,1.0
./expes/v2_2020-11-23_di_200-prng-1,daily_issda_250,250,rng-250,21,rng,num-start-291,291,536,4.35736083984375,True,,True,1,False,1000,True,1.0
./expes/v2_2020-11-23_di_200-prng-1,daily_issda_250,250,rng-250,171,rng,num-start-261,261,536,4.234391689300537,True,,True,1,False,1000,True,1.0
./expes/v2_2020-11-23_di_200-prng-1,daily_issda_250,250,rng-250,11,rng,num-start-51,51,536,0.7505595684051514,True,,True,1,False,1000,True,1.0
./expes/v2_2020-11-23_di_200-prng-1,daily_issda_250,250,rng-250,31,rng,num-start-191,191,536,3.191114902496338,True,,True,1,False,1000,True,1.0
./expes/v2_2020-11-23_di_200-prng-1,daily_issda_250,250,rng-250,81,rng,num-start-181,181,536,2.9589552879333496,True,,True,1,False,1000,True,1.0
./expes/v2_2020-11-23_di_200-prng-1,daily_issda_250,250,rng-250,41,rng,num-start-221,221,536,3.7960784435272217,True,,True,1,False,1000,True,1.0
./expes/v2_2020-11-23_di_200-prng-1,daily_issda_250,250,rng-250,121,rng,num-start-71,71,536,1000.9137825965881,False,,False,0,True,1000,True,0.0
./expes/v2_2020-11-23_di_200-prng-1,daily_issda_250,250,rng-250,101,rng,num-start-141,141,536,3.020289421081543,True,,True,1,False,1000,True,1.0
./expes/v2_2020-11-23_di_200-prng-1,daily_issda_250,250,rng-250,101,rng,num-start-191,191,536,4.141411781311035,True,,True,1,False,1000,True,1.0
./expes/v2_2020-11-23_di_200-prng-1,daily_issda_250,250,rng-250,41,rng,num-start-271,271,536,4.240060329437256,True,,True,1,False,1000,True,1.0
./expes/v2_2020-11-23_di_200-prng-1,daily_issda_250,250,rng-250,181,rng,num-start-121,121,536,2.3128414154052734,True,,True,1,False,1000,True,1.0
./expes/v2_2020-11-23_di_200-prng-1,daily_issda_250,250,rng-250,161,rng,num-start-11,11,536,1000.1785776615143,False,,False,0,True,1000,True,0.0
./expes/v2_2020-11-23_di_200-prng-1,daily_issda_250,250,rng-250,31,rng,num-start-111,111,536,1.9478490352630615,True,,True,1,False,1000,True,1.0
./expes/v2_2020-11-23_di_200-prng-1,daily_issda_250,250,rng-250,181,rng,num-start-11,11,536,1000.1900818347931,False,,False,0,True,1000,True,0.0
./expes/v2_2020-11-23_di_200-prng-1,daily_issda_250,250,rng-250,241,rng,num-start-211,211,536,3.391493320465088,True,,True,1,False,1000,True,1.0
./expes/v2_2020-11-23_di_200-prng-1,daily_issda_250,250,rng-250,11,rng,num-start-61,61,536,0.9448726177215576,True,,True,1,False,1000,True,1.0
./expes/v2_2020-11-23_di_200-prng-1,daily_issda_250,250,rng-250,51,rng,num-start-281,281,536,5.478762865066528,True,,True,1,False,1000,True,1.0
./expes/v2_2020-11-23_di_200-prng-1,daily_issda_250,250,rng-250,131,rng,num-start-251,251,536,4.550671577453613,True,,True,1,False,1000,True,1.0
./expes/v2_2020-11-23_di_200-prng-1,daily_issda_250,250,rng-250,151,rng,num-start-31,31,536,1000.4209644794464,False,,False,0,True,1000,True,0.0
./expes/v2_2020-11-23_di_200-prng-1,daily_issda_250,250,rng-250,71,rng,num-start-151,151,536,2.9209015369415283,True,,True,1,False,1000,True,1.0
./expes/v2_2020-11-23_di_200-prng-1,daily_issda_250,250,rng-250,111,rng,num-start-71,71,536,1000.9596095085144,False,,False,0,True,1000,True,0.0
./expes/v2_2020-11-23_di_200-prng-1,daily_issda_250,250,rng-250,151,rng,num-start-151,151,536,3.0799198150634766,True,,True,1,False,1000,True,1.0
./expes/v2_2020-11-23_di_200-prng-1,daily_issda_250,250,rng-250,161,rng,num-start-241,241,536,4.800820827484131,True,,True,1,False,1000,True,1.0
./expes/v2_2020-11-23_di_200-prng-1,daily_issda_250,250,rng-250,121,rng,num-start-11,11,536,1000.1897523403168,False,,False,0,True,1000,True,0.0
./expes/v2_2020-11-23_di_200-prng-1,daily_issda_250,250,rng-250,111,rng,num-start-111,111,536,2.6729989051818848,True,,True,1,False,1000,True,1.0
./expes/v2_2020-11-23_di_200-prng-1,daily_issda_250,250,rng-250,71,rng,num-start-171,171,536,3.2813918590545654,True,,True,1,False,1000,True,1.0
./expes/v2_2020-11-23_di_200-prng-1,daily_issda_250,250,rng-250,141,rng,num-start-1,1,536,1.1363410949707031,False,,False,2,False,1000,True,1.0
./expes/v2_2020-11-23_di_200-prng-1,daily_issda_250,250,rng-250,1,rng,num-start-251,251,536,2.9386146068573,True,,True,1,False,1000,True,1.0
./expes/v2_2020-11-23_di_200-prng-1,daily_issda_250,250,rng-250,91,rng,num-start-251,251,536,4.9866931438446045,True,,True,1,False,1000,True,1.0
./expes/v2_2020-11-23_di_200-prng-1,daily_issda_250,250,rng-250,211,rng,num-start-121,121,536,2.1597321033477783,True,,True,1,False,1000,True,1.0
./expes/v2_2020-11-23_di_200-prng-1,daily_issda_250,250,rng-250,11,rng,num-start-291,291,536,5.53336501121521,True,,True,1,False,1000,True,1.0
./expes/v2_2020-11-23_di_200-prng-1,daily_issda_250,250,rng-250,101,rng,num-start-201,201,536,4.190759181976318,True,,True,1,False,1000,True,1.0
./expes/v2_2020-11-23_di_200-prng-1,daily_issda_250,250,rng-250,121,rng,num-start-241,241,536,4.801173210144043,True,,True,1,False,1000,True,1.0
./expes/v2_2020-11-23_di_200-prng-1,daily_issda_250,250,rng-250,11,rng,num-start-291,291,536,5.441531419754028,True,,True,1,False,1000,True,1.0
./expes/v2_2020-11-23_di_200-prng-1,daily_issda_250,250,rng-250,221,rng,num-start-91,91,536,1.475142002105713,True,,True,1,False,1000,True,1.0
./expes/v2_2020-11-23_di_200-prng-1,daily_issda_250,250,rng-250,51,rng,num-start-181,181,536,3.339627504348755,True,,True,1,False,1000,True,1.0
./expes/v2_2020-11-23_di_200-prng-1,daily_issda_250,250,rng-250,21,rng,num-start-71,71,536,1.3608894348144531,True,,True,1,False,1000,True,1.0
./expes/v2_2020-11-23_di_200-prng-1,daily_issda_250,250,rng-250,21,rng,num-start-211,211,536,3.939675807952881,True,,True,1,False,1000,True,1.0
./expes/v2_2020-11-23_di_200-prng-1,daily_issda_250,250,rng-250,61,rng,num-start-251,251,536,4.532282590866089,True,,True,1,False,1000,True,1.0
./expes/v2_2020-11-23_di_200-prng-1,daily_issda_250,250,rng-250,21,rng,num-start-171,171,536,2.7586429119110107,True,,True,1,False,1000,True,1.0
./expes/v2_2020-11-23_di_200-prng-1,daily_issda_250,250,rng-250,141,rng,num-start-61,61,536,1000.7692267894745,False,,False,0,True,1000,True,0.0
./expes/v2_2020-11-23_di_200-prng-1,daily_issda_250,250,rng-250,231,rng,num-start-181,181,536,2.9288489818573,True,,True,1,False,1000,True,1.0
./expes/v2_2020-11-23_di_200-prng-1,daily_issda_250,250,rng-250,181,rng,num-start-21,21,536,1000.3345501422882,False,,False,0,True,1000,True,0.0
./expes/v2_2020-11-23_di_200-prng-1,daily_issda_250,250,rng-250,41,rng,num-start-81,81,536,1.7860445976257324,True,,True,1,False,1000,True,1.0
./expes/v2_2020-11-23_di_200-prng-1,daily_issda_250,250,rng-250,121,rng,num-start-111,111,536,4.16428804397583,True,,True,1,False,1000,True,1.0
./expes/v2_2020-11-23_di_200-prng-1,daily_issda_250,250,rng-250,21,rng,num-start-1,1,536,1.0269010066986084,False,,False,2,False,1000,True,1.0
./expes/v2_2020-11-23_di_200-prng-1,daily_issda_250,250,rng-250,241,rng,num-start-81,81,536,1.3110644817352295,True,,True,1,False,1000,True,1.0
./expes/v2_2020-11-23_di_200-prng-1,daily_issda_250,250,rng-250,51,rng,num-start-11,11,536,1000.2901425361633,False,,False,0,True,1000,True,0.0
./expes/v2_2020-11-23_di_200-prng-1,daily_issda_250,250,rng-250,231,rng,num-start-171,171,536,2.7955706119537354,True,,True,1,False,1000,True,1.0
./expes/v2_2020-11-23_di_200-prng-1,daily_issda_250,250,rng-250,111,rng,num-start-91,91,536,24.975138187408447,True,,True,1,False,1000,True,1.0
./expes/v2_2020-11-23_di_200-prng-1,daily_issda_250,250,rng-250,51,rng,num-start-201,201,536,3.770944833755493,True,,True,1,False,1000,True,1.0
