expe,clients,clients_size,clients_subset,agg_size,method,days,days_size,days_total,time,valid,valid_sum,success,nsols,wall_hit,wall_time,pooled,valid_sums
./expes/v2_2020-11-04_hbh_300-prng-1,30_base_hphc_300,300,first-300,241,rng,num-start-551,551,17520,24.90204930305481,True,,True,1,False,1000,True,1.0
./expes/v2_2020-11-04_hbh_300-prng-1,30_base_hphc_300,300,first-300,121,rng,num-start-611,611,17520,27.735729217529297,True,,True,1,False,1000,True,1.0
./expes/v2_2020-11-04_hbh_300-prng-1,30_base_hphc_300,300,first-300,141,rng,num-start-581,581,17520,27.36841082572937,True,,True,1,False,1000,True,1.0
./expes/v2_2020-11-04_hbh_300-prng-1,30_base_hphc_300,300,first-300,21,rng,num-start-601,601,17520,26.190553903579712,True,,True,1,False,1000,True,1.0
./expes/v2_2020-11-04_hbh_300-prng-1,30_base_hphc_300,300,first-300,31,rng,num-start-171,171,17520,7.664592027664185,True,,True,1,False,1000,True,1.0
./expes/v2_2020-11-04_hbh_300-prng-1,30_base_hphc_300,300,first-300,121,rng,num-start-71,71,17520,1002.5308516025543,False,,False,0,True,1000,True,0.0
./expes/v2_2020-11-04_hbh_300-prng-1,30_base_hphc_300,300,first-300,91,rng,num-start-271,271,17520,12.554206132888794,True,,True,1,False,1000,True,1.0
./expes/v2_2020-11-04_hbh_300-prng-1,30_base_hphc_300,300,first-300,71,rng,num-start-681,681,17520,32.54612326622009,True,,True,1,False,1000,True,1.0
./expes/v2_2020-11-04_hbh_300-prng-1,30_base_hphc_300,300,first-300,151,rng,num-start-301,301,17520,12.717386245727539,True,,True,1,False,1000,True,1.0
./expes/v2_2020-11-04_hbh_300-prng-1,30_base_hphc_300,300,first-300,61,rng,num-start-421,421,17520,17.813085317611694,True,,True,1,False,1000,True,1.0
./expes/v2_2020-11-04_hbh_300-prng-1,30_base_hphc_300,300,first-300,131,rng,num-start-671,671,17520,30.516057014465332,True,,True,1,False,1000,True,1.0
./expes/v2_2020-11-04_hbh_300-prng-1,30_base_hphc_300,300,first-300,101,rng,num-start-471,471,17520,21.505758047103882,True,,True,1,False,1000,True,1.0
./expes/v2_2020-11-04_hbh_300-prng-1,30_base_hphc_300,300,first-300,191,rng,num-start-91,91,17520,1003.3178308010101,False,,False,0,True,1000,True,0.0
./expes/v2_2020-11-04_hbh_300-prng-1,30_base_hphc_300,300,first-300,51,rng,num-start-101,101,17520,13.607637166976929,True,,True,1,False,1000,True,1.0
./expes/v2_2020-11-04_hbh_300-prng-1,30_base_hphc_300,300,first-300,261,rng,num-start-211,211,17520,9.636218547821045,True,,True,1,False,1000,True,1.0
./expes/v2_2020-11-04_hbh_300-prng-1,30_base_hphc_300,300,first-300,211,rng,num-start-441,441,17520,19.48322868347168,True,,True,1,False,1000,True,1.0
./expes/v2_2020-11-04_hbh_300-prng-1,30_base_hphc_300,300,first-300,171,rng,num-start-851,851,17520,38.560335636138916,True,,True,1,False,1000,True,1.0
./expes/v2_2020-11-04_hbh_300-prng-1,30_base_hphc_300,300,first-300,241,rng,num-start-581,581,17520,25.033689975738525,True,,True,1,False,1000,True,1.0
./expes/v2_2020-11-04_hbh_300-prng-1,30_base_hphc_300,300,first-300,91,rng,num-start-701,701,17520,32.930055379867554,True,,True,1,False,1000,True,1.0
./expes/v2_2020-11-04_hbh_300-prng-1,30_base_hphc_300,300,first-300,291,rng,num-start-601,601,17520,24.137598037719727,True,,True,1,False,1000,True,1.0
./expes/v2_2020-11-04_hbh_300-prng-1,30_base_hphc_300,300,first-300,201,rng,num-start-321,321,17520,14.105977058410645,True,,True,1,False,1000,True,1.0
./expes/v2_2020-11-04_hbh_300-prng-1,30_base_hphc_300,300,first-300,91,rng,num-start-171,171,17520,8.29865550994873,True,,True,1,False,1000,True,1.0
./expes/v2_2020-11-04_hbh_300-prng-1,30_base_hphc_300,300,first-300,41,rng,num-start-241,241,17520,10.117694854736328,True,,True,1,False,1000,True,1.0
./expes/v2_2020-11-04_hbh_300-prng-1,30_base_hphc_300,300,first-300,21,rng,num-start-251,251,17520,10.604498863220215,True,,True,1,False,1000,True,1.0
./expes/v2_2020-11-04_hbh_300-prng-1,30_base_hphc_300,300,first-300,111,rng,num-start-361,361,17520,17.385828971862793,True,,True,1,False,1000,True,1.0
./expes/v2_2020-11-04_hbh_300-prng-1,30_base_hphc_300,300,first-300,151,rng,num-start-211,211,17520,9.912596225738525,True,,True,1,False,1000,True,1.0
./expes/v2_2020-11-04_hbh_300-prng-1,30_base_hphc_300,300,first-300,71,rng,num-start-121,121,17520,8.397622346878052,True,,True,1,False,1000,True,1.0
./expes/v2_2020-11-04_hbh_300-prng-1,30_base_hphc_300,300,first-300,71,rng,num-start-531,531,17520,24.591387033462524,True,,True,1,False,1000,True,1.0
./expes/v2_2020-11-04_hbh_300-prng-1,30_base_hphc_300,300,first-300,291,rng,num-start-371,371,17520,14.173068284988403,True,,True,1,False,1000,True,1.0
./expes/v2_2020-11-04_hbh_300-prng-1,30_base_hphc_300,300,first-300,181,rng,num-start-211,211,17520,10.672012567520142,True,,True,1,False,1000,True,1.0
./expes/v2_2020-11-04_hbh_300-prng-1,30_base_hphc_300,300,first-300,271,rng,num-start-391,391,17520,15.332943439483643,True,,True,1,False,1000,True,1.0
./expes/v2_2020-11-04_hbh_300-prng-1,30_base_hphc_300,300,first-300,241,rng,num-start-471,471,17520,19.915449857711792,True,,True,1,False,1000,True,1.0
./expes/v2_2020-11-04_hbh_300-prng-1,30_base_hphc_300,300,first-300,131,rng,num-start-551,551,17520,26.19790554046631,True,,True,1,False,1000,True,1.0
./expes/v2_2020-11-04_hbh_300-prng-1,30_base_hphc_300,300,first-300,191,rng,num-start-821,821,17520,38.99031114578247,True,,True,1,False,1000,True,1.0
./expes/v2_2020-11-04_hbh_300-prng-1,30_base_hphc_300,300,first-300,281,rng,num-start-451,451,17520,18.10484480857849,True,,True,1,False,1000,True,1.0
./expes/v2_2020-11-04_hbh_300-prng-1,30_base_hphc_300,300,first-300,261,rng,num-start-481,481,17520,20.060824394226074,True,,True,1,False,1000,True,1.0
./expes/v2_2020-11-04_hbh_300-prng-1,30_base_hphc_300,300,first-300,141,rng,num-start-971,971,17520,43.58998131752014,True,,True,1,False,1000,True,1.0
./expes/v2_2020-11-04_hbh_300-prng-1,30_base_hphc_300,300,first-300,101,rng,num-start-601,601,17520,29.36854362487793,True,,True,1,False,1000,True,1.0
./expes/v2_2020-11-04_hbh_300-prng-1,30_base_hphc_300,300,first-300,91,rng,num-start-1,1,17520,0.07265996932983398,False,,False,2,False,1000,True,1.0
./expes/v2_2020-11-04_hbh_300-prng-1,30_base_hphc_300,300,first-300,241,rng,num-start-841,841,17520,37.895684480667114,True,,True,1,False,1000,True,1.0
./expes/v2_2020-11-04_hbh_300-prng-1,30_base_hphc_300,300,first-300,271,rng,num-start-31,31,17520,1001.1531510353088,False,,False,0,True,1000,True,0.0
./expes/v2_2020-11-04_hbh_300-prng-1,30_base_hphc_300,300,first-300,21,rng,num-start-1,1,17520,0.06011033058166504,False,,False,2,False,1000,True,1.0
./expes/v2_2020-11-04_hbh_300-prng-1,30_base_hphc_300,300,first-300,161,rng,num-start-601,601,17520,28.81996774673462,True,,True,1,False,1000,True,1.0
./expes/v2_2020-11-04_hbh_300-prng-1,30_base_hphc_300,300,first-300,261,rng,num-start-461,461,17520,18.57880139350891,True,,True,1,False,1000,True,1.0
./expes/v2_2020-11-04_hbh_300-prng-1,30_base_hphc_300,300,first-300,261,rng,num-start-891,891,17520,36.124029874801636,True,,True,1,False,1000,True,1.0
./expes/v2_2020-11-04_hbh_300-prng-1,30_base_hphc_300,300,first-300,171,rng,num-start-81,81,17520,1002.8708906173706,False,,False,0,True,1000,True,0.0
./expes/v2_2020-11-04_hbh_300-prng-1,30_base_hphc_300,300,first-300,171,rng,num-start-201,201,17520,9.090516328811646,True,,True,1,False,1000,True,1.0
./expes/v2_2020-11-04_hbh_300-prng-1,30_base_hphc_300,300,first-300,171,rng,num-start-321,321,17520,14.017914295196533,True,,True,1,False,1000,True,1.0
./expes/v2_2020-11-04_hbh_300-prng-1,30_base_hphc_300,300,first-300,201,rng,num-start-171,171,17520,8.3621084690094,True,,True,1,False,1000,True,1.0
./expes/v2_2020-11-04_hbh_300-prng-1,30_base_hphc_300,300,first-300,111,rng,num-start-991,991,17520,44.2789146900177,True,,True,1,False,1000,True,1.0
./expes/v2_2020-11-04_hbh_300-prng-1,30_base_hphc_300,300,first-300,71,rng,num-start-281,281,17520,13.039891004562378,True,,True,1,False,1000,True,1.0
./expes/v2_2020-11-04_hbh_300-prng-1,30_base_hphc_300,300,first-300,281,rng,num-start-321,321,17520,12.318124771118164,True,,True,1,False,1000,True,1.0
./expes/v2_2020-11-04_hbh_300-prng-1,30_base_hphc_300,300,first-300,271,rng,num-start-791,791,17520,32.87837314605713,True,,True,1,False,1000,True,1.0
./expes/v2_2020-11-04_hbh_300-prng-1,30_base_hphc_300,300,first-300,161,rng,num-start-371,371,17520,16.830101251602173,True,,True,1,False,1000,True,1.0
./expes/v2_2020-11-04_hbh_300-prng-1,30_base_hphc_300,300,first-300,61,rng,num-start-381,381,17520,15.2748122215271,True,,True,1,False,1000,True,1.0
./expes/v2_2020-11-04_hbh_300-prng-1,30_base_hphc_300,300,first-300,141,rng,num-start-721,721,17520,34.11012578010559,True,,True,1,False,1000,True,1.0
./expes/v2_2020-11-04_hbh_300-prng-1,30_base_hphc_300,300,first-300,241,rng,num-start-451,451,17520,18.370644569396973,True,,True,1,False,1000,True,1.0
./expes/v2_2020-11-04_hbh_300-prng-1,30_base_hphc_300,300,first-300,251,rng,num-start-61,61,17520,1002.1479671001434,False,,False,0,True,1000,True,0.0
