expe,clients,clients_size,clients_subset,agg_size,method,days,days_size,days_total,time,valid,valid_sum,success,nsols,wall_hit,wall_time,pooled,valid_sums
./expes/v2_2020-11-04_hbh_300-prng-1,30_base_hphc_300,300,first-300,11,rng,num-start-441,441,17520,18.326733827590942,True,,True,1,False,1000,True,1.0
./expes/v2_2020-11-04_hbh_300-prng-1,30_base_hphc_300,300,first-300,161,rng,num-start-821,821,17520,38.093477725982666,True,,True,1,False,1000,True,1.0
./expes/v2_2020-11-04_hbh_300-prng-1,30_base_hphc_300,300,first-300,181,rng,num-start-221,221,17520,10.404536724090576,True,,True,1,False,1000,True,1.0
./expes/v2_2020-11-04_hbh_300-prng-1,30_base_hphc_300,300,first-300,201,rng,num-start-891,891,17520,44.6802294254303,True,,True,1,False,1000,True,1.0
./expes/v2_2020-11-04_hbh_300-prng-1,30_base_hphc_300,300,first-300,131,rng,num-start-761,761,17520,33.642287254333496,True,,True,1,False,1000,True,1.0
./expes/v2_2020-11-04_hbh_300-prng-1,30_base_hphc_300,300,first-300,291,rng,num-start-231,231,17520,9.426540851593018,True,,True,1,False,1000,True,1.0
./expes/v2_2020-11-04_hbh_300-prng-1,30_base_hphc_300,300,first-300,71,rng,num-start-41,41,17520,1001.566826581955,False,,False,0,True,1000,True,0.0
./expes/v2_2020-11-04_hbh_300-prng-1,30_base_hphc_300,300,first-300,141,rng,num-start-811,811,17520,37.81686234474182,True,,True,1,False,1000,True,1.0
./expes/v2_2020-11-04_hbh_300-prng-1,30_base_hphc_300,300,first-300,181,rng,num-start-741,741,17520,34.497525691986084,True,,True,1,False,1000,True,1.0
./expes/v2_2020-11-04_hbh_300-prng-1,30_base_hphc_300,300,first-300,51,rng,num-start-1,1,17520,0.07318353652954102,False,,False,2,False,1000,True,1.0
./expes/v2_2020-11-04_hbh_300-prng-1,30_base_hphc_300,300,first-300,171,rng,num-start-981,981,17520,44.751763343811035,True,,True,1,False,1000,True,1.0
./expes/v2_2020-11-04_hbh_300-prng-1,30_base_hphc_300,300,first-300,21,rng,num-start-11,11,17520,1000.5514068603516,False,,False,0,True,1000,True,0.0
./expes/v2_2020-11-04_hbh_300-prng-1,30_base_hphc_300,300,first-300,221,rng,num-start-811,811,17520,35.43274140357971,True,,True,1,False,1000,True,1.0
./expes/v2_2020-11-04_hbh_300-prng-1,30_base_hphc_300,300,first-300,131,rng,num-start-511,511,17520,23.44853639602661,True,,True,1,False,1000,True,1.0
./expes/v2_2020-11-04_hbh_300-prng-1,30_base_hphc_300,300,first-300,161,rng,num-start-31,31,17520,1001.1365864276886,False,,False,0,True,1000,True,0.0
./expes/v2_2020-11-04_hbh_300-prng-1,30_base_hphc_300,300,first-300,231,rng,num-start-621,621,17520,27.362350940704346,True,,True,1,False,1000,True,1.0
./expes/v2_2020-11-04_hbh_300-prng-1,30_base_hphc_300,300,first-300,151,rng,num-start-411,411,17520,18.755473852157593,True,,True,1,False,1000,True,1.0
./expes/v2_2020-11-04_hbh_300-prng-1,30_base_hphc_300,300,first-300,111,rng,num-start-761,761,17520,35.90063142776489,True,,True,1,False,1000,True,1.0
./expes/v2_2020-11-04_hbh_300-prng-1,30_base_hphc_300,300,first-300,111,rng,num-start-541,541,17520,25.36104440689087,True,,True,1,False,1000,True,1.0
./expes/v2_2020-11-04_hbh_300-prng-1,30_base_hphc_300,300,first-300,131,rng,num-start-71,71,17520,1002.6119494438171,False,,False,0,True,1000,True,0.0
./expes/v2_2020-11-04_hbh_300-prng-1,30_base_hphc_300,300,first-300,211,rng,num-start-551,551,17520,25.121607542037964,True,,True,1,False,1000,True,1.0
./expes/v2_2020-11-04_hbh_300-prng-1,30_base_hphc_300,300,first-300,171,rng,num-start-501,501,17520,24.22997236251831,True,,True,1,False,1000,True,1.0
./expes/v2_2020-11-04_hbh_300-prng-1,30_base_hphc_300,300,first-300,171,rng,num-start-771,771,17520,36.35159468650818,True,,True,1,False,1000,True,1.0
./expes/v2_2020-11-04_hbh_300-prng-1,30_base_hphc_300,300,first-300,121,rng,num-start-871,871,17520,43.63790941238403,True,,True,1,False,1000,True,1.0
./expes/v2_2020-11-04_hbh_300-prng-1,30_base_hphc_300,300,first-300,111,rng,num-start-491,491,17520,23.338290691375732,True,,True,1,False,1000,True,1.0
./expes/v2_2020-11-04_hbh_300-prng-1,30_base_hphc_300,300,first-300,241,rng,num-start-91,91,17520,27.964909553527832,True,,True,1,False,1000,True,1.0
./expes/v2_2020-11-04_hbh_300-prng-1,30_base_hphc_300,300,first-300,151,rng,num-start-401,401,17520,18.26100778579712,True,,True,1,False,1000,True,1.0
./expes/v2_2020-11-04_hbh_300-prng-1,30_base_hphc_300,300,first-300,251,rng,num-start-1,1,17520,0.07594060897827148,False,,False,2,False,1000,True,1.0
./expes/v2_2020-11-04_hbh_300-prng-1,30_base_hphc_300,300,first-300,161,rng,num-start-411,411,17520,17.926790237426758,True,,True,1,False,1000,True,1.0
./expes/v2_2020-11-04_hbh_300-prng-1,30_base_hphc_300,300,first-300,181,rng,num-start-841,841,17520,40.23387312889099,True,,True,1,False,1000,True,1.0
./expes/v2_2020-11-04_hbh_300-prng-1,30_base_hphc_300,300,first-300,111,rng,num-start-421,421,17520,20.407623052597046,True,,True,1,False,1000,True,1.0
./expes/v2_2020-11-04_hbh_300-prng-1,30_base_hphc_300,300,first-300,121,rng,num-start-961,961,17520,48.96153998374939,True,,True,1,False,1000,True,1.0
./expes/v2_2020-11-04_hbh_300-prng-1,30_base_hphc_300,300,first-300,181,rng,num-start-471,471,17520,23.24276614189148,True,,True,1,False,1000,True,1.0
./expes/v2_2020-11-04_hbh_300-prng-1,30_base_hphc_300,300,first-300,291,rng,num-start-21,21,17520,1.7270746231079102,True,,True,1,False,1000,True,1.0
./expes/v2_2020-11-04_hbh_300-prng-1,30_base_hphc_300,300,first-300,221,rng,num-start-111,111,17520,10.979847192764282,True,,True,1,False,1000,True,1.0
./expes/v2_2020-11-04_hbh_300-prng-1,30_base_hphc_300,300,first-300,51,rng,num-start-741,741,17520,32.313679695129395,True,,True,1,False,1000,True,1.0
./expes/v2_2020-11-04_hbh_300-prng-1,30_base_hphc_300,300,first-300,21,rng,num-start-441,441,17520,19.06618070602417,True,,True,1,False,1000,True,1.0
./expes/v2_2020-11-04_hbh_300-prng-1,30_base_hphc_300,300,first-300,221,rng,num-start-861,861,17520,39.698221921920776,True,,True,1,False,1000,True,1.0
./expes/v2_2020-11-04_hbh_300-prng-1,30_base_hphc_300,300,first-300,41,rng,num-start-881,881,17520,39.12742805480957,True,,True,1,False,1000,True,1.0
./expes/v2_2020-11-04_hbh_300-prng-1,30_base_hphc_300,300,first-300,261,rng,num-start-321,321,17520,13.597363471984863,True,,True,1,False,1000,True,1.0
./expes/v2_2020-11-04_hbh_300-prng-1,30_base_hphc_300,300,first-300,221,rng,num-start-31,31,17520,1001.197603225708,False,,False,0,True,1000,True,0.0
