expe,clients,clients_size,clients_subset,agg_size,method,days,days_size,days_total,time,valid,valid_sum,success,nsols,wall_hit,wall_time,pooled,valid_sums
./expes/v2_2020-11-04_hbh_300-prng-1,30_base_hphc_300,300,first-300,241,rng,num-start-991,991,17520,42.98466873168945,True,,True,1,False,1000,True,1.0
./expes/v2_2020-11-04_hbh_300-prng-1,30_base_hphc_300,300,first-300,131,rng,num-start-901,901,17520,40.76750993728638,True,,True,1,False,1000,True,1.0
./expes/v2_2020-11-04_hbh_300-prng-1,30_base_hphc_300,300,first-300,261,rng,num-start-961,961,17520,42.89128255844116,True,,True,1,False,1000,True,1.0
./expes/v2_2020-11-04_hbh_300-prng-1,30_base_hphc_300,300,first-300,71,rng,num-start-11,11,17520,1000.4454851150513,False,,False,0,True,1000,True,0.0
./expes/v2_2020-11-04_hbh_300-prng-1,30_base_hphc_300,300,first-300,11,rng,num-start-721,721,17520,29.842384099960327,True,,True,1,False,1000,True,1.0
./expes/v2_2020-11-04_hbh_300-prng-1,30_base_hphc_300,300,first-300,191,rng,num-start-21,21,17520,1000.8065073490143,False,,False,0,True,1000,True,0.0
./expes/v2_2020-11-04_hbh_300-prng-1,30_base_hphc_300,300,first-300,71,rng,num-start-991,991,17520,43.74744725227356,True,,True,1,False,1000,True,1.0
./expes/v2_2020-11-04_hbh_300-prng-1,30_base_hphc_300,300,first-300,181,rng,num-start-411,411,17520,18.107242822647095,True,,True,1,False,1000,True,1.0
./expes/v2_2020-11-04_hbh_300-prng-1,30_base_hphc_300,300,first-300,41,rng,num-start-741,741,17520,32.88800573348999,True,,True,1,False,1000,True,1.0
./expes/v2_2020-11-04_hbh_300-prng-1,30_base_hphc_300,300,first-300,161,rng,num-start-591,591,17520,30.225866317749023,True,,True,1,False,1000,True,1.0
./expes/v2_2020-11-04_hbh_300-prng-1,30_base_hphc_300,300,first-300,71,rng,num-start-311,311,17520,13.994444847106934,True,,True,1,False,1000,True,1.0
./expes/v2_2020-11-04_hbh_300-prng-1,30_base_hphc_300,300,first-300,181,rng,num-start-561,561,17520,29.172014236450195,True,,True,1,False,1000,True,1.0
./expes/v2_2020-11-04_hbh_300-prng-1,30_base_hphc_300,300,first-300,151,rng,num-start-671,671,17520,31.025184154510498,True,,True,1,False,1000,True,1.0
./expes/v2_2020-11-04_hbh_300-prng-1,30_base_hphc_300,300,first-300,281,rng,num-start-101,101,17520,4.184093952178955,True,,True,1,False,1000,True,1.0
./expes/v2_2020-11-04_hbh_300-prng-1,30_base_hphc_300,300,first-300,151,rng,num-start-611,611,17520,30.93464159965515,True,,True,1,False,1000,True,1.0
./expes/v2_2020-11-04_hbh_300-prng-1,30_base_hphc_300,300,first-300,101,rng,num-start-691,691,17520,34.61508846282959,True,,True,1,False,1000,True,1.0
./expes/v2_2020-11-04_hbh_300-prng-1,30_base_hphc_300,300,first-300,171,rng,num-start-511,511,17520,23.465885877609253,True,,True,1,False,1000,True,1.0
./expes/v2_2020-11-04_hbh_300-prng-1,30_base_hphc_300,300,first-300,261,rng,num-start-151,151,17520,6.48094916343689,True,,True,1,False,1000,True,1.0
./expes/v2_2020-11-04_hbh_300-prng-1,30_base_hphc_300,300,first-300,11,rng,num-start-851,851,17520,33.186068058013916,True,,True,1,False,1000,True,1.0
./expes/v2_2020-11-04_hbh_300-prng-1,30_base_hphc_300,300,first-300,1,rng,num-start-1,1,17520,0.048758745193481445,True,,True,1,False,1000,True,1.0
./expes/v2_2020-11-04_hbh_300-prng-1,30_base_hphc_300,300,first-300,211,rng,num-start-751,751,17520,35.617618560791016,True,,True,1,False,1000,True,1.0
./expes/v2_2020-11-04_hbh_300-prng-1,30_base_hphc_300,300,first-300,1,rng,num-start-851,851,17520,31.47354507446289,True,,True,1,False,1000,True,1.0
./expes/v2_2020-11-04_hbh_300-prng-1,30_base_hphc_300,300,first-300,241,rng,num-start-771,771,17520,34.72178888320923,True,,True,1,False,1000,True,1.0
./expes/v2_2020-11-04_hbh_300-prng-1,30_base_hphc_300,300,first-300,261,rng,num-start-161,161,17520,7.683331489562988,True,,True,1,False,1000,True,1.0
./expes/v2_2020-11-04_hbh_300-prng-1,30_base_hphc_300,300,first-300,271,rng,num-start-181,181,17520,7.805423021316528,True,,True,1,False,1000,True,1.0
./expes/v2_2020-11-04_hbh_300-prng-1,30_base_hphc_300,300,first-300,281,rng,num-start-801,801,17520,34.714759349823,True,,True,1,False,1000,True,1.0
./expes/v2_2020-11-04_hbh_300-prng-1,30_base_hphc_300,300,first-300,171,rng,num-start-531,531,17520,26.949376583099365,True,,True,1,False,1000,True,1.0
./expes/v2_2020-11-04_hbh_300-prng-1,30_base_hphc_300,300,first-300,111,rng,num-start-51,51,17520,1001.9325060844421,False,,False,0,True,1000,True,0.0
./expes/v2_2020-11-04_hbh_300-prng-1,30_base_hphc_300,300,first-300,261,rng,num-start-351,351,17520,15.221185445785522,True,,True,1,False,1000,True,1.0
./expes/v2_2020-11-04_hbh_300-prng-1,30_base_hphc_300,300,first-300,151,rng,num-start-911,911,17520,44.13187551498413,True,,True,1,False,1000,True,1.0
./expes/v2_2020-11-04_hbh_300-prng-1,30_base_hphc_300,300,first-300,61,rng,num-start-621,621,17520,28.589094161987305,True,,True,1,False,1000,True,1.0
./expes/v2_2020-11-04_hbh_300-prng-1,30_base_hphc_300,300,first-300,21,rng,num-start-871,871,17520,37.8302948474884,True,,True,1,False,1000,True,1.0
./expes/v2_2020-11-04_hbh_300-prng-1,30_base_hphc_300,300,first-300,231,rng,num-start-101,101,17520,6.713427782058716,True,,True,1,False,1000,True,1.0
./expes/v2_2020-11-04_hbh_300-prng-1,30_base_hphc_300,300,first-300,121,rng,num-start-461,461,17520,22.68692922592163,True,,True,1,False,1000,True,1.0
./expes/v2_2020-11-04_hbh_300-prng-1,30_base_hphc_300,300,first-300,161,rng,num-start-861,861,17520,40.44025921821594,True,,True,1,False,1000,True,1.0
./expes/v2_2020-11-04_hbh_300-prng-1,30_base_hphc_300,300,first-300,121,rng,num-start-881,881,17520,42.79355597496033,True,,True,1,False,1000,True,1.0
./expes/v2_2020-11-04_hbh_300-prng-1,30_base_hphc_300,300,first-300,101,rng,num-start-321,321,17520,14.495879650115967,True,,True,1,False,1000,True,1.0
./expes/v2_2020-11-04_hbh_300-prng-1,30_base_hphc_300,300,first-300,191,rng,num-start-401,401,17520,19.920427083969116,True,,True,1,False,1000,True,1.0
./expes/v2_2020-11-04_hbh_300-prng-1,30_base_hphc_300,300,first-300,1,rng,num-start-951,951,17520,34.86356019973755,True,,True,1,False,1000,True,1.0
./expes/v2_2020-11-04_hbh_300-prng-1,30_base_hphc_300,300,first-300,31,rng,num-start-371,371,17520,15.788695335388184,True,,True,1,False,1000,True,1.0
./expes/v2_2020-11-04_hbh_300-prng-1,30_base_hphc_300,300,first-300,1,rng,num-start-261,261,17520,9.528920650482178,True,,True,1,False,1000,True,1.0
./expes/v2_2020-11-04_hbh_300-prng-1,30_base_hphc_300,300,first-300,151,rng,num-start-951,951,17520,46.096128940582275,True,,True,1,False,1000,True,1.0
./expes/v2_2020-11-04_hbh_300-prng-1,30_base_hphc_300,300,first-300,41,rng,num-start-281,281,17520,12.234090089797974,True,,True,1,False,1000,True,1.0
./expes/v2_2020-11-04_hbh_300-prng-1,30_base_hphc_300,300,first-300,291,rng,num-start-861,861,17520,31.050928115844727,True,,True,1,False,1000,True,1.0
./expes/v2_2020-11-04_hbh_300-prng-1,30_base_hphc_300,300,first-300,141,rng,num-start-31,31,17520,1001.1167356967926,False,,False,0,True,1000,True,0.0
./expes/v2_2020-11-04_hbh_300-prng-1,30_base_hphc_300,300,first-300,251,rng,num-start-381,381,17520,16.09237313270569,True,,True,1,False,1000,True,1.0
./expes/v2_2020-11-04_hbh_300-prng-1,30_base_hphc_300,300,first-300,121,rng,num-start-721,721,17520,34.52051901817322,True,,True,1,False,1000,True,1.0
./expes/v2_2020-11-04_hbh_300-prng-1,30_base_hphc_300,300,first-300,271,rng,num-start-401,401,17520,19.345170974731445,True,,True,1,False,1000,True,1.0
./expes/v2_2020-11-04_hbh_300-prng-1,30_base_hphc_300,300,first-300,91,rng,num-start-731,731,17520,33.93949627876282,True,,True,1,False,1000,True,1.0
