expe,clients,clients_size,clients_subset,agg_size,method,days,days_size,days_total,time,valid,valid_sum,success,nsols,wall_hit,wall_time,pooled,valid_sums
./expes/v2_2020-11-04_hbh_300-prng-1,30_base_hphc_300,300,first-300,251,rng,num-start-961,961,17520,39.71993637084961,True,,True,1,False,1000,True,1.0
./expes/v2_2020-11-04_hbh_300-prng-1,30_base_hphc_300,300,first-300,121,rng,num-start-601,601,17520,29.295772552490234,True,,True,1,False,1000,True,1.0
./expes/v2_2020-11-04_hbh_300-prng-1,30_base_hphc_300,300,first-300,181,rng,num-start-391,391,17520,18.186253547668457,True,,True,1,False,1000,True,1.0
./expes/v2_2020-11-04_hbh_300-prng-1,30_base_hphc_300,300,first-300,161,rng,num-start-81,81,17520,1002.9594075679779,False,,False,0,True,1000,True,0.0
./expes/v2_2020-11-04_hbh_300-prng-1,30_base_hphc_300,300,first-300,91,rng,num-start-231,231,17520,10.872083187103271,True,,True,1,False,1000,True,1.0
./expes/v2_2020-11-04_hbh_300-prng-1,30_base_hphc_300,300,first-300,261,rng,num-start-291,291,17520,13.186872005462646,True,,True,1,False,1000,True,1.0
./expes/v2_2020-11-04_hbh_300-prng-1,30_base_hphc_300,300,first-300,201,rng,num-start-831,831,17520,39.728015661239624,True,,True,1,False,1000,True,1.0
./expes/v2_2020-11-04_hbh_300-prng-1,30_base_hphc_300,300,first-300,261,rng,num-start-611,611,17520,26.904865264892578,True,,True,1,False,1000,True,1.0
./expes/v2_2020-11-04_hbh_300-prng-1,30_base_hphc_300,300,first-300,231,rng,num-start-641,641,17520,28.836667776107788,True,,True,1,False,1000,True,1.0
./expes/v2_2020-11-04_hbh_300-prng-1,30_base_hphc_300,300,first-300,1,rng,num-start-761,761,17520,28.286811113357544,True,,True,1,False,1000,True,1.0
./expes/v2_2020-11-04_hbh_300-prng-1,30_base_hphc_300,300,first-300,171,rng,num-start-221,221,17520,10.771109819412231,True,,True,1,False,1000,True,1.0
./expes/v2_2020-11-04_hbh_300-prng-1,30_base_hphc_300,300,first-300,271,rng,num-start-111,111,17520,4.7938392162323,True,,True,1,False,1000,True,1.0
./expes/v2_2020-11-04_hbh_300-prng-1,30_base_hphc_300,300,first-300,181,rng,num-start-881,881,17520,43.86316514015198,True,,True,1,False,1000,True,1.0
./expes/v2_2020-11-04_hbh_300-prng-1,30_base_hphc_300,300,first-300,211,rng,num-start-851,851,17520,42.691917181015015,True,,True,1,False,1000,True,1.0
./expes/v2_2020-11-04_hbh_300-prng-1,30_base_hphc_300,300,first-300,171,rng,num-start-791,791,17520,37.78033804893494,True,,True,1,False,1000,True,1.0
./expes/v2_2020-11-04_hbh_300-prng-1,30_base_hphc_300,300,first-300,211,rng,num-start-611,611,17520,28.086302757263184,True,,True,1,False,1000,True,1.0
./expes/v2_2020-11-04_hbh_300-prng-1,30_base_hphc_300,300,first-300,201,rng,num-start-101,101,17520,1003.662225484848,False,,False,0,True,1000,True,0.0
./expes/v2_2020-11-04_hbh_300-prng-1,30_base_hphc_300,300,first-300,121,rng,num-start-921,921,17520,46.98612070083618,True,,True,1,False,1000,True,1.0
./expes/v2_2020-11-04_hbh_300-prng-1,30_base_hphc_300,300,first-300,161,rng,num-start-941,941,17520,45.275230407714844,True,,True,1,False,1000,True,1.0
./expes/v2_2020-11-04_hbh_300-prng-1,30_base_hphc_300,300,first-300,61,rng,num-start-681,681,17520,29.592694759368896,True,,True,1,False,1000,True,1.0
./expes/v2_2020-11-04_hbh_300-prng-1,30_base_hphc_300,300,first-300,261,rng,num-start-31,31,17520,1001.1613409519196,False,,False,0,True,1000,True,0.0
./expes/v2_2020-11-04_hbh_300-prng-1,30_base_hphc_300,300,first-300,241,rng,num-start-361,361,17520,15.768549919128418,True,,True,1,False,1000,True,1.0
./expes/v2_2020-11-04_hbh_300-prng-1,30_base_hphc_300,300,first-300,91,rng,num-start-571,571,17520,28.83025026321411,True,,True,1,False,1000,True,1.0
./expes/v2_2020-11-04_hbh_300-prng-1,30_base_hphc_300,300,first-300,191,rng,num-start-121,121,17520,28.96756410598755,True,,True,1,False,1000,True,1.0
./expes/v2_2020-11-04_hbh_300-prng-1,30_base_hphc_300,300,first-300,131,rng,num-start-501,501,17520,23.588003396987915,True,,True,1,False,1000,True,1.0
./expes/v2_2020-11-04_hbh_300-prng-1,30_base_hphc_300,300,first-300,221,rng,num-start-261,261,17520,12.178843021392822,True,,True,1,False,1000,True,1.0
./expes/v2_2020-11-04_hbh_300-prng-1,30_base_hphc_300,300,first-300,91,rng,num-start-981,981,17520,47.515389919281006,True,,True,1,False,1000,True,1.0
./expes/v2_2020-11-04_hbh_300-prng-1,30_base_hphc_300,300,first-300,71,rng,num-start-861,861,17520,39.639426469802856,True,,True,1,False,1000,True,1.0
./expes/v2_2020-11-04_hbh_300-prng-1,30_base_hphc_300,300,first-300,221,rng,num-start-121,121,17520,12.790561437606812,True,,True,1,False,1000,True,1.0
./expes/v2_2020-11-04_hbh_300-prng-1,30_base_hphc_300,300,first-300,151,rng,num-start-361,361,17520,16.751922607421875,True,,True,1,False,1000,True,1.0
./expes/v2_2020-11-04_hbh_300-prng-1,30_base_hphc_300,300,first-300,161,rng,num-start-91,91,17520,1003.3424096107483,False,,False,0,True,1000,True,0.0
./expes/v2_2020-11-04_hbh_300-prng-1,30_base_hphc_300,300,first-300,201,rng,num-start-781,781,17520,35.054749488830566,True,,True,1,False,1000,True,1.0
./expes/v2_2020-11-04_hbh_300-prng-1,30_base_hphc_300,300,first-300,221,rng,num-start-581,581,17520,26.79815936088562,True,,True,1,False,1000,True,1.0
./expes/v2_2020-11-04_hbh_300-prng-1,30_base_hphc_300,300,first-300,31,rng,num-start-811,811,17520,37.3370304107666,True,,True,1,False,1000,True,1.0
./expes/v2_2020-11-04_hbh_300-prng-1,30_base_hphc_300,300,first-300,231,rng,num-start-201,201,17520,9.728609323501587,True,,True,1,False,1000,True,1.0
./expes/v2_2020-11-04_hbh_300-prng-1,30_base_hphc_300,300,first-300,261,rng,num-start-621,621,17520,27.568190813064575,True,,True,1,False,1000,True,1.0
./expes/v2_2020-11-04_hbh_300-prng-1,30_base_hphc_300,300,first-300,41,rng,num-start-91,91,17520,5.005871534347534,True,,True,1,False,1000,True,1.0
./expes/v2_2020-11-04_hbh_300-prng-1,30_base_hphc_300,300,first-300,11,rng,num-start-591,591,17520,25.595898628234863,True,,True,1,False,1000,True,1.0
./expes/v2_2020-11-04_hbh_300-prng-1,30_base_hphc_300,300,first-300,141,rng,num-start-791,791,17520,37.628690242767334,True,,True,1,False,1000,True,1.0
./expes/v2_2020-11-04_hbh_300-prng-1,30_base_hphc_300,300,first-300,171,rng,num-start-171,171,17520,8.67488408088684,True,,True,1,False,1000,True,1.0
./expes/v2_2020-11-04_hbh_300-prng-1,30_base_hphc_300,300,first-300,11,rng,num-start-621,621,17520,26.102702379226685,True,,True,1,False,1000,True,1.0
./expes/v2_2020-11-04_hbh_300-prng-1,30_base_hphc_300,300,first-300,201,rng,num-start-531,531,17520,25.255422830581665,True,,True,1,False,1000,True,1.0
./expes/v2_2020-11-04_hbh_300-prng-1,30_base_hphc_300,300,first-300,21,rng,num-start-831,831,17520,38.26101040840149,True,,True,1,False,1000,True,1.0
./expes/v2_2020-11-04_hbh_300-prng-1,30_base_hphc_300,300,first-300,201,rng,num-start-501,501,17520,23.305261373519897,True,,True,1,False,1000,True,1.0
./expes/v2_2020-11-04_hbh_300-prng-1,30_base_hphc_300,300,first-300,201,rng,num-start-861,861,17520,41.65178298950195,True,,True,1,False,1000,True,1.0
./expes/v2_2020-11-04_hbh_300-prng-1,30_base_hphc_300,300,first-300,181,rng,num-start-301,301,17520,14.340904951095581,True,,True,1,False,1000,True,1.0
./expes/v2_2020-11-04_hbh_300-prng-1,30_base_hphc_300,300,first-300,201,rng,num-start-41,41,17520,1001.522164106369,False,,False,0,True,1000,True,0.0
