expe,clients,clients_size,clients_subset,agg_size,method,days,days_size,days_total,time,valid,valid_sum,success,nsols,wall_hit,wall_time,pooled,valid_sums
./expes/v2_2020-12-06_dh_4000-prng-1,30_issda_4000,4000,rng-4000,2501,rng,num-start-701,701,25726,1269.8777120113373,False,,False,0,True,1000,True,0.0
./expes/v2_2020-12-06_dh_4000-prng-1,30_issda_4000,4000,rng-4000,3501,rng,num-start-401,401,25726,1154.6122515201569,False,,False,0,True,1000,True,0.0
./expes/v2_2020-12-06_dh_4000-prng-1,30_issda_4000,4000,rng-4000,3001,rng,num-start-101,101,25726,1038.795158147812,False,,False,0,True,1000,True,0.0
./expes/v2_2020-12-06_dh_4000-prng-1,30_issda_4000,4000,rng-4000,1,rng,num-start-201,201,25726,80.91309666633606,True,,True,1,False,1000,True,1.0
./expes/v2_2020-12-06_dh_4000-prng-1,30_issda_4000,4000,rng-4000,2501,rng,num-start-601,601,25726,1228.5967681407928,False,,False,0,True,1000,True,0.0
./expes/v2_2020-12-06_dh_4000-prng-1,30_issda_4000,4000,rng-4000,501,rng,num-start-701,701,25726,1267.7545223236084,False,,False,0,True,1000,True,0.0
./expes/v2_2020-12-06_dh_4000-prng-1,30_issda_4000,4000,rng-4000,3001,rng,num-start-1,1,25726,0.6257462501525879,False,,False,2,False,1000,True,1.0
./expes/v2_2020-12-06_dh_4000-prng-1,30_issda_4000,4000,rng-4000,2501,rng,num-start-201,201,25726,1076.0334541797638,False,,False,0,True,1000,True,0.0
./expes/v2_2020-12-06_dh_4000-prng-1,30_issda_4000,4000,rng-4000,1001,rng,num-start-901,901,25726,1342.196828365326,False,,False,0,True,1000,True,0.0
./expes/v2_2020-12-06_dh_4000-prng-1,30_issda_4000,4000,rng-4000,1001,rng,num-start-901,901,25726,1346.3776018619537,False,,False,0,True,1000,True,0.0
./expes/v2_2020-12-06_dh_4000-prng-1,30_issda_4000,4000,rng-4000,1,rng,num-start-501,501,25726,202.36772060394287,True,,True,1,False,1000,True,1.0
./expes/v2_2020-12-06_dh_4000-prng-1,30_issda_4000,4000,rng-4000,2501,rng,num-start-1,1,25726,0.6039206981658936,False,,False,2,False,1000,True,1.0
./expes/v2_2020-12-06_dh_4000-prng-1,30_issda_4000,4000,rng-4000,1501,rng,num-start-701,701,25726,1294.6000843048096,False,,False,0,True,1000,True,0.0
./expes/v2_2020-12-06_dh_4000-prng-1,30_issda_4000,4000,rng-4000,3501,rng,num-start-701,701,25726,1287.3022134304047,False,,False,0,True,1000,True,0.0
./expes/v2_2020-12-06_dh_4000-prng-1,30_issda_4000,4000,rng-4000,3001,rng,num-start-801,801,25726,1334.1870629787445,False,,False,0,True,1000,True,0.0
./expes/v2_2020-12-06_dh_4000-prng-1,30_issda_4000,4000,rng-4000,501,rng,num-start-1,1,25726,0.9163360595703125,False,,False,2,False,1000,True,1.0
./expes/v2_2020-12-06_dh_4000-prng-1,30_issda_4000,4000,rng-4000,1001,rng,num-start-901,901,25726,1396.1550724506378,False,,False,0,True,1000,True,0.0
./expes/v2_2020-12-06_dh_4000-prng-1,30_issda_4000,4000,rng-4000,3001,rng,num-start-1,1,25726,0.7078750133514404,False,,False,2,False,1000,True,1.0
./expes/v2_2020-12-06_dh_4000-prng-1,30_issda_4000,4000,rng-4000,3501,rng,num-start-1,1,25726,2.06892991065979,False,,False,2,False,1000,True,1.0
./expes/v2_2020-12-06_dh_4000-prng-1,30_issda_4000,4000,rng-4000,2501,rng,num-start-201,201,25726,1089.373867034912,False,,False,0,True,1000,True,0.0
./expes/v2_2020-12-06_dh_4000-prng-1,30_issda_4000,4000,rng-4000,2501,rng,num-start-701,701,25726,1292.3140225410461,False,,False,0,True,1000,True,0.0
./expes/v2_2020-12-06_dh_4000-prng-1,30_issda_4000,4000,rng-4000,501,rng,num-start-901,901,25726,1372.0616173744202,False,,False,0,True,1000,True,0.0
./expes/v2_2020-12-06_dh_4000-prng-1,30_issda_4000,4000,rng-4000,1,rng,num-start-901,901,25726,369.8415505886078,True,,True,1,False,1000,True,1.0
./expes/v2_2020-12-06_dh_4000-prng-1,30_issda_4000,4000,rng-4000,1501,rng,num-start-701,701,25726,1289.5259418487549,False,,False,0,True,1000,True,0.0
./expes/v2_2020-12-06_dh_4000-prng-1,30_issda_4000,4000,rng-4000,501,rng,num-start-701,701,25726,1277.5605521202087,False,,False,0,True,1000,True,0.0
./expes/v2_2020-12-06_dh_4000-prng-1,30_issda_4000,4000,rng-4000,1001,rng,num-start-1,1,25726,0.588947057723999,False,,False,2,False,1000,True,1.0
./expes/v2_2020-12-06_dh_4000-prng-1,30_issda_4000,4000,rng-4000,1001,rng,num-start-401,401,25726,1160.5800409317017,False,,False,0,True,1000,True,0.0
./expes/v2_2020-12-06_dh_4000-prng-1,30_issda_4000,4000,rng-4000,501,rng,num-start-101,101,25726,1039.377921819687,False,,False,0,True,1000,True,0.0
./expes/v2_2020-12-06_dh_4000-prng-1,30_issda_4000,4000,rng-4000,1501,rng,num-start-201,201,25726,1122.371120929718,False,,False,0,True,1000,True,0.0
./expes/v2_2020-12-06_dh_4000-prng-1,30_issda_4000,4000,rng-4000,1501,rng,num-start-901,901,25726,1342.0747208595276,False,,False,0,True,1000,True,0.0
./expes/v2_2020-12-06_dh_4000-prng-1,30_issda_4000,4000,rng-4000,2501,rng,num-start-901,901,25726,1368.303458929062,False,,False,0,True,1000,True,0.0
./expes/v2_2020-12-06_dh_4000-prng-1,30_issda_4000,4000,rng-4000,501,rng,num-start-401,401,25726,1182.6411533355713,False,,False,0,True,1000,True,0.0
./expes/v2_2020-12-06_dh_4000-prng-1,30_issda_4000,4000,rng-4000,1,rng,num-start-901,901,25726,365.33998107910156,True,,True,1,False,1000,True,1.0
./expes/v2_2020-12-06_dh_4000-prng-1,30_issda_4000,4000,rng-4000,501,rng,num-start-201,201,25726,1085.0477442741394,False,,False,0,True,1000,True,0.0
./expes/v2_2020-12-06_dh_4000-prng-1,30_issda_4000,4000,rng-4000,501,rng,num-start-601,601,25726,1240.866462469101,False,,False,0,True,1000,True,0.0
./expes/v2_2020-12-06_dh_4000-prng-1,30_issda_4000,4000,rng-4000,3001,rng,num-start-1,1,25726,0.6609194278717041,False,,False,2,False,1000,True,1.0
./expes/v2_2020-12-06_dh_4000-prng-1,30_issda_4000,4000,rng-4000,3001,rng,num-start-801,801,25726,1339.8445489406586,False,,False,0,True,1000,True,0.0
./expes/v2_2020-12-06_dh_4000-prng-1,30_issda_4000,4000,rng-4000,2501,rng,num-start-601,601,25726,1286.2135667800903,False,,False,0,True,1000,True,0.0
./expes/v2_2020-12-06_dh_4000-prng-1,30_issda_4000,4000,rng-4000,3001,rng,num-start-301,301,25726,1125.890234708786,False,,False,0,True,1000,True,0.0
./expes/v2_2020-12-06_dh_4000-prng-1,30_issda_4000,4000,rng-4000,3501,rng,num-start-901,901,25726,1374.8913085460663,False,,False,0,True,1000,True,0.0
./expes/v2_2020-12-06_dh_4000-prng-1,30_issda_4000,4000,rng-4000,2501,rng,num-start-601,601,25726,1238.6070375442505,False,,False,0,True,1000,True,0.0
./expes/v2_2020-12-06_dh_4000-prng-1,30_issda_4000,4000,rng-4000,501,rng,num-start-801,801,25726,1339.5914461612701,False,,False,0,True,1000,True,0.0
./expes/v2_2020-12-06_dh_4000-prng-1,30_issda_4000,4000,rng-4000,3501,rng,num-start-401,401,25726,1180.7299859523773,False,,False,0,True,1000,True,0.0
./expes/v2_2020-12-06_dh_4000-prng-1,30_issda_4000,4000,rng-4000,1001,rng,num-start-301,301,25726,1129.2964611053467,False,,False,0,True,1000,True,0.0
./expes/v2_2020-12-06_dh_4000-prng-1,30_issda_4000,4000,rng-4000,1501,rng,num-start-901,901,25726,1378.2665765285492,False,,False,0,True,1000,True,0.0
./expes/v2_2020-12-06_dh_4000-prng-1,30_issda_4000,4000,rng-4000,2001,rng,num-start-601,601,25726,1237.0081579685211,False,,False,0,True,1000,True,0.0
./expes/v2_2020-12-06_dh_4000-prng-1,30_issda_4000,4000,rng-4000,3001,rng,num-start-801,801,25726,1306.2621958255768,False,,False,0,True,1000,True,0.0
./expes/v2_2020-12-06_dh_4000-prng-1,30_issda_4000,4000,rng-4000,2001,rng,num-start-701,701,25726,1266.4078969955444,False,,False,0,True,1000,True,0.0
./expes/v2_2020-12-06_dh_4000-prng-1,30_issda_4000,4000,rng-4000,1001,rng,num-start-601,601,25726,1226.2251815795898,False,,False,0,True,1000,True,0.0
./expes/v2_2020-12-06_dh_4000-prng-1,30_issda_4000,4000,rng-4000,3501,rng,num-start-1,1,25726,0.6186807155609131,False,,False,2,False,1000,True,1.0
./expes/v2_2020-12-06_dh_4000-prng-1,30_issda_4000,4000,rng-4000,1,rng,num-start-601,601,25726,234.6075406074524,True,,True,1,False,1000,True,1.0
./expes/v2_2020-12-06_dh_4000-prng-1,30_issda_4000,4000,rng-4000,1501,rng,num-start-801,801,25726,1325.9382498264313,False,,False,0,True,1000,True,0.0
./expes/v2_2020-12-06_dh_4000-prng-1,30_issda_4000,4000,rng-4000,1001,rng,num-start-701,701,25726,1276.6214196681976,False,,False,0,True,1000,True,0.0
./expes/v2_2020-12-06_dh_4000-prng-1,30_issda_4000,4000,rng-4000,501,rng,num-start-401,401,25726,1153.9141781330109,False,,False,0,True,1000,True,0.0
./expes/v2_2020-12-06_dh_4000-prng-1,30_issda_4000,4000,rng-4000,3501,rng,num-start-301,301,25726,1110.8931767940521,False,,False,0,True,1000,True,0.0
./expes/v2_2020-12-06_dh_4000-prng-1,30_issda_4000,4000,rng-4000,501,rng,num-start-1,1,25726,0.5888054370880127,False,,False,2,False,1000,True,1.0
./expes/v2_2020-12-06_dh_4000-prng-1,30_issda_4000,4000,rng-4000,1501,rng,num-start-601,601,25726,1219.9023015499115,False,,False,0,True,1000,True,0.0
./expes/v2_2020-12-06_dh_4000-prng-1,30_issda_4000,4000,rng-4000,2001,rng,num-start-1,1,25726,0.5649888515472412,False,,False,2,False,1000,True,1.0
./expes/v2_2020-12-06_dh_4000-prng-1,30_issda_4000,4000,rng-4000,501,rng,num-start-1,1,25726,0.9244847297668457,False,,False,2,False,1000,True,1.0
./expes/v2_2020-12-06_dh_4000-prng-1,30_issda_4000,4000,rng-4000,2501,rng,num-start-401,401,25726,1146.6861293315887,False,,False,0,True,1000,True,0.0
./expes/v2_2020-12-06_dh_4000-prng-1,30_issda_4000,4000,rng-4000,1001,rng,num-start-1,1,25726,2.735334634780884,False,,False,2,False,1000,True,1.0
./expes/v2_2020-12-06_dh_4000-prng-1,30_issda_4000,4000,rng-4000,1,rng,num-start-501,501,25726,186.94292521476746,True,,True,1,False,1000,True,1.0
./expes/v2_2020-12-06_dh_4000-prng-1,30_issda_4000,4000,rng-4000,3501,rng,num-start-401,401,25726,1157.064817905426,False,,False,0,True,1000,True,0.0
./expes/v2_2020-12-06_dh_4000-prng-1,30_issda_4000,4000,rng-4000,3001,rng,num-start-801,801,25726,1302.296887397766,False,,False,0,True,1000,True,0.0
./expes/v2_2020-12-06_dh_4000-prng-1,30_issda_4000,4000,rng-4000,2001,rng,num-start-701,701,25726,1273.3361089229584,False,,False,0,True,1000,True,0.0
./expes/v2_2020-12-06_dh_4000-prng-1,30_issda_4000,4000,rng-4000,501,rng,num-start-801,801,25726,1296.5468862056732,False,,False,0,True,1000,True,0.0
./expes/v2_2020-12-06_dh_4000-prng-1,30_issda_4000,4000,rng-4000,1501,rng,num-start-501,501,25726,1222.6465764045715,False,,False,0,True,1000,True,0.0
./expes/v2_2020-12-06_dh_4000-prng-1,30_issda_4000,4000,rng-4000,501,rng,num-start-1,1,25726,1.970216989517212,False,,False,2,False,1000,True,1.0
./expes/v2_2020-12-06_dh_4000-prng-1,30_issda_4000,4000,rng-4000,2001,rng,num-start-1,1,25726,0.5444769859313965,False,,False,2,False,1000,True,1.0
./expes/v2_2020-12-06_dh_4000-prng-1,30_issda_4000,4000,rng-4000,1001,rng,num-start-501,501,25726,1209.9749524593353,False,,False,0,True,1000,True,0.0
./expes/v2_2020-12-06_dh_4000-prng-1,30_issda_4000,4000,rng-4000,501,rng,num-start-801,801,25726,1343.9153547286987,False,,False,0,True,1000,True,0.0
./expes/v2_2020-12-06_dh_4000-prng-1,30_issda_4000,4000,rng-4000,1501,rng,num-start-301,301,25726,1109.9200389385223,False,,False,0,True,1000,True,0.0
./expes/v2_2020-12-06_dh_4000-prng-1,30_issda_4000,4000,rng-4000,1501,rng,num-start-301,301,25726,1113.1728088855743,False,,False,0,True,1000,True,0.0
./expes/v2_2020-12-06_dh_4000-prng-1,30_issda_4000,4000,rng-4000,3501,rng,num-start-501,501,25726,1184.7553691864014,False,,False,0,True,1000,True,0.0
./expes/v2_2020-12-06_dh_4000-prng-1,30_issda_4000,4000,rng-4000,2501,rng,num-start-901,901,25726,1342.7906754016876,False,,False,0,True,1000,True,0.0
./expes/v2_2020-12-06_dh_4000-prng-1,30_issda_4000,4000,rng-4000,1001,rng,num-start-101,101,25726,1037.0732383728027,False,,False,0,True,1000,True,0.0
./expes/v2_2020-12-06_dh_4000-prng-1,30_issda_4000,4000,rng-4000,2501,rng,num-start-701,701,25726,1273.1561117172241,False,,False,0,True,1000,True,0.0
./expes/v2_2020-12-06_dh_4000-prng-1,30_issda_4000,4000,rng-4000,1001,rng,num-start-1,1,25726,0.726292610168457,False,,False,2,False,1000,True,1.0
./expes/v2_2020-12-06_dh_4000-prng-1,30_issda_4000,4000,rng-4000,1001,rng,num-start-101,101,25726,1040.4178004264832,False,,False,0,True,1000,True,0.0
./expes/v2_2020-12-06_dh_4000-prng-1,30_issda_4000,4000,rng-4000,3001,rng,num-start-501,501,25726,1205.9239928722382,False,,False,0,True,1000,True,0.0
./expes/v2_2020-12-06_dh_4000-prng-1,30_issda_4000,4000,rng-4000,501,rng,num-start-101,101,25726,1045.7276225090027,False,,False,0,True,1000,True,0.0
./expes/v2_2020-12-06_dh_4000-prng-1,30_issda_4000,4000,rng-4000,1,rng,num-start-401,401,25726,154.00997591018677,True,,True,1,False,1000,True,1.0
./expes/v2_2020-12-06_dh_4000-prng-1,30_issda_4000,4000,rng-4000,501,rng,num-start-601,601,25726,1222.1089823246002,False,,False,0,True,1000,True,0.0
./expes/v2_2020-12-06_dh_4000-prng-1,30_issda_4000,4000,rng-4000,2001,rng,num-start-701,701,25726,1263.2569680213928,False,,False,0,True,1000,True,0.0
./expes/v2_2020-12-06_dh_4000-prng-1,30_issda_4000,4000,rng-4000,3501,rng,num-start-901,901,25726,1332.1859910488129,False,,False,0,True,1000,True,0.0
