expe,clients,clients_size,clients_subset,agg_size,method,days,days_size,days_total,time,valid,valid_sum,success,nsols,wall_hit,wall_time,pooled,valid_sums
./expes/v2_2020-12-02_dh_100-prng-1,30_issda_100,100,rng-100,11,rng,num-start-10001,10001,25726,99.31203651428223,True,,True,1,False,1000,True,1.0
./expes/v2_2020-12-02_dh_100-prng-1,30_issda_100,100,rng-100,71,rng,num-start-2001,2001,25726,21.854268550872803,True,,True,1,False,1000,True,1.0
./expes/v2_2020-12-02_dh_100-prng-1,30_issda_100,100,rng-100,21,rng,num-start-11001,11001,25726,128.0533790588379,True,,True,1,False,1000,True,1.0
./expes/v2_2020-12-02_dh_100-prng-1,30_issda_100,100,rng-100,81,rng,num-start-5001,5001,25726,54.22456979751587,True,,True,1,False,1000,True,1.0
./expes/v2_2020-12-02_dh_100-prng-1,30_issda_100,100,rng-100,71,rng,num-start-12001,12001,25726,141.02199244499207,True,,True,1,False,1000,True,1.0
./expes/v2_2020-12-02_dh_100-prng-1,30_issda_100,100,rng-100,81,rng,num-start-16001,16001,25726,177.25050139427185,True,,True,1,False,1000,True,1.0
./expes/v2_2020-12-02_dh_100-prng-1,30_issda_100,100,rng-100,21,rng,num-start-1001,1001,25726,11.398267269134521,True,,True,1,False,1000,True,1.0
./expes/v2_2020-12-02_dh_100-prng-1,30_issda_100,100,rng-100,51,rng,num-start-11001,11001,25726,135.48762845993042,True,,True,1,False,1000,True,1.0
./expes/v2_2020-12-02_dh_100-prng-1,30_issda_100,100,rng-100,91,rng,num-start-6001,6001,25726,65.45916867256165,True,,True,1,False,1000,True,1.0
./expes/v2_2020-12-02_dh_100-prng-1,30_issda_100,100,rng-100,41,rng,num-start-12001,12001,25726,141.63104152679443,True,,True,1,False,1000,True,1.0
./expes/v2_2020-12-02_dh_100-prng-1,30_issda_100,100,rng-100,91,rng,num-start-8001,8001,25726,80.10033130645752,True,,True,1,False,1000,True,1.0
./expes/v2_2020-12-02_dh_100-prng-1,30_issda_100,100,rng-100,61,rng,num-start-3001,3001,25726,36.722814083099365,True,,True,1,False,1000,True,1.0
./expes/v2_2020-12-02_dh_100-prng-1,30_issda_100,100,rng-100,71,rng,num-start-15001,15001,25726,178.0756778717041,True,,True,1,False,1000,True,1.0
./expes/v2_2020-12-02_dh_100-prng-1,30_issda_100,100,rng-100,91,rng,num-start-13001,13001,25726,128.50192308425903,True,,True,1,False,1000,True,1.0
./expes/v2_2020-12-02_dh_100-prng-1,30_issda_100,100,rng-100,41,rng,num-start-5001,5001,25726,57.53053116798401,True,,True,1,False,1000,True,1.0
./expes/v2_2020-12-02_dh_100-prng-1,30_issda_100,100,rng-100,91,rng,num-start-7001,7001,25726,70.93241858482361,True,,True,1,False,1000,True,1.0
./expes/v2_2020-12-02_dh_100-prng-1,30_issda_100,100,rng-100,91,rng,num-start-8001,8001,25726,79.51595139503479,True,,True,1,False,1000,True,1.0
./expes/v2_2020-12-02_dh_100-prng-1,30_issda_100,100,rng-100,41,rng,num-start-8001,8001,25726,93.16874408721924,True,,True,1,False,1000,True,1.0
./expes/v2_2020-12-02_dh_100-prng-1,30_issda_100,100,rng-100,31,rng,num-start-12001,12001,25726,142.9032814502716,True,,True,1,False,1000,True,1.0
./expes/v2_2020-12-02_dh_100-prng-1,30_issda_100,100,rng-100,31,rng,num-start-6001,6001,25726,71.06430077552795,True,,True,1,False,1000,True,1.0
./expes/v2_2020-12-02_dh_100-prng-1,30_issda_100,100,rng-100,1,rng,num-start-14001,14001,25726,142.93226027488708,True,,True,1,False,1000,True,1.0
./expes/v2_2020-12-02_dh_100-prng-1,30_issda_100,100,rng-100,31,rng,num-start-15001,15001,25726,171.4799530506134,True,,True,1,False,1000,True,1.0
./expes/v2_2020-12-02_dh_100-prng-1,30_issda_100,100,rng-100,41,rng,num-start-14001,14001,25726,180.8120322227478,True,,True,1,False,1000,True,1.0
./expes/v2_2020-12-02_dh_100-prng-1,30_issda_100,100,rng-100,81,rng,num-start-12001,12001,25726,126.66920042037964,True,,True,1,False,1000,True,1.0
./expes/v2_2020-12-02_dh_100-prng-1,30_issda_100,100,rng-100,11,rng,num-start-12001,12001,25726,120.05300521850586,True,,True,1,False,1000,True,1.0
./expes/v2_2020-12-02_dh_100-prng-1,30_issda_100,100,rng-100,81,rng,num-start-9001,9001,25726,97.5427098274231,True,,True,1,False,1000,True,1.0
./expes/v2_2020-12-02_dh_100-prng-1,30_issda_100,100,rng-100,91,rng,num-start-6001,6001,25726,60.27195143699646,True,,True,1,False,1000,True,1.0
./expes/v2_2020-12-02_dh_100-prng-1,30_issda_100,100,rng-100,1,rng,num-start-10001,10001,25726,99.97003221511841,True,,True,1,False,1000,True,1.0
./expes/v2_2020-12-02_dh_100-prng-1,30_issda_100,100,rng-100,71,rng,num-start-2001,2001,25726,22.865633964538574,True,,True,1,False,1000,True,1.0
./expes/v2_2020-12-02_dh_100-prng-1,30_issda_100,100,rng-100,71,rng,num-start-15001,15001,25726,166.10940027236938,True,,True,1,False,1000,True,1.0
./expes/v2_2020-12-02_dh_100-prng-1,30_issda_100,100,rng-100,51,rng,num-start-4001,4001,25726,46.668445348739624,True,,True,1,False,1000,True,1.0
./expes/v2_2020-12-02_dh_100-prng-1,30_issda_100,100,rng-100,41,rng,num-start-1,1,25726,0.045671939849853516,False,,False,2,False,1000,True,1.0
./expes/v2_2020-12-02_dh_100-prng-1,30_issda_100,100,rng-100,1,rng,num-start-14001,14001,25726,141.2711992263794,True,,True,1,False,1000,True,1.0
./expes/v2_2020-12-02_dh_100-prng-1,30_issda_100,100,rng-100,61,rng,num-start-2001,2001,25726,23.050698041915894,True,,True,1,False,1000,True,1.0
./expes/v2_2020-12-02_dh_100-prng-1,30_issda_100,100,rng-100,51,rng,num-start-11001,11001,25726,140.64866375923157,True,,True,1,False,1000,True,1.0
./expes/v2_2020-12-02_dh_100-prng-1,30_issda_100,100,rng-100,51,rng,num-start-4001,4001,25726,47.81023406982422,True,,True,1,False,1000,True,1.0
./expes/v2_2020-12-02_dh_100-prng-1,30_issda_100,100,rng-100,41,rng,num-start-11001,11001,25726,133.79563665390015,True,,True,1,False,1000,True,1.0
./expes/v2_2020-12-02_dh_100-prng-1,30_issda_100,100,rng-100,31,rng,num-start-9001,9001,25726,104.74239921569824,True,,True,1,False,1000,True,1.0
./expes/v2_2020-12-02_dh_100-prng-1,30_issda_100,100,rng-100,81,rng,num-start-13001,13001,25726,136.4525215625763,True,,True,1,False,1000,True,1.0
./expes/v2_2020-12-02_dh_100-prng-1,30_issda_100,100,rng-100,31,rng,num-start-2001,2001,25726,23.050373792648315,True,,True,1,False,1000,True,1.0
./expes/v2_2020-12-02_dh_100-prng-1,30_issda_100,100,rng-100,21,rng,num-start-11001,11001,25726,123.28597784042358,True,,True,1,False,1000,True,1.0
./expes/v2_2020-12-02_dh_100-prng-1,30_issda_100,100,rng-100,41,rng,num-start-4001,4001,25726,45.12239980697632,True,,True,1,False,1000,True,1.0
./expes/v2_2020-12-02_dh_100-prng-1,30_issda_100,100,rng-100,31,rng,num-start-1,1,25726,0.04424715042114258,False,,False,2,False,1000,True,1.0
./expes/v2_2020-12-02_dh_100-prng-1,30_issda_100,100,rng-100,1,rng,num-start-12001,12001,25726,120.90152096748352,True,,True,1,False,1000,True,1.0
./expes/v2_2020-12-02_dh_100-prng-1,30_issda_100,100,rng-100,31,rng,num-start-13001,13001,25726,157.86547183990479,True,,True,1,False,1000,True,1.0
./expes/v2_2020-12-02_dh_100-prng-1,30_issda_100,100,rng-100,11,rng,num-start-11001,11001,25726,110.65367841720581,True,,True,1,False,1000,True,1.0
./expes/v2_2020-12-02_dh_100-prng-1,30_issda_100,100,rng-100,91,rng,num-start-8001,8001,25726,79.17697215080261,True,,True,1,False,1000,True,1.0
./expes/v2_2020-12-02_dh_100-prng-1,30_issda_100,100,rng-100,61,rng,num-start-6001,6001,25726,76.04659342765808,True,,True,1,False,1000,True,1.0
./expes/v2_2020-12-02_dh_100-prng-1,30_issda_100,100,rng-100,11,rng,num-start-12001,12001,25726,121.63235974311829,True,,True,1,False,1000,True,1.0
./expes/v2_2020-12-02_dh_100-prng-1,30_issda_100,100,rng-100,71,rng,num-start-8001,8001,25726,105.32063889503479,True,,True,1,False,1000,True,1.0
./expes/v2_2020-12-02_dh_100-prng-1,30_issda_100,100,rng-100,91,rng,num-start-11001,11001,25726,126.18910884857178,True,,True,1,False,1000,True,1.0
./expes/v2_2020-12-02_dh_100-prng-1,30_issda_100,100,rng-100,51,rng,num-start-8001,8001,25726,107.30770778656006,True,,True,1,False,1000,True,1.0
./expes/v2_2020-12-02_dh_100-prng-1,30_issda_100,100,rng-100,31,rng,num-start-16001,16001,25726,174.64338660240173,True,,True,1,False,1000,True,1.0
