expe,clients,clients_size,clients_subset,agg_size,method,days,days_size,days_total,time,valid,valid_sum,success,nsols,wall_hit,wall_time,pooled,valid_sums
./expes/v2_2020-11-09_3bh_300-prng-1,30_base_hphc_300,300,first-300,161,rng,num-start-911,911,17520,33.3511700630188,True,,True,1,False,1000,True,1.0
./expes/v2_2020-11-09_3bh_300-prng-1,30_base_hphc_300,300,first-300,251,rng,num-start-821,821,17520,28.245136737823486,True,,True,1,False,1000,True,1.0
./expes/v2_2020-11-09_3bh_300-prng-1,30_base_hphc_300,300,first-300,71,rng,num-start-981,981,17520,41.12526178359985,True,,True,1,False,1000,True,1.0
./expes/v2_2020-11-09_3bh_300-prng-1,30_base_hphc_300,300,first-300,21,rng,num-start-401,401,17520,15.180717706680298,True,,True,1,False,1000,True,1.0
./expes/v2_2020-11-09_3bh_300-prng-1,30_base_hphc_300,300,first-300,291,rng,num-start-371,371,17520,13.301963329315186,True,,True,1,False,1000,True,1.0
./expes/v2_2020-11-09_3bh_300-prng-1,30_base_hphc_300,300,first-300,251,rng,num-start-171,171,17520,7.347348213195801,True,,True,1,False,1000,True,1.0
./expes/v2_2020-11-09_3bh_300-prng-1,30_base_hphc_300,300,first-300,181,rng,num-start-231,231,17520,10.403836727142334,True,,True,1,False,1000,True,1.0
./expes/v2_2020-11-09_3bh_300-prng-1,30_base_hphc_300,300,first-300,61,rng,num-start-921,921,17520,39.37121343612671,True,,True,1,False,1000,True,1.0
./expes/v2_2020-11-09_3bh_300-prng-1,30_base_hphc_300,300,first-300,41,rng,num-start-201,201,17520,8.240588665008545,True,,True,1,False,1000,True,1.0
./expes/v2_2020-11-09_3bh_300-prng-1,30_base_hphc_300,300,first-300,211,rng,num-start-671,671,17520,28.52213954925537,True,,True,1,False,1000,True,1.0
./expes/v2_2020-11-09_3bh_300-prng-1,30_base_hphc_300,300,first-300,231,rng,num-start-211,211,17520,8.241933345794678,True,,True,1,False,1000,True,1.0
./expes/v2_2020-11-09_3bh_300-prng-1,30_base_hphc_300,300,first-300,201,rng,num-start-951,951,17520,42.263253927230835,True,,True,1,False,1000,True,1.0
./expes/v2_2020-11-09_3bh_300-prng-1,30_base_hphc_300,300,first-300,171,rng,num-start-691,691,17520,29.802897930145264,True,,True,1,False,1000,True,1.0
./expes/v2_2020-11-09_3bh_300-prng-1,30_base_hphc_300,300,first-300,1,rng,num-start-761,761,17520,26.192057609558105,True,,True,1,False,1000,True,1.0
./expes/v2_2020-11-09_3bh_300-prng-1,30_base_hphc_300,300,first-300,181,rng,num-start-531,531,17520,22.727954626083374,True,,True,1,False,1000,True,1.0
./expes/v2_2020-11-09_3bh_300-prng-1,30_base_hphc_300,300,first-300,271,rng,num-start-121,121,17520,5.3703062534332275,True,,True,1,False,1000,True,1.0
./expes/v2_2020-11-09_3bh_300-prng-1,30_base_hphc_300,300,first-300,1,rng,num-start-611,611,17520,21.312601804733276,True,,True,1,False,1000,True,1.0
./expes/v2_2020-11-09_3bh_300-prng-1,30_base_hphc_300,300,first-300,101,rng,num-start-581,581,17520,25.579294443130493,True,,True,1,False,1000,True,1.0
./expes/v2_2020-11-09_3bh_300-prng-1,30_base_hphc_300,300,first-300,91,rng,num-start-581,581,17520,27.141899347305298,True,,True,1,False,1000,True,1.0
./expes/v2_2020-11-09_3bh_300-prng-1,30_base_hphc_300,300,first-300,191,rng,num-start-61,61,17520,1002.0510144233704,False,,False,0,True,1000,True,0.0
./expes/v2_2020-11-09_3bh_300-prng-1,30_base_hphc_300,300,first-300,51,rng,num-start-841,841,17520,32.32184171676636,True,,True,1,False,1000,True,1.0
./expes/v2_2020-11-09_3bh_300-prng-1,30_base_hphc_300,300,first-300,231,rng,num-start-801,801,17520,29.897218227386475,True,,True,1,False,1000,True,1.0
./expes/v2_2020-11-09_3bh_300-prng-1,30_base_hphc_300,300,first-300,1,rng,num-start-681,681,17520,22.296162605285645,True,,True,1,False,1000,True,1.0
./expes/v2_2020-11-09_3bh_300-prng-1,30_base_hphc_300,300,first-300,281,rng,num-start-981,981,17520,35.935842752456665,True,,True,1,False,1000,True,1.0
./expes/v2_2020-11-09_3bh_300-prng-1,30_base_hphc_300,300,first-300,41,rng,num-start-391,391,17520,14.834719896316528,True,,True,1,False,1000,True,1.0
./expes/v2_2020-11-09_3bh_300-prng-1,30_base_hphc_300,300,first-300,161,rng,num-start-971,971,17520,40.58360505104065,True,,True,1,False,1000,True,1.0
./expes/v2_2020-11-09_3bh_300-prng-1,30_base_hphc_300,300,first-300,121,rng,num-start-851,851,17520,35.07111215591431,True,,True,1,False,1000,True,1.0
./expes/v2_2020-11-09_3bh_300-prng-1,30_base_hphc_300,300,first-300,11,rng,num-start-651,651,17520,22.042629718780518,True,,True,1,False,1000,True,1.0
./expes/v2_2020-11-09_3bh_300-prng-1,30_base_hphc_300,300,first-300,241,rng,num-start-561,561,17520,21.18500280380249,True,,True,1,False,1000,True,1.0
./expes/v2_2020-11-09_3bh_300-prng-1,30_base_hphc_300,300,first-300,171,rng,num-start-751,751,17520,29.129610538482666,True,,True,1,False,1000,True,1.0
./expes/v2_2020-11-09_3bh_300-prng-1,30_base_hphc_300,300,first-300,101,rng,num-start-871,871,17520,34.63190174102783,True,,True,1,False,1000,True,1.0
./expes/v2_2020-11-09_3bh_300-prng-1,30_base_hphc_300,300,first-300,221,rng,num-start-791,791,17520,30.539331912994385,True,,True,1,False,1000,True,1.0
./expes/v2_2020-11-09_3bh_300-prng-1,30_base_hphc_300,300,first-300,91,rng,num-start-861,861,17520,34.67173647880554,True,,True,1,False,1000,True,1.0
./expes/v2_2020-11-09_3bh_300-prng-1,30_base_hphc_300,300,first-300,181,rng,num-start-41,41,17520,1001.4939048290253,False,,False,0,True,1000,True,0.0
./expes/v2_2020-11-09_3bh_300-prng-1,30_base_hphc_300,300,first-300,181,rng,num-start-981,981,17520,40.35983157157898,True,,True,1,False,1000,True,1.0
./expes/v2_2020-11-09_3bh_300-prng-1,30_base_hphc_300,300,first-300,271,rng,num-start-761,761,17520,29.448713302612305,True,,True,1,False,1000,True,1.0
./expes/v2_2020-11-09_3bh_300-prng-1,30_base_hphc_300,300,first-300,191,rng,num-start-591,591,17520,28.372329711914062,True,,True,1,False,1000,True,1.0
./expes/v2_2020-11-09_3bh_300-prng-1,30_base_hphc_300,300,first-300,211,rng,num-start-911,911,17520,36.484508991241455,True,,True,1,False,1000,True,1.0
./expes/v2_2020-11-09_3bh_300-prng-1,30_base_hphc_300,300,first-300,271,rng,num-start-321,321,17520,12.049457311630249,True,,True,1,False,1000,True,1.0
./expes/v2_2020-11-09_3bh_300-prng-1,30_base_hphc_300,300,first-300,171,rng,num-start-561,561,17520,24.04114317893982,True,,True,1,False,1000,True,1.0
./expes/v2_2020-11-09_3bh_300-prng-1,30_base_hphc_300,300,first-300,171,rng,num-start-221,221,17520,9.769594430923462,True,,True,1,False,1000,True,1.0
./expes/v2_2020-11-09_3bh_300-prng-1,30_base_hphc_300,300,first-300,261,rng,num-start-921,921,17520,37.44259691238403,True,,True,1,False,1000,True,1.0
./expes/v2_2020-11-09_3bh_300-prng-1,30_base_hphc_300,300,first-300,291,rng,num-start-41,41,17520,1.8701457977294922,True,,True,1,False,1000,True,1.0
./expes/v2_2020-11-09_3bh_300-prng-1,30_base_hphc_300,300,first-300,51,rng,num-start-991,991,17520,39.868733644485474,True,,True,1,False,1000,True,1.0
./expes/v2_2020-11-09_3bh_300-prng-1,30_base_hphc_300,300,first-300,21,rng,num-start-961,961,17520,37.962610721588135,True,,True,1,False,1000,True,1.0
./expes/v2_2020-11-09_3bh_300-prng-1,30_base_hphc_300,300,first-300,181,rng,num-start-981,981,17520,41.72138237953186,True,,True,1,False,1000,True,1.0
./expes/v2_2020-11-09_3bh_300-prng-1,30_base_hphc_300,300,first-300,211,rng,num-start-241,241,17520,11.039077758789062,True,,True,1,False,1000,True,1.0
./expes/v2_2020-11-09_3bh_300-prng-1,30_base_hphc_300,300,first-300,241,rng,num-start-601,601,17520,24.80129337310791,True,,True,1,False,1000,True,1.0
./expes/v2_2020-11-09_3bh_300-prng-1,30_base_hphc_300,300,first-300,51,rng,num-start-991,991,17520,37.88901233673096,True,,True,1,False,1000,True,1.0
./expes/v2_2020-11-09_3bh_300-prng-1,30_base_hphc_300,300,first-300,221,rng,num-start-661,661,17520,26.373778104782104,True,,True,1,False,1000,True,1.0
./expes/v2_2020-11-09_3bh_300-prng-1,30_base_hphc_300,300,first-300,241,rng,num-start-651,651,17520,25.447343349456787,True,,True,1,False,1000,True,1.0
