expe,clients,clients_size,clients_subset,agg_size,method,days,days_size,days_total,time,valid,valid_sum,success,nsols,wall_hit,wall_time,pooled,valid_sums
./expes/v2_2020-11-09_3bh_300-prng-1,30_base_hphc_300,300,first-300,121,rng,num-start-71,71,17520,1002.6531965732574,False,,False,0,True,1000,True,0.0
./expes/v2_2020-11-09_3bh_300-prng-1,30_base_hphc_300,300,first-300,121,rng,num-start-281,281,17520,13.570024251937866,True,,True,1,False,1000,True,1.0
./expes/v2_2020-11-09_3bh_300-prng-1,30_base_hphc_300,300,first-300,111,rng,num-start-621,621,17520,30.436257362365723,True,,True,1,False,1000,True,1.0
./expes/v2_2020-11-09_3bh_300-prng-1,30_base_hphc_300,300,first-300,251,rng,num-start-21,21,17520,1000.7448906898499,False,,False,0,True,1000,True,0.0
./expes/v2_2020-11-09_3bh_300-prng-1,30_base_hphc_300,300,first-300,211,rng,num-start-291,291,17520,12.888923168182373,True,,True,1,False,1000,True,1.0
./expes/v2_2020-11-09_3bh_300-prng-1,30_base_hphc_300,300,first-300,11,rng,num-start-991,991,17520,37.28898620605469,True,,True,1,False,1000,True,1.0
./expes/v2_2020-11-09_3bh_300-prng-1,30_base_hphc_300,300,first-300,11,rng,num-start-801,801,17520,32.900681257247925,True,,True,1,False,1000,True,1.0
./expes/v2_2020-11-09_3bh_300-prng-1,30_base_hphc_300,300,first-300,171,rng,num-start-341,341,17520,16.30270028114319,True,,True,1,False,1000,True,1.0
./expes/v2_2020-11-09_3bh_300-prng-1,30_base_hphc_300,300,first-300,281,rng,num-start-311,311,17520,12.464944839477539,True,,True,1,False,1000,True,1.0
./expes/v2_2020-11-09_3bh_300-prng-1,30_base_hphc_300,300,first-300,61,rng,num-start-51,51,17520,1001.9740030765533,False,,False,0,True,1000,True,0.0
./expes/v2_2020-11-09_3bh_300-prng-1,30_base_hphc_300,300,first-300,271,rng,num-start-671,671,17520,27.795616149902344,True,,True,1,False,1000,True,1.0
./expes/v2_2020-11-09_3bh_300-prng-1,30_base_hphc_300,300,first-300,251,rng,num-start-281,281,17520,11.916471242904663,True,,True,1,False,1000,True,1.0
./expes/v2_2020-11-09_3bh_300-prng-1,30_base_hphc_300,300,first-300,151,rng,num-start-671,671,17520,30.65913414955139,True,,True,1,False,1000,True,1.0
./expes/v2_2020-11-09_3bh_300-prng-1,30_base_hphc_300,300,first-300,61,rng,num-start-421,421,17520,18.040971279144287,True,,True,1,False,1000,True,1.0
./expes/v2_2020-11-09_3bh_300-prng-1,30_base_hphc_300,300,first-300,111,rng,num-start-921,921,17520,45.28361988067627,True,,True,1,False,1000,True,1.0
./expes/v2_2020-11-09_3bh_300-prng-1,30_base_hphc_300,300,first-300,111,rng,num-start-71,71,17520,1002.5830028057098,False,,False,0,True,1000,True,0.0
./expes/v2_2020-11-09_3bh_300-prng-1,30_base_hphc_300,300,first-300,131,rng,num-start-451,451,17520,21.51729917526245,True,,True,1,False,1000,True,1.0
./expes/v2_2020-11-09_3bh_300-prng-1,30_base_hphc_300,300,first-300,101,rng,num-start-351,351,17520,15.92110013961792,True,,True,1,False,1000,True,1.0
./expes/v2_2020-11-09_3bh_300-prng-1,30_base_hphc_300,300,first-300,41,rng,num-start-601,601,17520,28.64250421524048,True,,True,1,False,1000,True,1.0
./expes/v2_2020-11-09_3bh_300-prng-1,30_base_hphc_300,300,first-300,181,rng,num-start-11,11,17520,1000.4291982650757,False,,False,0,True,1000,True,0.0
./expes/v2_2020-11-09_3bh_300-prng-1,30_base_hphc_300,300,first-300,121,rng,num-start-111,111,17520,1004.0182368755341,False,,False,1,True,1000,True,0.0
./expes/v2_2020-11-09_3bh_300-prng-1,30_base_hphc_300,300,first-300,201,rng,num-start-381,381,17520,17.494051218032837,True,,True,1,False,1000,True,1.0
./expes/v2_2020-11-09_3bh_300-prng-1,30_base_hphc_300,300,first-300,231,rng,num-start-431,431,17520,19.087185859680176,True,,True,1,False,1000,True,1.0
./expes/v2_2020-11-09_3bh_300-prng-1,30_base_hphc_300,300,first-300,61,rng,num-start-341,341,17520,15.616411209106445,True,,True,1,False,1000,True,1.0
./expes/v2_2020-11-09_3bh_300-prng-1,30_base_hphc_300,300,first-300,251,rng,num-start-661,661,17520,29.608208417892456,True,,True,1,False,1000,True,1.0
./expes/v2_2020-11-09_3bh_300-prng-1,30_base_hphc_300,300,first-300,271,rng,num-start-181,181,17520,8.18967890739441,True,,True,1,False,1000,True,1.0
./expes/v2_2020-11-09_3bh_300-prng-1,30_base_hphc_300,300,first-300,11,rng,num-start-881,881,17520,38.68920850753784,True,,True,1,False,1000,True,1.0
./expes/v2_2020-11-09_3bh_300-prng-1,30_base_hphc_300,300,first-300,81,rng,num-start-701,701,17520,36.417529582977295,True,,True,1,False,1000,True,1.0
./expes/v2_2020-11-09_3bh_300-prng-1,30_base_hphc_300,300,first-300,111,rng,num-start-431,431,17520,20.894540309906006,True,,True,1,False,1000,True,1.0
./expes/v2_2020-11-09_3bh_300-prng-1,30_base_hphc_300,300,first-300,281,rng,num-start-501,501,17520,23.265007257461548,True,,True,1,False,1000,True,1.0
./expes/v2_2020-11-09_3bh_300-prng-1,30_base_hphc_300,300,first-300,211,rng,num-start-901,901,17520,44.98931384086609,True,,True,1,False,1000,True,1.0
./expes/v2_2020-11-09_3bh_300-prng-1,30_base_hphc_300,300,first-300,241,rng,num-start-401,401,17520,17.2450852394104,True,,True,1,False,1000,True,1.0
./expes/v2_2020-11-09_3bh_300-prng-1,30_base_hphc_300,300,first-300,11,rng,num-start-171,171,17520,7.827637195587158,True,,True,1,False,1000,True,1.0
./expes/v2_2020-11-09_3bh_300-prng-1,30_base_hphc_300,300,first-300,21,rng,num-start-501,501,17520,22.408653259277344,True,,True,1,False,1000,True,1.0
./expes/v2_2020-11-09_3bh_300-prng-1,30_base_hphc_300,300,first-300,11,rng,num-start-781,781,17520,33.334675550460815,True,,True,1,False,1000,True,1.0
./expes/v2_2020-11-09_3bh_300-prng-1,30_base_hphc_300,300,first-300,121,rng,num-start-511,511,17520,23.945716619491577,True,,True,1,False,1000,True,1.0
./expes/v2_2020-11-09_3bh_300-prng-1,30_base_hphc_300,300,first-300,191,rng,num-start-331,331,17520,15.079101085662842,True,,True,1,False,1000,True,1.0
./expes/v2_2020-11-09_3bh_300-prng-1,30_base_hphc_300,300,first-300,111,rng,num-start-531,531,17520,25.539146900177002,True,,True,1,False,1000,True,1.0
./expes/v2_2020-11-09_3bh_300-prng-1,30_base_hphc_300,300,first-300,221,rng,num-start-161,161,17520,7.59753155708313,True,,True,1,False,1000,True,1.0
./expes/v2_2020-11-09_3bh_300-prng-1,30_base_hphc_300,300,first-300,61,rng,num-start-91,91,17520,21.979845762252808,True,,True,1,False,1000,True,1.0
./expes/v2_2020-11-09_3bh_300-prng-1,30_base_hphc_300,300,first-300,91,rng,num-start-271,271,17520,12.347651481628418,True,,True,1,False,1000,True,1.0
./expes/v2_2020-11-09_3bh_300-prng-1,30_base_hphc_300,300,first-300,221,rng,num-start-531,531,17520,23.633062839508057,True,,True,1,False,1000,True,1.0
./expes/v2_2020-11-09_3bh_300-prng-1,30_base_hphc_300,300,first-300,291,rng,num-start-941,941,17520,35.587430238723755,True,,True,1,False,1000,True,1.0
./expes/v2_2020-11-09_3bh_300-prng-1,30_base_hphc_300,300,first-300,161,rng,num-start-851,851,17520,40.37141513824463,True,,True,1,False,1000,True,1.0
./expes/v2_2020-11-09_3bh_300-prng-1,30_base_hphc_300,300,first-300,141,rng,num-start-541,541,17520,26.251256465911865,True,,True,1,False,1000,True,1.0
./expes/v2_2020-11-09_3bh_300-prng-1,30_base_hphc_300,300,first-300,111,rng,num-start-741,741,17520,33.88622188568115,True,,True,1,False,1000,True,1.0
./expes/v2_2020-11-09_3bh_300-prng-1,30_base_hphc_300,300,first-300,31,rng,num-start-171,171,17520,7.361849069595337,True,,True,1,False,1000,True,1.0
./expes/v2_2020-11-09_3bh_300-prng-1,30_base_hphc_300,300,first-300,231,rng,num-start-91,91,17520,44.48595666885376,True,,True,1,False,1000,True,1.0
./expes/v2_2020-11-09_3bh_300-prng-1,30_base_hphc_300,300,first-300,41,rng,num-start-381,381,17520,16.999974489212036,True,,True,1,False,1000,True,1.0
./expes/v2_2020-11-09_3bh_300-prng-1,30_base_hphc_300,300,first-300,211,rng,num-start-571,571,17520,29.02897572517395,True,,True,1,False,1000,True,1.0
./expes/v2_2020-11-09_3bh_300-prng-1,30_base_hphc_300,300,first-300,141,rng,num-start-391,391,17520,18.865851163864136,True,,True,1,False,1000,True,1.0
./expes/v2_2020-11-09_3bh_300-prng-1,30_base_hphc_300,300,first-300,261,rng,num-start-61,61,17520,1002.2583794593811,False,,False,0,True,1000,True,0.0
./expes/v2_2020-11-09_3bh_300-prng-1,30_base_hphc_300,300,first-300,91,rng,num-start-721,721,17520,32.427515268325806,True,,True,1,False,1000,True,1.0
./expes/v2_2020-11-09_3bh_300-prng-1,30_base_hphc_300,300,first-300,251,rng,num-start-521,521,17520,23.508010625839233,True,,True,1,False,1000,True,1.0
./expes/v2_2020-11-09_3bh_300-prng-1,30_base_hphc_300,300,first-300,121,rng,num-start-561,561,17520,27.58158564567566,True,,True,1,False,1000,True,1.0
./expes/v2_2020-11-09_3bh_300-prng-1,30_base_hphc_300,300,first-300,161,rng,num-start-931,931,17520,42.614275217056274,True,,True,1,False,1000,True,1.0
./expes/v2_2020-11-09_3bh_300-prng-1,30_base_hphc_300,300,first-300,211,rng,num-start-841,841,17520,38.48088574409485,True,,True,1,False,1000,True,1.0
./expes/v2_2020-11-09_3bh_300-prng-1,30_base_hphc_300,300,first-300,111,rng,num-start-761,761,17520,34.3820595741272,True,,True,1,False,1000,True,1.0
./expes/v2_2020-11-09_3bh_300-prng-1,30_base_hphc_300,300,first-300,21,rng,num-start-381,381,17520,15.67673659324646,True,,True,1,False,1000,True,1.0
./expes/v2_2020-11-09_3bh_300-prng-1,30_base_hphc_300,300,first-300,111,rng,num-start-911,911,17520,43.52786684036255,True,,True,1,False,1000,True,1.0
./expes/v2_2020-11-09_3bh_300-prng-1,30_base_hphc_300,300,first-300,121,rng,num-start-891,891,17520,41.87119388580322,True,,True,1,False,1000,True,1.0
./expes/v2_2020-11-09_3bh_300-prng-1,30_base_hphc_300,300,first-300,241,rng,num-start-451,451,17520,19.818179607391357,True,,True,1,False,1000,True,1.0
./expes/v2_2020-11-09_3bh_300-prng-1,30_base_hphc_300,300,first-300,11,rng,num-start-251,251,17520,10.479166030883789,True,,True,1,False,1000,True,1.0
./expes/v2_2020-11-09_3bh_300-prng-1,30_base_hphc_300,300,first-300,1,rng,num-start-711,711,17520,25.906792640686035,True,,True,1,False,1000,True,1.0
./expes/v2_2020-11-09_3bh_300-prng-1,30_base_hphc_300,300,first-300,241,rng,num-start-901,901,17520,39.80235743522644,True,,True,1,False,1000,True,1.0
./expes/v2_2020-11-09_3bh_300-prng-1,30_base_hphc_300,300,first-300,201,rng,num-start-191,191,17520,9.57133150100708,True,,True,1,False,1000,True,1.0
./expes/v2_2020-11-09_3bh_300-prng-1,30_base_hphc_300,300,first-300,51,rng,num-start-361,361,17520,17.25141215324402,True,,True,1,False,1000,True,1.0
./expes/v2_2020-11-09_3bh_300-prng-1,30_base_hphc_300,300,first-300,281,rng,num-start-1,1,17520,0.06255912780761719,False,,False,2,False,1000,True,1.0
./expes/v2_2020-11-09_3bh_300-prng-1,30_base_hphc_300,300,first-300,61,rng,num-start-871,871,17520,38.43964624404907,True,,True,1,False,1000,True,1.0
./expes/v2_2020-11-09_3bh_300-prng-1,30_base_hphc_300,300,first-300,111,rng,num-start-841,841,17520,39.10042119026184,True,,True,1,False,1000,True,1.0
./expes/v2_2020-11-09_3bh_300-prng-1,30_base_hphc_300,300,first-300,41,rng,num-start-561,561,17520,25.04140830039978,True,,True,1,False,1000,True,1.0
./expes/v2_2020-11-09_3bh_300-prng-1,30_base_hphc_300,300,first-300,261,rng,num-start-51,51,17520,1001.8091957569122,False,,False,0,True,1000,True,0.0
./expes/v2_2020-11-09_3bh_300-prng-1,30_base_hphc_300,300,first-300,61,rng,num-start-421,421,17520,18.685186862945557,True,,True,1,False,1000,True,1.0
./expes/v2_2020-11-09_3bh_300-prng-1,30_base_hphc_300,300,first-300,51,rng,num-start-241,241,17520,10.57375431060791,True,,True,1,False,1000,True,1.0
./expes/v2_2020-11-09_3bh_300-prng-1,30_base_hphc_300,300,first-300,71,rng,num-start-291,291,17520,13.354581356048584,True,,True,1,False,1000,True,1.0
./expes/v2_2020-11-09_3bh_300-prng-1,30_base_hphc_300,300,first-300,261,rng,num-start-121,121,17520,4.910217046737671,True,,True,1,False,1000,True,1.0
./expes/v2_2020-11-09_3bh_300-prng-1,30_base_hphc_300,300,first-300,201,rng,num-start-231,231,17520,10.62865400314331,True,,True,1,False,1000,True,1.0
./expes/v2_2020-11-09_3bh_300-prng-1,30_base_hphc_300,300,first-300,291,rng,num-start-801,801,17520,31.12124490737915,True,,True,1,False,1000,True,1.0
./expes/v2_2020-11-09_3bh_300-prng-1,30_base_hphc_300,300,first-300,151,rng,num-start-721,721,17520,34.453309774398804,True,,True,1,False,1000,True,1.0
./expes/v2_2020-11-09_3bh_300-prng-1,30_base_hphc_300,300,first-300,111,rng,num-start-521,521,17520,26.233879327774048,True,,True,1,False,1000,True,1.0
./expes/v2_2020-11-09_3bh_300-prng-1,30_base_hphc_300,300,first-300,181,rng,num-start-901,901,17520,41.79089403152466,True,,True,1,False,1000,True,1.0
./expes/v2_2020-11-09_3bh_300-prng-1,30_base_hphc_300,300,first-300,21,rng,num-start-981,981,17520,44.90219593048096,True,,True,1,False,1000,True,1.0
./expes/v2_2020-11-09_3bh_300-prng-1,30_base_hphc_300,300,first-300,271,rng,num-start-361,361,17520,14.926942586898804,True,,True,1,False,1000,True,1.0
./expes/v2_2020-11-09_3bh_300-prng-1,30_base_hphc_300,300,first-300,251,rng,num-start-1,1,17520,0.06366109848022461,False,,False,2,False,1000,True,1.0
