expe,clients,clients_size,clients_subset,agg_size,agg_size_pc,method,days,days_size,days_total,noise_method,time,valid,valid_sum,success,score_avg,score_min,score_max,nsols,oracle,wall_hit,wall_time,pooled,pool_size,uuid,infeasible,optimal,valid_sums
./expes/v2_2021-03-19_issda-30_2000-prng-1-w5-p2,30_issda-2000,2000,first-2000,300,15,rng,num-start-1800,1800,25726,classic,1511.2526354789734,True,,True,1.0,1.0,1.0,1,"['4', '7', '11', '19', '24', '27', '38', '45', '47', '60', '66', '68', '71', '76', '96', '100', '107', '115', '117', '121', '130', '134', '136', '148', '161', '166', '183', '187', '189', '209', '219', '222', '231', '232', '244', '260', '268', '271', '272', '285', '290', '299', '301', '304', '305', '306', '322', '327', '331', '340', '341', '346', '347', '361', '364', '366', '368', '369', '371', '373', '379', '403', '404', '408', '420', '425', '427', '429', '442', '444', '487', '504', '505', '511', '513', '514', '524', '525', '541', '543', '558', '561', '562', '565', '573', '576', '592', '593', '597', '602', '604', '606', '612', '618', '627', '628', '634', '635', '640', '643', '647', '649', '651', '668', '680', '685', '693', '694', '697', '698', '705', '706', '727', '728', '729', '733', '735', '740', '743', '745', '750', '753', '762', '764', '771', '773', '780', '785', '798', '827', '828', '832', '836', '848', '850', '858', '862', '864', '887', '890', '912', '928', '929', '934', '947', '948', '949', '954', '961', '963', '968', '972', '982', '985', '986', '991', '995', '1000', '1008', '1011', '1023', '1025', '1030', '1050', '1051', '1056', '1070', '1075', '1086', '1090', '1093', '1105', '1114', '1117', '1121', '1123', '1125', '1146', '1156', '1176', '1185', '1190', '1201', '1204', '1208', '1217', '1221', '1231', '1236', '1251', '1265', '1266', '1271', '1276', '1278', '1282', '1284', '1285', '1292', '1308', '1330', '1331', '1334', '1336', '1360', '1369', '1376', '1389', '1405', '1411', '1412', '1415', '1423', '1427', '1439', '1443', '1444', '1450', '1467', '1475', '1477', '1495', '1498', '1499', '1516', '1517', '1520', '1533', '1536', '1548', '1556', '1561', '1569', '1577', '1585', '1587', '1589', '1590', '1600', '1602', '1610', '1614', '1629', '1633', '1636', '1642', '1673', '1675', '1677', '1679', '1684', '1693', '1711', '1718', '1722', '1723', '1724', '1731', '1745', '1746', '1761', '1777', '1778', '1779', '1785', '1787', '1795', '1829', '1831', '1837', '1846', '1848', '1877', '1881', '1889', '1892', '1893', '1904', '1917', '1920', '1924', '1928', '1930', '1931', '1932', '1937', '1945', '1946', '1955', '1957', '1960', '1966', '1967', '1970', '1977', '1980', '1984', '1992', '1998', '1999']",False,5000,True,2,e739beeacb,0.0,1.0,1.0
./expes/v2_2021-03-19_issda-30_2000-prng-1-w5-p2,30_issda-2000,2000,first-2000,700,35,rng,num-start-1800,1800,25726,classic,1775.6247961521149,True,,True,1.0,1.0,1.0,1,"['1', '4', '6', '10', '11', '13', '20', '21', '22', '24', '26', '27', '31', '35', '38', '40', '42', '45', '58', '59', '62', '63', '64', '66', '67', '68', '70', '76', '78', '82', '85', '93', '94', '103', '104', '106', '107', '111', '117', '121', '122', '123', '126', '128', '131', '137', '140', '142', '145', '152', '153', '154', '156', '157', '159', '166', '170', '172', '176', '178', '180', '181', '183', '184', '190', '191', '192', '193', '197', '200', '206', '208', '209', '213', '215', '216', '223', '225', '227', '230', '233', '234', '235', '240', '245', '246', '248', '253', '256', '258', '260', '261', '262', '263', '270', '272', '273', '276', '278', '280', '281', '283', '286', '291', '292', '296', '297', '299', '302', '303', '306', '308', '309', '310', '312', '317', '318', '323', '324', '325', '329', '330', '334', '335', '337', '346', '347', '349', '353', '355', '359', '361', '362', '365', '373', '374', '377', '380', '381', '385', '386', '387', '394', '395', '396', '397', '398', '402', '403', '404', '406', '407', '408', '412', '414', '429', '430', '439', '442', '443', '454', '457', '458', '461', '462', '464', '472', '475', '476', '479', '489', '493', '498', '499', '501', '502', '503', '512', '513', '515', '516', '519', '522', '523', '524', '525', '536', '540', '541', '544', '545', '549', '552', '554', '557', '559', '560', '562', '563', '565', '567', '569', '574', '577', '586', '588', '593', '596', '597', '598', '602', '603', '613', '622', '624', '625', '627', '640', '649', '652', '655', '656', '663', '667', '674', '675', '678', '681', '682', '688', '689', '692', '693', '698', '704', '705', '709', '718', '719', '732', '738', '739', '740', '741', '742', '744', '745', '747', '751', '752', '753', '759', '760', '761', '763', '765', '768', '771', '773', '774', '778', '779', '780', '781', '787', '788', '792', '796', '798', '799', '806', '815', '816', '818', '819', '829', '834', '835', '838', '840', '841', '844', '848', '856', '859', '864', '865', '867', '870', '872', '874', '879', '881', '883', '887', '893', '897', '901', '903', '904', '909', '910', '912', '913', '914', '916', '919', '921', '925', '926', '933', '934', '938', '939', '948', '950', '951', '957', '961', '964', '965', '968', '969', '971', '973', '978', '979', '980', '981', '982', '983', '984', '991', '994', '995', '996', '997', '999', '1000', '1001', '1002', '1007', '1008', '1013', '1018', '1019', '1024', '1025', '1029', '1030', '1032', '1035', '1038', '1039', '1052', '1055', '1059', '1060', '1065', '1066', '1070', '1075', '1076', '1077', '1078', '1080', '1081', '1088', '1089', '1097', '1102', '1103', '1105', '1107', '1109', '1110', '1112', '1113', '1114', '1116', '1118', '1121', '1129', '1130', '1134', '1143', '1144', '1147', '1149', '1154', '1155', '1156', '1158', '1165', '1166', '1167', '1172', '1173', '1175', '1176', '1180', '1187', '1198', '1202', '1205', '1206', '1207', '1208', '1210', '1212', '1213', '1214', '1217', '1220', '1224', '1233', '1234', '1236', '1239', '1243', '1246', '1250', '1253', '1254', '1257', '1258', '1262', '1263', '1266', '1267', '1269', '1271', '1275', '1278', '1281', '1282', '1283', '1284', '1287', '1288', '1289', '1292', '1293', '1298', '1300', '1301', '1306', '1308', '1310', '1315', '1320', '1321', '1322', '1323', '1324', '1328', '1331', '1333', '1334', '1340', '1341', '1343', '1345', '1351', '1355', '1356', '1358', '1360', '1362', '1366', '1367', '1369', '1373', '1375', '1380', '1385', '1387', '1390', '1391', '1394', '1395', '1397', '1401', '1405', '1409', '1411', '1414', '1415', '1416', '1418', '1421', '1422', '1423', '1425', '1430', '1433', '1436', '1437', '1438', '1444', '1446', '1451', '1457', '1459', '1460', '1462', '1463', '1465', '1468', '1472', '1473', '1474', '1478', '1480', '1483', '1484', '1488', '1491', '1493', '1494', '1495', '1499', '1504', '1505', '1511', '1514', '1516', '1522', '1524', '1526', '1527', '1529', '1537', '1539', '1542', '1543', '1547', '1548', '1551', '1553', '1555', '1556', '1557', '1561', '1562', '1563', '1564', '1568', '1572', '1574', '1578', '1585', '1588', '1591', '1592', '1594', '1595', '1596', '1598', '1603', '1606', '1611', '1613', '1620', '1621', '1625', '1628', '1629', '1631', '1632', '1634', '1639', '1642', '1643', '1646', '1647', '1649', '1650', '1651', '1652', '1656', '1658', '1663', '1667', '1671', '1672', '1673', '1676', '1677', '1680', '1684', '1696', '1697', '1701', '1703', '1705', '1706', '1709', '1712', '1715', '1717', '1718', '1722', '1724', '1725', '1730', '1731', '1741', '1748', '1751', '1752', '1758', '1760', '1761', '1765', '1770', '1773', '1777', '1781', '1782', '1783', '1785', '1787', '1795', '1801', '1803', '1808', '1809', '1813', '1819', '1821', '1822', '1828', '1829', '1830', '1831', '1842', '1843', '1849', '1853', '1860', '1862', '1863', '1865', '1867', '1868', '1870', '1871', '1877', '1878', '1883', '1884', '1887', '1889', '1891', '1893', '1898', '1899', '1900', '1902', '1903', '1911', '1913', '1914', '1919', '1922', '1925', '1927', '1931', '1933', '1936', '1937', '1941', '1942', '1943', '1946', '1948', '1949', '1950', '1954', '1963', '1971', '1976', '1977', '1978', '1979', '1981', '1982', '1984', '1985', '1986', '1987', '1989', '1990', '1992', '1994', '1995', '1997', '1998', '2000']",False,5000,True,2,3518073eec,0.0,1.0,1.0
./expes/v2_2021-03-19_issda-30_2000-prng-1-w5-p2,30_issda-2000,2000,first-2000,400,20,rng,num-start-600,600,25726,classic,5054.034387588501,False,,False,0,,,0,"['4', '5', '12', '18', '19', '26', '30', '35', '36', '37', '38', '43', '45', '46', '49', '53', '58', '59', '60', '61', '63', '67', '71', '73', '77', '78', '83', '90', '98', '115', '121', '130', '134', '143', '145', '157', '171', '174', '178', '188', '193', '198', '203', '205', '210', '214', '222', '223', '225', '234', '242', '248', '258', '265', '268', '273', '276', '277', '300', '322', '325', '327', '329', '336', '342', '343', '345', '346', '348', '349', '352', '355', '363', '371', '379', '381', '386', '389', '398', '409', '410', '411', '412', '421', '422', '429', '430', '435', '437', '444', '446', '449', '452', '455', '458', '462', '465', '469', '471', '473', '476', '478', '481', '498', '512', '517', '520', '523', '530', '546', '551', '552', '559', '576', '577', '582', '594', '595', '604', '607', '608', '611', '612', '622', '628', '632', '636', '639', '651', '658', '660', '667', '672', '679', '682', '695', '704', '705', '706', '708', '709', '711', '724', '731', '747', '752', '759', '768', '775', '777', '778', '781', '786', '792', '799', '806', '807', '809', '814', '824', '828', '829', '847', '849', '853', '863', '865', '873', '874', '880', '885', '887', '897', '899', '913', '921', '924', '928', '932', '939', '941', '942', '944', '962', '968', '971', '984', '986', '993', '994', '1000', '1003', '1009', '1015', '1016', '1017', '1023', '1024', '1026', '1029', '1033', '1034', '1035', '1037', '1040', '1042', '1043', '1045', '1050', '1053', '1058', '1063', '1067', '1073', '1081', '1091', '1095', '1103', '1106', '1107', '1109', '1116', '1122', '1123', '1124', '1128', '1129', '1133', '1136', '1140', '1149', '1150', '1154', '1157', '1166', '1168', '1175', '1180', '1184', '1185', '1197', '1204', '1207', '1210', '1211', '1212', '1215', '1229', '1241', '1245', '1248', '1254', '1255', '1260', '1276', '1277', '1280', '1289', '1292', '1293', '1302', '1316', '1326', '1328', '1329', '1331', '1335', '1345', '1351', '1352', '1360', '1362', '1364', '1373', '1379', '1381', '1382', '1383', '1387', '1389', '1406', '1408', '1424', '1426', '1439', '1440', '1441', '1442', '1444', '1457', '1458', '1473', '1478', '1483', '1486', '1487', '1494', '1496', '1501', '1511', '1512', '1517', '1522', '1524', '1545', '1548', '1559', '1562', '1565', '1572', '1573', '1579', '1589', '1593', '1595', '1598', '1603', '1605', '1611', '1616', '1631', '1633', '1634', '1636', '1643', '1644', '1646', '1648', '1658', '1662', '1666', '1673', '1674', '1679', '1681', '1696', '1700', '1705', '1712', '1716', '1721', '1724', '1734', '1736', '1738', '1742', '1744', '1748', '1756', '1757', '1759', '1762', '1764', '1778', '1782', '1786', '1794', '1800', '1805', '1808', '1815', '1830', '1835', '1837', '1843', '1845', '1847', '1864', '1865', '1873', '1877', '1879', '1885', '1889', '1898', '1907', '1910', '1918', '1921', '1922', '1924', '1927', '1928', '1933', '1936', '1946', '1950', '1951', '1956', '1961', '1966', '1971', '1978', '1981', '1983', '1985', '1994', '1995', '1998', '1999']",True,5000,True,2,a9b6358cd5,0.0,0.0,0.0
./expes/v2_2021-03-19_issda-30_2000-prng-1-w5-p2,30_issda-2000,2000,first-2000,300,15,rng,num-start-2000,2000,25726,classic,1514.3287782669067,True,,True,1.0,1.0,1.0,1,"['7', '10', '14', '25', '28', '35', '41', '47', '53', '63', '68', '69', '70', '77', '90', '101', '105', '119', '125', '129', '130', '132', '144', '147', '164', '165', '171', '175', '177', '184', '186', '192', '195', '199', '200', '219', '221', '222', '223', '229', '233', '239', '248', '250', '259', '277', '281', '285', '288', '292', '304', '305', '308', '315', '317', '325', '330', '341', '349', '353', '359', '365', '389', '394', '396', '398', '402', '405', '411', '414', '426', '429', '431', '433', '451', '459', '462', '465', '470', '475', '480', '481', '500', '507', '522', '530', '547', '583', '586', '592', '594', '606', '608', '612', '614', '615', '619', '633', '643', '658', '664', '667', '692', '694', '698', '701', '703', '705', '720', '729', '731', '732', '738', '739', '746', '750', '757', '759', '769', '772', '773', '777', '780', '781', '787', '792', '800', '807', '812', '821', '825', '826', '834', '835', '840', '854', '856', '860', '868', '873', '883', '886', '893', '901', '905', '912', '914', '928', '929', '933', '935', '941', '966', '970', '972', '994', '999', '1000', '1001', '1014', '1019', '1020', '1022', '1028', '1030', '1032', '1035', '1038', '1040', '1045', '1054', '1058', '1059', '1065', '1066', '1067', '1077', '1080', '1082', '1083', '1090', '1106', '1117', '1121', '1142', '1155', '1156', '1166', '1174', '1175', '1186', '1188', '1190', '1191', '1197', '1206', '1230', '1231', '1232', '1238', '1240', '1243', '1253', '1256', '1265', '1271', '1278', '1281', '1296', '1315', '1319', '1323', '1326', '1327', '1331', '1342', '1346', '1347', '1349', '1354', '1358', '1359', '1414', '1416', '1436', '1437', '1438', '1444', '1445', '1451', '1466', '1469', '1474', '1477', '1486', '1487', '1493', '1518', '1523', '1524', '1525', '1534', '1548', '1555', '1556', '1566', '1570', '1619', '1632', '1653', '1655', '1656', '1662', '1668', '1673', '1678', '1699', '1701', '1703', '1709', '1712', '1713', '1728', '1742', '1746', '1752', '1755', '1762', '1780', '1793', '1799', '1805', '1809', '1826', '1838', '1847', '1848', '1850', '1851', '1854', '1857', '1858', '1860', '1862', '1867', '1870', '1900', '1902', '1910', '1918', '1929', '1938', '1946', '1961', '1971', '1977', '1983', '1987', '1993', '1997']",False,5000,True,2,321520bbd6,0.0,1.0,1.0
./expes/v2_2021-03-19_issda-30_2000-prng-1-w5-p2,30_issda-2000,2000,first-2000,200,10,rng,num-start-1400,1400,25726,classic,982.5325684547424,True,,True,1.0,1.0,1.0,1,"['3', '29', '34', '68', '80', '83', '128', '129', '142', '152', '165', '169', '184', '187', '188', '192', '195', '203', '207', '224', '237', '240', '256', '267', '286', '287', '292', '301', '307', '350', '377', '383', '388', '390', '392', '417', '419', '441', '448', '452', '455', '483', '489', '496', '498', '500', '514', '531', '533', '534', '556', '564', '565', '578', '590', '595', '597', '618', '622', '636', '648', '650', '656', '665', '667', '677', '682', '683', '687', '725', '732', '734', '762', '789', '802', '817', '830', '859', '862', '890', '907', '912', '918', '923', '967', '976', '977', '996', '997', '1003', '1009', '1011', '1034', '1041', '1048', '1068', '1069', '1075', '1091', '1107', '1108', '1113', '1121', '1122', '1124', '1129', '1132', '1147', '1163', '1179', '1188', '1195', '1203', '1204', '1208', '1222', '1233', '1236', '1252', '1254', '1255', '1267', '1281', '1291', '1312', '1314', '1345', '1353', '1369', '1391', '1392', '1400', '1401', '1433', '1435', '1442', '1445', '1448', '1455', '1474', '1495', '1496', '1499', '1548', '1552', '1553', '1606', '1608', '1625', '1628', '1635', '1638', '1645', '1646', '1649', '1660', '1663', '1669', '1683', '1690', '1691', '1696', '1699', '1700', '1716', '1721', '1726', '1730', '1731', '1740', '1742', '1773', '1777', '1783', '1793', '1796', '1824', '1827', '1834', '1840', '1841', '1848', '1860', '1864', '1870', '1876', '1878', '1879', '1881', '1882', '1889', '1891', '1892', '1911', '1946', '1974', '1978', '1980', '1982', '1983']",False,5000,True,2,61b73a4184,0.0,1.0,1.0
./expes/v2_2021-03-19_issda-30_2000-prng-1-w5-p2,30_issda-2000,2000,first-2000,500,25,rng,num-start-1800,1800,25726,classic,1782.1226034164429,True,,True,1.0,1.0,1.0,1,"['4', '7', '10', '12', '15', '20', '22', '27', '38', '41', '42', '48', '53', '55', '65', '71', '73', '76', '83', '84', '85', '88', '89', '92', '95', '106', '109', '110', '114', '121', '122', '124', '127', '128', '137', '138', '153', '154', '156', '158', '159', '160', '162', '164', '167', '170', '175', '178', '183', '185', '191', '192', '195', '199', '207', '212', '218', '227', '232', '233', '235', '238', '240', '243', '248', '251', '262', '273', '280', '285', '289', '291', '295', '298', '306', '307', '314', '318', '322', '326', '331', '332', '334', '338', '339', '343', '346', '348', '354', '358', '362', '364', '365', '368', '370', '377', '385', '392', '393', '397', '400', '401', '402', '405', '407', '411', '414', '416', '421', '425', '426', '427', '432', '433', '440', '441', '442', '448', '449', '455', '456', '469', '470', '475', '478', '479', '484', '487', '496', '497', '503', '507', '510', '511', '513', '516', '519', '521', '527', '528', '530', '532', '534', '536', '537', '550', '552', '557', '566', '567', '569', '574', '575', '585', '586', '591', '592', '593', '594', '595', '596', '598', '599', '600', '601', '607', '609', '615', '616', '620', '622', '625', '626', '635', '638', '639', '642', '645', '646', '657', '659', '662', '663', '666', '669', '670', '676', '678', '679', '690', '692', '694', '697', '703', '711', '718', '729', '731', '732', '738', '742', '743', '745', '748', '750', '762', '763', '781', '782', '794', '795', '796', '800', '803', '804', '809', '811', '812', '820', '823', '825', '826', '827', '839', '841', '843', '846', '848', '852', '855', '861', '863', '866', '868', '869', '877', '881', '883', '888', '889', '893', '899', '900', '901', '903', '904', '906', '909', '910', '925', '930', '932', '941', '948', '952', '957', '966', '968', '970', '979', '981', '992', '997', '1002', '1005', '1008', '1013', '1017', '1022', '1037', '1038', '1042', '1050', '1063', '1066', '1067', '1072', '1074', '1077', '1078', '1079', '1082', '1084', '1095', '1100', '1110', '1113', '1115', '1117', '1119', '1122', '1126', '1128', '1144', '1149', '1152', '1158', '1164', '1166', '1167', '1171', '1173', '1174', '1180', '1193', '1194', '1206', '1218', '1220', '1223', '1227', '1231', '1237', '1241', '1243', '1246', '1249', '1250', '1256', '1261', '1265', '1266', '1269', '1271', '1272', '1275', '1283', '1284', '1285', '1286', '1288', '1296', '1300', '1301', '1305', '1313', '1316', '1323', '1326', '1328', '1335', '1336', '1338', '1340', '1341', '1346', '1356', '1367', '1369', '1376', '1380', '1383', '1384', '1386', '1387', '1393', '1405', '1409', '1425', '1429', '1436', '1444', '1448', '1451', '1456', '1457', '1466', '1470', '1478', '1499', '1506', '1510', '1526', '1529', '1530', '1554', '1568', '1571', '1573', '1577', '1580', '1582', '1585', '1586', '1588', '1591', '1597', '1603', '1604', '1606', '1607', '1611', '1612', '1613', '1620', '1626', '1634', '1635', '1636', '1638', '1640', '1641', '1642', '1648', '1653', '1657', '1659', '1665', '1669', '1676', '1677', '1694', '1695', '1698', '1702', '1710', '1714', '1716', '1720', '1722', '1731', '1736', '1737', '1738', '1751', '1753', '1754', '1757', '1759', '1761', '1765', '1766', '1770', '1771', '1773', '1777', '1781', '1782', '1784', '1790', '1791', '1795', '1798', '1800', '1801', '1803', '1805', '1807', '1809', '1814', '1822', '1825', '1827', '1832', '1835', '1842', '1843', '1845', '1846', '1848', '1852', '1853', '1854', '1859', '1862', '1867', '1870', '1871', '1875', '1876', '1878', '1880', '1889', '1890', '1894', '1900', '1901', '1905', '1915', '1918', '1919', '1925', '1927', '1930', '1932', '1934', '1935', '1948', '1956', '1959', '1966', '1968', '1970', '1972', '1976', '1979', '1984', '1988', '1989', '1995']",False,5000,True,2,e4d8cc5f55,0.0,1.0,1.0
./expes/v2_2021-03-19_issda-30_2000-prng-1-w5-p2,30_issda-2000,2000,first-2000,700,35,rng,num-start-1400,1400,25726,classic,5119.585530996323,True,,False,1.0,1.0,1.0,1,"['1', '2', '4', '6', '8', '10', '16', '21', '22', '30', '31', '32', '36', '37', '40', '41', '43', '49', '52', '53', '57', '58', '59', '60', '63', '65', '71', '72', '82', '83', '88', '92', '95', '98', '102', '103', '105', '106', '107', '112', '114', '122', '123', '127', '128', '131', '133', '137', '140', '141', '143', '144', '149', '153', '154', '158', '159', '166', '167', '171', '184', '185', '186', '191', '192', '194', '195', '196', '199', '201', '203', '210', '212', '214', '218', '219', '220', '227', '229', '230', '231', '232', '234', '235', '236', '243', '244', '245', '247', '249', '250', '252', '253', '255', '258', '260', '264', '267', '270', '273', '274', '277', '281', '289', '294', '300', '301', '307', '310', '314', '316', '325', '330', '331', '332', '338', '339', '345', '349', '350', '352', '353', '358', '360', '364', '366', '371', '372', '374', '377', '380', '387', '388', '389', '395', '397', '400', '403', '405', '407', '408', '409', '410', '411', '415', '416', '419', '420', '421', '425', '426', '429', '431', '434', '438', '443', '444', '447', '451', '455', '456', '458', '461', '463', '464', '468', '469', '471', '472', '473', '480', '483', '484', '485', '494', '495', '496', '498', '500', '501', '502', '505', '506', '507', '509', '510', '513', '515', '516', '517', '519', '522', '523', '524', '525', '526', '530', '533', '534', '539', '540', '542', '544', '545', '547', '555', '556', '558', '560', '561', '562', '564', '565', '571', '575', '576', '577', '578', '579', '580', '588', '594', '596', '597', '601', '606', '607', '608', '616', '617', '620', '621', '625', '626', '628', '629', '634', '636', '637', '640', '644', '647', '650', '652', '654', '661', '662', '666', '677', '680', '683', '684', '687', '691', '694', '696', '697', '703', '709', '712', '714', '718', '720', '722', '724', '726', '729', '734', '738', '739', '740', '745', '746', '748', '749', '751', '754', '755', '756', '764', '771', '772', '777', '780', '783', '784', '787', '788', '791', '792', '793', '794', '795', '805', '807', '808', '813', '815', '818', '825', '827', '831', '832', '833', '844', '856', '858', '862', '863', '864', '866', '867', '869', '871', '873', '874', '880', '886', '893', '896', '898', '899', '904', '905', '907', '910', '912', '913', '917', '921', '922', '925', '927', '929', '931', '932', '933', '942', '944', '956', '960', '961', '962', '963', '965', '969', '970', '972', '974', '975', '977', '979', '984', '986', '987', '992', '993', '994', '996', '997', '998', '1000', '1002', '1005', '1012', '1014', '1015', '1020', '1025', '1026', '1029', '1034', '1035', '1038', '1039', '1041', '1044', '1048', '1049', '1053', '1058', '1065', '1066', '1068', '1069', '1073', '1077', '1080', '1082', '1086', '1090', '1092', '1094', '1095', '1096', '1098', '1101', '1103', '1107', '1109', '1110', '1111', '1113', '1116', '1117', '1119', '1124', '1126', '1130', '1134', '1138', '1140', '1142', '1143', '1144', '1146', '1147', '1150', '1161', '1163', '1166', '1167', '1169', '1171', '1182', '1184', '1186', '1192', '1195', '1197', '1201', '1205', '1206', '1207', '1211', '1216', '1218', '1219', '1220', '1221', '1232', '1234', '1237', '1240', '1245', '1249', '1255', '1261', '1262', '1279', '1281', '1283', '1285', '1287', '1294', '1296', '1298', '1301', '1304', '1306', '1310', '1313', '1315', '1318', '1321', '1322', '1323', '1324', '1325', '1327', '1331', '1335', '1336', '1339', '1343', '1344', '1345', '1346', '1348', '1349', '1351', '1356', '1360', '1363', '1365', '1369', '1374', '1377', '1379', '1383', '1386', '1393', '1394', '1395', '1396', '1398', '1402', '1404', '1406', '1407', '1416', '1418', '1427', '1437', '1439', '1440', '1441', '1442', '1444', '1446', '1454', '1456', '1457', '1463', '1464', '1466', '1471', '1472', '1478', '1484', '1485', '1486', '1487', '1496', '1497', '1504', '1506', '1514', '1515', '1516', '1517', '1519', '1525', '1527', '1529', '1530', '1533', '1539', '1540', '1541', '1546', '1547', '1551', '1557', '1559', '1560', '1564', '1565', '1567', '1571', '1575', '1577', '1578', '1584', '1585', '1587', '1588', '1593', '1597', '1602', '1603', '1607', '1608', '1613', '1621', '1623', '1626', '1627', '1632', '1634', '1635', '1641', '1646', '1648', '1651', '1652', '1654', '1655', '1656', '1658', '1660', '1664', '1668', '1670', '1673', '1676', '1678', '1680', '1682', '1685', '1686', '1687', '1688', '1691', '1694', '1696', '1697', '1698', '1701', '1704', '1711', '1714', '1720', '1724', '1735', '1737', '1739', '1740', '1741', '1745', '1748', '1750', '1752', '1756', '1761', '1762', '1765', '1768', '1770', '1771', '1772', '1773', '1776', '1784', '1786', '1788', '1791', '1792', '1795', '1800', '1802', '1807', '1810', '1814', '1815', '1816', '1819', '1820', '1821', '1835', '1836', '1837', '1840', '1841', '1842', '1845', '1846', '1847', '1848', '1852', '1853', '1861', '1862', '1864', '1865', '1875', '1877', '1879', '1886', '1888', '1889', '1896', '1901', '1902', '1908', '1910', '1911', '1912', '1913', '1914', '1917', '1918', '1920', '1921', '1924', '1926', '1930', '1932', '1934', '1937', '1938', '1946', '1948', '1950', '1951', '1955', '1959', '1964', '1965', '1967', '1968', '1974', '1977', '1983', '1990', '1991', '1992', '1993', '1995', '2000']",True,5000,True,2,12cced9370,0.0,0.0,1.0
./expes/v2_2021-03-19_issda-30_2000-prng-1-w5-p2,30_issda-2000,2000,first-2000,700,35,rng,num-start-1800,1800,25726,classic,2136.696265935898,True,,True,1.0,1.0,1.0,1,"['7', '11', '15', '16', '17', '20', '22', '24', '25', '32', '35', '37', '38', '40', '43', '54', '56', '57', '59', '62', '63', '64', '69', '70', '73', '74', '80', '84', '90', '97', '101', '102', '103', '104', '106', '107', '110', '111', '114', '116', '118', '120', '123', '124', '128', '132', '135', '142', '145', '146', '147', '150', '151', '154', '158', '159', '162', '163', '166', '168', '171', '175', '178', '180', '182', '191', '192', '193', '197', '201', '202', '203', '204', '213', '214', '217', '218', '221', '222', '225', '226', '227', '232', '233', '236', '240', '241', '251', '252', '253', '255', '256', '257', '261', '263', '264', '265', '266', '269', '281', '282', '284', '287', '288', '291', '293', '294', '295', '301', '305', '307', '309', '310', '311', '316', '322', '331', '333', '335', '337', '346', '347', '349', '350', '353', '356', '358', '367', '376', '377', '386', '387', '388', '392', '394', '395', '401', '402', '403', '404', '405', '407', '408', '411', '417', '418', '427', '431', '433', '435', '437', '438', '439', '444', '448', '450', '452', '455', '456', '461', '467', '470', '472', '474', '475', '483', '484', '486', '489', '490', '496', '497', '499', '500', '510', '512', '513', '514', '515', '517', '523', '526', '528', '529', '532', '533', '538', '540', '542', '544', '545', '548', '550', '552', '554', '559', '563', '565', '570', '577', '581', '584', '591', '592', '594', '597', '602', '603', '604', '605', '607', '608', '609', '616', '618', '620', '621', '622', '625', '630', '631', '632', '633', '634', '635', '636', '638', '639', '642', '645', '647', '648', '650', '651', '652', '654', '659', '660', '663', '667', '669', '670', '674', '675', '678', '679', '681', '685', '686', '687', '689', '691', '695', '696', '712', '713', '714', '720', '721', '727', '728', '729', '731', '737', '743', '746', '749', '752', '754', '757', '762', '763', '768', '769', '775', '776', '778', '781', '783', '786', '787', '791', '796', '802', '803', '805', '807', '820', '823', '826', '827', '828', '829', '830', '831', '833', '834', '836', '837', '840', '848', '849', '850', '854', '859', '860', '862', '866', '867', '875', '877', '882', '887', '889', '893', '894', '896', '897', '904', '905', '907', '908', '912', '913', '915', '920', '921', '928', '933', '941', '945', '948', '950', '957', '958', '959', '965', '967', '970', '971', '973', '975', '978', '981', '984', '987', '989', '990', '992', '994', '996', '997', '998', '1003', '1008', '1010', '1011', '1013', '1016', '1018', '1026', '1027', '1028', '1029', '1033', '1034', '1037', '1039', '1053', '1054', '1056', '1057', '1060', '1061', '1063', '1064', '1070', '1072', '1076', '1077', '1080', '1082', '1089', '1091', '1092', '1095', '1096', '1099', '1100', '1103', '1104', '1105', '1106', '1107', '1111', '1113', '1114', '1116', '1121', '1122', '1126', '1129', '1132', '1134', '1135', '1138', '1139', '1141', '1143', '1145', '1146', '1153', '1154', '1156', '1164', '1166', '1171', '1172', '1178', '1180', '1182', '1184', '1185', '1188', '1191', '1193', '1197', '1201', '1202', '1209', '1212', '1215', '1226', '1229', '1231', '1234', '1237', '1238', '1241', '1245', '1250', '1252', '1253', '1254', '1255', '1256', '1262', '1264', '1271', '1272', '1282', '1283', '1284', '1295', '1297', '1298', '1300', '1302', '1304', '1309', '1312', '1320', '1324', '1325', '1326', '1327', '1330', '1332', '1333', '1340', '1347', '1348', '1349', '1350', '1355', '1359', '1365', '1367', '1383', '1386', '1388', '1390', '1393', '1395', '1398', '1402', '1403', '1404', '1405', '1412', '1416', '1419', '1433', '1442', '1443', '1445', '1446', '1449', '1453', '1455', '1458', '1462', '1465', '1466', '1478', '1484', '1485', '1489', '1493', '1497', '1499', '1505', '1507', '1508', '1510', '1511', '1513', '1514', '1522', '1523', '1525', '1526', '1529', '1531', '1533', '1535', '1537', '1540', '1541', '1543', '1546', '1547', '1552', '1553', '1554', '1556', '1557', '1561', '1563', '1564', '1566', '1567', '1568', '1569', '1572', '1573', '1579', '1581', '1582', '1584', '1585', '1586', '1591', '1594', '1598', '1600', '1602', '1603', '1607', '1611', '1613', '1614', '1618', '1619', '1622', '1626', '1627', '1628', '1630', '1635', '1637', '1640', '1642', '1643', '1644', '1645', '1649', '1653', '1655', '1657', '1658', '1661', '1664', '1665', '1666', '1668', '1669', '1670', '1673', '1676', '1679', '1680', '1682', '1684', '1689', '1693', '1698', '1702', '1703', '1705', '1715', '1719', '1724', '1725', '1734', '1738', '1742', '1744', '1745', '1747', '1749', '1753', '1756', '1757', '1759', '1761', '1769', '1772', '1774', '1776', '1777', '1778', '1780', '1783', '1786', '1789', '1791', '1793', '1794', '1795', '1800', '1805', '1808', '1814', '1819', '1823', '1829', '1830', '1837', '1838', '1840', '1841', '1842', '1844', '1845', '1847', '1848', '1856', '1858', '1859', '1861', '1862', '1864', '1870', '1878', '1880', '1881', '1885', '1888', '1892', '1893', '1897', '1898', '1900', '1903', '1905', '1907', '1911', '1917', '1920', '1923', '1925', '1926', '1927', '1930', '1931', '1936', '1944', '1948', '1949', '1952', '1957', '1958', '1960', '1961', '1962', '1964', '1966', '1968', '1970', '1975', '1976', '1982', '1987', '1990', '1992', '1994', '1996', '1997', '1998']",False,5000,True,2,487140d38b,0.0,1.0,1.0
./expes/v2_2021-03-19_issda-30_2000-prng-1-w5-p2,30_issda-2000,2000,first-2000,800,40,rng,num-start-1000,1000,25726,classic,4313.483071565628,True,,True,1.0,1.0,1.0,1,"['4', '8', '13', '14', '16', '17', '18', '22', '23', '26', '27', '35', '36', '39', '40', '43', '45', '49', '50', '51', '53', '56', '58', '59', '61', '63', '64', '67', '71', '76', '78', '81', '82', '88', '90', '93', '95', '101', '104', '106', '107', '108', '109', '116', '117', '119', '121', '125', '128', '132', '138', '146', '147', '148', '149', '150', '151', '153', '160', '166', '169', '170', '172', '173', '175', '179', '186', '187', '191', '199', '201', '202', '208', '210', '211', '212', '218', '222', '223', '225', '231', '232', '234', '236', '238', '240', '242', '245', '250', '251', '253', '256', '258', '260', '265', '270', '272', '275', '276', '277', '279', '280', '282', '284', '289', '290', '291', '292', '293', '297', '298', '300', '301', '304', '308', '311', '318', '319', '320', '325', '330', '333', '335', '336', '344', '347', '348', '349', '351', '352', '354', '355', '361', '363', '365', '368', '369', '373', '375', '377', '380', '385', '387', '388', '390', '393', '395', '399', '401', '402', '403', '404', '405', '408', '409', '410', '411', '413', '419', '420', '421', '423', '424', '425', '428', '429', '431', '432', '433', '435', '439', '451', '452', '455', '458', '460', '463', '466', '467', '468', '469', '471', '473', '475', '478', '482', '489', '490', '492', '495', '496', '504', '507', '512', '513', '516', '517', '522', '523', '526', '529', '531', '532', '534', '536', '538', '540', '545', '546', '549', '550', '551', '555', '560', '561', '562', '566', '567', '568', '569', '570', '571', '572', '573', '574', '578', '579', '580', '584', '585', '587', '588', '594', '597', '599', '600', '601', '607', '608', '611', '614', '617', '626', '628', '630', '632', '635', '636', '637', '638', '639', '640', '641', '644', '648', '651', '658', '660', '661', '663', '669', '671', '673', '676', '677', '681', '687', '688', '689', '690', '691', '696', '697', '699', '700', '702', '704', '705', '710', '712', '714', '717', '718', '724', '725', '727', '728', '729', '730', '734', '735', '736', '737', '738', '740', '741', '742', '743', '744', '745', '746', '747', '748', '749', '751', '752', '753', '755', '761', '763', '767', '768', '775', '776', '778', '779', '781', '782', '787', '788', '789', '790', '796', '797', '800', '801', '803', '805', '807', '808', '810', '814', '818', '819', '820', '821', '825', '829', '831', '832', '834', '835', '837', '845', '848', '850', '851', '856', '858', '861', '862', '866', '867', '868', '869', '875', '879', '881', '884', '886', '888', '889', '892', '893', '898', '901', '902', '904', '909', '912', '919', '920', '928', '932', '934', '936', '939', '941', '942', '943', '944', '952', '954', '958', '962', '967', '972', '974', '976', '977', '978', '981', '985', '986', '989', '991', '994', '995', '997', '1000', '1003', '1004', '1005', '1007', '1008', '1009', '1012', '1013', '1021', '1024', '1025', '1026', '1027', '1028', '1029', '1030', '1032', '1033', '1035', '1039', '1043', '1048', '1049', '1052', '1053', '1056', '1057', '1058', '1059', '1063', '1065', '1066', '1067', '1068', '1070', '1071', '1074', '1077', '1078', '1080', '1081', '1083', '1084', '1088', '1092', '1094', '1095', '1096', '1098', '1099', '1101', '1102', '1105', '1108', '1109', '1110', '1113', '1115', '1119', '1120', '1123', '1124', '1125', '1126', '1127', '1130', '1135', '1137', '1138', '1141', '1143', '1144', '1147', '1151', '1154', '1156', '1157', '1164', '1166', '1168', '1169', '1174', '1181', '1183', '1189', '1190', '1202', '1203', '1206', '1208', '1209', '1215', '1217', '1221', '1226', '1227', '1230', '1232', '1234', '1235', '1243', '1244', '1245', '1247', '1248', '1252', '1255', '1262', '1264', '1265', '1266', '1268', '1269', '1271', '1272', '1273', '1275', '1276', '1279', '1280', '1285', '1286', '1289', '1295', '1296', '1299', '1302', '1305', '1307', '1310', '1312', '1313', '1316', '1318', '1320', '1327', '1331', '1332', '1335', '1338', '1340', '1344', '1347', '1349', '1351', '1354', '1355', '1356', '1357', '1359', '1360', '1365', '1367', '1369', '1370', '1371', '1372', '1376', '1377', '1380', '1384', '1388', '1389', '1390', '1391', '1392', '1395', '1396', '1398', '1400', '1402', '1403', '1404', '1405', '1407', '1409', '1410', '1411', '1412', '1414', '1415', '1419', '1422', '1425', '1426', '1428', '1430', '1432', '1435', '1436', '1444', '1446', '1455', '1463', '1465', '1466', '1467', '1473', '1477', '1487', '1488', '1498', '1500', '1504', '1505', '1507', '1510', '1514', '1520', '1523', '1526', '1530', '1533', '1534', '1538', '1540', '1543', '1544', '1548', '1550', '1551', '1552', '1556', '1558', '1560', '1561', '1565', '1567', '1568', '1570', '1575', '1579', '1581', '1582', '1585', '1588', '1592', '1596', '1606', '1607', '1609', '1611', '1613', '1616', '1617', '1618', '1621', '1622', '1623', '1625', '1629', '1631', '1632', '1634', '1635', '1638', '1639', '1640', '1641', '1642', '1646', '1651', '1654', '1655', '1657', '1659', '1660', '1662', '1665', '1669', '1671', '1677', '1678', '1679', '1681', '1682', '1685', '1688', '1690', '1692', '1693', '1701', '1702', '1704', '1705', '1707', '1710', '1711', '1712', '1714', '1716', '1718', '1719', '1722', '1723', '1724', '1726', '1727', '1728', '1729', '1731', '1732', '1734', '1735', '1739', '1740', '1747', '1751', '1753', '1758', '1760', '1761', '1762', '1763', '1766', '1767', '1771', '1773', '1774', '1779', '1781', '1788', '1789', '1802', '1806', '1807', '1812', '1814', '1816', '1818', '1822', '1824', '1829', '1832', '1835', '1836', '1838', '1839', '1845', '1846', '1849', '1850', '1851', '1856', '1857', '1858', '1863', '1865', '1866', '1868', '1874', '1875', '1877', '1878', '1882', '1885', '1892', '1893', '1895', '1897', '1899', '1900', '1908', '1909', '1911', '1912', '1913', '1915', '1918', '1920', '1921', '1925', '1926', '1928', '1933', '1934', '1939', '1941', '1945', '1951', '1952', '1955', '1958', '1959', '1960', '1964', '1965', '1968', '1971', '1972', '1975', '1978', '1979', '1981', '1982', '1989', '1990', '1992', '1999', '2000']",False,5000,True,2,9f95ddc77d,0.0,1.0,1.0
./expes/v2_2021-03-19_issda-30_2000-prng-1-w5-p2,30_issda-2000,2000,first-2000,1000,50,rng,num-start-1000,1000,25726,classic,3897.939389228821,True,,True,1.0,1.0,1.0,1,"['6', '8', '10', '11', '13', '14', '16', '17', '19', '23', '24', '25', '27', '28', '31', '32', '33', '35', '36', '37', '39', '40', '44', '46', '48', '49', '59', '60', '63', '64', '65', '70', '75', '77', '78', '80', '82', '83', '85', '87', '89', '91', '95', '98', '99', '100', '105', '108', '109', '110', '112', '113', '115', '116', '121', '122', '124', '125', '127', '128', '132', '133', '134', '135', '138', '139', '141', '145', '146', '149', '150', '151', '152', '156', '157', '158', '160', '161', '162', '166', '168', '171', '174', '176', '181', '183', '187', '189', '190', '193', '196', '198', '202', '204', '205', '206', '210', '213', '214', '220', '222', '223', '228', '231', '232', '237', '239', '240', '247', '248', '249', '252', '256', '258', '261', '263', '264', '267', '270', '271', '272', '273', '274', '279', '282', '283', '285', '288', '292', '293', '295', '296', '297', '298', '301', '302', '303', '306', '308', '309', '311', '312', '314', '315', '318', '319', '321', '322', '323', '324', '325', '328', '330', '331', '333', '335', '337', '338', '341', '344', '345', '347', '348', '349', '351', '353', '354', '355', '356', '357', '358', '359', '361', '366', '367', '368', '372', '376', '377', '378', '379', '383', '384', '385', '392', '393', '401', '402', '403', '405', '409', '410', '411', '418', '421', '423', '428', '429', '430', '433', '434', '435', '436', '438', '440', '441', '444', '446', '448', '449', '450', '451', '452', '453', '454', '455', '456', '458', '462', '463', '465', '467', '469', '470', '471', '474', '475', '476', '477', '478', '479', '481', '482', '483', '485', '486', '488', '489', '490', '491', '492', '493', '494', '497', '500', '505', '507', '511', '514', '515', '516', '518', '519', '521', '522', '523', '524', '525', '526', '529', '531', '533', '535', '536', '537', '540', '541', '545', '548', '553', '556', '557', '558', '560', '562', '566', '568', '569', '573', '575', '577', '581', '583', '587', '588', '589', '593', '594', '595', '605', '606', '607', '608', '609', '612', '613', '617', '618', '620', '623', '625', '626', '628', '635', '636', '638', '639', '642', '644', '645', '646', '647', '649', '650', '651', '652', '653', '655', '657', '659', '660', '661', '663', '666', '667', '669', '674', '676', '677', '678', '679', '680', '681', '682', '683', '684', '685', '686', '688', '689', '691', '692', '693', '694', '697', '702', '704', '705', '706', '712', '713', '714', '715', '719', '721', '722', '723', '724', '725', '726', '728', '729', '732', '735', '736', '738', '740', '742', '743', '744', '750', '752', '753', '754', '755', '756', '758', '760', '762', '763', '764', '765', '766', '768', '769', '770', '771', '775', '776', '778', '780', '781', '789', '793', '795', '796', '797', '799', '800', '801', '804', '807', '810', '814', '815', '818', '819', '822', '823', '825', '828', '829', '830', '831', '832', '834', '835', '836', '844', '847', '849', '852', '853', '855', '857', '860', '862', '864', '866', '867', '868', '870', '873', '874', '875', '878', '883', '886', '887', '888', '889', '890', '894', '895', '896', '898', '900', '901', '903', '905', '906', '907', '909', '910', '912', '913', '919', '920', '922', '923', '924', '926', '929', '931', '933', '938', '939', '941', '942', '943', '944', '945', '946', '947', '951', '955', '956', '957', '958', '959', '960', '963', '964', '970', '971', '972', '974', '976', '977', '980', '981', '983', '986', '987', '988', '989', '990', '992', '994', '995', '1003', '1005', '1006', '1008', '1009', '1011', '1012', '1014', '1015', '1017', '1019', '1020', '1021', '1022', '1024', '1025', '1027', '1029', '1033', '1035', '1036', '1037', '1038', '1039', '1040', '1041', '1046', '1047', '1048', '1050', '1052', '1056', '1057', '1058', '1059', '1060', '1061', '1062', '1064', '1065', '1066', '1067', '1068', '1071', '1075', '1077', '1082', '1085', '1086', '1089', '1092', '1094', '1097', '1098', '1100', '1103', '1104', '1110', '1114', '1115', '1118', '1119', '1121', '1122', '1124', '1127', '1130', '1134', '1135', '1137', '1141', '1144', '1147', '1149', '1157', '1158', '1160', '1161', '1162', '1164', '1167', '1168', '1169', '1170', '1171', '1172', '1176', '1178', '1180', '1183', '1184', '1186', '1187', '1188', '1190', '1191', '1193', '1196', '1197', '1199', '1202', '1203', '1204', '1209', '1216', '1220', '1221', '1222', '1225', '1227', '1230', '1236', '1237', '1238', '1239', '1240', '1242', '1245', '1246', '1250', '1251', '1253', '1254', '1257', '1258', '1260', '1261', '1263', '1265', '1267', '1270', '1271', '1273', '1275', '1277', '1280', '1283', '1285', '1286', '1287', '1288', '1293', '1295', '1296', '1300', '1302', '1303', '1306', '1307', '1311', '1314', '1316', '1317', '1318', '1319', '1322', '1323', '1324', '1325', '1326', '1328', '1329', '1330', '1336', '1341', '1342', '1343', '1344', '1345', '1346', '1348', '1349', '1350', '1352', '1357', '1358', '1362', '1363', '1370', '1371', '1375', '1376', '1379', '1386', '1387', '1388', '1390', '1391', '1392', '1393', '1394', '1396', '1398', '1399', '1402', '1404', '1410', '1411', '1412', '1414', '1415', '1417', '1419', '1420', '1422', '1423', '1425', '1426', '1427', '1428', '1435', '1436', '1438', '1445', '1447', '1450', '1451', '1452', '1454', '1455', '1456', '1457', '1459', '1461', '1465', '1472', '1473', '1475', '1476', '1477', '1478', '1482', '1483', '1486', '1488', '1489', '1493', '1496', '1499', '1505', '1506', '1508', '1511', '1512', '1513', '1515', '1516', '1518', '1519', '1520', '1522', '1524', '1526', '1527', '1528', '1534', '1535', '1537', '1538', '1539', '1541', '1542', '1543', '1544', '1546', '1547', '1549', '1551', '1552', '1554', '1557', '1558', '1561', '1568', '1572', '1573', '1574', '1576', '1581', '1582', '1583', '1585', '1586', '1589', '1590', '1591', '1592', '1593', '1595', '1600', '1601', '1602', '1604', '1605', '1606', '1608', '1613', '1614', '1615', '1616', '1623', '1625', '1627', '1629', '1631', '1632', '1633', '1634', '1636', '1637', '1639', '1640', '1641', '1645', '1646', '1647', '1648', '1649', '1650', '1651', '1653', '1655', '1656', '1658', '1659', '1660', '1662', '1663', '1664', '1667', '1671', '1672', '1681', '1683', '1684', '1686', '1690', '1693', '1694', '1695', '1701', '1702', '1705', '1706', '1707', '1708', '1709', '1711', '1713', '1716', '1717', '1718', '1721', '1722', '1724', '1726', '1728', '1729', '1731', '1732', '1735', '1736', '1737', '1738', '1741', '1743', '1744', '1745', '1747', '1748', '1749', '1751', '1752', '1753', '1756', '1757', '1763', '1768', '1769', '1773', '1776', '1777', '1780', '1781', '1782', '1783', '1784', '1785', '1786', '1787', '1788', '1791', '1792', '1793', '1797', '1800', '1801', '1802', '1804', '1806', '1809', '1812', '1813', '1815', '1816', '1817', '1818', '1823', '1824', '1827', '1829', '1830', '1831', '1833', '1835', '1836', '1841', '1842', '1847', '1848', '1849', '1850', '1851', '1854', '1857', '1858', '1859', '1862', '1863', '1867', '1870', '1874', '1875', '1877', '1880', '1884', '1886', '1888', '1889', '1890', '1891', '1893', '1894', '1895', '1896', '1899', '1900', '1901', '1906', '1908', '1911', '1913', '1914', '1915', '1916', '1917', '1918', '1922', '1926', '1927', '1928', '1930', '1931', '1932', '1935', '1936', '1938', '1940', '1942', '1945', '1946', '1947', '1948', '1949', '1950', '1951', '1952', '1953', '1954', '1955', '1958', '1959', '1960', '1964', '1965', '1967', '1971', '1973', '1977', '1979', '1980', '1981', '1982', '1983', '1984', '1985', '1987', '1992', '1998', '2000']",False,5000,True,2,daed77a1d3,0.0,1.0,1.0
./expes/v2_2021-03-19_issda-30_2000-prng-1-w5-p2,30_issda-2000,2000,first-2000,100,5,rng,num-start-400,400,25726,classic,124.24212789535522,True,,True,1.0,1.0,1.0,1,"['3', '29', '83', '128', '129', '152', '192', '195', '203', '207', '286', '287', '292', '301', '392', '419', '448', '455', '489', '500', '514', '531', '534', '578', '622', '636', '648', '667', '677', '683', '725', '734', '789', '817', '830', '862', '890', '907', '918', '967', '977', '996', '1011', '1034', '1048', '1068', '1091', '1113', '1124', '1132', '1147', '1163', '1195', '1233', '1252', '1254', '1267', '1281', '1312', '1369', '1401', '1442', '1445', '1455', '1474', '1495', '1496', '1548', '1553', '1606', '1608', '1638', '1645', '1646', '1649', '1660', '1690', '1696', '1700', '1721', '1730', '1742', '1773', '1777', '1783', '1824', '1827', '1841', '1848', '1860', '1864', '1870', '1876', '1879', '1881', '1882', '1978', '1980', '1982', '1983']",False,5000,True,2,c400c757a2,0.0,1.0,1.0
./expes/v2_2021-03-19_issda-30_2000-prng-1-w5-p2,30_issda-2000,2000,first-2000,900,45,rng,num-start-1000,1000,25726,classic,5078.313399076462,True,,False,1.0,1.0,1.0,1,"['1', '5', '6', '9', '11', '14', '15', '18', '26', '27', '30', '31', '32', '34', '35', '37', '39', '41', '43', '45', '47', '48', '49', '50', '51', '52', '54', '55', '57', '66', '69', '71', '73', '75', '81', '84', '86', '87', '89', '90', '93', '96', '98', '100', '102', '110', '114', '118', '123', '127', '128', '130', '131', '132', '133', '135', '137', '140', '141', '142', '145', '147', '148', '149', '151', '153', '155', '159', '162', '164', '167', '171', '172', '175', '176', '177', '178', '180', '181', '184', '187', '188', '190', '192', '193', '194', '195', '196', '199', '202', '204', '207', '208', '210', '211', '212', '215', '216', '219', '220', '221', '223', '227', '228', '230', '232', '233', '234', '236', '238', '239', '242', '245', '246', '248', '249', '251', '253', '257', '258', '259', '262', '263', '264', '265', '267', '271', '272', '273', '274', '276', '279', '280', '282', '284', '286', '287', '288', '290', '294', '297', '300', '304', '305', '307', '309', '310', '312', '314', '316', '317', '320', '325', '326', '336', '337', '338', '340', '341', '342', '349', '351', '352', '354', '359', '361', '362', '363', '365', '366', '369', '370', '371', '372', '376', '377', '380', '382', '383', '384', '385', '387', '388', '389', '390', '392', '393', '396', '397', '399', '402', '404', '409', '410', '413', '414', '415', '416', '421', '422', '425', '428', '429', '430', '431', '432', '436', '441', '444', '450', '453', '456', '459', '461', '462', '464', '465', '466', '472', '477', '486', '489', '493', '494', '495', '496', '500', '502', '503', '509', '511', '512', '515', '517', '519', '520', '521', '523', '530', '533', '534', '535', '537', '539', '540', '542', '549', '550', '551', '555', '556', '557', '560', '562', '563', '564', '567', '568', '571', '572', '576', '579', '581', '582', '585', '586', '591', '592', '593', '594', '597', '599', '601', '602', '603', '606', '609', '612', '613', '614', '616', '617', '619', '623', '624', '627', '630', '632', '633', '634', '636', '637', '638', '641', '642', '646', '648', '650', '651', '660', '663', '665', '667', '671', '672', '674', '675', '676', '680', '682', '684', '689', '690', '696', '698', '700', '703', '707', '710', '711', '712', '716', '718', '720', '721', '723', '724', '725', '726', '731', '734', '735', '737', '742', '743', '744', '745', '746', '747', '750', '751', '752', '755', '756', '757', '758', '760', '763', '771', '772', '776', '777', '781', '785', '788', '792', '793', '794', '795', '796', '800', '801', '803', '804', '806', '812', '813', '817', '819', '821', '823', '827', '829', '830', '831', '833', '843', '844', '845', '846', '847', '848', '849', '852', '855', '856', '857', '862', '867', '872', '874', '875', '878', '879', '880', '881', '882', '888', '890', '893', '895', '896', '897', '898', '899', '901', '902', '906', '908', '910', '912', '914', '915', '917', '921', '922', '923', '925', '926', '928', '930', '931', '932', '933', '934', '937', '938', '939', '941', '943', '945', '947', '949', '950', '952', '955', '956', '957', '959', '960', '962', '963', '964', '967', '968', '969', '975', '978', '979', '980', '982', '983', '984', '986', '987', '989', '991', '994', '995', '996', '998', '999', '1001', '1002', '1003', '1004', '1006', '1008', '1011', '1012', '1015', '1018', '1019', '1021', '1022', '1025', '1026', '1028', '1029', '1030', '1034', '1036', '1043', '1048', '1049', '1050', '1051', '1054', '1056', '1057', '1058', '1065', '1066', '1067', '1069', '1072', '1073', '1075', '1077', '1078', '1080', '1083', '1084', '1085', '1087', '1089', '1090', '1094', '1095', '1098', '1099', '1100', '1102', '1105', '1106', '1110', '1111', '1115', '1117', '1118', '1120', '1121', '1124', '1125', '1126', '1129', '1134', '1135', '1136', '1137', '1141', '1143', '1145', '1151', '1152', '1153', '1156', '1165', '1166', '1167', '1169', '1175', '1178', '1179', '1181', '1184', '1186', '1188', '1190', '1193', '1194', '1195', '1198', '1199', '1204', '1206', '1208', '1210', '1211', '1213', '1215', '1216', '1217', '1218', '1219', '1221', '1222', '1223', '1224', '1226', '1227', '1229', '1232', '1243', '1246', '1248', '1249', '1251', '1254', '1256', '1259', '1261', '1265', '1267', '1268', '1269', '1270', '1271', '1272', '1274', '1280', '1282', '1283', '1286', '1287', '1290', '1292', '1293', '1299', '1301', '1302', '1303', '1305', '1308', '1310', '1311', '1313', '1320', '1323', '1325', '1329', '1330', '1331', '1333', '1337', '1339', '1344', '1345', '1347', '1349', '1351', '1352', '1355', '1356', '1360', '1364', '1367', '1368', '1370', '1371', '1372', '1374', '1376', '1378', '1380', '1381', '1385', '1387', '1388', '1389', '1394', '1396', '1397', '1398', '1401', '1405', '1406', '1408', '1409', '1410', '1411', '1420', '1423', '1426', '1427', '1428', '1429', '1432', '1435', '1438', '1442', '1445', '1452', '1454', '1461', '1463', '1465', '1467', '1468', '1470', '1473', '1474', '1475', '1485', '1486', '1490', '1491', '1497', '1498', '1503', '1507', '1509', '1510', '1512', '1513', '1514', '1519', '1523', '1524', '1525', '1526', '1528', '1532', '1534', '1540', '1541', '1543', '1545', '1546', '1548', '1550', '1553', '1556', '1557', '1559', '1560', '1561', '1565', '1568', '1570', '1572', '1577', '1584', '1586', '1587', '1588', '1591', '1594', '1595', '1601', '1602', '1604', '1605', '1607', '1608', '1609', '1611', '1612', '1614', '1617', '1618', '1622', '1623', '1624', '1625', '1626', '1629', '1630', '1632', '1639', '1642', '1645', '1646', '1647', '1648', '1653', '1655', '1661', '1662', '1663', '1667', '1670', '1673', '1675', '1679', '1684', '1686', '1688', '1689', '1690', '1692', '1696', '1698', '1702', '1704', '1705', '1708', '1710', '1712', '1715', '1720', '1722', '1724', '1729', '1730', '1731', '1732', '1733', '1735', '1737', '1738', '1740', '1741', '1742', '1744', '1745', '1747', '1748', '1752', '1753', '1754', '1755', '1762', '1763', '1766', '1767', '1768', '1770', '1774', '1777', '1779', '1786', '1790', '1795', '1799', '1800', '1801', '1804', '1809', '1811', '1812', '1814', '1815', '1816', '1820', '1822', '1824', '1831', '1832', '1833', '1834', '1836', '1837', '1838', '1839', '1843', '1849', '1850', '1851', '1853', '1854', '1856', '1859', '1860', '1862', '1863', '1865', '1874', '1876', '1883', '1884', '1885', '1887', '1892', '1893', '1896', '1898', '1901', '1903', '1905', '1907', '1908', '1911', '1913', '1914', '1915', '1916', '1917', '1918', '1919', '1921', '1924', '1925', '1929', '1932', '1933', '1936', '1937', '1938', '1941', '1942', '1945', '1946', '1947', '1949', '1952', '1954', '1956', '1957', '1959', '1960', '1963', '1964', '1970', '1973', '1974', '1977', '1978', '1979', '1980', '1981', '1983', '1984', '1987', '1989', '1990', '1991', '1993', '1995', '1999']",True,5000,True,2,61420dc080,0.0,0.0,1.0
