expe,clients,clients_size,clients_subset,agg_size,agg_size_pc,method,days,days_size,days_total,noise_method,time,valid,valid_sum,success,score_avg,score_min,score_max,nsols,oracle,wall_hit,wall_time,pooled,pool_size,uuid,infeasible,optimal,valid_sums
./expes/v2_2021-03-19_issda-30_2000-prng-1-w5-p2,30_issda-2000,2000,first-2000,400,20,rng,num-start-600,600,25726,classic,5042.582099914551,False,,False,0,,,0,"['11', '16', '17', '20', '22', '25', '32', '37', '40', '43', '54', '56', '57', '59', '62', '69', '101', '102', '103', '104', '106', '107', '110', '111', '120', '123', '128', '132', '135', '142', '151', '154', '159', '166', '168', '171', '175', '191', '192', '193', '202', '203', '217', '226', '227', '232', '240', '241', '252', '253', '256', '261', '263', '266', '281', '282', '284', '287', '291', '293', '309', '310', '311', '316', '331', '335', '337', '347', '350', '353', '358', '367', '376', '377', '386', '387', '394', '395', '401', '403', '407', '411', '418', '431', '433', '435', '438', '448', '455', '456', '461', '470', '474', '490', '496', '499', '510', '512', '513', '514', '515', '517', '523', '529', '538', '540', '544', '548', '552', '559', '565', '570', '577', '581', '584', '594', '602', '603', '605', '618', '622', '625', '630', '634', '635', '636', '639', '642', '647', '648', '650', '651', '652', '654', '659', '667', '674', '678', '681', '685', '687', '689', '691', '695', '712', '713', '727', '729', '731', '737', '746', '749', '754', '763', '768', '787', '796', '802', '805', '820', '823', '826', '827', '831', '834', '836', '837', '840', '849', '854', '859', '860', '862', '866', '877', '887', '889', '893', '897', '907', '912', '913', '920', '921', '928', '933', '941', '950', '957', '958', '967', '971', '973', '978', '984', '989', '990', '994', '997', '1011', '1013', '1028', '1033', '1034', '1037', '1039', '1057', '1061', '1063', '1064', '1070', '1072', '1076', '1077', '1080', '1082', '1091', '1092', '1096', '1099', '1100', '1103', '1104', '1105', '1106', '1107', '1111', '1113', '1114', '1126', '1129', '1134', '1135', '1138', '1139', '1141', '1145', '1146', '1156', '1164', '1171', '1172', '1178', '1180', '1184', '1185', '1188', '1191', '1201', '1202', '1209', '1212', '1226', '1229', '1237', '1238', '1254', '1256', '1272', '1283', '1284', '1297', '1304', '1309', '1312', '1330', '1347', '1349', '1355', '1359', '1367', '1386', '1395', '1398', '1402', '1403', '1405', '1416', '1433', '1442', '1443', '1445', '1446', '1455', '1465', '1466', '1484', '1485', '1493', '1497', '1499', '1513', '1514', '1525', '1526', '1529', '1531', '1533', '1535', '1537', '1540', '1541', '1543', '1546', '1552', '1556', '1557', '1567', '1569', '1579', '1586', '1594', '1598', '1600', '1603', '1607', '1611', '1613', '1622', '1627', '1642', '1643', '1644', '1645', '1649', '1653', '1661', '1664', '1665', '1666', '1670', '1673', '1679', '1680', '1682', '1684', '1689', '1693', '1698', '1702', '1705', '1715', '1719', '1725', '1734', '1742', '1753', '1759', '1761', '1772', '1777', '1778', '1789', '1793', '1805', '1808', '1819', '1823', '1830', '1837', '1838', '1841', '1844', '1847', '1856', '1859', '1861', '1862', '1864', '1870', '1878', '1880', '1885', '1892', '1893', '1897', '1905', '1911', '1917', '1925', '1926', '1930', '1936', '1949', '1957', '1958', '1960', '1961', '1962', '1966', '1968', '1970', '1976', '1982', '1987', '1992', '1994', '1996', '1997', '1998']",True,5000,True,2,c5ff134d11,0.0,0.0,0.0
./expes/v2_2021-03-19_issda-30_2000-prng-1-w5-p2,30_issda-2000,2000,first-2000,300,15,rng,num-start-400,400,25726,classic,5029.418198347092,False,,False,0,,,0,"['3', '26', '28', '29', '34', '45', '47', '55', '68', '75', '80', '81', '83', '93', '119', '126', '128', '129', '142', '144', '148', '152', '165', '169', '184', '187', '188', '192', '195', '203', '207', '208', '224', '237', '238', '240', '241', '246', '254', '255', '256', '267', '286', '287', '292', '300', '301', '307', '315', '325', '332', '347', '350', '359', '370', '377', '379', '383', '387', '388', '390', '392', '399', '409', '417', '419', '432', '441', '448', '449', '452', '453', '455', '483', '489', '496', '498', '500', '514', '531', '533', '534', '556', '564', '565', '578', '590', '595', '597', '617', '618', '622', '636', '638', '648', '650', '656', '665', '667', '677', '682', '683', '687', '702', '718', '725', '732', '734', '735', '759', '762', '789', '796', '802', '817', '830', '840', '859', '862', '872', '873', '890', '894', '906', '907', '912', '918', '923', '938', '957', '964', '966', '967', '976', '977', '982', '996', '997', '1003', '1009', '1011', '1032', '1034', '1041', '1042', '1048', '1068', '1069', '1075', '1085', '1091', '1095', '1107', '1108', '1113', '1115', '1121', '1122', '1124', '1129', '1132', '1147', '1149', '1163', '1166', '1167', '1176', '1179', '1180', '1188', '1195', '1203', '1204', '1208', '1222', '1223', '1233', '1234', '1236', '1241', '1242', '1252', '1254', '1255', '1267', '1271', '1281', '1291', '1299', '1301', '1312', '1314', '1325', '1330', '1345', '1347', '1353', '1364', '1369', '1378', '1385', '1391', '1392', '1394', '1396', '1400', '1401', '1415', '1429', '1433', '1435', '1442', '1445', '1448', '1455', '1471', '1474', '1490', '1495', '1496', '1499', '1519', '1548', '1552', '1553', '1572', '1604', '1606', '1608', '1616', '1625', '1628', '1635', '1638', '1640', '1645', '1646', '1649', '1660', '1663', '1669', '1671', '1674', '1683', '1690', '1691', '1696', '1699', '1700', '1701', '1708', '1712', '1716', '1717', '1721', '1726', '1730', '1731', '1732', '1740', '1742', '1752', '1773', '1777', '1783', '1792', '1793', '1796', '1824', '1827', '1834', '1840', '1841', '1844', '1848', '1853', '1860', '1864', '1870', '1876', '1878', '1879', '1880', '1881', '1882', '1888', '1889', '1891', '1892', '1911', '1918', '1919', '1946', '1969', '1974', '1978', '1980', '1982', '1983', '1988']",True,5000,True,2,9de3dc7451,0.0,0.0,0.0
./expes/v2_2021-03-19_issda-30_2000-prng-1-w5-p2,30_issda-2000,2000,first-2000,800,40,rng,num-start-1400,1400,25726,classic,5104.610596418381,True,,False,1.0,1.0,1.0,1,"['6', '8', '10', '11', '14', '16', '17', '19', '23', '24', '25', '31', '32', '33', '35', '36', '37', '39', '40', '44', '46', '48', '49', '59', '60', '63', '64', '65', '70', '75', '78', '80', '85', '87', '89', '91', '95', '98', '99', '100', '109', '112', '113', '115', '116', '121', '122', '124', '125', '127', '128', '132', '134', '135', '138', '139', '141', '145', '149', '150', '151', '152', '157', '158', '161', '162', '168', '171', '174', '176', '183', '187', '190', '193', '196', '198', '202', '204', '205', '206', '210', '214', '222', '223', '231', '232', '237', '239', '240', '247', '248', '249', '252', '256', '263', '264', '267', '270', '271', '273', '274', '279', '282', '285', '288', '292', '293', '295', '296', '298', '301', '302', '303', '306', '308', '309', '311', '312', '314', '315', '318', '319', '321', '322', '324', '325', '328', '330', '331', '335', '337', '341', '344', '347', '348', '349', '351', '353', '354', '355', '359', '361', '366', '367', '368', '372', '376', '378', '379', '383', '384', '393', '401', '402', '403', '409', '410', '411', '421', '423', '428', '429', '434', '436', '438', '440', '441', '444', '446', '448', '449', '450', '451', '453', '454', '455', '456', '458', '462', '463', '465', '467', '469', '470', '474', '475', '476', '478', '479', '481', '482', '490', '491', '492', '493', '497', '500', '505', '507', '511', '514', '515', '516', '521', '523', '524', '525', '526', '533', '535', '536', '537', '540', '548', '553', '556', '557', '558', '560', '562', '568', '575', '577', '581', '583', '587', '588', '589', '593', '595', '605', '606', '607', '608', '613', '618', '620', '623', '625', '626', '628', '635', '636', '638', '639', '642', '645', '646', '647', '649', '650', '652', '653', '655', '657', '659', '660', '661', '663', '666', '674', '676', '677', '678', '679', '680', '681', '682', '683', '684', '685', '686', '688', '689', '691', '693', '694', '697', '702', '704', '705', '706', '712', '713', '714', '723', '724', '725', '728', '729', '732', '735', '736', '738', '740', '743', '750', '752', '753', '754', '755', '756', '758', '760', '763', '766', '768', '769', '771', '775', '776', '778', '780', '781', '789', '793', '795', '796', '797', '799', '800', '804', '807', '810', '814', '815', '818', '823', '825', '828', '829', '830', '831', '832', '835', '836', '844', '849', '853', '855', '857', '860', '862', '864', '866', '867', '873', '874', '878', '883', '886', '887', '888', '889', '890', '894', '900', '901', '903', '905', '906', '909', '910', '912', '913', '920', '922', '923', '924', '926', '931', '933', '938', '939', '942', '944', '945', '946', '947', '951', '955', '956', '957', '958', '959', '960', '963', '964', '970', '972', '974', '976', '981', '983', '986', '987', '988', '992', '994', '995', '1003', '1005', '1008', '1009', '1011', '1012', '1014', '1015', '1017', '1020', '1021', '1022', '1024', '1025', '1027', '1029', '1036', '1037', '1038', '1039', '1041', '1046', '1048', '1050', '1056', '1057', '1058', '1059', '1060', '1061', '1062', '1064', '1065', '1066', '1067', '1068', '1071', '1075', '1082', '1085', '1086', '1089', '1094', '1097', '1098', '1110', '1114', '1115', '1119', '1122', '1124', '1127', '1130', '1134', '1135', '1137', '1141', '1147', '1149', '1157', '1158', '1160', '1161', '1164', '1167', '1168', '1169', '1170', '1172', '1176', '1178', '1180', '1183', '1186', '1187', '1188', '1191', '1196', '1197', '1199', '1202', '1203', '1209', '1216', '1220', '1222', '1225', '1236', '1237', '1239', '1242', '1245', '1246', '1250', '1251', '1253', '1254', '1257', '1258', '1260', '1261', '1263', '1265', '1267', '1270', '1271', '1275', '1277', '1280', '1283', '1286', '1287', '1288', '1293', '1295', '1296', '1300', '1302', '1303', '1306', '1307', '1314', '1316', '1317', '1322', '1323', '1324', '1325', '1326', '1328', '1329', '1330', '1336', '1342', '1343', '1344', '1346', '1348', '1349', '1350', '1352', '1357', '1362', '1363', '1370', '1371', '1376', '1379', '1386', '1387', '1388', '1390', '1393', '1394', '1396', '1398', '1399', '1402', '1404', '1410', '1411', '1412', '1414', '1415', '1417', '1419', '1422', '1423', '1425', '1426', '1427', '1428', '1436', '1438', '1445', '1450', '1451', '1452', '1454', '1457', '1459', '1461', '1472', '1473', '1476', '1477', '1478', '1482', '1483', '1486', '1488', '1489', '1493', '1496', '1499', '1506', '1508', '1511', '1515', '1516', '1518', '1520', '1522', '1524', '1526', '1527', '1528', '1537', '1538', '1539', '1541', '1542', '1543', '1544', '1547', '1549', '1551', '1554', '1557', '1558', '1561', '1572', '1573', '1574', '1581', '1585', '1586', '1592', '1593', '1595', '1602', '1604', '1606', '1608', '1613', '1614', '1615', '1616', '1623', '1625', '1627', '1631', '1632', '1634', '1636', '1637', '1640', '1645', '1646', '1647', '1648', '1649', '1650', '1651', '1653', '1655', '1656', '1659', '1660', '1662', '1663', '1667', '1681', '1683', '1684', '1686', '1690', '1693', '1695', '1701', '1702', '1705', '1708', '1709', '1711', '1713', '1716', '1717', '1718', '1721', '1722', '1724', '1728', '1729', '1731', '1735', '1736', '1737', '1741', '1743', '1747', '1748', '1749', '1752', '1753', '1756', '1757', '1763', '1768', '1769', '1773', '1776', '1777', '1780', '1781', '1783', '1784', '1786', '1787', '1791', '1792', '1793', '1797', '1800', '1801', '1802', '1804', '1806', '1809', '1812', '1813', '1816', '1817', '1818', '1823', '1827', '1829', '1830', '1831', '1835', '1842', '1847', '1848', '1854', '1857', '1858', '1859', '1862', '1863', '1867', '1870', '1874', '1877', '1884', '1886', '1888', '1889', '1890', '1893', '1895', '1896', '1899', '1900', '1901', '1906', '1908', '1911', '1913', '1914', '1915', '1916', '1918', '1922', '1927', '1928', '1931', '1932', '1935', '1936', '1938', '1940', '1942', '1945', '1946', '1947', '1948', '1949', '1950', '1951', '1952', '1953', '1954', '1958', '1960', '1965', '1967', '1971', '1973', '1977', '1979', '1980', '1981', '1982', '1983', '1984', '1985', '1987', '1992', '1998', '2000']",True,5000,True,2,a8f9dd9f08,0.0,0.0,1.0
./expes/v2_2021-03-19_issda-30_2000-prng-1-w5-p2,30_issda-2000,2000,first-2000,800,40,rng,num-start-1800,1800,25726,classic,1923.232426404953,True,,True,1.0,1.0,1.0,1,"['6', '8', '9', '11', '12', '15', '16', '21', '25', '26', '28', '30', '31', '33', '34', '36', '39', '48', '52', '54', '56', '57', '64', '65', '66', '67', '68', '69', '71', '73', '74', '75', '76', '77', '85', '88', '89', '90', '91', '92', '95', '98', '99', '100', '102', '103', '104', '107', '109', '110', '113', '114', '116', '122', '123', '124', '129', '133', '134', '135', '139', '140', '143', '144', '145', '147', '148', '151', '152', '154', '156', '160', '161', '164', '165', '166', '167', '172', '175', '181', '182', '183', '186', '187', '190', '194', '196', '197', '198', '199', '203', '205', '211', '215', '217', '219', '223', '232', '237', '238', '239', '241', '243', '245', '247', '248', '253', '256', '257', '260', '261', '262', '267', '273', '275', '279', '285', '286', '289', '290', '294', '299', '301', '306', '307', '310', '312', '313', '314', '315', '316', '317', '318', '320', '321', '324', '325', '329', '331', '334', '337', '338', '339', '340', '341', '342', '345', '346', '348', '350', '351', '352', '355', '357', '358', '359', '360', '361', '362', '364', '365', '366', '367', '374', '375', '381', '382', '384', '387', '390', '391', '392', '393', '394', '395', '397', '399', '400', '401', '410', '413', '422', '423', '426', '428', '429', '430', '433', '434', '439', '447', '451', '453', '454', '458', '459', '460', '465', '469', '482', '483', '487', '489', '491', '492', '494', '495', '497', '501', '503', '505', '506', '508', '512', '519', '522', '531', '532', '533', '537', '538', '540', '544', '545', '547', '557', '562', '563', '568', '569', '570', '579', '581', '582', '585', '589', '590', '593', '594', '596', '601', '603', '607', '612', '613', '614', '617', '620', '621', '627', '628', '631', '632', '637', '638', '644', '649', '650', '655', '660', '662', '665', '667', '670', '672', '673', '680', '684', '686', '688', '694', '695', '700', '703', '704', '708', '712', '713', '715', '716', '717', '724', '725', '728', '729', '735', '738', '739', '740', '743', '747', '750', '751', '752', '766', '767', '769', '771', '776', '778', '779', '782', '783', '788', '790', '791', '792', '795', '796', '798', '800', '803', '804', '807', '811', '812', '813', '814', '817', '818', '819', '820', '821', '822', '825', '829', '830', '831', '833', '834', '837', '846', '849', '851', '852', '854', '857', '858', '860', '861', '862', '863', '864', '866', '867', '868', '869', '874', '876', '877', '879', '880', '882', '887', '888', '889', '891', '892', '893', '894', '899', '900', '901', '904', '905', '906', '910', '911', '913', '915', '916', '917', '918', '923', '924', '925', '930', '931', '933', '934', '936', '938', '939', '940', '941', '942', '944', '946', '947', '948', '950', '951', '956', '959', '962', '963', '965', '968', '972', '974', '976', '977', '978', '979', '981', '983', '984', '989', '990', '993', '994', '1002', '1003', '1004', '1007', '1010', '1014', '1016', '1018', '1023', '1024', '1027', '1028', '1038', '1040', '1044', '1046', '1047', '1051', '1052', '1056', '1058', '1060', '1065', '1066', '1067', '1069', '1070', '1071', '1072', '1075', '1076', '1082', '1088', '1089', '1091', '1093', '1097', '1099', '1100', '1103', '1104', '1106', '1107', '1109', '1113', '1116', '1117', '1125', '1128', '1129', '1130', '1138', '1139', '1140', '1144', '1145', '1146', '1151', '1153', '1156', '1157', '1158', '1160', '1162', '1164', '1167', '1168', '1169', '1171', '1172', '1173', '1177', '1179', '1180', '1182', '1184', '1185', '1188', '1191', '1194', '1198', '1203', '1206', '1207', '1210', '1212', '1216', '1219', '1220', '1224', '1225', '1226', '1232', '1234', '1235', '1236', '1238', '1240', '1241', '1242', '1243', '1245', '1246', '1247', '1248', '1249', '1250', '1257', '1259', '1265', '1267', '1268', '1270', '1275', '1279', '1281', '1282', '1285', '1286', '1288', '1291', '1295', '1297', '1299', '1301', '1303', '1305', '1308', '1309', '1310', '1311', '1314', '1315', '1317', '1324', '1329', '1331', '1335', '1336', '1338', '1339', '1345', '1346', '1347', '1348', '1351', '1353', '1356', '1359', '1361', '1363', '1364', '1366', '1371', '1373', '1380', '1381', '1383', '1387', '1395', '1402', '1405', '1406', '1408', '1413', '1416', '1418', '1420', '1421', '1424', '1425', '1428', '1430', '1431', '1435', '1438', '1440', '1445', '1447', '1453', '1455', '1458', '1460', '1461', '1463', '1471', '1474', '1475', '1476', '1478', '1479', '1480', '1481', '1482', '1484', '1488', '1489', '1494', '1503', '1508', '1513', '1515', '1517', '1523', '1524', '1526', '1527', '1528', '1535', '1539', '1541', '1543', '1544', '1556', '1559', '1561', '1564', '1565', '1571', '1572', '1573', '1575', '1579', '1582', '1583', '1584', '1587', '1589', '1590', '1592', '1593', '1604', '1612', '1613', '1615', '1616', '1617', '1620', '1624', '1626', '1633', '1638', '1641', '1648', '1650', '1653', '1654', '1656', '1657', '1659', '1661', '1662', '1664', '1666', '1670', '1673', '1674', '1675', '1676', '1679', '1681', '1682', '1685', '1687', '1688', '1689', '1690', '1691', '1694', '1695', '1698', '1699', '1700', '1707', '1708', '1709', '1712', '1713', '1714', '1715', '1717', '1718', '1725', '1729', '1736', '1737', '1740', '1742', '1743', '1744', '1748', '1749', '1750', '1751', '1752', '1759', '1761', '1762', '1763', '1766', '1768', '1771', '1772', '1773', '1781', '1783', '1785', '1786', '1790', '1791', '1792', '1794', '1796', '1797', '1800', '1802', '1805', '1808', '1818', '1819', '1821', '1823', '1825', '1826', '1830', '1837', '1839', '1840', '1842', '1846', '1847', '1852', '1853', '1856', '1858', '1860', '1863', '1865', '1866', '1870', '1871', '1872', '1874', '1878', '1882', '1884', '1886', '1887', '1890', '1893', '1907', '1910', '1911', '1912', '1916', '1917', '1918', '1921', '1923', '1928', '1932', '1935', '1937', '1941', '1943', '1946', '1948', '1949', '1951', '1952', '1955', '1956', '1958', '1959', '1965', '1966', '1967', '1968', '1971', '1973', '1974', '1976', '1984', '1985', '1986', '1987', '1988', '1995', '1997']",False,5000,True,2,26b7efd525,0.0,1.0,1.0
./expes/v2_2021-03-19_issda-30_2000-prng-1-w5-p2,30_issda-2000,2000,first-2000,900,45,rng,num-start-600,600,25726,classic,5042.786097288132,False,,False,0,,,0,"['4', '8', '13', '14', '16', '17', '18', '20', '22', '23', '26', '27', '35', '36', '39', '40', '43', '45', '49', '50', '51', '53', '56', '58', '59', '61', '63', '64', '67', '71', '76', '78', '81', '82', '83', '88', '89', '90', '93', '95', '101', '104', '106', '107', '108', '109', '116', '117', '118', '119', '121', '125', '128', '132', '136', '138', '139', '145', '146', '147', '148', '149', '150', '151', '153', '160', '166', '169', '170', '172', '173', '175', '179', '182', '186', '187', '191', '193', '199', '201', '202', '208', '210', '211', '212', '218', '222', '223', '225', '231', '232', '234', '235', '236', '238', '240', '242', '245', '250', '251', '253', '256', '258', '260', '265', '270', '272', '275', '276', '277', '279', '280', '282', '284', '286', '287', '289', '290', '291', '292', '293', '296', '297', '298', '300', '301', '304', '305', '308', '311', '317', '318', '319', '320', '325', '327', '330', '333', '335', '336', '342', '344', '346', '347', '348', '349', '351', '352', '354', '355', '360', '361', '363', '365', '367', '368', '369', '373', '375', '377', '380', '385', '387', '388', '390', '392', '393', '395', '399', '401', '402', '403', '404', '405', '408', '409', '410', '411', '413', '414', '415', '418', '419', '420', '421', '423', '424', '425', '428', '429', '431', '432', '433', '435', '437', '439', '449', '450', '451', '452', '455', '458', '460', '463', '466', '467', '468', '469', '471', '473', '475', '478', '482', '489', '490', '492', '495', '496', '504', '507', '512', '513', '516', '517', '522', '523', '526', '529', '531', '532', '534', '536', '538', '540', '545', '546', '549', '550', '551', '555', '560', '561', '562', '566', '567', '568', '569', '570', '571', '572', '573', '574', '578', '579', '580', '584', '585', '587', '588', '594', '597', '599', '600', '601', '607', '608', '611', '612', '614', '617', '620', '626', '628', '630', '632', '635', '636', '637', '638', '639', '640', '641', '644', '646', '648', '649', '651', '652', '658', '660', '661', '663', '665', '667', '669', '671', '672', '673', '676', '677', '681', '687', '688', '689', '690', '691', '696', '697', '698', '699', '700', '702', '704', '705', '710', '712', '714', '717', '718', '724', '725', '727', '728', '729', '730', '734', '735', '736', '737', '738', '740', '741', '742', '743', '744', '745', '746', '747', '748', '749', '751', '752', '753', '755', '761', '762', '763', '766', '767', '768', '775', '776', '778', '779', '781', '782', '787', '788', '789', '790', '796', '797', '799', '800', '801', '803', '805', '807', '808', '810', '814', '818', '819', '820', '821', '825', '829', '831', '832', '834', '835', '837', '843', '845', '848', '850', '851', '856', '858', '861', '862', '866', '867', '868', '869', '875', '879', '881', '883', '884', '886', '888', '889', '892', '893', '896', '898', '901', '902', '904', '909', '912', '917', '919', '920', '924', '928', '932', '934', '936', '939', '941', '942', '943', '944', '952', '954', '958', '959', '962', '966', '967', '972', '974', '976', '977', '978', '981', '982', '984', '985', '986', '989', '991', '993', '994', '995', '997', '1000', '1003', '1004', '1005', '1007', '1008', '1009', '1011', '1012', '1013', '1015', '1021', '1024', '1025', '1026', '1027', '1028', '1029', '1030', '1032', '1033', '1035', '1039', '1043', '1048', '1049', '1052', '1053', '1054', '1056', '1057', '1058', '1059', '1063', '1065', '1066', '1067', '1068', '1070', '1071', '1074', '1077', '1078', '1080', '1081', '1083', '1084', '1086', '1088', '1092', '1094', '1095', '1096', '1098', '1099', '1101', '1102', '1104', '1105', '1108', '1109', '1110', '1113', '1115', '1117', '1119', '1120', '1123', '1124', '1125', '1126', '1127', '1130', '1135', '1137', '1138', '1140', '1141', '1143', '1144', '1146', '1147', '1151', '1154', '1156', '1157', '1160', '1164', '1166', '1168', '1169', '1170', '1174', '1181', '1183', '1189', '1190', '1202', '1203', '1206', '1208', '1209', '1210', '1215', '1217', '1221', '1226', '1227', '1230', '1232', '1234', '1235', '1243', '1244', '1245', '1247', '1248', '1249', '1252', '1255', '1256', '1262', '1264', '1265', '1266', '1268', '1269', '1271', '1272', '1273', '1274', '1275', '1276', '1278', '1279', '1280', '1283', '1285', '1286', '1289', '1294', '1295', '1296', '1299', '1302', '1305', '1307', '1310', '1312', '1313', '1316', '1318', '1320', '1327', '1331', '1332', '1335', '1338', '1340', '1342', '1344', '1347', '1349', '1351', '1353', '1354', '1355', '1356', '1357', '1358', '1359', '1360', '1365', '1367', '1369', '1370', '1371', '1372', '1376', '1377', '1380', '1384', '1388', '1389', '1390', '1391', '1392', '1395', '1396', '1398', '1400', '1402', '1403', '1404', '1405', '1407', '1409', '1410', '1411', '1412', '1414', '1415', '1419', '1421', '1422', '1425', '1426', '1428', '1430', '1432', '1435', '1436', '1437', '1444', '1446', '1447', '1455', '1463', '1465', '1466', '1467', '1469', '1473', '1477', '1482', '1487', '1488', '1496', '1498', '1500', '1504', '1505', '1507', '1510', '1514', '1519', '1520', '1522', '1523', '1526', '1530', '1533', '1534', '1538', '1540', '1543', '1544', '1548', '1550', '1551', '1552', '1556', '1558', '1560', '1561', '1565', '1567', '1568', '1570', '1575', '1579', '1581', '1582', '1585', '1588', '1590', '1592', '1596', '1602', '1606', '1607', '1609', '1611', '1613', '1616', '1617', '1618', '1621', '1622', '1623', '1625', '1629', '1631', '1632', '1634', '1635', '1638', '1639', '1640', '1641', '1642', '1646', '1651', '1654', '1655', '1657', '1659', '1660', '1662', '1665', '1669', '1671', '1677', '1678', '1679', '1681', '1682', '1685', '1688', '1690', '1692', '1693', '1701', '1702', '1704', '1705', '1707', '1710', '1711', '1712', '1714', '1716', '1718', '1719', '1722', '1723', '1724', '1726', '1727', '1728', '1729', '1731', '1732', '1734', '1735', '1739', '1740', '1745', '1747', '1751', '1753', '1757', '1758', '1760', '1761', '1762', '1763', '1766', '1767', '1771', '1773', '1774', '1779', '1781', '1786', '1788', '1789', '1802', '1805', '1806', '1807', '1812', '1814', '1816', '1818', '1822', '1823', '1824', '1829', '1830', '1832', '1835', '1836', '1838', '1839', '1845', '1846', '1847', '1849', '1850', '1851', '1853', '1856', '1857', '1858', '1860', '1863', '1865', '1866', '1867', '1868', '1871', '1872', '1874', '1875', '1877', '1878', '1881', '1882', '1884', '1885', '1891', '1892', '1893', '1895', '1897', '1899', '1900', '1902', '1908', '1909', '1910', '1911', '1912', '1913', '1915', '1918', '1919', '1920', '1921', '1922', '1925', '1926', '1928', '1933', '1934', '1939', '1941', '1945', '1951', '1952', '1955', '1958', '1959', '1960', '1964', '1965', '1966', '1968', '1971', '1972', '1975', '1978', '1979', '1981', '1982', '1987', '1989', '1990', '1992', '1999', '2000']",True,5000,True,2,895b02c965,0.0,0.0,0.0
./expes/v2_2021-03-19_issda-30_2000-prng-1-w5-p2,30_issda-2000,2000,first-2000,200,10,rng,num-start-800,800,25726,classic,2828.033683538437,True,,True,1.0,1.0,1.0,1,"['12', '13', '14', '18', '38', '162', '179', '182', '190', '208', '236', '242', '252', '259', '265', '270', '273', '294', '298', '300', '303', '312', '329', '334', '347', '358', '372', '375', '389', '402', '406', '411', '413', '414', '418', '424', '443', '452', '481', '487', '491', '512', '520', '528', '532', '542', '543', '553', '555', '558', '577', '606', '613', '618', '621', '665', '686', '688', '694', '696', '702', '709', '722', '739', '749', '790', '806', '813', '820', '828', '829', '831', '832', '834', '851', '853', '865', '868', '874', '889', '895', '920', '939', '940', '962', '967', '978', '979', '980', '983', '984', '1003', '1007', '1012', '1016', '1026', '1040', '1052', '1054', '1070', '1079', '1091', '1095', '1102', '1109', '1114', '1116', '1124', '1131', '1140', '1144', '1145', '1164', '1171', '1174', '1176', '1179', '1186', '1206', '1216', '1229', '1244', '1251', '1252', '1261', '1287', '1290', '1293', '1326', '1328', '1336', '1347', '1355', '1383', '1388', '1393', '1396', '1401', '1406', '1412', '1417', '1432', '1438', '1444', '1449', '1452', '1467', '1490', '1496', '1505', '1513', '1522', '1549', '1553', '1562', '1574', '1575', '1578', '1581', '1584', '1605', '1613', '1620', '1623', '1625', '1627', '1652', '1654', '1660', '1662', '1663', '1674', '1676', '1688', '1691', '1695', '1706', '1712', '1713', '1729', '1733', '1736', '1769', '1774', '1780', '1789', '1811', '1817', '1825', '1827', '1841', '1842', '1865', '1869', '1891', '1910', '1934', '1950', '1981', '1999']",False,5000,True,2,d34cb28127,0.0,1.0,1.0
./expes/v2_2021-03-19_issda-30_2000-prng-1-w5-p2,30_issda-2000,2000,first-2000,900,45,rng,num-start-600,600,25726,classic,5045.834170103073,False,,False,0,,,0,"['2', '4', '5', '8', '9', '12', '16', '18', '19', '21', '22', '23', '26', '28', '30', '35', '36', '37', '38', '39', '41', '42', '43', '44', '45', '46', '49', '50', '53', '56', '58', '59', '60', '61', '63', '64', '66', '67', '71', '73', '77', '78', '81', '82', '83', '84', '85', '90', '93', '94', '98', '99', '100', '107', '115', '121', '128', '129', '130', '132', '134', '138', '139', '141', '143', '145', '146', '147', '149', '150', '151', '154', '157', '158', '167', '168', '171', '172', '174', '175', '178', '183', '184', '186', '188', '189', '191', '193', '198', '202', '203', '205', '206', '207', '210', '211', '214', '219', '221', '222', '223', '225', '229', '232', '234', '235', '236', '237', '242', '245', '248', '250', '253', '254', '257', '258', '259', '265', '268', '273', '276', '277', '278', '280', '284', '285', '290', '291', '300', '302', '304', '307', '312', '316', '320', '322', '324', '325', '326', '327', '329', '332', '336', '337', '338', '339', '342', '343', '345', '346', '348', '349', '352', '353', '355', '362', '363', '364', '365', '368', '371', '376', '379', '381', '383', '385', '386', '389', '398', '405', '408', '409', '410', '411', '412', '418', '420', '421', '422', '424', '426', '428', '429', '430', '435', '437', '441', '444', '446', '449', '450', '451', '452', '455', '458', '459', '461', '462', '463', '465', '466', '469', '471', '473', '476', '478', '479', '481', '482', '486', '489', '491', '494', '495', '497', '498', '500', '502', '504', '505', '507', '508', '509', '512', '513', '514', '517', '518', '519', '520', '523', '529', '530', '531', '532', '534', '542', '546', '547', '548', '549', '551', '552', '554', '555', '559', '560', '564', '565', '568', '569', '576', '577', '582', '584', '594', '595', '596', '597', '602', '603', '604', '606', '607', '608', '611', '612', '613', '614', '621', '622', '624', '625', '626', '628', '629', '630', '632', '636', '638', '639', '641', '642', '645', '648', '649', '650', '651', '655', '656', '657', '658', '660', '663', '667', '671', '672', '679', '681', '682', '684', '685', '689', '691', '694', '695', '696', '697', '699', '704', '705', '706', '708', '709', '711', '713', '716', '718', '724', '727', '728', '729', '731', '732', '736', '737', '739', '747', '748', '752', '754', '755', '756', '759', '762', '766', '768', '773', '774', '775', '776', '777', '778', '779', '781', '784', '785', '786', '787', '792', '798', '799', '800', '802', '806', '807', '809', '811', '814', '815', '817', '818', '822', '823', '824', '828', '829', '830', '833', '834', '837', '838', '843', '845', '847', '849', '853', '854', '861', '863', '865', '866', '873', '874', '880', '881', '884', '885', '887', '892', '896', '897', '898', '899', '900', '906', '907', '912', '913', '915', '918', '921', '922', '924', '928', '929', '932', '934', '938', '939', '941', '942', '944', '946', '947', '952', '957', '959', '961', '962', '968', '971', '977', '981', '984', '986', '993', '994', '995', '996', '1000', '1002', '1003', '1006', '1009', '1010', '1011', '1014', '1015', '1016', '1017', '1023', '1024', '1025', '1026', '1027', '1029', '1031', '1033', '1034', '1035', '1037', '1039', '1040', '1042', '1043', '1045', '1046', '1047', '1048', '1050', '1053', '1054', '1055', '1058', '1059', '1063', '1067', '1072', '1073', '1074', '1078', '1081', '1082', '1083', '1088', '1091', '1094', '1095', '1101', '1102', '1103', '1105', '1106', '1107', '1109', '1110', '1111', '1112', '1115', '1116', '1117', '1118', '1122', '1123', '1124', '1125', '1127', '1128', '1129', '1132', '1133', '1136', '1140', '1141', '1143', '1146', '1148', '1149', '1150', '1154', '1156', '1157', '1160', '1166', '1167', '1168', '1169', '1170', '1171', '1173', '1175', '1177', '1180', '1184', '1185', '1186', '1187', '1188', '1197', '1200', '1202', '1204', '1207', '1210', '1211', '1212', '1215', '1216', '1218', '1221', '1222', '1226', '1229', '1230', '1231', '1232', '1233', '1237', '1240', '1241', '1242', '1245', '1248', '1252', '1253', '1254', '1255', '1257', '1260', '1264', '1266', '1270', '1274', '1275', '1276', '1277', '1280', '1286', '1288', '1289', '1290', '1292', '1293', '1298', '1302', '1303', '1305', '1309', '1312', '1316', '1318', '1322', '1324', '1326', '1327', '1328', '1329', '1330', '1331', '1335', '1336', '1339', '1345', '1346', '1350', '1351', '1352', '1353', '1356', '1360', '1362', '1363', '1364', '1368', '1370', '1373', '1374', '1377', '1379', '1381', '1382', '1383', '1387', '1388', '1389', '1390', '1395', '1396', '1397', '1400', '1403', '1406', '1407', '1408', '1410', '1411', '1413', '1415', '1417', '1419', '1424', '1426', '1432', '1433', '1435', '1437', '1439', '1440', '1441', '1442', '1444', '1451', '1453', '1455', '1457', '1458', '1459', '1460', '1464', '1465', '1469', '1471', '1473', '1474', '1478', '1480', '1483', '1484', '1486', '1487', '1488', '1492', '1494', '1495', '1496', '1498', '1501', '1503', '1509', '1510', '1511', '1512', '1513', '1517', '1522', '1524', '1526', '1528', '1529', '1531', '1534', '1536', '1538', '1543', '1545', '1548', '1552', '1554', '1555', '1559', '1562', '1564', '1565', '1569', '1572', '1573', '1576', '1578', '1579', '1589', '1590', '1593', '1594', '1595', '1596', '1597', '1598', '1602', '1603', '1604', '1605', '1608', '1609', '1611', '1612', '1615', '1616', '1618', '1621', '1623', '1624', '1625', '1629', '1631', '1633', '1634', '1635', '1636', '1643', '1644', '1646', '1647', '1648', '1650', '1652', '1654', '1655', '1656', '1657', '1658', '1661', '1662', '1666', '1670', '1673', '1674', '1676', '1679', '1680', '1681', '1682', '1683', '1692', '1696', '1697', '1698', '1699', '1700', '1702', '1705', '1706', '1710', '1711', '1712', '1713', '1716', '1721', '1722', '1723', '1724', '1725', '1731', '1732', '1734', '1735', '1736', '1738', '1739', '1742', '1743', '1744', '1748', '1752', '1753', '1754', '1756', '1757', '1759', '1760', '1762', '1764', '1766', '1767', '1773', '1774', '1777', '1778', '1782', '1786', '1790', '1794', '1797', '1800', '1801', '1805', '1806', '1808', '1809', '1813', '1815', '1818', '1825', '1826', '1829', '1830', '1831', '1835', '1837', '1839', '1843', '1845', '1847', '1850', '1851', '1852', '1858', '1862', '1863', '1864', '1865', '1866', '1870', '1871', '1873', '1877', '1879', '1880', '1883', '1885', '1886', '1887', '1888', '1889', '1891', '1893', '1895', '1896', '1897', '1898', '1905', '1907', '1910', '1911', '1918', '1920', '1921', '1922', '1924', '1926', '1927', '1928', '1929', '1933', '1934', '1936', '1938', '1945', '1946', '1950', '1951', '1955', '1956', '1959', '1961', '1965', '1966', '1967', '1971', '1974', '1976', '1977', '1978', '1980', '1981', '1982', '1983', '1985', '1987', '1988', '1990', '1992', '1993', '1994', '1995', '1996', '1997', '1998', '1999', '2000']",True,5000,True,2,30ff4d5bfa,0.0,0.0,0.0
./expes/v2_2021-03-19_issda-30_2000-prng-1-w5-p2,30_issda-2000,2000,first-2000,200,10,rng,num-start-1000,1000,25726,classic,2809.131212949753,True,,True,1.0,1.0,1.0,1,"['12', '13', '19', '21', '23', '27', '29', '42', '46', '47', '57', '63', '68', '80', '89', '91', '96', '99', '122', '135', '146', '161', '172', '177', '191', '207', '212', '214', '222', '233', '238', '249', '252', '290', '291', '295', '302', '314', '316', '317', '337', '353', '365', '406', '443', '452', '456', '460', '465', '467', '476', '481', '488', '490', '491', '498', '501', '520', '523', '524', '529', '531', '533', '549', '580', '582', '584', '601', '607', '608', '619', '624', '633', '635', '636', '649', '655', '656', '687', '713', '741', '757', '765', '787', '796', '805', '808', '819', '820', '830', '832', '834', '839', '852', '854', '861', '867', '876', '889', '912', '915', '929', '931', '934', '936', '944', '952', '956', '961', '973', '978', '985', '988', '1004', '1007', '1013', '1023', '1030', '1047', '1059', '1072', '1077', '1105', '1110', '1153', '1186', '1193', '1227', '1234', '1235', '1237', '1242', '1256', '1282', '1284', '1293', '1296', '1301', '1308', '1313', '1317', '1332', '1341', '1343', '1347', '1351', '1366', '1367', '1370', '1395', '1407', '1421', '1432', '1433', '1441', '1449', '1450', '1457', '1491', '1496', '1512', '1523', '1568', '1603', '1604', '1614', '1617', '1619', '1630', '1655', '1664', '1667', '1669', '1674', '1700', '1706', '1721', '1722', '1726', '1727', '1735', '1741', '1750', '1771', '1810', '1830', '1837', '1843', '1882', '1883', '1884', '1895', '1927', '1943', '1950', '1952', '1959', '1981', '1983', '1995']",False,5000,True,2,35bca262e1,0.0,1.0,1.0
./expes/v2_2021-03-19_issda-30_2000-prng-1-w5-p2,30_issda-2000,2000,first-2000,1000,50,rng,num-start-1000,1000,25726,classic,4976.078232049942,True,,True,1.0,1.0,1.0,1,"['2', '3', '7', '8', '11', '12', '13', '14', '15', '16', '17', '18', '19', '20', '21', '23', '24', '25', '26', '27', '29', '31', '32', '35', '36', '38', '40', '42', '43', '44', '46', '49', '53', '54', '55', '56', '58', '59', '60', '61', '62', '68', '70', '71', '74', '77', '80', '84', '85', '86', '87', '89', '97', '100', '102', '104', '105', '106', '107', '108', '109', '110', '111', '113', '116', '117', '119', '120', '121', '122', '123', '124', '125', '129', '130', '131', '132', '133', '134', '135', '136', '137', '141', '142', '143', '147', '148', '149', '152', '153', '155', '156', '157', '161', '162', '164', '166', '167', '168', '170', '171', '172', '173', '174', '176', '178', '179', '180', '181', '182', '183', '188', '189', '191', '192', '193', '194', '197', '198', '201', '202', '203', '204', '205', '209', '210', '212', '213', '217', '218', '221', '223', '226', '227', '228', '229', '230', '239', '242', '243', '244', '246', '247', '249', '251', '253', '263', '264', '266', '269', '271', '272', '273', '275', '276', '277', '282', '283', '284', '285', '288', '289', '292', '295', '296', '298', '301', '304', '305', '306', '307', '309', '311', '312', '319', '322', '323', '326', '329', '330', '331', '332', '333', '334', '335', '337', '339', '341', '345', '346', '347', '348', '350', '351', '352', '354', '355', '360', '361', '362', '364', '365', '367', '371', '372', '373', '374', '375', '377', '379', '382', '383', '387', '388', '390', '391', '393', '394', '397', '398', '400', '402', '405', '406', '408', '409', '410', '411', '412', '414', '416', '420', '421', '423', '424', '428', '429', '430', '431', '432', '433', '438', '442', '444', '452', '453', '455', '456', '457', '459', '460', '462', '466', '471', '473', '474', '476', '477', '482', '484', '485', '487', '488', '496', '497', '498', '499', '503', '507', '509', '514', '515', '519', '520', '522', '523', '524', '526', '527', '530', '531', '532', '533', '535', '538', '539', '540', '543', '546', '547', '548', '550', '552', '553', '557', '559', '562', '564', '565', '567', '569', '571', '576', '578', '581', '583', '584', '585', '589', '590', '595', '596', '597', '599', '601', '603', '605', '607', '610', '615', '616', '617', '620', '623', '625', '626', '627', '630', '631', '633', '636', '638', '642', '644', '645', '646', '650', '651', '653', '654', '657', '659', '661', '662', '663', '664', '666', '667', '673', '674', '675', '676', '677', '678', '681', '684', '685', '687', '688', '689', '691', '692', '693', '694', '697', '698', '700', '706', '709', '711', '712', '714', '715', '723', '724', '727', '732', '734', '735', '736', '744', '746', '747', '748', '749', '750', '753', '754', '757', '758', '761', '763', '764', '765', '766', '767', '771', '776', '777', '780', '782', '785', '786', '789', '791', '795', '796', '797', '798', '799', '806', '808', '810', '811', '813', '816', '817', '818', '819', '822', '824', '825', '826', '827', '830', '832', '833', '835', '836', '837', '838', '840', '843', '846', '850', '852', '853', '854', '855', '859', '861', '863', '864', '866', '867', '868', '870', '871', '873', '875', '878', '881', '888', '892', '893', '894', '896', '897', '899', '900', '901', '903', '906', '910', '916', '918', '920', '923', '925', '926', '928', '929', '930', '933', '934', '936', '937', '940', '942', '946', '947', '949', '950', '951', '952', '956', '958', '962', '964', '965', '969', '971', '973', '974', '977', '978', '980', '981', '984', '985', '987', '988', '1001', '1004', '1007', '1008', '1010', '1013', '1016', '1017', '1018', '1019', '1021', '1024', '1026', '1028', '1029', '1030', '1035', '1036', '1037', '1041', '1042', '1044', '1045', '1046', '1047', '1050', '1051', '1053', '1056', '1057', '1059', '1060', '1061', '1062', '1063', '1064', '1066', '1070', '1071', '1072', '1073', '1075', '1077', '1079', '1080', '1083', '1084', '1088', '1089', '1091', '1092', '1093', '1097', '1098', '1100', '1101', '1102', '1106', '1110', '1111', '1113', '1114', '1115', '1118', '1119', '1120', '1121', '1124', '1126', '1128', '1132', '1133', '1136', '1137', '1139', '1141', '1142', '1146', '1148', '1151', '1153', '1154', '1156', '1157', '1158', '1159', '1160', '1162', '1165', '1168', '1169', '1173', '1174', '1176', '1177', '1179', '1183', '1185', '1186', '1187', '1188', '1190', '1191', '1193', '1195', '1197', '1198', '1199', '1202', '1204', '1205', '1206', '1209', '1210', '1212', '1213', '1215', '1223', '1224', '1225', '1228', '1230', '1231', '1235', '1238', '1239', '1240', '1241', '1242', '1243', '1245', '1246', '1247', '1248', '1249', '1251', '1252', '1253', '1254', '1255', '1256', '1262', '1263', '1264', '1275', '1280', '1281', '1282', '1283', '1284', '1289', '1290', '1295', '1300', '1303', '1305', '1308', '1309', '1312', '1315', '1317', '1319', '1320', '1322', '1323', '1325', '1326', '1327', '1328', '1330', '1334', '1338', '1344', '1347', '1349', '1350', '1352', '1357', '1358', '1359', '1360', '1361', '1362', '1363', '1364', '1367', '1368', '1370', '1371', '1372', '1373', '1375', '1377', '1381', '1385', '1386', '1387', '1389', '1390', '1391', '1393', '1394', '1395', '1396', '1399', '1400', '1402', '1403', '1405', '1406', '1409', '1410', '1414', '1415', '1418', '1419', '1421', '1423', '1424', '1426', '1427', '1428', '1429', '1432', '1433', '1434', '1435', '1436', '1438', '1439', '1441', '1442', '1445', '1446', '1449', '1450', '1451', '1452', '1453', '1454', '1455', '1457', '1458', '1461', '1464', '1466', '1468', '1469', '1470', '1472', '1474', '1476', '1481', '1483', '1485', '1487', '1489', '1490', '1491', '1492', '1493', '1495', '1501', '1503', '1508', '1510', '1511', '1513', '1518', '1520', '1522', '1523', '1524', '1526', '1527', '1528', '1529', '1531', '1532', '1533', '1540', '1541', '1542', '1545', '1546', '1551', '1556', '1558', '1559', '1560', '1561', '1564', '1565', '1566', '1567', '1568', '1572', '1573', '1574', '1580', '1581', '1582', '1583', '1584', '1585', '1586', '1587', '1589', '1592', '1593', '1594', '1595', '1597', '1598', '1599', '1604', '1606', '1610', '1611', '1618', '1625', '1628', '1629', '1630', '1631', '1634', '1636', '1637', '1638', '1639', '1642', '1645', '1649', '1651', '1653', '1654', '1656', '1657', '1658', '1659', '1669', '1670', '1679', '1681', '1682', '1684', '1686', '1688', '1702', '1703', '1704', '1705', '1706', '1708', '1709', '1710', '1713', '1715', '1719', '1720', '1721', '1724', '1728', '1730', '1731', '1732', '1733', '1734', '1738', '1739', '1741', '1743', '1744', '1745', '1746', '1749', '1755', '1757', '1760', '1762', '1763', '1770', '1774', '1775', '1776', '1777', '1779', '1780', '1786', '1789', '1791', '1792', '1794', '1796', '1797', '1800', '1801', '1803', '1804', '1806', '1808', '1809', '1810', '1811', '1813', '1816', '1817', '1818', '1820', '1821', '1822', '1825', '1828', '1829', '1831', '1832', '1834', '1835', '1837', '1838', '1840', '1841', '1847', '1849', '1853', '1854', '1856', '1857', '1858', '1861', '1863', '1867', '1874', '1875', '1880', '1883', '1885', '1887', '1889', '1891', '1893', '1894', '1897', '1903', '1906', '1907', '1908', '1911', '1914', '1918', '1921', '1922', '1925', '1927', '1928', '1930', '1932', '1933', '1934', '1936', '1938', '1939', '1940', '1941', '1945', '1947', '1948', '1949', '1951', '1952', '1953', '1954', '1957', '1958', '1960', '1963', '1967', '1968', '1970', '1971', '1972', '1975', '1976', '1977', '1979', '1980', '1982', '1984', '1985', '1986', '1988', '1991', '1992', '1994', '1995', '1997', '1998', '2000']",False,5000,True,2,44f4615137,0.0,1.0,1.0
