expe,clients,clients_size,clients_subset,agg_size,agg_size_pc,method,days,days_size,days_total,noise_method,time,valid,valid_sum,success,score_avg,score_min,score_max,nsols,oracle,wall_hit,wall_time,pooled,pool_size,uuid,infeasible,optimal,valid_sums
./expes/v3_2021-02-23_hi_4500-prng-1-w10-p100,30_issda-4500,4500,first-4500,225,5,rng,num-start-2250,2250,25726,classic,10395.280021190643,True,,False,1.0,1.0,1.0,1,"['1', '10', '13', '102', '109', '116', '121', '133', '178', '187', '219', '259', '271', '299', '317', '319', '323', '332', '371', '375', '384', '409', '476', '501', '510', '511', '516', '524', '566', '574', '590', '605', '607', '648', '658', '660', '662', '675', '684', '736', '748', '750', '751', '765', '777', '810', '825', '827', '832', '894', '945', '951', '960', '961', '981', '1015', '1020', '1023', '1067', '1070', '1085', '1105', '1141', '1145', '1168', '1199', '1204', '1226', '1257', '1292', '1297', '1312', '1327', '1358', '1388', '1397', '1433', '1478', '1507', '1516', '1530', '1541', '1545', '1552', '1560', '1566', '1576', '1595', '1634', '1665', '1667', '1676', '1726', '1763', '1790', '1793', '1807', '1810', '1817', '1828', '1930', '1955', '1962', '1968', '1984', '1991', '1999', '2053', '2054', '2056', '2122', '2124', '2130', '2131', '2132', '2134', '2221', '2255', '2258', '2301', '2309', '2357', '2359', '2379', '2385', '2467', '2470', '2485', '2541', '2542', '2552', '2557', '2591', '2598', '2622', '2657', '2665', '2671', '2705', '2725', '2726', '2730', '2740', '2747', '2752', '2805', '2870', '2886', '2899', '2926', '2928', '2934', '2938', '2943', '3033', '3048', '3102', '3154', '3156', '3179', '3184', '3205', '3206', '3268', '3292', '3296', '3318', '3358', '3395', '3401', '3421', '3427', '3436', '3446', '3487', '3491', '3557', '3573', '3624', '3627', '3646', '3649', '3657', '3670', '3672', '3692', '3752', '3825', '3827', '3853', '3864', '3868', '3904', '3905', '3908', '3926', '3948', '3981', '3985', '3992', '4009', '4036', '4044', '4052', '4126', '4135', '4162', '4167', '4189', '4271', '4275', '4298', '4322', '4338', '4363', '4377', '4427', '4429', '4449', '4459', '4460', '4483', '4485', '4494', '4495']",True,10000,True,100,7c110b2ad7,0.0,0.0,1.0
./expes/v3_2021-02-23_hi_4500-prng-1-w10-p100,30_issda-4500,4500,first-4500,675,15,rng,num-start-2250,2250,25726,classic,10433.403934001923,True,,False,1.0,1.0,1.0,1,"['1', '2', '3', '10', '13', '16', '20', '27', '28', '31', '53', '59', '64', '65', '70', '73', '80', '82', '83', '102', '109', '116', '118', '121', '126', '133', '153', '166', '168', '169', '178', '179', '187', '202', '210', '219', '227', '229', '241', '247', '252', '259', '266', '271', '276', '289', '291', '293', '295', '299', '310', '313', '317', '319', '323', '328', '332', '333', '334', '338', '345', '347', '366', '371', '375', '379', '384', '386', '396', '409', '430', '455', '474', '476', '493', '494', '501', '510', '511', '516', '524', '538', '540', '544', '545', '558', '566', '574', '577', '578', '581', '590', '600', '605', '607', '618', '626', '639', '644', '648', '658', '660', '662', '667', '669', '675', '684', '686', '689', '693', '694', '699', '709', '713', '736', '743', '746', '748', '750', '751', '759', '765', '766', '768', '777', '802', '804', '810', '813', '815', '821', '825', '827', '832', '836', '841', '858', '859', '863', '890', '891', '894', '910', '919', '921', '930', '938', '942', '943', '945', '949', '951', '952', '960', '961', '969', '975', '981', '988', '990', '995', '996', '1010', '1011', '1015', '1019', '1020', '1023', '1026', '1042', '1044', '1063', '1067', '1070', '1082', '1084', '1085', '1088', '1093', '1102', '1105', '1129', '1135', '1141', '1144', '1145', '1153', '1155', '1163', '1166', '1168', '1170', '1174', '1194', '1199', '1204', '1216', '1220', '1225', '1226', '1238', '1240', '1241', '1257', '1261', '1266', '1276', '1278', '1280', '1282', '1287', '1292', '1297', '1312', '1317', '1327', '1340', '1342', '1343', '1358', '1365', '1388', '1397', '1432', '1433', '1458', '1461', '1472', '1478', '1491', '1493', '1507', '1508', '1516', '1519', '1520', '1530', '1532', '1541', '1545', '1550', '1552', '1560', '1561', '1566', '1573', '1576', '1595', '1598', '1606', '1622', '1623', '1627', '1634', '1653', '1655', '1665', '1667', '1669', '1672', '1676', '1678', '1686', '1689', '1698', '1703', '1704', '1705', '1723', '1726', '1750', '1763', '1768', '1769', '1770', '1780', '1786', '1790', '1792', '1793', '1804', '1807', '1810', '1811', '1817', '1826', '1828', '1844', '1858', '1882', '1889', '1904', '1908', '1914', '1930', '1939', '1955', '1958', '1962', '1964', '1968', '1984', '1990', '1991', '1999', '2032', '2033', '2041', '2053', '2054', '2056', '2070', '2085', '2093', '2102', '2105', '2116', '2122', '2124', '2128', '2130', '2131', '2132', '2134', '2138', '2147', '2151', '2209', '2213', '2215', '2221', '2224', '2251', '2255', '2258', '2269', '2281', '2283', '2294', '2295', '2301', '2309', '2317', '2322', '2352', '2357', '2359', '2372', '2373', '2374', '2375', '2379', '2385', '2395', '2397', '2398', '2403', '2404', '2407', '2412', '2415', '2428', '2442', '2446', '2450', '2452', '2453', '2460', '2462', '2467', '2468', '2470', '2474', '2478', '2480', '2481', '2485', '2502', '2504', '2522', '2523', '2541', '2542', '2552', '2557', '2579', '2588', '2591', '2598', '2608', '2622', '2627', '2637', '2642', '2654', '2657', '2659', '2665', '2671', '2679', '2692', '2705', '2709', '2725', '2726', '2730', '2732', '2737', '2740', '2745', '2747', '2752', '2762', '2765', '2768', '2771', '2785', '2788', '2789', '2805', '2816', '2822', '2830', '2840', '2844', '2850', '2870', '2886', '2888', '2890', '2899', '2901', '2905', '2912', '2921', '2926', '2928', '2934', '2937', '2938', '2943', '2944', '2957', '2960', '2963', '2968', '2997', '3006', '3009', '3018', '3024', '3025', '3033', '3042', '3044', '3045', '3046', '3048', '3052', '3077', '3084', '3086', '3097', '3102', '3105', '3125', '3132', '3141', '3144', '3148', '3153', '3154', '3156', '3168', '3176', '3179', '3184', '3203', '3205', '3206', '3212', '3227', '3235', '3237', '3246', '3250', '3261', '3264', '3267', '3268', '3287', '3292', '3296', '3303', '3305', '3318', '3321', '3326', '3343', '3348', '3358', '3366', '3369', '3395', '3398', '3399', '3401', '3402', '3405', '3415', '3417', '3418', '3421', '3423', '3424', '3427', '3436', '3439', '3442', '3443', '3446', '3455', '3458', '3459', '3466', '3468', '3476', '3487', '3490', '3491', '3493', '3495', '3532', '3533', '3537', '3557', '3568', '3573', '3616', '3624', '3627', '3638', '3642', '3643', '3644', '3646', '3649', '3655', '3657', '3660', '3670', '3672', '3675', '3679', '3692', '3700', '3711', '3715', '3720', '3732', '3752', '3756', '3758', '3760', '3775', '3785', '3789', '3820', '3825', '3827', '3828', '3834', '3853', '3854', '3858', '3862', '3863', '3864', '3868', '3873', '3878', '3884', '3897', '3904', '3905', '3906', '3908', '3917', '3925', '3926', '3942', '3944', '3948', '3951', '3960', '3981', '3983', '3985', '3992', '3997', '4003', '4005', '4009', '4017', '4030', '4036', '4037', '4043', '4044', '4051', '4052', '4059', '4060', '4069', '4073', '4077', '4078', '4084', '4085', '4109', '4116', '4126', '4135', '4137', '4153', '4155', '4162', '4165', '4167', '4189', '4232', '4244', '4252', '4259', '4261', '4267', '4270', '4271', '4275', '4285', '4288', '4291', '4298', '4302', '4308', '4310', '4316', '4322', '4329', '4336', '4338', '4341', '4344', '4354', '4363', '4369', '4372', '4377', '4387', '4407', '4427', '4429', '4447', '4449', '4453', '4455', '4459', '4460', '4467', '4477', '4483', '4485', '4494', '4495', '4499']",True,10000,True,100,94598a9db6,0.0,0.0,1.0
