{
  "clients": [
    {
      "name": "30_issda_1000",
      "path": "./csv/30_issda.csv",
      "subset": "rng-1000",
      "subset_size": 1000,
      "param": null
    }
  ],
  "agg_size": [
    1,
    101,
    201,
    301,
    401,
    501,
    601,
    701,
    801,
    901
  ],
  "methods": [
    {
      "name": "rng",
      "param": 0
    },
    {
      "name": "rng",
      "param": 1
    },
    {
      "name": "rng",
      "param": 2
    },
    {
      "name": "rng",
      "param": 3
    },
    {
      "name": "rng",
      "param": 4
    },
    {
      "name": "rng",
      "param": 5
    },
    {
      "name": "rng",
      "param": 6
    },
    {
      "name": "rng",
      "param": 7
    },
    {
      "name": "rng",
      "param": 8
    },
    {
      "name": "rng",
      "param": 9
    },
    {
      "name": "rng",
      "param": 10
    },
    {
      "name": "rng",
      "param": 11
    },
    {
      "name": "rng",
      "param": 12
    },
    {
      "name": "rng",
      "param": 13
    },
    {
      "name": "rng",
      "param": 14
    },
    {
      "name": "rng",
      "param": 15
    },
    {
      "name": "rng",
      "param": 16
    },
    {
      "name": "rng",
      "param": 17
    },
    {
      "name": "rng",
      "param": 18
    },
    {
      "name": "rng",
      "param": 19
    }
  ],
  "days": [
    {
      "name": "num-start-1",
      "param": 1
    },
    {
      "name": "num-start-101",
      "param": 101
    },
    {
      "name": "num-start-201",
      "param": 201
    },
    {
      "name": "num-start-301",
      "param": 301
    },
    {
      "name": "num-start-401",
      "param": 401
    },
    {
      "name": "num-start-501",
      "param": 501
    },
    {
      "name": "num-start-601",
      "param": 601
    },
    {
      "name": "num-start-701",
      "param": 701
    },
    {
      "name": "num-start-801",
      "param": 801
    },
    {
      "name": "num-start-901",
      "param": 901
    },
    {
      "name": "num-start-1001",
      "param": 1001
    },
    {
      "name": "num-start-1101",
      "param": 1101
    },
    {
      "name": "num-start-1201",
      "param": 1201
    },
    {
      "name": "num-start-1301",
      "param": 1301
    },
    {
      "name": "num-start-1401",
      "param": 1401
    },
    {
      "name": "num-start-1501",
      "param": 1501
    },
    {
      "name": "num-start-1601",
      "param": 1601
    },
    {
      "name": "num-start-1701",
      "param": 1701
    },
    {
      "name": "num-start-1801",
      "param": 1801
    },
    {
      "name": "num-start-1901",
      "param": 1901
    }
  ],
  "threads": null,
  "wall_time": 1000,
  "pooled": true
}