,expe,clients,clients_size,clients_subset,agg_size,agg_size_pc,method,days,days_size,days_total,noise_method,time,valid,valid_sum,success,score_avg,score_min,score_max,nsols,oracle,wall_hit,wall_time,pooled,pool_size,optimal,valid_sums,uuid
0,./expes/v3_2021-01-22_di_4500-prng-1-w1-p10,daily_issda-4500,4500,first-4500,1232,27,rng,num-start-1,1,536,classic,27.080682516098022,False,,True,0.3779275055218531,0.3759648478791738,0.3791787841930666,10,"Index(['1', '2', '3', '4', '14', '16', '17', '24', '25', '28',
       ...
       '4471', '4474', '4477', '4479', '4481', '4483', '4490', '4493', '4495',
       '4500'],
      dtype='object', length=1232)",False,5000,True,10,1.0,1.0,011892e17f
1,./expes/v3_2021-01-22_di_4500-prng-1-w1-p10,daily_issda-4500,4500,first-4500,1008,22,rng,num-start-91,91,536,classic,5028.050565958023,False,,True,0.0,,,0,"Index(['5', '6', '12', '16', '17', '24', '27', '32', '41', '42',
       ...
       '4458', '4460', '4468', '4469', '4470', '4474', '4477', '4482', '4493',
       '4495'],
      dtype='object', length=1008)",True,5000,True,10,0.0,0.0,cfaecf61f5
2,./expes/v3_2021-01-22_di_4500-prng-1-w1-p10,daily_issda-4500,4500,first-4500,1904,42,rng,num-start-11,11,536,classic,5003.333472251892,False,,True,0.0,,,0,"Index(['1', '3', '5', '6', '7', '13', '14', '18', '19', '25',
       ...
       '4473', '4474', '4477', '4482', '4484', '4487', '4492', '4494', '4499',
       '4500'],
      dtype='object', length=1904)",True,5000,True,10,0.0,0.0,3e120e9fef
3,./expes/v3_2021-01-22_di_4500-prng-1-w1-p10,daily_issda-4500,4500,first-4500,2240,49,rng,num-start-151,151,536,classic,5044.287629127502,False,,True,0.0,,,0,"Index(['4', '5', '8', '9', '10', '11', '13', '14', '16', '20',
       ...
       '4482', '4486', '4490', '4492', '4493', '4496', '4497', '4498', '4499',
       '4500'],
      dtype='object', length=2240)",True,5000,True,10,0.0,0.0,4a94e10973
4,./expes/v3_2021-01-22_di_4500-prng-1-w1-p10,daily_issda-4500,4500,first-4500,1792,39,rng,num-start-191,191,536,classic,5059.708999872208,False,,True,0.0,,,0,"Index(['2', '3', '4', '7', '8', '10', '11', '13', '15', '16',
       ...
       '4484', '4486', '4488', '4489', '4491', '4492', '4493', '4494', '4499',
       '4500'],
      dtype='object', length=1792)",True,5000,True,10,0.0,0.0,1ebfe3fe21
5,./expes/v3_2021-01-22_di_4500-prng-1-w1-p10,daily_issda-4500,4500,first-4500,1232,27,rng,num-start-211,211,536,classic,5060.057130098343,False,,True,0.0,,,0,"Index(['1', '4', '6', '8', '9', '10', '13', '14', '15', '17',
       ...
       '4471', '4473', '4481', '4484', '4486', '4491', '4492', '4493', '4498',
       '4499'],
      dtype='object', length=1232)",True,5000,True,10,0.0,0.0,ef1dba8988
