,expe,clients,clients_size,clients_subset,agg_size,agg_size_pc,method,days,days_size,days_total,noise_method,time,valid,valid_sum,success,score_avg,score_min,score_max,nsols,oracle,wall_hit,wall_time,pooled,pool_size,optimal,valid_sums,uuid
0,./expes/v3_2021-01-22_di_4500-prng-1-w1-p10,daily_issda-4500,4500,first-4500,224,4,rng,num-start-111,111,536,classic,5034.0913875103,False,,True,0,,,0,"Index(['1', '10', '13', '102', '109', '116', '121', '133', '178', '187',
       ...
       '4377', '4427', '4429', '4449', '4459', '4460', '4483', '4485', '4494',
       '4495'],
      dtype='object', length=224)",True,5000,True,10,0.0,0.0,17be6a39bf
1,./expes/v3_2021-01-22_di_4500-prng-1-w1-p10,daily_issda-4500,4500,first-4500,1008,22,rng,num-start-181,181,536,classic,5057.860430955887,False,,True,0,,,0,"Index(['5', '6', '12', '16', '17', '24', '27', '32', '41', '42',
       ...
       '4458', '4460', '4468', '4469', '4470', '4474', '4477', '4482', '4493',
       '4495'],
      dtype='object', length=1008)",True,5000,True,10,0.0,0.0,902c096eac
2,./expes/v3_2021-01-22_di_4500-prng-1-w1-p10,daily_issda-4500,4500,first-4500,1232,27,rng,num-start-141,141,536,classic,5046.907843351364,False,,True,0,,,0,"Index(['1', '7', '18', '19', '26', '32', '39', '40', '42', '43',
       ...
       '4455', '4460', '4461', '4462', '4467', '4468', '4484', '4487', '4494',
       '4499'],
      dtype='object', length=1232)",True,5000,True,10,0.0,0.0,d2f1eb5b5e
3,./expes/v3_2021-01-22_di_4500-prng-1-w1-p10,daily_issda-4500,4500,first-4500,448,9,rng,num-start-71,71,536,classic,5023.16530919075,False,,True,0,,,0,"Index(['21', '24', '31', '38', '55', '62', '66', '74', '96', '99',
       ...
       '4375', '4386', '4389', '4392', '4454', '4460', '4475', '4488', '4494',
       '4495'],
      dtype='object', length=448)",True,5000,True,10,0.0,0.0,03f3a4a76a
4,./expes/v3_2021-01-22_di_4500-prng-1-w1-p10,daily_issda-4500,4500,first-4500,1904,42,rng,num-start-291,291,536,classic,5100.436292886734,False,,True,0,,,0,"Index(['1', '4', '6', '8', '9', '10', '11', '13', '14', '15',
       ...
       '4484', '4485', '4486', '4490', '4491', '4492', '4493', '4498', '4499',
       '4500'],
      dtype='object', length=1904)",True,5000,True,10,0.0,0.0,f27971174b
