,expe,clients,clients_size,clients_subset,agg_size,agg_size_pc,method,days,days_size,days_total,noise_method,time,valid,valid_sum,success,score_avg,score_min,score_max,nsols,oracle,wall_hit,wall_time,pooled,pool_size,optimal,valid_sums,uuid
0,./expes/v3_2021-01-22_di_4500-prng-1-w1-p10,daily_issda-4500,4500,first-4500,1008,22,rng,num-start-201,201,536,classic,5051.022543668747,False,,True,0,,,0,"Index(['1', '2', '3', '5', '6', '15', '24', '29', '36', '40',
       ...
       '4465', '4468', '4473', '4480', '4481', '4486', '4489', '4493', '4499',
       '4500'],
      dtype='object', length=1008)",True,5000,True,10,0.0,0.0,e8d255c1c1
1,./expes/v3_2021-01-22_di_4500-prng-1-w1-p10,daily_issda-4500,4500,first-4500,560,12,rng,num-start-61,61,536,classic,5017.427238225937,False,,True,0,,,0,"Index(['1', '2', '3', '5', '15', '24', '29', '40', '64', '84',
       ...
       '4437', '4444', '4452', '4457', '4463', '4468', '4473', '4480', '4486',
       '4493'],
      dtype='object', length=560)",True,5000,True,10,0.0,0.0,c8773da4e2
2,./expes/v3_2021-01-22_di_4500-prng-1-w1-p10,daily_issda-4500,4500,first-4500,560,12,rng,num-start-191,191,536,classic,5051.212894678116,False,,True,0,,,0,"Index(['26', '43', '47', '58', '60', '62', '64', '65', '66', '68',
       ...
       '4426', '4428', '4434', '4435', '4442', '4449', '4455', '4462', '4484',
       '4487'],
      dtype='object', length=560)",True,5000,True,10,0.0,0.0,fe0e790d02
3,./expes/v3_2021-01-22_di_4500-prng-1-w1-p10,daily_issda-4500,4500,first-4500,2128,47,rng,num-start-281,281,536,classic,5079.953284502029,False,,True,0,,,0,"Index(['1', '2', '3', '4', '5', '6', '8', '11', '13', '15',
       ...
       '4477', '4480', '4481', '4486', '4489', '4490', '4493', '4496', '4499',
       '4500'],
      dtype='object', length=2128)",True,5000,True,10,0.0,0.0,cfdbef9282
4,./expes/v3_2021-01-22_di_4500-prng-1-w1-p10,daily_issda-4500,4500,first-4500,560,12,rng,num-start-41,41,536,classic,5011.282258987427,False,,True,0,,,0,"Index(['4', '6', '8', '15', '24', '27', '28', '44', '52', '75',
       ...
       '4466', '4467', '4470', '4481', '4484', '4491', '4492', '4493', '4498',
       '4499'],
      dtype='object', length=560)",True,5000,True,10,0.0,0.0,4c72260937
5,./expes/v3_2021-01-22_di_4500-prng-1-w1-p10,daily_issda-4500,4500,first-4500,224,4,rng,num-start-211,211,536,classic,5058.02796125412,False,,True,0,,,0,"Index(['2', '48', '51', '75', '83', '92', '108', '115', '167', '180',
       ...
       '4209', '4234', '4288', '4305', '4356', '4378', '4388', '4417', '4418',
       '4438'],
      dtype='object', length=224)",True,5000,True,10,0.0,0.0,9ea500d006
6,./expes/v3_2021-01-22_di_4500-prng-1-w1-p10,daily_issda-4500,4500,first-4500,448,9,rng,num-start-11,11,536,classic,5003.230477809906,False,,True,0,,,0,"Index(['10', '17', '18', '25', '27', '31', '34', '41', '46', '47',
       ...
       '4374', '4384', '4391', '4397', '4451', '4466', '4468', '4469', '4480',
       '4482'],
      dtype='object', length=448)",True,5000,True,10,0.0,0.0,84cdc9f0e8
7,./expes/v3_2021-01-22_di_4500-prng-1-w1-p10,daily_issda-4500,4500,first-4500,896,19,rng,num-start-121,121,536,classic,5033.879549026489,False,,True,0,,,0,"Index(['5', '8', '14', '17', '22', '27', '30', '39', '40', '43',
       ...
       '4458', '4459', '4460', '4465', '4467', '4470', '4475', '4483', '4487',
       '4500'],
      dtype='object', length=896)",True,5000,True,10,0.0,0.0,a5161782c4
8,./expes/v3_2021-01-22_di_4500-prng-1-w1-p10,daily_issda-4500,4500,first-4500,1792,39,rng,num-start-261,261,536,classic,5072.749910831451,False,,True,0,,,0,"Index(['5', '11', '12', '13', '14', '15', '16', '22', '25', '30',
       ...
       '4476', '4477', '4481', '4482', '4484', '4486', '4488', '4494', '4495',
       '4499'],
      dtype='object', length=1792)",True,5000,True,10,0.0,0.0,0c5b82f8a0
9,./expes/v3_2021-01-22_di_4500-prng-1-w1-p10,daily_issda-4500,4500,first-4500,1344,29,rng,num-start-141,141,536,classic,5040.338501691818,False,,True,0,,,0,"Index(['2', '3', '4', '7', '10', '11', '13', '16', '23', '25',
       ...
       '4478', '4480', '4482', '4484', '4486', '4489', '4491', '4492', '4493',
       '4494'],
      dtype='object', length=1344)",True,5000,True,10,0.0,0.0,d49a126f7e
10,./expes/v3_2021-01-22_di_4500-prng-1-w1-p10,daily_issda-4500,4500,first-4500,1792,39,rng,num-start-231,231,536,classic,5064.502562522888,False,,True,0,,,0,"Index(['1', '2', '5', '7', '12', '13', '14', '15', '16', '17',
       ...
       '4469', '4473', '4474', '4479', '4482', '4484', '4493', '4494', '4495',
       '4500'],
      dtype='object', length=1792)",True,5000,True,10,0.0,0.0,e55ff20e88
11,./expes/v3_2021-01-22_di_4500-prng-1-w1-p10,daily_issda-4500,4500,first-4500,1568,34,rng,num-start-281,281,536,classic,5075.488082647324,False,,True,0,,,0,"Index(['1', '2', '3', '4', '5', '6', '9', '10', '13', '14',
       ...
       '4477', '4479', '4483', '4485', '4488', '4492', '4494', '4495', '4497',
       '4499'],
      dtype='object', length=1568)",True,5000,True,10,0.0,0.0,9dce1dbde3
12,./expes/v3_2021-01-22_di_4500-prng-1-w1-p10,daily_issda-4500,4500,first-4500,448,9,rng,num-start-291,291,536,classic,5079.125236749649,False,,True,0,,,0,"Index(['17', '24', '57', '72', '102', '108', '133', '138', '148', '155',
       ...
       '4439', '4440', '4444', '4460', '4467', '4469', '4471', '4477', '4483',
       '4495'],
      dtype='object', length=448)",True,5000,True,10,0.0,0.0,d8423c9c19
13,./expes/v3_2021-01-22_di_4500-prng-1-w1-p10,daily_issda-4500,4500,first-4500,1680,37,rng,num-start-91,91,536,classic,5025.453591585159,False,,True,0,,,0,"Index(['1', '3', '7', '13', '18', '19', '25', '26', '29', '31',
       ...
       '4468', '4470', '4473', '4474', '4477', '4484', '4487', '4494', '4499',
       '4500'],
      dtype='object', length=1680)",True,5000,True,10,0.0,0.0,0d68ab1c50
14,./expes/v3_2021-01-22_di_4500-prng-1-w1-p10,daily_issda-4500,4500,first-4500,560,12,rng,num-start-131,131,536,classic,5036.8433673381805,False,,True,0,,,0,"Index(['1', '2', '3', '5', '15', '24', '29', '40', '64', '84',
       ...
       '4437', '4444', '4452', '4457', '4463', '4468', '4473', '4480', '4486',
       '4493'],
      dtype='object', length=560)",True,5000,True,10,0.0,0.0,bec85514e9
15,./expes/v3_2021-01-22_di_4500-prng-1-w1-p10,daily_issda-4500,4500,first-4500,112,2,rng,num-start-91,91,536,classic,5026.473443984985,False,,True,0,,,0,"Index(['4', '103', '140', '152', '180', '233', '302', '375', '441', '627',
       ...
       '4127', '4217', '4233', '4235', '4278', '4303', '4321', '4407', '4410',
       '4418'],
      dtype='object', length=112)",True,5000,True,10,0.0,0.0,96456c506a
16,./expes/v3_2021-01-22_di_4500-prng-1-w1-p10,daily_issda-4500,4500,first-4500,224,4,rng,num-start-241,241,536,classic,5067.751640319824,False,,True,0,,,0,"Index(['25', '38', '55', '98', '109', '139', '164', '186', '210', '249',
       ...
       '4290', '4307', '4320', '4325', '4332', '4334', '4357', '4422', '4465',
       '4484'],
      dtype='object', length=224)",True,5000,True,10,0.0,0.0,6235f04f86
17,./expes/v3_2021-01-22_di_4500-prng-1-w1-p10,daily_issda-4500,4500,first-4500,1456,32,rng,num-start-211,211,536,classic,5057.818289518356,False,,True,0,,,0,"Index(['4', '6', '7', '10', '16', '18', '19', '20', '21', '24',
       ...
       '4477', '4479', '4482', '4487', '4488', '4490', '4494', '4495', '4499',
       '4500'],
      dtype='object', length=1456)",True,5000,True,10,0.0,0.0,f1d4618164
18,./expes/v3_2021-01-22_di_4500-prng-1-w1-p10,daily_issda-4500,4500,first-4500,560,12,rng,num-start-81,81,536,classic,5021.595796346664,False,,True,0,,,0,"Index(['17', '24', '44', '53', '57', '70', '72', '102', '108', '121',
       ...
       '4440', '4444', '4460', '4467', '4469', '4471', '4477', '4483', '4493',
       '4495'],
      dtype='object', length=560)",True,5000,True,10,0.0,0.0,a7442bfaed
19,./expes/v3_2021-01-22_di_4500-prng-1-w1-p10,daily_issda-4500,4500,first-4500,112,2,rng,num-start-171,171,536,classic,5045.870379686356,False,,True,0,,,0,"Index(['98', '109', '164', '210', '249', '276', '279', '307', '359', '476',
       ...
       '4126', '4149', '4157', '4177', '4234', '4262', '4332', '4357', '4422',
       '4465'],
      dtype='object', length=112)",True,5000,True,10,0.0,0.0,8c72801a3e
20,./expes/v3_2021-01-22_di_4500-prng-1-w1-p10,daily_issda-4500,4500,first-4500,1456,32,rng,num-start-201,201,536,classic,5113.161106824875,False,,True,0,,,0,"Index(['1', '4', '6', '8', '9', '10', '13', '14', '15', '16',
       ...
       '4476', '4481', '4484', '4486', '4490', '4491', '4492', '4493', '4498',
       '4499'],
      dtype='object', length=1456)",True,5000,True,10,0.0,0.0,3faa528b03
