,expe,clients,clients_size,clients_subset,agg_size,agg_size_pc,method,days,days_size,days_total,noise_method,time,valid,valid_sum,success,score_avg,score_min,score_max,nsols,oracle,wall_hit,wall_time,pooled,pool_size,optimal,valid_sums,uuid
0,./expes/v3_2021-01-22_di_4500-prng-1-w1-p10,daily_issda-4500,4500,first-4500,1120,24,rng,num-start-141,141,536,classic,5037.5702040195465,False,,True,0,,,0,"Index(['5', '8', '14', '17', '22', '23', '27', '30', '39', '40',
       ...
       '4465', '4467', '4469', '4470', '4472', '4475', '4483', '4487', '4489',
       '4500'],
      dtype='object', length=1120)",True,5000,True,10,0.0,0.0,ae636316f8
1,./expes/v3_2021-01-22_di_4500-prng-1-w1-p10,daily_issda-4500,4500,first-4500,1792,39,rng,num-start-271,271,536,classic,5076.311827659607,False,,True,0,,,0,"Index(['4', '8', '9', '11', '14', '16', '20', '24', '31', '32',
       ...
       '4478', '4480', '4486', '4490', '4492', '4493', '4496', '4497', '4498',
       '4499'],
      dtype='object', length=1792)",True,5000,True,10,0.0,0.0,f5c8a4a27f
2,./expes/v3_2021-01-22_di_4500-prng-1-w1-p10,daily_issda-4500,4500,first-4500,1568,34,rng,num-start-31,31,536,classic,5009.101822376251,False,,True,0,,,0,"Index(['4', '6', '7', '10', '16', '17', '18', '19', '20', '21',
       ...
       '4479', '4481', '4482', '4487', '4488', '4490', '4494', '4495', '4499',
       '4500'],
      dtype='object', length=1568)",True,5000,True,10,0.0,0.0,ee618b80e0
3,./expes/v3_2021-01-22_di_4500-prng-1-w1-p10,daily_issda-4500,4500,first-4500,1120,24,rng,num-start-151,151,536,classic,5041.983613491058,False,,True,0,,,0,"Index(['5', '8', '14', '17', '22', '23', '27', '30', '39', '40',
       ...
       '4465', '4467', '4469', '4470', '4472', '4475', '4483', '4487', '4489',
       '4500'],
      dtype='object', length=1120)",True,5000,True,10,0.0,0.0,8bfff56468
4,./expes/v3_2021-01-22_di_4500-prng-1-w1-p10,daily_issda-4500,4500,first-4500,560,12,rng,num-start-171,171,536,classic,5048.859909057617,False,,True,0,,,0,"Index(['7', '13', '18', '29', '32', '33', '47', '62', '70', '76',
       ...
       '4459', '4463', '4467', '4468', '4469', '4487', '4490', '4492', '4496',
       '4500'],
      dtype='object', length=560)",True,5000,True,10,0.0,0.0,f484adb559
5,./expes/v3_2021-01-22_di_4500-prng-1-w1-p10,daily_issda-4500,4500,first-4500,560,12,rng,num-start-61,61,536,classic,5017.092606782913,False,,True,0,,,0,"Index(['10', '16', '17', '18', '25', '27', '31', '34', '41', '46',
       ...
       '4384', '4391', '4395', '4397', '4451', '4466', '4468', '4469', '4480',
       '4482'],
      dtype='object', length=560)",True,5000,True,10,0.0,0.0,be66eb6a1a
6,./expes/v3_2021-01-22_di_4500-prng-1-w1-p10,daily_issda-4500,4500,first-4500,560,12,rng,num-start-61,61,536,classic,5016.825293302536,False,,True,0,,,0,"Index(['8', '14', '22', '27', '40', '46', '60', '66', '71', '77',
       ...
       '4426', '4429', '4439', '4452', '4458', '4465', '4470', '4475', '4483',
       '4487'],
      dtype='object', length=560)",True,5000,True,10,0.0,0.0,b3b72ae382
7,./expes/v3_2021-01-22_di_4500-prng-1-w1-p10,daily_issda-4500,4500,first-4500,1008,22,rng,num-start-171,171,536,classic,5045.773548126221,False,,True,0,,,0,"Index(['4', '5', '12', '32', '38', '41', '56', '77', '78', '79',
       ...
       '4458', '4463', '4469', '4474', '4475', '4480', '4484', '4489', '4492',
       '4495'],
      dtype='object', length=1008)",True,5000,True,10,0.0,0.0,2e261057f3
8,./expes/v3_2021-01-22_di_4500-prng-1-w1-p10,daily_issda-4500,4500,first-4500,1904,42,rng,num-start-261,261,536,classic,5072.118322134018,False,,True,0,,,0,"Index(['5', '7', '12', '13', '18', '25', '26', '28', '29', '30',
       ...
       '4481', '4482', '4487', '4490', '4492', '4494', '4496', '4498', '4499',
       '4500'],
      dtype='object', length=1904)",True,5000,True,10,0.0,0.0,30ed7db88c
9,./expes/v3_2021-01-22_di_4500-prng-1-w1-p10,daily_issda-4500,4500,first-4500,1904,42,rng,num-start-131,131,536,classic,5036.425491333008,False,,True,0,,,0,"Index(['1', '2', '3', '4', '5', '6', '8', '11', '13', '15',
       ...
       '4474', '4477', '4480', '4481', '4486', '4489', '4490', '4493', '4499',
       '4500'],
      dtype='object', length=1904)",True,5000,True,10,0.0,0.0,5c90031082
10,./expes/v3_2021-01-22_di_4500-prng-1-w1-p10,daily_issda-4500,4500,first-4500,2128,47,rng,num-start-191,191,536,classic,5051.687196731567,False,,True,0,,,0,"Index(['1', '2', '3', '4', '12', '14', '15', '16', '17', '19',
       ...
       '4474', '4475', '4477', '4479', '4481', '4483', '4490', '4493', '4495',
       '4500'],
      dtype='object', length=2128)",True,5000,True,10,0.0,0.0,632de7b7dc
11,./expes/v3_2021-01-22_di_4500-prng-1-w1-p10,daily_issda-4500,4500,first-4500,2240,49,rng,num-start-101,101,536,classic,5027.60072016716,False,,True,0,,,0,"Index(['4', '5', '6', '8', '12', '14', '18', '21', '22', '27',
       ...
       '4482', '4484', '4486', '4488', '4489', '4491', '4492', '4495', '4496',
       '4500'],
      dtype='object', length=2240)",True,5000,True,10,0.0,0.0,dc4071e898
12,./expes/v3_2021-01-22_di_4500-prng-1-w1-p10,daily_issda-4500,4500,first-4500,2128,47,rng,num-start-61,61,536,classic,5016.324655056,False,,True,0,,,0,"Index(['1', '2', '3', '4', '5', '7', '9', '10', '11', '12',
       ...
       '4483', '4484', '4489', '4490', '4491', '4494', '4496', '4497', '4499',
       '4500'],
      dtype='object', length=2128)",True,5000,True,10,0.0,0.0,4f0942e722
13,./expes/v3_2021-01-22_di_4500-prng-1-w1-p10,daily_issda-4500,4500,first-4500,1904,42,rng,num-start-61,61,536,classic,5016.678076982498,False,,True,0,,,0,"Index(['1', '2', '3', '4', '8', '9', '11', '16', '19', '20',
       ...
       '4475', '4477', '4479', '4482', '4483', '4486', '4497', '4498', '4499',
       '4500'],
      dtype='object', length=1904)",True,5000,True,10,0.0,0.0,3451c09697
14,./expes/v3_2021-01-22_di_4500-prng-1-w1-p10,daily_issda-4500,4500,first-4500,784,17,rng,num-start-271,271,536,classic,5074.420561790466,False,,True,0,,,0,"Index(['14', '15', '20', '23', '29', '30', '39', '41', '57', '60',
       ...
       '4435', '4436', '4439', '4450', '4456', '4459', '4460', '4463', '4484',
       '4493'],
      dtype='object', length=784)",True,5000,True,10,0.0,0.0,a3edbb3cd5
15,./expes/v3_2021-01-22_di_4500-prng-1-w1-p10,daily_issda-4500,4500,first-4500,1904,42,rng,num-start-81,81,536,classic,5021.091371059418,False,,True,0,,,0,"Index(['1', '3', '4', '5', '7', '9', '10', '11', '12', '14',
       ...
       '4471', '4474', '4479', '4490', '4491', '4494', '4496', '4497', '4499',
       '4500'],
      dtype='object', length=1904)",True,5000,True,10,0.0,0.0,d20022aa70
16,./expes/v3_2021-01-22_di_4500-prng-1-w1-p10,daily_issda-4500,4500,first-4500,224,4,rng,num-start-151,151,536,classic,5041.1145260334015,False,,True,0,,,0,"Index(['15', '28', '44', '75', '95', '108', '149', '177', '188', '227',
       ...
       '4337', '4343', '4357', '4371', '4418', '4455', '4466', '4481', '4491',
       '4498'],
      dtype='object', length=224)",True,5000,True,10,0.0,0.0,d351974660
17,./expes/v3_2021-01-22_di_4500-prng-1-w1-p10,daily_issda-4500,4500,first-4500,1120,24,rng,num-start-71,71,536,classic,5018.614359855652,False,,True,0,,,0,"Index(['5', '6', '8', '9', '10', '16', '17', '18', '25', '27',
       ...
       '4451', '4456', '4463', '4466', '4468', '4469', '4474', '4478', '4480',
       '4482'],
      dtype='object', length=1120)",True,5000,True,10,0.0,0.0,0862cc1758
18,./expes/v3_2021-01-22_di_4500-prng-1-w1-p10,daily_issda-4500,4500,first-4500,896,19,rng,num-start-271,271,536,classic,5075.263667821884,False,,True,0,,,0,"Index(['2', '4', '10', '11', '13', '22', '23', '25', '26', '27',
       ...
       '4449', '4451', '4456', '4464', '4466', '4467', '4471', '4481', '4483',
       '4494'],
      dtype='object', length=896)",True,5000,True,10,0.0,0.0,fb935c998d
19,./expes/v3_2021-01-22_di_4500-prng-1-w1-p10,daily_issda-4500,4500,first-4500,1120,24,rng,num-start-161,161,536,classic,5043.939793586731,False,,True,0,,,0,"Index(['1', '2', '14', '15', '16', '20', '23', '29', '30', '39',
       ...
       '4456', '4459', '4460', '4463', '4473', '4474', '4482', '4484', '4493',
       '4495'],
      dtype='object', length=1120)",True,5000,True,10,0.0,0.0,f84f3b23d6
20,./expes/v3_2021-01-22_di_4500-prng-1-w1-p10,daily_issda-4500,4500,first-4500,1120,24,rng,num-start-81,81,536,classic,5021.675872564316,False,,True,0,,,0,"Index(['1', '2', '3', '9', '10', '13', '16', '20', '21', '26',
       ...
       '4467', '4474', '4477', '4479', '4483', '4485', '4494', '4495', '4497',
       '4499'],
      dtype='object', length=1120)",True,5000,True,10,0.0,0.0,2caf6db759
