,expe,clients,clients_size,clients_subset,agg_size,agg_size_pc,method,days,days_size,days_total,noise_method,time,valid,valid_sum,success,score_avg,score_min,score_max,nsols,oracle,wall_hit,wall_time,pooled,pool_size,optimal,valid_sums,uuid
0,./expes/v3_2021-01-22_di_4500-prng-1-w1-p10,daily_issda-4500,4500,first-4500,448,9,rng,num-start-271,271,536,classic,5200.41960477829,False,,True,0.0,,,0,"Index(['14', '22', '27', '40', '46', '60', '71', '77', '87', '108',
       ...
       '4402', '4412', '4426', '4439', '4452', '4458', '4465', '4475', '4483',
       '4487'],
      dtype='object', length=448)",True,5000,True,10,0.0,0.0,1467f3baa6
1,./expes/v3_2021-01-22_di_4500-prng-1-w1-p10,daily_issda-4500,4500,first-4500,1456,32,rng,num-start-131,131,536,classic,5098.788246631622,False,,True,0.0,,,0,"Index(['1', '2', '3', '4', '8', '9', '16', '19', '25', '28',
       ...
       '4464', '4467', '4469', '4472', '4473', '4475', '4479', '4486', '4498',
       '4500'],
      dtype='object', length=1456)",True,5000,True,10,0.0,0.0,0372e39af3
2,./expes/v3_2021-01-22_di_4500-prng-1-w1-p10,daily_issda-4500,4500,first-4500,1792,39,rng,num-start-31,31,536,classic,5022.121904611588,False,,True,0.0,,,0,"Index(['4', '5', '8', '12', '22', '28', '29', '30', '32', '33',
       ...
       '4480', '4482', '4484', '4486', '4488', '4489', '4491', '4492', '4495',
       '4500'],
      dtype='object', length=1792)",True,5000,True,10,0.0,0.0,6c00652f2c
3,./expes/v3_2021-01-22_di_4500-prng-1-w1-p10,daily_issda-4500,4500,first-4500,2240,49,rng,num-start-111,111,536,classic,5079.274204492569,False,,True,0.0,,,0,"Index(['1', '2', '3', '4', '7', '8', '9', '10', '11', '13',
       ...
       '4486', '4488', '4489', '4491', '4492', '4493', '4494', '4496', '4499',
       '4500'],
      dtype='object', length=2240)",True,5000,True,10,0.0,0.0,af4580dedf
4,./expes/v3_2021-01-22_di_4500-prng-1-w1-p10,daily_issda-4500,4500,first-4500,672,14,rng,num-start-141,141,536,classic,5112.398288011551,False,,True,0.0,,,0,"Index(['15', '20', '23', '29', '30', '39', '41', '57', '60', '62',
       ...
       '4432', '4435', '4436', '4439', '4450', '4456', '4459', '4460', '4463',
       '4493'],
      dtype='object', length=672)",True,5000,True,10,0.0,0.0,3d091027ff
5,./expes/v3_2021-01-22_di_4500-prng-1-w1-p10,daily_issda-4500,4500,first-4500,672,14,rng,num-start-221,221,536,classic,5179.0992703437805,False,,True,0.0,,,0,"Index(['1', '2', '3', '5', '6', '15', '24', '29', '40', '64',
       ...
       '4452', '4457', '4463', '4468', '4473', '4480', '4481', '4486', '4493',
       '4500'],
      dtype='object', length=672)",True,5000,True,10,0.0,0.0,1a0d96c4ab
6,./expes/v3_2021-01-22_di_4500-prng-1-w1-p10,daily_issda-4500,4500,first-4500,448,9,rng,num-start-1,1,536,classic,110.19330644607544,False,,True,0.5786338407005215,0.5772632270604121,0.5809599344065395,10,"Index(['6', '8', '15', '24', '27', '28', '44', '75', '82', '95',
       ...
       '4455', '4466', '4467', '4470', '4481', '4484', '4491', '4492', '4498',
       '4499'],
      dtype='object', length=448)",False,5000,True,10,1.0,1.0,96ef1e3056
7,./expes/v3_2021-01-22_di_4500-prng-1-w1-p10,daily_issda-4500,4500,first-4500,2240,49,rng,num-start-201,201,536,classic,5145.08553981781,False,,True,0.0,,,0,"Index(['1', '4', '6', '8', '9', '10', '11', '13', '14', '15',
       ...
       '4485', '4486', '4488', '4490', '4491', '4492', '4493', '4498', '4499',
       '4500'],
      dtype='object', length=2240)",True,5000,True,10,0.0,0.0,cbd81d220d
