,expe,clients,clients_size,clients_subset,agg_size,agg_size_pc,method,days,days_size,days_total,noise_method,time,valid,valid_sum,success,score_avg,score_min,score_max,nsols,oracle,wall_hit,wall_time,pooled,pool_size,optimal,valid_sums,uuid
0,./expes/v3_2021-01-22_di_4500-prng-1-w1-p10,daily_issda-4500,4500,first-4500,1008,22,rng,num-start-291,291,536,classic,5053.740552186966,False,,True,0.0,,,0,"Index(['2', '3', '4', '10', '11', '16', '25', '38', '45', '55',
       ...
       '4473', '4476', '4478', '4480', '4482', '4484', '4486', '4489', '4491',
       '4492'],
      dtype='object', length=1008)",True,5000,True,10,0.0,0.0,80c9dfc2a9
1,./expes/v3_2021-01-22_di_4500-prng-1-w1-p10,daily_issda-4500,4500,first-4500,1904,42,rng,num-start-151,151,536,classic,5027.865067481995,False,,True,0.0,,,0,"Index(['2', '4', '9', '10', '11', '12', '14', '15', '16', '22',
       ...
       '4476', '4482', '4488', '4490', '4492', '4494', '4495', '4496', '4499',
       '4500'],
      dtype='object', length=1904)",True,5000,True,10,0.0,0.0,214ffd18b6
2,./expes/v3_2021-01-22_di_4500-prng-1-w1-p10,daily_issda-4500,4500,first-4500,2016,44,rng,num-start-161,161,536,classic,5026.843288898468,False,,True,0.0,,,0,"Index(['2', '3', '4', '7', '8', '9', '10', '11', '13', '15',
       ...
       '4486', '4488', '4489', '4491', '4492', '4493', '4494', '4496', '4499',
       '4500'],
      dtype='object', length=2016)",True,5000,True,10,0.0,0.0,7b0f589eaf
3,./expes/v3_2021-01-22_di_4500-prng-1-w1-p10,daily_issda-4500,4500,first-4500,784,17,rng,num-start-241,241,536,classic,5041.491100549698,False,,True,0.0,,,0,"Index(['4', '5', '32', '38', '41', '56', '77', '78', '79', '84',
       ...
       '4448', '4451', '4454', '4457', '4458', '4463', '4469', '4474', '4480',
       '4495'],
      dtype='object', length=784)",True,5000,True,10,0.0,0.0,b2ba00df67
4,./expes/v3_2021-01-22_di_4500-prng-1-w1-p10,daily_issda-4500,4500,first-4500,672,14,rng,num-start-191,191,536,classic,5033.429692983627,False,,True,0.0,,,0,"Index(['1', '2', '3', '5', '6', '15', '24', '29', '40', '64',
       ...
       '4452', '4457', '4463', '4468', '4473', '4480', '4481', '4486', '4493',
       '4500'],
      dtype='object', length=672)",True,5000,True,10,0.0,0.0,c5f60105d3
5,./expes/v3_2021-01-22_di_4500-prng-1-w1-p10,daily_issda-4500,4500,first-4500,1120,24,rng,num-start-91,91,536,classic,5016.337932109833,False,,True,0.0,,,0,"Index(['1', '3', '10', '14', '16', '21', '26', '33', '47', '49',
       ...
       '4464', '4465', '4471', '4474', '4490', '4494', '4496', '4497', '4499',
       '4500'],
      dtype='object', length=1120)",True,5000,True,10,0.0,0.0,5abe02c9e5
6,./expes/v3_2021-01-22_di_4500-prng-1-w1-p10,daily_issda-4500,4500,first-4500,448,9,rng,num-start-1,1,536,classic,5.957924842834473,False,,True,0.5758987078123302,0.5751652649291799,0.57673776163328,10,"Index(['4', '5', '38', '41', '56', '79', '89', '90', '93', '97',
       ...
       '4409', '4410', '4413', '4414', '4422', '4434', '4448', '4457', '4463',
       '4474'],
      dtype='object', length=448)",False,5000,True,10,1.0,1.0,3de4e0556a
7,./expes/v3_2021-01-22_di_4500-prng-1-w1-p10,daily_issda-4500,4500,first-4500,1680,37,rng,num-start-171,171,536,classic,5030.881407737732,False,,True,0.0,,,0,"Index(['5', '7', '10', '21', '24', '25', '29', '30', '34', '36',
       ...
       '4472', '4474', '4477', '4480', '4484', '4488', '4494', '4495', '4498',
       '4499'],
      dtype='object', length=1680)",True,5000,True,10,0.0,0.0,b1ae3f5328
