,expe,clients,clients_size,clients_subset,agg_size,agg_size_pc,method,days,days_size,days_total,noise_method,time,valid,valid_sum,success,score_avg,score_min,score_max,nsols,oracle,wall_hit,wall_time,pooled,pool_size,optimal,valid_sums,uuid
0,./expes/v3_2021-01-22_di_4500-prng-1-w1-p10,daily_issda-4500,4500,first-4500,784,17,rng,num-start-51,51,536,classic,5014.006420850754,False,,True,0,,,0,"Index(['16', '21', '24', '31', '38', '43', '46', '51', '55', '62',
       ...
       '4453', '4454', '4460', '4469', '4475', '4482', '4488', '4494', '4495',
       '4499'],
      dtype='object', length=784)",True,5000,True,10,0.0,0.0,15d5d44f6b
1,./expes/v3_2021-01-22_di_4500-prng-1-w1-p10,daily_issda-4500,4500,first-4500,1456,32,rng,num-start-251,251,536,classic,5075.625666618347,False,,True,0,,,0,"Index(['4', '8', '9', '14', '20', '24', '31', '33', '35', '36',
       ...
       '4476', '4477', '4478', '4486', '4490', '4492', '4493', '4496', '4497',
       '4499'],
      dtype='object', length=1456)",True,5000,True,10,0.0,0.0,49a9eaf980
2,./expes/v3_2021-01-22_di_4500-prng-1-w1-p10,daily_issda-4500,4500,first-4500,560,12,rng,num-start-171,171,536,classic,5057.850870132446,False,,True,0,,,0,"Index(['14', '31', '51', '55', '64', '67', '69', '71', '85', '89',
       ...
       '4450', '4457', '4459', '4475', '4476', '4478', '4490', '4492', '4496',
       '4497'],
      dtype='object', length=560)",True,5000,True,10,0.0,0.0,2be22404fb
3,./expes/v3_2021-01-22_di_4500-prng-1-w1-p10,daily_issda-4500,4500,first-4500,1680,37,rng,num-start-201,201,536,classic,5065.635474920273,False,,True,0,,,0,"Index(['1', '2', '3', '4', '5', '6', '9', '10', '13', '14',
       ...
       '4479', '4483', '4484', '4485', '4488', '4492', '4494', '4495', '4497',
       '4499'],
      dtype='object', length=1680)",True,5000,True,10,0.0,0.0,cee758fb3a
4,./expes/v3_2021-01-22_di_4500-prng-1-w1-p10,daily_issda-4500,4500,first-4500,672,14,rng,num-start-241,241,536,classic,5070.296070098877,False,,True,0,,,0,"Index(['8', '14', '22', '27', '30', '40', '46', '48', '60', '66',
       ...
       '4439', '4452', '4455', '4458', '4460', '4465', '4470', '4475', '4483',
       '4487'],
      dtype='object', length=672)",True,5000,True,10,0.0,0.0,982554fb3a
5,./expes/v3_2021-01-22_di_4500-prng-1-w1-p10,daily_issda-4500,4500,first-4500,1344,29,rng,num-start-271,271,536,classic,5082.734052658081,False,,True,0,,,0,"Index(['2', '4', '9', '10', '11', '12', '15', '16', '22', '24',
       ...
       '4462', '4465', '4473', '4482', '4488', '4490', '4492', '4495', '4499',
       '4500'],
      dtype='object', length=1344)",True,5000,True,10,0.0,0.0,772734e397
6,./expes/v3_2021-01-22_di_4500-prng-1-w1-p10,daily_issda-4500,4500,first-4500,1456,32,rng,num-start-11,11,536,classic,5003.678277492523,False,,True,0,,,0,"Index(['2', '4', '5', '10', '11', '12', '13', '14', '17', '22',
       ...
       '4475', '4476', '4477', '4481', '4483', '4492', '4494', '4496', '4497',
       '4498'],
      dtype='object', length=1456)",True,5000,True,10,0.0,0.0,f3ef8102ba
7,./expes/v3_2021-01-22_di_4500-prng-1-w1-p10,daily_issda-4500,4500,first-4500,1792,39,rng,num-start-131,131,536,classic,5040.118450641632,False,,True,0,,,0,"Index(['1', '2', '5', '7', '12', '13', '14', '15', '16', '17',
       ...
       '4469', '4473', '4474', '4479', '4482', '4484', '4493', '4494', '4495',
       '4500'],
      dtype='object', length=1792)",True,5000,True,10,0.0,0.0,6b7c3b30a7
8,./expes/v3_2021-01-22_di_4500-prng-1-w1-p10,daily_issda-4500,4500,first-4500,1008,22,rng,num-start-121,121,536,classic,5038.896786928177,False,,True,0,,,0,"Index(['5', '10', '24', '25', '29', '30', '34', '36', '41', '42',
       ...
       '4443', '4452', '4461', '4463', '4464', '4465', '4469', '4474', '4498',
       '4499'],
      dtype='object', length=1008)",True,5000,True,10,0.0,0.0,49ca5f7f5e
9,./expes/v3_2021-01-22_di_4500-prng-1-w1-p10,daily_issda-4500,4500,first-4500,1680,37,rng,num-start-51,51,536,classic,5016.084880828857,False,,True,0,,,0,"Index(['2', '4', '5', '8', '10', '11', '12', '13', '14', '17',
       ...
       '4477', '4480', '4481', '4483', '4492', '4493', '4494', '4496', '4497',
       '4498'],
      dtype='object', length=1680)",True,5000,True,10,0.0,0.0,b8ff325afd
10,./expes/v3_2021-01-22_di_4500-prng-1-w1-p10,daily_issda-4500,4500,first-4500,896,19,rng,num-start-91,91,536,classic,5028.6778790950775,False,,True,0,,,0,"Index(['2', '3', '17', '24', '28', '33', '44', '45', '49', '53',
       ...
       '4467', '4469', '4471', '4477', '4479', '4481', '4483', '4493', '4495',
       '4500'],
      dtype='object', length=896)",True,5000,True,10,0.0,0.0,87539cc40a
11,./expes/v3_2021-01-22_di_4500-prng-1-w1-p10,daily_issda-4500,4500,first-4500,1680,37,rng,num-start-241,241,536,classic,5074.94681763649,False,,True,0,,,0,"Index(['5', '7', '12', '13', '18', '25', '26', '28', '29', '30',
       ...
       '4476', '4481', '4482', '4487', '4490', '4492', '4494', '4496', '4499',
       '4500'],
      dtype='object', length=1680)",True,5000,True,10,0.0,0.0,013257a9be
12,./expes/v3_2021-01-22_di_4500-prng-1-w1-p10,daily_issda-4500,4500,first-4500,2128,47,rng,num-start-291,291,536,classic,5090.871865749359,False,,True,0,,,0,"Index(['1', '4', '6', '8', '9', '10', '11', '13', '14', '15',
       ...
       '4484', '4485', '4486', '4490', '4491', '4492', '4493', '4498', '4499',
       '4500'],
      dtype='object', length=2128)",True,5000,True,10,0.0,0.0,037aa74e64
13,./expes/v3_2021-01-22_di_4500-prng-1-w1-p10,daily_issda-4500,4500,first-4500,2240,49,rng,num-start-211,211,536,classic,5065.546942234039,False,,True,0,,,0,"Index(['2', '5', '6', '9', '11', '12', '15', '16', '17', '20',
       ...
       '4480', '4482', '4484', '4487', '4490', '4492', '4493', '4495', '4498',
       '4499'],
      dtype='object', length=2240)",True,5000,True,10,0.0,0.0,38d310645c
14,./expes/v3_2021-01-22_di_4500-prng-1-w1-p10,daily_issda-4500,4500,first-4500,1792,39,rng,num-start-121,121,536,classic,5036.499598264694,False,,True,0,,,0,"Index(['2', '4', '9', '10', '11', '12', '14', '15', '16', '22',
       ...
       '4476', '4482', '4488', '4490', '4492', '4494', '4495', '4496', '4499',
       '4500'],
      dtype='object', length=1792)",True,5000,True,10,0.0,0.0,bf9e256fb4
15,./expes/v3_2021-01-22_di_4500-prng-1-w1-p10,daily_issda-4500,4500,first-4500,1680,37,rng,num-start-171,171,536,classic,5055.472178459168,False,,True,0,,,0,"Index(['2', '3', '4', '7', '10', '11', '13', '15', '16', '23',
       ...
       '4480', '4482', '4484', '4486', '4489', '4491', '4492', '4493', '4494',
       '4499'],
      dtype='object', length=1680)",True,5000,True,10,0.0,0.0,c5b74c51e0
16,./expes/v3_2021-01-22_di_4500-prng-1-w1-p10,daily_issda-4500,4500,first-4500,2016,44,rng,num-start-221,221,536,classic,5065.023682117462,False,,True,0,,,0,"Index(['1', '2', '3', '4', '5', '6', '9', '10', '11', '13',
       ...
       '4483', '4484', '4485', '4488', '4489', '4492', '4494', '4495', '4497',
       '4499'],
      dtype='object', length=2016)",True,5000,True,10,0.0,0.0,941068a24f
17,./expes/v3_2021-01-22_di_4500-prng-1-w1-p10,daily_issda-4500,4500,first-4500,1456,32,rng,num-start-71,71,536,classic,5022.454185009003,False,,True,0,,,0,"Index(['1', '3', '4', '9', '10', '14', '16', '19', '21', '26',
       ...
       '4467', '4471', '4474', '4490', '4491', '4494', '4496', '4497', '4499',
       '4500'],
      dtype='object', length=1456)",True,5000,True,10,0.0,0.0,5920a66356
18,./expes/v3_2021-01-22_di_4500-prng-1-w1-p10,daily_issda-4500,4500,first-4500,1568,34,rng,num-start-251,251,536,classic,5079.7167019844055,False,,True,0,,,0,"Index(['5', '7', '12', '13', '18', '25', '26', '28', '29', '30',
       ...
       '4473', '4476', '4481', '4482', '4487', '4490', '4492', '4496', '4499',
       '4500'],
      dtype='object', length=1568)",True,5000,True,10,0.0,0.0,87851a1084
19,./expes/v3_2021-01-22_di_4500-prng-1-w1-p10,daily_issda-4500,4500,first-4500,560,12,rng,num-start-41,41,536,classic,5012.520351886749,False,,True,0,,,0,"Index(['15', '20', '29', '39', '41', '57', '60', '62', '94', '108',
       ...
       '4432', '4435', '4436', '4439', '4450', '4456', '4459', '4460', '4463',
       '4493'],
      dtype='object', length=560)",True,5000,True,10,0.0,0.0,10c76b2972
20,./expes/v3_2021-01-22_di_4500-prng-1-w1-p10,daily_issda-4500,4500,first-4500,2128,47,rng,num-start-181,181,536,classic,5055.966767072678,False,,True,0,,,0,"Index(['2', '3', '4', '7', '8', '9', '10', '11', '13', '15',
       ...
       '4486', '4488', '4489', '4491', '4492', '4493', '4494', '4496', '4499',
       '4500'],
      dtype='object', length=2128)",True,5000,True,10,0.0,0.0,f762cf67ef
21,./expes/v3_2021-01-22_di_4500-prng-1-w1-p10,daily_issda-4500,4500,first-4500,1456,32,rng,num-start-121,121,536,classic,5038.484779596329,False,,True,0,,,0,"Index(['2', '4', '9', '10', '11', '12', '15', '16', '22', '23',
       ...
       '4468', '4473', '4482', '4488', '4490', '4492', '4494', '4495', '4499',
       '4500'],
      dtype='object', length=1456)",True,5000,True,10,0.0,0.0,fef34405d0
22,./expes/v3_2021-01-22_di_4500-prng-1-w1-p10,daily_issda-4500,4500,first-4500,560,12,rng,num-start-91,91,536,classic,5027.494870424271,False,,True,0,,,0,"Index(['47', '49', '51', '52', '55', '72', '74', '91', '106', '117',
       ...
       '4443', '4444', '4453', '4454', '4461', '4464', '4465', '4474', '4494',
       '4500'],
      dtype='object', length=560)",True,5000,True,10,0.0,0.0,7e6ea5b2de
23,./expes/v3_2021-01-22_di_4500-prng-1-w1-p10,daily_issda-4500,4500,first-4500,896,19,rng,num-start-171,171,536,classic,5052.967838764191,False,,True,0,,,0,"Index(['16', '21', '24', '25', '31', '35', '38', '43', '46', '51',
       ...
       '4454', '4460', '4462', '4469', '4475', '4482', '4488', '4494', '4495',
       '4499'],
      dtype='object', length=896)",True,5000,True,10,0.0,0.0,9a2ed1f150
24,./expes/v3_2021-01-22_di_4500-prng-1-w1-p10,daily_issda-4500,4500,first-4500,1120,24,rng,num-start-11,11,536,classic,5003.23867058754,False,,True,0,,,0,"Index(['2', '4', '5', '10', '11', '12', '13', '22', '23', '25',
       ...
       '4466', '4467', '4471', '4475', '4477', '4481', '4483', '4494', '4496',
       '4497'],
      dtype='object', length=1120)",True,5000,True,10,0.0,0.0,c8f36610c2
25,./expes/v3_2021-01-22_di_4500-prng-1-w1-p10,daily_issda-4500,4500,first-4500,1456,32,rng,num-start-241,241,536,classic,5072.9287366867065,False,,True,0,,,0,"Index(['5', '7', '10', '21', '24', '25', '29', '30', '34', '36',
       ...
       '4464', '4465', '4467', '4469', '4474', '4477', '4480', '4484', '4498',
       '4499'],
      dtype='object', length=1456)",True,5000,True,10,0.0,0.0,f5405d63af
