expe,clients,clients_size,clients_subset,agg_size,agg_size_pc,method,days,days_size,days_total,noise_method,time,valid,valid_sum,success,score_avg,score_min,score_max,nsols,oracle,wall_hit,wall_time,pooled,pool_size,uuid,infeasible,optimal,valid_sums
./expes/v2_2021-03-27_issda-30_2000-prng-1-w4-p2,30_issda-2000,2000,first-2000,100,5,rng,num-start-1600,1600,25726,classic,771.4268755912781,True,,True,1.0,1.0,1.0,1,"['24', '35', '36', '39', '75', '98', '113', '135', '151', '162', '205', '239', '240', '288', '302', '311', '324', '353', '401', '423', '428', '458', '469', '474', '490', '491', '540', '575', '587', '606', '626', '642', '646', '693', '706', '728', '729', '738', '753', '804', '810', '823', '830', '860', '862', '900', '923', '933', '945', '956', '960', '1003', '1005', '1014', '1048', '1068', '1086', '1094', '1137', '1157', '1167', '1183', '1258', '1323', '1396', '1415', '1422', '1423', '1451', '1473', '1486', '1489', '1508', '1592', '1608', '1634', '1637', '1649', '1659', '1718', '1722', '1729', '1753', '1756', '1757', '1769', '1792', '1802', '1817', '1827', '1870', '1888', '1890', '1895', '1906', '1915', '1922', '1936', '1965', '1977']",False,4000,True,2,ab41e25a0b,0.0,1.0,1.0
./expes/v2_2021-03-27_issda-30_2000-prng-1-w4-p2,30_issda-2000,2000,first-2000,700,35,rng,num-start-1800,1800,25726,classic,1933.3274109363556,True,,True,1.0,1.0,1.0,1,"['4', '7', '9', '10', '11', '18', '22', '24', '33', '36', '37', '40', '41', '44', '49', '50', '51', '52', '57', '61', '64', '65', '66', '69', '70', '73', '74', '75', '77', '84', '89', '94', '101', '105', '110', '111', '116', '117', '121', '123', '124', '126', '135', '137', '139', '146', '149', '150', '151', '152', '155', '157', '158', '159', '164', '165', '167', '170', '173', '174', '177', '180', '183', '188', '191', '192', '193', '194', '197', '204', '205', '206', '208', '209', '216', '218', '228', '230', '232', '236', '238', '243', '250', '252', '262', '264', '270', '274', '275', '277', '278', '280', '283', '287', '288', '290', '295', '297', '301', '307', '310', '311', '315', '320', '321', '322', '323', '325', '326', '329', '331', '333', '337', '341', '347', '348', '350', '353', '354', '356', '361', '362', '364', '370', '372', '373', '377', '380', '385', '389', '392', '393', '394', '407', '409', '419', '420', '426', '427', '431', '432', '435', '436', '438', '442', '443', '444', '446', '449', '455', '461', '462', '465', '468', '473', '475', '476', '477', '478', '481', '484', '488', '494', '502', '506', '508', '510', '511', '512', '514', '516', '519', '520', '521', '523', '524', '526', '527', '529', '531', '532', '537', '541', '545', '547', '550', '551', '560', '562', '569', '571', '572', '575', '579', '583', '586', '588', '594', '596', '598', '604', '607', '608', '620', '622', '623', '627', '631', '632', '634', '635', '639', '640', '641', '642', '648', '653', '657', '665', '666', '669', '672', '674', '675', '678', '684', '686', '691', '699', '700', '701', '705', '707', '712', '718', '719', '725', '730', '733', '735', '737', '738', '740', '742', '743', '746', '747', '750', '751', '762', '763', '764', '765', '766', '768', '775', '777', '779', '782', '784', '785', '788', '790', '791', '799', '800', '801', '802', '803', '805', '806', '809', '810', '819', '820', '823', '825', '826', '828', '829', '830', '833', '838', '842', '845', '850', '854', '857', '859', '860', '867', '868', '872', '876', '883', '889', '890', '899', '904', '906', '907', '911', '912', '913', '918', '919', '925', '929', '930', '932', '936', '937', '938', '941', '943', '945', '949', '952', '953', '955', '956', '957', '958', '961', '964', '968', '969', '979', '983', '988', '989', '991', '992', '994', '995', '996', '997', '998', '1001', '1002', '1004', '1005', '1008', '1020', '1021', '1023', '1026', '1029', '1030', '1033', '1034', '1040', '1041', '1042', '1043', '1045', '1048', '1049', '1052', '1053', '1054', '1055', '1056', '1058', '1061', '1062', '1064', '1067', '1070', '1071', '1072', '1073', '1074', '1076', '1077', '1078', '1087', '1090', '1092', '1097', '1102', '1103', '1108', '1115', '1117', '1122', '1124', '1128', '1130', '1142', '1143', '1147', '1148', '1150', '1152', '1156', '1160', '1163', '1166', '1171', '1175', '1177', '1180', '1189', '1190', '1191', '1198', '1200', '1201', '1205', '1206', '1208', '1211', '1212', '1216', '1219', '1222', '1240', '1241', '1242', '1243', '1251', '1254', '1255', '1257', '1261', '1262', '1263', '1267', '1273', '1274', '1275', '1277', '1278', '1279', '1281', '1286', '1288', '1295', '1297', '1298', '1301', '1305', '1306', '1308', '1310', '1313', '1315', '1317', '1324', '1327', '1328', '1330', '1332', '1335', '1338', '1339', '1342', '1349', '1350', '1354', '1356', '1359', '1366', '1371', '1372', '1374', '1378', '1382', '1383', '1384', '1386', '1390', '1391', '1394', '1395', '1396', '1398', '1402', '1403', '1404', '1408', '1413', '1414', '1417', '1419', '1425', '1432', '1433', '1441', '1443', '1445', '1446', '1447', '1451', '1454', '1456', '1457', '1458', '1460', '1461', '1462', '1463', '1465', '1466', '1467', '1468', '1469', '1472', '1473', '1474', '1475', '1481', '1482', '1483', '1487', '1491', '1493', '1494', '1497', '1498', '1500', '1505', '1508', '1509', '1513', '1516', '1521', '1525', '1526', '1528', '1532', '1535', '1537', '1538', '1539', '1541', '1544', '1545', '1546', '1547', '1548', '1556', '1557', '1558', '1560', '1563', '1566', '1569', '1571', '1584', '1588', '1592', '1600', '1604', '1607', '1613', '1615', '1618', '1622', '1627', '1629', '1630', '1631', '1632', '1635', '1636', '1637', '1639', '1642', '1644', '1646', '1647', '1648', '1651', '1652', '1656', '1657', '1659', '1664', '1666', '1669', '1670', '1671', '1672', '1675', '1677', '1679', '1681', '1687', '1689', '1690', '1691', '1703', '1707', '1711', '1712', '1713', '1715', '1718', '1722', '1734', '1738', '1739', '1741', '1743', '1746', '1749', '1755', '1760', '1762', '1767', '1768', '1770', '1774', '1781', '1783', '1784', '1791', '1792', '1794', '1796', '1798', '1800', '1804', '1805', '1806', '1807', '1809', '1811', '1812', '1813', '1818', '1819', '1822', '1827', '1831', '1833', '1834', '1840', '1843', '1846', '1848', '1850', '1855', '1857', '1859', '1860', '1861', '1867', '1868', '1874', '1876', '1877', '1882', '1885', '1886', '1888', '1889', '1895', '1897', '1903', '1904', '1909', '1910', '1914', '1916', '1917', '1919', '1922', '1923', '1927', '1932', '1933', '1941', '1942', '1943', '1944', '1945', '1946', '1955', '1956', '1958', '1961', '1962', '1964', '1965', '1966', '1968', '1970', '1971', '1973', '1980', '1981', '1985', '1986', '1988', '1989', '1992', '1995']",False,4000,True,2,23ee0024ac,0.0,1.0,1.0
./expes/v2_2021-03-27_issda-30_2000-prng-1-w4-p2,30_issda-2000,2000,first-2000,700,35,rng,num-start-800,800,25726,classic,4113.765902757645,False,,False,0,,,0,"['1', '2', '4', '6', '8', '10', '16', '21', '22', '30', '31', '32', '36', '37', '40', '41', '43', '49', '52', '53', '57', '58', '59', '60', '63', '65', '71', '72', '82', '83', '88', '92', '95', '98', '102', '103', '105', '106', '107', '112', '114', '122', '123', '127', '128', '131', '133', '137', '140', '141', '143', '144', '149', '153', '154', '158', '159', '166', '167', '171', '184', '185', '186', '191', '192', '194', '195', '196', '199', '201', '203', '210', '212', '214', '218', '219', '220', '227', '229', '230', '231', '232', '234', '235', '236', '243', '244', '245', '247', '249', '250', '252', '253', '255', '258', '260', '264', '267', '270', '273', '274', '277', '281', '289', '294', '300', '301', '307', '310', '314', '316', '325', '330', '331', '332', '338', '339', '345', '349', '350', '352', '353', '358', '360', '364', '366', '371', '372', '374', '377', '380', '387', '388', '389', '395', '397', '400', '403', '405', '407', '408', '409', '410', '411', '415', '416', '419', '420', '421', '425', '426', '429', '431', '434', '438', '443', '444', '447', '451', '455', '456', '458', '461', '463', '464', '468', '469', '471', '472', '473', '480', '483', '484', '485', '494', '495', '496', '498', '500', '501', '502', '505', '506', '507', '509', '510', '513', '515', '516', '517', '519', '522', '523', '524', '525', '526', '530', '533', '534', '539', '540', '542', '544', '545', '547', '555', '556', '558', '560', '561', '562', '564', '565', '571', '575', '576', '577', '578', '579', '580', '588', '594', '596', '597', '601', '606', '607', '608', '616', '617', '620', '621', '625', '626', '628', '629', '634', '636', '637', '640', '644', '647', '650', '652', '654', '661', '662', '666', '677', '680', '683', '684', '687', '691', '694', '696', '697', '703', '709', '712', '714', '718', '720', '722', '724', '726', '729', '734', '738', '739', '740', '745', '746', '748', '749', '751', '754', '755', '756', '764', '771', '772', '777', '780', '783', '784', '787', '788', '791', '792', '793', '794', '795', '805', '807', '808', '813', '815', '818', '825', '827', '831', '832', '833', '844', '856', '858', '862', '863', '864', '866', '867', '869', '871', '873', '874', '880', '886', '893', '896', '898', '899', '904', '905', '907', '910', '912', '913', '917', '921', '922', '925', '927', '929', '931', '932', '933', '942', '944', '956', '960', '961', '962', '963', '965', '969', '970', '972', '974', '975', '977', '979', '984', '986', '987', '992', '993', '994', '996', '997', '998', '1000', '1002', '1005', '1012', '1014', '1015', '1020', '1025', '1026', '1029', '1034', '1035', '1038', '1039', '1041', '1044', '1048', '1049', '1053', '1058', '1065', '1066', '1068', '1069', '1073', '1077', '1080', '1082', '1086', '1090', '1092', '1094', '1095', '1096', '1098', '1101', '1103', '1107', '1109', '1110', '1111', '1113', '1116', '1117', '1119', '1124', '1126', '1130', '1134', '1138', '1140', '1142', '1143', '1144', '1146', '1147', '1150', '1161', '1163', '1166', '1167', '1169', '1171', '1182', '1184', '1186', '1192', '1195', '1197', '1201', '1205', '1206', '1207', '1211', '1216', '1218', '1219', '1220', '1221', '1232', '1234', '1237', '1240', '1245', '1249', '1255', '1261', '1262', '1279', '1281', '1283', '1285', '1287', '1294', '1296', '1298', '1301', '1304', '1306', '1310', '1313', '1315', '1318', '1321', '1322', '1323', '1324', '1325', '1327', '1331', '1335', '1336', '1339', '1343', '1344', '1345', '1346', '1348', '1349', '1351', '1356', '1360', '1363', '1365', '1369', '1374', '1377', '1379', '1383', '1386', '1393', '1394', '1395', '1396', '1398', '1402', '1404', '1406', '1407', '1416', '1418', '1427', '1437', '1439', '1440', '1441', '1442', '1444', '1446', '1454', '1456', '1457', '1463', '1464', '1466', '1471', '1472', '1478', '1484', '1485', '1486', '1487', '1496', '1497', '1504', '1506', '1514', '1515', '1516', '1517', '1519', '1525', '1527', '1529', '1530', '1533', '1539', '1540', '1541', '1546', '1547', '1551', '1557', '1559', '1560', '1564', '1565', '1567', '1571', '1575', '1577', '1578', '1584', '1585', '1587', '1588', '1593', '1597', '1602', '1603', '1607', '1608', '1613', '1621', '1623', '1626', '1627', '1632', '1634', '1635', '1641', '1646', '1648', '1651', '1652', '1654', '1655', '1656', '1658', '1660', '1664', '1668', '1670', '1673', '1676', '1678', '1680', '1682', '1685', '1686', '1687', '1688', '1691', '1694', '1696', '1697', '1698', '1701', '1704', '1711', '1714', '1720', '1724', '1735', '1737', '1739', '1740', '1741', '1745', '1748', '1750', '1752', '1756', '1761', '1762', '1765', '1768', '1770', '1771', '1772', '1773', '1776', '1784', '1786', '1788', '1791', '1792', '1795', '1800', '1802', '1807', '1810', '1814', '1815', '1816', '1819', '1820', '1821', '1835', '1836', '1837', '1840', '1841', '1842', '1845', '1846', '1847', '1848', '1852', '1853', '1861', '1862', '1864', '1865', '1875', '1877', '1879', '1886', '1888', '1889', '1896', '1901', '1902', '1908', '1910', '1911', '1912', '1913', '1914', '1917', '1918', '1920', '1921', '1924', '1926', '1930', '1932', '1934', '1937', '1938', '1946', '1948', '1950', '1951', '1955', '1959', '1964', '1965', '1967', '1968', '1974', '1977', '1983', '1990', '1991', '1992', '1993', '1995', '2000']",True,4000,True,2,87ccc55933,0.0,0.0,0.0
./expes/v2_2021-03-27_issda-30_2000-prng-1-w4-p2,30_issda-2000,2000,first-2000,600,30,rng,num-start-1200,1200,25726,classic,3652.43031167984,True,,True,1.0,1.0,1.0,1,"['4', '7', '10', '12', '15', '20', '22', '27', '38', '41', '42', '48', '53', '55', '58', '65', '66', '71', '73', '76', '83', '84', '85', '88', '89', '92', '95', '97', '106', '109', '110', '114', '121', '122', '124', '127', '128', '136', '137', '138', '139', '142', '153', '154', '156', '158', '159', '160', '162', '164', '167', '168', '170', '175', '178', '182', '183', '185', '188', '191', '192', '195', '199', '202', '207', '212', '218', '227', '232', '233', '235', '238', '240', '243', '248', '250', '251', '262', '272', '273', '280', '285', '289', '291', '295', '298', '305', '306', '307', '314', '318', '320', '322', '323', '325', '326', '331', '332', '334', '335', '338', '339', '343', '346', '348', '353', '354', '358', '362', '364', '365', '368', '370', '374', '377', '385', '392', '393', '397', '400', '401', '402', '405', '407', '411', '414', '416', '421', '425', '426', '427', '432', '433', '440', '441', '442', '448', '449', '453', '455', '456', '469', '470', '472', '475', '478', '479', '484', '487', '489', '496', '497', '503', '507', '510', '511', '513', '515', '516', '519', '521', '527', '528', '529', '530', '532', '534', '536', '537', '538', '550', '552', '557', '566', '567', '569', '574', '575', '582', '585', '586', '591', '592', '593', '594', '595', '596', '598', '599', '600', '601', '607', '609', '613', '615', '616', '620', '621', '622', '625', '626', '635', '638', '639', '640', '642', '645', '646', '649', '657', '659', '662', '663', '666', '669', '670', '676', '678', '679', '690', '692', '694', '697', '703', '711', '712', '718', '729', '731', '732', '736', '738', '742', '743', '745', '747', '748', '750', '753', '762', '763', '781', '782', '794', '795', '796', '800', '803', '804', '809', '811', '812', '815', '820', '821', '823', '825', '826', '827', '828', '832', '839', '841', '843', '846', '848', '852', '855', '861', '863', '866', '868', '869', '877', '881', '883', '888', '889', '893', '898', '899', '900', '901', '903', '904', '906', '909', '910', '925', '926', '930', '932', '939', '940', '941', '948', '952', '957', '966', '968', '970', '977', '979', '981', '982', '991', '992', '997', '1002', '1004', '1005', '1008', '1013', '1015', '1017', '1022', '1037', '1038', '1042', '1048', '1050', '1063', '1066', '1067', '1072', '1074', '1077', '1078', '1079', '1082', '1084', '1085', '1095', '1100', '1101', '1103', '1107', '1110', '1113', '1115', '1117', '1119', '1121', '1122', '1126', '1128', '1144', '1149', '1150', '1152', '1158', '1164', '1166', '1167', '1171', '1173', '1174', '1176', '1180', '1192', '1193', '1194', '1197', '1205', '1206', '1218', '1220', '1223', '1227', '1231', '1237', '1241', '1243', '1246', '1249', '1250', '1256', '1260', '1261', '1265', '1266', '1269', '1271', '1272', '1275', '1277', '1283', '1284', '1285', '1286', '1288', '1292', '1296', '1300', '1301', '1305', '1311', '1313', '1316', '1323', '1326', '1328', '1335', '1336', '1338', '1340', '1341', '1346', '1353', '1354', '1356', '1367', '1369', '1376', '1380', '1383', '1384', '1386', '1387', '1393', '1395', '1405', '1409', '1420', '1425', '1429', '1436', '1441', '1444', '1448', '1451', '1456', '1457', '1461', '1466', '1470', '1478', '1499', '1506', '1510', '1526', '1527', '1528', '1529', '1530', '1539', '1546', '1548', '1554', '1557', '1568', '1571', '1573', '1577', '1580', '1582', '1585', '1586', '1588', '1591', '1594', '1597', '1603', '1604', '1606', '1607', '1611', '1612', '1613', '1619', '1620', '1626', '1631', '1634', '1635', '1636', '1638', '1640', '1641', '1642', '1645', '1648', '1653', '1654', '1657', '1659', '1665', '1669', '1675', '1676', '1677', '1692', '1694', '1695', '1698', '1700', '1702', '1703', '1710', '1714', '1716', '1720', '1722', '1731', '1736', '1737', '1738', '1747', '1751', '1753', '1754', '1757', '1759', '1761', '1765', '1766', '1770', '1771', '1773', '1777', '1781', '1782', '1784', '1790', '1791', '1795', '1798', '1800', '1801', '1803', '1805', '1807', '1809', '1814', '1816', '1822', '1825', '1827', '1828', '1832', '1835', '1837', '1838', '1842', '1843', '1845', '1846', '1848', '1852', '1853', '1854', '1859', '1862', '1865', '1867', '1870', '1871', '1875', '1876', '1878', '1880', '1885', '1889', '1890', '1893', '1894', '1896', '1900', '1901', '1902', '1905', '1915', '1918', '1919', '1921', '1925', '1927', '1930', '1932', '1934', '1935', '1942', '1945', '1948', '1953', '1956', '1959', '1965', '1966', '1968', '1970', '1972', '1976', '1977', '1979', '1984', '1986', '1988', '1989', '1995']",False,4000,True,2,e28f4d3f73,0.0,1.0,1.0
./expes/v2_2021-03-27_issda-30_2000-prng-1-w4-p2,30_issda-2000,2000,first-2000,900,45,rng,num-start-3000,3000,25726,classic,2909.6449699401855,True,,True,1.0,1.0,1.0,1,"['2', '7', '8', '11', '12', '14', '15', '17', '18', '19', '20', '21', '23', '24', '25', '26', '27', '29', '31', '32', '36', '38', '40', '42', '44', '46', '49', '53', '54', '56', '58', '59', '60', '61', '62', '68', '70', '71', '74', '80', '84', '85', '86', '87', '89', '97', '100', '102', '104', '105', '106', '108', '109', '110', '111', '113', '116', '117', '119', '120', '121', '122', '123', '124', '125', '130', '131', '132', '133', '134', '135', '136', '137', '141', '142', '143', '147', '152', '153', '155', '156', '157', '161', '162', '164', '166', '167', '168', '170', '171', '172', '173', '174', '176', '178', '179', '180', '181', '182', '183', '188', '189', '192', '193', '194', '197', '198', '203', '204', '205', '209', '210', '212', '213', '217', '218', '223', '226', '227', '228', '229', '230', '239', '242', '243', '244', '246', '247', '249', '251', '253', '263', '266', '271', '272', '273', '275', '276', '277', '282', '283', '284', '285', '288', '289', '292', '295', '298', '301', '304', '305', '306', '307', '311', '312', '319', '322', '326', '329', '331', '332', '333', '334', '335', '337', '341', '345', '346', '347', '348', '350', '351', '352', '354', '355', '360', '361', '362', '365', '367', '371', '372', '373', '374', '375', '377', '382', '383', '387', '388', '391', '394', '398', '400', '402', '405', '406', '408', '409', '410', '411', '412', '414', '416', '420', '421', '423', '428', '429', '430', '431', '432', '433', '438', '444', '452', '453', '455', '456', '457', '459', '460', '462', '466', '473', '474', '476', '477', '484', '485', '488', '496', '497', '498', '499', '503', '507', '509', '514', '515', '519', '520', '522', '523', '524', '526', '530', '531', '532', '533', '535', '538', '539', '543', '546', '547', '548', '550', '552', '553', '557', '559', '562', '564', '565', '567', '569', '571', '576', '581', '583', '584', '585', '589', '590', '595', '596', '597', '599', '603', '605', '607', '610', '615', '616', '617', '620', '625', '626', '627', '630', '631', '633', '636', '638', '642', '644', '645', '646', '650', '651', '653', '657', '659', '661', '662', '663', '664', '666', '667', '673', '674', '675', '676', '677', '678', '681', '684', '685', '687', '688', '689', '691', '692', '693', '694', '698', '700', '706', '709', '711', '712', '714', '715', '723', '724', '727', '732', '734', '736', '746', '747', '748', '749', '750', '757', '758', '761', '763', '764', '765', '766', '767', '771', '776', '777', '780', '782', '785', '786', '789', '791', '795', '796', '797', '798', '799', '806', '808', '810', '811', '813', '816', '817', '818', '822', '824', '825', '826', '827', '832', '833', '835', '836', '837', '838', '840', '843', '846', '850', '853', '854', '855', '861', '863', '864', '866', '867', '868', '870', '871', '873', '875', '878', '881', '888', '892', '893', '894', '896', '897', '899', '900', '901', '903', '906', '910', '916', '920', '923', '925', '926', '929', '930', '933', '934', '936', '937', '940', '946', '949', '950', '951', '952', '956', '958', '962', '964', '965', '969', '971', '973', '974', '977', '978', '980', '981', '985', '987', '988', '1001', '1004', '1007', '1008', '1010', '1013', '1016', '1017', '1018', '1019', '1021', '1024', '1026', '1028', '1029', '1030', '1035', '1036', '1037', '1041', '1042', '1044', '1045', '1046', '1047', '1050', '1053', '1056', '1057', '1059', '1060', '1061', '1062', '1063', '1064', '1066', '1070', '1071', '1072', '1073', '1075', '1077', '1079', '1080', '1083', '1084', '1088', '1089', '1091', '1092', '1093', '1097', '1098', '1100', '1101', '1102', '1106', '1110', '1111', '1113', '1114', '1115', '1118', '1119', '1121', '1124', '1132', '1133', '1136', '1137', '1139', '1141', '1142', '1146', '1148', '1151', '1153', '1154', '1158', '1160', '1162', '1165', '1168', '1169', '1173', '1174', '1176', '1177', '1179', '1183', '1185', '1186', '1188', '1190', '1191', '1195', '1197', '1198', '1199', '1202', '1204', '1205', '1206', '1209', '1210', '1212', '1215', '1223', '1224', '1225', '1228', '1230', '1231', '1235', '1238', '1239', '1240', '1241', '1242', '1243', '1245', '1246', '1247', '1248', '1249', '1251', '1252', '1253', '1255', '1256', '1262', '1263', '1264', '1275', '1280', '1281', '1284', '1289', '1290', '1295', '1300', '1303', '1305', '1308', '1309', '1312', '1315', '1317', '1320', '1322', '1325', '1327', '1328', '1330', '1334', '1338', '1347', '1349', '1350', '1357', '1358', '1359', '1360', '1362', '1364', '1367', '1368', '1370', '1371', '1372', '1373', '1375', '1381', '1386', '1387', '1389', '1390', '1391', '1393', '1394', '1395', '1396', '1399', '1400', '1402', '1405', '1406', '1409', '1410', '1414', '1415', '1419', '1421', '1423', '1424', '1426', '1427', '1428', '1429', '1432', '1433', '1434', '1436', '1438', '1439', '1441', '1442', '1445', '1446', '1449', '1450', '1451', '1452', '1453', '1454', '1455', '1457', '1458', '1464', '1466', '1468', '1469', '1474', '1476', '1481', '1483', '1485', '1487', '1489', '1490', '1491', '1492', '1495', '1503', '1508', '1510', '1511', '1513', '1518', '1520', '1523', '1524', '1526', '1527', '1528', '1529', '1531', '1532', '1533', '1540', '1541', '1542', '1545', '1546', '1551', '1556', '1558', '1559', '1560', '1561', '1564', '1565', '1566', '1567', '1572', '1574', '1580', '1581', '1582', '1583', '1584', '1585', '1586', '1587', '1589', '1592', '1593', '1594', '1595', '1597', '1598', '1599', '1604', '1606', '1611', '1618', '1625', '1628', '1629', '1630', '1631', '1634', '1636', '1637', '1638', '1639', '1645', '1653', '1654', '1656', '1657', '1658', '1659', '1669', '1670', '1681', '1682', '1684', '1686', '1688', '1703', '1704', '1705', '1706', '1708', '1709', '1713', '1715', '1719', '1720', '1721', '1724', '1728', '1730', '1731', '1732', '1733', '1734', '1738', '1741', '1743', '1744', '1745', '1746', '1749', '1755', '1760', '1762', '1763', '1770', '1774', '1775', '1776', '1777', '1779', '1780', '1786', '1789', '1791', '1792', '1794', '1796', '1797', '1800', '1801', '1803', '1804', '1806', '1808', '1809', '1810', '1811', '1813', '1816', '1817', '1818', '1820', '1821', '1822', '1825', '1828', '1829', '1831', '1834', '1835', '1837', '1838', '1840', '1841', '1847', '1849', '1853', '1856', '1857', '1861', '1863', '1867', '1874', '1875', '1880', '1883', '1885', '1887', '1889', '1891', '1893', '1894', '1903', '1906', '1907', '1908', '1911', '1918', '1922', '1925', '1927', '1928', '1930', '1932', '1933', '1934', '1936', '1938', '1939', '1940', '1941', '1945', '1947', '1948', '1949', '1951', '1952', '1953', '1954', '1957', '1958', '1960', '1963', '1967', '1968', '1970', '1971', '1972', '1975', '1976', '1977', '1979', '1980', '1982', '1984', '1985', '1986', '1988', '1991', '1992', '1994', '1995', '1997', '1998', '2000']",False,4000,True,2,5be8e27f09,0.0,1.0,1.0
./expes/v2_2021-03-27_issda-30_2000-prng-1-w4-p2,30_issda-2000,2000,first-2000,1000,50,rng,num-start-3400,3400,25726,classic,4468.908966779709,True,,False,1.0,1.0,1.0,1,"['2', '3', '7', '8', '11', '12', '13', '14', '15', '16', '17', '18', '19', '20', '21', '23', '24', '25', '26', '27', '29', '31', '32', '35', '36', '38', '40', '42', '43', '44', '46', '49', '53', '54', '55', '56', '58', '59', '60', '61', '62', '68', '70', '71', '74', '77', '80', '84', '85', '86', '87', '89', '97', '100', '102', '104', '105', '106', '107', '108', '109', '110', '111', '113', '116', '117', '119', '120', '121', '122', '123', '124', '125', '129', '130', '131', '132', '133', '134', '135', '136', '137', '141', '142', '143', '147', '148', '149', '152', '153', '155', '156', '157', '161', '162', '164', '166', '167', '168', '170', '171', '172', '173', '174', '176', '178', '179', '180', '181', '182', '183', '188', '189', '191', '192', '193', '194', '197', '198', '201', '202', '203', '204', '205', '209', '210', '212', '213', '217', '218', '221', '223', '226', '227', '228', '229', '230', '239', '242', '243', '244', '246', '247', '249', '251', '253', '263', '264', '266', '269', '271', '272', '273', '275', '276', '277', '282', '283', '284', '285', '288', '289', '292', '295', '296', '298', '301', '304', '305', '306', '307', '309', '311', '312', '319', '322', '323', '326', '329', '330', '331', '332', '333', '334', '335', '337', '339', '341', '345', '346', '347', '348', '350', '351', '352', '354', '355', '360', '361', '362', '364', '365', '367', '371', '372', '373', '374', '375', '377', '379', '382', '383', '387', '388', '390', '391', '393', '394', '397', '398', '400', '402', '405', '406', '408', '409', '410', '411', '412', '414', '416', '420', '421', '423', '424', '428', '429', '430', '431', '432', '433', '438', '442', '444', '452', '453', '455', '456', '457', '459', '460', '462', '466', '471', '473', '474', '476', '477', '482', '484', '485', '487', '488', '496', '497', '498', '499', '503', '507', '509', '514', '515', '519', '520', '522', '523', '524', '526', '527', '530', '531', '532', '533', '535', '538', '539', '540', '543', '546', '547', '548', '550', '552', '553', '557', '559', '562', '564', '565', '567', '569', '571', '576', '578', '581', '583', '584', '585', '589', '590', '595', '596', '597', '599', '601', '603', '605', '607', '610', '615', '616', '617', '620', '623', '625', '626', '627', '630', '631', '633', '636', '638', '642', '644', '645', '646', '650', '651', '653', '654', '657', '659', '661', '662', '663', '664', '666', '667', '673', '674', '675', '676', '677', '678', '681', '684', '685', '687', '688', '689', '691', '692', '693', '694', '697', '698', '700', '706', '709', '711', '712', '714', '715', '723', '724', '727', '732', '734', '735', '736', '744', '746', '747', '748', '749', '750', '753', '754', '757', '758', '761', '763', '764', '765', '766', '767', '771', '776', '777', '780', '782', '785', '786', '789', '791', '795', '796', '797', '798', '799', '806', '808', '810', '811', '813', '816', '817', '818', '819', '822', '824', '825', '826', '827', '830', '832', '833', '835', '836', '837', '838', '840', '843', '846', '850', '852', '853', '854', '855', '859', '861', '863', '864', '866', '867', '868', '870', '871', '873', '875', '878', '881', '888', '892', '893', '894', '896', '897', '899', '900', '901', '903', '906', '910', '916', '918', '920', '923', '925', '926', '928', '929', '930', '933', '934', '936', '937', '940', '942', '946', '947', '949', '950', '951', '952', '956', '958', '962', '964', '965', '969', '971', '973', '974', '977', '978', '980', '981', '984', '985', '987', '988', '1001', '1004', '1007', '1008', '1010', '1013', '1016', '1017', '1018', '1019', '1021', '1024', '1026', '1028', '1029', '1030', '1035', '1036', '1037', '1041', '1042', '1044', '1045', '1046', '1047', '1050', '1051', '1053', '1056', '1057', '1059', '1060', '1061', '1062', '1063', '1064', '1066', '1070', '1071', '1072', '1073', '1075', '1077', '1079', '1080', '1083', '1084', '1088', '1089', '1091', '1092', '1093', '1097', '1098', '1100', '1101', '1102', '1106', '1110', '1111', '1113', '1114', '1115', '1118', '1119', '1120', '1121', '1124', '1126', '1128', '1132', '1133', '1136', '1137', '1139', '1141', '1142', '1146', '1148', '1151', '1153', '1154', '1156', '1157', '1158', '1159', '1160', '1162', '1165', '1168', '1169', '1173', '1174', '1176', '1177', '1179', '1183', '1185', '1186', '1187', '1188', '1190', '1191', '1193', '1195', '1197', '1198', '1199', '1202', '1204', '1205', '1206', '1209', '1210', '1212', '1213', '1215', '1223', '1224', '1225', '1228', '1230', '1231', '1235', '1238', '1239', '1240', '1241', '1242', '1243', '1245', '1246', '1247', '1248', '1249', '1251', '1252', '1253', '1254', '1255', '1256', '1262', '1263', '1264', '1275', '1280', '1281', '1282', '1283', '1284', '1289', '1290', '1295', '1300', '1303', '1305', '1308', '1309', '1312', '1315', '1317', '1319', '1320', '1322', '1323', '1325', '1326', '1327', '1328', '1330', '1334', '1338', '1344', '1347', '1349', '1350', '1352', '1357', '1358', '1359', '1360', '1361', '1362', '1363', '1364', '1367', '1368', '1370', '1371', '1372', '1373', '1375', '1377', '1381', '1385', '1386', '1387', '1389', '1390', '1391', '1393', '1394', '1395', '1396', '1399', '1400', '1402', '1403', '1405', '1406', '1409', '1410', '1414', '1415', '1418', '1419', '1421', '1423', '1424', '1426', '1427', '1428', '1429', '1432', '1433', '1434', '1435', '1436', '1438', '1439', '1441', '1442', '1445', '1446', '1449', '1450', '1451', '1452', '1453', '1454', '1455', '1457', '1458', '1461', '1464', '1466', '1468', '1469', '1470', '1472', '1474', '1476', '1481', '1483', '1485', '1487', '1489', '1490', '1491', '1492', '1493', '1495', '1501', '1503', '1508', '1510', '1511', '1513', '1518', '1520', '1522', '1523', '1524', '1526', '1527', '1528', '1529', '1531', '1532', '1533', '1540', '1541', '1542', '1545', '1546', '1551', '1556', '1558', '1559', '1560', '1561', '1564', '1565', '1566', '1567', '1568', '1572', '1573', '1574', '1580', '1581', '1582', '1583', '1584', '1585', '1586', '1587', '1589', '1592', '1593', '1594', '1595', '1597', '1598', '1599', '1604', '1606', '1610', '1611', '1618', '1625', '1628', '1629', '1630', '1631', '1634', '1636', '1637', '1638', '1639', '1642', '1645', '1649', '1651', '1653', '1654', '1656', '1657', '1658', '1659', '1669', '1670', '1679', '1681', '1682', '1684', '1686', '1688', '1702', '1703', '1704', '1705', '1706', '1708', '1709', '1710', '1713', '1715', '1719', '1720', '1721', '1724', '1728', '1730', '1731', '1732', '1733', '1734', '1738', '1739', '1741', '1743', '1744', '1745', '1746', '1749', '1755', '1757', '1760', '1762', '1763', '1770', '1774', '1775', '1776', '1777', '1779', '1780', '1786', '1789', '1791', '1792', '1794', '1796', '1797', '1800', '1801', '1803', '1804', '1806', '1808', '1809', '1810', '1811', '1813', '1816', '1817', '1818', '1820', '1821', '1822', '1825', '1828', '1829', '1831', '1832', '1834', '1835', '1837', '1838', '1840', '1841', '1847', '1849', '1853', '1854', '1856', '1857', '1858', '1861', '1863', '1867', '1874', '1875', '1880', '1883', '1885', '1887', '1889', '1891', '1893', '1894', '1897', '1903', '1906', '1907', '1908', '1911', '1914', '1918', '1921', '1922', '1925', '1927', '1928', '1930', '1932', '1933', '1934', '1936', '1938', '1939', '1940', '1941', '1945', '1947', '1948', '1949', '1951', '1952', '1953', '1954', '1957', '1958', '1960', '1963', '1967', '1968', '1970', '1971', '1972', '1975', '1976', '1977', '1979', '1980', '1982', '1984', '1985', '1986', '1988', '1991', '1992', '1994', '1995', '1997', '1998', '2000']",True,4000,True,2,b34ac49eb1,0.0,0.0,1.0
./expes/v2_2021-03-27_issda-30_2000-prng-1-w4-p2,30_issda-2000,2000,first-2000,300,15,rng,num-start-2000,2000,25726,classic,1402.5641326904297,True,,True,1.0,1.0,1.0,1,"['7', '10', '14', '25', '28', '35', '41', '47', '53', '63', '68', '69', '70', '77', '90', '101', '105', '119', '125', '129', '130', '132', '144', '147', '164', '165', '171', '175', '177', '184', '186', '192', '195', '199', '200', '219', '221', '222', '223', '229', '233', '239', '248', '250', '259', '277', '281', '285', '288', '292', '304', '305', '308', '315', '317', '325', '330', '341', '349', '353', '359', '365', '389', '394', '396', '398', '402', '405', '411', '414', '426', '429', '431', '433', '451', '459', '462', '465', '470', '475', '480', '481', '500', '507', '522', '530', '547', '583', '586', '592', '594', '606', '608', '612', '614', '615', '619', '633', '643', '658', '664', '667', '692', '694', '698', '701', '703', '705', '720', '729', '731', '732', '738', '739', '746', '750', '757', '759', '769', '772', '773', '777', '780', '781', '787', '792', '800', '807', '812', '821', '825', '826', '834', '835', '840', '854', '856', '860', '868', '873', '883', '886', '893', '901', '905', '912', '914', '928', '929', '933', '935', '941', '966', '970', '972', '994', '999', '1000', '1001', '1014', '1019', '1020', '1022', '1028', '1030', '1032', '1035', '1038', '1040', '1045', '1054', '1058', '1059', '1065', '1066', '1067', '1077', '1080', '1082', '1083', '1090', '1106', '1117', '1121', '1142', '1155', '1156', '1166', '1174', '1175', '1186', '1188', '1190', '1191', '1197', '1206', '1230', '1231', '1232', '1238', '1240', '1243', '1253', '1256', '1265', '1271', '1278', '1281', '1296', '1315', '1319', '1323', '1326', '1327', '1331', '1342', '1346', '1347', '1349', '1354', '1358', '1359', '1414', '1416', '1436', '1437', '1438', '1444', '1445', '1451', '1466', '1469', '1474', '1477', '1486', '1487', '1493', '1518', '1523', '1524', '1525', '1534', '1548', '1555', '1556', '1566', '1570', '1619', '1632', '1653', '1655', '1656', '1662', '1668', '1673', '1678', '1699', '1701', '1703', '1709', '1712', '1713', '1728', '1742', '1746', '1752', '1755', '1762', '1780', '1793', '1799', '1805', '1809', '1826', '1838', '1847', '1848', '1850', '1851', '1854', '1857', '1858', '1860', '1862', '1867', '1870', '1900', '1902', '1910', '1918', '1929', '1938', '1946', '1961', '1971', '1977', '1983', '1987', '1993', '1997']",False,4000,True,2,4bd97b3d14,0.0,1.0,1.0
./expes/v2_2021-03-27_issda-30_2000-prng-1-w4-p2,30_issda-2000,2000,first-2000,800,40,rng,num-start-2400,2400,25726,classic,2607.524936437607,True,,True,1.0,1.0,1.0,1,"['1', '2', '4', '6', '7', '11', '13', '19', '21', '24', '27', '28', '30', '34', '38', '39', '41', '45', '47', '49', '52', '53', '55', '57', '60', '61', '66', '68', '69', '71', '74', '75', '76', '78', '81', '82', '86', '90', '93', '96', '99', '100', '101', '104', '106', '107', '110', '111', '115', '117', '118', '121', '124', '125', '129', '130', '134', '136', '137', '138', '141', '146', '148', '161', '162', '166', '172', '173', '175', '178', '183', '187', '188', '189', '193', '195', '199', '205', '209', '219', '221', '222', '226', '227', '228', '231', '232', '236', '238', '242', '243', '244', '250', '251', '253', '256', '259', '260', '265', '268', '269', '271', '272', '273', '274', '276', '280', '284', '285', '287', '289', '290', '291', '292', '293', '294', '299', '301', '304', '305', '306', '307', '309', '310', '312', '315', '317', '320', '322', '326', '327', '328', '331', '335', '339', '340', '341', '346', '347', '348', '352', '354', '360', '361', '364', '366', '368', '369', '370', '371', '372', '373', '375', '378', '379', '380', '382', '386', '392', '393', '397', '399', '401', '403', '404', '407', '408', '412', '415', '419', '420', '425', '427', '428', '429', '434', '437', '441', '442', '444', '449', '452', '457', '464', '472', '473', '479', '481', '482', '483', '486', '487', '488', '489', '492', '493', '499', '503', '504', '505', '511', '513', '514', '515', '517', '521', '524', '525', '533', '540', '541', '543', '548', '549', '555', '558', '561', '562', '565', '569', '571', '573', '574', '576', '579', '580', '581', '586', '587', '588', '592', '593', '594', '595', '597', '600', '601', '602', '604', '605', '606', '607', '608', '612', '616', '617', '618', '620', '622', '627', '628', '630', '634', '635', '637', '639', '640', '643', '645', '647', '648', '649', '650', '651', '654', '663', '665', '667', '668', '678', '680', '683', '685', '689', '693', '694', '696', '697', '698', '700', '705', '706', '708', '713', '714', '715', '717', '718', '720', '721', '724', '726', '727', '728', '729', '731', '733', '734', '735', '740', '741', '742', '743', '745', '746', '747', '750', '753', '756', '757', '761', '762', '764', '766', '767', '768', '770', '771', '773', '775', '777', '778', '779', '780', '783', '784', '785', '787', '788', '790', '791', '797', '798', '799', '803', '804', '811', '814', '817', '822', '825', '827', '828', '830', '831', '832', '835', '836', '837', '839', '840', '841', '848', '850', '851', '854', '858', '859', '862', '864', '872', '875', '876', '878', '880', '882', '885', '887', '888', '890', '897', '904', '909', '912', '914', '922', '928', '929', '930', '934', '936', '946', '947', '948', '949', '951', '953', '954', '958', '959', '961', '962', '963', '966', '967', '968', '972', '973', '975', '977', '978', '980', '982', '983', '984', '985', '986', '987', '988', '989', '991', '995', '997', '1000', '1003', '1004', '1006', '1007', '1008', '1009', '1011', '1017', '1019', '1020', '1023', '1025', '1030', '1036', '1038', '1042', '1050', '1051', '1056', '1058', '1059', '1060', '1062', '1063', '1070', '1075', '1085', '1086', '1087', '1089', '1090', '1091', '1093', '1102', '1103', '1105', '1109', '1110', '1111', '1114', '1117', '1118', '1121', '1123', '1124', '1125', '1127', '1130', '1131', '1133', '1134', '1137', '1138', '1146', '1148', '1155', '1156', '1158', '1159', '1165', '1170', '1174', '1175', '1176', '1178', '1179', '1185', '1190', '1193', '1200', '1201', '1202', '1204', '1208', '1209', '1210', '1214', '1217', '1219', '1221', '1230', '1231', '1236', '1237', '1246', '1247', '1251', '1253', '1257', '1259', '1260', '1264', '1265', '1266', '1269', '1271', '1272', '1274', '1275', '1276', '1278', '1279', '1280', '1282', '1284', '1285', '1290', '1292', '1293', '1295', '1305', '1308', '1312', '1316', '1320', '1321', '1323', '1326', '1327', '1328', '1329', '1330', '1331', '1332', '1334', '1336', '1339', '1342', '1344', '1345', '1352', '1353', '1355', '1356', '1357', '1360', '1363', '1364', '1368', '1369', '1370', '1374', '1376', '1377', '1380', '1382', '1389', '1394', '1395', '1396', '1397', '1398', '1399', '1404', '1405', '1408', '1409', '1410', '1411', '1412', '1415', '1417', '1423', '1424', '1425', '1427', '1429', '1437', '1439', '1443', '1444', '1445', '1446', '1448', '1450', '1451', '1460', '1461', '1464', '1467', '1468', '1471', '1472', '1474', '1475', '1476', '1477', '1478', '1480', '1481', '1485', '1488', '1494', '1495', '1496', '1498', '1499', '1500', '1501', '1509', '1512', '1516', '1517', '1518', '1520', '1521', '1523', '1526', '1527', '1533', '1536', '1537', '1538', '1541', '1548', '1553', '1555', '1556', '1558', '1561', '1569', '1577', '1585', '1587', '1589', '1590', '1595', '1596', '1599', '1600', '1601', '1602', '1609', '1610', '1614', '1620', '1622', '1627', '1629', '1631', '1632', '1633', '1634', '1636', '1642', '1643', '1645', '1648', '1654', '1655', '1663', '1665', '1666', '1673', '1675', '1677', '1679', '1681', '1682', '1684', '1689', '1693', '1694', '1697', '1700', '1703', '1706', '1707', '1711', '1712', '1713', '1714', '1715', '1718', '1722', '1723', '1724', '1725', '1727', '1729', '1731', '1738', '1739', '1745', '1746', '1749', '1751', '1753', '1759', '1761', '1769', '1775', '1776', '1777', '1778', '1779', '1780', '1782', '1785', '1787', '1793', '1795', '1796', '1800', '1803', '1804', '1819', '1821', '1822', '1823', '1826', '1827', '1829', '1830', '1831', '1833', '1836', '1837', '1841', '1846', '1848', '1850', '1865', '1866', '1867', '1868', '1872', '1874', '1877', '1878', '1881', '1888', '1889', '1892', '1893', '1894', '1899', '1904', '1906', '1915', '1916', '1917', '1918', '1920', '1921', '1923', '1924', '1925', '1927', '1928', '1930', '1931', '1932', '1935', '1936', '1937', '1945', '1946', '1948', '1950', '1951', '1953', '1955', '1957', '1959', '1960', '1961', '1963', '1966', '1967', '1968', '1969', '1970', '1973', '1976', '1977', '1980', '1983', '1984', '1990', '1992', '1993', '1994', '1998', '1999', '2000']",False,4000,True,2,dc5b57c52a,0.0,1.0,1.0
./expes/v2_2021-03-27_issda-30_2000-prng-1-w4-p2,30_issda-2000,2000,first-2000,500,25,rng,num-start-3800,3800,25726,classic,3230.515810728073,True,,True,1.0,1.0,1.0,1,"['4', '5', '12', '18', '19', '22', '26', '30', '35', '36', '37', '38', '43', '45', '46', '49', '53', '56', '58', '59', '60', '61', '63', '67', '71', '73', '77', '78', '81', '82', '83', '90', '94', '98', '115', '121', '129', '130', '132', '134', '143', '145', '150', '157', '168', '171', '174', '178', '188', '193', '198', '203', '205', '206', '210', '211', '214', '221', '222', '223', '225', '234', '235', '236', '237', '242', '248', '257', '258', '265', '268', '273', '276', '277', '278', '300', '302', '322', '325', '326', '327', '329', '332', '336', '342', '343', '345', '346', '348', '349', '352', '355', '363', '371', '379', '381', '385', '386', '389', '398', '409', '410', '411', '412', '421', '422', '426', '429', '430', '435', '437', '444', '446', '449', '452', '455', '458', '459', '462', '465', '469', '471', '473', '476', '478', '481', '482', '491', '495', '498', '512', '517', '519', '520', '523', '530', '546', '547', '549', '551', '552', '559', '568', '576', '577', '582', '594', '595', '597', '603', '604', '606', '607', '608', '611', '612', '622', '628', '632', '636', '639', '642', '645', '650', '651', '656', '657', '658', '660', '667', '672', '679', '681', '682', '694', '695', '697', '699', '704', '705', '706', '708', '709', '711', '724', '731', '747', '748', '752', '754', '759', '768', '775', '777', '778', '779', '781', '786', '792', '799', '802', '806', '807', '809', '814', '817', '824', '828', '829', '833', '847', '849', '853', '863', '865', '873', '874', '880', '885', '887', '892', '897', '899', '913', '921', '922', '924', '928', '932', '938', '939', '941', '942', '944', '962', '968', '971', '977', '984', '986', '993', '994', '1000', '1002', '1003', '1009', '1015', '1016', '1017', '1023', '1024', '1026', '1029', '1033', '1034', '1035', '1037', '1040', '1042', '1043', '1045', '1050', '1053', '1058', '1063', '1067', '1073', '1081', '1091', '1095', '1103', '1106', '1107', '1109', '1112', '1116', '1122', '1123', '1124', '1127', '1128', '1129', '1133', '1136', '1140', '1149', '1150', '1154', '1156', '1157', '1160', '1166', '1168', '1169', '1175', '1180', '1184', '1185', '1188', '1197', '1202', '1204', '1207', '1210', '1211', '1212', '1215', '1222', '1229', '1230', '1232', '1237', '1241', '1245', '1248', '1254', '1255', '1257', '1260', '1276', '1277', '1280', '1289', '1292', '1293', '1302', '1316', '1326', '1328', '1329', '1331', '1335', '1336', '1345', '1351', '1352', '1360', '1362', '1364', '1373', '1374', '1379', '1381', '1382', '1383', '1387', '1389', '1395', '1406', '1408', '1424', '1426', '1439', '1440', '1441', '1442', '1444', '1457', '1458', '1465', '1473', '1478', '1483', '1486', '1487', '1488', '1494', '1496', '1501', '1511', '1512', '1517', '1522', '1524', '1545', '1548', '1555', '1559', '1562', '1565', '1572', '1573', '1578', '1579', '1589', '1593', '1595', '1597', '1598', '1602', '1603', '1605', '1609', '1611', '1612', '1615', '1616', '1618', '1631', '1633', '1634', '1636', '1643', '1644', '1646', '1648', '1652', '1658', '1662', '1666', '1673', '1674', '1676', '1679', '1681', '1692', '1696', '1697', '1700', '1705', '1712', '1716', '1721', '1723', '1724', '1731', '1734', '1736', '1738', '1742', '1744', '1748', '1756', '1757', '1759', '1762', '1764', '1774', '1777', '1778', '1782', '1786', '1794', '1800', '1805', '1808', '1813', '1815', '1818', '1825', '1830', '1835', '1837', '1843', '1845', '1847', '1863', '1864', '1865', '1866', '1871', '1873', '1877', '1879', '1885', '1889', '1895', '1896', '1897', '1898', '1907', '1910', '1918', '1921', '1922', '1924', '1927', '1928', '1933', '1934', '1936', '1946', '1950', '1951', '1955', '1956', '1961', '1966', '1971', '1976', '1978', '1981', '1983', '1985', '1987', '1988', '1994', '1995', '1998', '1999']",False,4000,True,2,d4887af781,0.0,1.0,1.0
./expes/v2_2021-03-27_issda-30_2000-prng-1-w4-p2,30_issda-2000,2000,first-2000,800,40,rng,num-start-3200,3200,25726,classic,3404.6917777061462,True,,True,1.0,1.0,1.0,1,"['1', '3', '4', '7', '8', '9', '11', '24', '25', '26', '30', '32', '33', '35', '36', '38', '39', '40', '44', '47', '48', '53', '56', '57', '58', '60', '64', '71', '76', '77', '81', '82', '86', '87', '89', '90', '93', '96', '99', '102', '104', '108', '111', '112', '114', '117', '118', '119', '121', '122', '123', '125', '127', '128', '129', '130', '132', '134', '136', '137', '138', '141', '144', '145', '149', '150', '153', '157', '158', '159', '165', '166', '168', '170', '172', '173', '174', '175', '176', '177', '178', '182', '184', '185', '186', '187', '189', '192', '193', '200', '201', '204', '208', '210', '211', '212', '213', '215', '218', '225', '226', '232', '237', '240', '242', '243', '246', '247', '250', '251', '252', '254', '258', '261', '265', '266', '268', '269', '273', '274', '281', '282', '286', '287', '290', '291', '293', '295', '296', '297', '299', '300', '301', '302', '305', '306', '307', '309', '310', '311', '312', '317', '318', '320', '323', '326', '331', '333', '334', '335', '338', '341', '343', '345', '349', '353', '361', '365', '366', '369', '371', '372', '374', '375', '376', '380', '385', '389', '391', '392', '397', '399', '400', '401', '403', '407', '409', '410', '412', '414', '415', '419', '421', '422', '426', '428', '430', '432', '433', '436', '440', '441', '446', '447', '450', '452', '453', '456', '457', '458', '459', '465', '469', '471', '473', '476', '477', '478', '481', '489', '491', '493', '497', '500', '501', '504', '508', '509', '513', '516', '517', '519', '521', '524', '530', '531', '532', '534', '535', '537', '539', '540', '541', '542', '543', '544', '549', '551', '553', '554', '555', '557', '568', '570', '571', '572', '573', '578', '582', '583', '585', '589', '590', '594', '596', '600', '601', '606', '611', '614', '615', '621', '624', '625', '631', '632', '634', '635', '639', '643', '644', '648', '653', '663', '664', '667', '668', '670', '674', '676', '679', '680', '681', '687', '692', '693', '695', '697', '701', '702', '704', '705', '706', '711', '712', '716', '718', '725', '728', '729', '731', '735', '739', '741', '745', '746', '747', '749', '750', '752', '757', '763', '771', '772', '780', '781', '782', '784', '788', '791', '793', '796', '798', '801', '804', '806', '807', '808', '809', '811', '813', '815', '816', '818', '819', '821', '823', '828', '829', '832', '851', '854', '856', '857', '859', '862', '863', '864', '865', '870', '872', '876', '878', '880', '882', '883', '884', '886', '889', '902', '903', '906', '908', '913', '914', '916', '917', '920', '921', '925', '927', '929', '930', '935', '936', '939', '940', '941', '943', '946', '949', '952', '954', '955', '956', '958', '963', '968', '969', '970', '971', '972', '973', '980', '981', '982', '984', '987', '988', '989', '991', '994', '995', '998', '1000', '1002', '1003', '1010', '1012', '1013', '1014', '1017', '1018', '1025', '1027', '1028', '1030', '1031', '1033', '1034', '1036', '1037', '1038', '1040', '1041', '1046', '1049', '1050', '1051', '1054', '1055', '1056', '1058', '1059', '1060', '1061', '1062', '1072', '1073', '1076', '1078', '1079', '1080', '1082', '1084', '1087', '1088', '1089', '1090', '1091', '1093', '1095', '1097', '1098', '1099', '1108', '1110', '1113', '1115', '1119', '1121', '1122', '1123', '1124', '1125', '1126', '1127', '1129', '1133', '1135', '1138', '1140', '1141', '1143', '1144', '1146', '1148', '1151', '1156', '1159', '1160', '1161', '1163', '1165', '1169', '1170', '1174', '1177', '1182', '1184', '1188', '1191', '1192', '1194', '1195', '1197', '1200', '1202', '1207', '1210', '1218', '1221', '1222', '1227', '1229', '1231', '1234', '1240', '1242', '1246', '1247', '1248', '1249', '1250', '1252', '1253', '1255', '1256', '1257', '1258', '1264', '1265', '1268', '1273', '1274', '1278', '1279', '1281', '1283', '1285', '1286', '1288', '1290', '1292', '1296', '1300', '1303', '1304', '1305', '1309', '1317', '1318', '1326', '1331', '1332', '1334', '1335', '1338', '1342', '1344', '1345', '1347', '1349', '1351', '1353', '1357', '1361', '1363', '1368', '1369', '1370', '1372', '1374', '1375', '1377', '1384', '1385', '1394', '1395', '1396', '1397', '1398', '1399', '1401', '1406', '1409', '1410', '1414', '1415', '1418', '1419', '1420', '1424', '1426', '1428', '1432', '1435', '1436', '1437', '1441', '1447', '1448', '1452', '1454', '1457', '1458', '1459', '1465', '1467', '1468', '1476', '1479', '1481', '1484', '1485', '1486', '1488', '1493', '1494', '1498', '1502', '1503', '1509', '1513', '1516', '1517', '1518', '1523', '1528', '1530', '1533', '1535', '1536', '1537', '1538', '1542', '1548', '1550', '1551', '1553', '1554', '1556', '1557', '1565', '1566', '1571', '1572', '1574', '1581', '1582', '1590', '1591', '1592', '1596', '1598', '1603', '1606', '1607', '1615', '1617', '1619', '1627', '1633', '1634', '1635', '1637', '1638', '1641', '1642', '1646', '1648', '1651', '1652', '1654', '1656', '1658', '1662', '1664', '1665', '1670', '1672', '1674', '1676', '1678', '1679', '1680', '1682', '1684', '1690', '1692', '1693', '1694', '1698', '1703', '1705', '1709', '1710', '1711', '1712', '1715', '1721', '1722', '1723', '1732', '1733', '1739', '1740', '1747', '1748', '1754', '1759', '1760', '1767', '1769', '1770', '1783', '1784', '1785', '1786', '1788', '1790', '1791', '1792', '1793', '1795', '1796', '1799', '1801', '1802', '1807', '1808', '1809', '1810', '1811', '1813', '1817', '1821', '1827', '1829', '1831', '1834', '1838', '1839', '1843', '1844', '1852', '1854', '1856', '1861', '1863', '1864', '1865', '1867', '1869', '1873', '1875', '1878', '1880', '1882', '1883', '1890', '1892', '1898', '1901', '1906', '1910', '1912', '1913', '1915', '1918', '1920', '1922', '1925', '1927', '1929', '1930', '1932', '1935', '1937', '1938', '1940', '1941', '1942', '1944', '1947', '1948', '1950', '1951', '1952', '1956', '1957', '1959', '1962', '1966', '1968', '1970', '1971', '1978', '1982', '1983', '1985', '1988', '1989', '1990', '1991', '1992', '1994', '1996', '1999', '2000']",False,4000,True,2,6ad2bfe5c5,0.0,1.0,1.0
./expes/v2_2021-03-27_issda-30_2000-prng-1-w4-p2,30_issda-2000,2000,first-2000,500,25,rng,num-start-1200,1200,25726,classic,2073.516382455826,True,,True,1.0,1.0,1.0,1,"['6', '9', '11', '16', '31', '33', '34', '52', '64', '66', '67', '68', '71', '73', '75', '76', '77', '85', '88', '90', '91', '92', '95', '98', '102', '103', '104', '107', '110', '114', '123', '129', '133', '134', '135', '144', '148', '152', '156', '160', '164', '166', '172', '181', '183', '190', '196', '197', '198', '199', '203', '205', '217', '223', '232', '238', '239', '241', '245', '273', '275', '279', '285', '286', '290', '294', '299', '307', '312', '313', '314', '315', '321', '324', '325', '329', '334', '337', '338', '339', '340', '341', '345', '346', '352', '355', '357', '358', '359', '361', '362', '366', '374', '381', '382', '384', '390', '391', '392', '393', '394', '397', '399', '400', '401', '410', '413', '423', '426', '428', '430', '451', '458', '459', '460', '483', '487', '489', '491', '492', '494', '495', '497', '503', '505', '512', '522', '531', '537', '538', '540', '545', '547', '557', '563', '568', '569', '579', '581', '585', '593', '603', '607', '617', '620', '621', '628', '631', '632', '637', '644', '655', '660', '662', '665', '670', '672', '673', '680', '695', '700', '703', '704', '708', '712', '713', '715', '716', '717', '725', '728', '738', '739', '740', '743', '747', '750', '752', '766', '767', '769', '771', '782', '783', '788', '795', '796', '800', '804', '811', '813', '814', '821', '822', '829', '830', '831', '837', '846', '849', '851', '852', '861', '862', '863', '864', '867', '868', '869', '874', '879', '887', '888', '891', '892', '893', '894', '899', '900', '901', '904', '905', '906', '911', '913', '915', '916', '917', '918', '923', '925', '930', '934', '936', '939', '940', '946', '948', '950', '956', '959', '963', '965', '977', '978', '981', '983', '984', '989', '994', '1003', '1004', '1007', '1016', '1018', '1023', '1024', '1027', '1028', '1038', '1040', '1047', '1051', '1052', '1065', '1066', '1067', '1069', '1070', '1071', '1072', '1076', '1093', '1097', '1099', '1100', '1104', '1106', '1109', '1116', '1125', '1128', '1138', '1139', '1145', '1146', '1156', '1157', '1158', '1162', '1167', '1168', '1171', '1172', '1177', '1179', '1184', '1185', '1188', '1191', '1194', '1198', '1203', '1206', '1212', '1216', '1219', '1220', '1224', '1225', '1232', '1234', '1235', '1236', '1238', '1240', '1241', '1242', '1243', '1246', '1249', '1250', '1257', '1265', '1268', '1285', '1288', '1299', '1303', '1308', '1310', '1311', '1314', '1315', '1317', '1329', '1331', '1335', '1336', '1338', '1339', '1347', '1348', '1353', '1356', '1361', '1366', '1373', '1380', '1381', '1383', '1395', '1402', '1405', '1408', '1413', '1418', '1424', '1428', '1430', '1438', '1447', '1460', '1471', '1475', '1476', '1479', '1480', '1481', '1488', '1503', '1508', '1515', '1517', '1523', '1524', '1526', '1527', '1535', '1539', '1541', '1556', '1564', '1565', '1571', '1573', '1579', '1582', '1583', '1584', '1587', '1589', '1592', '1593', '1604', '1612', '1616', '1617', '1620', '1626', '1633', '1638', '1641', '1648', '1650', '1654', '1657', '1659', '1661', '1664', '1666', '1673', '1674', '1676', '1682', '1685', '1687', '1688', '1690', '1694', '1695', '1698', '1699', '1707', '1712', '1713', '1714', '1725', '1729', '1736', '1737', '1742', '1744', '1748', '1752', '1759', '1761', '1762', '1766', '1768', '1771', '1772', '1773', '1781', '1783', '1785', '1786', '1792', '1800', '1802', '1805', '1818', '1819', '1821', '1823', '1830', '1837', '1839', '1840', '1846', '1853', '1856', '1860', '1863', '1865', '1866', '1870', '1871', '1874', '1884', '1886', '1887', '1890', '1893', '1910', '1911', '1916', '1917', '1928', '1932', '1937', '1941', '1946', '1948', '1951', '1952', '1956', '1958', '1959', '1967', '1971', '1973', '1974', '1976', '1984', '1986', '1987', '1988', '1995', '1997']",False,4000,True,2,ce252dc292,0.0,1.0,1.0
./expes/v2_2021-03-27_issda-30_2000-prng-1-w4-p2,30_issda-2000,2000,first-2000,100,5,rng,num-start-3400,3400,25726,classic,1340.703394651413,True,,True,1.0,1.0,1.0,1,"['4', '7', '11', '27', '45', '60', '107', '134', '136', '148', '209', '232', '260', '271', '285', '299', '322', '327', '340', '341', '373', '404', '408', '420', '429', '442', '444', '505', '511', '524', '541', '573', '593', '612', '618', '627', '635', '643', '680', '693', '728', '735', '740', '762', '780', '785', '798', '836', '850', '912', '954', '961', '1086', '1105', '1114', '1176', '1201', '1221', '1236', '1265', '1266', '1276', '1282', '1330', '1336', '1389', '1415', '1450', '1498', '1516', '1520', '1561', '1569', '1585', '1590', '1629', '1633', '1675', '1677', '1722', '1724', '1777', '1779', '1785', '1787', '1795', '1831', '1846', '1877', '1889', '1917', '1928', '1931', '1932', '1967', '1970', '1977', '1980', '1984', '1992']",False,4000,True,2,bd2515720e,0.0,1.0,1.0
./expes/v2_2021-03-27_issda-30_2000-prng-1-w4-p2,30_issda-2000,2000,first-2000,400,20,rng,num-start-4000,4000,25726,classic,3826.2242872714996,True,,True,1.0,1.0,1.0,1,"['1', '10', '13', '26', '31', '35', '38', '42', '45', '59', '62', '63', '64', '66', '67', '70', '76', '78', '93', '94', '107', '111', '117', '128', '131', '142', '152', '154', '156', '157', '159', '166', '172', '176', '181', '183', '184', '191', '193', '197', '200', '206', '216', '230', '234', '240', '245', '253', '258', '260', '261', '263', '278', '281', '283', '292', '296', '297', '299', '308', '310', '317', '323', '324', '330', '334', '335', '347', '353', '355', '374', '377', '380', '381', '385', '387', '394', '395', '396', '397', '402', '404', '406', '408', '412', '429', '430', '454', '457', '476', '489', '493', '499', '502', '503', '512', '513', '515', '522', '525', '536', '544', '545', '549', '552', '559', '562', '565', '567', '574', '577', '586', '593', '596', '597', '598', '622', '624', '627', '640', '649', '652', '655', '656', '663', '675', '682', '688', '689', '704', '718', '732', '738', '739', '740', '741', '742', '745', '751', '759', '760', '761', '765', '768', '771', '773', '774', '778', '779', '796', '798', '815', '816', '819', '838', '840', '841', '848', '859', '864', '865', '867', '870', '874', '881', '883', '887', '901', '903', '904', '910', '912', '914', '916', '921', '925', '926', '948', '951', '957', '961', '964', '965', '969', '973', '978', '979', '981', '982', '991', '994', '995', '997', '999', '1000', '1001', '1002', '1007', '1008', '1013', '1018', '1019', '1024', '1025', '1029', '1030', '1032', '1039', '1055', '1059', '1066', '1070', '1075', '1076', '1077', '1081', '1097', '1102', '1103', '1105', '1121', '1130', '1134', '1143', '1144', '1147', '1149', '1154', '1156', '1165', '1167', '1173', '1176', '1180', '1187', '1202', '1206', '1207', '1208', '1217', '1224', '1233', '1234', '1236', '1239', '1243', '1246', '1250', '1254', '1257', '1263', '1266', '1267', '1269', '1271', '1278', '1282', '1287', '1289', '1293', '1298', '1300', '1301', '1306', '1308', '1310', '1321', '1323', '1324', '1328', '1340', '1343', '1345', '1351', '1358', '1369', '1373', '1375', '1385', '1390', '1391', '1394', '1395', '1397', '1405', '1415', '1421', '1423', '1425', '1430', '1433', '1436', '1437', '1446', '1451', '1460', '1462', '1463', '1465', '1472', '1473', '1478', '1480', '1483', '1493', '1494', '1495', '1499', '1505', '1514', '1516', '1522', '1527', '1529', '1539', '1548', '1551', '1556', '1562', '1568', '1578', '1585', '1594', '1595', '1603', '1606', '1611', '1621', '1625', '1631', '1632', '1639', '1643', '1646', '1649', '1650', '1651', '1652', '1667', '1672', '1673', '1676', '1684', '1696', '1703', '1706', '1709', '1718', '1730', '1741', '1748', '1758', '1773', '1783', '1787', '1795', '1801', '1803', '1813', '1822', '1828', '1830', '1843', '1849', '1853', '1860', '1862', '1863', '1865', '1867', '1870', '1871', '1877', '1883', '1889', '1891', '1893', '1899', '1900', '1911', '1914', '1919', '1922', '1925', '1927', '1933', '1936', '1941', '1946', '1949', '1950', '1971', '1976', '1977', '1978', '1979', '1987', '1989', '1997', '2000']",False,4000,True,2,5df1bce64f,0.0,1.0,1.0
./expes/v2_2021-03-27_issda-30_2000-prng-1-w4-p2,30_issda-2000,2000,first-2000,700,35,rng,num-start-2600,2600,25726,classic,2580.1241540908813,True,,True,1.0,1.0,1.0,1,"['6', '8', '10', '16', '17', '19', '24', '25', '31', '32', '35', '36', '37', '39', '46', '49', '59', '60', '63', '64', '70', '75', '78', '80', '85', '87', '89', '91', '98', '99', '109', '112', '113', '115', '116', '121', '122', '124', '127', '128', '132', '134', '135', '138', '139', '141', '145', '149', '150', '151', '152', '157', '161', '162', '168', '171', '174', '183', '187', '190', '196', '198', '202', '204', '205', '206', '210', '222', '223', '231', '232', '237', '239', '240', '247', '248', '249', '252', '256', '264', '267', '270', '271', '274', '279', '282', '285', '288', '292', '293', '295', '296', '298', '301', '302', '306', '311', '312', '315', '318', '319', '321', '322', '324', '325', '328', '330', '331', '335', '337', '341', '344', '347', '348', '349', '351', '353', '355', '361', '366', '367', '368', '376', '379', '383', '384', '401', '402', '403', '410', '421', '423', '428', '429', '436', '438', '440', '441', '444', '446', '448', '449', '450', '451', '453', '454', '455', '456', '458', '462', '463', '467', '469', '470', '474', '475', '476', '479', '481', '482', '490', '491', '492', '493', '497', '500', '507', '511', '514', '515', '516', '521', '523', '524', '525', '526', '533', '535', '536', '537', '540', '553', '556', '557', '558', '560', '562', '568', '575', '577', '581', '587', '588', '589', '595', '605', '606', '607', '608', '620', '623', '626', '628', '636', '638', '639', '642', '645', '646', '647', '649', '652', '653', '659', '660', '661', '663', '666', '674', '676', '677', '678', '679', '680', '681', '683', '684', '685', '686', '688', '689', '691', '693', '694', '697', '702', '704', '705', '706', '712', '713', '714', '723', '724', '725', '728', '729', '732', '735', '736', '738', '740', '750', '752', '753', '754', '755', '756', '760', '763', '766', '771', '775', '776', '778', '780', '781', '789', '793', '796', '797', '799', '800', '804', '807', '810', '814', '815', '818', '823', '825', '829', '830', '831', '832', '835', '836', '849', '853', '855', '857', '860', '862', '864', '866', '867', '873', '874', '878', '883', '886', '887', '888', '889', '890', '894', '900', '901', '903', '905', '906', '910', '912', '913', '920', '922', '923', '924', '926', '931', '933', '939', '942', '944', '945', '947', '951', '955', '956', '957', '958', '959', '960', '963', '964', '970', '972', '974', '976', '981', '983', '986', '987', '988', '992', '994', '995', '1003', '1005', '1008', '1009', '1012', '1014', '1015', '1017', '1020', '1021', '1022', '1024', '1025', '1027', '1029', '1036', '1037', '1039', '1041', '1046', '1048', '1050', '1057', '1058', '1060', '1061', '1062', '1064', '1065', '1066', '1068', '1071', '1075', '1085', '1086', '1089', '1094', '1097', '1098', '1114', '1115', '1119', '1122', '1124', '1127', '1130', '1135', '1137', '1141', '1147', '1149', '1157', '1158', '1160', '1161', '1164', '1167', '1168', '1169', '1170', '1172', '1176', '1178', '1180', '1183', '1186', '1187', '1188', '1191', '1196', '1197', '1199', '1202', '1203', '1209', '1216', '1220', '1222', '1225', '1236', '1237', '1239', '1242', '1251', '1254', '1257', '1258', '1260', '1261', '1263', '1265', '1267', '1270', '1271', '1275', '1277', '1280', '1283', '1286', '1287', '1288', '1293', '1295', '1300', '1302', '1303', '1307', '1314', '1316', '1317', '1322', '1323', '1324', '1325', '1326', '1328', '1329', '1330', '1336', '1342', '1343', '1344', '1346', '1349', '1350', '1352', '1357', '1362', '1363', '1370', '1371', '1376', '1379', '1386', '1387', '1388', '1390', '1393', '1396', '1398', '1399', '1402', '1404', '1410', '1411', '1412', '1414', '1415', '1417', '1419', '1422', '1423', '1425', '1426', '1427', '1428', '1436', '1438', '1445', '1450', '1451', '1454', '1459', '1472', '1473', '1476', '1477', '1478', '1482', '1483', '1486', '1488', '1489', '1493', '1496', '1499', '1506', '1508', '1511', '1515', '1516', '1518', '1520', '1522', '1524', '1526', '1527', '1537', '1538', '1539', '1541', '1544', '1547', '1549', '1551', '1554', '1557', '1558', '1561', '1572', '1574', '1581', '1585', '1586', '1592', '1593', '1595', '1602', '1604', '1606', '1608', '1613', '1614', '1615', '1616', '1623', '1625', '1627', '1631', '1632', '1634', '1636', '1637', '1640', '1645', '1646', '1648', '1649', '1650', '1651', '1659', '1660', '1662', '1663', '1667', '1681', '1683', '1686', '1690', '1693', '1695', '1701', '1705', '1709', '1711', '1716', '1717', '1718', '1721', '1722', '1724', '1728', '1729', '1735', '1736', '1737', '1743', '1747', '1748', '1749', '1752', '1753', '1756', '1757', '1763', '1768', '1769', '1773', '1776', '1777', '1780', '1781', '1783', '1787', '1792', '1793', '1797', '1800', '1801', '1802', '1804', '1806', '1809', '1812', '1813', '1816', '1817', '1823', '1827', '1829', '1830', '1831', '1842', '1847', '1848', '1854', '1857', '1858', '1859', '1862', '1863', '1867', '1870', '1874', '1877', '1884', '1886', '1888', '1889', '1890', '1893', '1895', '1896', '1899', '1900', '1901', '1906', '1908', '1913', '1914', '1915', '1916', '1918', '1922', '1927', '1928', '1931', '1935', '1936', '1938', '1940', '1942', '1945', '1946', '1947', '1948', '1950', '1953', '1954', '1958', '1960', '1965', '1967', '1971', '1977', '1980', '1981', '1982', '1983', '1984', '1987', '1992', '2000']",False,4000,True,2,617fa08ba0,0.0,1.0,1.0
./expes/v2_2021-03-27_issda-30_2000-prng-1-w4-p2,30_issda-2000,2000,first-2000,300,15,rng,num-start-2200,2200,25726,classic,1909.9182016849518,True,,True,1.0,1.0,1.0,1,"['4', '8', '14', '18', '23', '36', '39', '49', '53', '56', '58', '59', '63', '64', '67', '76', '78', '81', '82', '90', '95', '106', '107', '121', '125', '150', '153', '160', '170', '172', '179', '187', '191', '202', '211', '231', '234', '238', '242', '256', '270', '277', '284', '293', '298', '318', '319', '330', '333', '335', '344', '351', '365', '368', '373', '387', '388', '393', '408', '409', '410', '411', '419', '428', '431', '435', '439', '451', '452', '455', '458', '467', '471', '482', '492', '495', '507', '517', '523', '529', '536', '538', '545', '550', '551', '555', '561', '562', '567', '570', '573', '578', '584', '597', '635', '640', '641', '661', '676', '687', '691', '696', '700', '705', '712', '717', '724', '725', '730', '740', '744', '745', '746', '753', '755', '761', '768', '778', '781', '782', '788', '789', '790', '796', '821', '829', '851', '856', '858', '861', '867', '868', '875', '881', '884', '888', '892', '902', '909', '912', '920', '934', '941', '943', '952', '962', '967', '972', '976', '977', '978', '986', '989', '1004', '1008', '1021', '1025', '1027', '1029', '1032', '1039', '1043', '1048', '1052', '1053', '1056', '1063', '1067', '1080', '1084', '1095', '1096', '1105', '1109', '1110', '1120', '1125', '1127', '1137', '1141', '1143', '1144', '1147', '1154', '1168', '1174', '1181', '1189', '1206', '1221', '1227', '1232', '1234', '1243', '1244', '1245', '1248', '1252', '1264', '1268', '1273', '1275', '1279', '1280', '1285', '1305', '1307', '1310', '1312', '1313', '1318', '1347', '1354', '1355', '1356', '1360', '1365', '1369', '1370', '1380', '1384', '1396', '1400', '1402', '1407', '1411', '1412', '1414', '1415', '1422', '1426', '1428', '1435', '1444', '1455', '1473', '1487', '1488', '1504', '1507', '1514', '1533', '1543', '1558', '1567', '1570', '1579', '1581', '1606', '1613', '1617', '1623', '1625', '1629', '1634', '1635', '1642', '1660', '1671', '1677', '1678', '1679', '1685', '1704', '1726', '1753', '1760', '1766', '1771', '1774', '1789', '1807', '1814', '1816', '1832', '1839', '1846', '1851', '1856', '1865', '1868', '1874', '1875', '1882', '1885', '1893', '1899', '1900', '1913', '1918', '1928', '1934', '1939', '1941', '1958', '1964', '1971', '1982', '1990', '2000']",False,4000,True,2,4439998678,0.0,1.0,1.0
./expes/v2_2021-03-27_issda-30_2000-prng-1-w4-p2,30_issda-2000,2000,first-2000,500,25,rng,num-start-400,400,25726,classic,4054.6658873558044,False,,False,0,,,0,"['1', '10', '13', '20', '26', '27', '31', '35', '38', '42', '45', '59', '62', '63', '64', '66', '67', '68', '70', '76', '78', '82', '93', '94', '103', '107', '111', '117', '121', '122', '123', '126', '128', '131', '142', '152', '153', '154', '156', '157', '159', '166', '172', '176', '181', '183', '184', '190', '191', '192', '193', '197', '200', '206', '216', '230', '234', '235', '240', '245', '246', '253', '258', '260', '261', '263', '276', '278', '280', '281', '283', '292', '296', '297', '299', '306', '308', '310', '317', '323', '324', '330', '334', '335', '337', '346', '347', '353', '355', '365', '374', '377', '380', '381', '385', '386', '387', '394', '395', '396', '397', '402', '404', '406', '408', '412', '414', '429', '430', '439', '454', '457', '461', '462', '464', '476', '479', '489', '493', '499', '502', '503', '512', '513', '515', '522', '523', '524', '525', '536', '544', '545', '549', '552', '557', '559', '562', '565', '567', '569', '574', '577', '586', '588', '593', '596', '597', '598', '602', '622', '624', '627', '640', '649', '652', '655', '656', '663', '667', '675', '678', '682', '688', '689', '704', '718', '732', '738', '739', '740', '741', '742', '745', '751', '752', '753', '759', '760', '761', '763', '765', '768', '771', '773', '774', '778', '779', '781', '788', '792', '796', '798', '815', '816', '819', '834', '838', '840', '841', '848', '859', '864', '865', '867', '870', '872', '874', '881', '883', '887', '897', '901', '903', '904', '909', '910', '912', '914', '916', '921', '925', '926', '948', '951', '957', '961', '964', '965', '968', '969', '973', '978', '979', '981', '982', '991', '994', '995', '997', '999', '1000', '1001', '1002', '1007', '1008', '1013', '1018', '1019', '1024', '1025', '1029', '1030', '1032', '1039', '1055', '1059', '1060', '1066', '1070', '1075', '1076', '1077', '1078', '1080', '1081', '1088', '1097', '1102', '1103', '1105', '1107', '1112', '1114', '1121', '1129', '1130', '1134', '1143', '1144', '1147', '1149', '1154', '1156', '1158', '1165', '1166', '1167', '1173', '1175', '1176', '1180', '1187', '1198', '1202', '1206', '1207', '1208', '1213', '1217', '1220', '1224', '1233', '1234', '1236', '1239', '1243', '1246', '1250', '1254', '1257', '1263', '1266', '1267', '1269', '1271', '1278', '1281', '1282', '1287', '1289', '1293', '1298', '1300', '1301', '1306', '1308', '1310', '1321', '1322', '1323', '1324', '1328', '1333', '1334', '1340', '1343', '1345', '1351', '1355', '1356', '1358', '1366', '1369', '1373', '1375', '1380', '1385', '1390', '1391', '1394', '1395', '1397', '1401', '1405', '1409', '1414', '1415', '1416', '1421', '1423', '1425', '1430', '1433', '1436', '1437', '1438', '1446', '1451', '1457', '1460', '1462', '1463', '1465', '1468', '1472', '1473', '1478', '1480', '1483', '1484', '1493', '1494', '1495', '1499', '1505', '1514', '1516', '1522', '1526', '1527', '1529', '1537', '1539', '1548', '1551', '1555', '1556', '1557', '1562', '1564', '1568', '1578', '1585', '1592', '1594', '1595', '1596', '1603', '1606', '1611', '1613', '1620', '1621', '1625', '1631', '1632', '1639', '1643', '1646', '1649', '1650', '1651', '1652', '1667', '1671', '1672', '1673', '1676', '1684', '1696', '1703', '1706', '1709', '1718', '1722', '1730', '1731', '1741', '1748', '1751', '1758', '1760', '1770', '1773', '1783', '1785', '1787', '1795', '1801', '1803', '1813', '1822', '1828', '1830', '1831', '1843', '1849', '1853', '1860', '1862', '1863', '1865', '1867', '1870', '1871', '1877', '1883', '1884', '1889', '1891', '1893', '1899', '1900', '1911', '1914', '1919', '1922', '1925', '1927', '1933', '1936', '1941', '1943', '1946', '1948', '1949', '1950', '1963', '1971', '1976', '1977', '1978', '1979', '1985', '1987', '1989', '1992', '1995', '1997', '2000']",True,4000,True,2,3badc8cbe3,0.0,0.0,0.0
