expe,clients,clients_size,clients_subset,agg_size,agg_size_pc,method,days,days_size,days_total,noise_method,time,valid,valid_sum,success,score_avg,score_min,score_max,nsols,oracle,wall_hit,wall_time,pooled,pool_size,uuid,infeasible,optimal,valid_sums
./expes/v2_2021-03-27_issda-30_2000-prng-1-w4-p2,30_issda-2000,2000,first-2000,200,10,rng,num-start-2800,2800,25726,classic,1814.2175033092499,True,,True,1.0,1.0,1.0,1,"['4', '14', '18', '23', '39', '49', '53', '58', '63', '67', '76', '82', '90', '106', '107', '121', '125', '153', '160', '170', '172', '179', '187', '211', '231', '234', '238', '242', '277', '293', '298', '318', '333', '335', '344', '351', '365', '368', '373', '388', '393', '409', '419', '428', '431', '451', '452', '455', '458', '467', '471', '482', '492', '495', '507', '517', '536', '550', '551', '561', '562', '567', '573', '578', '635', '641', '661', '687', '691', '696', '700', '705', '717', '730', '740', '744', '745', '746', '753', '755', '761', '768', '781', '782', '788', '790', '796', '821', '829', '858', '867', '868', '875', '881', '888', '902', '909', '934', '941', '943', '952', '962', '972', '976', '977', '986', '989', '1021', '1025', '1027', '1032', '1039', '1043', '1048', '1052', '1053', '1063', '1080', '1084', '1105', '1109', '1120', '1125', '1127', '1137', '1144', '1174', '1181', '1221', '1232', '1234', '1243', '1244', '1245', '1248', '1268', '1273', '1279', '1305', '1310', '1313', '1318', '1347', '1354', '1355', '1356', '1360', '1365', '1369', '1370', '1380', '1384', '1396', '1407', '1414', '1415', '1426', '1428', '1487', '1488', '1533', '1543', '1567', '1570', '1579', '1581', '1606', '1613', '1629', '1635', '1642', '1660', '1671', '1677', '1678', '1679', '1685', '1704', '1726', '1753', '1760', '1771', '1774', '1807', '1814', '1856', '1868', '1874', '1875', '1882', '1893', '1900', '1928', '1939', '1941', '1958', '1964', '1982', '1990', '2000']",False,4000,True,2,bdf02c41bd,0.0,1.0,1.0
./expes/v2_2021-03-27_issda-30_2000-prng-1-w4-p2,30_issda-2000,2000,first-2000,300,15,rng,num-start-2800,2800,25726,classic,2355.902111053467,True,,True,1.0,1.0,1.0,1,"['4', '8', '14', '18', '23', '36', '39', '49', '53', '56', '58', '59', '63', '64', '67', '76', '78', '81', '82', '90', '95', '106', '107', '121', '125', '150', '153', '160', '170', '172', '179', '187', '191', '202', '211', '231', '234', '238', '242', '256', '270', '277', '284', '293', '298', '318', '319', '330', '333', '335', '344', '351', '365', '368', '373', '387', '388', '393', '408', '409', '410', '411', '419', '428', '431', '435', '439', '451', '452', '455', '458', '467', '471', '482', '492', '495', '507', '517', '523', '529', '536', '538', '545', '550', '551', '555', '561', '562', '567', '570', '573', '578', '584', '597', '635', '640', '641', '661', '676', '687', '691', '696', '700', '705', '712', '717', '724', '725', '730', '740', '744', '745', '746', '753', '755', '761', '768', '778', '781', '782', '788', '789', '790', '796', '821', '829', '851', '856', '858', '861', '867', '868', '875', '881', '884', '888', '892', '902', '909', '912', '920', '934', '941', '943', '952', '962', '967', '972', '976', '977', '978', '986', '989', '1004', '1008', '1021', '1025', '1027', '1029', '1032', '1039', '1043', '1048', '1052', '1053', '1056', '1063', '1067', '1080', '1084', '1095', '1096', '1105', '1109', '1110', '1120', '1125', '1127', '1137', '1141', '1143', '1144', '1147', '1154', '1168', '1174', '1181', '1189', '1206', '1221', '1227', '1232', '1234', '1243', '1244', '1245', '1248', '1252', '1264', '1268', '1273', '1275', '1279', '1280', '1285', '1305', '1307', '1310', '1312', '1313', '1318', '1347', '1354', '1355', '1356', '1360', '1365', '1369', '1370', '1380', '1384', '1396', '1400', '1402', '1407', '1411', '1412', '1414', '1415', '1422', '1426', '1428', '1435', '1444', '1455', '1473', '1487', '1488', '1504', '1507', '1514', '1533', '1543', '1558', '1567', '1570', '1579', '1581', '1606', '1613', '1617', '1623', '1625', '1629', '1634', '1635', '1642', '1660', '1671', '1677', '1678', '1679', '1685', '1704', '1726', '1753', '1760', '1766', '1771', '1774', '1789', '1807', '1814', '1816', '1832', '1839', '1846', '1851', '1856', '1865', '1868', '1874', '1875', '1882', '1885', '1893', '1899', '1900', '1913', '1918', '1928', '1934', '1939', '1941', '1958', '1964', '1971', '1982', '1990', '2000']",False,4000,True,2,250d7ea3f7,0.0,1.0,1.0
./expes/v2_2021-03-27_issda-30_2000-prng-1-w4-p2,30_issda-2000,2000,first-2000,500,25,rng,num-start-1800,1800,25726,classic,1838.1905581951141,True,,True,1.0,1.0,1.0,1,"['4', '9', '10', '11', '18', '33', '37', '40', '41', '44', '49', '50', '51', '52', '57', '61', '64', '65', '66', '69', '73', '74', '75', '77', '84', '89', '94', '101', '105', '110', '116', '117', '121', '123', '124', '137', '139', '146', '151', '152', '155', '157', '165', '170', '173', '174', '177', '180', '188', '192', '193', '197', '205', '208', '209', '216', '218', '228', '230', '232', '236', '238', '243', '250', '252', '262', '264', '270', '280', '287', '288', '290', '295', '297', '301', '310', '311', '315', '320', '321', '322', '323', '325', '329', '331', '337', '341', '347', '348', '350', '353', '354', '356', '361', '362', '364', '370', '372', '373', '377', '392', '394', '407', '426', '427', '431', '432', '435', '436', '446', '449', '455', '462', '465', '468', '473', '475', '477', '481', '484', '494', '502', '506', '508', '510', '511', '512', '514', '516', '519', '520', '521', '524', '526', '527', '531', '532', '537', '541', '545', '550', '551', '560', '562', '571', '572', '583', '586', '588', '594', '596', '607', '608', '622', '627', '632', '634', '635', '639', '648', '653', '665', '666', '672', '674', '675', '686', '691', '699', '700', '705', '707', '719', '725', '730', '733', '735', '737', '738', '740', '742', '743', '746', '750', '751', '762', '763', '764', '765', '768', '779', '785', '788', '790', '800', '801', '803', '805', '806', '809', '810', '819', '823', '828', '830', '833', '838', '842', '845', '850', '854', '857', '859', '860', '867', '868', '872', '876', '883', '889', '899', '904', '911', '912', '913', '918', '919', '925', '929', '930', '932', '936', '937', '945', '949', '952', '953', '956', '964', '969', '979', '983', '989', '992', '996', '997', '998', '1001', '1002', '1004', '1005', '1008', '1020', '1021', '1026', '1029', '1033', '1040', '1041', '1043', '1045', '1048', '1049', '1053', '1054', '1055', '1056', '1058', '1061', '1062', '1064', '1067', '1070', '1072', '1074', '1076', '1077', '1078', '1087', '1097', '1108', '1115', '1117', '1124', '1130', '1142', '1143', '1147', '1148', '1152', '1163', '1171', '1175', '1177', '1180', '1191', '1198', '1200', '1205', '1206', '1208', '1211', '1212', '1216', '1219', '1222', '1240', '1241', '1242', '1243', '1251', '1257', '1261', '1262', '1263', '1267', '1274', '1277', '1278', '1279', '1286', '1301', '1306', '1308', '1313', '1315', '1328', '1335', '1338', '1342', '1350', '1354', '1356', '1359', '1372', '1374', '1378', '1382', '1391', '1394', '1395', '1396', '1398', '1402', '1403', '1404', '1408', '1414', '1417', '1419', '1425', '1432', '1433', '1441', '1445', '1446', '1447', '1451', '1454', '1456', '1463', '1465', '1466', '1467', '1469', '1473', '1474', '1481', '1482', '1483', '1487', '1491', '1493', '1494', '1497', '1498', '1505', '1508', '1509', '1513', '1516', '1521', '1526', '1532', '1538', '1544', '1545', '1547', '1548', '1556', '1558', '1563', '1566', '1569', '1584', '1588', '1592', '1600', '1604', '1607', '1615', '1618', '1622', '1627', '1631', '1632', '1636', '1637', '1639', '1644', '1646', '1648', '1651', '1652', '1657', '1659', '1664', '1666', '1669', '1670', '1675', '1681', '1690', '1691', '1703', '1711', '1712', '1713', '1718', '1722', '1739', '1741', '1749', '1760', '1762', '1767', '1768', '1774', '1784', '1791', '1792', '1794', '1796', '1804', '1806', '1807', '1809', '1811', '1813', '1818', '1822', '1827', '1831', '1833', '1834', '1840', '1843', '1846', '1848', '1850', '1857', '1859', '1860', '1861', '1867', '1876', '1877', '1882', '1885', '1886', '1888', '1895', '1903', '1909', '1910', '1914', '1916', '1917', '1919', '1922', '1927', '1933', '1941', '1942', '1945', '1946', '1955', '1956', '1958', '1961', '1964', '1965', '1966', '1968', '1970', '1973', '1985', '1988', '1989', '1995']",False,4000,True,2,02cc969707,0.0,1.0,1.0
./expes/v2_2021-03-27_issda-30_2000-prng-1-w4-p2,30_issda-2000,2000,first-2000,600,30,rng,num-start-2000,2000,25726,classic,1940.2957463264465,True,,True,1.0,1.0,1.0,1,"['4', '8', '10', '11', '15', '16', '24', '27', '32', '37', '41', '42', '44', '46', '49', '53', '56', '58', '59', '64', '65', '67', '68', '70', '72', '73', '74', '75', '87', '88', '89', '91', '93', '95', '102', '103', '105', '109', '110', '113', '124', '125', '126', '130', '132', '135', '137', '140', '141', '147', '158', '159', '164', '171', '176', '177', '182', '189', '197', '199', '200', '204', '205', '209', '211', '212', '214', '215', '219', '222', '223', '233', '236', '244', '245', '246', '248', '249', '251', '253', '254', '255', '256', '257', '260', '262', '264', '266', '267', '268', '270', '273', '275', '279', '280', '284', '294', '301', '306', '309', '311', '320', '322', '327', '329', '333', '335', '347', '351', '352', '364', '366', '367', '369', '370', '376', '380', '382', '384', '391', '392', '393', '405', '407', '408', '409', '433', '445', '447', '448', '453', '455', '456', '460', '461', '466', '475', '476', '480', '482', '484', '487', '488', '489', '490', '491', '496', '501', '502', '509', '512', '515', '518', '529', '532', '537', '540', '541', '543', '547', '548', '551', '552', '554', '555', '556', '561', '571', '572', '573', '583', '584', '588', '592', '595', '598', '602', '612', '614', '615', '616', '617', '621', '623', '635', '641', '643', '645', '646', '647', '653', '656', '660', '662', '665', '667', '669', '672', '674', '678', '681', '684', '690', '695', '696', '697', '699', '700', '705', '708', '710', '718', '719', '720', '721', '723', '738', '739', '746', '749', '753', '757', '758', '763', '765', '767', '769', '770', '771', '772', '773', '774', '779', '791', '794', '797', '798', '799', '807', '809', '813', '814', '820', '822', '835', '836', '839', '841', '846', '847', '848', '851', '854', '857', '860', '862', '863', '867', '871', '873', '875', '878', '881', '884', '890', '892', '894', '896', '898', '908', '911', '924', '931', '935', '936', '943', '944', '951', '952', '955', '961', '964', '969', '970', '971', '976', '978', '986', '987', '988', '989', '991', '999', '1003', '1004', '1014', '1017', '1020', '1025', '1029', '1031', '1036', '1039', '1045', '1048', '1050', '1056', '1060', '1062', '1063', '1065', '1066', '1068', '1072', '1076', '1080', '1084', '1085', '1086', '1090', '1094', '1095', '1097', '1098', '1100', '1108', '1109', '1110', '1114', '1115', '1124', '1126', '1127', '1129', '1134', '1136', '1138', '1140', '1145', '1146', '1155', '1156', '1161', '1164', '1165', '1166', '1170', '1172', '1175', '1176', '1178', '1182', '1186', '1188', '1190', '1197', '1199', '1201', '1202', '1204', '1206', '1207', '1208', '1209', '1211', '1214', '1219', '1220', '1228', '1229', '1231', '1232', '1237', '1238', '1240', '1241', '1247', '1251', '1254', '1259', '1262', '1266', '1269', '1271', '1276', '1282', '1284', '1285', '1286', '1287', '1288', '1295', '1297', '1298', '1299', '1300', '1301', '1304', '1309', '1315', '1317', '1319', '1323', '1325', '1331', '1332', '1339', '1343', '1351', '1357', '1358', '1368', '1375', '1376', '1377', '1380', '1381', '1383', '1385', '1389', '1392', '1395', '1397', '1401', '1405', '1413', '1415', '1421', '1422', '1424', '1425', '1427', '1430', '1431', '1434', '1440', '1448', '1460', '1462', '1463', '1465', '1466', '1467', '1468', '1469', '1472', '1473', '1476', '1481', '1492', '1499', '1503', '1506', '1512', '1519', '1520', '1527', '1531', '1532', '1533', '1534', '1541', '1543', '1544', '1549', '1550', '1553', '1557', '1560', '1572', '1575', '1582', '1586', '1588', '1591', '1592', '1596', '1598', '1603', '1612', '1613', '1615', '1620', '1622', '1623', '1626', '1629', '1636', '1640', '1641', '1645', '1647', '1651', '1652', '1653', '1654', '1659', '1660', '1662', '1663', '1666', '1673', '1679', '1687', '1696', '1704', '1706', '1707', '1708', '1713', '1714', '1716', '1718', '1724', '1728', '1729', '1741', '1746', '1749', '1750', '1752', '1753', '1754', '1756', '1758', '1763', '1764', '1765', '1767', '1769', '1773', '1776', '1778', '1781', '1782', '1783', '1788', '1800', '1802', '1803', '1804', '1805', '1810', '1813', '1816', '1818', '1822', '1823', '1837', '1838', '1839', '1843', '1851', '1852', '1853', '1862', '1870', '1876', '1878', '1879', '1885', '1886', '1887', '1888', '1889', '1893', '1897', '1900', '1903', '1904', '1914', '1917', '1918', '1923', '1924', '1927', '1931', '1932', '1944', '1946', '1947', '1948', '1951', '1956', '1961', '1962', '1964', '1968', '1973', '1975', '1976', '1978', '1980', '1981', '1985', '1989', '1990', '1991', '1993', '1997']",False,4000,True,2,9b60982f91,0.0,1.0,1.0
./expes/v2_2021-03-27_issda-30_2000-prng-1-w4-p2,30_issda-2000,2000,first-2000,400,20,rng,num-start-1200,1200,25726,classic,4164.080173492432,True,,False,1.0,1.0,1.0,1,"['5', '7', '8', '9', '11', '12', '30', '32', '60', '62', '63', '66', '69', '74', '79', '80', '84', '88', '89', '90', '94', '97', '101', '107', '108', '112', '126', '141', '142', '145', '146', '151', '159', '174', '178', '184', '187', '190', '194', '205', '220', '225', '230', '237', '241', '249', '258', '259', '260', '263', '265', '267', '268', '269', '277', '281', '286', '291', '300', '301', '302', '304', '306', '307', '309', '318', '321', '322', '328', '329', '337', '342', '343', '362', '368', '374', '381', '384', '390', '396', '399', '400', '415', '416', '418', '425', '434', '438', '439', '441', '448', '457', '461', '462', '464', '473', '480', '483', '487', '488', '489', '501', '507', '509', '515', '519', '520', '526', '530', '531', '535', '537', '538', '539', '541', '549', '551', '556', '565', '566', '574', '589', '593', '595', '596', '601', '604', '605', '606', '608', '611', '614', '617', '618', '622', '628', '631', '632', '637', '643', '650', '655', '661', '680', '682', '684', '686', '700', '703', '707', '709', '712', '719', '729', '730', '736', '740', '746', '751', '755', '760', '761', '762', '764', '768', '771', '794', '796', '799', '806', '811', '813', '815', '831', '836', '847', '853', '869', '870', '871', '872', '877', '879', '880', '881', '882', '884', '890', '891', '895', '901', '902', '903', '905', '909', '912', '919', '921', '922', '924', '941', '944', '950', '963', '966', '972', '981', '985', '997', '1006', '1017', '1020', '1027', '1059', '1065', '1066', '1070', '1071', '1074', '1078', '1079', '1082', '1089', '1090', '1092', '1093', '1094', '1096', '1098', '1113', '1117', '1118', '1121', '1126', '1127', '1136', '1138', '1140', '1147', '1156', '1158', '1168', '1175', '1183', '1190', '1195', '1199', '1205', '1211', '1213', '1218', '1219', '1224', '1229', '1236', '1241', '1247', '1252', '1257', '1265', '1271', '1275', '1285', '1289', '1292', '1298', '1308', '1309', '1313', '1318', '1322', '1334', '1336', '1339', '1342', '1346', '1365', '1366', '1372', '1374', '1381', '1387', '1396', '1401', '1402', '1404', '1416', '1424', '1430', '1432', '1436', '1437', '1438', '1442', '1445', '1463', '1467', '1468', '1472', '1473', '1481', '1489', '1491', '1493', '1502', '1504', '1508', '1513', '1515', '1526', '1533', '1547', '1553', '1557', '1561', '1564', '1583', '1585', '1608', '1611', '1613', '1626', '1627', '1635', '1636', '1641', '1643', '1645', '1646', '1651', '1653', '1657', '1659', '1664', '1679', '1683', '1687', '1688', '1689', '1691', '1693', '1696', '1707', '1709', '1710', '1713', '1716', '1717', '1720', '1733', '1739', '1740', '1741', '1745', '1749', '1765', '1769', '1775', '1777', '1778', '1779', '1781', '1785', '1795', '1797', '1815', '1816', '1817', '1820', '1822', '1823', '1829', '1833', '1839', '1840', '1845', '1847', '1848', '1857', '1863', '1865', '1869', '1881', '1886', '1887', '1909', '1911', '1916', '1920', '1922', '1931', '1945', '1949', '1951', '1954', '1970', '1982', '1987', '1989', '1990']",True,4000,True,2,2ca3745b7c,0.0,0.0,1.0
./expes/v2_2021-03-27_issda-30_2000-prng-1-w4-p2,30_issda-2000,2000,first-2000,100,5,rng,num-start-2200,2200,25726,classic,908.5387167930603,True,,True,1.0,1.0,1.0,1,"['8', '11', '14', '17', '49', '84', '89', '106', '113', '130', '166', '172', '180', '209', '228', '230', '249', '272', '284', '285', '322', '345', '347', '382', '405', '409', '416', '420', '430', '460', '485', '488', '547', '548', '576', '597', '677', '685', '693', '700', '765', '776', '777', '786', '813', '843', '864', '866', '870', '926', '949', '950', '1008', '1030', '1037', '1136', '1186', '1210', '1223', '1239', '1256', '1263', '1381', '1386', '1410', '1434', '1441', '1452', '1485', '1487', '1492', '1508', '1529', '1566', '1583', '1586', '1618', '1625', '1658', '1733', '1743', '1746', '1775', '1786', '1801', '1816', '1818', '1822', '1828', '1834', '1835', '1840', '1857', '1867', '1883', '1893', '1918', '1938', '1949', '1975']",False,4000,True,2,7dafdc34c9,0.0,1.0,1.0
./expes/v2_2021-03-27_issda-30_2000-prng-1-w4-p2,30_issda-2000,2000,first-2000,400,20,rng,num-start-3200,3200,25726,classic,2482.8417477607727,True,,True,1.0,1.0,1.0,1,"['10', '15', '24', '27', '32', '41', '42', '44', '46', '56', '59', '64', '65', '67', '70', '72', '73', '74', '87', '88', '91', '93', '102', '110', '124', '125', '126', '130', '132', '135', '137', '140', '158', '164', '176', '182', '199', '200', '209', '211', '214', '215', '222', '233', '244', '245', '246', '248', '251', '255', '257', '266', '268', '270', '273', '275', '279', '284', '309', '311', '320', '327', '335', '347', '351', '352', '364', '376', '380', '384', '391', '393', '405', '407', '409', '433', '445', '447', '453', '455', '456', '460', '461', '466', '475', '476', '480', '484', '487', '488', '489', '490', '491', '501', '515', '518', '529', '532', '540', '541', '547', '552', '555', '556', '561', '571', '572', '573', '584', '588', '592', '595', '598', '602', '612', '615', '616', '617', '621', '635', '641', '643', '645', '646', '656', '660', '669', '672', '678', '681', '684', '690', '695', '696', '697', '699', '700', '705', '708', '710', '719', '721', '723', '738', '746', '749', '757', '758', '772', '773', '774', '791', '794', '799', '809', '814', '835', '836', '839', '841', '847', '848', '851', '854', '860', '863', '875', '881', '884', '890', '892', '894', '896', '898', '911', '924', '935', '936', '943', '952', '955', '961', '964', '969', '971', '976', '978', '986', '988', '991', '1003', '1014', '1025', '1031', '1036', '1039', '1045', '1050', '1062', '1063', '1066', '1068', '1072', '1076', '1085', '1094', '1095', '1097', '1100', '1108', '1110', '1114', '1115', '1124', '1126', '1129', '1145', '1146', '1164', '1165', '1166', '1172', '1175', '1176', '1178', '1182', '1188', '1190', '1197', '1199', '1201', '1206', '1207', '1208', '1211', '1214', '1219', '1220', '1229', '1231', '1232', '1237', '1240', '1241', '1247', '1251', '1254', '1259', '1262', '1269', '1271', '1276', '1282', '1284', '1285', '1287', '1295', '1297', '1298', '1299', '1300', '1301', '1309', '1315', '1319', '1331', '1332', '1339', '1343', '1358', '1375', '1376', '1377', '1383', '1385', '1389', '1392', '1395', '1397', '1401', '1413', '1421', '1425', '1430', '1431', '1448', '1462', '1463', '1466', '1469', '1472', '1473', '1476', '1492', '1506', '1512', '1519', '1520', '1527', '1532', '1543', '1553', '1560', '1575', '1582', '1592', '1596', '1598', '1603', '1612', '1613', '1615', '1622', '1626', '1640', '1641', '1645', '1647', '1652', '1653', '1654', '1659', '1660', '1662', '1663', '1666', '1673', '1687', '1696', '1704', '1706', '1707', '1708', '1713', '1714', '1716', '1718', '1729', '1741', '1749', '1752', '1753', '1754', '1758', '1763', '1764', '1765', '1769', '1773', '1776', '1778', '1782', '1788', '1800', '1803', '1805', '1810', '1813', '1818', '1822', '1823', '1837', '1838', '1843', '1851', '1852', '1853', '1862', '1870', '1876', '1879', '1885', '1886', '1887', '1888', '1889', '1893', '1897', '1900', '1903', '1917', '1918', '1924', '1927', '1932', '1944', '1946', '1956', '1961', '1962', '1964', '1968', '1973', '1975', '1976', '1978', '1989', '1990', '1991', '1993']",False,4000,True,2,32b219bdf3,0.0,1.0,1.0
./expes/v2_2021-03-27_issda-30_2000-prng-1-w4-p2,30_issda-2000,2000,first-2000,700,35,rng,num-start-1800,1800,25726,classic,1739.181179523468,True,,True,1.0,1.0,1.0,1,"['1', '7', '10', '12', '14', '23', '25', '28', '29', '30', '35', '41', '45', '46', '47', '53', '57', '58', '63', '66', '67', '68', '69', '70', '71', '72', '75', '76', '77', '80', '82', '90', '91', '93', '101', '103', '105', '114', '118', '119', '125', '129', '130', '132', '134', '136', '141', '144', '147', '153', '154', '164', '165', '168', '169', '170', '171', '172', '173', '175', '177', '179', '182', '183', '184', '186', '190', '192', '195', '196', '197', '199', '200', '205', '210', '217', '218', '219', '221', '222', '223', '224', '228', '229', '230', '233', '234', '237', '239', '240', '248', '250', '255', '259', '261', '262', '263', '272', '277', '279', '281', '282', '285', '286', '288', '289', '292', '294', '299', '300', '302', '303', '304', '305', '308', '315', '317', '320', '322', '325', '328', '330', '331', '335', '341', '347', '348', '349', '350', '353', '355', '356', '357', '359', '362', '364', '365', '379', '384', '388', '389', '392', '394', '396', '398', '401', '402', '405', '408', '411', '414', '415', '417', '421', '426', '427', '429', '431', '433', '434', '438', '446', '447', '451', '456', '459', '462', '465', '470', '473', '475', '477', '480', '481', '483', '490', '497', '500', '501', '504', '507', '508', '512', '519', '520', '522', '523', '530', '535', '539', '542', '545', '546', '547', '551', '555', '562', '567', '568', '579', '583', '584', '586', '589', '590', '592', '593', '594', '595', '597', '598', '601', '605', '606', '607', '608', '612', '614', '615', '618', '619', '620', '631', '633', '634', '637', '638', '639', '642', '643', '644', '645', '646', '649', '654', '655', '656', '658', '664', '667', '670', '674', '691', '692', '694', '698', '699', '701', '703', '705', '709', '710', '711', '713', '720', '729', '731', '732', '733', '734', '738', '739', '741', '742', '746', '748', '750', '751', '754', '756', '757', '758', '759', '761', '762', '764', '768', '769', '772', '773', '776', '777', '780', '781', '786', '787', '792', '795', '798', '800', '801', '807', '808', '812', '813', '814', '821', '825', '826', '832', '834', '835', '836', '840', '844', '849', '850', '854', '856', '860', '864', '868', '871', '872', '873', '876', '880', '883', '884', '886', '890', '891', '893', '894', '895', '899', '901', '902', '903', '905', '908', '912', '914', '916', '919', '920', '928', '929', '931', '933', '935', '938', '941', '942', '948', '963', '966', '970', '972', '975', '977', '981', '987', '991', '994', '999', '1000', '1001', '1003', '1004', '1013', '1014', '1018', '1019', '1020', '1021', '1022', '1023', '1024', '1025', '1028', '1029', '1030', '1032', '1033', '1034', '1035', '1038', '1039', '1040', '1045', '1047', '1049', '1054', '1058', '1059', '1065', '1066', '1067', '1070', '1072', '1073', '1076', '1077', '1079', '1080', '1082', '1083', '1084', '1090', '1093', '1095', '1106', '1117', '1120', '1121', '1123', '1139', '1142', '1146', '1150', '1153', '1155', '1156', '1160', '1161', '1165', '1166', '1174', '1175', '1180', '1181', '1185', '1186', '1188', '1190', '1191', '1197', '1199', '1200', '1206', '1209', '1222', '1224', '1229', '1230', '1231', '1232', '1235', '1238', '1239', '1240', '1243', '1244', '1249', '1250', '1253', '1256', '1257', '1265', '1271', '1273', '1278', '1280', '1281', '1288', '1289', '1291', '1295', '1296', '1302', '1303', '1310', '1312', '1315', '1319', '1323', '1324', '1326', '1327', '1331', '1332', '1333', '1335', '1337', '1339', '1340', '1341', '1342', '1344', '1345', '1346', '1347', '1348', '1349', '1354', '1358', '1359', '1362', '1363', '1366', '1368', '1371', '1373', '1379', '1385', '1393', '1396', '1402', '1403', '1407', '1410', '1414', '1415', '1416', '1418', '1419', '1420', '1422', '1424', '1426', '1432', '1436', '1437', '1438', '1441', '1444', '1445', '1451', '1453', '1454', '1455', '1466', '1469', '1470', '1472', '1474', '1477', '1478', '1485', '1486', '1487', '1491', '1492', '1493', '1502', '1505', '1508', '1509', '1510', '1511', '1518', '1519', '1522', '1523', '1524', '1525', '1531', '1534', '1535', '1536', '1543', '1548', '1549', '1555', '1556', '1561', '1566', '1570', '1571', '1573', '1577', '1581', '1595', '1597', '1598', '1600', '1602', '1605', '1610', '1611', '1612', '1616', '1619', '1620', '1625', '1628', '1632', '1637', '1648', '1653', '1654', '1655', '1656', '1661', '1662', '1665', '1666', '1668', '1669', '1673', '1678', '1682', '1685', '1686', '1690', '1691', '1695', '1696', '1697', '1698', '1699', '1700', '1701', '1703', '1707', '1709', '1712', '1713', '1716', '1717', '1719', '1724', '1726', '1728', '1729', '1733', '1735', '1742', '1746', '1751', '1752', '1755', '1760', '1762', '1772', '1775', '1779', '1780', '1781', '1793', '1797', '1799', '1805', '1806', '1807', '1809', '1818', '1820', '1824', '1826', '1830', '1834', '1837', '1838', '1840', '1844', '1847', '1848', '1850', '1851', '1854', '1855', '1857', '1858', '1860', '1862', '1864', '1867', '1870', '1877', '1882', '1883', '1884', '1886', '1890', '1895', '1896', '1900', '1902', '1903', '1908', '1910', '1911', '1918', '1919', '1929', '1935', '1937', '1938', '1939', '1941', '1942', '1946', '1949', '1959', '1961', '1964', '1965', '1971', '1976', '1977', '1978', '1981', '1983', '1987', '1989', '1990', '1993', '1997']",False,4000,True,2,cd143dc251,0.0,1.0,1.0
./expes/v2_2021-03-27_issda-30_2000-prng-1-w4-p2,30_issda-2000,2000,first-2000,800,40,rng,num-start-2200,2200,25726,classic,2466.78701543808,True,,True,1.0,1.0,1.0,1,"['1', '7', '10', '12', '14', '22', '23', '25', '28', '29', '30', '32', '34', '35', '41', '44', '45', '46', '47', '53', '57', '58', '63', '66', '67', '68', '69', '70', '71', '72', '75', '76', '77', '80', '82', '90', '91', '93', '101', '103', '105', '112', '114', '118', '119', '122', '123', '125', '129', '130', '132', '134', '136', '141', '144', '147', '148', '153', '154', '164', '165', '167', '168', '169', '170', '171', '172', '173', '175', '177', '179', '182', '183', '184', '186', '190', '192', '195', '196', '197', '199', '200', '205', '210', '212', '217', '218', '219', '221', '222', '223', '224', '228', '229', '230', '233', '234', '237', '239', '240', '241', '242', '243', '248', '250', '255', '259', '261', '262', '263', '272', '277', '279', '281', '282', '285', '286', '288', '289', '292', '294', '299', '300', '302', '303', '304', '305', '308', '315', '317', '320', '322', '325', '328', '330', '331', '332', '335', '340', '341', '347', '348', '349', '350', '353', '355', '356', '357', '359', '362', '364', '365', '379', '384', '388', '389', '392', '394', '396', '398', '401', '402', '405', '407', '408', '411', '412', '414', '415', '417', '421', '426', '427', '429', '431', '433', '434', '438', '446', '447', '451', '453', '454', '456', '459', '462', '465', '470', '473', '475', '477', '480', '481', '483', '485', '490', '492', '497', '500', '501', '504', '505', '507', '508', '509', '512', '519', '520', '522', '523', '530', '535', '539', '542', '545', '546', '547', '551', '555', '562', '563', '566', '567', '568', '579', '583', '584', '586', '589', '590', '592', '593', '594', '595', '597', '598', '601', '605', '606', '607', '608', '612', '614', '615', '618', '619', '620', '631', '633', '634', '636', '637', '638', '639', '641', '642', '643', '644', '645', '646', '649', '654', '655', '656', '658', '663', '664', '667', '670', '674', '687', '690', '691', '692', '693', '694', '698', '699', '701', '703', '705', '706', '709', '710', '711', '713', '720', '729', '731', '732', '733', '734', '738', '739', '741', '742', '746', '748', '750', '751', '754', '756', '757', '758', '759', '761', '762', '763', '764', '768', '769', '772', '773', '776', '777', '780', '781', '786', '787', '788', '791', '792', '795', '798', '800', '801', '807', '808', '812', '813', '814', '815', '818', '821', '822', '825', '826', '832', '834', '835', '836', '840', '843', '844', '849', '850', '854', '856', '860', '864', '868', '871', '872', '873', '876', '880', '883', '884', '886', '890', '891', '893', '894', '895', '899', '901', '902', '903', '905', '908', '911', '912', '914', '915', '916', '919', '920', '928', '929', '931', '933', '935', '938', '941', '942', '948', '949', '959', '961', '963', '966', '970', '971', '972', '975', '977', '978', '981', '987', '991', '992', '994', '998', '999', '1000', '1001', '1003', '1004', '1005', '1013', '1014', '1018', '1019', '1020', '1021', '1022', '1023', '1024', '1025', '1028', '1029', '1030', '1032', '1033', '1034', '1035', '1037', '1038', '1039', '1040', '1041', '1045', '1047', '1049', '1053', '1054', '1058', '1059', '1063', '1065', '1066', '1067', '1070', '1072', '1073', '1076', '1077', '1079', '1080', '1082', '1083', '1084', '1090', '1093', '1095', '1106', '1108', '1117', '1120', '1121', '1122', '1123', '1126', '1138', '1139', '1142', '1146', '1150', '1153', '1154', '1155', '1156', '1160', '1161', '1165', '1166', '1171', '1174', '1175', '1180', '1181', '1185', '1186', '1188', '1190', '1191', '1197', '1199', '1200', '1206', '1209', '1217', '1222', '1224', '1226', '1229', '1230', '1231', '1232', '1235', '1238', '1239', '1240', '1243', '1244', '1249', '1250', '1251', '1253', '1255', '1256', '1257', '1264', '1265', '1271', '1273', '1278', '1280', '1281', '1288', '1289', '1291', '1294', '1295', '1296', '1302', '1303', '1310', '1312', '1315', '1319', '1323', '1324', '1326', '1327', '1331', '1332', '1333', '1335', '1337', '1339', '1340', '1341', '1342', '1344', '1345', '1346', '1347', '1348', '1349', '1354', '1358', '1359', '1362', '1363', '1366', '1367', '1368', '1370', '1371', '1373', '1379', '1385', '1389', '1393', '1396', '1401', '1402', '1403', '1407', '1409', '1410', '1414', '1415', '1416', '1418', '1419', '1420', '1422', '1424', '1426', '1432', '1436', '1437', '1438', '1441', '1443', '1444', '1445', '1451', '1452', '1453', '1454', '1455', '1466', '1467', '1469', '1470', '1472', '1474', '1475', '1477', '1478', '1481', '1485', '1486', '1487', '1491', '1492', '1493', '1502', '1505', '1508', '1509', '1510', '1511', '1518', '1519', '1522', '1523', '1524', '1525', '1531', '1534', '1535', '1536', '1543', '1547', '1548', '1549', '1555', '1556', '1561', '1562', '1566', '1569', '1570', '1571', '1573', '1575', '1577', '1581', '1586', '1595', '1597', '1598', '1600', '1602', '1605', '1610', '1611', '1612', '1616', '1619', '1620', '1625', '1628', '1630', '1632', '1637', '1645', '1648', '1649', '1653', '1654', '1655', '1656', '1661', '1662', '1665', '1666', '1668', '1669', '1673', '1678', '1682', '1685', '1686', '1690', '1691', '1695', '1696', '1697', '1698', '1699', '1700', '1701', '1703', '1707', '1709', '1712', '1713', '1715', '1716', '1717', '1719', '1721', '1724', '1726', '1728', '1729', '1733', '1735', '1742', '1746', '1751', '1752', '1755', '1758', '1760', '1762', '1772', '1775', '1779', '1780', '1781', '1793', '1795', '1796', '1797', '1799', '1802', '1805', '1806', '1807', '1809', '1811', '1814', '1818', '1820', '1824', '1826', '1827', '1829', '1830', '1834', '1837', '1838', '1840', '1844', '1847', '1848', '1850', '1851', '1854', '1855', '1857', '1858', '1860', '1862', '1864', '1867', '1870', '1872', '1877', '1882', '1883', '1884', '1886', '1887', '1888', '1890', '1894', '1895', '1896', '1900', '1902', '1903', '1908', '1910', '1911', '1918', '1919', '1925', '1929', '1930', '1935', '1937', '1938', '1939', '1941', '1942', '1946', '1949', '1959', '1961', '1964', '1965', '1971', '1976', '1977', '1978', '1981', '1983', '1987', '1989', '1990', '1993', '1997', '1999']",False,4000,True,2,15df7b1f86,0.0,1.0,1.0
./expes/v2_2021-03-27_issda-30_2000-prng-1-w4-p2,30_issda-2000,2000,first-2000,400,20,rng,num-start-1400,1400,25726,classic,2706.0736181735992,True,,True,1.0,1.0,1.0,1,"['6', '9', '11', '16', '31', '33', '34', '52', '66', '67', '68', '71', '73', '76', '90', '91', '92', '95', '104', '110', '114', '129', '133', '134', '135', '144', '148', '152', '156', '164', '166', '172', '183', '190', '196', '197', '198', '203', '217', '223', '232', '238', '239', '245', '273', '275', '279', '285', '286', '290', '294', '307', '312', '315', '321', '325', '329', '334', '338', '340', '341', '346', '357', '358', '361', '366', '374', '382', '391', '392', '393', '394', '397', '399', '400', '401', '410', '413', '423', '426', '428', '430', '451', '459', '460', '483', '487', '489', '491', '492', '494', '495', '497', '503', '505', '512', '522', '531', '537', '538', '540', '545', '547', '557', '563', '568', '569', '579', '581', '585', '593', '603', '607', '617', '620', '621', '628', '631', '632', '644', '655', '660', '662', '665', '672', '673', '680', '695', '700', '703', '712', '713', '715', '716', '717', '728', '738', '740', '743', '747', '750', '752', '766', '767', '769', '782', '783', '788', '795', '800', '804', '813', '821', '822', '829', '830', '837', '846', '849', '851', '852', '861', '862', '863', '864', '867', '868', '869', '874', '879', '888', '891', '892', '893', '894', '899', '900', '901', '904', '905', '913', '915', '916', '917', '918', '923', '930', '934', '936', '939', '940', '946', '948', '950', '956', '963', '977', '978', '981', '983', '984', '989', '994', '1003', '1004', '1007', '1016', '1018', '1023', '1024', '1027', '1028', '1038', '1040', '1065', '1066', '1067', '1069', '1070', '1071', '1072', '1076', '1093', '1097', '1099', '1104', '1106', '1109', '1116', '1125', '1128', '1138', '1139', '1145', '1156', '1162', '1167', '1168', '1171', '1172', '1177', '1179', '1184', '1194', '1198', '1203', '1206', '1212', '1216', '1219', '1220', '1224', '1232', '1234', '1235', '1236', '1241', '1243', '1246', '1249', '1250', '1257', '1265', '1268', '1285', '1288', '1310', '1317', '1329', '1331', '1335', '1336', '1338', '1339', '1348', '1353', '1356', '1361', '1366', '1373', '1380', '1381', '1383', '1395', '1402', '1405', '1408', '1413', '1424', '1430', '1438', '1460', '1471', '1475', '1476', '1479', '1480', '1488', '1503', '1508', '1515', '1517', '1523', '1524', '1526', '1527', '1535', '1539', '1556', '1565', '1571', '1573', '1579', '1582', '1583', '1584', '1587', '1589', '1593', '1604', '1612', '1616', '1620', '1626', '1633', '1638', '1641', '1648', '1654', '1659', '1661', '1664', '1666', '1673', '1674', '1676', '1682', '1687', '1688', '1694', '1695', '1698', '1699', '1707', '1714', '1725', '1729', '1736', '1737', '1744', '1748', '1752', '1759', '1762', '1766', '1768', '1772', '1781', '1785', '1786', '1792', '1818', '1819', '1821', '1830', '1837', '1839', '1840', '1853', '1856', '1860', '1863', '1865', '1866', '1870', '1871', '1874', '1884', '1886', '1890', '1893', '1911', '1917', '1928', '1932', '1937', '1941', '1948', '1951', '1952', '1956', '1971', '1974', '1976', '1984', '1986', '1987', '1988', '1995', '1997']",False,4000,True,2,08ae944bd6,0.0,1.0,1.0
./expes/v2_2021-03-27_issda-30_2000-prng-1-w4-p2,30_issda-2000,2000,first-2000,800,40,rng,num-start-1200,1200,25726,classic,4160.060205459595,True,,False,1.0,1.0,1.0,1,"['1', '7', '10', '12', '14', '22', '23', '25', '28', '29', '30', '32', '34', '35', '41', '44', '45', '46', '47', '53', '57', '58', '63', '66', '67', '68', '69', '70', '71', '72', '75', '76', '77', '80', '82', '90', '91', '93', '101', '103', '105', '112', '114', '118', '119', '122', '123', '125', '129', '130', '132', '134', '136', '141', '144', '147', '148', '153', '154', '164', '165', '167', '168', '169', '170', '171', '172', '173', '175', '177', '179', '182', '183', '184', '186', '190', '192', '195', '196', '197', '199', '200', '205', '210', '212', '217', '218', '219', '221', '222', '223', '224', '228', '229', '230', '233', '234', '237', '239', '240', '241', '242', '243', '248', '250', '255', '259', '261', '262', '263', '272', '277', '279', '281', '282', '285', '286', '288', '289', '292', '294', '299', '300', '302', '303', '304', '305', '308', '315', '317', '320', '322', '325', '328', '330', '331', '332', '335', '340', '341', '347', '348', '349', '350', '353', '355', '356', '357', '359', '362', '364', '365', '379', '384', '388', '389', '392', '394', '396', '398', '401', '402', '405', '407', '408', '411', '412', '414', '415', '417', '421', '426', '427', '429', '431', '433', '434', '438', '446', '447', '451', '453', '454', '456', '459', '462', '465', '470', '473', '475', '477', '480', '481', '483', '485', '490', '492', '497', '500', '501', '504', '505', '507', '508', '509', '512', '519', '520', '522', '523', '530', '535', '539', '542', '545', '546', '547', '551', '555', '562', '563', '566', '567', '568', '579', '583', '584', '586', '589', '590', '592', '593', '594', '595', '597', '598', '601', '605', '606', '607', '608', '612', '614', '615', '618', '619', '620', '631', '633', '634', '636', '637', '638', '639', '641', '642', '643', '644', '645', '646', '649', '654', '655', '656', '658', '663', '664', '667', '670', '674', '687', '690', '691', '692', '693', '694', '698', '699', '701', '703', '705', '706', '709', '710', '711', '713', '720', '729', '731', '732', '733', '734', '738', '739', '741', '742', '746', '748', '750', '751', '754', '756', '757', '758', '759', '761', '762', '763', '764', '768', '769', '772', '773', '776', '777', '780', '781', '786', '787', '788', '791', '792', '795', '798', '800', '801', '807', '808', '812', '813', '814', '815', '818', '821', '822', '825', '826', '832', '834', '835', '836', '840', '843', '844', '849', '850', '854', '856', '860', '864', '868', '871', '872', '873', '876', '880', '883', '884', '886', '890', '891', '893', '894', '895', '899', '901', '902', '903', '905', '908', '911', '912', '914', '915', '916', '919', '920', '928', '929', '931', '933', '935', '938', '941', '942', '948', '949', '959', '961', '963', '966', '970', '971', '972', '975', '977', '978', '981', '987', '991', '992', '994', '998', '999', '1000', '1001', '1003', '1004', '1005', '1013', '1014', '1018', '1019', '1020', '1021', '1022', '1023', '1024', '1025', '1028', '1029', '1030', '1032', '1033', '1034', '1035', '1037', '1038', '1039', '1040', '1041', '1045', '1047', '1049', '1053', '1054', '1058', '1059', '1063', '1065', '1066', '1067', '1070', '1072', '1073', '1076', '1077', '1079', '1080', '1082', '1083', '1084', '1090', '1093', '1095', '1106', '1108', '1117', '1120', '1121', '1122', '1123', '1126', '1138', '1139', '1142', '1146', '1150', '1153', '1154', '1155', '1156', '1160', '1161', '1165', '1166', '1171', '1174', '1175', '1180', '1181', '1185', '1186', '1188', '1190', '1191', '1197', '1199', '1200', '1206', '1209', '1217', '1222', '1224', '1226', '1229', '1230', '1231', '1232', '1235', '1238', '1239', '1240', '1243', '1244', '1249', '1250', '1251', '1253', '1255', '1256', '1257', '1264', '1265', '1271', '1273', '1278', '1280', '1281', '1288', '1289', '1291', '1294', '1295', '1296', '1302', '1303', '1310', '1312', '1315', '1319', '1323', '1324', '1326', '1327', '1331', '1332', '1333', '1335', '1337', '1339', '1340', '1341', '1342', '1344', '1345', '1346', '1347', '1348', '1349', '1354', '1358', '1359', '1362', '1363', '1366', '1367', '1368', '1370', '1371', '1373', '1379', '1385', '1389', '1393', '1396', '1401', '1402', '1403', '1407', '1409', '1410', '1414', '1415', '1416', '1418', '1419', '1420', '1422', '1424', '1426', '1432', '1436', '1437', '1438', '1441', '1443', '1444', '1445', '1451', '1452', '1453', '1454', '1455', '1466', '1467', '1469', '1470', '1472', '1474', '1475', '1477', '1478', '1481', '1485', '1486', '1487', '1491', '1492', '1493', '1502', '1505', '1508', '1509', '1510', '1511', '1518', '1519', '1522', '1523', '1524', '1525', '1531', '1534', '1535', '1536', '1543', '1547', '1548', '1549', '1555', '1556', '1561', '1562', '1566', '1569', '1570', '1571', '1573', '1575', '1577', '1581', '1586', '1595', '1597', '1598', '1600', '1602', '1605', '1610', '1611', '1612', '1616', '1619', '1620', '1625', '1628', '1630', '1632', '1637', '1645', '1648', '1649', '1653', '1654', '1655', '1656', '1661', '1662', '1665', '1666', '1668', '1669', '1673', '1678', '1682', '1685', '1686', '1690', '1691', '1695', '1696', '1697', '1698', '1699', '1700', '1701', '1703', '1707', '1709', '1712', '1713', '1715', '1716', '1717', '1719', '1721', '1724', '1726', '1728', '1729', '1733', '1735', '1742', '1746', '1751', '1752', '1755', '1758', '1760', '1762', '1772', '1775', '1779', '1780', '1781', '1793', '1795', '1796', '1797', '1799', '1802', '1805', '1806', '1807', '1809', '1811', '1814', '1818', '1820', '1824', '1826', '1827', '1829', '1830', '1834', '1837', '1838', '1840', '1844', '1847', '1848', '1850', '1851', '1854', '1855', '1857', '1858', '1860', '1862', '1864', '1867', '1870', '1872', '1877', '1882', '1883', '1884', '1886', '1887', '1888', '1890', '1894', '1895', '1896', '1900', '1902', '1903', '1908', '1910', '1911', '1918', '1919', '1925', '1929', '1930', '1935', '1937', '1938', '1939', '1941', '1942', '1946', '1949', '1959', '1961', '1964', '1965', '1971', '1976', '1977', '1978', '1981', '1983', '1987', '1989', '1990', '1993', '1997', '1999']",True,4000,True,2,c358b56fb7,0.0,0.0,1.0
./expes/v2_2021-03-27_issda-30_2000-prng-1-w4-p2,30_issda-2000,2000,first-2000,500,25,rng,num-start-2000,2000,25726,classic,1983.3338327407837,True,,True,1.0,1.0,1.0,1,"['2', '4', '7', '11', '19', '24', '27', '28', '34', '38', '41', '45', '47', '49', '55', '57', '60', '66', '68', '71', '74', '75', '76', '82', '86', '96', '100', '107', '111', '115', '117', '121', '130', '134', '136', '148', '161', '162', '166', '183', '187', '189', '195', '209', '219', '222', '227', '231', '232', '236', '243', '244', '250', '259', '260', '265', '268', '271', '272', '273', '274', '280', '285', '289', '290', '291', '292', '294', '299', '301', '304', '305', '306', '317', '322', '326', '327', '328', '331', '340', '341', '346', '347', '352', '354', '361', '364', '366', '368', '369', '370', '371', '372', '373', '379', '397', '401', '403', '404', '407', '408', '419', '420', '425', '427', '429', '442', '444', '449', '464', '487', '488', '499', '503', '504', '505', '511', '513', '514', '515', '524', '525', '533', '541', '543', '549', '555', '558', '561', '562', '565', '571', '573', '576', '579', '580', '586', '587', '592', '593', '597', '601', '602', '604', '605', '606', '608', '612', '616', '617', '618', '620', '627', '628', '630', '634', '635', '640', '643', '647', '649', '650', '651', '654', '667', '668', '680', '685', '689', '693', '694', '696', '697', '698', '705', '706', '708', '713', '717', '718', '720', '721', '727', '728', '729', '731', '733', '735', '740', '742', '743', '745', '747', '750', '753', '757', '762', '764', '766', '770', '771', '773', '778', '779', '780', '783', '784', '785', '787', '798', '804', '827', '828', '831', '832', '836', '837', '839', '840', '848', '850', '851', '854', '858', '859', '862', '864', '880', '885', '887', '890', '904', '909', '912', '922', '928', '929', '934', '947', '948', '949', '951', '953', '954', '958', '961', '963', '966', '968', '972', '973', '977', '978', '982', '983', '984', '985', '986', '989', '991', '995', '1000', '1004', '1008', '1009', '1011', '1017', '1023', '1025', '1030', '1050', '1051', '1056', '1058', '1062', '1070', '1075', '1085', '1086', '1090', '1091', '1093', '1103', '1105', '1114', '1117', '1121', '1123', '1125', '1127', '1133', '1146', '1148', '1155', '1156', '1159', '1176', '1185', '1190', '1201', '1202', '1204', '1208', '1209', '1210', '1217', '1221', '1231', '1236', '1237', '1246', '1247', '1251', '1253', '1257', '1260', '1264', '1265', '1266', '1271', '1274', '1276', '1278', '1279', '1282', '1284', '1285', '1290', '1292', '1293', '1305', '1308', '1316', '1320', '1321', '1326', '1330', '1331', '1332', '1334', '1336', '1352', '1356', '1357', '1360', '1364', '1369', '1374', '1376', '1380', '1389', '1397', '1405', '1410', '1411', '1412', '1415', '1417', '1423', '1427', '1439', '1443', '1444', '1450', '1451', '1467', '1471', '1472', '1474', '1475', '1476', '1477', '1478', '1495', '1496', '1498', '1499', '1512', '1516', '1517', '1518', '1520', '1523', '1526', '1533', '1536', '1548', '1555', '1556', '1558', '1561', '1569', '1577', '1585', '1587', '1589', '1590', '1599', '1600', '1601', '1602', '1610', '1614', '1629', '1633', '1634', '1636', '1642', '1665', '1666', '1673', '1675', '1677', '1679', '1682', '1684', '1693', '1694', '1697', '1703', '1711', '1714', '1718', '1722', '1723', '1724', '1727', '1729', '1731', '1745', '1746', '1749', '1751', '1753', '1761', '1769', '1775', '1776', '1777', '1778', '1779', '1782', '1785', '1787', '1795', '1796', '1804', '1826', '1827', '1829', '1830', '1831', '1833', '1837', '1846', '1848', '1850', '1872', '1877', '1881', '1889', '1892', '1893', '1904', '1916', '1917', '1918', '1920', '1921', '1924', '1928', '1930', '1931', '1932', '1936', '1937', '1945', '1946', '1948', '1950', '1955', '1957', '1959', '1960', '1961', '1963', '1966', '1967', '1968', '1969', '1970', '1976', '1977', '1980', '1983', '1984', '1992', '1998', '1999', '2000']",False,4000,True,2,5116ba89da,0.0,1.0,1.0
./expes/v2_2021-03-27_issda-30_2000-prng-1-w4-p2,30_issda-2000,2000,first-2000,300,15,rng,num-start-1400,1400,25726,classic,1558.2712671756744,True,,True,1.0,1.0,1.0,1,"['6', '10', '19', '24', '31', '32', '35', '36', '39', '59', '64', '75', '85', '89', '98', '113', '115', '116', '121', '122', '124', '127', '132', '135', '151', '152', '161', '162', '168', '174', '190', '202', '205', '206', '222', '237', '239', '240', '249', '264', '267', '288', '292', '295', '302', '311', '319', '321', '324', '325', '328', '337', '353', '368', '383', '401', '402', '423', '428', '458', '462', '469', '474', '475', '476', '479', '482', '490', '491', '500', '511', '515', '523', '524', '533', '540', '558', '560', '575', '587', '589', '606', '620', '626', '636', '638', '639', '642', '645', '646', '652', '653', '660', '666', '678', '683', '686', '688', '689', '691', '693', '694', '697', '704', '706', '712', '713', '725', '728', '729', '732', '738', '753', '756', '771', '778', '789', '793', '796', '799', '804', '807', '810', '818', '823', '830', '831', '836', '860', '862', '883', '889', '900', '905', '913', '920', '923', '933', '939', '942', '945', '947', '956', '957', '960', '972', '976', '986', '992', '1003', '1005', '1008', '1009', '1014', '1021', '1022', '1024', '1025', '1029', '1036', '1048', '1050', '1062', '1066', '1068', '1086', '1094', '1114', '1115', '1122', '1124', '1127', '1137', '1141', '1157', '1158', '1161', '1167', '1172', '1180', '1183', '1186', '1191', '1202', '1203', '1216', '1220', '1239', '1251', '1257', '1258', '1263', '1265', '1267', '1283', '1288', '1314', '1323', '1325', '1329', '1343', '1357', '1371', '1386', '1390', '1396', '1402', '1404', '1415', '1419', '1422', '1423', '1438', '1445', '1450', '1451', '1473', '1477', '1482', '1483', '1486', '1489', '1493', '1508', '1511', '1518', '1539', '1544', '1547', '1551', '1557', '1592', '1593', '1595', '1602', '1604', '1608', '1615', '1631', '1634', '1637', '1640', '1649', '1659', '1683', '1686', '1690', '1701', '1711', '1716', '1718', '1721', '1722', '1728', '1729', '1735', '1752', '1753', '1756', '1757', '1763', '1769', '1773', '1781', '1783', '1787', '1792', '1802', '1817', '1827', '1829', '1830', '1831', '1854', '1858', '1859', '1862', '1870', '1874', '1884', '1888', '1890', '1895', '1896', '1900', '1901', '1906', '1915', '1916', '1922', '1935', '1936', '1938', '1942', '1965', '1967', '1971', '1977', '1982', '2000']",False,4000,True,2,0519387fe3,0.0,1.0,1.0
./expes/v2_2021-03-27_issda-30_2000-prng-1-w4-p2,30_issda-2000,2000,first-2000,500,25,rng,num-start-3000,3000,25726,classic,2842.1592230796814,True,,True,1.0,1.0,1.0,1,"['1', '4', '9', '25', '30', '39', '44', '47', '48', '53', '56', '57', '58', '60', '77', '81', '87', '96', '99', '102', '108', '111', '117', '119', '121', '122', '123', '125', '127', '128', '129', '130', '134', '138', '141', '144', '145', '149', '150', '159', '165', '166', '168', '170', '174', '176', '177', '178', '186', '187', '192', '193', '200', '201', '208', '210', '211', '212', '213', '218', '226', '237', '240', '242', '246', '247', '250', '252', '254', '258', '261', '265', '268', '269', '273', '281', '286', '290', '296', '299', '300', '301', '305', '307', '309', '310', '311', '312', '320', '326', '331', '333', '338', '341', '343', '345', '349', '353', '361', '366', '369', '371', '374', '376', '385', '391', '392', '397', '399', '400', '403', '409', '410', '415', '419', '421', '422', '426', '428', '433', '436', '440', '447', '452', '453', '457', '458', '465', '473', '476', '478', '491', '493', '500', '508', '509', '516', '517', '531', '532', '535', '539', '543', '553', '568', '570', '571', '573', '578', '583', '589', '590', '594', '600', '611', '614', '615', '632', '635', '639', '643', '644', '648', '653', '664', '667', '668', '676', '681', '692', '697', '701', '702', '704', '705', '706', '711', '712', '716', '718', '725', '728', '729', '735', '741', '745', '746', '747', '749', '752', '757', '763', '771', '780', '791', '796', '801', '804', '808', '809', '811', '813', '815', '816', '818', '821', '823', '851', '854', '857', '859', '862', '864', '870', '876', '882', '889', '902', '903', '906', '908', '913', '916', '917', '920', '927', '929', '935', '936', '939', '946', '949', '954', '955', '963', '968', '970', '971', '972', '980', '981', '982', '984', '987', '989', '991', '994', '1000', '1002', '1010', '1012', '1014', '1017', '1018', '1027', '1028', '1030', '1036', '1040', '1041', '1046', '1049', '1056', '1058', '1059', '1061', '1062', '1072', '1073', '1076', '1079', '1082', '1087', '1089', '1090', '1091', '1093', '1095', '1098', '1099', '1108', '1110', '1113', '1115', '1122', '1123', '1124', '1126', '1127', '1129', '1138', '1140', '1141', '1143', '1146', '1148', '1151', '1156', '1159', '1160', '1161', '1170', '1174', '1177', '1182', '1184', '1188', '1192', '1194', '1195', '1200', '1202', '1207', '1210', '1218', '1221', '1231', '1234', '1240', '1242', '1247', '1248', '1249', '1250', '1252', '1253', '1255', '1256', '1257', '1258', '1265', '1268', '1279', '1285', '1292', '1300', '1303', '1304', '1309', '1317', '1318', '1326', '1331', '1334', '1338', '1342', '1344', '1347', '1349', '1353', '1357', '1361', '1369', '1370', '1385', '1394', '1396', '1397', '1398', '1399', '1414', '1415', '1418', '1419', '1424', '1426', '1428', '1432', '1437', '1447', '1458', '1459', '1468', '1479', '1481', '1485', '1486', '1488', '1494', '1498', '1513', '1516', '1517', '1523', '1535', '1536', '1537', '1551', '1553', '1554', '1557', '1565', '1566', '1574', '1581', '1582', '1590', '1591', '1592', '1596', '1598', '1603', '1607', '1615', '1617', '1619', '1627', '1633', '1635', '1637', '1638', '1641', '1646', '1651', '1652', '1654', '1656', '1662', '1670', '1672', '1676', '1678', '1682', '1684', '1692', '1693', '1694', '1698', '1703', '1709', '1710', '1721', '1722', '1732', '1739', '1747', '1759', '1760', '1769', '1770', '1784', '1785', '1786', '1788', '1790', '1791', '1792', '1793', '1795', '1796', '1799', '1809', '1810', '1811', '1817', '1821', '1829', '1831', '1839', '1843', '1844', '1852', '1854', '1861', '1863', '1864', '1869', '1873', '1878', '1880', '1890', '1892', '1901', '1912', '1913', '1920', '1927', '1929', '1930', '1932', '1935', '1938', '1940', '1941', '1942', '1944', '1947', '1948', '1950', '1952', '1956', '1957', '1959', '1962', '1971', '1989', '1990', '1994', '1996', '2000']",False,4000,True,2,df0db5bae6,0.0,1.0,1.0
./expes/v2_2021-03-27_issda-30_2000-prng-1-w4-p2,30_issda-2000,2000,first-2000,1000,50,rng,num-start-2600,2600,25726,classic,3367.2674169540405,True,,True,1.0,1.0,1.0,1,"['2', '4', '6', '7', '8', '10', '11', '12', '15', '17', '18', '20', '22', '27', '32', '37', '38', '39', '41', '42', '44', '47', '48', '53', '55', '56', '58', '61', '62', '65', '66', '67', '70', '71', '72', '73', '75', '76', '77', '78', '79', '80', '83', '84', '85', '88', '89', '92', '93', '95', '97', '102', '106', '109', '110', '112', '114', '118', '121', '122', '124', '126', '127', '128', '131', '133', '136', '137', '138', '139', '142', '145', '147', '148', '152', '153', '154', '156', '158', '159', '160', '161', '162', '164', '165', '166', '167', '168', '170', '171', '175', '176', '178', '182', '183', '185', '188', '189', '190', '191', '192', '195', '196', '199', '202', '207', '212', '213', '214', '218', '220', '227', '230', '232', '233', '234', '235', '236', '238', '240', '242', '243', '245', '248', '250', '251', '262', '267', '272', '273', '275', '278', '280', '283', '284', '285', '286', '287', '288', '289', '291', '294', '295', '297', '298', '305', '306', '307', '309', '312', '313', '314', '316', '318', '320', '321', '322', '323', '325', '326', '329', '331', '332', '333', '334', '335', '336', '338', '339', '340', '341', '343', '345', '346', '348', '349', '352', '353', '354', '355', '358', '359', '361', '362', '363', '364', '365', '368', '370', '371', '372', '374', '375', '377', '379', '380', '385', '391', '392', '393', '397', '399', '400', '401', '402', '404', '405', '407', '408', '409', '410', '411', '412', '414', '416', '418', '421', '423', '425', '426', '427', '429', '431', '432', '433', '434', '435', '436', '437', '440', '441', '442', '443', '448', '449', '450', '453', '455', '456', '460', '464', '469', '470', '472', '474', '475', '476', '478', '479', '484', '487', '488', '489', '494', '496', '497', '501', '503', '507', '510', '511', '512', '513', '515', '516', '519', '520', '521', '524', '525', '527', '528', '529', '530', '532', '534', '536', '537', '538', '539', '540', '550', '552', '555', '557', '558', '562', '566', '567', '568', '569', '571', '573', '574', '575', '576', '579', '580', '581', '582', '585', '586', '589', '590', '591', '592', '593', '594', '595', '596', '597', '598', '599', '600', '601', '605', '606', '607', '608', '609', '611', '612', '613', '615', '616', '620', '621', '622', '623', '624', '625', '626', '628', '630', '632', '635', '638', '639', '640', '641', '642', '644', '645', '646', '648', '649', '657', '658', '659', '660', '661', '662', '663', '665', '666', '669', '670', '673', '676', '677', '678', '679', '682', '687', '689', '690', '692', '694', '695', '696', '697', '698', '703', '705', '707', '708', '710', '711', '712', '714', '718', '719', '724', '729', '731', '732', '734', '736', '737', '738', '742', '743', '745', '747', '748', '750', '753', '762', '763', '770', '778', '781', '782', '784', '786', '793', '794', '795', '796', '800', '802', '803', '804', '805', '809', '811', '812', '815', '820', '821', '823', '825', '826', '827', '828', '832', '834', '839', '841', '843', '844', '845', '846', '847', '848', '850', '852', '854', '855', '857', '861', '863', '866', '867', '868', '869', '870', '871', '877', '881', '883', '888', '889', '892', '893', '894', '895', '896', '898', '899', '900', '901', '903', '904', '906', '909', '910', '915', '917', '925', '926', '927', '930', '932', '934', '936', '939', '940', '941', '948', '950', '952', '957', '965', '966', '968', '970', '973', '974', '976', '977', '978', '979', '980', '981', '982', '987', '991', '992', '997', '1002', '1004', '1005', '1008', '1012', '1013', '1015', '1016', '1017', '1019', '1021', '1022', '1023', '1030', '1037', '1038', '1040', '1042', '1043', '1044', '1046', '1047', '1048', '1050', '1052', '1055', '1060', '1061', '1063', '1064', '1065', '1066', '1067', '1072', '1074', '1075', '1076', '1077', '1078', '1079', '1080', '1082', '1084', '1085', '1087', '1091', '1095', '1097', '1099', '1100', '1101', '1102', '1103', '1104', '1107', '1108', '1109', '1110', '1113', '1114', '1115', '1117', '1118', '1119', '1121', '1122', '1125', '1126', '1128', '1129', '1132', '1134', '1144', '1147', '1149', '1150', '1152', '1158', '1162', '1164', '1166', '1167', '1168', '1169', '1171', '1173', '1174', '1176', '1180', '1186', '1188', '1192', '1193', '1194', '1197', '1199', '1203', '1205', '1206', '1211', '1215', '1216', '1218', '1220', '1223', '1224', '1225', '1227', '1228', '1229', '1230', '1231', '1232', '1233', '1236', '1237', '1239', '1240', '1241', '1243', '1246', '1248', '1249', '1250', '1256', '1260', '1261', '1265', '1266', '1269', '1270', '1271', '1272', '1274', '1275', '1277', '1280', '1281', '1283', '1284', '1285', '1286', '1288', '1291', '1292', '1294', '1295', '1296', '1300', '1301', '1305', '1311', '1312', '1313', '1314', '1316', '1317', '1318', '1319', '1322', '1323', '1325', '1326', '1328', '1335', '1336', '1338', '1340', '1341', '1342', '1346', '1349', '1351', '1353', '1354', '1356', '1362', '1367', '1368', '1369', '1370', '1373', '1376', '1379', '1380', '1383', '1384', '1385', '1386', '1387', '1388', '1393', '1395', '1398', '1400', '1402', '1405', '1409', '1413', '1414', '1415', '1416', '1418', '1420', '1421', '1425', '1427', '1429', '1430', '1431', '1436', '1438', '1441', '1443', '1444', '1447', '1448', '1451', '1453', '1456', '1457', '1461', '1462', '1465', '1466', '1467', '1470', '1472', '1473', '1474', '1478', '1483', '1485', '1495', '1498', '1499', '1500', '1502', '1506', '1508', '1510', '1512', '1513', '1516', '1523', '1524', '1526', '1527', '1528', '1529', '1530', '1533', '1537', '1539', '1544', '1545', '1546', '1548', '1549', '1553', '1554', '1555', '1557', '1558', '1561', '1566', '1568', '1571', '1573', '1577', '1578', '1580', '1582', '1585', '1586', '1588', '1591', '1594', '1597', '1601', '1603', '1604', '1606', '1607', '1608', '1611', '1612', '1613', '1616', '1617', '1619', '1620', '1626', '1631', '1634', '1635', '1636', '1638', '1640', '1641', '1642', '1643', '1644', '1645', '1648', '1653', '1654', '1657', '1659', '1665', '1669', '1671', '1675', '1676', '1677', '1680', '1681', '1687', '1690', '1691', '1692', '1694', '1695', '1698', '1700', '1702', '1703', '1704', '1708', '1709', '1710', '1711', '1714', '1716', '1717', '1718', '1719', '1720', '1722', '1725', '1727', '1729', '1730', '1731', '1733', '1735', '1736', '1737', '1738', '1747', '1748', '1749', '1751', '1753', '1754', '1757', '1758', '1759', '1761', '1765', '1766', '1767', '1770', '1771', '1773', '1774', '1777', '1781', '1782', '1784', '1790', '1791', '1792', '1795', '1796', '1798', '1800', '1801', '1803', '1804', '1805', '1807', '1808', '1809', '1814', '1816', '1817', '1819', '1820', '1821', '1822', '1823', '1824', '1825', '1826', '1827', '1828', '1830', '1832', '1833', '1835', '1837', '1838', '1842', '1843', '1845', '1846', '1848', '1850', '1851', '1852', '1853', '1854', '1858', '1859', '1861', '1862', '1865', '1866', '1867', '1868', '1870', '1871', '1873', '1875', '1876', '1878', '1879', '1880', '1881', '1882', '1885', '1887', '1889', '1890', '1891', '1893', '1894', '1896', '1900', '1901', '1902', '1903', '1905', '1906', '1909', '1911', '1914', '1915', '1916', '1918', '1919', '1920', '1921', '1922', '1923', '1924', '1925', '1927', '1928', '1929', '1930', '1932', '1934', '1935', '1942', '1945', '1946', '1947', '1948', '1949', '1951', '1953', '1955', '1956', '1957', '1958', '1959', '1964', '1965', '1966', '1967', '1968', '1970', '1972', '1974', '1975', '1976', '1977', '1979', '1984', '1986', '1988', '1989', '1990', '1991', '1994', '1995', '1997', '1998']",False,4000,True,2,c0c185a803,0.0,1.0,1.0
./expes/v2_2021-03-27_issda-30_2000-prng-1-w4-p2,30_issda-2000,2000,first-2000,900,45,rng,num-start-2600,2600,25726,classic,2422.274629354477,True,,True,1.0,1.0,1.0,1,"['2', '3', '4', '5', '7', '8', '9', '11', '12', '14', '17', '20', '24', '27', '28', '30', '32', '33', '35', '36', '37', '40', '42', '45', '46', '54', '56', '57', '58', '60', '62', '63', '66', '69', '71', '73', '74', '76', '79', '80', '84', '86', '88', '89', '90', '92', '94', '95', '96', '97', '101', '105', '107', '108', '110', '111', '112', '114', '116', '117', '123', '125', '126', '133', '135', '137', '138', '139', '140', '141', '142', '145', '146', '151', '153', '155', '159', '160', '163', '164', '165', '166', '167', '169', '174', '177', '178', '181', '183', '184', '187', '188', '190', '191', '193', '194', '199', '205', '206', '208', '211', '212', '214', '219', '220', '225', '229', '230', '232', '233', '237', '239', '241', '243', '245', '249', '251', '253', '256', '257', '258', '259', '260', '262', '263', '264', '265', '267', '268', '269', '271', '273', '274', '277', '281', '284', '286', '287', '288', '291', '293', '294', '299', '300', '301', '302', '303', '304', '305', '306', '307', '309', '310', '315', '316', '317', '318', '319', '321', '322', '326', '328', '329', '330', '337', '342', '343', '346', '347', '348', '357', '360', '361', '362', '363', '364', '365', '366', '367', '368', '374', '380', '381', '384', '386', '390', '391', '392', '394', '396', '397', '398', '399', '400', '405', '414', '415', '416', '417', '418', '420', '421', '422', '425', '426', '427', '429', '431', '434', '435', '438', '439', '441', '442', '446', '448', '450', '452', '455', '457', '461', '462', '463', '464', '465', '473', '474', '478', '480', '482', '483', '487', '488', '489', '491', '493', '494', '497', '500', '501', '502', '504', '507', '509', '510', '513', '515', '519', '520', '522', '526', '527', '528', '530', '531', '535', '536', '537', '538', '539', '541', '549', '551', '556', '559', '565', '566', '568', '574', '575', '577', '580', '581', '585', '588', '589', '593', '595', '596', '599', '601', '604', '605', '606', '608', '610', '611', '614', '615', '617', '618', '619', '622', '625', '626', '627', '628', '630', '631', '632', '633', '637', '642', '643', '648', '650', '655', '661', '665', '671', '673', '677', '680', '682', '684', '686', '693', '696', '697', '699', '700', '703', '707', '709', '712', '713', '715', '717', '719', '722', '729', '730', '731', '736', '740', '742', '745', '746', '748', '751', '755', '756', '760', '761', '762', '764', '768', '769', '770', '771', '772', '778', '781', '782', '787', '792', '794', '795', '796', '798', '799', '801', '806', '807', '811', '813', '815', '816', '819', '820', '822', '824', '826', '831', '833', '836', '839', '841', '847', '848', '849', '853', '855', '856', '861', '864', '866', '867', '869', '870', '871', '872', '874', '875', '876', '877', '878', '879', '880', '881', '882', '884', '886', '890', '891', '894', '895', '896', '901', '902', '903', '905', '906', '907', '909', '911', '912', '915', '917', '918', '919', '921', '922', '924', '925', '927', '929', '937', '940', '941', '944', '945', '947', '949', '950', '951', '954', '956', '958', '963', '966', '968', '970', '972', '975', '976', '979', '980', '981', '984', '985', '987', '988', '992', '996', '997', '998', '1002', '1003', '1004', '1006', '1008', '1009', '1010', '1012', '1016', '1017', '1018', '1020', '1022', '1023', '1026', '1027', '1032', '1033', '1034', '1042', '1045', '1048', '1050', '1052', '1059', '1063', '1065', '1066', '1067', '1068', '1070', '1071', '1072', '1074', '1075', '1078', '1079', '1080', '1082', '1087', '1088', '1089', '1090', '1091', '1092', '1093', '1094', '1096', '1098', '1099', '1100', '1102', '1113', '1117', '1118', '1120', '1121', '1126', '1127', '1130', '1133', '1135', '1136', '1137', '1138', '1140', '1143', '1144', '1147', '1148', '1150', '1154', '1156', '1158', '1159', '1163', '1167', '1168', '1170', '1171', '1172', '1174', '1175', '1176', '1179', '1183', '1184', '1185', '1186', '1187', '1188', '1189', '1190', '1195', '1199', '1202', '1205', '1207', '1210', '1211', '1213', '1217', '1218', '1219', '1220', '1222', '1224', '1227', '1228', '1229', '1230', '1233', '1236', '1237', '1241', '1246', '1247', '1250', '1252', '1254', '1257', '1262', '1265', '1267', '1268', '1269', '1271', '1272', '1275', '1280', '1285', '1287', '1288', '1289', '1291', '1292', '1295', '1298', '1304', '1308', '1309', '1310', '1313', '1314', '1315', '1318', '1322', '1330', '1332', '1334', '1336', '1338', '1339', '1342', '1344', '1346', '1351', '1357', '1361', '1365', '1366', '1367', '1370', '1372', '1374', '1375', '1377', '1381', '1387', '1388', '1395', '1396', '1400', '1401', '1402', '1404', '1408', '1413', '1416', '1418', '1424', '1425', '1427', '1428', '1429', '1430', '1432', '1435', '1436', '1437', '1438', '1439', '1442', '1443', '1445', '1447', '1452', '1454', '1456', '1457', '1460', '1461', '1463', '1464', '1465', '1466', '1467', '1468', '1469', '1472', '1473', '1474', '1475', '1476', '1477', '1479', '1480', '1481', '1482', '1483', '1485', '1488', '1489', '1491', '1493', '1497', '1500', '1502', '1504', '1506', '1508', '1510', '1513', '1515', '1516', '1517', '1520', '1523', '1525', '1526', '1527', '1529', '1530', '1533', '1536', '1537', '1538', '1539', '1540', '1542', '1545', '1547', '1553', '1557', '1561', '1564', '1565', '1566', '1567', '1569', '1570', '1572', '1576', '1577', '1578', '1579', '1580', '1583', '1585', '1587', '1588', '1589', '1592', '1594', '1595', '1596', '1599', '1601', '1602', '1604', '1607', '1608', '1611', '1613', '1618', '1622', '1626', '1627', '1633', '1634', '1635', '1636', '1638', '1641', '1642', '1643', '1645', '1646', '1648', '1649', '1651', '1653', '1656', '1657', '1659', '1664', '1668', '1669', '1671', '1674', '1675', '1677', '1679', '1680', '1682', '1683', '1687', '1688', '1689', '1691', '1693', '1696', '1698', '1703', '1707', '1709', '1710', '1713', '1716', '1717', '1719', '1720', '1721', '1723', '1732', '1733', '1738', '1739', '1740', '1741', '1745', '1746', '1748', '1749', '1753', '1757', '1760', '1765', '1766', '1769', '1773', '1775', '1777', '1778', '1779', '1781', '1783', '1785', '1790', '1792', '1795', '1797', '1800', '1801', '1808', '1810', '1813', '1815', '1816', '1817', '1818', '1820', '1822', '1823', '1825', '1827', '1829', '1832', '1833', '1834', '1839', '1840', '1842', '1845', '1847', '1848', '1851', '1855', '1857', '1858', '1861', '1863', '1865', '1866', '1867', '1868', '1869', '1870', '1873', '1874', '1876', '1881', '1885', '1886', '1887', '1897', '1901', '1909', '1911', '1912', '1916', '1917', '1920', '1921', '1922', '1931', '1932', '1945', '1946', '1947', '1949', '1951', '1954', '1958', '1960', '1962', '1963', '1964', '1965', '1969', '1970', '1972', '1974', '1977', '1982', '1983', '1985', '1987', '1989', '1990', '1991', '1993', '1996']",False,4000,True,2,f58f1080e3,0.0,1.0,1.0
./expes/v2_2021-03-27_issda-30_2000-prng-1-w4-p2,30_issda-2000,2000,first-2000,800,40,rng,num-start-1200,1200,25726,classic,4165.165042638779,True,,False,1.0,1.0,1.0,1,"['2', '4', '6', '7', '10', '12', '15', '17', '18', '20', '22', '27', '32', '37', '38', '39', '41', '42', '48', '53', '55', '58', '62', '65', '66', '70', '71', '73', '76', '77', '79', '80', '83', '84', '85', '88', '89', '92', '95', '97', '106', '109', '110', '114', '121', '122', '124', '126', '127', '128', '131', '136', '137', '138', '139', '142', '147', '153', '154', '156', '158', '159', '160', '162', '164', '167', '168', '170', '171', '175', '176', '178', '182', '183', '185', '188', '189', '191', '192', '195', '199', '202', '207', '212', '213', '218', '220', '227', '232', '233', '234', '235', '238', '240', '243', '248', '250', '251', '262', '267', '272', '273', '280', '283', '285', '289', '291', '295', '297', '298', '305', '306', '307', '313', '314', '316', '318', '320', '321', '322', '323', '325', '326', '331', '332', '334', '335', '338', '339', '340', '341', '343', '345', '346', '348', '349', '353', '354', '355', '358', '359', '362', '363', '364', '365', '368', '370', '374', '377', '380', '385', '392', '393', '397', '400', '401', '402', '405', '407', '411', '412', '414', '416', '418', '421', '425', '426', '427', '431', '432', '433', '434', '435', '437', '440', '441', '442', '443', '448', '449', '453', '455', '456', '464', '469', '470', '472', '474', '475', '476', '478', '479', '484', '487', '489', '496', '497', '501', '503', '507', '510', '511', '512', '513', '515', '516', '519', '520', '521', '524', '525', '527', '528', '529', '530', '532', '534', '536', '537', '538', '540', '550', '552', '555', '557', '562', '566', '567', '569', '571', '573', '574', '575', '580', '582', '585', '586', '589', '591', '592', '593', '594', '595', '596', '598', '599', '600', '601', '607', '609', '611', '612', '613', '615', '616', '620', '621', '622', '623', '625', '626', '630', '632', '635', '638', '639', '640', '641', '642', '645', '646', '648', '649', '657', '658', '659', '660', '661', '662', '663', '666', '669', '670', '673', '676', '678', '679', '689', '690', '692', '694', '695', '697', '698', '703', '707', '711', '712', '718', '724', '729', '731', '732', '736', '737', '738', '742', '743', '745', '747', '748', '750', '753', '762', '763', '770', '778', '781', '782', '793', '794', '795', '796', '800', '802', '803', '804', '809', '811', '812', '815', '820', '821', '823', '825', '826', '827', '828', '832', '834', '839', '841', '843', '844', '845', '846', '847', '848', '850', '852', '855', '861', '863', '866', '867', '868', '869', '877', '881', '883', '888', '889', '893', '896', '898', '899', '900', '901', '903', '904', '906', '909', '910', '925', '926', '927', '930', '932', '934', '939', '940', '941', '948', '952', '957', '966', '968', '970', '973', '976', '977', '978', '979', '980', '981', '982', '991', '992', '997', '1002', '1004', '1005', '1008', '1012', '1013', '1015', '1017', '1021', '1022', '1023', '1030', '1037', '1038', '1040', '1042', '1043', '1044', '1046', '1047', '1048', '1050', '1055', '1063', '1064', '1066', '1067', '1072', '1074', '1077', '1078', '1079', '1080', '1082', '1084', '1085', '1087', '1091', '1095', '1100', '1101', '1103', '1107', '1110', '1113', '1115', '1117', '1118', '1119', '1121', '1122', '1126', '1128', '1132', '1134', '1144', '1147', '1149', '1150', '1152', '1158', '1164', '1166', '1167', '1168', '1171', '1173', '1174', '1176', '1180', '1186', '1192', '1193', '1194', '1197', '1203', '1205', '1206', '1211', '1218', '1220', '1223', '1225', '1227', '1230', '1231', '1233', '1237', '1239', '1241', '1243', '1246', '1248', '1249', '1250', '1256', '1260', '1261', '1265', '1266', '1269', '1270', '1271', '1272', '1275', '1277', '1281', '1283', '1284', '1285', '1286', '1288', '1292', '1294', '1295', '1296', '1300', '1301', '1305', '1311', '1313', '1314', '1316', '1318', '1322', '1323', '1325', '1326', '1328', '1335', '1336', '1338', '1340', '1341', '1342', '1346', '1349', '1353', '1354', '1356', '1367', '1369', '1370', '1376', '1380', '1383', '1384', '1385', '1386', '1387', '1393', '1395', '1398', '1400', '1405', '1409', '1415', '1420', '1421', '1425', '1427', '1429', '1431', '1436', '1438', '1441', '1443', '1444', '1447', '1448', '1451', '1453', '1456', '1457', '1461', '1462', '1466', '1470', '1472', '1474', '1478', '1483', '1498', '1499', '1502', '1506', '1510', '1512', '1513', '1526', '1527', '1528', '1529', '1530', '1533', '1537', '1539', '1545', '1546', '1548', '1553', '1554', '1557', '1566', '1568', '1571', '1573', '1577', '1580', '1582', '1585', '1586', '1588', '1591', '1594', '1597', '1601', '1603', '1604', '1606', '1607', '1611', '1612', '1613', '1616', '1617', '1619', '1620', '1626', '1631', '1634', '1635', '1636', '1638', '1640', '1641', '1642', '1644', '1645', '1648', '1653', '1654', '1657', '1659', '1665', '1669', '1671', '1675', '1676', '1677', '1681', '1687', '1690', '1691', '1692', '1694', '1695', '1698', '1700', '1702', '1703', '1704', '1708', '1709', '1710', '1714', '1716', '1719', '1720', '1722', '1725', '1729', '1730', '1731', '1736', '1737', '1738', '1747', '1751', '1753', '1754', '1757', '1758', '1759', '1761', '1765', '1766', '1767', '1770', '1771', '1773', '1777', '1781', '1782', '1784', '1790', '1791', '1792', '1795', '1796', '1798', '1800', '1801', '1803', '1804', '1805', '1807', '1809', '1814', '1816', '1817', '1821', '1822', '1823', '1824', '1825', '1827', '1828', '1830', '1832', '1835', '1837', '1838', '1842', '1843', '1845', '1846', '1848', '1850', '1852', '1853', '1854', '1859', '1861', '1862', '1865', '1866', '1867', '1868', '1870', '1871', '1873', '1875', '1876', '1878', '1880', '1885', '1887', '1889', '1890', '1893', '1894', '1896', '1900', '1901', '1902', '1905', '1906', '1909', '1911', '1914', '1915', '1916', '1918', '1919', '1920', '1921', '1925', '1927', '1930', '1932', '1934', '1935', '1942', '1945', '1946', '1948', '1951', '1953', '1955', '1956', '1957', '1959', '1965', '1966', '1967', '1968', '1970', '1972', '1976', '1977', '1979', '1984', '1986', '1988', '1989', '1991', '1994', '1995', '1997', '1998']",True,4000,True,2,d9c7c3a556,0.0,0.0,1.0
