expe,clients,clients_size,clients_subset,agg_size,agg_size_pc,method,days,days_size,days_total,noise_method,time,valid,valid_sum,success,score_avg,score_min,score_max,nsols,oracle,wall_hit,wall_time,pooled,pool_size,uuid,infeasible,optimal,valid_sums
./expes/v2_2021-03-27_issda-30_2000-prng-1-w4-p2,30_issda-2000,2000,first-2000,200,10,rng,num-start-1800,1800,25726,classic,919.8309540748596,True,,True,1.0,1.0,1.0,1,"['18', '44', '49', '52', '57', '66', '74', '84', '101', '116', '117', '121', '124', '139', '155', '170', '174', '188', '218', '236', '262', '280', '325', '331', '337', '341', '347', '353', '356', '362', '364', '373', '392', '426', '432', '435', '455', '465', '473', '484', '502', '511', '512', '516', '524', '545', '550', '560', '572', '622', '632', '634', '639', '653', '665', '666', '700', '719', '725', '737', '738', '740', '742', '743', '746', '751', '762', '765', '779', '806', '819', '833', '850', '867', '868', '883', '912', '913', '932', '936', '945', '953', '983', '997', '1002', '1004', '1021', '1026', '1029', '1033', '1040', '1043', '1045', '1049', '1053', '1056', '1061', '1070', '1076', '1077', '1087', '1115', '1142', '1147', '1148', '1152', '1163', '1177', '1191', '1205', '1212', '1216', '1241', '1243', '1262', '1263', '1277', '1308', '1335', '1338', '1342', '1350', '1356', '1372', '1378', '1382', '1396', '1398', '1402', '1433', '1447', '1465', '1469', '1481', '1483', '1487', '1494', '1497', '1505', '1508', '1513', '1526', '1545', '1556', '1563', '1584', '1607', '1618', '1631', '1632', '1637', '1646', '1657', '1666', '1669', '1670', '1681', '1690', '1703', '1711', '1712', '1739', '1749', '1760', '1762', '1768', '1784', '1794', '1796', '1804', '1807', '1809', '1811', '1827', '1831', '1840', '1843', '1846', '1850', '1857', '1859', '1860', '1861', '1867', '1876', '1882', '1885', '1895', '1909', '1914', '1917', '1927', '1933', '1942', '1945', '1955', '1956', '1958', '1961', '1970']",False,4000,True,2,67d358391b,0.0,1.0,1.0
./expes/v2_2021-03-27_issda-30_2000-prng-1-w4-p2,30_issda-2000,2000,first-2000,600,30,rng,num-start-2400,2400,25726,classic,2198.8389406204224,True,,True,1.0,1.0,1.0,1,"['6', '8', '10', '16', '17', '19', '24', '31', '32', '35', '36', '39', '49', '59', '60', '63', '64', '70', '75', '80', '85', '87', '89', '91', '98', '99', '112', '113', '115', '116', '121', '122', '124', '127', '128', '132', '134', '135', '138', '141', '145', '150', '151', '152', '161', '162', '168', '174', '183', '187', '190', '198', '202', '204', '205', '206', '222', '223', '231', '237', '239', '240', '247', '248', '249', '252', '256', '264', '267', '270', '282', '285', '288', '292', '295', '296', '298', '301', '302', '306', '311', '312', '315', '319', '321', '322', '324', '325', '328', '330', '331', '335', '337', '341', '344', '347', '348', '349', '351', '353', '355', '361', '367', '368', '376', '379', '383', '401', '402', '421', '423', '428', '436', '438', '440', '441', '444', '449', '450', '451', '453', '454', '456', '458', '462', '463', '467', '469', '470', '474', '475', '476', '479', '481', '482', '490', '491', '493', '497', '500', '507', '511', '514', '515', '516', '521', '523', '524', '526', '533', '535', '536', '537', '540', '553', '556', '558', '560', '562', '575', '587', '588', '589', '595', '606', '607', '620', '623', '626', '628', '636', '638', '639', '642', '645', '646', '649', '652', '653', '659', '660', '661', '663', '666', '674', '676', '677', '678', '679', '680', '681', '683', '685', '686', '688', '689', '691', '693', '694', '697', '702', '704', '705', '706', '712', '713', '723', '724', '725', '728', '729', '732', '736', '738', '740', '753', '755', '756', '760', '763', '771', '775', '778', '781', '789', '793', '796', '797', '799', '800', '804', '807', '810', '815', '818', '823', '825', '829', '830', '831', '835', '836', '849', '855', '857', '860', '862', '864', '867', '874', '878', '883', '886', '889', '890', '894', '900', '901', '903', '905', '906', '910', '912', '913', '920', '922', '923', '924', '926', '931', '933', '939', '942', '945', '947', '951', '955', '956', '957', '958', '959', '960', '963', '964', '970', '972', '974', '976', '981', '983', '986', '987', '988', '992', '995', '1003', '1005', '1008', '1009', '1012', '1014', '1015', '1017', '1020', '1021', '1022', '1024', '1025', '1027', '1029', '1036', '1037', '1039', '1041', '1046', '1048', '1050', '1057', '1061', '1062', '1064', '1065', '1066', '1068', '1071', '1085', '1086', '1089', '1094', '1097', '1098', '1114', '1115', '1119', '1122', '1124', '1127', '1130', '1135', '1137', '1141', '1147', '1157', '1158', '1161', '1167', '1168', '1169', '1170', '1172', '1178', '1180', '1183', '1186', '1191', '1196', '1197', '1199', '1202', '1203', '1209', '1216', '1220', '1222', '1225', '1236', '1239', '1251', '1254', '1257', '1258', '1260', '1263', '1265', '1267', '1271', '1275', '1280', '1283', '1286', '1288', '1293', '1300', '1302', '1303', '1307', '1314', '1322', '1323', '1324', '1325', '1328', '1329', '1330', '1336', '1342', '1343', '1344', '1346', '1349', '1350', '1352', '1357', '1362', '1363', '1370', '1371', '1376', '1379', '1386', '1387', '1388', '1390', '1396', '1398', '1402', '1404', '1410', '1412', '1414', '1415', '1417', '1419', '1422', '1423', '1425', '1427', '1428', '1436', '1438', '1445', '1450', '1451', '1454', '1459', '1472', '1473', '1476', '1477', '1478', '1482', '1483', '1486', '1489', '1493', '1506', '1508', '1511', '1515', '1518', '1520', '1522', '1524', '1526', '1527', '1537', '1538', '1539', '1544', '1547', '1551', '1554', '1557', '1558', '1572', '1574', '1581', '1585', '1586', '1592', '1593', '1595', '1602', '1604', '1606', '1608', '1615', '1616', '1623', '1625', '1627', '1631', '1634', '1636', '1637', '1640', '1645', '1646', '1648', '1649', '1650', '1651', '1659', '1660', '1662', '1667', '1681', '1683', '1686', '1690', '1695', '1701', '1711', '1716', '1717', '1718', '1721', '1722', '1724', '1728', '1729', '1735', '1736', '1737', '1743', '1748', '1749', '1752', '1753', '1756', '1757', '1763', '1768', '1769', '1773', '1776', '1777', '1780', '1781', '1783', '1787', '1792', '1793', '1797', '1800', '1802', '1806', '1809', '1812', '1813', '1816', '1817', '1823', '1827', '1829', '1830', '1831', '1842', '1847', '1848', '1854', '1857', '1858', '1859', '1862', '1863', '1867', '1870', '1874', '1877', '1884', '1886', '1888', '1889', '1890', '1893', '1895', '1896', '1900', '1901', '1906', '1908', '1913', '1914', '1915', '1916', '1918', '1922', '1927', '1935', '1936', '1938', '1940', '1942', '1945', '1947', '1948', '1950', '1953', '1958', '1965', '1967', '1971', '1977', '1981', '1982', '1983', '1987', '1992', '2000']",False,4000,True,2,325b1a293b,0.0,1.0,1.0
./expes/v2_2021-03-27_issda-30_2000-prng-1-w4-p2,30_issda-2000,2000,first-2000,600,30,rng,num-start-1200,1200,25726,classic,4160.922203302383,True,,False,1.0,1.0,1.0,1,"['1', '2', '4', '10', '16', '21', '22', '31', '32', '36', '40', '41', '43', '49', '52', '53', '57', '58', '60', '63', '65', '72', '82', '83', '88', '92', '95', '98', '103', '105', '106', '112', '114', '122', '123', '127', '128', '133', '137', '140', '141', '143', '144', '149', '153', '154', '158', '166', '167', '171', '184', '185', '186', '191', '194', '195', '196', '199', '201', '203', '210', '212', '214', '218', '219', '220', '227', '229', '230', '231', '232', '234', '235', '236', '243', '244', '245', '247', '249', '250', '252', '253', '258', '264', '267', '270', '273', '274', '277', '281', '289', '294', '300', '301', '307', '314', '316', '325', '330', '332', '338', '339', '345', '349', '350', '352', '353', '358', '360', '364', '366', '372', '374', '377', '387', '388', '389', '395', '397', '400', '403', '405', '407', '408', '409', '411', '415', '416', '419', '420', '421', '426', '429', '434', '438', '443', '444', '447', '455', '456', '458', '461', '463', '464', '468', '469', '472', '473', '480', '483', '484', '496', '498', '500', '501', '502', '505', '506', '507', '509', '510', '513', '516', '517', '519', '522', '523', '524', '525', '526', '530', '534', '539', '540', '542', '545', '547', '555', '556', '558', '560', '562', '564', '571', '575', '576', '577', '578', '579', '580', '597', '601', '606', '607', '608', '616', '617', '620', '621', '625', '626', '629', '634', '637', '640', '644', '647', '650', '652', '661', '680', '683', '684', '687', '691', '694', '696', '697', '703', '709', '712', '714', '718', '720', '722', '724', '726', '729', '734', '739', '740', '745', '746', '748', '749', '751', '754', '755', '756', '764', '771', '772', '777', '780', '783', '784', '787', '788', '791', '792', '795', '805', '807', '808', '813', '815', '825', '827', '831', '833', '844', '856', '858', '864', '866', '867', '869', '871', '873', '874', '880', '886', '893', '896', '898', '899', '904', '905', '907', '912', '913', '917', '921', '922', '925', '927', '929', '932', '933', '942', '944', '956', '960', '961', '962', '963', '965', '969', '972', '974', '975', '977', '984', '987', '992', '993', '994', '996', '997', '998', '1000', '1002', '1005', '1015', '1020', '1025', '1026', '1035', '1038', '1039', '1041', '1048', '1049', '1053', '1058', '1065', '1068', '1069', '1073', '1077', '1080', '1082', '1086', '1092', '1094', '1095', '1096', '1098', '1103', '1107', '1109', '1110', '1111', '1113', '1116', '1117', '1119', '1124', '1130', '1134', '1138', '1140', '1142', '1143', '1144', '1147', '1150', '1161', '1166', '1167', '1171', '1182', '1184', '1186', '1192', '1195', '1197', '1201', '1205', '1206', '1207', '1211', '1216', '1218', '1219', '1220', '1221', '1232', '1234', '1237', '1240', '1245', '1249', '1255', '1261', '1262', '1279', '1281', '1283', '1285', '1287', '1294', '1296', '1298', '1301', '1304', '1306', '1313', '1315', '1318', '1321', '1322', '1323', '1324', '1325', '1327', '1331', '1335', '1336', '1339', '1345', '1346', '1349', '1351', '1356', '1360', '1363', '1365', '1369', '1374', '1377', '1379', '1383', '1386', '1393', '1394', '1395', '1396', '1398', '1402', '1404', '1406', '1407', '1416', '1418', '1427', '1437', '1439', '1440', '1441', '1442', '1444', '1446', '1454', '1464', '1466', '1471', '1472', '1478', '1484', '1485', '1486', '1504', '1506', '1514', '1515', '1516', '1517', '1519', '1525', '1527', '1530', '1539', '1540', '1541', '1546', '1547', '1551', '1557', '1560', '1564', '1565', '1567', '1575', '1577', '1578', '1584', '1585', '1587', '1588', '1593', '1597', '1602', '1603', '1607', '1608', '1613', '1621', '1623', '1626', '1627', '1632', '1634', '1635', '1648', '1651', '1652', '1654', '1655', '1656', '1660', '1664', '1668', '1676', '1680', '1682', '1685', '1686', '1687', '1688', '1691', '1694', '1696', '1697', '1698', '1701', '1711', '1720', '1724', '1737', '1739', '1740', '1741', '1748', '1750', '1752', '1756', '1761', '1762', '1765', '1768', '1770', '1771', '1772', '1773', '1776', '1784', '1786', '1788', '1791', '1792', '1795', '1800', '1802', '1807', '1810', '1815', '1816', '1819', '1821', '1835', '1836', '1837', '1840', '1841', '1842', '1845', '1846', '1847', '1848', '1852', '1853', '1861', '1862', '1864', '1875', '1877', '1879', '1886', '1888', '1896', '1902', '1908', '1910', '1911', '1912', '1913', '1914', '1917', '1918', '1924', '1926', '1930', '1932', '1934', '1938', '1946', '1950', '1951', '1959', '1965', '1967', '1968', '1974', '1983', '1990', '1991', '1993', '1995', '2000']",True,4000,True,2,a54a6fc5f9,0.0,0.0,1.0
./expes/v2_2021-03-27_issda-30_2000-prng-1-w4-p2,30_issda-2000,2000,first-2000,900,45,rng,num-start-4000,4000,25726,classic,4096.609826564789,True,,True,1.0,1.0,1.0,1,"['2', '4', '6', '7', '10', '12', '15', '17', '18', '20', '22', '27', '32', '37', '38', '39', '41', '42', '44', '47', '48', '53', '55', '56', '58', '61', '62', '65', '66', '70', '71', '72', '73', '75', '76', '77', '78', '79', '80', '83', '84', '85', '88', '89', '92', '95', '97', '102', '106', '109', '110', '112', '114', '118', '121', '122', '124', '126', '127', '128', '131', '136', '137', '138', '139', '142', '147', '153', '154', '156', '158', '159', '160', '161', '162', '164', '167', '168', '170', '171', '175', '176', '178', '182', '183', '185', '188', '189', '191', '192', '195', '196', '199', '202', '207', '212', '213', '214', '218', '220', '227', '230', '232', '233', '234', '235', '236', '238', '240', '242', '243', '248', '250', '251', '262', '267', '272', '273', '280', '283', '284', '285', '286', '289', '291', '295', '297', '298', '305', '306', '307', '309', '313', '314', '316', '318', '320', '321', '322', '323', '325', '326', '329', '331', '332', '333', '334', '335', '336', '338', '339', '340', '341', '343', '345', '346', '348', '349', '352', '353', '354', '355', '358', '359', '362', '363', '364', '365', '368', '370', '371', '372', '374', '377', '379', '380', '385', '391', '392', '393', '397', '399', '400', '401', '402', '405', '407', '409', '411', '412', '414', '416', '418', '421', '423', '425', '426', '427', '431', '432', '433', '434', '435', '436', '437', '440', '441', '442', '443', '448', '449', '450', '453', '455', '456', '460', '464', '469', '470', '472', '474', '475', '476', '478', '479', '484', '487', '488', '489', '494', '496', '497', '501', '503', '507', '510', '511', '512', '513', '515', '516', '519', '520', '521', '524', '525', '527', '528', '529', '530', '532', '534', '536', '537', '538', '539', '540', '550', '552', '555', '557', '562', '566', '567', '569', '571', '573', '574', '575', '580', '582', '585', '586', '589', '591', '592', '593', '594', '595', '596', '598', '599', '600', '601', '606', '607', '608', '609', '611', '612', '613', '615', '616', '620', '621', '622', '623', '625', '626', '628', '630', '632', '635', '638', '639', '640', '641', '642', '645', '646', '648', '649', '657', '658', '659', '660', '661', '662', '663', '665', '666', '669', '670', '673', '676', '677', '678', '679', '682', '689', '690', '692', '694', '695', '697', '698', '703', '705', '707', '711', '712', '714', '718', '719', '724', '729', '731', '732', '734', '736', '737', '738', '742', '743', '745', '747', '748', '750', '753', '762', '763', '770', '778', '781', '782', '784', '786', '793', '794', '795', '796', '800', '802', '803', '804', '805', '809', '811', '812', '815', '820', '821', '823', '825', '826', '827', '828', '832', '834', '839', '841', '843', '844', '845', '846', '847', '848', '850', '852', '855', '857', '861', '863', '866', '867', '868', '869', '877', '881', '883', '888', '889', '893', '895', '896', '898', '899', '900', '901', '903', '904', '906', '909', '910', '915', '917', '925', '926', '927', '930', '932', '934', '939', '940', '941', '948', '950', '952', '957', '966', '968', '970', '973', '976', '977', '978', '979', '980', '981', '982', '987', '991', '992', '997', '1002', '1004', '1005', '1008', '1012', '1013', '1015', '1016', '1017', '1019', '1021', '1022', '1023', '1030', '1037', '1038', '1040', '1042', '1043', '1044', '1046', '1047', '1048', '1050', '1055', '1063', '1064', '1066', '1067', '1072', '1074', '1077', '1078', '1079', '1080', '1082', '1084', '1085', '1087', '1091', '1095', '1097', '1100', '1101', '1103', '1107', '1108', '1109', '1110', '1113', '1115', '1117', '1118', '1119', '1121', '1122', '1126', '1128', '1132', '1134', '1144', '1147', '1149', '1150', '1152', '1158', '1162', '1164', '1166', '1167', '1168', '1171', '1173', '1174', '1176', '1180', '1186', '1192', '1193', '1194', '1197', '1199', '1203', '1205', '1206', '1211', '1216', '1218', '1220', '1223', '1224', '1225', '1227', '1228', '1229', '1230', '1231', '1232', '1233', '1237', '1239', '1241', '1243', '1246', '1248', '1249', '1250', '1256', '1260', '1261', '1265', '1266', '1269', '1270', '1271', '1272', '1274', '1275', '1277', '1280', '1281', '1283', '1284', '1285', '1286', '1288', '1292', '1294', '1295', '1296', '1300', '1301', '1305', '1311', '1313', '1314', '1316', '1318', '1322', '1323', '1325', '1326', '1328', '1335', '1336', '1338', '1340', '1341', '1342', '1346', '1349', '1353', '1354', '1356', '1367', '1369', '1370', '1373', '1376', '1379', '1380', '1383', '1384', '1385', '1386', '1387', '1388', '1393', '1395', '1398', '1400', '1402', '1405', '1409', '1414', '1415', '1420', '1421', '1425', '1427', '1429', '1430', '1431', '1436', '1438', '1441', '1443', '1444', '1447', '1448', '1451', '1453', '1456', '1457', '1461', '1462', '1466', '1467', '1470', '1472', '1473', '1474', '1478', '1483', '1485', '1498', '1499', '1500', '1502', '1506', '1508', '1510', '1512', '1513', '1523', '1524', '1526', '1527', '1528', '1529', '1530', '1533', '1537', '1539', '1545', '1546', '1548', '1549', '1553', '1554', '1557', '1566', '1568', '1571', '1573', '1577', '1578', '1580', '1582', '1585', '1586', '1588', '1591', '1594', '1597', '1601', '1603', '1604', '1606', '1607', '1611', '1612', '1613', '1616', '1617', '1619', '1620', '1626', '1631', '1634', '1635', '1636', '1638', '1640', '1641', '1642', '1643', '1644', '1645', '1648', '1653', '1654', '1657', '1659', '1665', '1669', '1671', '1675', '1676', '1677', '1681', '1687', '1690', '1691', '1692', '1694', '1695', '1698', '1700', '1702', '1703', '1704', '1708', '1709', '1710', '1711', '1714', '1716', '1718', '1719', '1720', '1722', '1725', '1727', '1729', '1730', '1731', '1735', '1736', '1737', '1738', '1747', '1751', '1753', '1754', '1757', '1758', '1759', '1761', '1765', '1766', '1767', '1770', '1771', '1773', '1777', '1781', '1782', '1784', '1790', '1791', '1792', '1795', '1796', '1798', '1800', '1801', '1803', '1804', '1805', '1807', '1809', '1814', '1816', '1817', '1821', '1822', '1823', '1824', '1825', '1827', '1828', '1830', '1832', '1833', '1835', '1837', '1838', '1842', '1843', '1845', '1846', '1848', '1850', '1851', '1852', '1853', '1854', '1858', '1859', '1861', '1862', '1865', '1866', '1867', '1868', '1870', '1871', '1873', '1875', '1876', '1878', '1880', '1882', '1885', '1887', '1889', '1890', '1893', '1894', '1896', '1900', '1901', '1902', '1903', '1905', '1906', '1909', '1911', '1914', '1915', '1916', '1918', '1919', '1920', '1921', '1922', '1924', '1925', '1927', '1928', '1930', '1932', '1934', '1935', '1942', '1945', '1946', '1947', '1948', '1949', '1951', '1953', '1955', '1956', '1957', '1959', '1965', '1966', '1967', '1968', '1970', '1972', '1976', '1977', '1979', '1984', '1986', '1988', '1989', '1990', '1991', '1994', '1995', '1997', '1998']",False,4000,True,2,3ac31ab1f9,0.0,1.0,1.0
./expes/v2_2021-03-27_issda-30_2000-prng-1-w4-p2,30_issda-2000,2000,first-2000,300,15,rng,num-start-2200,2200,25726,classic,1893.9615485668182,True,,True,1.0,1.0,1.0,1,"['4', '7', '11', '19', '24', '27', '38', '45', '47', '60', '66', '68', '71', '76', '96', '100', '107', '115', '117', '121', '130', '134', '136', '148', '161', '166', '183', '187', '189', '209', '219', '222', '231', '232', '244', '260', '268', '271', '272', '285', '290', '299', '301', '304', '305', '306', '322', '327', '331', '340', '341', '346', '347', '361', '364', '366', '368', '369', '371', '373', '379', '403', '404', '408', '420', '425', '427', '429', '442', '444', '487', '504', '505', '511', '513', '514', '524', '525', '541', '543', '558', '561', '562', '565', '573', '576', '592', '593', '597', '602', '604', '606', '612', '618', '627', '628', '634', '635', '640', '643', '647', '649', '651', '668', '680', '685', '693', '694', '697', '698', '705', '706', '727', '728', '729', '733', '735', '740', '743', '745', '750', '753', '762', '764', '771', '773', '780', '785', '798', '827', '828', '832', '836', '848', '850', '858', '862', '864', '887', '890', '912', '928', '929', '934', '947', '948', '949', '954', '961', '963', '968', '972', '982', '985', '986', '991', '995', '1000', '1008', '1011', '1023', '1025', '1030', '1050', '1051', '1056', '1070', '1075', '1086', '1090', '1093', '1105', '1114', '1117', '1121', '1123', '1125', '1146', '1156', '1176', '1185', '1190', '1201', '1204', '1208', '1217', '1221', '1231', '1236', '1251', '1265', '1266', '1271', '1276', '1278', '1282', '1284', '1285', '1292', '1308', '1330', '1331', '1334', '1336', '1360', '1369', '1376', '1389', '1405', '1411', '1412', '1415', '1423', '1427', '1439', '1443', '1444', '1450', '1467', '1475', '1477', '1495', '1498', '1499', '1516', '1517', '1520', '1533', '1536', '1548', '1556', '1561', '1569', '1577', '1585', '1587', '1589', '1590', '1600', '1602', '1610', '1614', '1629', '1633', '1636', '1642', '1673', '1675', '1677', '1679', '1684', '1693', '1711', '1718', '1722', '1723', '1724', '1731', '1745', '1746', '1761', '1777', '1778', '1779', '1785', '1787', '1795', '1829', '1831', '1837', '1846', '1848', '1877', '1881', '1889', '1892', '1893', '1904', '1917', '1920', '1924', '1928', '1930', '1931', '1932', '1937', '1945', '1946', '1955', '1957', '1960', '1966', '1967', '1970', '1977', '1980', '1984', '1992', '1998', '1999']",False,4000,True,2,576f799af7,0.0,1.0,1.0
./expes/v2_2021-03-27_issda-30_2000-prng-1-w4-p2,30_issda-2000,2000,first-2000,600,30,rng,num-start-3800,3800,25726,classic,3549.5992770195007,True,,True,1.0,1.0,1.0,1,"['1', '6', '10', '11', '13', '20', '21', '22', '26', '27', '31', '35', '38', '42', '45', '58', '59', '62', '63', '64', '66', '67', '68', '70', '76', '78', '82', '93', '94', '103', '104', '106', '107', '111', '117', '121', '122', '123', '126', '128', '131', '140', '142', '152', '153', '154', '156', '157', '159', '166', '170', '172', '176', '180', '181', '183', '184', '190', '191', '192', '193', '197', '200', '206', '215', '216', '223', '230', '234', '235', '240', '245', '246', '253', '258', '260', '261', '263', '272', '273', '276', '278', '280', '281', '283', '286', '292', '296', '297', '299', '303', '306', '308', '310', '312', '317', '323', '324', '329', '330', '334', '335', '337', '346', '347', '353', '355', '361', '362', '365', '373', '374', '377', '380', '381', '385', '386', '387', '394', '395', '396', '397', '398', '402', '404', '406', '408', '412', '414', '429', '430', '439', '442', '454', '457', '458', '461', '462', '464', '472', '475', '476', '479', '489', '493', '498', '499', '502', '503', '512', '513', '515', '516', '519', '522', '523', '524', '525', '536', '541', '544', '545', '549', '552', '554', '557', '559', '560', '562', '565', '567', '569', '574', '577', '586', '588', '593', '596', '597', '598', '602', '613', '622', '624', '625', '627', '640', '649', '652', '655', '656', '663', '667', '675', '678', '682', '688', '689', '692', '698', '704', '705', '718', '732', '738', '739', '740', '741', '742', '744', '745', '747', '751', '752', '753', '759', '760', '761', '763', '765', '768', '771', '773', '774', '778', '779', '780', '781', '787', '788', '792', '796', '798', '806', '815', '816', '819', '834', '835', '838', '840', '841', '844', '848', '856', '859', '864', '865', '867', '870', '872', '874', '879', '881', '883', '887', '893', '897', '901', '903', '904', '909', '910', '912', '914', '916', '919', '921', '925', '926', '939', '948', '950', '951', '957', '961', '964', '965', '968', '969', '971', '973', '978', '979', '981', '982', '984', '991', '994', '995', '996', '997', '999', '1000', '1001', '1002', '1007', '1008', '1013', '1018', '1019', '1024', '1025', '1029', '1030', '1032', '1039', '1052', '1055', '1059', '1060', '1065', '1066', '1070', '1075', '1076', '1077', '1078', '1080', '1081', '1088', '1097', '1102', '1103', '1105', '1107', '1109', '1112', '1114', '1118', '1121', '1129', '1130', '1134', '1143', '1144', '1147', '1149', '1154', '1155', '1156', '1158', '1165', '1166', '1167', '1173', '1175', '1176', '1180', '1187', '1198', '1202', '1205', '1206', '1207', '1208', '1210', '1213', '1214', '1217', '1220', '1224', '1233', '1234', '1236', '1239', '1243', '1246', '1250', '1254', '1257', '1262', '1263', '1266', '1267', '1269', '1271', '1275', '1278', '1281', '1282', '1284', '1287', '1289', '1293', '1298', '1300', '1301', '1306', '1308', '1310', '1315', '1320', '1321', '1322', '1323', '1324', '1328', '1333', '1334', '1340', '1343', '1345', '1351', '1355', '1356', '1358', '1366', '1369', '1373', '1375', '1380', '1385', '1387', '1390', '1391', '1394', '1395', '1397', '1401', '1405', '1409', '1414', '1415', '1416', '1418', '1421', '1422', '1423', '1425', '1430', '1433', '1436', '1437', '1438', '1446', '1451', '1457', '1460', '1462', '1463', '1465', '1468', '1472', '1473', '1478', '1480', '1483', '1484', '1493', '1494', '1495', '1499', '1505', '1514', '1516', '1522', '1526', '1527', '1529', '1537', '1539', '1543', '1548', '1551', '1553', '1555', '1556', '1557', '1562', '1563', '1564', '1568', '1572', '1574', '1578', '1585', '1591', '1592', '1594', '1595', '1596', '1598', '1603', '1606', '1611', '1613', '1620', '1621', '1625', '1629', '1631', '1632', '1639', '1643', '1646', '1649', '1650', '1651', '1652', '1656', '1658', '1663', '1667', '1671', '1672', '1673', '1676', '1684', '1696', '1697', '1701', '1703', '1705', '1706', '1709', '1715', '1718', '1722', '1725', '1730', '1731', '1741', '1748', '1751', '1752', '1758', '1760', '1765', '1770', '1773', '1781', '1782', '1783', '1785', '1787', '1795', '1801', '1803', '1809', '1813', '1819', '1822', '1828', '1830', '1831', '1842', '1843', '1849', '1853', '1860', '1862', '1863', '1865', '1867', '1870', '1871', '1877', '1883', '1884', '1887', '1889', '1891', '1893', '1898', '1899', '1900', '1902', '1903', '1911', '1914', '1919', '1922', '1925', '1927', '1933', '1936', '1941', '1942', '1943', '1946', '1948', '1949', '1950', '1954', '1963', '1971', '1976', '1977', '1978', '1979', '1984', '1985', '1987', '1989', '1990', '1992', '1995', '1997', '2000']",False,4000,True,2,a2f8e3a1f3,0.0,1.0,1.0
./expes/v2_2021-03-27_issda-30_2000-prng-1-w4-p2,30_issda-2000,2000,first-2000,100,5,rng,num-start-1000,1000,25726,classic,480.2750971317291,True,,True,1.0,1.0,1.0,1,"['24', '35', '36', '39', '75', '98', '113', '135', '151', '162', '205', '239', '240', '288', '302', '311', '324', '353', '401', '423', '428', '458', '469', '474', '490', '491', '540', '575', '587', '606', '626', '642', '646', '693', '706', '728', '729', '738', '753', '804', '810', '823', '830', '860', '862', '900', '923', '933', '945', '956', '960', '1003', '1005', '1014', '1048', '1068', '1086', '1094', '1137', '1157', '1167', '1183', '1258', '1323', '1396', '1415', '1422', '1423', '1451', '1473', '1486', '1489', '1508', '1592', '1608', '1634', '1637', '1649', '1659', '1718', '1722', '1729', '1753', '1756', '1757', '1769', '1792', '1802', '1817', '1827', '1870', '1888', '1890', '1895', '1906', '1915', '1922', '1936', '1965', '1977']",False,4000,True,2,99f5f9e0ce,0.0,1.0,1.0
./expes/v2_2021-03-27_issda-30_2000-prng-1-w4-p2,30_issda-2000,2000,first-2000,900,45,rng,num-start-1400,1400,25726,classic,4185.831328630447,True,,False,1.0,1.0,1.0,1,"['1', '3', '4', '6', '7', '10', '11', '13', '20', '21', '22', '24', '25', '26', '27', '29', '31', '35', '38', '40', '42', '45', '49', '54', '56', '58', '59', '61', '62', '63', '64', '66', '67', '68', '70', '71', '73', '76', '78', '82', '85', '93', '94', '103', '104', '105', '106', '107', '111', '112', '116', '117', '118', '120', '121', '122', '123', '125', '126', '128', '130', '131', '133', '137', '140', '142', '143', '145', '147', '152', '153', '154', '156', '157', '159', '160', '161', '166', '170', '172', '176', '178', '180', '181', '183', '184', '185', '186', '190', '191', '192', '193', '194', '197', '200', '203', '206', '208', '209', '213', '214', '215', '216', '220', '223', '225', '227', '229', '230', '232', '233', '234', '235', '236', '240', '244', '245', '246', '248', '252', '253', '256', '258', '260', '261', '262', '263', '270', '272', '273', '276', '277', '278', '280', '281', '283', '286', '291', '292', '296', '297', '299', '302', '303', '306', '308', '309', '310', '312', '315', '316', '317', '318', '323', '324', '325', '329', '330', '333', '334', '335', '337', '346', '347', '349', '352', '353', '355', '359', '360', '361', '362', '364', '365', '368', '369', '373', '374', '376', '377', '379', '380', '381', '385', '386', '387', '391', '394', '395', '396', '397', '398', '402', '403', '404', '406', '407', '408', '412', '414', '418', '429', '430', '436', '439', '442', '443', '446', '449', '450', '453', '454', '457', '458', '461', '462', '463', '464', '472', '475', '476', '477', '479', '489', '493', '498', '499', '500', '501', '502', '503', '512', '513', '515', '516', '517', '519', '522', '523', '524', '525', '527', '536', '539', '540', '541', '542', '544', '545', '549', '552', '554', '557', '559', '560', '562', '563', '565', '567', '569', '570', '574', '577', '580', '586', '588', '593', '594', '596', '597', '598', '602', '603', '604', '613', '616', '620', '622', '623', '624', '625', '627', '634', '636', '640', '646', '649', '652', '655', '656', '657', '662', '663', '667', '671', '672', '674', '675', '678', '681', '682', '688', '689', '692', '693', '698', '704', '705', '709', '711', '717', '718', '719', '720', '721', '732', '736', '738', '739', '740', '741', '742', '743', '744', '745', '746', '747', '751', '752', '753', '759', '760', '761', '763', '765', '767', '768', '771', '772', '773', '774', '778', '779', '780', '781', '787', '788', '792', '796', '798', '799', '802', '806', '813', '815', '816', '817', '818', '819', '827', '829', '832', '834', '835', '838', '840', '841', '843', '844', '848', '849', '856', '859', '860', '864', '865', '867', '870', '872', '873', '874', '878', '879', '881', '882', '883', '887', '889', '893', '894', '897', '899', '900', '901', '903', '904', '909', '910', '912', '913', '914', '916', '919', '921', '925', '926', '928', '930', '933', '934', '938', '939', '944', '948', '950', '951', '954', '957', '960', '961', '964', '965', '968', '969', '971', '973', '974', '975', '978', '979', '980', '981', '982', '983', '984', '986', '989', '991', '994', '995', '996', '997', '999', '1000', '1001', '1002', '1007', '1008', '1013', '1015', '1018', '1019', '1022', '1024', '1025', '1026', '1029', '1030', '1032', '1033', '1035', '1038', '1039', '1040', '1052', '1055', '1056', '1059', '1060', '1065', '1066', '1068', '1069', '1070', '1075', '1076', '1077', '1078', '1080', '1081', '1088', '1089', '1090', '1093', '1097', '1099', '1100', '1102', '1103', '1105', '1107', '1109', '1110', '1112', '1113', '1114', '1116', '1117', '1118', '1121', '1129', '1130', '1134', '1139', '1141', '1143', '1144', '1145', '1147', '1149', '1154', '1155', '1156', '1158', '1165', '1166', '1167', '1169', '1172', '1173', '1174', '1175', '1176', '1180', '1182', '1187', '1196', '1198', '1202', '1204', '1205', '1206', '1207', '1208', '1210', '1212', '1213', '1214', '1215', '1217', '1218', '1219', '1220', '1221', '1224', '1228', '1233', '1234', '1236', '1239', '1243', '1244', '1246', '1247', '1248', '1250', '1253', '1254', '1255', '1257', '1258', '1259', '1262', '1263', '1266', '1267', '1268', '1269', '1271', '1274', '1275', '1278', '1281', '1282', '1283', '1284', '1287', '1288', '1289', '1292', '1293', '1298', '1300', '1301', '1306', '1307', '1308', '1310', '1311', '1312', '1313', '1315', '1317', '1319', '1320', '1321', '1322', '1323', '1324', '1327', '1328', '1331', '1333', '1334', '1335', '1340', '1341', '1343', '1344', '1345', '1351', '1355', '1356', '1357', '1358', '1359', '1360', '1361', '1362', '1366', '1367', '1369', '1371', '1373', '1375', '1380', '1385', '1387', '1390', '1391', '1394', '1395', '1397', '1401', '1405', '1406', '1409', '1411', '1414', '1415', '1416', '1418', '1421', '1422', '1423', '1425', '1430', '1433', '1436', '1437', '1438', '1439', '1442', '1444', '1446', '1449', '1451', '1457', '1459', '1460', '1462', '1463', '1465', '1468', '1470', '1472', '1473', '1474', '1478', '1480', '1483', '1484', '1488', '1489', '1490', '1491', '1492', '1493', '1494', '1495', '1499', '1500', '1503', '1504', '1505', '1506', '1510', '1511', '1514', '1516', '1518', '1522', '1524', '1526', '1527', '1529', '1530', '1534', '1537', '1539', '1542', '1543', '1547', '1548', '1551', '1553', '1555', '1556', '1557', '1561', '1562', '1563', '1564', '1565', '1567', '1568', '1571', '1572', '1574', '1576', '1577', '1578', '1585', '1588', '1591', '1592', '1594', '1595', '1596', '1598', '1603', '1606', '1611', '1613', '1620', '1621', '1625', '1626', '1628', '1629', '1631', '1632', '1634', '1639', '1640', '1642', '1643', '1646', '1647', '1649', '1650', '1651', '1652', '1656', '1658', '1662', '1663', '1667', '1670', '1671', '1672', '1673', '1675', '1676', '1677', '1680', '1684', '1692', '1696', '1697', '1699', '1701', '1703', '1705', '1706', '1709', '1712', '1715', '1717', '1718', '1722', '1724', '1725', '1729', '1730', '1731', '1741', '1747', '1748', '1751', '1752', '1758', '1760', '1761', '1765', '1770', '1773', '1777', '1781', '1782', '1783', '1785', '1787', '1793', '1795', '1800', '1801', '1803', '1807', '1808', '1809', '1810', '1811', '1813', '1819', '1821', '1822', '1823', '1824', '1825', '1828', '1829', '1830', '1831', '1836', '1841', '1842', '1843', '1846', '1849', '1850', '1853', '1854', '1860', '1862', '1863', '1865', '1867', '1868', '1870', '1871', '1877', '1878', '1881', '1883', '1884', '1887', '1889', '1891', '1893', '1894', '1898', '1899', '1900', '1902', '1903', '1911', '1913', '1914', '1919', '1921', '1922', '1925', '1927', '1931', '1933', '1936', '1937', '1941', '1942', '1943', '1946', '1948', '1949', '1950', '1954', '1963', '1969', '1971', '1972', '1975', '1976', '1977', '1978', '1979', '1981', '1982', '1984', '1985', '1986', '1987', '1988', '1989', '1990', '1992', '1994', '1995', '1997', '1998', '2000']",True,4000,True,2,72fee40109,0.0,0.0,1.0
./expes/v2_2021-03-27_issda-30_2000-prng-1-w4-p2,30_issda-2000,2000,first-2000,600,30,rng,num-start-2200,2200,25726,classic,2323.9620871543884,True,,True,1.0,1.0,1.0,1,"['4', '7', '10', '12', '15', '20', '22', '27', '38', '41', '42', '48', '53', '55', '58', '65', '66', '71', '73', '76', '83', '84', '85', '88', '89', '92', '95', '97', '106', '109', '110', '114', '121', '122', '124', '127', '128', '136', '137', '138', '139', '142', '153', '154', '156', '158', '159', '160', '162', '164', '167', '168', '170', '175', '178', '182', '183', '185', '188', '191', '192', '195', '199', '202', '207', '212', '218', '227', '232', '233', '235', '238', '240', '243', '248', '250', '251', '262', '272', '273', '280', '285', '289', '291', '295', '298', '305', '306', '307', '314', '318', '320', '322', '323', '325', '326', '331', '332', '334', '335', '338', '339', '343', '346', '348', '353', '354', '358', '362', '364', '365', '368', '370', '374', '377', '385', '392', '393', '397', '400', '401', '402', '405', '407', '411', '414', '416', '421', '425', '426', '427', '432', '433', '440', '441', '442', '448', '449', '453', '455', '456', '469', '470', '472', '475', '478', '479', '484', '487', '489', '496', '497', '503', '507', '510', '511', '513', '515', '516', '519', '521', '527', '528', '529', '530', '532', '534', '536', '537', '538', '550', '552', '557', '566', '567', '569', '574', '575', '582', '585', '586', '591', '592', '593', '594', '595', '596', '598', '599', '600', '601', '607', '609', '613', '615', '616', '620', '621', '622', '625', '626', '635', '638', '639', '640', '642', '645', '646', '649', '657', '659', '662', '663', '666', '669', '670', '676', '678', '679', '690', '692', '694', '697', '703', '711', '712', '718', '729', '731', '732', '736', '738', '742', '743', '745', '747', '748', '750', '753', '762', '763', '781', '782', '794', '795', '796', '800', '803', '804', '809', '811', '812', '815', '820', '821', '823', '825', '826', '827', '828', '832', '839', '841', '843', '846', '848', '852', '855', '861', '863', '866', '868', '869', '877', '881', '883', '888', '889', '893', '898', '899', '900', '901', '903', '904', '906', '909', '910', '925', '926', '930', '932', '939', '940', '941', '948', '952', '957', '966', '968', '970', '977', '979', '981', '982', '991', '992', '997', '1002', '1004', '1005', '1008', '1013', '1015', '1017', '1022', '1037', '1038', '1042', '1048', '1050', '1063', '1066', '1067', '1072', '1074', '1077', '1078', '1079', '1082', '1084', '1085', '1095', '1100', '1101', '1103', '1107', '1110', '1113', '1115', '1117', '1119', '1121', '1122', '1126', '1128', '1144', '1149', '1150', '1152', '1158', '1164', '1166', '1167', '1171', '1173', '1174', '1176', '1180', '1192', '1193', '1194', '1197', '1205', '1206', '1218', '1220', '1223', '1227', '1231', '1237', '1241', '1243', '1246', '1249', '1250', '1256', '1260', '1261', '1265', '1266', '1269', '1271', '1272', '1275', '1277', '1283', '1284', '1285', '1286', '1288', '1292', '1296', '1300', '1301', '1305', '1311', '1313', '1316', '1323', '1326', '1328', '1335', '1336', '1338', '1340', '1341', '1346', '1353', '1354', '1356', '1367', '1369', '1376', '1380', '1383', '1384', '1386', '1387', '1393', '1395', '1405', '1409', '1420', '1425', '1429', '1436', '1441', '1444', '1448', '1451', '1456', '1457', '1461', '1466', '1470', '1478', '1499', '1506', '1510', '1526', '1527', '1528', '1529', '1530', '1539', '1546', '1548', '1554', '1557', '1568', '1571', '1573', '1577', '1580', '1582', '1585', '1586', '1588', '1591', '1594', '1597', '1603', '1604', '1606', '1607', '1611', '1612', '1613', '1619', '1620', '1626', '1631', '1634', '1635', '1636', '1638', '1640', '1641', '1642', '1645', '1648', '1653', '1654', '1657', '1659', '1665', '1669', '1675', '1676', '1677', '1692', '1694', '1695', '1698', '1700', '1702', '1703', '1710', '1714', '1716', '1720', '1722', '1731', '1736', '1737', '1738', '1747', '1751', '1753', '1754', '1757', '1759', '1761', '1765', '1766', '1770', '1771', '1773', '1777', '1781', '1782', '1784', '1790', '1791', '1795', '1798', '1800', '1801', '1803', '1805', '1807', '1809', '1814', '1816', '1822', '1825', '1827', '1828', '1832', '1835', '1837', '1838', '1842', '1843', '1845', '1846', '1848', '1852', '1853', '1854', '1859', '1862', '1865', '1867', '1870', '1871', '1875', '1876', '1878', '1880', '1885', '1889', '1890', '1893', '1894', '1896', '1900', '1901', '1902', '1905', '1915', '1918', '1919', '1921', '1925', '1927', '1930', '1932', '1934', '1935', '1942', '1945', '1948', '1953', '1956', '1959', '1965', '1966', '1968', '1970', '1972', '1976', '1977', '1979', '1984', '1986', '1988', '1989', '1995']",False,4000,True,2,6c8392d8a5,0.0,1.0,1.0
./expes/v2_2021-03-27_issda-30_2000-prng-1-w4-p2,30_issda-2000,2000,first-2000,800,40,rng,num-start-3200,3200,25726,classic,4445.317403316498,True,,False,1.0,1.0,1.0,1,"['6', '8', '10', '11', '14', '16', '17', '19', '23', '24', '25', '31', '32', '33', '35', '36', '37', '39', '40', '44', '46', '48', '49', '59', '60', '63', '64', '65', '70', '75', '78', '80', '85', '87', '89', '91', '95', '98', '99', '100', '109', '112', '113', '115', '116', '121', '122', '124', '125', '127', '128', '132', '134', '135', '138', '139', '141', '145', '149', '150', '151', '152', '157', '158', '161', '162', '168', '171', '174', '176', '183', '187', '190', '193', '196', '198', '202', '204', '205', '206', '210', '214', '222', '223', '231', '232', '237', '239', '240', '247', '248', '249', '252', '256', '263', '264', '267', '270', '271', '273', '274', '279', '282', '285', '288', '292', '293', '295', '296', '298', '301', '302', '303', '306', '308', '309', '311', '312', '314', '315', '318', '319', '321', '322', '324', '325', '328', '330', '331', '335', '337', '341', '344', '347', '348', '349', '351', '353', '354', '355', '359', '361', '366', '367', '368', '372', '376', '378', '379', '383', '384', '393', '401', '402', '403', '409', '410', '411', '421', '423', '428', '429', '434', '436', '438', '440', '441', '444', '446', '448', '449', '450', '451', '453', '454', '455', '456', '458', '462', '463', '465', '467', '469', '470', '474', '475', '476', '478', '479', '481', '482', '490', '491', '492', '493', '497', '500', '505', '507', '511', '514', '515', '516', '521', '523', '524', '525', '526', '533', '535', '536', '537', '540', '548', '553', '556', '557', '558', '560', '562', '568', '575', '577', '581', '583', '587', '588', '589', '593', '595', '605', '606', '607', '608', '613', '618', '620', '623', '625', '626', '628', '635', '636', '638', '639', '642', '645', '646', '647', '649', '650', '652', '653', '655', '657', '659', '660', '661', '663', '666', '674', '676', '677', '678', '679', '680', '681', '682', '683', '684', '685', '686', '688', '689', '691', '693', '694', '697', '702', '704', '705', '706', '712', '713', '714', '723', '724', '725', '728', '729', '732', '735', '736', '738', '740', '743', '750', '752', '753', '754', '755', '756', '758', '760', '763', '766', '768', '769', '771', '775', '776', '778', '780', '781', '789', '793', '795', '796', '797', '799', '800', '804', '807', '810', '814', '815', '818', '823', '825', '828', '829', '830', '831', '832', '835', '836', '844', '849', '853', '855', '857', '860', '862', '864', '866', '867', '873', '874', '878', '883', '886', '887', '888', '889', '890', '894', '900', '901', '903', '905', '906', '909', '910', '912', '913', '920', '922', '923', '924', '926', '931', '933', '938', '939', '942', '944', '945', '946', '947', '951', '955', '956', '957', '958', '959', '960', '963', '964', '970', '972', '974', '976', '981', '983', '986', '987', '988', '992', '994', '995', '1003', '1005', '1008', '1009', '1011', '1012', '1014', '1015', '1017', '1020', '1021', '1022', '1024', '1025', '1027', '1029', '1036', '1037', '1038', '1039', '1041', '1046', '1048', '1050', '1056', '1057', '1058', '1059', '1060', '1061', '1062', '1064', '1065', '1066', '1067', '1068', '1071', '1075', '1082', '1085', '1086', '1089', '1094', '1097', '1098', '1110', '1114', '1115', '1119', '1122', '1124', '1127', '1130', '1134', '1135', '1137', '1141', '1147', '1149', '1157', '1158', '1160', '1161', '1164', '1167', '1168', '1169', '1170', '1172', '1176', '1178', '1180', '1183', '1186', '1187', '1188', '1191', '1196', '1197', '1199', '1202', '1203', '1209', '1216', '1220', '1222', '1225', '1236', '1237', '1239', '1242', '1245', '1246', '1250', '1251', '1253', '1254', '1257', '1258', '1260', '1261', '1263', '1265', '1267', '1270', '1271', '1275', '1277', '1280', '1283', '1286', '1287', '1288', '1293', '1295', '1296', '1300', '1302', '1303', '1306', '1307', '1314', '1316', '1317', '1322', '1323', '1324', '1325', '1326', '1328', '1329', '1330', '1336', '1342', '1343', '1344', '1346', '1348', '1349', '1350', '1352', '1357', '1362', '1363', '1370', '1371', '1376', '1379', '1386', '1387', '1388', '1390', '1393', '1394', '1396', '1398', '1399', '1402', '1404', '1410', '1411', '1412', '1414', '1415', '1417', '1419', '1422', '1423', '1425', '1426', '1427', '1428', '1436', '1438', '1445', '1450', '1451', '1452', '1454', '1457', '1459', '1461', '1472', '1473', '1476', '1477', '1478', '1482', '1483', '1486', '1488', '1489', '1493', '1496', '1499', '1506', '1508', '1511', '1515', '1516', '1518', '1520', '1522', '1524', '1526', '1527', '1528', '1537', '1538', '1539', '1541', '1542', '1543', '1544', '1547', '1549', '1551', '1554', '1557', '1558', '1561', '1572', '1573', '1574', '1581', '1585', '1586', '1592', '1593', '1595', '1602', '1604', '1606', '1608', '1613', '1614', '1615', '1616', '1623', '1625', '1627', '1631', '1632', '1634', '1636', '1637', '1640', '1645', '1646', '1647', '1648', '1649', '1650', '1651', '1653', '1655', '1656', '1659', '1660', '1662', '1663', '1667', '1681', '1683', '1684', '1686', '1690', '1693', '1695', '1701', '1702', '1705', '1708', '1709', '1711', '1713', '1716', '1717', '1718', '1721', '1722', '1724', '1728', '1729', '1731', '1735', '1736', '1737', '1741', '1743', '1747', '1748', '1749', '1752', '1753', '1756', '1757', '1763', '1768', '1769', '1773', '1776', '1777', '1780', '1781', '1783', '1784', '1786', '1787', '1791', '1792', '1793', '1797', '1800', '1801', '1802', '1804', '1806', '1809', '1812', '1813', '1816', '1817', '1818', '1823', '1827', '1829', '1830', '1831', '1835', '1842', '1847', '1848', '1854', '1857', '1858', '1859', '1862', '1863', '1867', '1870', '1874', '1877', '1884', '1886', '1888', '1889', '1890', '1893', '1895', '1896', '1899', '1900', '1901', '1906', '1908', '1911', '1913', '1914', '1915', '1916', '1918', '1922', '1927', '1928', '1931', '1932', '1935', '1936', '1938', '1940', '1942', '1945', '1946', '1947', '1948', '1949', '1950', '1951', '1952', '1953', '1954', '1958', '1960', '1965', '1967', '1971', '1973', '1977', '1979', '1980', '1981', '1982', '1983', '1984', '1985', '1987', '1992', '1998', '2000']",True,4000,True,2,668263831f,0.0,0.0,1.0
./expes/v2_2021-03-27_issda-30_2000-prng-1-w4-p2,30_issda-2000,2000,first-2000,700,35,rng,num-start-1000,1000,25726,classic,4134.572451353073,True,,False,1.0,1.0,1.0,1,"['2', '7', '8', '11', '12', '14', '15', '17', '18', '20', '21', '23', '24', '25', '27', '29', '31', '32', '36', '38', '40', '42', '46', '49', '53', '54', '56', '58', '59', '60', '61', '62', '68', '70', '71', '74', '80', '84', '85', '86', '87', '89', '97', '100', '102', '104', '105', '106', '108', '109', '111', '113', '116', '119', '121', '124', '125', '130', '132', '133', '135', '136', '137', '141', '142', '147', '153', '155', '156', '157', '161', '166', '167', '170', '171', '172', '173', '174', '176', '178', '180', '182', '183', '188', '189', '192', '194', '197', '198', '203', '204', '205', '209', '212', '213', '218', '223', '226', '227', '228', '229', '230', '242', '246', '247', '249', '253', '263', '266', '271', '272', '273', '276', '277', '282', '283', '284', '285', '288', '289', '292', '295', '298', '301', '304', '305', '306', '312', '322', '329', '332', '333', '335', '337', '341', '345', '347', '350', '351', '352', '354', '355', '361', '365', '367', '371', '372', '374', '382', '383', '387', '388', '391', '394', '405', '406', '408', '409', '411', '414', '416', '420', '421', '423', '428', '430', '431', '432', '433', '438', '444', '452', '453', '455', '456', '457', '459', '460', '462', '466', '473', '474', '476', '484', '485', '488', '498', '499', '503', '507', '509', '515', '519', '520', '522', '526', '530', '531', '533', '535', '538', '539', '547', '548', '550', '553', '557', '559', '562', '564', '567', '569', '571', '576', '581', '583', '584', '585', '595', '597', '603', '605', '607', '610', '615', '616', '617', '620', '627', '630', '633', '636', '638', '644', '645', '646', '651', '657', '659', '662', '663', '666', '673', '674', '675', '677', '678', '684', '685', '687', '688', '692', '693', '694', '698', '700', '706', '709', '711', '712', '714', '715', '724', '727', '732', '736', '747', '749', '750', '757', '758', '761', '763', '764', '765', '766', '776', '777', '782', '785', '786', '789', '791', '796', '797', '798', '810', '811', '813', '816', '817', '818', '822', '824', '825', '826', '827', '832', '833', '840', '843', '850', '853', '854', '855', '861', '864', '866', '867', '870', '871', '875', '878', '881', '888', '893', '896', '900', '901', '910', '916', '920', '923', '925', '926', '929', '930', '934', '936', '940', '946', '949', '950', '951', '952', '956', '958', '962', '964', '971', '973', '974', '980', '981', '985', '987', '988', '1004', '1007', '1008', '1013', '1016', '1017', '1018', '1019', '1021', '1026', '1028', '1029', '1030', '1035', '1037', '1042', '1044', '1045', '1050', '1053', '1056', '1059', '1060', '1061', '1064', '1066', '1070', '1071', '1072', '1073', '1077', '1080', '1083', '1084', '1088', '1093', '1097', '1100', '1101', '1102', '1106', '1110', '1111', '1113', '1114', '1115', '1118', '1121', '1124', '1132', '1133', '1136', '1137', '1139', '1146', '1148', '1151', '1154', '1158', '1160', '1162', '1165', '1169', '1174', '1176', '1177', '1179', '1185', '1186', '1188', '1190', '1191', '1197', '1199', '1202', '1204', '1205', '1206', '1209', '1210', '1212', '1215', '1223', '1224', '1228', '1231', '1235', '1238', '1239', '1240', '1242', '1243', '1245', '1246', '1247', '1248', '1251', '1252', '1253', '1255', '1256', '1263', '1264', '1275', '1280', '1281', '1284', '1290', '1295', '1300', '1303', '1305', '1308', '1309', '1315', '1317', '1322', '1325', '1327', '1330', '1334', '1347', '1350', '1357', '1359', '1364', '1367', '1368', '1370', '1371', '1372', '1373', '1375', '1381', '1386', '1387', '1389', '1390', '1391', '1393', '1394', '1396', '1399', '1400', '1402', '1405', '1409', '1410', '1414', '1419', '1421', '1423', '1426', '1428', '1433', '1434', '1436', '1441', '1442', '1445', '1449', '1452', '1453', '1457', '1458', '1466', '1468', '1469', '1474', '1476', '1485', '1487', '1489', '1490', '1492', '1495', '1503', '1508', '1510', '1511', '1513', '1518', '1520', '1523', '1527', '1528', '1529', '1531', '1532', '1533', '1542', '1546', '1551', '1558', '1559', '1560', '1561', '1564', '1565', '1566', '1567', '1572', '1580', '1581', '1582', '1583', '1585', '1586', '1587', '1589', '1592', '1593', '1595', '1597', '1598', '1599', '1604', '1606', '1611', '1618', '1625', '1628', '1629', '1631', '1636', '1637', '1638', '1639', '1645', '1654', '1656', '1658', '1659', '1669', '1681', '1684', '1686', '1688', '1703', '1705', '1706', '1708', '1713', '1715', '1719', '1720', '1721', '1728', '1731', '1732', '1733', '1734', '1738', '1741', '1743', '1744', '1745', '1746', '1749', '1760', '1762', '1763', '1770', '1774', '1775', '1776', '1777', '1779', '1780', '1786', '1791', '1792', '1794', '1796', '1797', '1800', '1801', '1803', '1804', '1806', '1809', '1810', '1813', '1816', '1817', '1818', '1820', '1821', '1822', '1825', '1828', '1829', '1834', '1835', '1837', '1840', '1841', '1847', '1849', '1856', '1857', '1861', '1863', '1867', '1874', '1875', '1880', '1883', '1885', '1887', '1889', '1891', '1893', '1894', '1903', '1907', '1908', '1911', '1918', '1922', '1925', '1927', '1928', '1932', '1933', '1934', '1938', '1939', '1940', '1945', '1947', '1948', '1949', '1954', '1957', '1958', '1963', '1967', '1968', '1970', '1971', '1972', '1975', '1976', '1980', '1982', '1984', '1985', '1988', '1992', '1997', '1998', '2000']",True,4000,True,2,6d0d5acb09,0.0,0.0,1.0
./expes/v2_2021-03-27_issda-30_2000-prng-1-w4-p2,30_issda-2000,2000,first-2000,700,35,rng,num-start-1200,1200,25726,classic,4163.905997514725,True,,False,1.0,1.0,1.0,1,"['1', '2', '10', '11', '14', '20', '23', '24', '25', '26', '30', '31', '32', '33', '34', '35', '37', '40', '41', '44', '46', '47', '48', '50', '51', '57', '59', '61', '62', '65', '69', '72', '73', '74', '75', '77', '80', '84', '85', '86', '87', '91', '92', '96', '97', '98', '108', '122', '123', '124', '130', '132', '135', '137', '138', '141', '142', '144', '145', '148', '149', '150', '151', '152', '153', '154', '155', '160', '161', '165', '170', '171', '172', '174', '175', '177', '179', '180', '181', '185', '186', '189', '191', '193', '197', '199', '203', '206', '207', '213', '215', '218', '221', '222', '223', '224', '232', '235', '237', '239', '242', '250', '252', '253', '259', '261', '266', '267', '269', '270', '272', '275', '276', '278', '279', '280', '284', '288', '289', '290', '291', '294', '300', '301', '305', '316', '319', '323', '325', '327', '328', '337', '342', '347', '348', '355', '360', '361', '364', '366', '367', '371', '375', '378', '379', '382', '384', '386', '388', '389', '390', '391', '393', '398', '399', '401', '403', '404', '405', '406', '407', '409', '411', '412', '415', '418', '419', '420', '427', '428', '430', '432', '435', '436', '437', '438', '439', '443', '447', '448', '450', '454', '459', '464', '466', '468', '471', '472', '477', '479', '487', '489', '491', '495', '496', '497', '498', '501', '505', '511', '514', '521', '523', '524', '525', '526', '527', '529', '532', '533', '537', '546', '552', '553', '558', '560', '564', '567', '570', '574', '576', '578', '582', '592', '595', '596', '601', '603', '607', '617', '622', '623', '624', '633', '635', '636', '637', '638', '639', '646', '647', '649', '650', '654', '657', '660', '669', '670', '674', '677', '678', '682', '687', '690', '696', '700', '701', '702', '703', '704', '709', '712', '714', '719', '721', '726', '728', '733', '740', '742', '754', '756', '762', '769', '770', '772', '773', '777', '781', '784', '786', '788', '791', '792', '795', '796', '800', '803', '806', '808', '809', '812', '814', '821', '825', '828', '829', '830', '834', '840', '841', '842', '843', '847', '848', '853', '855', '859', '860', '862', '864', '879', '883', '889', '891', '895', '900', '902', '903', '905', '906', '913', '915', '917', '923', '926', '927', '928', '929', '932', '937', '938', '940', '948', '950', '951', '953', '954', '963', '964', '966', '968', '970', '973', '974', '975', '976', '982', '985', '986', '988', '989', '991', '996', '998', '999', '1006', '1009', '1010', '1012', '1017', '1019', '1020', '1021', '1022', '1024', '1025', '1030', '1031', '1034', '1036', '1041', '1043', '1046', '1049', '1050', '1051', '1054', '1055', '1057', '1058', '1062', '1063', '1064', '1065', '1066', '1069', '1071', '1074', '1076', '1079', '1083', '1085', '1087', '1088', '1092', '1094', '1096', '1097', '1098', '1100', '1103', '1104', '1106', '1109', '1112', '1113', '1115', '1116', '1119', '1127', '1128', '1129', '1130', '1135', '1145', '1146', '1147', '1151', '1153', '1154', '1156', '1160', '1165', '1168', '1169', '1172', '1174', '1177', '1182', '1186', '1190', '1193', '1194', '1195', '1197', '1202', '1203', '1209', '1211', '1214', '1220', '1222', '1226', '1229', '1232', '1233', '1236', '1237', '1240', '1245', '1247', '1249', '1250', '1251', '1253', '1257', '1258', '1259', '1261', '1262', '1266', '1270', '1275', '1277', '1280', '1282', '1285', '1286', '1287', '1289', '1290', '1291', '1293', '1297', '1299', '1300', '1303', '1304', '1308', '1309', '1310', '1311', '1312', '1313', '1315', '1319', '1330', '1332', '1334', '1337', '1339', '1340', '1342', '1346', '1352', '1357', '1364', '1375', '1377', '1383', '1389', '1390', '1397', '1398', '1402', '1403', '1404', '1405', '1407', '1408', '1412', '1416', '1421', '1422', '1429', '1431', '1434', '1436', '1437', '1438', '1442', '1443', '1444', '1448', '1450', '1452', '1457', '1463', '1467', '1470', '1472', '1476', '1479', '1480', '1482', '1486', '1489', '1492', '1493', '1497', '1499', '1501', '1506', '1510', '1514', '1515', '1516', '1518', '1534', '1537', '1544', '1546', '1547', '1549', '1553', '1561', '1570', '1574', '1576', '1583', '1594', '1595', '1596', '1598', '1600', '1614', '1618', '1620', '1622', '1625', '1632', '1633', '1635', '1637', '1639', '1640', '1641', '1645', '1646', '1647', '1651', '1654', '1658', '1659', '1660', '1671', '1675', '1676', '1679', '1682', '1684', '1687', '1688', '1690', '1698', '1700', '1701', '1702', '1703', '1704', '1705', '1706', '1715', '1717', '1719', '1721', '1725', '1726', '1728', '1732', '1734', '1736', '1739', '1743', '1744', '1745', '1746', '1750', '1752', '1753', '1755', '1756', '1769', '1770', '1771', '1774', '1775', '1777', '1782', '1785', '1788', '1800', '1801', '1802', '1803', '1807', '1813', '1818', '1821', '1824', '1825', '1827', '1829', '1835', '1836', '1844', '1845', '1846', '1849', '1854', '1855', '1856', '1858', '1861', '1864', '1865', '1867', '1873', '1874', '1876', '1879', '1884', '1885', '1886', '1890', '1892', '1893', '1895', '1896', '1899', '1904', '1906', '1907', '1909', '1910', '1914', '1917', '1918', '1926', '1928', '1934', '1937', '1940', '1944', '1946', '1956', '1960', '1961', '1963', '1965', '1972', '1974', '1975', '1976', '1984', '1986', '1989', '1993', '1997']",True,4000,True,2,fde12bee47,0.0,0.0,1.0
./expes/v2_2021-03-27_issda-30_2000-prng-1-w4-p2,30_issda-2000,2000,first-2000,300,15,rng,num-start-2000,2000,25726,classic,1715.643450975418,True,,True,1.0,1.0,1.0,1,"['3', '26', '28', '29', '34', '45', '47', '55', '68', '75', '80', '81', '83', '93', '119', '126', '128', '129', '142', '144', '148', '152', '165', '169', '184', '187', '188', '192', '195', '203', '207', '208', '224', '237', '238', '240', '241', '246', '254', '255', '256', '267', '286', '287', '292', '300', '301', '307', '315', '325', '332', '347', '350', '359', '370', '377', '379', '383', '387', '388', '390', '392', '399', '409', '417', '419', '432', '441', '448', '449', '452', '453', '455', '483', '489', '496', '498', '500', '514', '531', '533', '534', '556', '564', '565', '578', '590', '595', '597', '617', '618', '622', '636', '638', '648', '650', '656', '665', '667', '677', '682', '683', '687', '702', '718', '725', '732', '734', '735', '759', '762', '789', '796', '802', '817', '830', '840', '859', '862', '872', '873', '890', '894', '906', '907', '912', '918', '923', '938', '957', '964', '966', '967', '976', '977', '982', '996', '997', '1003', '1009', '1011', '1032', '1034', '1041', '1042', '1048', '1068', '1069', '1075', '1085', '1091', '1095', '1107', '1108', '1113', '1115', '1121', '1122', '1124', '1129', '1132', '1147', '1149', '1163', '1166', '1167', '1176', '1179', '1180', '1188', '1195', '1203', '1204', '1208', '1222', '1223', '1233', '1234', '1236', '1241', '1242', '1252', '1254', '1255', '1267', '1271', '1281', '1291', '1299', '1301', '1312', '1314', '1325', '1330', '1345', '1347', '1353', '1364', '1369', '1378', '1385', '1391', '1392', '1394', '1396', '1400', '1401', '1415', '1429', '1433', '1435', '1442', '1445', '1448', '1455', '1471', '1474', '1490', '1495', '1496', '1499', '1519', '1548', '1552', '1553', '1572', '1604', '1606', '1608', '1616', '1625', '1628', '1635', '1638', '1640', '1645', '1646', '1649', '1660', '1663', '1669', '1671', '1674', '1683', '1690', '1691', '1696', '1699', '1700', '1701', '1708', '1712', '1716', '1717', '1721', '1726', '1730', '1731', '1732', '1740', '1742', '1752', '1773', '1777', '1783', '1792', '1793', '1796', '1824', '1827', '1834', '1840', '1841', '1844', '1848', '1853', '1860', '1864', '1870', '1876', '1878', '1879', '1880', '1881', '1882', '1888', '1889', '1891', '1892', '1911', '1918', '1919', '1946', '1969', '1974', '1978', '1980', '1982', '1983', '1988']",False,4000,True,2,40d574c157,0.0,1.0,1.0
./expes/v2_2021-03-27_issda-30_2000-prng-1-w4-p2,30_issda-2000,2000,first-2000,200,10,rng,num-start-2800,2800,25726,classic,1684.7451388835907,True,,True,1.0,1.0,1.0,1,"['3', '29', '34', '68', '80', '83', '128', '129', '142', '152', '165', '169', '184', '187', '188', '192', '195', '203', '207', '224', '237', '240', '256', '267', '286', '287', '292', '301', '307', '350', '377', '383', '388', '390', '392', '417', '419', '441', '448', '452', '455', '483', '489', '496', '498', '500', '514', '531', '533', '534', '556', '564', '565', '578', '590', '595', '597', '618', '622', '636', '648', '650', '656', '665', '667', '677', '682', '683', '687', '725', '732', '734', '762', '789', '802', '817', '830', '859', '862', '890', '907', '912', '918', '923', '967', '976', '977', '996', '997', '1003', '1009', '1011', '1034', '1041', '1048', '1068', '1069', '1075', '1091', '1107', '1108', '1113', '1121', '1122', '1124', '1129', '1132', '1147', '1163', '1179', '1188', '1195', '1203', '1204', '1208', '1222', '1233', '1236', '1252', '1254', '1255', '1267', '1281', '1291', '1312', '1314', '1345', '1353', '1369', '1391', '1392', '1400', '1401', '1433', '1435', '1442', '1445', '1448', '1455', '1474', '1495', '1496', '1499', '1548', '1552', '1553', '1606', '1608', '1625', '1628', '1635', '1638', '1645', '1646', '1649', '1660', '1663', '1669', '1683', '1690', '1691', '1696', '1699', '1700', '1716', '1721', '1726', '1730', '1731', '1740', '1742', '1773', '1777', '1783', '1793', '1796', '1824', '1827', '1834', '1840', '1841', '1848', '1860', '1864', '1870', '1876', '1878', '1879', '1881', '1882', '1889', '1891', '1892', '1911', '1946', '1974', '1978', '1980', '1982', '1983']",False,4000,True,2,4875bbb696,0.0,1.0,1.0
./expes/v2_2021-03-27_issda-30_2000-prng-1-w4-p2,30_issda-2000,2000,first-2000,700,35,rng,num-start-400,400,25726,classic,4053.899287223816,False,,False,0,,,0,"['1', '7', '10', '12', '14', '23', '25', '28', '29', '30', '35', '41', '45', '46', '47', '53', '57', '58', '63', '66', '67', '68', '69', '70', '71', '72', '75', '76', '77', '80', '82', '90', '91', '93', '101', '103', '105', '114', '118', '119', '125', '129', '130', '132', '134', '136', '141', '144', '147', '153', '154', '164', '165', '168', '169', '170', '171', '172', '173', '175', '177', '179', '182', '183', '184', '186', '190', '192', '195', '196', '197', '199', '200', '205', '210', '217', '218', '219', '221', '222', '223', '224', '228', '229', '230', '233', '234', '237', '239', '240', '248', '250', '255', '259', '261', '262', '263', '272', '277', '279', '281', '282', '285', '286', '288', '289', '292', '294', '299', '300', '302', '303', '304', '305', '308', '315', '317', '320', '322', '325', '328', '330', '331', '335', '341', '347', '348', '349', '350', '353', '355', '356', '357', '359', '362', '364', '365', '379', '384', '388', '389', '392', '394', '396', '398', '401', '402', '405', '408', '411', '414', '415', '417', '421', '426', '427', '429', '431', '433', '434', '438', '446', '447', '451', '456', '459', '462', '465', '470', '473', '475', '477', '480', '481', '483', '490', '497', '500', '501', '504', '507', '508', '512', '519', '520', '522', '523', '530', '535', '539', '542', '545', '546', '547', '551', '555', '562', '567', '568', '579', '583', '584', '586', '589', '590', '592', '593', '594', '595', '597', '598', '601', '605', '606', '607', '608', '612', '614', '615', '618', '619', '620', '631', '633', '634', '637', '638', '639', '642', '643', '644', '645', '646', '649', '654', '655', '656', '658', '664', '667', '670', '674', '691', '692', '694', '698', '699', '701', '703', '705', '709', '710', '711', '713', '720', '729', '731', '732', '733', '734', '738', '739', '741', '742', '746', '748', '750', '751', '754', '756', '757', '758', '759', '761', '762', '764', '768', '769', '772', '773', '776', '777', '780', '781', '786', '787', '792', '795', '798', '800', '801', '807', '808', '812', '813', '814', '821', '825', '826', '832', '834', '835', '836', '840', '844', '849', '850', '854', '856', '860', '864', '868', '871', '872', '873', '876', '880', '883', '884', '886', '890', '891', '893', '894', '895', '899', '901', '902', '903', '905', '908', '912', '914', '916', '919', '920', '928', '929', '931', '933', '935', '938', '941', '942', '948', '963', '966', '970', '972', '975', '977', '981', '987', '991', '994', '999', '1000', '1001', '1003', '1004', '1013', '1014', '1018', '1019', '1020', '1021', '1022', '1023', '1024', '1025', '1028', '1029', '1030', '1032', '1033', '1034', '1035', '1038', '1039', '1040', '1045', '1047', '1049', '1054', '1058', '1059', '1065', '1066', '1067', '1070', '1072', '1073', '1076', '1077', '1079', '1080', '1082', '1083', '1084', '1090', '1093', '1095', '1106', '1117', '1120', '1121', '1123', '1139', '1142', '1146', '1150', '1153', '1155', '1156', '1160', '1161', '1165', '1166', '1174', '1175', '1180', '1181', '1185', '1186', '1188', '1190', '1191', '1197', '1199', '1200', '1206', '1209', '1222', '1224', '1229', '1230', '1231', '1232', '1235', '1238', '1239', '1240', '1243', '1244', '1249', '1250', '1253', '1256', '1257', '1265', '1271', '1273', '1278', '1280', '1281', '1288', '1289', '1291', '1295', '1296', '1302', '1303', '1310', '1312', '1315', '1319', '1323', '1324', '1326', '1327', '1331', '1332', '1333', '1335', '1337', '1339', '1340', '1341', '1342', '1344', '1345', '1346', '1347', '1348', '1349', '1354', '1358', '1359', '1362', '1363', '1366', '1368', '1371', '1373', '1379', '1385', '1393', '1396', '1402', '1403', '1407', '1410', '1414', '1415', '1416', '1418', '1419', '1420', '1422', '1424', '1426', '1432', '1436', '1437', '1438', '1441', '1444', '1445', '1451', '1453', '1454', '1455', '1466', '1469', '1470', '1472', '1474', '1477', '1478', '1485', '1486', '1487', '1491', '1492', '1493', '1502', '1505', '1508', '1509', '1510', '1511', '1518', '1519', '1522', '1523', '1524', '1525', '1531', '1534', '1535', '1536', '1543', '1548', '1549', '1555', '1556', '1561', '1566', '1570', '1571', '1573', '1577', '1581', '1595', '1597', '1598', '1600', '1602', '1605', '1610', '1611', '1612', '1616', '1619', '1620', '1625', '1628', '1632', '1637', '1648', '1653', '1654', '1655', '1656', '1661', '1662', '1665', '1666', '1668', '1669', '1673', '1678', '1682', '1685', '1686', '1690', '1691', '1695', '1696', '1697', '1698', '1699', '1700', '1701', '1703', '1707', '1709', '1712', '1713', '1716', '1717', '1719', '1724', '1726', '1728', '1729', '1733', '1735', '1742', '1746', '1751', '1752', '1755', '1760', '1762', '1772', '1775', '1779', '1780', '1781', '1793', '1797', '1799', '1805', '1806', '1807', '1809', '1818', '1820', '1824', '1826', '1830', '1834', '1837', '1838', '1840', '1844', '1847', '1848', '1850', '1851', '1854', '1855', '1857', '1858', '1860', '1862', '1864', '1867', '1870', '1877', '1882', '1883', '1884', '1886', '1890', '1895', '1896', '1900', '1902', '1903', '1908', '1910', '1911', '1918', '1919', '1929', '1935', '1937', '1938', '1939', '1941', '1942', '1946', '1949', '1959', '1961', '1964', '1965', '1971', '1976', '1977', '1978', '1981', '1983', '1987', '1989', '1990', '1993', '1997']",True,4000,True,2,a22596a165,0.0,0.0,0.0
