expe,clients,clients_size,clients_subset,agg_size,agg_size_pc,method,days,days_size,days_total,noise_method,time,valid,valid_sum,success,score_avg,score_min,score_max,nsols,oracle,wall_hit,wall_time,pooled,pool_size,uuid,infeasible,optimal,valid_sums
./expes/v2_2021-03-27_issda-30_2000-prng-1-w4-p2,30_issda-2000,2000,first-2000,100,5,rng,num-start-3600,3600,25726,classic,1421.9489164352417,True,,True,1.0,1.0,1.0,1,"['3', '29', '83', '128', '129', '152', '192', '195', '203', '207', '286', '287', '292', '301', '392', '419', '448', '455', '489', '500', '514', '531', '534', '578', '622', '636', '648', '667', '677', '683', '725', '734', '789', '817', '830', '862', '890', '907', '918', '967', '977', '996', '1011', '1034', '1048', '1068', '1091', '1113', '1124', '1132', '1147', '1163', '1195', '1233', '1252', '1254', '1267', '1281', '1312', '1369', '1401', '1442', '1445', '1455', '1474', '1495', '1496', '1548', '1553', '1606', '1608', '1638', '1645', '1646', '1649', '1660', '1690', '1696', '1700', '1721', '1730', '1742', '1773', '1777', '1783', '1824', '1827', '1841', '1848', '1860', '1864', '1870', '1876', '1879', '1881', '1882', '1978', '1980', '1982', '1983']",False,4000,True,2,4b56e53721,0.0,1.0,1.0
./expes/v2_2021-03-27_issda-30_2000-prng-1-w4-p2,30_issda-2000,2000,first-2000,400,20,rng,num-start-3800,3800,25726,classic,3434.329680919647,True,,True,1.0,1.0,1.0,1,"['5', '7', '8', '9', '11', '12', '30', '32', '60', '62', '63', '66', '69', '74', '79', '80', '84', '88', '89', '90', '94', '97', '101', '107', '108', '112', '126', '141', '142', '145', '146', '151', '159', '174', '178', '184', '187', '190', '194', '205', '220', '225', '230', '237', '241', '249', '258', '259', '260', '263', '265', '267', '268', '269', '277', '281', '286', '291', '300', '301', '302', '304', '306', '307', '309', '318', '321', '322', '328', '329', '337', '342', '343', '362', '368', '374', '381', '384', '390', '396', '399', '400', '415', '416', '418', '425', '434', '438', '439', '441', '448', '457', '461', '462', '464', '473', '480', '483', '487', '488', '489', '501', '507', '509', '515', '519', '520', '526', '530', '531', '535', '537', '538', '539', '541', '549', '551', '556', '565', '566', '574', '589', '593', '595', '596', '601', '604', '605', '606', '608', '611', '614', '617', '618', '622', '628', '631', '632', '637', '643', '650', '655', '661', '680', '682', '684', '686', '700', '703', '707', '709', '712', '719', '729', '730', '736', '740', '746', '751', '755', '760', '761', '762', '764', '768', '771', '794', '796', '799', '806', '811', '813', '815', '831', '836', '847', '853', '869', '870', '871', '872', '877', '879', '880', '881', '882', '884', '890', '891', '895', '901', '902', '903', '905', '909', '912', '919', '921', '922', '924', '941', '944', '950', '963', '966', '972', '981', '985', '997', '1006', '1017', '1020', '1027', '1059', '1065', '1066', '1070', '1071', '1074', '1078', '1079', '1082', '1089', '1090', '1092', '1093', '1094', '1096', '1098', '1113', '1117', '1118', '1121', '1126', '1127', '1136', '1138', '1140', '1147', '1156', '1158', '1168', '1175', '1183', '1190', '1195', '1199', '1205', '1211', '1213', '1218', '1219', '1224', '1229', '1236', '1241', '1247', '1252', '1257', '1265', '1271', '1275', '1285', '1289', '1292', '1298', '1308', '1309', '1313', '1318', '1322', '1334', '1336', '1339', '1342', '1346', '1365', '1366', '1372', '1374', '1381', '1387', '1396', '1401', '1402', '1404', '1416', '1424', '1430', '1432', '1436', '1437', '1438', '1442', '1445', '1463', '1467', '1468', '1472', '1473', '1481', '1489', '1491', '1493', '1502', '1504', '1508', '1513', '1515', '1526', '1533', '1547', '1553', '1557', '1561', '1564', '1583', '1585', '1608', '1611', '1613', '1626', '1627', '1635', '1636', '1641', '1643', '1645', '1646', '1651', '1653', '1657', '1659', '1664', '1679', '1683', '1687', '1688', '1689', '1691', '1693', '1696', '1707', '1709', '1710', '1713', '1716', '1717', '1720', '1733', '1739', '1740', '1741', '1745', '1749', '1765', '1769', '1775', '1777', '1778', '1779', '1781', '1785', '1795', '1797', '1815', '1816', '1817', '1820', '1822', '1823', '1829', '1833', '1839', '1840', '1845', '1847', '1848', '1857', '1863', '1865', '1869', '1881', '1886', '1887', '1909', '1911', '1916', '1920', '1922', '1931', '1945', '1949', '1951', '1954', '1970', '1982', '1987', '1989', '1990']",False,4000,True,2,770fb0ff21,0.0,1.0,1.0
./expes/v2_2021-03-27_issda-30_2000-prng-1-w4-p2,30_issda-2000,2000,first-2000,200,10,rng,num-start-1600,1600,25726,classic,1410.2538142204285,True,,True,1.0,1.0,1.0,1,"['18', '44', '49', '52', '57', '66', '74', '84', '101', '116', '117', '121', '124', '139', '155', '170', '174', '188', '218', '236', '262', '280', '325', '331', '337', '341', '347', '353', '356', '362', '364', '373', '392', '426', '432', '435', '455', '465', '473', '484', '502', '511', '512', '516', '524', '545', '550', '560', '572', '622', '632', '634', '639', '653', '665', '666', '700', '719', '725', '737', '738', '740', '742', '743', '746', '751', '762', '765', '779', '806', '819', '833', '850', '867', '868', '883', '912', '913', '932', '936', '945', '953', '983', '997', '1002', '1004', '1021', '1026', '1029', '1033', '1040', '1043', '1045', '1049', '1053', '1056', '1061', '1070', '1076', '1077', '1087', '1115', '1142', '1147', '1148', '1152', '1163', '1177', '1191', '1205', '1212', '1216', '1241', '1243', '1262', '1263', '1277', '1308', '1335', '1338', '1342', '1350', '1356', '1372', '1378', '1382', '1396', '1398', '1402', '1433', '1447', '1465', '1469', '1481', '1483', '1487', '1494', '1497', '1505', '1508', '1513', '1526', '1545', '1556', '1563', '1584', '1607', '1618', '1631', '1632', '1637', '1646', '1657', '1666', '1669', '1670', '1681', '1690', '1703', '1711', '1712', '1739', '1749', '1760', '1762', '1768', '1784', '1794', '1796', '1804', '1807', '1809', '1811', '1827', '1831', '1840', '1843', '1846', '1850', '1857', '1859', '1860', '1861', '1867', '1876', '1882', '1885', '1895', '1909', '1914', '1917', '1927', '1933', '1942', '1945', '1955', '1956', '1958', '1961', '1970']",False,4000,True,2,e55e07ad51,0.0,1.0,1.0
./expes/v2_2021-03-27_issda-30_2000-prng-1-w4-p2,30_issda-2000,2000,first-2000,400,20,rng,num-start-1400,1400,25726,classic,977.4238381385803,True,,True,1.0,1.0,1.0,1,"['7', '10', '14', '25', '28', '35', '41', '46', '47', '53', '63', '68', '69', '70', '77', '90', '93', '101', '105', '119', '125', '129', '130', '132', '141', '144', '147', '164', '165', '168', '171', '173', '175', '177', '179', '184', '186', '190', '192', '195', '196', '199', '200', '217', '219', '221', '222', '223', '224', '229', '233', '239', '240', '248', '250', '259', '277', '281', '285', '288', '292', '304', '305', '308', '315', '317', '325', '330', '335', '341', '349', '350', '353', '359', '365', '389', '392', '394', '396', '398', '401', '402', '405', '411', '414', '421', '426', '429', '431', '433', '451', '459', '462', '465', '470', '475', '480', '481', '500', '501', '504', '507', '508', '512', '522', '530', '542', '547', '551', '555', '562', '568', '579', '583', '586', '592', '594', '595', '598', '606', '608', '612', '614', '615', '619', '633', '639', '643', '658', '664', '667', '692', '694', '698', '701', '703', '705', '720', '729', '731', '732', '733', '738', '739', '741', '742', '746', '750', '754', '757', '758', '759', '769', '772', '773', '776', '777', '780', '781', '786', '787', '792', '795', '800', '807', '812', '814', '821', '825', '826', '834', '835', '840', '844', '854', '856', '860', '868', '873', '876', '883', '886', '893', '901', '905', '912', '914', '928', '929', '933', '935', '938', '941', '942', '948', '966', '970', '972', '994', '999', '1000', '1001', '1004', '1014', '1018', '1019', '1020', '1021', '1022', '1028', '1030', '1032', '1033', '1034', '1035', '1038', '1039', '1040', '1045', '1054', '1058', '1059', '1065', '1066', '1067', '1073', '1076', '1077', '1080', '1082', '1083', '1084', '1090', '1106', '1117', '1121', '1142', '1155', '1156', '1160', '1161', '1166', '1174', '1175', '1186', '1188', '1190', '1191', '1197', '1199', '1206', '1222', '1230', '1231', '1232', '1238', '1239', '1240', '1243', '1244', '1250', '1253', '1256', '1265', '1271', '1278', '1280', '1281', '1295', '1296', '1315', '1319', '1323', '1326', '1327', '1331', '1335', '1341', '1342', '1346', '1347', '1349', '1354', '1358', '1359', '1371', '1379', '1385', '1402', '1403', '1414', '1415', '1416', '1436', '1437', '1438', '1444', '1445', '1451', '1466', '1469', '1474', '1477', '1486', '1487', '1492', '1493', '1502', '1518', '1523', '1524', '1525', '1531', '1534', '1548', '1555', '1556', '1566', '1570', '1598', '1600', '1605', '1611', '1619', '1625', '1632', '1648', '1653', '1655', '1656', '1661', '1662', '1666', '1668', '1673', '1678', '1682', '1685', '1690', '1691', '1699', '1700', '1701', '1703', '1709', '1712', '1713', '1717', '1726', '1728', '1733', '1735', '1742', '1746', '1752', '1755', '1762', '1775', '1780', '1793', '1799', '1805', '1809', '1820', '1826', '1834', '1838', '1847', '1848', '1850', '1851', '1854', '1855', '1857', '1858', '1860', '1862', '1864', '1867', '1870', '1882', '1883', '1886', '1896', '1900', '1902', '1910', '1918', '1929', '1938', '1946', '1961', '1964', '1971', '1977', '1978', '1983', '1987', '1993', '1997']",False,4000,True,2,fdf4fc5d55,0.0,1.0,1.0
./expes/v2_2021-03-27_issda-30_2000-prng-1-w4-p2,30_issda-2000,2000,first-2000,900,45,rng,num-start-400,400,25726,classic,4056.7227053642273,False,,False,0,,,0,"['1', '2', '10', '11', '14', '20', '22', '23', '24', '25', '26', '28', '29', '30', '31', '32', '33', '34', '35', '37', '40', '41', '44', '46', '47', '48', '50', '51', '56', '57', '59', '61', '62', '65', '69', '72', '73', '74', '75', '77', '80', '84', '85', '86', '87', '88', '91', '92', '93', '94', '96', '97', '98', '102', '103', '104', '107', '108', '109', '120', '122', '123', '124', '127', '130', '132', '135', '137', '138', '141', '142', '144', '145', '148', '149', '150', '151', '152', '153', '154', '155', '157', '158', '159', '160', '161', '165', '170', '171', '172', '174', '175', '177', '179', '180', '181', '185', '186', '189', '191', '193', '195', '196', '197', '199', '202', '203', '205', '206', '207', '213', '215', '218', '221', '222', '223', '224', '232', '234', '235', '236', '237', '239', '242', '245', '250', '252', '253', '255', '259', '261', '264', '266', '267', '269', '270', '272', '273', '275', '276', '278', '279', '280', '281', '284', '287', '288', '289', '290', '291', '294', '296', '300', '301', '305', '316', '317', '319', '321', '323', '324', '325', '327', '328', '337', '339', '342', '347', '348', '354', '355', '360', '361', '364', '366', '367', '371', '372', '373', '375', '378', '379', '382', '384', '386', '388', '389', '390', '391', '392', '393', '398', '399', '400', '401', '403', '404', '405', '406', '407', '409', '411', '412', '415', '418', '419', '420', '424', '427', '428', '430', '431', '432', '435', '436', '437', '438', '439', '443', '447', '448', '450', '454', '459', '464', '466', '468', '471', '472', '476', '477', '479', '486', '487', '489', '491', '495', '496', '497', '498', '500', '501', '502', '503', '505', '510', '511', '514', '521', '523', '524', '525', '526', '527', '529', '530', '532', '533', '537', '546', '552', '553', '557', '558', '560', '563', '564', '565', '567', '570', '571', '573', '574', '576', '578', '580', '581', '582', '583', '586', '592', '595', '596', '601', '603', '607', '613', '617', '618', '622', '623', '624', '633', '635', '636', '637', '638', '639', '640', '646', '647', '649', '650', '654', '657', '660', '663', '669', '670', '674', '676', '677', '678', '682', '687', '690', '692', '696', '699', '700', '701', '702', '703', '704', '709', '712', '714', '719', '721', '726', '727', '728', '729', '731', '733', '736', '737', '740', '742', '745', '746', '749', '754', '756', '758', '759', '762', '765', '769', '770', '772', '773', '777', '781', '784', '786', '788', '791', '792', '795', '796', '798', '799', '800', '801', '803', '806', '808', '809', '810', '812', '814', '815', '817', '821', '823', '825', '828', '829', '830', '831', '832', '834', '836', '838', '840', '841', '842', '843', '847', '848', '852', '853', '854', '855', '859', '860', '862', '864', '874', '879', '880', '881', '883', '885', '889', '891', '895', '900', '902', '903', '905', '906', '907', '909', '911', '913', '915', '917', '923', '926', '927', '928', '929', '930', '932', '933', '934', '937', '938', '940', '947', '948', '950', '951', '953', '954', '957', '960', '961', '963', '964', '966', '967', '968', '970', '973', '974', '975', '976', '979', '982', '985', '986', '988', '989', '990', '991', '996', '998', '999', '1006', '1009', '1010', '1012', '1013', '1015', '1017', '1019', '1020', '1021', '1022', '1024', '1025', '1030', '1031', '1033', '1034', '1036', '1040', '1041', '1043', '1046', '1049', '1050', '1051', '1054', '1055', '1056', '1057', '1058', '1062', '1063', '1064', '1065', '1066', '1067', '1069', '1071', '1072', '1074', '1076', '1079', '1082', '1083', '1085', '1087', '1088', '1092', '1094', '1096', '1097', '1098', '1100', '1103', '1104', '1106', '1107', '1109', '1110', '1112', '1113', '1115', '1116', '1119', '1126', '1127', '1128', '1129', '1130', '1135', '1145', '1146', '1147', '1149', '1151', '1153', '1154', '1156', '1157', '1160', '1164', '1165', '1167', '1168', '1169', '1172', '1174', '1177', '1178', '1182', '1186', '1188', '1190', '1192', '1193', '1194', '1195', '1197', '1198', '1200', '1202', '1203', '1209', '1211', '1212', '1214', '1220', '1222', '1224', '1225', '1226', '1228', '1229', '1231', '1232', '1233', '1236', '1237', '1239', '1240', '1245', '1247', '1249', '1250', '1251', '1252', '1253', '1257', '1258', '1259', '1261', '1262', '1266', '1270', '1275', '1277', '1278', '1279', '1280', '1282', '1285', '1286', '1287', '1289', '1290', '1291', '1293', '1297', '1299', '1300', '1303', '1304', '1307', '1308', '1309', '1310', '1311', '1312', '1313', '1315', '1316', '1319', '1321', '1328', '1330', '1332', '1334', '1337', '1339', '1340', '1342', '1346', '1352', '1357', '1360', '1364', '1365', '1368', '1369', '1375', '1377', '1379', '1383', '1389', '1390', '1395', '1397', '1398', '1402', '1403', '1404', '1405', '1407', '1408', '1412', '1416', '1421', '1422', '1423', '1429', '1431', '1432', '1434', '1436', '1437', '1438', '1442', '1443', '1444', '1447', '1448', '1450', '1452', '1457', '1463', '1467', '1468', '1470', '1472', '1473', '1476', '1479', '1480', '1481', '1482', '1485', '1486', '1489', '1492', '1493', '1497', '1499', '1501', '1504', '1506', '1510', '1514', '1515', '1516', '1518', '1522', '1524', '1525', '1532', '1533', '1534', '1537', '1543', '1544', '1546', '1547', '1548', '1549', '1553', '1555', '1560', '1561', '1562', '1567', '1568', '1570', '1572', '1574', '1576', '1583', '1594', '1595', '1596', '1598', '1600', '1607', '1614', '1618', '1620', '1622', '1623', '1625', '1632', '1633', '1634', '1635', '1637', '1639', '1640', '1641', '1642', '1645', '1646', '1647', '1649', '1651', '1654', '1658', '1659', '1660', '1669', '1670', '1671', '1673', '1675', '1676', '1679', '1682', '1684', '1687', '1688', '1690', '1698', '1700', '1701', '1702', '1703', '1704', '1705', '1706', '1715', '1717', '1719', '1721', '1725', '1726', '1728', '1730', '1732', '1734', '1736', '1739', '1743', '1744', '1745', '1746', '1750', '1752', '1753', '1755', '1756', '1763', '1764', '1769', '1770', '1771', '1774', '1775', '1777', '1782', '1785', '1788', '1794', '1800', '1801', '1802', '1803', '1807', '1813', '1818', '1819', '1821', '1824', '1825', '1827', '1829', '1830', '1835', '1836', '1837', '1839', '1844', '1845', '1846', '1849', '1854', '1855', '1856', '1858', '1861', '1862', '1863', '1864', '1865', '1867', '1873', '1874', '1876', '1879', '1884', '1885', '1886', '1888', '1890', '1892', '1893', '1895', '1896', '1899', '1904', '1905', '1906', '1907', '1909', '1910', '1913', '1914', '1917', '1918', '1920', '1923', '1925', '1926', '1928', '1934', '1935', '1936', '1937', '1940', '1944', '1946', '1949', '1950', '1951', '1956', '1957', '1960', '1961', '1963', '1965', '1966', '1969', '1972', '1974', '1975', '1976', '1981', '1984', '1986', '1987', '1989', '1993', '1994', '1997']",True,4000,True,2,dd6ed1182b,0.0,0.0,0.0
./expes/v2_2021-03-27_issda-30_2000-prng-1-w4-p2,30_issda-2000,2000,first-2000,800,40,rng,num-start-3200,3200,25726,classic,4422.966192007065,True,,True,1.0,1.0,1.0,1,"['2', '4', '5', '9', '12', '16', '18', '19', '21', '22', '23', '26', '28', '30', '35', '36', '37', '38', '39', '42', '43', '44', '45', '46', '49', '50', '53', '56', '58', '59', '60', '61', '63', '64', '66', '67', '71', '73', '77', '78', '81', '82', '83', '84', '85', '90', '94', '98', '99', '100', '107', '115', '121', '128', '129', '130', '132', '134', '143', '145', '146', '147', '149', '150', '154', '157', '158', '167', '168', '171', '172', '174', '175', '178', '183', '184', '186', '188', '189', '193', '198', '203', '205', '206', '207', '210', '211', '214', '219', '221', '222', '223', '225', '229', '234', '235', '236', '237', '242', '245', '248', '250', '253', '254', '257', '258', '259', '265', '268', '273', '276', '277', '278', '280', '284', '285', '290', '291', '300', '302', '304', '307', '316', '320', '322', '324', '325', '326', '327', '329', '332', '336', '338', '339', '342', '343', '345', '346', '348', '349', '352', '353', '355', '362', '363', '364', '365', '368', '371', '376', '379', '381', '383', '385', '386', '389', '398', '408', '409', '410', '411', '412', '418', '420', '421', '422', '424', '426', '428', '429', '430', '435', '437', '441', '444', '446', '449', '450', '451', '452', '455', '458', '459', '461', '462', '463', '465', '466', '469', '471', '473', '476', '478', '479', '481', '482', '489', '491', '494', '495', '497', '498', '500', '502', '504', '505', '507', '509', '512', '513', '514', '517', '518', '519', '520', '523', '529', '530', '531', '534', '546', '547', '548', '549', '551', '552', '559', '560', '564', '568', '569', '576', '577', '582', '584', '594', '595', '596', '597', '602', '603', '604', '606', '607', '608', '611', '612', '613', '614', '621', '622', '626', '628', '629', '630', '632', '636', '638', '639', '641', '642', '645', '648', '649', '650', '651', '655', '656', '657', '658', '660', '663', '667', '671', '672', '679', '681', '682', '685', '691', '694', '695', '697', '699', '704', '705', '706', '708', '709', '711', '713', '724', '727', '729', '731', '732', '736', '739', '747', '748', '752', '754', '756', '759', '762', '766', '768', '773', '775', '776', '777', '778', '779', '781', '784', '785', '786', '787', '792', '799', '800', '802', '806', '807', '809', '811', '814', '815', '817', '822', '823', '824', '828', '829', '833', '837', '845', '847', '849', '853', '854', '861', '863', '865', '873', '874', '880', '881', '884', '885', '887', '892', '896', '897', '898', '899', '900', '912', '913', '915', '918', '921', '922', '924', '928', '929', '932', '934', '938', '939', '941', '942', '944', '952', '961', '962', '968', '971', '977', '981', '984', '986', '993', '994', '995', '996', '1000', '1002', '1003', '1006', '1009', '1011', '1014', '1015', '1016', '1017', '1023', '1024', '1025', '1026', '1027', '1029', '1031', '1033', '1034', '1035', '1037', '1040', '1042', '1043', '1045', '1048', '1050', '1053', '1054', '1055', '1058', '1063', '1067', '1073', '1074', '1081', '1083', '1091', '1094', '1095', '1101', '1102', '1103', '1106', '1107', '1109', '1110', '1111', '1112', '1115', '1116', '1117', '1118', '1122', '1123', '1124', '1125', '1127', '1128', '1129', '1132', '1133', '1136', '1140', '1146', '1148', '1149', '1150', '1154', '1156', '1157', '1160', '1166', '1167', '1168', '1169', '1170', '1173', '1175', '1177', '1180', '1184', '1185', '1186', '1188', '1197', '1200', '1202', '1204', '1207', '1210', '1211', '1212', '1215', '1216', '1218', '1221', '1222', '1229', '1230', '1231', '1232', '1233', '1237', '1241', '1242', '1245', '1248', '1252', '1253', '1254', '1255', '1257', '1260', '1264', '1266', '1275', '1276', '1277', '1280', '1286', '1288', '1289', '1292', '1293', '1302', '1305', '1309', '1316', '1318', '1322', '1324', '1326', '1328', '1329', '1330', '1331', '1335', '1336', '1339', '1345', '1351', '1352', '1353', '1356', '1360', '1362', '1363', '1364', '1368', '1373', '1374', '1377', '1379', '1381', '1382', '1383', '1387', '1388', '1389', '1395', '1396', '1397', '1400', '1406', '1407', '1408', '1410', '1413', '1417', '1419', '1424', '1426', '1435', '1437', '1439', '1440', '1441', '1442', '1444', '1453', '1457', '1458', '1460', '1464', '1465', '1469', '1473', '1474', '1478', '1480', '1483', '1484', '1486', '1487', '1488', '1492', '1494', '1495', '1496', '1498', '1501', '1509', '1510', '1511', '1512', '1517', '1522', '1524', '1529', '1531', '1536', '1538', '1543', '1545', '1548', '1552', '1554', '1555', '1559', '1562', '1564', '1565', '1569', '1572', '1573', '1576', '1578', '1579', '1589', '1590', '1593', '1594', '1595', '1597', '1598', '1602', '1603', '1605', '1608', '1609', '1611', '1612', '1615', '1616', '1618', '1621', '1623', '1624', '1625', '1629', '1631', '1633', '1634', '1636', '1643', '1644', '1646', '1647', '1648', '1650', '1652', '1654', '1655', '1656', '1657', '1658', '1661', '1662', '1666', '1673', '1674', '1676', '1679', '1680', '1681', '1682', '1683', '1692', '1696', '1697', '1698', '1700', '1705', '1710', '1711', '1712', '1713', '1716', '1721', '1722', '1723', '1724', '1725', '1731', '1732', '1734', '1735', '1736', '1738', '1739', '1742', '1743', '1744', '1748', '1752', '1753', '1754', '1756', '1757', '1759', '1760', '1762', '1764', '1766', '1767', '1773', '1774', '1777', '1778', '1782', '1786', '1794', '1797', '1800', '1801', '1805', '1808', '1809', '1813', '1815', '1818', '1825', '1826', '1829', '1830', '1831', '1835', '1837', '1843', '1845', '1847', '1850', '1851', '1852', '1858', '1862', '1863', '1864', '1865', '1866', '1870', '1871', '1873', '1877', '1879', '1880', '1883', '1885', '1886', '1887', '1888', '1889', '1893', '1895', '1896', '1897', '1898', '1905', '1907', '1910', '1911', '1918', '1921', '1922', '1924', '1926', '1927', '1928', '1929', '1933', '1934', '1936', '1945', '1946', '1950', '1951', '1955', '1956', '1959', '1961', '1965', '1966', '1967', '1971', '1974', '1976', '1977', '1978', '1980', '1981', '1983', '1985', '1987', '1988', '1990', '1992', '1993', '1994', '1995', '1997', '1998', '1999', '2000']",False,4000,True,2,d1cfbd4916,0.0,1.0,1.0
./expes/v2_2021-03-27_issda-30_2000-prng-1-w4-p2,30_issda-2000,2000,first-2000,900,45,rng,num-start-1600,1600,25726,classic,2057.748987197876,True,,True,1.0,1.0,1.0,1,"['2', '7', '8', '11', '12', '14', '15', '17', '18', '19', '20', '21', '23', '24', '25', '26', '27', '29', '31', '32', '36', '38', '40', '42', '44', '46', '49', '53', '54', '56', '58', '59', '60', '61', '62', '68', '70', '71', '74', '80', '84', '85', '86', '87', '89', '97', '100', '102', '104', '105', '106', '108', '109', '110', '111', '113', '116', '117', '119', '120', '121', '122', '123', '124', '125', '130', '131', '132', '133', '134', '135', '136', '137', '141', '142', '143', '147', '152', '153', '155', '156', '157', '161', '162', '164', '166', '167', '168', '170', '171', '172', '173', '174', '176', '178', '179', '180', '181', '182', '183', '188', '189', '192', '193', '194', '197', '198', '203', '204', '205', '209', '210', '212', '213', '217', '218', '223', '226', '227', '228', '229', '230', '239', '242', '243', '244', '246', '247', '249', '251', '253', '263', '266', '271', '272', '273', '275', '276', '277', '282', '283', '284', '285', '288', '289', '292', '295', '298', '301', '304', '305', '306', '307', '311', '312', '319', '322', '326', '329', '331', '332', '333', '334', '335', '337', '341', '345', '346', '347', '348', '350', '351', '352', '354', '355', '360', '361', '362', '365', '367', '371', '372', '373', '374', '375', '377', '382', '383', '387', '388', '391', '394', '398', '400', '402', '405', '406', '408', '409', '410', '411', '412', '414', '416', '420', '421', '423', '428', '429', '430', '431', '432', '433', '438', '444', '452', '453', '455', '456', '457', '459', '460', '462', '466', '473', '474', '476', '477', '484', '485', '488', '496', '497', '498', '499', '503', '507', '509', '514', '515', '519', '520', '522', '523', '524', '526', '530', '531', '532', '533', '535', '538', '539', '543', '546', '547', '548', '550', '552', '553', '557', '559', '562', '564', '565', '567', '569', '571', '576', '581', '583', '584', '585', '589', '590', '595', '596', '597', '599', '603', '605', '607', '610', '615', '616', '617', '620', '625', '626', '627', '630', '631', '633', '636', '638', '642', '644', '645', '646', '650', '651', '653', '657', '659', '661', '662', '663', '664', '666', '667', '673', '674', '675', '676', '677', '678', '681', '684', '685', '687', '688', '689', '691', '692', '693', '694', '698', '700', '706', '709', '711', '712', '714', '715', '723', '724', '727', '732', '734', '736', '746', '747', '748', '749', '750', '757', '758', '761', '763', '764', '765', '766', '767', '771', '776', '777', '780', '782', '785', '786', '789', '791', '795', '796', '797', '798', '799', '806', '808', '810', '811', '813', '816', '817', '818', '822', '824', '825', '826', '827', '832', '833', '835', '836', '837', '838', '840', '843', '846', '850', '853', '854', '855', '861', '863', '864', '866', '867', '868', '870', '871', '873', '875', '878', '881', '888', '892', '893', '894', '896', '897', '899', '900', '901', '903', '906', '910', '916', '920', '923', '925', '926', '929', '930', '933', '934', '936', '937', '940', '946', '949', '950', '951', '952', '956', '958', '962', '964', '965', '969', '971', '973', '974', '977', '978', '980', '981', '985', '987', '988', '1001', '1004', '1007', '1008', '1010', '1013', '1016', '1017', '1018', '1019', '1021', '1024', '1026', '1028', '1029', '1030', '1035', '1036', '1037', '1041', '1042', '1044', '1045', '1046', '1047', '1050', '1053', '1056', '1057', '1059', '1060', '1061', '1062', '1063', '1064', '1066', '1070', '1071', '1072', '1073', '1075', '1077', '1079', '1080', '1083', '1084', '1088', '1089', '1091', '1092', '1093', '1097', '1098', '1100', '1101', '1102', '1106', '1110', '1111', '1113', '1114', '1115', '1118', '1119', '1121', '1124', '1132', '1133', '1136', '1137', '1139', '1141', '1142', '1146', '1148', '1151', '1153', '1154', '1158', '1160', '1162', '1165', '1168', '1169', '1173', '1174', '1176', '1177', '1179', '1183', '1185', '1186', '1188', '1190', '1191', '1195', '1197', '1198', '1199', '1202', '1204', '1205', '1206', '1209', '1210', '1212', '1215', '1223', '1224', '1225', '1228', '1230', '1231', '1235', '1238', '1239', '1240', '1241', '1242', '1243', '1245', '1246', '1247', '1248', '1249', '1251', '1252', '1253', '1255', '1256', '1262', '1263', '1264', '1275', '1280', '1281', '1284', '1289', '1290', '1295', '1300', '1303', '1305', '1308', '1309', '1312', '1315', '1317', '1320', '1322', '1325', '1327', '1328', '1330', '1334', '1338', '1347', '1349', '1350', '1357', '1358', '1359', '1360', '1362', '1364', '1367', '1368', '1370', '1371', '1372', '1373', '1375', '1381', '1386', '1387', '1389', '1390', '1391', '1393', '1394', '1395', '1396', '1399', '1400', '1402', '1405', '1406', '1409', '1410', '1414', '1415', '1419', '1421', '1423', '1424', '1426', '1427', '1428', '1429', '1432', '1433', '1434', '1436', '1438', '1439', '1441', '1442', '1445', '1446', '1449', '1450', '1451', '1452', '1453', '1454', '1455', '1457', '1458', '1464', '1466', '1468', '1469', '1474', '1476', '1481', '1483', '1485', '1487', '1489', '1490', '1491', '1492', '1495', '1503', '1508', '1510', '1511', '1513', '1518', '1520', '1523', '1524', '1526', '1527', '1528', '1529', '1531', '1532', '1533', '1540', '1541', '1542', '1545', '1546', '1551', '1556', '1558', '1559', '1560', '1561', '1564', '1565', '1566', '1567', '1572', '1574', '1580', '1581', '1582', '1583', '1584', '1585', '1586', '1587', '1589', '1592', '1593', '1594', '1595', '1597', '1598', '1599', '1604', '1606', '1611', '1618', '1625', '1628', '1629', '1630', '1631', '1634', '1636', '1637', '1638', '1639', '1645', '1653', '1654', '1656', '1657', '1658', '1659', '1669', '1670', '1681', '1682', '1684', '1686', '1688', '1703', '1704', '1705', '1706', '1708', '1709', '1713', '1715', '1719', '1720', '1721', '1724', '1728', '1730', '1731', '1732', '1733', '1734', '1738', '1741', '1743', '1744', '1745', '1746', '1749', '1755', '1760', '1762', '1763', '1770', '1774', '1775', '1776', '1777', '1779', '1780', '1786', '1789', '1791', '1792', '1794', '1796', '1797', '1800', '1801', '1803', '1804', '1806', '1808', '1809', '1810', '1811', '1813', '1816', '1817', '1818', '1820', '1821', '1822', '1825', '1828', '1829', '1831', '1834', '1835', '1837', '1838', '1840', '1841', '1847', '1849', '1853', '1856', '1857', '1861', '1863', '1867', '1874', '1875', '1880', '1883', '1885', '1887', '1889', '1891', '1893', '1894', '1903', '1906', '1907', '1908', '1911', '1918', '1922', '1925', '1927', '1928', '1930', '1932', '1933', '1934', '1936', '1938', '1939', '1940', '1941', '1945', '1947', '1948', '1949', '1951', '1952', '1953', '1954', '1957', '1958', '1960', '1963', '1967', '1968', '1970', '1971', '1972', '1975', '1976', '1977', '1979', '1980', '1982', '1984', '1985', '1986', '1988', '1991', '1992', '1994', '1995', '1997', '1998', '2000']",False,4000,True,2,a5c38f2056,0.0,1.0,1.0
./expes/v2_2021-03-27_issda-30_2000-prng-1-w4-p2,30_issda-2000,2000,first-2000,200,10,rng,num-start-2200,2200,25726,classic,1486.485255241394,True,,True,1.0,1.0,1.0,1,"['15', '27', '32', '42', '59', '64', '65', '74', '87', '88', '91', '93', '130', '132', '135', '137', '158', '182', '200', '211', '214', '222', '244', '255', '268', '275', '279', '284', '309', '311', '320', '327', '335', '393', '405', '433', '445', '475', '476', '480', '484', '487', '488', '529', '532', '540', '547', '552', '556', '572', '573', '584', '598', '602', '617', '635', '643', '669', '678', '690', '696', '705', '719', '738', '749', '758', '772', '774', '791', '794', '799', '809', '814', '835', '836', '841', '851', '863', '875', '884', '894', '896', '911', '943', '961', '964', '969', '971', '976', '988', '991', '1014', '1036', '1039', '1066', '1068', '1072', '1094', '1097', '1108', '1110', '1115', '1126', '1129', '1146', '1166', '1172', '1175', '1176', '1182', '1190', '1197', '1199', '1201', '1211', '1214', '1219', '1220', '1229', '1237', '1240', '1241', '1251', '1259', '1271', '1282', '1284', '1297', '1300', '1301', '1309', '1319', '1343', '1375', '1376', '1377', '1395', '1397', '1413', '1425', '1431', '1462', '1463', '1466', '1469', '1472', '1473', '1476', '1492', '1519', '1553', '1560', '1575', '1592', '1596', '1598', '1615', '1640', '1641', '1662', '1687', '1704', '1707', '1714', '1716', '1749', '1752', '1754', '1763', '1764', '1765', '1773', '1776', '1778', '1782', '1788', '1800', '1805', '1837', '1838', '1852', '1853', '1862', '1876', '1885', '1887', '1889', '1897', '1903', '1917', '1918', '1927', '1944', '1961', '1964', '1975', '1976', '1978', '1990', '1993']",False,4000,True,2,7e64c9ce06,0.0,1.0,1.0
./expes/v2_2021-03-27_issda-30_2000-prng-1-w4-p2,30_issda-2000,2000,first-2000,300,15,rng,num-start-2200,2200,25726,classic,1503.791133403778,True,,True,1.0,1.0,1.0,1,"['6', '9', '11', '16', '31', '52', '66', '67', '68', '71', '73', '76', '90', '91', '92', '95', '104', '129', '133', '134', '148', '156', '164', '166', '183', '190', '197', '198', '203', '217', '223', '232', '238', '239', '245', '273', '275', '279', '285', '286', '290', '294', '307', '312', '315', '321', '325', '329', '334', '338', '340', '341', '357', '358', '361', '366', '374', '392', '394', '399', '400', '401', '423', '426', '428', '430', '459', '460', '483', '487', '489', '491', '492', '495', '497', '503', '505', '512', '531', '537', '538', '545', '547', '557', '563', '569', '581', '585', '593', '607', '617', '620', '621', '632', '644', '655', '662', '665', '672', '673', '680', '703', '712', '715', '716', '717', '728', '740', '743', '747', '750', '767', '769', '782', '788', '795', '800', '821', '822', '830', '837', '846', '849', '851', '861', '862', '863', '867', '868', '869', '874', '879', '888', '891', '892', '893', '894', '899', '901', '904', '905', '913', '916', '917', '918', '923', '930', '934', '936', '939', '940', '946', '948', '950', '963', '978', '981', '984', '989', '994', '1003', '1004', '1007', '1016', '1018', '1024', '1027', '1028', '1065', '1066', '1067', '1069', '1070', '1072', '1076', '1093', '1097', '1099', '1104', '1109', '1116', '1125', '1128', '1138', '1145', '1162', '1171', '1179', '1184', '1194', '1198', '1206', '1212', '1219', '1224', '1232', '1234', '1236', '1243', '1246', '1249', '1257', '1265', '1268', '1285', '1288', '1317', '1329', '1331', '1338', '1339', '1348', '1353', '1356', '1361', '1366', '1373', '1380', '1381', '1383', '1395', '1402', '1405', '1408', '1424', '1430', '1438', '1460', '1471', '1480', '1488', '1508', '1515', '1523', '1524', '1527', '1539', '1571', '1573', '1582', '1583', '1584', '1587', '1589', '1593', '1604', '1612', '1616', '1638', '1654', '1661', '1666', '1673', '1676', '1682', '1687', '1694', '1695', '1698', '1699', '1707', '1725', '1729', '1744', '1752', '1759', '1762', '1766', '1768', '1772', '1781', '1786', '1818', '1821', '1830', '1837', '1839', '1840', '1853', '1863', '1865', '1870', '1871', '1884', '1886', '1890', '1893', '1928', '1932', '1937', '1941', '1951', '1952', '1971', '1974', '1984', '1986', '1987', '1988', '1995']",False,4000,True,2,b1e83547f9,0.0,1.0,1.0
./expes/v2_2021-03-27_issda-30_2000-prng-1-w4-p2,30_issda-2000,2000,first-2000,900,45,rng,num-start-1800,1800,25726,classic,2069.292930841446,True,,True,1.0,1.0,1.0,1,"['4', '7', '9', '10', '11', '13', '18', '19', '22', '24', '33', '36', '37', '40', '41', '44', '49', '50', '51', '52', '57', '58', '61', '63', '64', '65', '66', '69', '70', '73', '74', '75', '77', '79', '81', '84', '89', '94', '95', '96', '98', '100', '101', '102', '105', '109', '110', '111', '116', '117', '121', '123', '124', '126', '127', '130', '133', '135', '137', '139', '146', '149', '150', '151', '152', '155', '157', '158', '159', '164', '165', '167', '170', '173', '174', '177', '180', '183', '186', '188', '189', '191', '192', '193', '194', '195', '197', '204', '205', '206', '208', '209', '213', '214', '216', '218', '222', '228', '230', '232', '236', '238', '239', '243', '250', '252', '261', '262', '263', '264', '268', '270', '272', '274', '275', '277', '278', '280', '282', '283', '284', '286', '287', '288', '290', '292', '295', '296', '297', '301', '307', '309', '310', '311', '315', '320', '321', '322', '323', '325', '326', '329', '331', '333', '334', '337', '341', '343', '347', '348', '350', '353', '354', '355', '356', '358', '359', '361', '362', '364', '370', '372', '373', '377', '380', '382', '385', '389', '392', '393', '394', '399', '402', '407', '409', '412', '414', '419', '420', '426', '427', '428', '431', '432', '434', '435', '436', '438', '440', '441', '442', '443', '444', '446', '449', '452', '455', '460', '461', '462', '465', '467', '468', '470', '473', '475', '476', '477', '478', '481', '484', '485', '488', '489', '492', '494', '495', '502', '505', '506', '508', '510', '511', '512', '513', '514', '515', '516', '519', '520', '521', '523', '524', '526', '527', '529', '531', '532', '536', '537', '538', '541', '545', '547', '550', '551', '557', '558', '560', '562', '568', '569', '571', '572', '574', '575', '579', '583', '586', '588', '594', '596', '598', '604', '607', '608', '610', '613', '620', '622', '623', '627', '631', '632', '634', '635', '639', '640', '641', '642', '643', '645', '648', '649', '653', '657', '658', '665', '666', '669', '672', '674', '675', '678', '679', '683', '684', '686', '689', '690', '691', '692', '693', '698', '699', '700', '701', '702', '705', '707', '712', '718', '719', '725', '730', '733', '735', '736', '737', '738', '739', '740', '742', '743', '746', '747', '750', '751', '753', '761', '762', '763', '764', '765', '766', '768', '773', '775', '777', '779', '782', '784', '785', '788', '790', '791', '799', '800', '801', '802', '803', '804', '805', '806', '807', '809', '810', '816', '819', '820', '822', '823', '825', '826', '828', '829', '830', '833', '838', '842', '844', '845', '846', '850', '851', '854', '857', '858', '859', '860', '861', '862', '867', '868', '872', '876', '881', '883', '889', '890', '894', '899', '903', '904', '906', '907', '909', '911', '912', '913', '918', '919', '925', '928', '929', '930', '931', '932', '933', '936', '937', '938', '941', '943', '945', '949', '951', '952', '953', '954', '955', '956', '957', '958', '961', '964', '968', '969', '971', '973', '974', '977', '979', '983', '987', '988', '989', '991', '992', '994', '995', '996', '997', '998', '1001', '1002', '1004', '1005', '1008', '1016', '1020', '1021', '1023', '1025', '1026', '1029', '1030', '1033', '1034', '1039', '1040', '1041', '1042', '1043', '1045', '1046', '1047', '1048', '1049', '1052', '1053', '1054', '1055', '1056', '1058', '1061', '1062', '1064', '1067', '1070', '1071', '1072', '1073', '1074', '1075', '1076', '1077', '1078', '1081', '1083', '1087', '1090', '1092', '1097', '1102', '1103', '1104', '1106', '1107', '1108', '1109', '1111', '1112', '1115', '1116', '1117', '1119', '1121', '1122', '1124', '1128', '1130', '1142', '1143', '1145', '1147', '1148', '1150', '1152', '1156', '1160', '1163', '1166', '1171', '1175', '1177', '1180', '1182', '1188', '1189', '1190', '1191', '1198', '1200', '1201', '1205', '1206', '1208', '1211', '1212', '1216', '1218', '1219', '1222', '1224', '1225', '1233', '1240', '1241', '1242', '1243', '1251', '1253', '1254', '1255', '1257', '1261', '1262', '1263', '1267', '1269', '1273', '1274', '1275', '1276', '1277', '1278', '1279', '1281', '1283', '1285', '1286', '1288', '1290', '1295', '1297', '1298', '1301', '1303', '1304', '1305', '1306', '1307', '1308', '1310', '1313', '1315', '1317', '1322', '1324', '1327', '1328', '1330', '1332', '1335', '1338', '1339', '1342', '1349', '1350', '1351', '1354', '1356', '1359', '1362', '1366', '1368', '1370', '1371', '1372', '1374', '1378', '1382', '1383', '1384', '1386', '1390', '1391', '1393', '1394', '1395', '1396', '1397', '1398', '1402', '1403', '1404', '1407', '1408', '1412', '1413', '1414', '1417', '1419', '1422', '1425', '1432', '1433', '1436', '1439', '1440', '1441', '1443', '1445', '1446', '1447', '1449', '1451', '1454', '1456', '1457', '1458', '1460', '1461', '1462', '1463', '1465', '1466', '1467', '1468', '1469', '1470', '1472', '1473', '1474', '1475', '1476', '1479', '1481', '1482', '1483', '1487', '1491', '1492', '1493', '1494', '1497', '1498', '1500', '1504', '1505', '1508', '1509', '1513', '1516', '1521', '1525', '1526', '1528', '1532', '1535', '1537', '1538', '1539', '1540', '1541', '1544', '1545', '1546', '1547', '1548', '1556', '1557', '1558', '1560', '1563', '1566', '1568', '1569', '1570', '1571', '1573', '1574', '1582', '1584', '1588', '1592', '1595', '1600', '1604', '1606', '1607', '1613', '1615', '1618', '1622', '1627', '1629', '1630', '1631', '1632', '1634', '1635', '1636', '1637', '1639', '1642', '1644', '1646', '1647', '1648', '1651', '1652', '1656', '1657', '1659', '1662', '1664', '1666', '1668', '1669', '1670', '1671', '1672', '1675', '1677', '1679', '1680', '1681', '1684', '1686', '1687', '1688', '1689', '1690', '1691', '1703', '1707', '1708', '1711', '1712', '1713', '1715', '1716', '1718', '1722', '1732', '1734', '1738', '1739', '1741', '1743', '1746', '1749', '1755', '1758', '1759', '1760', '1762', '1764', '1766', '1767', '1768', '1770', '1774', '1779', '1781', '1783', '1784', '1785', '1791', '1792', '1794', '1796', '1798', '1799', '1800', '1804', '1805', '1806', '1807', '1809', '1811', '1812', '1813', '1818', '1819', '1822', '1827', '1831', '1833', '1834', '1840', '1841', '1842', '1843', '1845', '1846', '1848', '1849', '1850', '1852', '1855', '1857', '1859', '1860', '1861', '1865', '1867', '1868', '1874', '1875', '1876', '1877', '1878', '1880', '1882', '1885', '1886', '1887', '1888', '1889', '1892', '1895', '1897', '1903', '1904', '1909', '1910', '1914', '1915', '1916', '1917', '1919', '1920', '1922', '1923', '1926', '1927', '1932', '1933', '1934', '1941', '1942', '1943', '1944', '1945', '1946', '1955', '1956', '1958', '1961', '1962', '1964', '1965', '1966', '1968', '1970', '1971', '1973', '1980', '1981', '1983', '1985', '1986', '1988', '1989', '1990', '1992', '1995']",False,4000,True,2,77685268ac,0.0,1.0,1.0
./expes/v2_2021-03-27_issda-30_2000-prng-1-w4-p2,30_issda-2000,2000,first-2000,600,30,rng,num-start-2200,2200,25726,classic,2281.354157447815,True,,True,1.0,1.0,1.0,1,"['1', '2', '4', '10', '16', '21', '22', '31', '32', '36', '40', '41', '43', '49', '52', '53', '57', '58', '60', '63', '65', '72', '82', '83', '88', '92', '95', '98', '103', '105', '106', '112', '114', '122', '123', '127', '128', '133', '137', '140', '141', '143', '144', '149', '153', '154', '158', '166', '167', '171', '184', '185', '186', '191', '194', '195', '196', '199', '201', '203', '210', '212', '214', '218', '219', '220', '227', '229', '230', '231', '232', '234', '235', '236', '243', '244', '245', '247', '249', '250', '252', '253', '258', '264', '267', '270', '273', '274', '277', '281', '289', '294', '300', '301', '307', '314', '316', '325', '330', '332', '338', '339', '345', '349', '350', '352', '353', '358', '360', '364', '366', '372', '374', '377', '387', '388', '389', '395', '397', '400', '403', '405', '407', '408', '409', '411', '415', '416', '419', '420', '421', '426', '429', '434', '438', '443', '444', '447', '455', '456', '458', '461', '463', '464', '468', '469', '472', '473', '480', '483', '484', '496', '498', '500', '501', '502', '505', '506', '507', '509', '510', '513', '516', '517', '519', '522', '523', '524', '525', '526', '530', '534', '539', '540', '542', '545', '547', '555', '556', '558', '560', '562', '564', '571', '575', '576', '577', '578', '579', '580', '597', '601', '606', '607', '608', '616', '617', '620', '621', '625', '626', '629', '634', '637', '640', '644', '647', '650', '652', '661', '680', '683', '684', '687', '691', '694', '696', '697', '703', '709', '712', '714', '718', '720', '722', '724', '726', '729', '734', '739', '740', '745', '746', '748', '749', '751', '754', '755', '756', '764', '771', '772', '777', '780', '783', '784', '787', '788', '791', '792', '795', '805', '807', '808', '813', '815', '825', '827', '831', '833', '844', '856', '858', '864', '866', '867', '869', '871', '873', '874', '880', '886', '893', '896', '898', '899', '904', '905', '907', '912', '913', '917', '921', '922', '925', '927', '929', '932', '933', '942', '944', '956', '960', '961', '962', '963', '965', '969', '972', '974', '975', '977', '984', '987', '992', '993', '994', '996', '997', '998', '1000', '1002', '1005', '1015', '1020', '1025', '1026', '1035', '1038', '1039', '1041', '1048', '1049', '1053', '1058', '1065', '1068', '1069', '1073', '1077', '1080', '1082', '1086', '1092', '1094', '1095', '1096', '1098', '1103', '1107', '1109', '1110', '1111', '1113', '1116', '1117', '1119', '1124', '1130', '1134', '1138', '1140', '1142', '1143', '1144', '1147', '1150', '1161', '1166', '1167', '1171', '1182', '1184', '1186', '1192', '1195', '1197', '1201', '1205', '1206', '1207', '1211', '1216', '1218', '1219', '1220', '1221', '1232', '1234', '1237', '1240', '1245', '1249', '1255', '1261', '1262', '1279', '1281', '1283', '1285', '1287', '1294', '1296', '1298', '1301', '1304', '1306', '1313', '1315', '1318', '1321', '1322', '1323', '1324', '1325', '1327', '1331', '1335', '1336', '1339', '1345', '1346', '1349', '1351', '1356', '1360', '1363', '1365', '1369', '1374', '1377', '1379', '1383', '1386', '1393', '1394', '1395', '1396', '1398', '1402', '1404', '1406', '1407', '1416', '1418', '1427', '1437', '1439', '1440', '1441', '1442', '1444', '1446', '1454', '1464', '1466', '1471', '1472', '1478', '1484', '1485', '1486', '1504', '1506', '1514', '1515', '1516', '1517', '1519', '1525', '1527', '1530', '1539', '1540', '1541', '1546', '1547', '1551', '1557', '1560', '1564', '1565', '1567', '1575', '1577', '1578', '1584', '1585', '1587', '1588', '1593', '1597', '1602', '1603', '1607', '1608', '1613', '1621', '1623', '1626', '1627', '1632', '1634', '1635', '1648', '1651', '1652', '1654', '1655', '1656', '1660', '1664', '1668', '1676', '1680', '1682', '1685', '1686', '1687', '1688', '1691', '1694', '1696', '1697', '1698', '1701', '1711', '1720', '1724', '1737', '1739', '1740', '1741', '1748', '1750', '1752', '1756', '1761', '1762', '1765', '1768', '1770', '1771', '1772', '1773', '1776', '1784', '1786', '1788', '1791', '1792', '1795', '1800', '1802', '1807', '1810', '1815', '1816', '1819', '1821', '1835', '1836', '1837', '1840', '1841', '1842', '1845', '1846', '1847', '1848', '1852', '1853', '1861', '1862', '1864', '1875', '1877', '1879', '1886', '1888', '1896', '1902', '1908', '1910', '1911', '1912', '1913', '1914', '1917', '1918', '1924', '1926', '1930', '1932', '1934', '1938', '1946', '1950', '1951', '1959', '1965', '1967', '1968', '1974', '1983', '1990', '1991', '1993', '1995', '2000']",False,4000,True,2,fee3117f92,0.0,1.0,1.0
./expes/v2_2021-03-27_issda-30_2000-prng-1-w4-p2,30_issda-2000,2000,first-2000,100,5,rng,num-start-1000,1000,25726,classic,667.5465161800385,True,,True,1.0,1.0,1.0,1,"['41', '63', '77', '90', '119', '130', '132', '175', '177', '184', '199', '200', '221', '233', '259', '277', '281', '292', '304', '325', '394', '396', '398', '426', '429', '465', '480', '481', '507', '530', '547', '586', '643', '694', '731', '732', '759', '769', '773', '777', '792', '800', '821', '825', '835', '873', '912', '929', '935', '941', '972', '994', '999', '1001', '1014', '1020', '1038', '1059', '1066', '1090', '1106', '1142', '1174', '1186', '1191', '1197', '1232', '1243', '1271', '1315', '1319', '1331', '1354', '1358', '1414', '1416', '1436', '1438', '1444', '1487', '1493', '1555', '1566', '1656', '1662', '1668', '1699', '1701', '1752', '1762', '1799', '1805', '1838', '1847', '1848', '1851', '1867', '1938', '1946', '1971']",False,4000,True,2,ff4e3ca38e,0.0,1.0,1.0
./expes/v2_2021-03-27_issda-30_2000-prng-1-w4-p2,30_issda-2000,2000,first-2000,500,25,rng,num-start-2400,2400,25726,classic,2039.5271317958832,True,,True,1.0,1.0,1.0,1,"['4', '7', '10', '12', '15', '20', '22', '27', '38', '41', '42', '48', '53', '55', '65', '71', '73', '76', '83', '84', '85', '88', '89', '92', '95', '106', '109', '110', '114', '121', '122', '124', '127', '128', '137', '138', '153', '154', '156', '158', '159', '160', '162', '164', '167', '170', '175', '178', '183', '185', '191', '192', '195', '199', '207', '212', '218', '227', '232', '233', '235', '238', '240', '243', '248', '251', '262', '273', '280', '285', '289', '291', '295', '298', '306', '307', '314', '318', '322', '326', '331', '332', '334', '338', '339', '343', '346', '348', '354', '358', '362', '364', '365', '368', '370', '377', '385', '392', '393', '397', '400', '401', '402', '405', '407', '411', '414', '416', '421', '425', '426', '427', '432', '433', '440', '441', '442', '448', '449', '455', '456', '469', '470', '475', '478', '479', '484', '487', '496', '497', '503', '507', '510', '511', '513', '516', '519', '521', '527', '528', '530', '532', '534', '536', '537', '550', '552', '557', '566', '567', '569', '574', '575', '585', '586', '591', '592', '593', '594', '595', '596', '598', '599', '600', '601', '607', '609', '615', '616', '620', '622', '625', '626', '635', '638', '639', '642', '645', '646', '657', '659', '662', '663', '666', '669', '670', '676', '678', '679', '690', '692', '694', '697', '703', '711', '718', '729', '731', '732', '738', '742', '743', '745', '748', '750', '762', '763', '781', '782', '794', '795', '796', '800', '803', '804', '809', '811', '812', '820', '823', '825', '826', '827', '839', '841', '843', '846', '848', '852', '855', '861', '863', '866', '868', '869', '877', '881', '883', '888', '889', '893', '899', '900', '901', '903', '904', '906', '909', '910', '925', '930', '932', '941', '948', '952', '957', '966', '968', '970', '979', '981', '992', '997', '1002', '1005', '1008', '1013', '1017', '1022', '1037', '1038', '1042', '1050', '1063', '1066', '1067', '1072', '1074', '1077', '1078', '1079', '1082', '1084', '1095', '1100', '1110', '1113', '1115', '1117', '1119', '1122', '1126', '1128', '1144', '1149', '1152', '1158', '1164', '1166', '1167', '1171', '1173', '1174', '1180', '1193', '1194', '1206', '1218', '1220', '1223', '1227', '1231', '1237', '1241', '1243', '1246', '1249', '1250', '1256', '1261', '1265', '1266', '1269', '1271', '1272', '1275', '1283', '1284', '1285', '1286', '1288', '1296', '1300', '1301', '1305', '1313', '1316', '1323', '1326', '1328', '1335', '1336', '1338', '1340', '1341', '1346', '1356', '1367', '1369', '1376', '1380', '1383', '1384', '1386', '1387', '1393', '1405', '1409', '1425', '1429', '1436', '1444', '1448', '1451', '1456', '1457', '1466', '1470', '1478', '1499', '1506', '1510', '1526', '1529', '1530', '1554', '1568', '1571', '1573', '1577', '1580', '1582', '1585', '1586', '1588', '1591', '1597', '1603', '1604', '1606', '1607', '1611', '1612', '1613', '1620', '1626', '1634', '1635', '1636', '1638', '1640', '1641', '1642', '1648', '1653', '1657', '1659', '1665', '1669', '1676', '1677', '1694', '1695', '1698', '1702', '1710', '1714', '1716', '1720', '1722', '1731', '1736', '1737', '1738', '1751', '1753', '1754', '1757', '1759', '1761', '1765', '1766', '1770', '1771', '1773', '1777', '1781', '1782', '1784', '1790', '1791', '1795', '1798', '1800', '1801', '1803', '1805', '1807', '1809', '1814', '1822', '1825', '1827', '1832', '1835', '1842', '1843', '1845', '1846', '1848', '1852', '1853', '1854', '1859', '1862', '1867', '1870', '1871', '1875', '1876', '1878', '1880', '1889', '1890', '1894', '1900', '1901', '1905', '1915', '1918', '1919', '1925', '1927', '1930', '1932', '1934', '1935', '1948', '1956', '1959', '1966', '1968', '1970', '1972', '1976', '1979', '1984', '1988', '1989', '1995']",False,4000,True,2,60a9700d97,0.0,1.0,1.0
./expes/v2_2021-03-27_issda-30_2000-prng-1-w4-p2,30_issda-2000,2000,first-2000,600,30,rng,num-start-3800,3800,25726,classic,4010.2303025722504,True,,True,1.0,1.0,1.0,1,"['7', '10', '14', '25', '28', '30', '35', '41', '46', '47', '53', '57', '63', '66', '67', '68', '69', '70', '72', '76', '77', '80', '82', '90', '93', '101', '105', '118', '119', '125', '129', '130', '132', '134', '136', '141', '144', '147', '154', '164', '165', '168', '169', '170', '171', '172', '173', '175', '177', '179', '183', '184', '186', '190', '192', '195', '196', '199', '200', '205', '210', '217', '218', '219', '221', '222', '223', '224', '228', '229', '233', '234', '239', '240', '248', '250', '255', '259', '261', '262', '272', '277', '279', '281', '282', '285', '286', '288', '289', '292', '294', '304', '305', '308', '315', '317', '322', '325', '328', '330', '335', '341', '347', '348', '349', '350', '353', '355', '357', '359', '362', '364', '365', '379', '384', '389', '392', '394', '396', '398', '401', '402', '405', '408', '411', '414', '421', '426', '429', '431', '433', '446', '447', '451', '456', '459', '462', '465', '470', '473', '475', '477', '480', '481', '483', '497', '500', '501', '504', '507', '508', '512', '522', '523', '530', '535', '542', '545', '546', '547', '551', '555', '562', '568', '579', '583', '586', '589', '590', '592', '593', '594', '595', '597', '598', '601', '605', '606', '607', '608', '612', '614', '615', '618', '619', '633', '639', '642', '643', '654', '655', '656', '658', '664', '667', '670', '691', '692', '694', '698', '699', '701', '703', '705', '710', '711', '713', '720', '729', '731', '732', '733', '734', '738', '739', '741', '742', '746', '748', '750', '751', '754', '756', '757', '758', '759', '761', '762', '764', '768', '769', '772', '773', '776', '777', '780', '781', '786', '787', '792', '795', '798', '800', '801', '807', '808', '812', '814', '821', '825', '826', '834', '835', '836', '840', '844', '850', '854', '856', '860', '868', '872', '873', '876', '880', '883', '884', '886', '890', '893', '895', '899', '901', '902', '903', '905', '912', '914', '916', '919', '920', '928', '929', '931', '933', '935', '938', '941', '942', '948', '966', '970', '972', '975', '977', '981', '991', '994', '999', '1000', '1001', '1003', '1004', '1014', '1018', '1019', '1020', '1021', '1022', '1023', '1024', '1025', '1028', '1029', '1030', '1032', '1033', '1034', '1035', '1038', '1039', '1040', '1045', '1049', '1054', '1058', '1059', '1065', '1066', '1067', '1073', '1076', '1077', '1079', '1080', '1082', '1083', '1084', '1090', '1093', '1095', '1106', '1117', '1121', '1139', '1142', '1146', '1150', '1153', '1155', '1156', '1160', '1161', '1165', '1166', '1174', '1175', '1181', '1185', '1186', '1188', '1190', '1191', '1197', '1199', '1200', '1206', '1222', '1229', '1230', '1231', '1232', '1238', '1239', '1240', '1243', '1244', '1249', '1250', '1253', '1256', '1257', '1265', '1271', '1273', '1278', '1280', '1281', '1288', '1289', '1291', '1295', '1296', '1302', '1310', '1315', '1319', '1323', '1324', '1326', '1327', '1331', '1332', '1333', '1335', '1337', '1339', '1340', '1341', '1342', '1344', '1345', '1346', '1347', '1349', '1354', '1358', '1359', '1368', '1371', '1373', '1379', '1385', '1393', '1402', '1403', '1407', '1410', '1414', '1415', '1416', '1418', '1424', '1432', '1436', '1437', '1438', '1444', '1445', '1451', '1454', '1455', '1466', '1469', '1472', '1474', '1477', '1478', '1485', '1486', '1487', '1491', '1492', '1493', '1502', '1505', '1508', '1509', '1510', '1518', '1519', '1522', '1523', '1524', '1525', '1531', '1534', '1535', '1536', '1543', '1548', '1555', '1556', '1561', '1566', '1570', '1571', '1573', '1597', '1598', '1600', '1602', '1605', '1610', '1611', '1616', '1619', '1620', '1625', '1632', '1648', '1653', '1655', '1656', '1661', '1662', '1666', '1668', '1669', '1673', '1678', '1682', '1685', '1690', '1691', '1696', '1697', '1699', '1700', '1701', '1703', '1707', '1709', '1712', '1713', '1716', '1717', '1719', '1724', '1726', '1728', '1729', '1733', '1735', '1742', '1746', '1752', '1755', '1760', '1762', '1772', '1775', '1779', '1780', '1793', '1797', '1799', '1805', '1807', '1809', '1818', '1820', '1824', '1826', '1830', '1834', '1837', '1838', '1840', '1844', '1847', '1848', '1850', '1851', '1854', '1855', '1857', '1858', '1860', '1862', '1864', '1867', '1870', '1877', '1882', '1883', '1884', '1886', '1890', '1895', '1896', '1900', '1902', '1903', '1908', '1910', '1911', '1918', '1919', '1929', '1935', '1937', '1938', '1939', '1942', '1946', '1961', '1964', '1965', '1971', '1976', '1977', '1978', '1981', '1983', '1987', '1989', '1990', '1993', '1997']",False,4000,True,2,c6cbf1cd7d,0.0,1.0,1.0
./expes/v2_2021-03-27_issda-30_2000-prng-1-w4-p2,30_issda-2000,2000,first-2000,400,20,rng,num-start-3600,3600,25726,classic,2992.106578350067,True,,True,1.0,1.0,1.0,1,"['4', '8', '14', '16', '18', '23', '35', '36', '39', '49', '53', '56', '58', '59', '61', '63', '64', '67', '76', '78', '81', '82', '90', '95', '101', '106', '107', '108', '117', '121', '125', '147', '150', '153', '160', '169', '170', '172', '179', '186', '187', '191', '199', '202', '211', '218', '231', '234', '238', '242', '256', '270', '276', '277', '279', '284', '291', '293', '298', '301', '318', '319', '330', '333', '335', '344', '349', '351', '361', '365', '368', '369', '373', '387', '388', '393', '408', '409', '410', '411', '413', '419', '428', '429', '431', '435', '439', '451', '452', '455', '458', '460', '463', '466', '467', '471', '482', '489', '492', '495', '504', '507', '512', '516', '517', '523', '529', '536', '538', '545', '550', '551', '555', '561', '562', '567', '570', '573', '578', '584', '597', '607', '630', '635', '637', '640', '641', '660', '661', '663', '671', '676', '681', '687', '691', '696', '699', '700', '705', '712', '717', '718', '724', '725', '729', '730', '738', '740', '744', '745', '746', '748', '749', '751', '753', '755', '761', '768', '778', '781', '782', '788', '789', '790', '796', '797', '808', '810', '821', '829', '834', '835', '851', '856', '858', '861', '867', '868', '875', '879', '881', '884', '886', '888', '892', '893', '901', '902', '909', '912', '920', '934', '936', '941', '942', '943', '952', '962', '967', '972', '976', '977', '978', '986', '989', '995', '1000', '1004', '1008', '1013', '1021', '1024', '1025', '1026', '1027', '1029', '1032', '1039', '1043', '1048', '1052', '1053', '1056', '1058', '1063', '1067', '1068', '1080', '1084', '1095', '1096', '1102', '1105', '1109', '1110', '1115', '1120', '1125', '1127', '1135', '1137', '1141', '1143', '1144', '1147', '1154', '1168', '1169', '1174', '1181', '1189', '1190', '1206', '1217', '1221', '1227', '1232', '1234', '1243', '1244', '1245', '1248', '1252', '1264', '1268', '1273', '1275', '1276', '1279', '1280', '1285', '1296', '1305', '1307', '1310', '1312', '1313', '1318', '1347', '1351', '1354', '1355', '1356', '1359', '1360', '1365', '1367', '1369', '1370', '1380', '1384', '1390', '1391', '1395', '1396', '1400', '1402', '1404', '1407', '1410', '1411', '1412', '1414', '1415', '1422', '1425', '1426', '1428', '1430', '1432', '1435', '1444', '1446', '1455', '1473', '1477', '1487', '1488', '1500', '1504', '1507', '1514', '1533', '1543', '1556', '1558', '1560', '1561', '1567', '1570', '1579', '1581', '1582', '1588', '1606', '1609', '1613', '1617', '1622', '1623', '1625', '1629', '1634', '1635', '1641', '1642', '1646', '1660', '1671', '1677', '1678', '1679', '1685', '1704', '1726', '1727', '1739', '1751', '1753', '1760', '1766', '1771', '1774', '1789', '1807', '1812', '1814', '1816', '1832', '1835', '1839', '1846', '1849', '1851', '1856', '1865', '1868', '1874', '1875', '1882', '1885', '1893', '1899', '1900', '1913', '1915', '1918', '1928', '1933', '1934', '1939', '1941', '1958', '1964', '1971', '1975', '1982', '1990', '1992', '2000']",False,4000,True,2,0960da140d,0.0,1.0,1.0
./expes/v2_2021-03-27_issda-30_2000-prng-1-w4-p2,30_issda-2000,2000,first-2000,900,45,rng,num-start-3600,3600,25726,classic,3576.685984134674,True,,True,1.0,1.0,1.0,1,"['1', '2', '4', '6', '7', '11', '13', '19', '21', '24', '26', '27', '28', '30', '34', '35', '36', '38', '39', '41', '45', '47', '49', '52', '53', '55', '57', '58', '60', '61', '66', '68', '69', '70', '71', '74', '75', '76', '78', '81', '82', '86', '90', '93', '96', '97', '99', '100', '101', '104', '106', '107', '110', '111', '115', '117', '118', '121', '124', '125', '126', '129', '130', '131', '134', '136', '137', '138', '141', '146', '148', '155', '161', '162', '166', '168', '172', '173', '175', '178', '180', '183', '187', '188', '189', '193', '195', '196', '199', '202', '205', '209', '213', '219', '221', '222', '226', '227', '228', '231', '232', '236', '237', '238', '242', '243', '244', '250', '251', '253', '256', '257', '259', '260', '265', '266', '267', '268', '269', '270', '271', '272', '273', '274', '276', '280', '282', '284', '285', '287', '289', '290', '291', '292', '293', '294', '295', '299', '301', '304', '305', '306', '307', '309', '310', '312', '315', '317', '320', '322', '326', '327', '328', '329', '331', '332', '335', '339', '340', '341', '346', '347', '348', '351', '352', '354', '360', '361', '364', '366', '368', '369', '370', '371', '372', '373', '375', '378', '379', '380', '382', '386', '392', '393', '397', '399', '401', '403', '404', '407', '408', '410', '412', '413', '415', '419', '420', '425', '427', '428', '429', '434', '437', '440', '441', '442', '444', '449', '452', '457', '459', '464', '468', '472', '473', '474', '479', '481', '482', '483', '486', '487', '488', '489', '492', '493', '499', '502', '503', '504', '505', '510', '511', '513', '514', '515', '517', '521', '524', '525', '529', '533', '538', '540', '541', '543', '548', '549', '550', '555', '558', '561', '562', '565', '569', '571', '573', '574', '576', '579', '580', '581', '585', '586', '587', '588', '592', '593', '594', '595', '597', '600', '601', '602', '604', '605', '606', '607', '608', '612', '616', '617', '618', '620', '622', '627', '628', '630', '634', '635', '637', '639', '640', '641', '643', '645', '647', '648', '649', '650', '651', '654', '658', '662', '663', '665', '667', '668', '677', '678', '680', '683', '685', '689', '693', '694', '696', '697', '698', '700', '705', '706', '708', '713', '714', '715', '717', '718', '720', '721', '724', '726', '727', '728', '729', '731', '732', '733', '734', '735', '740', '741', '742', '743', '745', '746', '747', '750', '753', '756', '757', '761', '762', '764', '766', '767', '768', '770', '771', '772', '773', '775', '777', '778', '779', '780', '783', '784', '785', '787', '788', '790', '791', '797', '798', '799', '803', '804', '811', '814', '817', '822', '825', '827', '828', '830', '831', '832', '835', '836', '837', '839', '840', '841', '848', '850', '851', '854', '858', '859', '862', '864', '867', '872', '875', '876', '878', '879', '880', '882', '885', '887', '888', '890', '893', '897', '904', '905', '906', '909', '912', '914', '920', '922', '928', '929', '930', '934', '936', '945', '946', '947', '948', '949', '951', '953', '954', '958', '959', '961', '962', '963', '966', '967', '968', '970', '972', '973', '975', '977', '978', '980', '982', '983', '984', '985', '986', '987', '988', '989', '990', '991', '995', '997', '1000', '1003', '1004', '1006', '1007', '1008', '1009', '1011', '1017', '1019', '1020', '1023', '1025', '1030', '1036', '1038', '1042', '1050', '1051', '1056', '1058', '1059', '1060', '1062', '1063', '1070', '1075', '1081', '1085', '1086', '1087', '1089', '1090', '1091', '1093', '1100', '1102', '1103', '1105', '1106', '1109', '1110', '1111', '1114', '1117', '1118', '1121', '1123', '1124', '1125', '1127', '1130', '1131', '1133', '1134', '1136', '1137', '1138', '1139', '1142', '1146', '1148', '1151', '1155', '1156', '1158', '1159', '1165', '1170', '1171', '1174', '1175', '1176', '1178', '1179', '1182', '1185', '1190', '1193', '1197', '1200', '1201', '1202', '1204', '1208', '1209', '1210', '1214', '1217', '1219', '1221', '1222', '1226', '1230', '1231', '1236', '1237', '1241', '1246', '1247', '1251', '1253', '1254', '1257', '1259', '1260', '1264', '1265', '1266', '1269', '1271', '1272', '1274', '1275', '1276', '1278', '1279', '1280', '1281', '1282', '1284', '1285', '1290', '1292', '1293', '1295', '1305', '1308', '1312', '1316', '1320', '1321', '1323', '1326', '1327', '1328', '1329', '1330', '1331', '1332', '1334', '1336', '1339', '1340', '1342', '1343', '1344', '1345', '1352', '1353', '1355', '1356', '1357', '1360', '1363', '1364', '1365', '1368', '1369', '1370', '1374', '1376', '1377', '1380', '1382', '1385', '1389', '1394', '1395', '1396', '1397', '1398', '1399', '1404', '1405', '1408', '1409', '1410', '1411', '1412', '1415', '1417', '1423', '1424', '1425', '1427', '1428', '1429', '1435', '1437', '1439', '1441', '1443', '1444', '1445', '1446', '1448', '1450', '1451', '1453', '1460', '1461', '1464', '1467', '1468', '1471', '1472', '1474', '1475', '1476', '1477', '1478', '1480', '1481', '1485', '1487', '1488', '1489', '1491', '1494', '1495', '1496', '1498', '1499', '1500', '1501', '1509', '1512', '1514', '1516', '1517', '1518', '1520', '1521', '1523', '1526', '1527', '1533', '1536', '1537', '1538', '1541', '1548', '1549', '1553', '1555', '1556', '1558', '1561', '1565', '1567', '1569', '1572', '1574', '1576', '1577', '1582', '1585', '1587', '1589', '1590', '1595', '1596', '1598', '1599', '1600', '1601', '1602', '1609', '1610', '1614', '1620', '1622', '1627', '1628', '1629', '1631', '1632', '1633', '1634', '1636', '1642', '1643', '1645', '1648', '1650', '1654', '1655', '1663', '1664', '1665', '1666', '1668', '1673', '1675', '1677', '1679', '1681', '1682', '1684', '1689', '1693', '1694', '1697', '1700', '1703', '1706', '1707', '1711', '1712', '1713', '1714', '1715', '1718', '1722', '1723', '1724', '1725', '1727', '1729', '1731', '1738', '1739', '1745', '1746', '1749', '1751', '1753', '1755', '1759', '1761', '1769', '1775', '1776', '1777', '1778', '1779', '1780', '1782', '1785', '1787', '1793', '1795', '1796', '1800', '1803', '1804', '1808', '1814', '1819', '1821', '1822', '1823', '1826', '1827', '1829', '1830', '1831', '1833', '1836', '1837', '1841', '1846', '1848', '1850', '1865', '1866', '1867', '1868', '1870', '1872', '1874', '1877', '1878', '1881', '1887', '1888', '1889', '1892', '1893', '1894', '1899', '1904', '1906', '1915', '1916', '1917', '1918', '1920', '1921', '1923', '1924', '1925', '1926', '1927', '1928', '1930', '1931', '1932', '1935', '1936', '1937', '1945', '1946', '1948', '1949', '1950', '1951', '1953', '1955', '1956', '1957', '1959', '1960', '1961', '1963', '1966', '1967', '1968', '1969', '1970', '1973', '1976', '1977', '1980', '1982', '1983', '1984', '1986', '1990', '1992', '1993', '1994', '1998', '1999', '2000']",False,4000,True,2,fbe4227d7f,0.0,1.0,1.0
./expes/v2_2021-03-27_issda-30_2000-prng-1-w4-p2,30_issda-2000,2000,first-2000,600,30,rng,num-start-3200,3200,25726,classic,3251.6924290657043,True,,True,1.0,1.0,1.0,1,"['1', '6', '10', '11', '13', '20', '21', '22', '26', '27', '31', '35', '38', '42', '45', '58', '59', '62', '63', '64', '66', '67', '68', '70', '76', '78', '82', '93', '94', '103', '104', '106', '107', '111', '117', '121', '122', '123', '126', '128', '131', '140', '142', '152', '153', '154', '156', '157', '159', '166', '170', '172', '176', '180', '181', '183', '184', '190', '191', '192', '193', '197', '200', '206', '215', '216', '223', '230', '234', '235', '240', '245', '246', '253', '258', '260', '261', '263', '272', '273', '276', '278', '280', '281', '283', '286', '292', '296', '297', '299', '303', '306', '308', '310', '312', '317', '323', '324', '329', '330', '334', '335', '337', '346', '347', '353', '355', '361', '362', '365', '373', '374', '377', '380', '381', '385', '386', '387', '394', '395', '396', '397', '398', '402', '404', '406', '408', '412', '414', '429', '430', '439', '442', '454', '457', '458', '461', '462', '464', '472', '475', '476', '479', '489', '493', '498', '499', '502', '503', '512', '513', '515', '516', '519', '522', '523', '524', '525', '536', '541', '544', '545', '549', '552', '554', '557', '559', '560', '562', '565', '567', '569', '574', '577', '586', '588', '593', '596', '597', '598', '602', '613', '622', '624', '625', '627', '640', '649', '652', '655', '656', '663', '667', '675', '678', '682', '688', '689', '692', '698', '704', '705', '718', '732', '738', '739', '740', '741', '742', '744', '745', '747', '751', '752', '753', '759', '760', '761', '763', '765', '768', '771', '773', '774', '778', '779', '780', '781', '787', '788', '792', '796', '798', '806', '815', '816', '819', '834', '835', '838', '840', '841', '844', '848', '856', '859', '864', '865', '867', '870', '872', '874', '879', '881', '883', '887', '893', '897', '901', '903', '904', '909', '910', '912', '914', '916', '919', '921', '925', '926', '939', '948', '950', '951', '957', '961', '964', '965', '968', '969', '971', '973', '978', '979', '981', '982', '984', '991', '994', '995', '996', '997', '999', '1000', '1001', '1002', '1007', '1008', '1013', '1018', '1019', '1024', '1025', '1029', '1030', '1032', '1039', '1052', '1055', '1059', '1060', '1065', '1066', '1070', '1075', '1076', '1077', '1078', '1080', '1081', '1088', '1097', '1102', '1103', '1105', '1107', '1109', '1112', '1114', '1118', '1121', '1129', '1130', '1134', '1143', '1144', '1147', '1149', '1154', '1155', '1156', '1158', '1165', '1166', '1167', '1173', '1175', '1176', '1180', '1187', '1198', '1202', '1205', '1206', '1207', '1208', '1210', '1213', '1214', '1217', '1220', '1224', '1233', '1234', '1236', '1239', '1243', '1246', '1250', '1254', '1257', '1262', '1263', '1266', '1267', '1269', '1271', '1275', '1278', '1281', '1282', '1284', '1287', '1289', '1293', '1298', '1300', '1301', '1306', '1308', '1310', '1315', '1320', '1321', '1322', '1323', '1324', '1328', '1333', '1334', '1340', '1343', '1345', '1351', '1355', '1356', '1358', '1366', '1369', '1373', '1375', '1380', '1385', '1387', '1390', '1391', '1394', '1395', '1397', '1401', '1405', '1409', '1414', '1415', '1416', '1418', '1421', '1422', '1423', '1425', '1430', '1433', '1436', '1437', '1438', '1446', '1451', '1457', '1460', '1462', '1463', '1465', '1468', '1472', '1473', '1478', '1480', '1483', '1484', '1493', '1494', '1495', '1499', '1505', '1514', '1516', '1522', '1526', '1527', '1529', '1537', '1539', '1543', '1548', '1551', '1553', '1555', '1556', '1557', '1562', '1563', '1564', '1568', '1572', '1574', '1578', '1585', '1591', '1592', '1594', '1595', '1596', '1598', '1603', '1606', '1611', '1613', '1620', '1621', '1625', '1629', '1631', '1632', '1639', '1643', '1646', '1649', '1650', '1651', '1652', '1656', '1658', '1663', '1667', '1671', '1672', '1673', '1676', '1684', '1696', '1697', '1701', '1703', '1705', '1706', '1709', '1715', '1718', '1722', '1725', '1730', '1731', '1741', '1748', '1751', '1752', '1758', '1760', '1765', '1770', '1773', '1781', '1782', '1783', '1785', '1787', '1795', '1801', '1803', '1809', '1813', '1819', '1822', '1828', '1830', '1831', '1842', '1843', '1849', '1853', '1860', '1862', '1863', '1865', '1867', '1870', '1871', '1877', '1883', '1884', '1887', '1889', '1891', '1893', '1898', '1899', '1900', '1902', '1903', '1911', '1914', '1919', '1922', '1925', '1927', '1933', '1936', '1941', '1942', '1943', '1946', '1948', '1949', '1950', '1954', '1963', '1971', '1976', '1977', '1978', '1979', '1984', '1985', '1987', '1989', '1990', '1992', '1995', '1997', '2000']",False,4000,True,2,14572e9738,0.0,1.0,1.0
