expe,clients,clients_size,clients_subset,agg_size,agg_size_pc,method,days,days_size,days_total,noise_method,time,valid,valid_sum,success,score_avg,score_min,score_max,nsols,oracle,wall_hit,wall_time,pooled,pool_size,uuid,infeasible,optimal,valid_sums
./expes/v2_2021-03-27_issda-30_2000-prng-1-w4-p2,30_issda-2000,2000,first-2000,600,30,rng,num-start-1600,1600,25726,classic,1267.161499261856,True,,True,1.0,1.0,1.0,1,"['4', '8', '10', '11', '15', '16', '24', '27', '32', '37', '41', '42', '44', '46', '49', '53', '56', '58', '59', '64', '65', '67', '68', '70', '72', '73', '74', '75', '87', '88', '89', '91', '93', '95', '102', '103', '105', '109', '110', '113', '124', '125', '126', '130', '132', '135', '137', '140', '141', '147', '158', '159', '164', '171', '176', '177', '182', '189', '197', '199', '200', '204', '205', '209', '211', '212', '214', '215', '219', '222', '223', '233', '236', '244', '245', '246', '248', '249', '251', '253', '254', '255', '256', '257', '260', '262', '264', '266', '267', '268', '270', '273', '275', '279', '280', '284', '294', '301', '306', '309', '311', '320', '322', '327', '329', '333', '335', '347', '351', '352', '364', '366', '367', '369', '370', '376', '380', '382', '384', '391', '392', '393', '405', '407', '408', '409', '433', '445', '447', '448', '453', '455', '456', '460', '461', '466', '475', '476', '480', '482', '484', '487', '488', '489', '490', '491', '496', '501', '502', '509', '512', '515', '518', '529', '532', '537', '540', '541', '543', '547', '548', '551', '552', '554', '555', '556', '561', '571', '572', '573', '583', '584', '588', '592', '595', '598', '602', '612', '614', '615', '616', '617', '621', '623', '635', '641', '643', '645', '646', '647', '653', '656', '660', '662', '665', '667', '669', '672', '674', '678', '681', '684', '690', '695', '696', '697', '699', '700', '705', '708', '710', '718', '719', '720', '721', '723', '738', '739', '746', '749', '753', '757', '758', '763', '765', '767', '769', '770', '771', '772', '773', '774', '779', '791', '794', '797', '798', '799', '807', '809', '813', '814', '820', '822', '835', '836', '839', '841', '846', '847', '848', '851', '854', '857', '860', '862', '863', '867', '871', '873', '875', '878', '881', '884', '890', '892', '894', '896', '898', '908', '911', '924', '931', '935', '936', '943', '944', '951', '952', '955', '961', '964', '969', '970', '971', '976', '978', '986', '987', '988', '989', '991', '999', '1003', '1004', '1014', '1017', '1020', '1025', '1029', '1031', '1036', '1039', '1045', '1048', '1050', '1056', '1060', '1062', '1063', '1065', '1066', '1068', '1072', '1076', '1080', '1084', '1085', '1086', '1090', '1094', '1095', '1097', '1098', '1100', '1108', '1109', '1110', '1114', '1115', '1124', '1126', '1127', '1129', '1134', '1136', '1138', '1140', '1145', '1146', '1155', '1156', '1161', '1164', '1165', '1166', '1170', '1172', '1175', '1176', '1178', '1182', '1186', '1188', '1190', '1197', '1199', '1201', '1202', '1204', '1206', '1207', '1208', '1209', '1211', '1214', '1219', '1220', '1228', '1229', '1231', '1232', '1237', '1238', '1240', '1241', '1247', '1251', '1254', '1259', '1262', '1266', '1269', '1271', '1276', '1282', '1284', '1285', '1286', '1287', '1288', '1295', '1297', '1298', '1299', '1300', '1301', '1304', '1309', '1315', '1317', '1319', '1323', '1325', '1331', '1332', '1339', '1343', '1351', '1357', '1358', '1368', '1375', '1376', '1377', '1380', '1381', '1383', '1385', '1389', '1392', '1395', '1397', '1401', '1405', '1413', '1415', '1421', '1422', '1424', '1425', '1427', '1430', '1431', '1434', '1440', '1448', '1460', '1462', '1463', '1465', '1466', '1467', '1468', '1469', '1472', '1473', '1476', '1481', '1492', '1499', '1503', '1506', '1512', '1519', '1520', '1527', '1531', '1532', '1533', '1534', '1541', '1543', '1544', '1549', '1550', '1553', '1557', '1560', '1572', '1575', '1582', '1586', '1588', '1591', '1592', '1596', '1598', '1603', '1612', '1613', '1615', '1620', '1622', '1623', '1626', '1629', '1636', '1640', '1641', '1645', '1647', '1651', '1652', '1653', '1654', '1659', '1660', '1662', '1663', '1666', '1673', '1679', '1687', '1696', '1704', '1706', '1707', '1708', '1713', '1714', '1716', '1718', '1724', '1728', '1729', '1741', '1746', '1749', '1750', '1752', '1753', '1754', '1756', '1758', '1763', '1764', '1765', '1767', '1769', '1773', '1776', '1778', '1781', '1782', '1783', '1788', '1800', '1802', '1803', '1804', '1805', '1810', '1813', '1816', '1818', '1822', '1823', '1837', '1838', '1839', '1843', '1851', '1852', '1853', '1862', '1870', '1876', '1878', '1879', '1885', '1886', '1887', '1888', '1889', '1893', '1897', '1900', '1903', '1904', '1914', '1917', '1918', '1923', '1924', '1927', '1931', '1932', '1944', '1946', '1947', '1948', '1951', '1956', '1961', '1962', '1964', '1968', '1973', '1975', '1976', '1978', '1980', '1981', '1985', '1989', '1990', '1991', '1993', '1997']",False,4000,True,2,ee45d165fd,0.0,1.0,1.0
./expes/v2_2021-03-27_issda-30_2000-prng-1-w4-p2,30_issda-2000,2000,first-2000,700,35,rng,num-start-1000,1000,25726,classic,2910.5856363773346,True,,True,1.0,1.0,1.0,1,"['1', '3', '4', '5', '7', '17', '19', '20', '26', '28', '29', '30', '31', '32', '34', '39', '42', '45', '47', '55', '57', '65', '67', '68', '69', '73', '74', '75', '78', '79', '80', '81', '83', '84', '85', '87', '93', '94', '96', '97', '99', '103', '114', '119', '124', '126', '128', '129', '131', '135', '136', '142', '144', '146', '148', '152', '157', '162', '165', '166', '167', '168', '169', '171', '172', '174', '179', '184', '186', '187', '188', '192', '195', '201', '203', '204', '206', '207', '208', '215', '216', '223', '224', '228', '236', '237', '238', '240', '241', '244', '246', '249', '254', '255', '256', '261', '266', '267', '268', '272', '274', '277', '284', '286', '287', '289', '292', '300', '301', '304', '305', '307', '310', '311', '315', '317', '319', '320', '323', '325', '328', '330', '332', '336', '340', '342', '347', '350', '359', '366', '368', '370', '373', '374', '377', '379', '383', '386', '387', '388', '390', '391', '392', '394', '399', '400', '406', '407', '409', '414', '417', '419', '422', '423', '425', '426', '432', '438', '441', '443', '445', '448', '449', '451', '452', '453', '455', '457', '461', '479', '483', '489', '490', '491', '492', '496', '498', '500', '514', '522', '526', '527', '531', '532', '533', '534', '535', '537', '553', '556', '563', '564', '565', '571', '574', '576', '578', '588', '590', '593', '594', '595', '597', '601', '602', '603', '607', '613', '616', '617', '618', '619', '620', '621', '622', '631', '636', '638', '640', '645', '648', '650', '652', '656', '660', '661', '664', '665', '667', '668', '673', '677', '678', '682', '683', '685', '687', '688', '691', '692', '693', '697', '702', '704', '710', '711', '718', '722', '723', '725', '732', '734', '735', '736', '740', '741', '752', '753', '755', '759', '761', '762', '763', '770', '775', '776', '777', '783', '786', '787', '789', '792', '794', '795', '796', '802', '803', '807', '809', '813', '816', '817', '823', '824', '826', '830', '832', '836', '840', '843', '849', '850', '851', '856', '857', '859', '862', '867', '872', '873', '874', '884', '890', '892', '894', '906', '907', '912', '913', '915', '918', '919', '923', '925', '928', '938', '939', '940', '944', '955', '957', '964', '965', '966', '967', '971', '975', '976', '977', '980', '982', '986', '987', '988', '996', '997', '998', '1000', '1001', '1003', '1005', '1008', '1009', '1011', '1013', '1015', '1019', '1020', '1021', '1022', '1029', '1032', '1034', '1035', '1039', '1041', '1042', '1048', '1058', '1061', '1063', '1067', '1068', '1069', '1072', '1075', '1076', '1077', '1081', '1083', '1085', '1086', '1091', '1095', '1097', '1102', '1107', '1108', '1112', '1113', '1115', '1120', '1121', '1122', '1124', '1125', '1129', '1132', '1140', '1144', '1147', '1149', '1150', '1155', '1157', '1163', '1164', '1166', '1167', '1168', '1176', '1179', '1180', '1188', '1194', '1195', '1198', '1199', '1201', '1203', '1204', '1208', '1209', '1218', '1222', '1223', '1226', '1230', '1233', '1234', '1235', '1236', '1237', '1241', '1242', '1245', '1246', '1249', '1250', '1252', '1253', '1254', '1255', '1259', '1265', '1267', '1271', '1272', '1274', '1277', '1281', '1284', '1286', '1291', '1295', '1297', '1298', '1299', '1301', '1306', '1308', '1309', '1312', '1313', '1314', '1320', '1321', '1325', '1330', '1333', '1339', '1343', '1344', '1345', '1346', '1347', '1353', '1357', '1364', '1369', '1373', '1378', '1380', '1384', '1385', '1387', '1390', '1391', '1392', '1393', '1394', '1395', '1396', '1398', '1400', '1401', '1408', '1411', '1415', '1429', '1431', '1433', '1434', '1435', '1436', '1437', '1438', '1442', '1445', '1446', '1447', '1448', '1453', '1455', '1459', '1462', '1464', '1466', '1469', '1470', '1471', '1472', '1474', '1486', '1490', '1493', '1494', '1495', '1496', '1497', '1499', '1505', '1514', '1518', '1519', '1528', '1530', '1533', '1535', '1536', '1541', '1546', '1548', '1552', '1553', '1555', '1561', '1572', '1582', '1583', '1591', '1592', '1593', '1594', '1597', '1602', '1604', '1605', '1606', '1608', '1609', '1615', '1616', '1618', '1621', '1623', '1625', '1627', '1628', '1634', '1635', '1638', '1639', '1640', '1645', '1646', '1649', '1651', '1653', '1655', '1657', '1659', '1660', '1663', '1664', '1669', '1671', '1674', '1676', '1683', '1684', '1685', '1690', '1691', '1692', '1694', '1696', '1698', '1699', '1700', '1701', '1708', '1712', '1716', '1717', '1721', '1723', '1726', '1729', '1730', '1731', '1732', '1734', '1740', '1742', '1744', '1747', '1749', '1752', '1756', '1762', '1763', '1765', '1766', '1769', '1772', '1773', '1777', '1780', '1783', '1785', '1786', '1787', '1790', '1791', '1792', '1793', '1796', '1798', '1805', '1811', '1813', '1814', '1819', '1823', '1824', '1827', '1832', '1834', '1840', '1841', '1842', '1844', '1846', '1848', '1849', '1850', '1853', '1856', '1860', '1861', '1864', '1868', '1870', '1872', '1875', '1876', '1878', '1879', '1880', '1881', '1882', '1884', '1885', '1888', '1889', '1890', '1891', '1892', '1908', '1911', '1913', '1916', '1918', '1919', '1922', '1929', '1932', '1939', '1940', '1942', '1945', '1946', '1953', '1962', '1963', '1969', '1972', '1973', '1974', '1978', '1980', '1982', '1983', '1984', '1986', '1988', '1992', '1996', '2000']",False,4000,True,2,2f3d5e7ef0,0.0,1.0,1.0
./expes/v2_2021-03-27_issda-30_2000-prng-1-w4-p2,30_issda-2000,2000,first-2000,1000,50,rng,num-start-800,800,25726,classic,4097.5178599357605,False,,False,0,,,0,"['4', '5', '6', '8', '10', '11', '15', '16', '24', '27', '32', '37', '39', '40', '41', '42', '44', '46', '48', '49', '53', '55', '56', '57', '58', '59', '61', '62', '63', '64', '65', '67', '68', '70', '71', '72', '73', '74', '75', '76', '77', '81', '87', '88', '89', '91', '93', '94', '95', '99', '100', '102', '103', '104', '105', '107', '109', '110', '111', '113', '116', '117', '122', '123', '124', '125', '126', '130', '132', '135', '137', '140', '141', '142', '147', '148', '149', '157', '158', '159', '160', '164', '165', '166', '171', '176', '177', '180', '182', '184', '186', '187', '189', '190', '192', '194', '197', '199', '200', '204', '205', '209', '211', '212', '214', '215', '216', '219', '220', '221', '222', '223', '224', '226', '229', '230', '231', '233', '235', '236', '238', '242', '244', '245', '246', '248', '249', '251', '253', '254', '255', '256', '257', '260', '262', '264', '266', '267', '268', '270', '273', '275', '276', '278', '279', '280', '282', '284', '286', '290', '294', '295', '300', '301', '306', '307', '309', '311', '313', '316', '320', '322', '326', '327', '329', '330', '333', '335', '338', '345', '347', '348', '349', '350', '351', '352', '353', '355', '358', '362', '364', '366', '367', '369', '370', '372', '373', '376', '377', '378', '379', '380', '382', '383', '384', '388', '389', '391', '392', '393', '397', '400', '405', '407', '408', '409', '410', '411', '412', '414', '421', '422', '427', '428', '429', '431', '433', '434', '445', '446', '447', '448', '449', '451', '453', '455', '456', '459', '460', '461', '466', '470', '471', '475', '476', '479', '480', '481', '482', '484', '486', '487', '488', '489', '490', '491', '493', '495', '496', '501', '502', '507', '509', '512', '513', '514', '515', '518', '521', '523', '526', '529', '530', '532', '537', '540', '541', '542', '543', '544', '545', '547', '548', '550', '551', '552', '554', '555', '556', '561', '563', '564', '571', '572', '573', '581', '583', '584', '588', '589', '592', '595', '596', '598', '601', '602', '603', '606', '612', '614', '615', '616', '617', '621', '623', '624', '625', '630', '635', '638', '640', '641', '642', '643', '645', '646', '647', '648', '650', '651', '653', '656', '660', '662', '665', '667', '669', '672', '673', '674', '678', '679', '681', '682', '684', '685', '686', '690', '691', '694', '695', '696', '697', '699', '700', '704', '705', '707', '708', '710', '718', '719', '720', '721', '722', '723', '726', '731', '736', '738', '739', '741', '744', '746', '749', '752', '753', '755', '757', '758', '760', '763', '765', '767', '769', '770', '771', '772', '773', '774', '778', '779', '783', '784', '785', '786', '791', '793', '794', '797', '798', '799', '801', '802', '803', '807', '808', '809', '813', '814', '816', '818', '820', '822', '823', '825', '826', '827', '835', '836', '837', '839', '841', '846', '847', '848', '850', '851', '854', '857', '860', '861', '862', '863', '865', '867', '871', '873', '875', '878', '881', '884', '886', '890', '892', '894', '896', '898', '907', '908', '910', '911', '912', '917', '918', '922', '923', '924', '927', '931', '933', '935', '936', '938', '943', '944', '951', '952', '954', '955', '956', '957', '958', '959', '961', '964', '969', '970', '971', '972', '976', '977', '978', '981', '982', '983', '985', '986', '987', '988', '989', '991', '992', '994', '996', '998', '999', '1001', '1002', '1003', '1004', '1005', '1008', '1011', '1012', '1014', '1017', '1019', '1020', '1022', '1025', '1029', '1031', '1032', '1034', '1036', '1037', '1039', '1040', '1042', '1044', '1045', '1048', '1050', '1055', '1056', '1060', '1062', '1063', '1065', '1066', '1068', '1072', '1073', '1076', '1077', '1080', '1081', '1084', '1085', '1086', '1090', '1094', '1095', '1097', '1098', '1099', '1100', '1101', '1102', '1104', '1108', '1109', '1110', '1113', '1114', '1115', '1116', '1121', '1124', '1126', '1127', '1129', '1132', '1134', '1135', '1136', '1137', '1138', '1140', '1141', '1145', '1146', '1147', '1150', '1152', '1155', '1156', '1160', '1161', '1162', '1164', '1165', '1166', '1168', '1170', '1172', '1175', '1176', '1178', '1180', '1182', '1186', '1188', '1189', '1190', '1195', '1197', '1198', '1199', '1200', '1201', '1202', '1204', '1206', '1207', '1208', '1209', '1211', '1213', '1214', '1218', '1219', '1220', '1222', '1224', '1227', '1228', '1229', '1231', '1232', '1237', '1238', '1240', '1241', '1243', '1245', '1247', '1251', '1254', '1259', '1262', '1265', '1266', '1267', '1269', '1271', '1274', '1275', '1276', '1277', '1281', '1282', '1284', '1285', '1286', '1287', '1288', '1289', '1293', '1294', '1295', '1297', '1298', '1299', '1300', '1301', '1304', '1309', '1315', '1316', '1317', '1319', '1320', '1321', '1323', '1325', '1327', '1328', '1330', '1331', '1332', '1337', '1339', '1340', '1341', '1343', '1347', '1349', '1351', '1353', '1356', '1357', '1358', '1363', '1366', '1368', '1373', '1375', '1376', '1377', '1378', '1380', '1381', '1383', '1384', '1385', '1388', '1389', '1390', '1392', '1393', '1395', '1396', '1397', '1398', '1401', '1405', '1407', '1410', '1413', '1415', '1416', '1417', '1421', '1422', '1423', '1424', '1425', '1427', '1428', '1429', '1430', '1431', '1432', '1433', '1434', '1436', '1437', '1440', '1441', '1444', '1445', '1446', '1448', '1456', '1460', '1462', '1463', '1465', '1466', '1467', '1468', '1469', '1470', '1471', '1472', '1473', '1474', '1476', '1477', '1481', '1489', '1490', '1491', '1492', '1493', '1496', '1499', '1501', '1503', '1504', '1506', '1512', '1515', '1516', '1519', '1520', '1521', '1523', '1527', '1531', '1532', '1533', '1534', '1540', '1541', '1542', '1543', '1544', '1545', '1546', '1549', '1550', '1551', '1552', '1553', '1554', '1557', '1560', '1572', '1575', '1578', '1581', '1582', '1586', '1588', '1589', '1591', '1592', '1595', '1596', '1597', '1598', '1601', '1602', '1603', '1604', '1612', '1613', '1614', '1615', '1617', '1620', '1622', '1623', '1626', '1629', '1635', '1636', '1637', '1640', '1641', '1642', '1645', '1646', '1647', '1651', '1652', '1653', '1654', '1658', '1659', '1660', '1662', '1663', '1665', '1666', '1669', '1671', '1673', '1674', '1679', '1682', '1683', '1684', '1686', '1687', '1696', '1704', '1706', '1707', '1708', '1710', '1712', '1713', '1714', '1716', '1718', '1719', '1724', '1726', '1728', '1729', '1732', '1735', '1739', '1741', '1743', '1744', '1745', '1746', '1749', '1750', '1752', '1753', '1754', '1755', '1756', '1758', '1759', '1761', '1762', '1763', '1764', '1765', '1767', '1769', '1770', '1771', '1772', '1773', '1776', '1778', '1779', '1780', '1781', '1782', '1783', '1787', '1788', '1793', '1800', '1802', '1803', '1804', '1805', '1807', '1809', '1810', '1813', '1816', '1817', '1818', '1822', '1823', '1824', '1825', '1826', '1827', '1835', '1837', '1838', '1839', '1842', '1843', '1844', '1847', '1851', '1852', '1853', '1856', '1862', '1864', '1866', '1870', '1872', '1875', '1876', '1878', '1879', '1885', '1886', '1887', '1888', '1889', '1892', '1893', '1897', '1899', '1900', '1902', '1903', '1904', '1905', '1909', '1911', '1913', '1914', '1915', '1916', '1917', '1918', '1921', '1923', '1924', '1926', '1927', '1928', '1930', '1931', '1932', '1934', '1935', '1936', '1939', '1941', '1944', '1945', '1946', '1947', '1948', '1951', '1953', '1956', '1957', '1958', '1961', '1962', '1964', '1965', '1967', '1968', '1969', '1970', '1973', '1975', '1976', '1978', '1980', '1981', '1985', '1986', '1987', '1989', '1990', '1991', '1993', '1995', '1997']",True,4000,True,2,25e22d5ee6,0.0,0.0,0.0
./expes/v2_2021-03-27_issda-30_2000-prng-1-w4-p2,30_issda-2000,2000,first-2000,600,30,rng,num-start-2800,2800,25726,classic,1955.6011590957642,True,,True,1.0,1.0,1.0,1,"['4', '7', '9', '10', '11', '18', '22', '24', '33', '36', '37', '40', '41', '44', '49', '50', '51', '52', '57', '61', '64', '65', '66', '69', '73', '74', '75', '77', '84', '89', '94', '101', '105', '110', '111', '116', '117', '121', '123', '124', '135', '137', '139', '146', '150', '151', '152', '155', '157', '164', '165', '167', '170', '173', '174', '177', '180', '188', '192', '193', '194', '197', '205', '206', '208', '209', '216', '218', '228', '230', '232', '236', '238', '243', '250', '252', '262', '264', '270', '277', '280', '283', '287', '288', '290', '295', '297', '301', '310', '311', '315', '320', '321', '322', '323', '325', '329', '331', '333', '337', '341', '347', '348', '350', '353', '354', '356', '361', '362', '364', '370', '372', '373', '377', '385', '392', '393', '394', '407', '409', '420', '426', '427', '431', '432', '435', '436', '442', '444', '446', '449', '455', '461', '462', '465', '468', '473', '475', '477', '481', '484', '494', '502', '506', '508', '510', '511', '512', '514', '516', '519', '520', '521', '523', '524', '526', '527', '531', '532', '537', '541', '545', '547', '550', '551', '560', '562', '571', '572', '579', '583', '586', '588', '594', '596', '604', '607', '608', '622', '627', '632', '634', '635', '639', '641', '648', '653', '665', '666', '672', '674', '675', '678', '686', '691', '699', '700', '705', '707', '712', '718', '719', '725', '730', '733', '735', '737', '738', '740', '742', '743', '746', '750', '751', '762', '763', '764', '765', '768', '779', '782', '784', '785', '788', '790', '791', '799', '800', '801', '803', '805', '806', '809', '810', '819', '823', '825', '826', '828', '829', '830', '833', '838', '842', '845', '850', '854', '857', '859', '860', '867', '868', '872', '876', '883', '889', '890', '899', '904', '911', '912', '913', '918', '919', '925', '929', '930', '932', '936', '937', '941', '943', '945', '949', '952', '953', '955', '956', '957', '958', '964', '968', '969', '979', '983', '988', '989', '992', '994', '995', '996', '997', '998', '1001', '1002', '1004', '1005', '1008', '1020', '1021', '1023', '1026', '1029', '1030', '1033', '1040', '1041', '1043', '1045', '1048', '1049', '1052', '1053', '1054', '1055', '1056', '1058', '1061', '1062', '1064', '1067', '1070', '1072', '1073', '1074', '1076', '1077', '1078', '1087', '1092', '1097', '1108', '1115', '1117', '1122', '1124', '1130', '1142', '1143', '1147', '1148', '1152', '1160', '1163', '1166', '1171', '1175', '1177', '1180', '1189', '1191', '1198', '1200', '1201', '1205', '1206', '1208', '1211', '1212', '1216', '1219', '1222', '1240', '1241', '1242', '1243', '1251', '1254', '1255', '1257', '1261', '1262', '1263', '1267', '1273', '1274', '1277', '1278', '1279', '1281', '1286', '1301', '1306', '1308', '1313', '1315', '1327', '1328', '1332', '1335', '1338', '1342', '1349', '1350', '1354', '1356', '1359', '1366', '1371', '1372', '1374', '1378', '1382', '1383', '1384', '1390', '1391', '1394', '1395', '1396', '1398', '1402', '1403', '1404', '1408', '1414', '1417', '1419', '1425', '1432', '1433', '1441', '1445', '1446', '1447', '1451', '1454', '1456', '1458', '1460', '1461', '1463', '1465', '1466', '1467', '1469', '1473', '1474', '1481', '1482', '1483', '1487', '1491', '1493', '1494', '1497', '1498', '1505', '1508', '1509', '1513', '1516', '1521', '1525', '1526', '1528', '1532', '1537', '1538', '1544', '1545', '1546', '1547', '1548', '1556', '1557', '1558', '1560', '1563', '1566', '1569', '1571', '1584', '1588', '1592', '1600', '1604', '1607', '1613', '1615', '1618', '1622', '1627', '1631', '1632', '1636', '1637', '1639', '1642', '1644', '1646', '1647', '1648', '1651', '1652', '1657', '1659', '1664', '1666', '1669', '1670', '1671', '1672', '1675', '1679', '1681', '1690', '1691', '1703', '1707', '1711', '1712', '1713', '1715', '1718', '1722', '1739', '1741', '1746', '1749', '1760', '1762', '1767', '1768', '1770', '1774', '1784', '1791', '1792', '1794', '1796', '1798', '1804', '1805', '1806', '1807', '1809', '1811', '1812', '1813', '1818', '1822', '1827', '1831', '1833', '1834', '1840', '1843', '1846', '1848', '1850', '1855', '1857', '1859', '1860', '1861', '1867', '1868', '1874', '1876', '1877', '1882', '1885', '1886', '1888', '1889', '1895', '1903', '1909', '1910', '1914', '1916', '1917', '1919', '1922', '1923', '1927', '1932', '1933', '1941', '1942', '1945', '1946', '1955', '1956', '1958', '1961', '1964', '1965', '1966', '1968', '1970', '1971', '1973', '1980', '1985', '1988', '1989', '1992', '1995']",False,4000,True,2,da873044b9,0.0,1.0,1.0
./expes/v2_2021-03-27_issda-30_2000-prng-1-w4-p2,30_issda-2000,2000,first-2000,900,45,rng,num-start-200,200,25726,classic,4025.6886615753174,False,,False,0,,,0,"['1', '3', '7', '10', '12', '14', '22', '23', '25', '27', '28', '29', '30', '32', '34', '35', '41', '44', '45', '46', '47', '53', '57', '58', '61', '63', '66', '67', '68', '69', '70', '71', '72', '75', '76', '77', '80', '81', '82', '90', '91', '93', '101', '103', '105', '112', '114', '115', '118', '119', '122', '123', '125', '129', '130', '132', '134', '136', '140', '141', '144', '145', '147', '148', '152', '153', '154', '164', '165', '167', '168', '169', '170', '171', '172', '173', '175', '177', '178', '179', '182', '183', '184', '186', '190', '192', '194', '195', '196', '197', '199', '200', '205', '206', '208', '210', '212', '216', '217', '218', '219', '220', '221', '222', '223', '224', '227', '228', '229', '230', '233', '234', '237', '239', '240', '241', '242', '243', '245', '248', '250', '254', '255', '259', '261', '262', '263', '267', '272', '277', '279', '280', '281', '282', '285', '286', '288', '289', '292', '294', '299', '300', '302', '303', '304', '305', '307', '308', '315', '316', '317', '320', '322', '325', '327', '328', '330', '331', '332', '335', '338', '340', '341', '347', '348', '349', '350', '351', '353', '355', '356', '357', '359', '362', '364', '365', '372', '373', '375', '378', '379', '384', '388', '389', '392', '394', '396', '398', '401', '402', '405', '407', '408', '411', '412', '414', '415', '417', '421', '426', '427', '429', '431', '433', '434', '438', '446', '447', '450', '451', '453', '454', '456', '459', '462', '465', '470', '473', '475', '477', '480', '481', '483', '485', '487', '490', '492', '497', '500', '501', '504', '505', '506', '507', '508', '509', '512', '519', '520', '522', '523', '530', '535', '539', '542', '545', '546', '547', '551', '555', '562', '563', '564', '566', '567', '568', '579', '583', '584', '586', '589', '590', '592', '593', '594', '595', '597', '598', '599', '601', '605', '606', '607', '608', '611', '612', '614', '615', '618', '619', '620', '625', '631', '633', '634', '636', '637', '638', '639', '641', '642', '643', '644', '645', '646', '649', '654', '655', '656', '658', '661', '663', '664', '667', '670', '673', '674', '676', '682', '684', '687', '690', '691', '692', '693', '694', '698', '699', '701', '703', '705', '706', '709', '710', '711', '713', '714', '720', '722', '724', '729', '731', '732', '733', '734', '738', '739', '741', '742', '746', '748', '750', '751', '754', '756', '757', '758', '759', '761', '762', '763', '764', '768', '769', '772', '773', '776', '777', '779', '780', '781', '786', '787', '788', '791', '792', '795', '798', '799', '800', '801', '807', '808', '809', '812', '813', '814', '815', '818', '820', '821', '822', '825', '826', '832', '834', '835', '836', '840', '843', '844', '849', '850', '854', '856', '860', '864', '868', '869', '870', '871', '872', '873', '876', '880', '883', '884', '886', '890', '891', '893', '894', '895', '898', '899', '901', '902', '903', '905', '908', '909', '910', '911', '912', '914', '915', '916', '918', '919', '920', '922', '928', '929', '931', '933', '935', '938', '941', '942', '948', '949', '959', '961', '963', '966', '967', '970', '971', '972', '975', '977', '978', '981', '987', '991', '992', '994', '995', '997', '998', '999', '1000', '1001', '1003', '1004', '1005', '1006', '1013', '1014', '1018', '1019', '1020', '1021', '1022', '1023', '1024', '1025', '1028', '1029', '1030', '1032', '1033', '1034', '1035', '1037', '1038', '1039', '1040', '1041', '1045', '1046', '1047', '1049', '1053', '1054', '1058', '1059', '1063', '1065', '1066', '1067', '1069', '1070', '1072', '1073', '1076', '1077', '1079', '1080', '1082', '1083', '1084', '1090', '1093', '1095', '1106', '1108', '1117', '1119', '1120', '1121', '1122', '1123', '1126', '1131', '1136', '1138', '1139', '1142', '1146', '1149', '1150', '1152', '1153', '1154', '1155', '1156', '1160', '1161', '1163', '1165', '1166', '1171', '1173', '1174', '1175', '1180', '1181', '1185', '1186', '1188', '1190', '1191', '1195', '1197', '1199', '1200', '1206', '1209', '1213', '1217', '1218', '1222', '1224', '1226', '1229', '1230', '1231', '1232', '1235', '1238', '1239', '1240', '1243', '1244', '1249', '1250', '1251', '1253', '1255', '1256', '1257', '1259', '1264', '1265', '1271', '1273', '1278', '1279', '1280', '1281', '1288', '1289', '1291', '1294', '1295', '1296', '1299', '1302', '1303', '1310', '1312', '1315', '1319', '1323', '1324', '1326', '1327', '1331', '1332', '1333', '1335', '1337', '1339', '1340', '1341', '1342', '1344', '1345', '1346', '1347', '1348', '1349', '1354', '1358', '1359', '1362', '1363', '1366', '1367', '1368', '1370', '1371', '1373', '1379', '1385', '1386', '1389', '1390', '1393', '1396', '1401', '1402', '1403', '1407', '1409', '1410', '1414', '1415', '1416', '1418', '1419', '1420', '1422', '1424', '1426', '1428', '1432', '1436', '1437', '1438', '1441', '1443', '1444', '1445', '1446', '1451', '1452', '1453', '1454', '1455', '1463', '1466', '1467', '1469', '1470', '1472', '1473', '1474', '1475', '1477', '1478', '1481', '1484', '1485', '1486', '1487', '1491', '1492', '1493', '1502', '1505', '1508', '1509', '1510', '1511', '1518', '1519', '1522', '1523', '1524', '1525', '1531', '1533', '1534', '1535', '1536', '1543', '1547', '1548', '1549', '1555', '1556', '1561', '1562', '1566', '1569', '1570', '1571', '1573', '1575', '1577', '1581', '1586', '1592', '1595', '1597', '1598', '1600', '1602', '1605', '1608', '1610', '1611', '1612', '1616', '1619', '1620', '1623', '1625', '1628', '1630', '1632', '1636', '1637', '1645', '1648', '1649', '1653', '1654', '1655', '1656', '1661', '1662', '1665', '1666', '1668', '1669', '1670', '1673', '1678', '1682', '1685', '1686', '1690', '1691', '1695', '1696', '1697', '1698', '1699', '1700', '1701', '1703', '1707', '1709', '1712', '1713', '1715', '1716', '1717', '1719', '1721', '1724', '1726', '1728', '1729', '1731', '1733', '1735', '1740', '1742', '1746', '1751', '1752', '1755', '1756', '1758', '1760', '1762', '1772', '1775', '1779', '1780', '1781', '1786', '1793', '1795', '1796', '1797', '1799', '1802', '1805', '1806', '1807', '1809', '1811', '1814', '1818', '1820', '1822', '1824', '1826', '1827', '1829', '1830', '1834', '1837', '1838', '1840', '1844', '1847', '1848', '1850', '1851', '1854', '1855', '1857', '1858', '1860', '1862', '1864', '1867', '1869', '1870', '1872', '1876', '1877', '1882', '1883', '1884', '1885', '1886', '1887', '1888', '1890', '1892', '1894', '1895', '1896', '1900', '1902', '1903', '1908', '1910', '1911', '1918', '1919', '1925', '1929', '1930', '1932', '1935', '1937', '1938', '1939', '1941', '1942', '1946', '1949', '1950', '1954', '1958', '1959', '1961', '1962', '1964', '1965', '1971', '1976', '1977', '1978', '1981', '1983', '1987', '1989', '1990', '1993', '1997', '1999']",True,4000,True,2,83a017ec57,0.0,0.0,0.0
./expes/v2_2021-03-27_issda-30_2000-prng-1-w4-p2,30_issda-2000,2000,first-2000,100,5,rng,num-start-4000,4000,25726,classic,1102.5342473983765,True,,True,1.0,1.0,1.0,1,"['49', '57', '74', '116', '174', '188', '280', '325', '331', '337', '347', '356', '362', '364', '373', '435', '473', '484', '512', '516', '550', '572', '632', '653', '666', '725', '737', '740', '742', '746', '762', '779', '806', '819', '850', '868', '883', '912', '913', '945', '953', '1004', '1021', '1026', '1029', '1043', '1045', '1053', '1056', '1076', '1077', '1087', '1115', '1147', '1148', '1191', '1216', '1241', '1243', '1308', '1342', '1356', '1372', '1382', '1396', '1465', '1481', '1505', '1508', '1513', '1545', '1563', '1618', '1631', '1632', '1646', '1657', '1703', '1712', '1739', '1749', '1760', '1762', '1768', '1784', '1811', '1827', '1831', '1846', '1857', '1860', '1861', '1895', '1909', '1917', '1942', '1945', '1956', '1958', '1970']",False,4000,True,2,2563268f0e,0.0,1.0,1.0
./expes/v2_2021-03-27_issda-30_2000-prng-1-w4-p2,30_issda-2000,2000,first-2000,500,25,rng,num-start-1400,1400,25726,classic,4178.891095876694,True,,False,1.0,1.0,1.0,1,"['4', '8', '10', '15', '16', '24', '27', '32', '37', '41', '42', '44', '46', '56', '58', '59', '64', '65', '67', '68', '70', '72', '73', '74', '87', '88', '89', '91', '93', '95', '102', '103', '105', '109', '110', '113', '124', '125', '126', '130', '132', '135', '137', '140', '141', '147', '158', '164', '176', '177', '182', '199', '200', '209', '211', '214', '215', '222', '233', '244', '245', '246', '248', '249', '251', '253', '254', '255', '256', '257', '260', '262', '264', '266', '267', '268', '270', '273', '275', '279', '284', '309', '311', '320', '322', '327', '335', '347', '351', '352', '364', '366', '376', '380', '384', '391', '392', '393', '405', '407', '409', '433', '445', '447', '448', '453', '455', '456', '460', '461', '466', '475', '476', '480', '484', '487', '488', '489', '490', '491', '501', '502', '509', '515', '518', '529', '532', '537', '540', '541', '543', '547', '551', '552', '554', '555', '556', '561', '571', '572', '573', '584', '588', '592', '595', '598', '602', '612', '615', '616', '617', '621', '623', '635', '641', '643', '645', '646', '647', '656', '660', '662', '667', '669', '672', '674', '678', '681', '684', '690', '695', '696', '697', '699', '700', '705', '708', '710', '719', '720', '721', '723', '738', '739', '746', '749', '757', '758', '763', '765', '767', '772', '773', '774', '779', '791', '794', '798', '799', '809', '814', '820', '835', '836', '839', '841', '847', '848', '851', '854', '857', '860', '862', '863', '867', '871', '873', '875', '878', '881', '884', '890', '892', '894', '896', '898', '911', '924', '935', '936', '943', '944', '951', '952', '955', '961', '964', '969', '971', '976', '978', '986', '988', '989', '991', '999', '1003', '1004', '1014', '1017', '1025', '1029', '1031', '1036', '1039', '1045', '1050', '1056', '1062', '1063', '1065', '1066', '1068', '1072', '1076', '1080', '1085', '1094', '1095', '1097', '1098', '1100', '1108', '1109', '1110', '1114', '1115', '1124', '1126', '1129', '1138', '1145', '1146', '1161', '1164', '1165', '1166', '1170', '1172', '1175', '1176', '1178', '1182', '1188', '1190', '1197', '1199', '1201', '1202', '1206', '1207', '1208', '1209', '1211', '1214', '1219', '1220', '1229', '1231', '1232', '1237', '1238', '1240', '1241', '1247', '1251', '1254', '1259', '1262', '1266', '1269', '1271', '1276', '1282', '1284', '1285', '1286', '1287', '1288', '1295', '1297', '1298', '1299', '1300', '1301', '1304', '1309', '1315', '1319', '1325', '1331', '1332', '1339', '1343', '1358', '1375', '1376', '1377', '1383', '1385', '1389', '1392', '1395', '1397', '1401', '1413', '1415', '1421', '1422', '1424', '1425', '1430', '1431', '1440', '1448', '1460', '1462', '1463', '1466', '1467', '1469', '1472', '1473', '1476', '1481', '1492', '1506', '1512', '1519', '1520', '1527', '1532', '1543', '1550', '1553', '1557', '1560', '1575', '1582', '1588', '1591', '1592', '1596', '1598', '1603', '1612', '1613', '1615', '1620', '1622', '1626', '1629', '1640', '1641', '1645', '1647', '1651', '1652', '1653', '1654', '1659', '1660', '1662', '1663', '1666', '1673', '1679', '1687', '1696', '1704', '1706', '1707', '1708', '1713', '1714', '1716', '1718', '1729', '1741', '1749', '1750', '1752', '1753', '1754', '1756', '1758', '1763', '1764', '1765', '1767', '1769', '1773', '1776', '1778', '1782', '1783', '1788', '1800', '1802', '1803', '1805', '1810', '1813', '1816', '1818', '1822', '1823', '1837', '1838', '1839', '1843', '1851', '1852', '1853', '1862', '1870', '1876', '1879', '1885', '1886', '1887', '1888', '1889', '1893', '1897', '1900', '1903', '1917', '1918', '1924', '1927', '1932', '1944', '1946', '1947', '1956', '1961', '1962', '1964', '1968', '1973', '1975', '1976', '1978', '1985', '1989', '1990', '1991', '1993', '1997']",True,4000,True,2,4c599d03ec,0.0,0.0,1.0
./expes/v2_2021-03-27_issda-30_2000-prng-1-w4-p2,30_issda-2000,2000,first-2000,700,35,rng,num-start-2000,2000,25726,classic,1346.145750761032,True,,True,1.0,1.0,1.0,1,"['6', '8', '9', '11', '12', '16', '21', '26', '28', '30', '31', '33', '34', '36', '39', '52', '54', '56', '57', '64', '65', '66', '67', '68', '69', '71', '73', '74', '75', '76', '77', '85', '88', '89', '90', '91', '92', '95', '98', '100', '102', '103', '104', '107', '109', '110', '113', '114', '116', '122', '123', '124', '129', '133', '134', '135', '139', '143', '144', '145', '148', '152', '154', '156', '160', '161', '164', '166', '167', '172', '181', '183', '187', '190', '194', '196', '197', '198', '199', '203', '205', '215', '217', '219', '223', '232', '237', '238', '239', '241', '243', '245', '247', '253', '256', '257', '261', '262', '267', '273', '275', '279', '285', '286', '289', '290', '294', '299', '301', '306', '307', '310', '312', '313', '314', '315', '316', '317', '321', '324', '325', '329', '334', '337', '338', '339', '340', '341', '345', '346', '348', '351', '352', '355', '357', '358', '359', '360', '361', '362', '365', '366', '367', '374', '375', '381', '382', '384', '387', '390', '391', '392', '393', '394', '397', '399', '400', '401', '410', '413', '422', '423', '426', '428', '430', '433', '434', '439', '447', '451', '454', '458', '459', '460', '469', '482', '483', '487', '489', '491', '492', '494', '495', '497', '501', '503', '505', '506', '512', '519', '522', '531', '532', '537', '538', '540', '544', '545', '547', '557', '562', '563', '568', '569', '570', '579', '581', '585', '589', '590', '593', '594', '596', '603', '607', '614', '617', '620', '621', '627', '628', '631', '632', '637', '644', '649', '650', '655', '660', '662', '665', '670', '672', '673', '680', '686', '688', '694', '695', '700', '703', '704', '708', '712', '713', '715', '716', '717', '724', '725', '728', '735', '738', '739', '740', '743', '747', '750', '752', '766', '767', '769', '771', '778', '779', '782', '783', '788', '790', '792', '795', '796', '798', '800', '803', '804', '811', '813', '814', '817', '818', '820', '821', '822', '825', '829', '830', '831', '837', '846', '849', '851', '852', '858', '861', '862', '863', '864', '866', '867', '868', '869', '874', '876', '879', '882', '887', '888', '889', '891', '892', '893', '894', '899', '900', '901', '904', '905', '906', '911', '913', '915', '916', '917', '918', '923', '925', '930', '933', '934', '936', '938', '939', '940', '941', '942', '944', '946', '948', '950', '951', '956', '959', '962', '963', '965', '972', '974', '976', '977', '978', '979', '981', '983', '984', '989', '994', '1002', '1003', '1004', '1007', '1014', '1016', '1018', '1023', '1024', '1027', '1028', '1038', '1040', '1044', '1046', '1047', '1051', '1052', '1058', '1060', '1065', '1066', '1067', '1069', '1070', '1071', '1072', '1075', '1076', '1082', '1088', '1091', '1093', '1097', '1099', '1100', '1104', '1106', '1109', '1116', '1117', '1125', '1128', '1129', '1130', '1138', '1139', '1140', '1144', '1145', '1146', '1153', '1156', '1157', '1158', '1160', '1162', '1167', '1168', '1171', '1172', '1177', '1179', '1180', '1182', '1184', '1185', '1188', '1191', '1194', '1198', '1203', '1206', '1210', '1212', '1216', '1219', '1220', '1224', '1225', '1232', '1234', '1235', '1236', '1238', '1240', '1241', '1242', '1243', '1245', '1246', '1247', '1248', '1249', '1250', '1257', '1259', '1265', '1267', '1268', '1270', '1275', '1279', '1281', '1282', '1285', '1286', '1288', '1299', '1301', '1303', '1305', '1308', '1309', '1310', '1311', '1314', '1315', '1317', '1324', '1329', '1331', '1335', '1336', '1338', '1339', '1345', '1347', '1348', '1351', '1353', '1356', '1361', '1363', '1364', '1366', '1371', '1373', '1380', '1381', '1383', '1387', '1395', '1402', '1405', '1408', '1413', '1416', '1418', '1420', '1421', '1424', '1428', '1430', '1435', '1438', '1440', '1445', '1447', '1453', '1455', '1460', '1461', '1471', '1475', '1476', '1478', '1479', '1480', '1481', '1482', '1488', '1489', '1503', '1508', '1513', '1515', '1517', '1523', '1524', '1526', '1527', '1535', '1539', '1541', '1544', '1556', '1559', '1561', '1564', '1565', '1571', '1572', '1573', '1575', '1579', '1582', '1583', '1584', '1587', '1589', '1590', '1592', '1593', '1604', '1612', '1613', '1616', '1617', '1620', '1626', '1633', '1638', '1641', '1648', '1650', '1653', '1654', '1657', '1659', '1661', '1662', '1664', '1666', '1673', '1674', '1675', '1676', '1681', '1682', '1685', '1687', '1688', '1690', '1691', '1694', '1695', '1698', '1699', '1707', '1708', '1709', '1712', '1713', '1714', '1715', '1718', '1725', '1729', '1736', '1737', '1740', '1742', '1744', '1748', '1751', '1752', '1759', '1761', '1762', '1763', '1766', '1768', '1771', '1772', '1773', '1781', '1783', '1785', '1786', '1790', '1792', '1794', '1800', '1802', '1805', '1808', '1818', '1819', '1821', '1823', '1825', '1826', '1830', '1837', '1839', '1840', '1842', '1846', '1847', '1852', '1853', '1856', '1858', '1860', '1863', '1865', '1866', '1870', '1871', '1872', '1874', '1878', '1882', '1884', '1886', '1887', '1890', '1893', '1907', '1910', '1911', '1912', '1916', '1917', '1918', '1923', '1928', '1932', '1937', '1941', '1946', '1948', '1951', '1952', '1956', '1958', '1959', '1965', '1966', '1967', '1968', '1971', '1973', '1974', '1976', '1984', '1985', '1986', '1987', '1988', '1995', '1997']",False,4000,True,2,127fe880b5,0.0,1.0,1.0
./expes/v2_2021-03-27_issda-30_2000-prng-1-w4-p2,30_issda-2000,2000,first-2000,100,5,rng,num-start-1600,1600,25726,classic,541.119437456131,True,,True,1.0,1.0,1.0,1,"['1', '45', '59', '76', '94', '166', '181', '184', '191', '193', '200', '240', '245', '299', '396', '397', '404', '406', '408', '412', '502', '513', '536', '544', '559', '597', '624', '655', '688', '732', '739', '741', '742', '765', '840', '848', '870', '881', '912', '964', '994', '997', '1002', '1025', '1032', '1055', '1076', '1103', '1105', '1134', '1154', '1176', '1180', '1202', '1206', '1207', '1233', '1250', '1298', '1301', '1321', '1343', '1358', '1390', '1397', '1405', '1430', '1433', '1436', '1493', '1495', '1505', '1548', '1556', '1562', '1578', '1625', '1632', '1639', '1643', '1646', '1649', '1650', '1684', '1696', '1706', '1730', '1787', '1803', '1828', '1849', '1863', '1865', '1870', '1877', '1911', '1949', '1978', '1987', '2000']",False,4000,True,2,dd7ae220af,0.0,1.0,1.0
./expes/v2_2021-03-27_issda-30_2000-prng-1-w4-p2,30_issda-2000,2000,first-2000,600,30,rng,num-start-2200,2200,25726,classic,1558.7524094581604,True,,True,1.0,1.0,1.0,1,"['4', '8', '13', '14', '16', '18', '23', '26', '27', '35', '36', '39', '43', '45', '49', '51', '53', '56', '58', '59', '61', '63', '64', '67', '76', '78', '81', '82', '88', '90', '95', '101', '106', '107', '108', '109', '116', '117', '121', '125', '128', '132', '147', '148', '150', '153', '160', '169', '170', '172', '173', '179', '186', '187', '191', '199', '201', '202', '210', '211', '212', '218', '222', '225', '231', '232', '234', '238', '242', '245', '251', '253', '256', '258', '260', '265', '270', '276', '277', '279', '280', '282', '284', '291', '292', '293', '298', '301', '304', '318', '319', '330', '333', '335', '344', '348', '349', '351', '354', '361', '365', '368', '369', '373', '375', '377', '387', '388', '390', '393', '399', '401', '404', '405', '408', '409', '410', '411', '413', '419', '421', '424', '428', '429', '431', '433', '435', '439', '451', '452', '455', '458', '460', '463', '466', '467', '469', '471', '473', '475', '482', '489', '492', '495', '496', '504', '507', '512', '516', '517', '522', '523', '529', '532', '536', '538', '540', '545', '546', '549', '550', '551', '555', '561', '562', '567', '569', '570', '571', '572', '573', '578', '580', '584', '585', '597', '601', '607', '608', '611', '626', '630', '632', '635', '637', '638', '639', '640', '641', '648', '651', '658', '660', '661', '663', '671', '676', '681', '687', '690', '691', '696', '697', '699', '700', '702', '704', '705', '712', '714', '717', '718', '724', '725', '729', '730', '735', '738', '740', '741', '742', '743', '744', '745', '746', '747', '748', '749', '751', '753', '755', '761', '768', '776', '778', '781', '782', '788', '789', '790', '796', '797', '801', '805', '808', '810', '819', '821', '829', '831', '832', '834', '835', '837', '845', '850', '851', '856', '858', '861', '867', '868', '869', '875', '879', '881', '884', '886', '888', '892', '893', '901', '902', '909', '912', '919', '920', '934', '936', '941', '942', '943', '944', '952', '958', '962', '967', '972', '974', '976', '977', '978', '986', '989', '994', '995', '997', '1000', '1004', '1007', '1008', '1009', '1013', '1021', '1024', '1025', '1026', '1027', '1029', '1032', '1035', '1039', '1043', '1048', '1052', '1053', '1056', '1058', '1059', '1063', '1067', '1068', '1071', '1080', '1081', '1084', '1095', '1096', '1098', '1099', '1102', '1105', '1108', '1109', '1110', '1113', '1115', '1119', '1120', '1123', '1124', '1125', '1127', '1135', '1137', '1138', '1141', '1143', '1144', '1147', '1154', '1156', '1157', '1168', '1169', '1174', '1181', '1189', '1190', '1202', '1203', '1206', '1215', '1217', '1221', '1227', '1230', '1232', '1234', '1243', '1244', '1245', '1247', '1248', '1252', '1255', '1262', '1264', '1266', '1268', '1269', '1273', '1275', '1276', '1279', '1280', '1285', '1286', '1289', '1295', '1296', '1299', '1302', '1305', '1307', '1310', '1312', '1313', '1318', '1331', '1332', '1335', '1338', '1344', '1347', '1349', '1351', '1354', '1355', '1356', '1359', '1360', '1365', '1367', '1369', '1370', '1371', '1380', '1384', '1390', '1391', '1395', '1396', '1398', '1400', '1402', '1403', '1404', '1405', '1407', '1410', '1411', '1412', '1414', '1415', '1422', '1425', '1426', '1428', '1430', '1432', '1435', '1444', '1446', '1455', '1465', '1466', '1467', '1473', '1477', '1487', '1488', '1498', '1500', '1504', '1505', '1507', '1510', '1514', '1520', '1526', '1530', '1533', '1534', '1543', '1544', '1550', '1551', '1556', '1558', '1560', '1561', '1567', '1568', '1570', '1575', '1579', '1581', '1582', '1585', '1588', '1606', '1607', '1609', '1613', '1616', '1617', '1622', '1623', '1625', '1629', '1631', '1632', '1634', '1635', '1639', '1640', '1641', '1642', '1646', '1651', '1654', '1657', '1660', '1662', '1665', '1669', '1671', '1677', '1678', '1679', '1682', '1685', '1692', '1701', '1704', '1707', '1711', '1712', '1714', '1718', '1719', '1722', '1726', '1727', '1728', '1731', '1732', '1739', '1747', '1751', '1753', '1760', '1761', '1766', '1767', '1771', '1773', '1774', '1779', '1788', '1789', '1802', '1806', '1807', '1812', '1814', '1816', '1818', '1822', '1829', '1832', '1835', '1838', '1839', '1846', '1849', '1851', '1856', '1865', '1866', '1868', '1874', '1875', '1878', '1882', '1885', '1892', '1893', '1895', '1897', '1899', '1900', '1911', '1912', '1913', '1915', '1918', '1925', '1928', '1933', '1934', '1939', '1941', '1945', '1951', '1952', '1958', '1959', '1964', '1968', '1971', '1972', '1975', '1978', '1982', '1989', '1990', '1992', '2000']",False,4000,True,2,5cdeb32a05,0.0,1.0,1.0
./expes/v2_2021-03-27_issda-30_2000-prng-1-w4-p2,30_issda-2000,2000,first-2000,700,35,rng,num-start-200,200,25726,classic,4023.042434692383,False,,False,0,,,0,"['4', '6', '7', '10', '12', '15', '18', '20', '22', '27', '32', '38', '39', '41', '42', '48', '53', '55', '58', '65', '66', '71', '73', '76', '77', '83', '84', '85', '88', '89', '92', '95', '97', '106', '109', '110', '114', '121', '122', '124', '126', '127', '128', '136', '137', '138', '139', '142', '153', '154', '156', '158', '159', '160', '162', '164', '167', '168', '170', '171', '175', '176', '178', '182', '183', '185', '188', '191', '192', '195', '199', '202', '207', '212', '213', '218', '220', '227', '232', '233', '235', '238', '240', '243', '248', '250', '251', '262', '267', '272', '273', '280', '285', '289', '291', '295', '298', '305', '306', '307', '313', '314', '316', '318', '320', '321', '322', '323', '325', '326', '331', '332', '334', '335', '338', '339', '343', '345', '346', '348', '349', '353', '354', '358', '362', '364', '365', '368', '370', '374', '377', '380', '385', '392', '393', '397', '400', '401', '402', '405', '407', '411', '414', '416', '421', '425', '426', '427', '432', '433', '435', '440', '441', '442', '448', '449', '453', '455', '456', '469', '470', '472', '474', '475', '476', '478', '479', '484', '487', '489', '496', '497', '503', '507', '510', '511', '513', '515', '516', '519', '521', '524', '525', '527', '528', '529', '530', '532', '534', '536', '537', '538', '550', '552', '555', '557', '566', '567', '569', '571', '574', '575', '582', '585', '586', '591', '592', '593', '594', '595', '596', '598', '599', '600', '601', '607', '609', '611', '613', '615', '616', '620', '621', '622', '623', '625', '626', '630', '635', '638', '639', '640', '642', '645', '646', '648', '649', '657', '659', '662', '663', '666', '669', '670', '673', '676', '678', '679', '689', '690', '692', '694', '695', '697', '703', '711', '712', '718', '729', '731', '732', '736', '738', '742', '743', '745', '747', '748', '750', '753', '762', '763', '770', '778', '781', '782', '793', '794', '795', '796', '800', '802', '803', '804', '809', '811', '812', '815', '820', '821', '823', '825', '826', '827', '828', '832', '839', '841', '843', '844', '846', '847', '848', '850', '852', '855', '861', '863', '866', '867', '868', '869', '877', '881', '883', '888', '889', '893', '898', '899', '900', '901', '903', '904', '906', '909', '910', '925', '926', '927', '930', '932', '939', '940', '941', '948', '952', '957', '966', '968', '970', '973', '977', '978', '979', '981', '982', '991', '992', '997', '1002', '1004', '1005', '1008', '1013', '1015', '1017', '1022', '1030', '1037', '1038', '1040', '1042', '1048', '1050', '1055', '1063', '1066', '1067', '1072', '1074', '1077', '1078', '1079', '1082', '1084', '1085', '1087', '1091', '1095', '1100', '1101', '1103', '1107', '1110', '1113', '1115', '1117', '1119', '1121', '1122', '1126', '1128', '1132', '1134', '1144', '1147', '1149', '1150', '1152', '1158', '1164', '1166', '1167', '1171', '1173', '1174', '1176', '1180', '1186', '1192', '1193', '1194', '1197', '1203', '1205', '1206', '1211', '1218', '1220', '1223', '1227', '1230', '1231', '1237', '1241', '1243', '1246', '1248', '1249', '1250', '1256', '1260', '1261', '1265', '1266', '1269', '1271', '1272', '1275', '1277', '1281', '1283', '1284', '1285', '1286', '1288', '1292', '1294', '1295', '1296', '1300', '1301', '1305', '1311', '1313', '1316', '1318', '1323', '1325', '1326', '1328', '1335', '1336', '1338', '1340', '1341', '1342', '1346', '1349', '1353', '1354', '1356', '1367', '1369', '1376', '1380', '1383', '1384', '1385', '1386', '1387', '1393', '1395', '1398', '1400', '1405', '1409', '1420', '1421', '1425', '1429', '1431', '1436', '1438', '1441', '1444', '1447', '1448', '1451', '1453', '1456', '1457', '1461', '1466', '1470', '1472', '1474', '1478', '1483', '1498', '1499', '1506', '1510', '1512', '1526', '1527', '1528', '1529', '1530', '1539', '1546', '1548', '1554', '1557', '1568', '1571', '1573', '1577', '1580', '1582', '1585', '1586', '1588', '1591', '1594', '1597', '1603', '1604', '1606', '1607', '1611', '1612', '1613', '1617', '1619', '1620', '1626', '1631', '1634', '1635', '1636', '1638', '1640', '1641', '1642', '1644', '1645', '1648', '1653', '1654', '1657', '1659', '1665', '1669', '1675', '1676', '1677', '1681', '1687', '1691', '1692', '1694', '1695', '1698', '1700', '1702', '1703', '1704', '1708', '1709', '1710', '1714', '1716', '1720', '1722', '1730', '1731', '1736', '1737', '1738', '1747', '1751', '1753', '1754', '1757', '1758', '1759', '1761', '1765', '1766', '1770', '1771', '1773', '1777', '1781', '1782', '1784', '1790', '1791', '1792', '1795', '1796', '1798', '1800', '1801', '1803', '1804', '1805', '1807', '1809', '1814', '1816', '1822', '1823', '1824', '1825', '1827', '1828', '1830', '1832', '1835', '1837', '1838', '1842', '1843', '1845', '1846', '1848', '1850', '1852', '1853', '1854', '1859', '1862', '1865', '1866', '1867', '1868', '1870', '1871', '1875', '1876', '1878', '1880', '1885', '1887', '1889', '1890', '1893', '1894', '1896', '1900', '1901', '1902', '1905', '1906', '1915', '1918', '1919', '1920', '1921', '1925', '1927', '1930', '1932', '1934', '1935', '1942', '1945', '1948', '1951', '1953', '1956', '1959', '1965', '1966', '1967', '1968', '1970', '1972', '1976', '1977', '1979', '1984', '1986', '1988', '1989', '1995', '1998']",True,4000,True,2,8a09d30b11,0.0,0.0,0.0
./expes/v2_2021-03-27_issda-30_2000-prng-1-w4-p2,30_issda-2000,2000,first-2000,200,10,rng,num-start-1400,1400,25726,classic,778.1630244255066,True,,True,1.0,1.0,1.0,1,"['18', '44', '49', '52', '57', '66', '74', '84', '101', '116', '117', '121', '124', '139', '155', '170', '174', '188', '218', '236', '262', '280', '325', '331', '337', '341', '347', '353', '356', '362', '364', '373', '392', '426', '432', '435', '455', '465', '473', '484', '502', '511', '512', '516', '524', '545', '550', '560', '572', '622', '632', '634', '639', '653', '665', '666', '700', '719', '725', '737', '738', '740', '742', '743', '746', '751', '762', '765', '779', '806', '819', '833', '850', '867', '868', '883', '912', '913', '932', '936', '945', '953', '983', '997', '1002', '1004', '1021', '1026', '1029', '1033', '1040', '1043', '1045', '1049', '1053', '1056', '1061', '1070', '1076', '1077', '1087', '1115', '1142', '1147', '1148', '1152', '1163', '1177', '1191', '1205', '1212', '1216', '1241', '1243', '1262', '1263', '1277', '1308', '1335', '1338', '1342', '1350', '1356', '1372', '1378', '1382', '1396', '1398', '1402', '1433', '1447', '1465', '1469', '1481', '1483', '1487', '1494', '1497', '1505', '1508', '1513', '1526', '1545', '1556', '1563', '1584', '1607', '1618', '1631', '1632', '1637', '1646', '1657', '1666', '1669', '1670', '1681', '1690', '1703', '1711', '1712', '1739', '1749', '1760', '1762', '1768', '1784', '1794', '1796', '1804', '1807', '1809', '1811', '1827', '1831', '1840', '1843', '1846', '1850', '1857', '1859', '1860', '1861', '1867', '1876', '1882', '1885', '1895', '1909', '1914', '1917', '1927', '1933', '1942', '1945', '1955', '1956', '1958', '1961', '1970']",False,4000,True,2,e6bce2cc66,0.0,1.0,1.0
./expes/v2_2021-03-27_issda-30_2000-prng-1-w4-p2,30_issda-2000,2000,first-2000,900,45,rng,num-start-600,600,25726,classic,4071.9824442863464,False,,False,0,,,0,"['2', '7', '8', '11', '12', '14', '15', '17', '18', '19', '20', '21', '23', '24', '25', '26', '27', '29', '31', '32', '36', '38', '40', '42', '44', '46', '49', '53', '54', '56', '58', '59', '60', '61', '62', '68', '70', '71', '74', '80', '84', '85', '86', '87', '89', '97', '100', '102', '104', '105', '106', '108', '109', '110', '111', '113', '116', '117', '119', '120', '121', '122', '123', '124', '125', '130', '131', '132', '133', '134', '135', '136', '137', '141', '142', '143', '147', '152', '153', '155', '156', '157', '161', '162', '164', '166', '167', '168', '170', '171', '172', '173', '174', '176', '178', '179', '180', '181', '182', '183', '188', '189', '192', '193', '194', '197', '198', '203', '204', '205', '209', '210', '212', '213', '217', '218', '223', '226', '227', '228', '229', '230', '239', '242', '243', '244', '246', '247', '249', '251', '253', '263', '266', '271', '272', '273', '275', '276', '277', '282', '283', '284', '285', '288', '289', '292', '295', '298', '301', '304', '305', '306', '307', '311', '312', '319', '322', '326', '329', '331', '332', '333', '334', '335', '337', '341', '345', '346', '347', '348', '350', '351', '352', '354', '355', '360', '361', '362', '365', '367', '371', '372', '373', '374', '375', '377', '382', '383', '387', '388', '391', '394', '398', '400', '402', '405', '406', '408', '409', '410', '411', '412', '414', '416', '420', '421', '423', '428', '429', '430', '431', '432', '433', '438', '444', '452', '453', '455', '456', '457', '459', '460', '462', '466', '473', '474', '476', '477', '484', '485', '488', '496', '497', '498', '499', '503', '507', '509', '514', '515', '519', '520', '522', '523', '524', '526', '530', '531', '532', '533', '535', '538', '539', '543', '546', '547', '548', '550', '552', '553', '557', '559', '562', '564', '565', '567', '569', '571', '576', '581', '583', '584', '585', '589', '590', '595', '596', '597', '599', '603', '605', '607', '610', '615', '616', '617', '620', '625', '626', '627', '630', '631', '633', '636', '638', '642', '644', '645', '646', '650', '651', '653', '657', '659', '661', '662', '663', '664', '666', '667', '673', '674', '675', '676', '677', '678', '681', '684', '685', '687', '688', '689', '691', '692', '693', '694', '698', '700', '706', '709', '711', '712', '714', '715', '723', '724', '727', '732', '734', '736', '746', '747', '748', '749', '750', '757', '758', '761', '763', '764', '765', '766', '767', '771', '776', '777', '780', '782', '785', '786', '789', '791', '795', '796', '797', '798', '799', '806', '808', '810', '811', '813', '816', '817', '818', '822', '824', '825', '826', '827', '832', '833', '835', '836', '837', '838', '840', '843', '846', '850', '853', '854', '855', '861', '863', '864', '866', '867', '868', '870', '871', '873', '875', '878', '881', '888', '892', '893', '894', '896', '897', '899', '900', '901', '903', '906', '910', '916', '920', '923', '925', '926', '929', '930', '933', '934', '936', '937', '940', '946', '949', '950', '951', '952', '956', '958', '962', '964', '965', '969', '971', '973', '974', '977', '978', '980', '981', '985', '987', '988', '1001', '1004', '1007', '1008', '1010', '1013', '1016', '1017', '1018', '1019', '1021', '1024', '1026', '1028', '1029', '1030', '1035', '1036', '1037', '1041', '1042', '1044', '1045', '1046', '1047', '1050', '1053', '1056', '1057', '1059', '1060', '1061', '1062', '1063', '1064', '1066', '1070', '1071', '1072', '1073', '1075', '1077', '1079', '1080', '1083', '1084', '1088', '1089', '1091', '1092', '1093', '1097', '1098', '1100', '1101', '1102', '1106', '1110', '1111', '1113', '1114', '1115', '1118', '1119', '1121', '1124', '1132', '1133', '1136', '1137', '1139', '1141', '1142', '1146', '1148', '1151', '1153', '1154', '1158', '1160', '1162', '1165', '1168', '1169', '1173', '1174', '1176', '1177', '1179', '1183', '1185', '1186', '1188', '1190', '1191', '1195', '1197', '1198', '1199', '1202', '1204', '1205', '1206', '1209', '1210', '1212', '1215', '1223', '1224', '1225', '1228', '1230', '1231', '1235', '1238', '1239', '1240', '1241', '1242', '1243', '1245', '1246', '1247', '1248', '1249', '1251', '1252', '1253', '1255', '1256', '1262', '1263', '1264', '1275', '1280', '1281', '1284', '1289', '1290', '1295', '1300', '1303', '1305', '1308', '1309', '1312', '1315', '1317', '1320', '1322', '1325', '1327', '1328', '1330', '1334', '1338', '1347', '1349', '1350', '1357', '1358', '1359', '1360', '1362', '1364', '1367', '1368', '1370', '1371', '1372', '1373', '1375', '1381', '1386', '1387', '1389', '1390', '1391', '1393', '1394', '1395', '1396', '1399', '1400', '1402', '1405', '1406', '1409', '1410', '1414', '1415', '1419', '1421', '1423', '1424', '1426', '1427', '1428', '1429', '1432', '1433', '1434', '1436', '1438', '1439', '1441', '1442', '1445', '1446', '1449', '1450', '1451', '1452', '1453', '1454', '1455', '1457', '1458', '1464', '1466', '1468', '1469', '1474', '1476', '1481', '1483', '1485', '1487', '1489', '1490', '1491', '1492', '1495', '1503', '1508', '1510', '1511', '1513', '1518', '1520', '1523', '1524', '1526', '1527', '1528', '1529', '1531', '1532', '1533', '1540', '1541', '1542', '1545', '1546', '1551', '1556', '1558', '1559', '1560', '1561', '1564', '1565', '1566', '1567', '1572', '1574', '1580', '1581', '1582', '1583', '1584', '1585', '1586', '1587', '1589', '1592', '1593', '1594', '1595', '1597', '1598', '1599', '1604', '1606', '1611', '1618', '1625', '1628', '1629', '1630', '1631', '1634', '1636', '1637', '1638', '1639', '1645', '1653', '1654', '1656', '1657', '1658', '1659', '1669', '1670', '1681', '1682', '1684', '1686', '1688', '1703', '1704', '1705', '1706', '1708', '1709', '1713', '1715', '1719', '1720', '1721', '1724', '1728', '1730', '1731', '1732', '1733', '1734', '1738', '1741', '1743', '1744', '1745', '1746', '1749', '1755', '1760', '1762', '1763', '1770', '1774', '1775', '1776', '1777', '1779', '1780', '1786', '1789', '1791', '1792', '1794', '1796', '1797', '1800', '1801', '1803', '1804', '1806', '1808', '1809', '1810', '1811', '1813', '1816', '1817', '1818', '1820', '1821', '1822', '1825', '1828', '1829', '1831', '1834', '1835', '1837', '1838', '1840', '1841', '1847', '1849', '1853', '1856', '1857', '1861', '1863', '1867', '1874', '1875', '1880', '1883', '1885', '1887', '1889', '1891', '1893', '1894', '1903', '1906', '1907', '1908', '1911', '1918', '1922', '1925', '1927', '1928', '1930', '1932', '1933', '1934', '1936', '1938', '1939', '1940', '1941', '1945', '1947', '1948', '1949', '1951', '1952', '1953', '1954', '1957', '1958', '1960', '1963', '1967', '1968', '1970', '1971', '1972', '1975', '1976', '1977', '1979', '1980', '1982', '1984', '1985', '1986', '1988', '1991', '1992', '1994', '1995', '1997', '1998', '2000']",True,4000,True,2,1292fe6858,0.0,0.0,0.0
./expes/v2_2021-03-27_issda-30_2000-prng-1-w4-p2,30_issda-2000,2000,first-2000,800,40,rng,num-start-1200,1200,25726,classic,3570.896265268326,True,,True,1.0,1.0,1.0,1,"['1', '3', '4', '5', '7', '15', '17', '19', '20', '21', '26', '28', '29', '30', '31', '32', '34', '39', '42', '45', '47', '51', '55', '57', '58', '61', '62', '63', '65', '67', '68', '69', '73', '74', '75', '78', '79', '80', '81', '82', '83', '84', '85', '87', '92', '93', '94', '96', '97', '99', '103', '114', '119', '124', '126', '128', '129', '131', '135', '136', '142', '144', '145', '146', '148', '152', '155', '157', '161', '162', '165', '166', '167', '168', '169', '171', '172', '173', '174', '179', '184', '186', '187', '188', '192', '195', '201', '203', '204', '206', '207', '208', '211', '215', '216', '223', '224', '228', '231', '233', '236', '237', '238', '240', '241', '244', '246', '249', '253', '254', '255', '256', '257', '261', '266', '267', '268', '272', '274', '277', '284', '286', '287', '289', '291', '292', '294', '299', '300', '301', '304', '305', '307', '310', '311', '315', '317', '319', '320', '321', '323', '325', '328', '330', '332', '336', '340', '342', '347', '350', '359', '365', '366', '368', '370', '373', '374', '377', '379', '383', '386', '387', '388', '390', '391', '392', '394', '399', '400', '406', '407', '409', '414', '417', '419', '420', '422', '423', '425', '426', '427', '432', '438', '441', '443', '445', '448', '449', '451', '452', '453', '455', '457', '461', '471', '473', '477', '479', '483', '485', '489', '490', '491', '492', '496', '498', '500', '514', '518', '522', '524', '526', '527', '529', '531', '532', '533', '534', '535', '537', '553', '556', '563', '564', '565', '571', '574', '576', '578', '588', '590', '593', '594', '595', '597', '600', '601', '602', '603', '607', '613', '616', '617', '618', '619', '620', '621', '622', '626', '631', '636', '638', '640', '645', '647', '648', '650', '652', '656', '660', '661', '664', '665', '667', '668', '670', '673', '677', '678', '682', '683', '685', '687', '688', '691', '692', '693', '697', '702', '704', '706', '708', '710', '711', '713', '718', '722', '723', '725', '731', '732', '734', '735', '736', '740', '741', '742', '750', '752', '753', '755', '756', '759', '761', '762', '763', '770', '772', '775', '776', '777', '783', '786', '787', '789', '792', '794', '795', '796', '802', '803', '807', '809', '813', '816', '817', '823', '824', '826', '830', '832', '836', '840', '843', '849', '850', '851', '852', '855', '856', '857', '859', '861', '862', '865', '867', '872', '873', '874', '883', '884', '890', '892', '894', '906', '907', '911', '912', '913', '915', '918', '919', '923', '925', '928', '930', '933', '938', '939', '940', '944', '955', '957', '964', '965', '966', '967', '970', '971', '975', '976', '977', '980', '982', '986', '987', '988', '996', '997', '998', '1000', '1001', '1003', '1005', '1008', '1009', '1011', '1013', '1015', '1018', '1019', '1020', '1021', '1022', '1029', '1032', '1034', '1035', '1039', '1041', '1042', '1048', '1058', '1061', '1063', '1066', '1067', '1068', '1069', '1072', '1073', '1075', '1076', '1077', '1081', '1083', '1085', '1086', '1091', '1093', '1095', '1097', '1102', '1107', '1108', '1112', '1113', '1115', '1120', '1121', '1122', '1124', '1125', '1129', '1132', '1133', '1140', '1144', '1147', '1149', '1150', '1155', '1157', '1160', '1163', '1164', '1166', '1167', '1168', '1172', '1176', '1179', '1180', '1188', '1190', '1194', '1195', '1198', '1199', '1201', '1203', '1204', '1208', '1209', '1215', '1218', '1222', '1223', '1226', '1230', '1233', '1234', '1235', '1236', '1237', '1239', '1241', '1242', '1245', '1246', '1249', '1250', '1252', '1253', '1254', '1255', '1259', '1265', '1267', '1271', '1272', '1274', '1277', '1281', '1284', '1285', '1286', '1291', '1295', '1297', '1298', '1299', '1301', '1303', '1306', '1308', '1309', '1312', '1313', '1314', '1320', '1321', '1325', '1330', '1333', '1339', '1343', '1344', '1345', '1346', '1347', '1350', '1353', '1357', '1364', '1366', '1369', '1373', '1378', '1380', '1384', '1385', '1387', '1390', '1391', '1392', '1393', '1394', '1395', '1396', '1398', '1400', '1401', '1406', '1408', '1411', '1413', '1415', '1417', '1429', '1431', '1433', '1434', '1435', '1436', '1437', '1438', '1442', '1445', '1446', '1447', '1448', '1449', '1453', '1455', '1459', '1462', '1464', '1466', '1469', '1470', '1471', '1472', '1474', '1480', '1486', '1490', '1493', '1494', '1495', '1496', '1497', '1499', '1500', '1504', '1505', '1514', '1518', '1519', '1528', '1530', '1532', '1533', '1535', '1536', '1541', '1546', '1548', '1550', '1552', '1553', '1555', '1561', '1572', '1582', '1583', '1585', '1590', '1591', '1592', '1593', '1594', '1597', '1602', '1604', '1605', '1606', '1608', '1609', '1615', '1616', '1618', '1621', '1623', '1625', '1627', '1628', '1634', '1635', '1638', '1639', '1640', '1645', '1646', '1648', '1649', '1651', '1653', '1655', '1657', '1659', '1660', '1663', '1664', '1669', '1671', '1674', '1676', '1678', '1679', '1683', '1684', '1685', '1690', '1691', '1692', '1694', '1696', '1698', '1699', '1700', '1701', '1708', '1712', '1716', '1717', '1721', '1723', '1726', '1729', '1730', '1731', '1732', '1734', '1740', '1742', '1744', '1747', '1749', '1752', '1756', '1760', '1762', '1763', '1765', '1766', '1769', '1770', '1772', '1773', '1777', '1780', '1783', '1785', '1786', '1787', '1790', '1791', '1792', '1793', '1794', '1796', '1798', '1799', '1805', '1811', '1812', '1813', '1814', '1819', '1821', '1823', '1824', '1827', '1830', '1832', '1834', '1839', '1840', '1841', '1842', '1844', '1846', '1848', '1849', '1850', '1853', '1856', '1860', '1861', '1864', '1868', '1870', '1872', '1875', '1876', '1878', '1879', '1880', '1881', '1882', '1883', '1884', '1885', '1888', '1889', '1890', '1891', '1892', '1908', '1911', '1913', '1914', '1916', '1917', '1918', '1919', '1920', '1922', '1929', '1932', '1935', '1937', '1939', '1940', '1942', '1945', '1946', '1953', '1955', '1959', '1962', '1963', '1965', '1968', '1969', '1971', '1972', '1973', '1974', '1978', '1980', '1982', '1983', '1984', '1986', '1988', '1992', '1996', '2000']",False,4000,True,2,6b32582ae8,0.0,1.0,1.0
./expes/v2_2021-03-27_issda-30_2000-prng-1-w4-p2,30_issda-2000,2000,first-2000,1000,50,rng,num-start-3200,3200,25726,classic,2454.173426389694,True,,True,1.0,1.0,1.0,1,"['2', '4', '5', '8', '9', '11', '12', '16', '18', '19', '21', '22', '23', '26', '28', '30', '32', '35', '36', '37', '38', '39', '41', '42', '43', '44', '45', '46', '48', '49', '50', '53', '56', '58', '59', '60', '61', '63', '64', '66', '67', '71', '72', '73', '77', '78', '81', '82', '83', '84', '85', '90', '93', '94', '95', '98', '99', '100', '102', '107', '114', '115', '117', '121', '128', '129', '130', '132', '134', '138', '139', '140', '141', '143', '145', '146', '147', '149', '150', '151', '154', '157', '158', '162', '167', '168', '171', '172', '174', '175', '178', '183', '184', '186', '188', '189', '191', '193', '196', '198', '202', '203', '205', '206', '207', '210', '211', '214', '218', '219', '221', '222', '223', '225', '228', '229', '232', '234', '235', '236', '237', '238', '242', '245', '248', '250', '253', '254', '257', '258', '259', '265', '268', '273', '276', '277', '278', '280', '283', '284', '285', '290', '291', '298', '300', '302', '304', '307', '312', '316', '320', '322', '324', '325', '326', '327', '328', '329', '332', '333', '336', '337', '338', '339', '340', '342', '343', '345', '346', '348', '349', '352', '353', '354', '355', '362', '363', '364', '365', '368', '371', '376', '379', '381', '383', '385', '386', '389', '398', '402', '405', '408', '409', '410', '411', '412', '418', '420', '421', '422', '423', '424', '426', '428', '429', '430', '434', '435', '437', '438', '441', '444', '446', '449', '450', '451', '452', '455', '456', '458', '459', '461', '462', '463', '465', '466', '467', '469', '471', '473', '475', '476', '478', '479', '481', '482', '483', '486', '489', '491', '493', '494', '495', '497', '498', '500', '501', '502', '504', '505', '507', '508', '509', '512', '513', '514', '517', '518', '519', '520', '523', '529', '530', '531', '532', '534', '537', '542', '546', '547', '548', '549', '551', '552', '553', '554', '555', '559', '560', '563', '564', '565', '568', '569', '576', '577', '581', '582', '584', '589', '594', '595', '596', '597', '602', '603', '604', '606', '607', '608', '609', '611', '612', '613', '614', '621', '622', '624', '625', '626', '628', '629', '630', '632', '635', '636', '638', '639', '641', '642', '645', '648', '649', '650', '651', '655', '656', '657', '658', '659', '660', '663', '667', '671', '672', '676', '677', '679', '681', '682', '684', '685', '689', '691', '694', '695', '696', '697', '699', '702', '704', '705', '706', '708', '709', '711', '713', '716', '718', '724', '727', '728', '729', '731', '732', '736', '737', '739', '740', '747', '748', '752', '754', '755', '756', '759', '762', '766', '768', '773', '774', '775', '776', '777', '778', '779', '781', '784', '785', '786', '787', '792', '794', '798', '799', '800', '802', '804', '806', '807', '809', '811', '814', '815', '817', '818', '819', '820', '821', '822', '823', '824', '825', '828', '829', '830', '833', '834', '837', '838', '843', '845', '847', '849', '853', '854', '861', '863', '865', '866', '873', '874', '880', '881', '884', '885', '887', '892', '896', '897', '898', '899', '900', '903', '906', '907', '909', '912', '913', '915', '918', '921', '922', '924', '926', '928', '929', '932', '934', '938', '939', '941', '942', '944', '946', '947', '948', '952', '957', '959', '961', '962', '968', '971', '977', '981', '984', '986', '991', '993', '994', '995', '996', '1000', '1002', '1003', '1006', '1009', '1010', '1011', '1013', '1014', '1015', '1016', '1017', '1023', '1024', '1025', '1026', '1027', '1029', '1031', '1033', '1034', '1035', '1037', '1039', '1040', '1042', '1043', '1045', '1046', '1047', '1048', '1050', '1053', '1054', '1055', '1058', '1059', '1063', '1067', '1072', '1073', '1074', '1078', '1079', '1081', '1082', '1083', '1088', '1091', '1094', '1095', '1101', '1102', '1103', '1105', '1106', '1107', '1109', '1110', '1111', '1112', '1115', '1116', '1117', '1118', '1121', '1122', '1123', '1124', '1125', '1127', '1128', '1129', '1132', '1133', '1136', '1140', '1141', '1143', '1146', '1148', '1149', '1150', '1154', '1156', '1157', '1160', '1166', '1167', '1168', '1169', '1170', '1171', '1173', '1175', '1177', '1180', '1184', '1185', '1186', '1187', '1188', '1189', '1191', '1197', '1200', '1202', '1204', '1207', '1210', '1211', '1212', '1215', '1216', '1218', '1221', '1222', '1224', '1226', '1229', '1230', '1231', '1232', '1233', '1237', '1240', '1241', '1242', '1245', '1248', '1249', '1250', '1251', '1252', '1253', '1254', '1255', '1256', '1257', '1260', '1264', '1266', '1270', '1274', '1275', '1276', '1277', '1280', '1282', '1286', '1288', '1289', '1290', '1292', '1293', '1298', '1302', '1303', '1305', '1309', '1312', '1316', '1318', '1322', '1324', '1326', '1327', '1328', '1329', '1330', '1331', '1335', '1336', '1338', '1339', '1345', '1346', '1350', '1351', '1352', '1353', '1354', '1356', '1358', '1360', '1362', '1363', '1364', '1368', '1370', '1373', '1374', '1377', '1379', '1381', '1382', '1383', '1387', '1388', '1389', '1390', '1395', '1396', '1397', '1400', '1403', '1406', '1407', '1408', '1410', '1411', '1413', '1415', '1417', '1419', '1424', '1426', '1432', '1433', '1435', '1437', '1439', '1440', '1441', '1442', '1444', '1448', '1451', '1453', '1455', '1457', '1458', '1459', '1460', '1462', '1464', '1465', '1466', '1467', '1469', '1471', '1472', '1473', '1474', '1478', '1480', '1483', '1484', '1486', '1487', '1488', '1492', '1494', '1495', '1496', '1498', '1500', '1501', '1503', '1506', '1509', '1510', '1511', '1512', '1513', '1516', '1517', '1522', '1524', '1526', '1528', '1529', '1531', '1534', '1536', '1538', '1539', '1541', '1543', '1545', '1548', '1552', '1554', '1555', '1559', '1560', '1562', '1564', '1565', '1569', '1572', '1573', '1576', '1578', '1579', '1589', '1590', '1593', '1594', '1595', '1596', '1597', '1598', '1602', '1603', '1604', '1605', '1608', '1609', '1611', '1612', '1615', '1616', '1618', '1621', '1623', '1624', '1625', '1626', '1629', '1631', '1633', '1634', '1635', '1636', '1643', '1644', '1646', '1647', '1648', '1650', '1652', '1654', '1655', '1656', '1657', '1658', '1661', '1662', '1666', '1669', '1670', '1673', '1674', '1676', '1679', '1680', '1681', '1682', '1683', '1689', '1692', '1696', '1697', '1698', '1699', '1700', '1702', '1705', '1706', '1710', '1711', '1712', '1713', '1716', '1721', '1722', '1723', '1724', '1725', '1729', '1731', '1732', '1734', '1735', '1736', '1737', '1738', '1739', '1742', '1743', '1744', '1745', '1748', '1752', '1753', '1754', '1756', '1757', '1759', '1760', '1762', '1764', '1766', '1767', '1773', '1774', '1776', '1777', '1778', '1779', '1782', '1784', '1786', '1790', '1794', '1795', '1797', '1800', '1801', '1803', '1805', '1806', '1808', '1809', '1813', '1815', '1817', '1818', '1821', '1825', '1826', '1829', '1830', '1831', '1835', '1837', '1839', '1842', '1843', '1845', '1847', '1850', '1851', '1852', '1858', '1862', '1863', '1864', '1865', '1866', '1870', '1871', '1872', '1873', '1877', '1879', '1880', '1882', '1883', '1885', '1886', '1887', '1888', '1889', '1891', '1893', '1895', '1896', '1897', '1898', '1901', '1902', '1905', '1907', '1910', '1911', '1912', '1918', '1920', '1921', '1922', '1924', '1926', '1927', '1928', '1929', '1933', '1934', '1936', '1937', '1938', '1945', '1946', '1950', '1951', '1955', '1956', '1957', '1959', '1961', '1965', '1966', '1967', '1971', '1974', '1975', '1976', '1977', '1978', '1980', '1981', '1982', '1983', '1985', '1987', '1988', '1990', '1992', '1993', '1994', '1995', '1996', '1997', '1998', '1999', '2000']",False,4000,True,2,b3f9725a0a,0.0,1.0,1.0
./expes/v2_2021-03-27_issda-30_2000-prng-1-w4-p2,30_issda-2000,2000,first-2000,900,45,rng,num-start-1800,1800,25726,classic,2105.6700699329376,True,,True,1.0,1.0,1.0,1,"['1', '2', '4', '6', '7', '11', '13', '19', '21', '24', '26', '27', '28', '30', '34', '35', '36', '38', '39', '41', '45', '47', '49', '52', '53', '55', '57', '58', '60', '61', '66', '68', '69', '70', '71', '74', '75', '76', '78', '81', '82', '86', '90', '93', '96', '97', '99', '100', '101', '104', '106', '107', '110', '111', '115', '117', '118', '121', '124', '125', '126', '129', '130', '131', '134', '136', '137', '138', '141', '146', '148', '155', '161', '162', '166', '168', '172', '173', '175', '178', '180', '183', '187', '188', '189', '193', '195', '196', '199', '202', '205', '209', '213', '219', '221', '222', '226', '227', '228', '231', '232', '236', '237', '238', '242', '243', '244', '250', '251', '253', '256', '257', '259', '260', '265', '266', '267', '268', '269', '270', '271', '272', '273', '274', '276', '280', '282', '284', '285', '287', '289', '290', '291', '292', '293', '294', '295', '299', '301', '304', '305', '306', '307', '309', '310', '312', '315', '317', '320', '322', '326', '327', '328', '329', '331', '332', '335', '339', '340', '341', '346', '347', '348', '351', '352', '354', '360', '361', '364', '366', '368', '369', '370', '371', '372', '373', '375', '378', '379', '380', '382', '386', '392', '393', '397', '399', '401', '403', '404', '407', '408', '410', '412', '413', '415', '419', '420', '425', '427', '428', '429', '434', '437', '440', '441', '442', '444', '449', '452', '457', '459', '464', '468', '472', '473', '474', '479', '481', '482', '483', '486', '487', '488', '489', '492', '493', '499', '502', '503', '504', '505', '510', '511', '513', '514', '515', '517', '521', '524', '525', '529', '533', '538', '540', '541', '543', '548', '549', '550', '555', '558', '561', '562', '565', '569', '571', '573', '574', '576', '579', '580', '581', '585', '586', '587', '588', '592', '593', '594', '595', '597', '600', '601', '602', '604', '605', '606', '607', '608', '612', '616', '617', '618', '620', '622', '627', '628', '630', '634', '635', '637', '639', '640', '641', '643', '645', '647', '648', '649', '650', '651', '654', '658', '662', '663', '665', '667', '668', '677', '678', '680', '683', '685', '689', '693', '694', '696', '697', '698', '700', '705', '706', '708', '713', '714', '715', '717', '718', '720', '721', '724', '726', '727', '728', '729', '731', '732', '733', '734', '735', '740', '741', '742', '743', '745', '746', '747', '750', '753', '756', '757', '761', '762', '764', '766', '767', '768', '770', '771', '772', '773', '775', '777', '778', '779', '780', '783', '784', '785', '787', '788', '790', '791', '797', '798', '799', '803', '804', '811', '814', '817', '822', '825', '827', '828', '830', '831', '832', '835', '836', '837', '839', '840', '841', '848', '850', '851', '854', '858', '859', '862', '864', '867', '872', '875', '876', '878', '879', '880', '882', '885', '887', '888', '890', '893', '897', '904', '905', '906', '909', '912', '914', '920', '922', '928', '929', '930', '934', '936', '945', '946', '947', '948', '949', '951', '953', '954', '958', '959', '961', '962', '963', '966', '967', '968', '970', '972', '973', '975', '977', '978', '980', '982', '983', '984', '985', '986', '987', '988', '989', '990', '991', '995', '997', '1000', '1003', '1004', '1006', '1007', '1008', '1009', '1011', '1017', '1019', '1020', '1023', '1025', '1030', '1036', '1038', '1042', '1050', '1051', '1056', '1058', '1059', '1060', '1062', '1063', '1070', '1075', '1081', '1085', '1086', '1087', '1089', '1090', '1091', '1093', '1100', '1102', '1103', '1105', '1106', '1109', '1110', '1111', '1114', '1117', '1118', '1121', '1123', '1124', '1125', '1127', '1130', '1131', '1133', '1134', '1136', '1137', '1138', '1139', '1142', '1146', '1148', '1151', '1155', '1156', '1158', '1159', '1165', '1170', '1171', '1174', '1175', '1176', '1178', '1179', '1182', '1185', '1190', '1193', '1197', '1200', '1201', '1202', '1204', '1208', '1209', '1210', '1214', '1217', '1219', '1221', '1222', '1226', '1230', '1231', '1236', '1237', '1241', '1246', '1247', '1251', '1253', '1254', '1257', '1259', '1260', '1264', '1265', '1266', '1269', '1271', '1272', '1274', '1275', '1276', '1278', '1279', '1280', '1281', '1282', '1284', '1285', '1290', '1292', '1293', '1295', '1305', '1308', '1312', '1316', '1320', '1321', '1323', '1326', '1327', '1328', '1329', '1330', '1331', '1332', '1334', '1336', '1339', '1340', '1342', '1343', '1344', '1345', '1352', '1353', '1355', '1356', '1357', '1360', '1363', '1364', '1365', '1368', '1369', '1370', '1374', '1376', '1377', '1380', '1382', '1385', '1389', '1394', '1395', '1396', '1397', '1398', '1399', '1404', '1405', '1408', '1409', '1410', '1411', '1412', '1415', '1417', '1423', '1424', '1425', '1427', '1428', '1429', '1435', '1437', '1439', '1441', '1443', '1444', '1445', '1446', '1448', '1450', '1451', '1453', '1460', '1461', '1464', '1467', '1468', '1471', '1472', '1474', '1475', '1476', '1477', '1478', '1480', '1481', '1485', '1487', '1488', '1489', '1491', '1494', '1495', '1496', '1498', '1499', '1500', '1501', '1509', '1512', '1514', '1516', '1517', '1518', '1520', '1521', '1523', '1526', '1527', '1533', '1536', '1537', '1538', '1541', '1548', '1549', '1553', '1555', '1556', '1558', '1561', '1565', '1567', '1569', '1572', '1574', '1576', '1577', '1582', '1585', '1587', '1589', '1590', '1595', '1596', '1598', '1599', '1600', '1601', '1602', '1609', '1610', '1614', '1620', '1622', '1627', '1628', '1629', '1631', '1632', '1633', '1634', '1636', '1642', '1643', '1645', '1648', '1650', '1654', '1655', '1663', '1664', '1665', '1666', '1668', '1673', '1675', '1677', '1679', '1681', '1682', '1684', '1689', '1693', '1694', '1697', '1700', '1703', '1706', '1707', '1711', '1712', '1713', '1714', '1715', '1718', '1722', '1723', '1724', '1725', '1727', '1729', '1731', '1738', '1739', '1745', '1746', '1749', '1751', '1753', '1755', '1759', '1761', '1769', '1775', '1776', '1777', '1778', '1779', '1780', '1782', '1785', '1787', '1793', '1795', '1796', '1800', '1803', '1804', '1808', '1814', '1819', '1821', '1822', '1823', '1826', '1827', '1829', '1830', '1831', '1833', '1836', '1837', '1841', '1846', '1848', '1850', '1865', '1866', '1867', '1868', '1870', '1872', '1874', '1877', '1878', '1881', '1887', '1888', '1889', '1892', '1893', '1894', '1899', '1904', '1906', '1915', '1916', '1917', '1918', '1920', '1921', '1923', '1924', '1925', '1926', '1927', '1928', '1930', '1931', '1932', '1935', '1936', '1937', '1945', '1946', '1948', '1949', '1950', '1951', '1953', '1955', '1956', '1957', '1959', '1960', '1961', '1963', '1966', '1967', '1968', '1969', '1970', '1973', '1976', '1977', '1980', '1982', '1983', '1984', '1986', '1990', '1992', '1993', '1994', '1998', '1999', '2000']",False,4000,True,2,d5d81b7298,0.0,1.0,1.0
./expes/v2_2021-03-27_issda-30_2000-prng-1-w4-p2,30_issda-2000,2000,first-2000,400,20,rng,num-start-400,400,25726,classic,4050.1169307231903,False,,False,0,,,0,"['2', '8', '11', '14', '17', '18', '25', '27', '31', '36', '38', '49', '53', '54', '59', '60', '61', '62', '70', '71', '74', '84', '85', '89', '97', '100', '104', '106', '108', '109', '111', '113', '124', '125', '130', '132', '133', '135', '136', '137', '141', '142', '153', '155', '166', '167', '170', '171', '172', '173', '174', '178', '180', '182', '192', '197', '204', '205', '209', '212', '213', '218', '223', '226', '227', '228', '229', '230', '242', '246', '247', '249', '263', '266', '272', '273', '282', '283', '284', '285', '289', '292', '298', '304', '305', '306', '322', '332', '333', '337', '345', '347', '351', '354', '355', '361', '372', '382', '388', '394', '405', '406', '408', '409', '411', '416', '420', '428', '430', '431', '438', '453', '455', '456', '460', '473', '474', '484', '485', '488', '498', '499', '509', '531', '538', '539', '547', '548', '550', '553', '562', '567', '569', '576', '584', '595', '597', '603', '607', '616', '630', '633', '659', '666', '674', '677', '684', '685', '693', '700', '709', '712', '715', '727', '749', '750', '757', '761', '763', '764', '765', '776', '777', '782', '785', '786', '791', '796', '797', '813', '816', '822', '824', '825', '833', '840', '843', '861', '864', '866', '870', '871', '878', '888', '893', '910', '920', '923', '925', '926', '929', '936', '940', '949', '950', '958', '964', '971', '973', '980', '985', '988', '1004', '1007', '1008', '1013', '1016', '1018', '1019', '1026', '1030', '1035', '1037', '1045', '1060', '1070', '1073', '1080', '1084', '1097', '1101', '1106', '1111', '1115', '1118', '1121', '1124', '1136', '1137', '1139', '1146', '1148', '1151', '1158', '1160', '1174', '1176', '1177', '1179', '1186', '1188', '1190', '1197', '1199', '1205', '1206', '1209', '1210', '1212', '1215', '1223', '1224', '1235', '1239', '1242', '1243', '1245', '1246', '1247', '1248', '1252', '1253', '1256', '1263', '1275', '1280', '1284', '1290', '1300', '1305', '1309', '1315', '1317', '1322', '1327', '1334', '1359', '1368', '1375', '1381', '1386', '1389', '1391', '1400', '1409', '1410', '1419', '1426', '1433', '1434', '1436', '1441', '1442', '1445', '1452', '1453', '1466', '1474', '1476', '1485', '1487', '1490', '1492', '1495', '1508', '1510', '1511', '1518', '1527', '1528', '1529', '1531', '1542', '1558', '1566', '1567', '1581', '1583', '1586', '1587', '1589', '1593', '1598', '1599', '1604', '1606', '1611', '1618', '1625', '1628', '1631', '1636', '1638', '1645', '1654', '1658', '1659', '1669', '1681', '1686', '1706', '1728', '1732', '1733', '1743', '1745', '1746', '1760', '1762', '1770', '1775', '1777', '1780', '1786', '1791', '1794', '1797', '1800', '1801', '1803', '1806', '1816', '1817', '1818', '1821', '1822', '1828', '1829', '1834', '1835', '1840', '1856', '1857', '1863', '1867', '1880', '1883', '1887', '1891', '1893', '1918', '1922', '1925', '1928', '1938', '1939', '1940', '1948', '1949', '1954', '1957', '1958', '1963', '1970', '1972', '1975', '1980', '1984', '1998', '2000']",True,4000,True,2,84d42276fc,0.0,0.0,0.0
