,expe,clients,clients_size,clients_subset,agg_size,agg_size_pc,method,days,days_size,days_total,noise_method,time,valid,valid_sum,success,score_avg,score_min,score_max,nsols,oracle,wall_hit,wall_time,pooled,pool_size,optimal,valid_sums,uuid
0,./expes/v3_2021-01-29_di_300-prng-1-w1-p10,daily_issda-300,300,first-300,70,23,rng,num-start-101,101,536,classic,9.630239486694336,True,,True,1.0,1.0,1.0,1,"Index(['1', '8', '21', '32', '33', '38', '42', '47', '48', '49', '51', '52',
       '56', '64', '72', '73', '76', '95', '97', '98', '105', '112', '114',
       '123', '124', '125', '129', '133', '134', '145', '148', '149', '150',
       '155', '156', '159', '162', '163', '164', '167', '170', '171', '182',
       '184', '198', '205', '208', '216', '223', '227', '228', '230', '242',
       '245', '249', '251', '253', '259', '261', '262', '267', '273', '277',
       '279', '281', '283', '287', '291', '295', '299'],
      dtype='object')",False,1000,True,10,1.0,1.0,02905eff1f
1,./expes/v3_2021-01-29_di_300-prng-1-w1-p10,daily_issda-300,300,first-300,91,30,rng,num-start-111,111,536,classic,5.584308624267578,True,,True,1.0,1.0,1.0,1,"Index(['1', '7', '9', '10', '12', '15', '19', '24', '28', '40', '42', '44',
       '46', '48', '49', '50', '60', '62', '64', '65', '71', '75', '87', '89',
       '95', '97', '99', '100', '101', '102', '103', '108', '115', '126',
       '129', '131', '132', '134', '136', '137', '138', '140', '149', '150',
       '156', '157', '160', '164', '169', '171', '172', '183', '185', '186',
       '192', '194', '195', '200', '204', '210', '211', '212', '216', '217',
       '218', '219', '221', '226', '228', '229', '232', '241', '242', '248',
       '249', '250', '251', '257', '258', '264', '265', '268', '269', '271',
       '276', '277', '284', '286', '289', '294', '295'],
      dtype='object')",False,1000,True,10,1.0,1.0,f53992d9bd
2,./expes/v3_2021-01-29_di_300-prng-1-w1-p10,daily_issda-300,300,first-300,98,32,rng,num-start-1,1,536,classic,13.93269109725952,False,,True,0.3348948924203727,0.3157285445459792,0.3612302794802787,100,"Index(['4', '10', '11', '14', '22', '23', '24', '31', '32', '35', '40', '42',
       '43', '45', '46', '47', '52', '53', '55', '63', '70', '75', '79', '80',
       '83', '85', '89', '91', '92', '95', '99', '100', '101', '102', '104',
       '110', '114', '118', '120', '121', '122', '127', '128', '129', '133',
       '134', '135', '140', '142', '143', '144', '147', '148', '149', '150',
       '151', '154', '156', '157', '159', '160', '165', '166', '168', '170',
       '173', '176', '183', '185', '191', '196', '199', '203', '206', '211',
       '212', '217', '221', '224', '226', '228', '232', '236', '237', '242',
       '243', '246', '260', '261', '266', '267', '274', '275', '281', '282',
       '286', '294', '299'],
      dtype='object')",False,1000,True,10,1.0,1.0,0978048d8b
3,./expes/v3_2021-01-29_di_300-prng-1-w1-p10,daily_issda-300,300,first-300,91,30,rng,num-start-141,141,536,classic,6.155712127685547,True,,True,1.0,1.0,1.0,1,"Index(['1', '3', '5', '6', '8', '9', '11', '16', '19', '22', '27', '31', '33',
       '35', '36', '38', '43', '44', '45', '47', '49', '52', '56', '60', '61',
       '68', '69', '73', '75', '81', '91', '95', '96', '97', '98', '101',
       '102', '108', '109', '110', '118', '120', '124', '127', '131', '133',
       '139', '143', '148', '149', '151', '156', '160', '162', '168', '169',
       '171', '173', '193', '197', '198', '202', '203', '204', '206', '209',
       '210', '215', '216', '226', '227', '229', '230', '232', '235', '238',
       '239', '241', '244', '250', '256', '261', '263', '266', '271', '276',
       '283', '287', '289', '290', '296'],
      dtype='object')",False,1000,True,10,1.0,1.0,84e4d81cf6
4,./expes/v3_2021-01-29_di_300-prng-1-w1-p10,daily_issda-300,300,first-300,21,7,rng,num-start-61,61,536,classic,4.445815801620483,True,,True,1.0,1.0,1.0,1,"Index(['16', '23', '44', '46', '65', '71', '99', '108', '117', '127', '190',
       '193', '200', '206', '207', '233', '236', '250', '254', '260', '294'],
      dtype='object')",False,1000,True,10,1.0,1.0,66aecb39e8
5,./expes/v3_2021-01-29_di_300-prng-1-w1-p10,daily_issda-300,300,first-300,63,21,rng,num-start-151,151,536,classic,6.430082321166992,True,,True,1.0,1.0,1.0,1,"Index(['2', '5', '12', '14', '15', '16', '18', '33', '49', '52', '53', '61',
       '62', '69', '89', '96', '98', '108', '111', '113', '114', '118', '119',
       '120', '125', '131', '137', '146', '149', '152', '156', '163', '171',
       '177', '188', '192', '195', '196', '200', '202', '207', '213', '214',
       '217', '222', '225', '229', '231', '236', '242', '246', '250', '254',
       '256', '257', '259', '260', '271', '278', '281', '284', '285', '292'],
      dtype='object')",False,1000,True,10,1.0,1.0,509ba449e6
6,./expes/v3_2021-01-29_di_300-prng-1-w1-p10,daily_issda-300,300,first-300,119,39,rng,num-start-151,151,536,classic,7.625547409057617,True,,True,1.0,1.0,1.0,1,"Index(['4', '6', '7', '8', '11', '12', '15', '16', '17', '19',
       ...
       '282', '283', '287', '292', '293', '294', '296', '297', '298', '300'],
      dtype='object', length=119)",False,1000,True,10,1.0,1.0,534177cc47
7,./expes/v3_2021-01-29_di_300-prng-1-w1-p10,daily_issda-300,300,first-300,49,16,rng,num-start-41,41,536,classic,1001.5932302474976,False,,False,0.0,,,0,"Index(['3', '8', '16', '19', '22', '31', '33', '36', '43', '44', '47', '49',
       '56', '73', '81', '95', '96', '98', '101', '118', '120', '124', '131',
       '143', '148', '149', '151', '156', '162', '168', '203', '206', '209',
       '226', '229', '232', '235', '238', '239', '244', '256', '261', '263',
       '266', '271', '276', '283', '287', '289'],
      dtype='object')",True,1000,True,10,0.0,0.0,aa3073c645
8,./expes/v3_2021-01-29_di_300-prng-1-w1-p10,daily_issda-300,300,first-300,7,2,rng,num-start-231,231,536,classic,8.618784427642822,True,,True,1.0,1.0,1.0,1,"Index(['1', '19', '42', '75', '134', '249', '294'], dtype='object')",False,1000,True,10,1.0,1.0,3d93a3664e
9,./expes/v3_2021-01-29_di_300-prng-1-w1-p10,daily_issda-300,300,first-300,133,44,rng,num-start-251,251,536,classic,11.756026029586792,True,,True,1.0,1.0,1.0,1,"Index(['1', '4', '7', '8', '9', '10', '11', '12', '15', '16',
       ...
       '277', '283', '284', '286', '287', '289', '292', '294', '295', '297'],
      dtype='object', length=133)",False,1000,True,10,1.0,1.0,a5f310a4c0
10,./expes/v3_2021-01-29_di_300-prng-1-w1-p10,daily_issda-300,300,first-300,49,16,rng,num-start-31,31,536,classic,1001.1675946712494,False,,False,0.0,,,0,"Index(['4', '59', '61', '63', '75', '83', '87', '90', '93', '94', '101', '102',
       '103', '104', '111', '113', '121', '122', '123', '130', '136', '139',
       '140', '145', '152', '154', '156', '167', '172', '176', '178', '188',
       '208', '230', '235', '245', '246', '251', '253', '254', '257', '260',
       '268', '270', '276', '283', '291', '294', '295'],
      dtype='object')",True,1000,True,10,0.0,0.0,64098ffa7f
11,./expes/v3_2021-01-29_di_300-prng-1-w1-p10,daily_issda-300,300,first-300,126,42,rng,num-start-41,41,536,classic,1001.4567351341248,False,,False,0.0,,,0,"Index(['4', '5', '10', '11', '14', '19', '21', '22', '23', '24',
       ...
       '271', '274', '275', '280', '281', '282', '286', '293', '294', '299'],
      dtype='object', length=126)",True,1000,True,10,0.0,0.0,8b48735f0a
12,./expes/v3_2021-01-29_di_300-prng-1-w1-p10,daily_issda-300,300,first-300,42,14,rng,num-start-181,181,536,classic,8.245142698287964,True,,True,1.0,1.0,1.0,1,"Index(['1', '6', '10', '27', '31', '32', '39', '45', '47', '58', '70', '74',
       '75', '84', '88', '103', '108', '115', '117', '138', '141', '161',
       '173', '174', '180', '189', '192', '196', '208', '217', '226', '228',
       '236', '243', '248', '261', '263', '271', '277', '285', '286', '296'],
      dtype='object')",False,1000,True,10,1.0,1.0,3242874feb
13,./expes/v3_2021-01-29_di_300-prng-1-w1-p10,daily_issda-300,300,first-300,140,46,rng,num-start-281,281,536,classic,13.12050485610962,True,,True,1.0,1.0,1.0,1,"Index(['1', '3', '5', '10', '11', '13', '15', '16', '17', '18',
       ...
       '272', '279', '283', '286', '287', '288', '291', '295', '298', '300'],
      dtype='object', length=140)",False,1000,True,10,1.0,1.0,0914ec3879
14,./expes/v3_2021-01-29_di_300-prng-1-w1-p10,daily_issda-300,300,first-300,21,7,rng,num-start-51,51,536,classic,3.489015817642212,True,,True,1.0,1.0,1.0,1,"Index(['14', '32', '57', '71', '72', '90', '128', '130', '143', '149', '156',
       '163', '188', '197', '206', '213', '215', '257', '268', '277', '283'],
      dtype='object')",False,1000,True,10,1.0,1.0,1b7c1a7e87
15,./expes/v3_2021-01-29_di_300-prng-1-w1-p10,daily_issda-300,300,first-300,140,46,rng,num-start-121,121,536,classic,47.49789524078369,True,,True,1.0,1.0,1.0,1,"Index(['2', '4', '5', '9', '12', '13', '14', '17', '21', '23',
       ...
       '278', '280', '281', '284', '288', '292', '293', '296', '297', '300'],
      dtype='object', length=140)",False,1000,True,10,1.0,1.0,903dd55479
16,./expes/v3_2021-01-29_di_300-prng-1-w1-p10,daily_issda-300,300,first-300,56,18,rng,num-start-81,81,536,classic,10.328741073608398,True,,True,1.0,1.0,1.0,1,"Index(['3', '4', '6', '7', '8', '11', '12', '15', '23', '34', '43', '45', '73',
       '79', '80', '85', '89', '113', '114', '115', '117', '121', '122', '130',
       '133', '145', '146', '151', '152', '155', '156', '159', '163', '172',
       '179', '186', '192', '210', '214', '216', '217', '228', '229', '233',
       '234', '236', '238', '241', '247', '251', '252', '254', '265', '268',
       '289', '297'],
      dtype='object')",False,1000,True,10,1.0,1.0,2734f0c682
17,./expes/v3_2021-01-29_di_300-prng-1-w1-p10,daily_issda-300,300,first-300,21,7,rng,num-start-1,1,536,classic,7.013201951980591,False,,True,0.6447402269262993,0.6252090883909414,0.6627873451634121,100,"Index(['7', '15', '27', '53', '58', '81', '94', '111', '127', '128', '131',
       '144', '184', '191', '195', '209', '239', '241', '272', '279', '294'],
      dtype='object')",False,1000,True,10,1.0,1.0,2b706b9c1e
18,./expes/v3_2021-01-29_di_300-prng-1-w1-p10,daily_issda-300,300,first-300,133,44,rng,num-start-11,11,536,classic,1000.4375340938568,False,,False,0.0,,,0,"Index(['2', '7', '9', '11', '14', '16', '17', '18', '20', '23',
       ...
       '273', '277', '280', '286', '289', '292', '294', '297', '298', '300'],
      dtype='object', length=133)",True,1000,True,10,0.0,0.0,2d0a9e3ca7
19,./expes/v3_2021-01-29_di_300-prng-1-w1-p10,daily_issda-300,300,first-300,77,25,rng,num-start-161,161,536,classic,7.1773998737335205,True,,True,1.0,1.0,1.0,1,"Index(['4', '11', '14', '23', '24', '31', '32', '35', '42', '45', '46', '47',
       '52', '53', '55', '75', '80', '83', '85', '89', '92', '95', '100',
       '101', '102', '104', '110', '114', '118', '120', '121', '127', '128',
       '133', '134', '135', '140', '142', '144', '148', '149', '150', '154',
       '156', '157', '159', '160', '165', '166', '173', '176', '183', '185',
       '191', '199', '203', '206', '212', '217', '221', '224', '226', '232',
       '237', '242', '243', '246', '260', '261', '266', '267', '274', '275',
       '281', '282', '286', '294'],
      dtype='object')",False,1000,True,10,1.0,1.0,fc84f574bf
20,./expes/v3_2021-01-29_di_300-prng-1-w1-p10,daily_issda-300,300,first-300,63,21,rng,num-start-61,61,536,classic,1002.1053352355956,False,,False,0.0,,,0,"Index(['4', '11', '14', '23', '24', '31', '35', '42', '45', '46', '47', '53',
       '55', '80', '83', '85', '89', '92', '100', '110', '114', '120', '121',
       '127', '128', '133', '134', '135', '140', '142', '144', '148', '149',
       '150', '154', '156', '157', '159', '160', '173', '176', '185', '191',
       '199', '203', '206', '212', '217', '221', '232', '237', '242', '243',
       '246', '260', '261', '266', '267', '274', '275', '281', '282', '294'],
      dtype='object')",True,1000,True,10,0.0,0.0,c9bee82041
21,./expes/v3_2021-01-29_di_300-prng-1-w1-p10,daily_issda-300,300,first-300,49,16,rng,num-start-1,1,536,classic,12.410835027694702,False,,True,0.4620664107222144,0.4452998037747709,0.4827393998881283,100,"Index(['3', '8', '16', '19', '22', '31', '33', '36', '43', '44', '47', '49',
       '56', '73', '81', '95', '96', '98', '101', '118', '120', '124', '131',
       '143', '148', '149', '151', '156', '162', '168', '203', '206', '209',
       '226', '229', '232', '235', '238', '239', '244', '256', '261', '263',
       '266', '271', '276', '283', '287', '289'],
      dtype='object')",False,1000,True,10,1.0,1.0,915006295e
22,./expes/v3_2021-01-29_di_300-prng-1-w1-p10,daily_issda-300,300,first-300,35,11,rng,num-start-271,271,536,classic,11.105811834335327,True,,True,1.0,1.0,1.0,1,"Index(['21', '32', '38', '49', '51', '52', '72', '76', '105', '112', '129',
       '133', '134', '145', '156', '159', '162', '170', '182', '184', '198',
       '208', '216', '223', '227', '242', '245', '249', '259', '262', '267',
       '273', '283', '287', '299'],
      dtype='object')",False,1000,True,10,1.0,1.0,82c4f0f4fd
23,./expes/v3_2021-01-29_di_300-prng-1-w1-p10,daily_issda-300,300,first-300,77,25,rng,num-start-141,141,536,classic,6.631932735443115,True,,True,1.0,1.0,1.0,1,"Index(['1', '6', '10', '14', '15', '16', '17', '23', '27', '31', '32', '39',
       '43', '45', '47', '58', '59', '70', '74', '75', '84', '88', '92', '99',
       '103', '105', '108', '114', '115', '117', '121', '130', '134', '138',
       '141', '159', '161', '172', '173', '174', '180', '183', '186', '187',
       '189', '191', '192', '196', '197', '198', '199', '206', '208', '215',
       '217', '219', '221', '226', '228', '236', '241', '243', '245', '248',
       '257', '260', '261', '262', '263', '266', '271', '277', '278', '285',
       '286', '294', '296'],
      dtype='object')",False,1000,True,10,1.0,1.0,3dd7fa65d8
24,./expes/v3_2021-01-29_di_300-prng-1-w1-p10,daily_issda-300,300,first-300,140,46,rng,num-start-21,21,536,classic,1000.7770733833312,False,,False,0.0,,,0,"Index(['4', '6', '7', '8', '11', '12', '14', '15', '16', '17',
       ...
       '283', '287', '292', '293', '294', '295', '296', '297', '298', '300'],
      dtype='object', length=140)",True,1000,True,10,0.0,0.0,31442dc3e3
25,./expes/v3_2021-01-29_di_300-prng-1-w1-p10,daily_issda-300,300,first-300,49,16,rng,num-start-61,61,536,classic,1002.1624517440796,False,,False,0.0,,,0,"Index(['13', '15', '19', '29', '44', '47', '70', '82', '83', '85', '87', '89',
       '91', '94', '109', '119', '121', '128', '129', '138', '158', '164',
       '167', '182', '185', '186', '187', '191', '195', '202', '205', '213',
       '217', '221', '228', '229', '237', '239', '251', '258', '261', '262',
       '264', '269', '270', '272', '279', '287', '298'],
      dtype='object')",True,1000,True,10,0.0,0.0,6b52777c2d
26,./expes/v3_2021-01-29_di_300-prng-1-w1-p10,daily_issda-300,300,first-300,77,25,rng,num-start-271,271,536,classic,11.581137895584106,True,,True,1.0,1.0,1.0,1,"Index(['3', '5', '10', '14', '26', '27', '28', '30', '32', '33', '36', '42',
       '49', '57', '60', '64', '67', '71', '72', '73', '78', '88', '90', '99',
       '101', '102', '108', '110', '123', '128', '129', '130', '133', '137',
       '140', '142', '143', '149', '156', '158', '159', '163', '164', '170',
       '171', '172', '173', '179', '182', '185', '188', '191', '192', '197',
       '206', '208', '210', '213', '215', '222', '240', '243', '245', '257',
       '260', '268', '270', '273', '277', '283', '284', '285', '286', '287',
       '293', '295', '297'],
      dtype='object')",False,1000,True,10,1.0,1.0,12384a1e82
27,./expes/v3_2021-01-29_di_300-prng-1-w1-p10,daily_issda-300,300,first-300,7,2,rng,num-start-71,71,536,classic,2.780966520309448,True,,True,1.0,1.0,1.0,1,"Index(['21', '133', '198', '208', '216', '249', '262'], dtype='object')",False,1000,True,10,1.0,1.0,b6051829a5
28,./expes/v3_2021-01-29_di_300-prng-1-w1-p10,daily_issda-300,300,first-300,14,4,rng,num-start-281,281,536,classic,10.722121477127075,True,,True,1.0,1.0,1.0,1,"Index(['23', '56', '62', '76', '103', '134', '149', '178', '202', '211', '262',
       '267', '271', '300'],
      dtype='object')",False,1000,True,10,1.0,1.0,23ba2afd1e
29,./expes/v3_2021-01-29_di_300-prng-1-w1-p10,daily_issda-300,300,first-300,91,30,rng,num-start-281,281,536,classic,12.089994668960571,True,,True,1.0,1.0,1.0,1,"Index(['6', '8', '9', '10', '19', '22', '23', '25', '29', '31', '32', '33',
       '34', '38', '41', '48', '52', '60', '72', '73', '76', '78', '81', '82',
       '85', '89', '92', '101', '106', '107', '115', '118', '119', '121',
       '123', '131', '134', '135', '140', '144', '147', '148', '152', '157',
       '159', '160', '161', '162', '163', '173', '174', '177', '182', '183',
       '185', '189', '193', '199', '200', '201', '203', '206', '208', '215',
       '216', '225', '227', '231', '234', '237', '239', '240', '243', '244',
       '247', '251', '252', '253', '254', '256', '257', '258', '262', '267',
       '272', '274', '279', '285', '290', '292', '296'],
      dtype='object')",False,1000,True,10,1.0,1.0,4098fbfa48
30,./expes/v3_2021-01-29_di_300-prng-1-w1-p10,daily_issda-300,300,first-300,21,7,rng,num-start-41,41,536,classic,4.485131740570068,True,,True,1.0,1.0,1.0,1,"Index(['61', '63', '87', '90', '93', '94', '101', '102', '121', '123', '130',
       '136', '152', '167', '172', '230', '235', '246', '251', '253', '268'],
      dtype='object')",False,1000,True,10,1.0,1.0,64c7292756
31,./expes/v3_2021-01-29_di_300-prng-1-w1-p10,daily_issda-300,300,first-300,84,28,rng,num-start-261,261,536,classic,11.483484029769896,True,,True,1.0,1.0,1.0,1,"Index(['3', '5', '10', '11', '14', '26', '27', '28', '30', '32', '33', '36',
       '39', '42', '49', '57', '60', '64', '67', '71', '72', '73', '78', '88',
       '90', '99', '101', '102', '108', '110', '123', '128', '129', '130',
       '133', '137', '140', '142', '143', '149', '156', '158', '159', '163',
       '164', '170', '171', '172', '173', '179', '182', '185', '188', '191',
       '192', '197', '201', '206', '207', '208', '210', '213', '215', '222',
       '240', '243', '245', '249', '257', '260', '268', '269', '270', '273',
       '277', '283', '284', '285', '286', '287', '289', '293', '295', '297'],
      dtype='object')",False,1000,True,10,1.0,1.0,cf55e7b52d
32,./expes/v3_2021-01-29_di_300-prng-1-w1-p10,daily_issda-300,300,first-300,42,14,rng,num-start-271,271,536,classic,10.494379043579102,True,,True,1.0,1.0,1.0,1,"Index(['2', '5', '12', '14', '15', '16', '33', '49', '52', '53', '61', '69',
       '108', '111', '113', '114', '118', '119', '120', '131', '137', '149',
       '163', '177', '195', '196', '200', '214', '217', '222', '225', '229',
       '231', '236', '242', '250', '254', '271', '278', '284', '285', '292'],
      dtype='object')",False,1000,True,10,1.0,1.0,e6d4db80b1
33,./expes/v3_2021-01-29_di_300-prng-1-w1-p10,daily_issda-300,300,first-300,140,46,rng,num-start-51,51,536,classic,1001.7877802848816,False,,False,0.0,,,0,"Index(['1', '2', '4', '5', '6', '10', '13', '14', '15', '16',
       ...
       '278', '280', '282', '285', '286', '287', '292', '294', '296', '298'],
      dtype='object', length=140)",True,1000,True,10,0.0,0.0,1e787dd8f1
34,./expes/v3_2021-01-29_di_300-prng-1-w1-p10,daily_issda-300,300,first-300,63,21,rng,num-start-141,141,536,classic,6.47188663482666,True,,True,1.0,1.0,1.0,1,"Index(['2', '3', '4', '5', '9', '13', '21', '23', '27', '29', '33', '36', '42',
       '43', '44', '45', '53', '57', '58', '63', '68', '69', '71', '72', '81',
       '87', '96', '99', '102', '103', '104', '105', '108', '115', '122',
       '137', '144', '150', '170', '172', '174', '175', '192', '194', '195',
       '197', '204', '211', '216', '217', '218', '232', '238', '252', '255',
       '257', '258', '260', '276', '277', '284', '294', '297'],
      dtype='object')",False,1000,True,10,1.0,1.0,c6fc862e12
35,./expes/v3_2021-01-29_di_300-prng-1-w1-p10,daily_issda-300,300,first-300,42,14,rng,num-start-61,61,536,classic,1002.2542343139648,False,,False,0.0,,,0,"Index(['20', '24', '25', '26', '30', '31', '32', '36', '38', '45', '47', '49',
       '61', '64', '69', '74', '78', '93', '110', '114', '115', '124', '149',
       '158', '166', '188', '203', '204', '215', '218', '223', '260', '275',
       '277', '283', '286', '287', '290', '293', '296', '299', '300'],
      dtype='object')",True,1000,True,10,0.0,0.0,75390f72e9
36,./expes/v3_2021-01-29_di_300-prng-1-w1-p10,daily_issda-300,300,first-300,77,25,rng,num-start-61,61,536,classic,1002.304414987564,False,,False,0.0,,,0,"Index(['4', '41', '45', '46', '48', '52', '59', '61', '63', '68', '69', '75',
       '76', '78', '83', '87', '90', '93', '94', '98', '101', '102', '103',
       '104', '105', '106', '111', '113', '121', '122', '123', '128', '130',
       '133', '136', '139', '140', '145', '152', '154', '156', '167', '172',
       '174', '176', '178', '181', '188', '198', '202', '205', '208', '209',
       '224', '230', '235', '241', '245', '246', '251', '252', '253', '254',
       '257', '260', '263', '268', '270', '273', '274', '276', '279', '283',
       '291', '294', '295', '297'],
      dtype='object')",True,1000,True,10,0.0,0.0,6e61a1adcf
37,./expes/v3_2021-01-29_di_300-prng-1-w1-p10,daily_issda-300,300,first-300,140,46,rng,num-start-231,231,536,classic,10.454926252365112,True,,True,1.0,1.0,1.0,1,"Index(['3', '4', '5', '6', '7', '8', '11', '12', '15', '16',
       ...
       '270', '273', '274', '277', '278', '284', '289', '294', '297', '299'],
      dtype='object', length=140)",False,1000,True,10,1.0,1.0,437d7ec5b7
38,./expes/v3_2021-01-29_di_300-prng-1-w1-p10,daily_issda-300,300,first-300,119,39,rng,num-start-111,111,536,classic,60.625343561172485,True,,True,1.0,1.0,1.0,1,"Index(['3', '5', '10', '11', '14', '15', '26', '27', '28', '30',
       ...
       '284', '285', '286', '287', '289', '291', '293', '295', '296', '297'],
      dtype='object', length=119)",False,1000,True,10,1.0,1.0,39c3b854f5
39,./expes/v3_2021-01-29_di_300-prng-1-w1-p10,daily_issda-300,300,first-300,77,25,rng,num-start-211,211,536,classic,9.180099964141846,True,,True,1.0,1.0,1.0,1,"Index(['2', '8', '16', '20', '22', '23', '37', '38', '44', '61', '65', '67',
       '68', '70', '71', '72', '73', '76', '82', '91', '92', '96', '100',
       '104', '109', '110', '116', '119', '120', '121', '122', '129', '130',
       '132', '133', '135', '142', '144', '149', '151', '161', '178', '180',
       '183', '184', '187', '188', '191', '192', '200', '203', '212', '218',
       '220', '221', '224', '226', '228', '230', '231', '236', '238', '250',
       '252', '255', '267', '268', '273', '275', '282', '284', '289', '290',
       '292', '296', '298', '299'],
      dtype='object')",False,1000,True,10,1.0,1.0,93e44f16b0
40,./expes/v3_2021-01-29_di_300-prng-1-w1-p10,daily_issda-300,300,first-300,49,16,rng,num-start-11,11,536,classic,1000.440080165863,False,,False,0.0,,,0,"Index(['3', '8', '17', '18', '23', '34', '39', '69', '72', '81', '83', '90',
       '100', '106', '121', '123', '128', '135', '143', '146', '156', '161',
       '167', '168', '182', '185', '186', '188', '193', '196', '216', '220',
       '224', '226', '231', '234', '237', '241', '248', '251', '252', '257',
       '267', '275', '282', '293', '296', '299', '300'],
      dtype='object')",True,1000,True,10,0.0,0.0,c1d8bd1aa8
41,./expes/v3_2021-01-29_di_300-prng-1-w1-p10,daily_issda-300,300,first-300,105,35,rng,num-start-81,81,536,classic,1002.9042418003082,False,,False,0.0,,,0,"Index(['1', '3', '5', '11', '13', '15', '17', '19', '21', '23',
       ...
       '269', '270', '272', '279', '286', '287', '288', '291', '295', '298'],
      dtype='object', length=105)",True,1000,True,10,0.0,0.0,217e82d107
42,./expes/v3_2021-01-29_di_300-prng-1-w1-p10,daily_issda-300,300,first-300,105,35,rng,num-start-111,111,536,classic,17.995802640914917,True,,True,1.0,1.0,1.0,1,"Index(['12', '20', '21', '24', '25', '26', '30', '31', '32', '33',
       ...
       '289', '290', '293', '294', '295', '296', '297', '298', '299', '300'],
      dtype='object', length=105)",False,1000,True,10,1.0,1.0,0c839964ea
43,./expes/v3_2021-01-29_di_300-prng-1-w1-p10,daily_issda-300,300,first-300,63,21,rng,num-start-211,211,536,classic,9.12173628807068,True,,True,1.0,1.0,1.0,1,"Index(['2', '3', '4', '5', '9', '13', '21', '23', '27', '29', '33', '36', '42',
       '43', '44', '45', '53', '57', '58', '63', '68', '69', '71', '72', '81',
       '87', '96', '99', '102', '103', '104', '105', '108', '115', '122',
       '137', '144', '150', '170', '172', '174', '175', '192', '194', '195',
       '197', '204', '211', '216', '217', '218', '232', '238', '252', '255',
       '257', '258', '260', '276', '277', '284', '294', '297'],
      dtype='object')",False,1000,True,10,1.0,1.0,4717fd765f
44,./expes/v3_2021-01-29_di_300-prng-1-w1-p10,daily_issda-300,300,first-300,70,23,rng,num-start-11,11,536,classic,1000.4481000900269,False,,False,0.0,,,0,"Index(['3', '10', '14', '26', '27', '30', '32', '33', '36', '42', '49', '57',
       '60', '64', '67', '71', '72', '73', '78', '88', '90', '99', '101',
       '108', '110', '123', '128', '129', '130', '137', '142', '143', '149',
       '156', '158', '159', '163', '164', '170', '171', '173', '179', '182',
       '185', '188', '191', '192', '197', '206', '208', '210', '213', '215',
       '222', '243', '245', '257', '260', '268', '270', '273', '277', '283',
       '284', '285', '286', '287', '293', '295', '297'],
      dtype='object')",True,1000,True,10,0.0,0.0,5fe3ff805d
45,./expes/v3_2021-01-29_di_300-prng-1-w1-p10,daily_issda-300,300,first-300,126,42,rng,num-start-51,51,536,classic,1001.8708922863008,False,,False,0.0,,,0,"Index(['1', '3', '5', '11', '13', '15', '16', '17', '19', '21',
       ...
       '272', '279', '283', '286', '287', '288', '291', '295', '298', '300'],
      dtype='object', length=126)",True,1000,True,10,0.0,0.0,accb56bc3f
46,./expes/v3_2021-01-29_di_300-prng-1-w1-p10,daily_issda-300,300,first-300,105,35,rng,num-start-251,251,536,classic,10.89484190940857,True,,True,1.0,1.0,1.0,1,"Index(['1', '2', '3', '5', '7', '10', '12', '15', '17', '19',
       ...
       '263', '269', '272', '274', '277', '279', '280', '282', '294', '297'],
      dtype='object', length=105)",False,1000,True,10,1.0,1.0,4e8b19e310
47,./expes/v3_2021-01-29_di_300-prng-1-w1-p10,daily_issda-300,300,first-300,91,30,rng,num-start-1,1,536,classic,13.271211624145508,False,,True,0.3388084795514367,0.3157285445459792,0.3664877328400495,100,"Index(['4', '10', '11', '14', '22', '23', '24', '31', '32', '35', '42', '43',
       '45', '46', '47', '52', '53', '55', '63', '75', '79', '80', '83', '85',
       '89', '91', '92', '95', '100', '101', '102', '104', '110', '114', '118',
       '120', '121', '122', '127', '128', '133', '134', '135', '140', '142',
       '143', '144', '147', '148', '149', '150', '154', '156', '157', '159',
       '160', '165', '166', '168', '170', '173', '176', '183', '185', '191',
       '199', '203', '206', '211', '212', '217', '221', '224', '226', '232',
       '236', '237', '242', '243', '246', '260', '261', '266', '267', '274',
       '275', '281', '282', '286', '294', '299'],
      dtype='object')",False,1000,True,10,1.0,1.0,625942f3f3
48,./expes/v3_2021-01-29_di_300-prng-1-w1-p10,daily_issda-300,300,first-300,119,39,rng,num-start-11,11,536,classic,1000.6481704711914,False,,False,0.0,,,0,"Index(['1', '6', '10', '11', '13', '15', '17', '18', '22', '35',
       ...
       '274', '280', '283', '284', '287', '288', '292', '293', '297', '299'],
      dtype='object', length=119)",True,1000,True,10,0.0,0.0,cca0f6831f
49,./expes/v3_2021-01-29_di_300-prng-1-w1-p10,daily_issda-300,300,first-300,35,11,rng,num-start-241,241,536,classic,10.928611516952516,True,,True,1.0,1.0,1.0,1,"Index(['6', '9', '19', '29', '41', '60', '76', '81', '106', '107', '115',
       '118', '119', '123', '135', '144', '157', '161', '174', '177', '182',
       '183', '185', '189', '201', '215', '216', '234', '237', '239', '251',
       '262', '267', '290', '296'],
      dtype='object')",False,1000,True,10,1.0,1.0,01468d958a
50,./expes/v3_2021-01-29_di_300-prng-1-w1-p10,daily_issda-300,300,first-300,63,21,rng,num-start-91,91,536,classic,14.23613739013672,True,,True,1.0,1.0,1.0,1,"Index(['1', '8', '21', '32', '33', '38', '42', '47', '48', '49', '51', '52',
       '56', '64', '72', '73', '76', '98', '105', '112', '114', '123', '125',
       '129', '133', '134', '145', '148', '150', '155', '156', '159', '162',
       '164', '167', '170', '171', '182', '184', '198', '205', '208', '216',
       '223', '227', '230', '242', '245', '249', '251', '253', '259', '261',
       '262', '267', '273', '277', '279', '281', '283', '287', '291', '299'],
      dtype='object')",False,1000,True,10,1.0,1.0,9b639e5d0d
51,./expes/v3_2021-01-29_di_300-prng-1-w1-p10,daily_issda-300,300,first-300,14,4,rng,num-start-181,181,536,classic,7.0783164501190186,True,,True,1.0,1.0,1.0,1,"Index(['6', '9', '19', '29', '60', '76', '81', '107', '123', '174', '183',
       '189', '239', '267'],
      dtype='object')",False,1000,True,10,1.0,1.0,c20e560d00
52,./expes/v3_2021-01-29_di_300-prng-1-w1-p10,daily_issda-300,300,first-300,70,23,rng,num-start-271,271,536,classic,12.040234804153442,True,,True,1.0,1.0,1.0,1,"Index(['3', '8', '17', '18', '19', '23', '34', '37', '39', '42', '50', '58',
       '69', '72', '77', '81', '83', '86', '90', '98', '100', '106', '115',
       '121', '123', '128', '135', '143', '146', '155', '156', '161', '167',
       '168', '179', '182', '185', '186', '188', '192', '193', '196', '197',
       '212', '213', '216', '220', '222', '224', '226', '227', '229', '231',
       '234', '237', '241', '248', '251', '252', '255', '257', '267', '274',
       '275', '282', '291', '293', '296', '299', '300'],
      dtype='object')",False,1000,True,10,1.0,1.0,37719491a5
53,./expes/v3_2021-01-29_di_300-prng-1-w1-p10,daily_issda-300,300,first-300,105,35,rng,num-start-281,281,536,classic,12.642095804214478,True,,True,1.0,1.0,1.0,1,"Index(['1', '3', '5', '11', '13', '15', '17', '19', '21', '23',
       ...
       '269', '270', '272', '279', '286', '287', '288', '291', '295', '298'],
      dtype='object', length=105)",False,1000,True,10,1.0,1.0,7734373d4e
54,./expes/v3_2021-01-29_di_300-prng-1-w1-p10,daily_issda-300,300,first-300,21,7,rng,num-start-21,21,536,classic,1001.9754285812378,False,,False,0.0,,,0,"Index(['7', '34', '67', '78', '99', '119', '120', '122', '133', '190', '200',
       '204', '241', '243', '244', '268', '277', '279', '282', '283', '298'],
      dtype='object')",True,1000,True,10,0.0,0.0,0e0290139f
55,./expes/v3_2021-01-29_di_300-prng-1-w1-p10,daily_issda-300,300,first-300,63,21,rng,num-start-151,151,536,classic,7.370437622070312,True,,True,1.0,1.0,1.0,1,"Index(['7', '8', '15', '16', '19', '22', '33', '34', '50', '54', '64', '67',
       '69', '70', '78', '82', '84', '99', '109', '112', '119', '120', '122',
       '133', '137', '138', '144', '146', '155', '168', '173', '180', '188',
       '190', '198', '199', '200', '203', '204', '209', '216', '219', '224',
       '228', '241', '243', '244', '247', '254', '260', '268', '274', '277',
       '278', '279', '282', '283', '292', '293', '294', '296', '298', '300'],
      dtype='object')",False,1000,True,10,1.0,1.0,27827a1f87
56,./expes/v3_2021-01-29_di_300-prng-1-w1-p10,daily_issda-300,300,first-300,70,23,rng,num-start-171,171,536,classic,8.17860722541809,True,,True,1.0,1.0,1.0,1,"Index(['20', '24', '25', '26', '30', '31', '32', '33', '36', '38', '42', '45',
       '47', '49', '50', '53', '61', '64', '69', '74', '78', '85', '93', '97',
       '106', '110', '114', '115', '124', '125', '128', '148', '149', '154',
       '158', '161', '166', '176', '186', '188', '191', '203', '204', '215',
       '218', '219', '223', '230', '233', '239', '254', '255', '260', '263',
       '269', '273', '275', '277', '281', '283', '286', '287', '289', '290',
       '293', '295', '296', '298', '299', '300'],
      dtype='object')",False,1000,True,10,1.0,1.0,06da4a00b7
57,./expes/v3_2021-01-29_di_300-prng-1-w1-p10,daily_issda-300,300,first-300,35,11,rng,num-start-291,291,536,classic,11.505543231964111,True,,True,1.0,1.0,1.0,1,"Index(['4', '21', '23', '27', '33', '42', '45', '53', '57', '68', '71', '81',
       '87', '96', '105', '108', '115', '122', '137', '144', '150', '172',
       '174', '175', '192', '195', '197', '204', '216', '217', '232', '238',
       '258', '260', '284'],
      dtype='object')",False,1000,True,10,1.0,1.0,ed9c98b628
58,./expes/v3_2021-01-29_di_300-prng-1-w1-p10,daily_issda-300,300,first-300,7,2,rng,num-start-21,21,536,classic,1.5208899974822998,True,,True,1.0,1.0,1.0,1,"Index(['47', '53', '80', '121', '156', '203', '246'], dtype='object')",False,1000,True,10,1.0,1.0,1aee6a4d58
59,./expes/v3_2021-01-29_di_300-prng-1-w1-p10,daily_issda-300,300,first-300,77,25,rng,num-start-31,31,536,classic,1001.158749103546,False,,False,0.0,,,0,"Index(['1', '8', '17', '21', '32', '33', '36', '38', '42', '46', '47', '48',
       '49', '51', '52', '56', '64', '67', '72', '73', '76', '77', '95', '96',
       '97', '98', '105', '112', '114', '123', '124', '125', '129', '133',
       '134', '145', '148', '149', '150', '155', '156', '159', '162', '163',
       '164', '167', '170', '171', '182', '184', '198', '205', '208', '216',
       '223', '227', '228', '230', '242', '244', '245', '249', '251', '253',
       '259', '261', '262', '267', '273', '277', '279', '281', '283', '287',
       '291', '295', '299'],
      dtype='object')",True,1000,True,10,0.0,0.0,1d79d90041
60,./expes/v3_2021-01-29_di_300-prng-1-w1-p10,daily_issda-300,300,first-300,42,14,rng,num-start-211,211,536,classic,9.028053283691406,True,,True,1.0,1.0,1.0,1,"Index(['1', '6', '10', '27', '31', '32', '39', '45', '47', '58', '70', '74',
       '75', '84', '88', '103', '108', '115', '117', '138', '141', '161',
       '173', '174', '180', '189', '192', '196', '208', '217', '226', '228',
       '236', '243', '248', '261', '263', '271', '277', '285', '286', '296'],
      dtype='object')",False,1000,True,10,1.0,1.0,c232384f73
61,./expes/v3_2021-01-29_di_300-prng-1-w1-p10,daily_issda-300,300,first-300,63,21,rng,num-start-191,191,536,classic,9.180468320846558,True,,True,1.0,1.0,1.0,1,"Index(['1', '6', '10', '16', '27', '31', '32', '39', '43', '45', '47', '58',
       '59', '70', '74', '75', '84', '88', '99', '103', '108', '115', '117',
       '121', '130', '134', '138', '141', '159', '161', '172', '173', '174',
       '180', '183', '186', '187', '189', '191', '192', '196', '197', '198',
       '206', '208', '215', '217', '226', '228', '236', '241', '243', '245',
       '248', '260', '261', '263', '271', '277', '278', '285', '286', '296'],
      dtype='object')",False,1000,True,10,1.0,1.0,d0f07f689e
62,./expes/v3_2021-01-29_di_300-prng-1-w1-p10,daily_issda-300,300,first-300,70,23,rng,num-start-211,211,536,classic,9.195061206817629,True,,True,1.0,1.0,1.0,1,"Index(['2', '5', '12', '14', '15', '16', '18', '33', '45', '49', '52', '53',
       '56', '61', '62', '69', '84', '89', '96', '98', '108', '111', '113',
       '114', '118', '119', '120', '125', '131', '137', '146', '149', '152',
       '156', '163', '171', '177', '188', '190', '192', '195', '196', '200',
       '202', '207', '213', '214', '217', '222', '225', '229', '231', '236',
       '242', '246', '250', '251', '254', '256', '257', '259', '260', '261',
       '267', '271', '278', '281', '284', '285', '292'],
      dtype='object')",False,1000,True,10,1.0,1.0,523851f154
63,./expes/v3_2021-01-29_di_300-prng-1-w1-p10,daily_issda-300,300,first-300,14,4,rng,num-start-241,241,536,classic,9.93122911453247,True,,True,1.0,1.0,1.0,1,"Index(['47', '49', '73', '95', '96', '98', '156', '229', '232', '239', '244',
       '261', '263', '287'],
      dtype='object')",False,1000,True,10,1.0,1.0,f8de8d812e
64,./expes/v3_2021-01-29_di_300-prng-1-w1-p10,daily_issda-300,300,first-300,49,16,rng,num-start-141,141,536,classic,6.771152496337891,True,,True,1.0,1.0,1.0,1,"Index(['1', '12', '15', '19', '24', '42', '46', '48', '49', '50', '62', '75',
       '99', '100', '101', '102', '103', '126', '129', '134', '136', '140',
       '150', '156', '164', '172', '183', '185', '186', '192', '210', '212',
       '218', '221', '228', '241', '249', '250', '251', '257', '258', '264',
       '269', '276', '277', '284', '289', '294', '295'],
      dtype='object')",False,1000,True,10,1.0,1.0,d21329cf5a
65,./expes/v3_2021-01-29_di_300-prng-1-w1-p10,daily_issda-300,300,first-300,77,25,rng,num-start-11,11,536,classic,1000.4151484966278,False,,False,0.0,,,0,"Index(['1', '7', '9', '12', '15', '19', '24', '28', '40', '42', '46', '48',
       '49', '50', '60', '62', '65', '71', '75', '87', '95', '97', '99', '100',
       '101', '102', '103', '108', '115', '126', '129', '134', '136', '138',
       '140', '149', '150', '156', '157', '160', '164', '171', '172', '183',
       '185', '186', '192', '194', '195', '200', '204', '210', '212', '217',
       '218', '221', '226', '228', '229', '241', '248', '249', '250', '251',
       '257', '258', '264', '268', '269', '271', '276', '277', '284', '286',
       '289', '294', '295'],
      dtype='object')",True,1000,True,10,0.0,0.0,6e0cd14851
66,./expes/v3_2021-01-29_di_300-prng-1-w1-p10,daily_issda-300,300,first-300,28,9,rng,num-start-221,221,536,classic,8.839682340621948,True,,True,1.0,1.0,1.0,1,"Index(['6', '36', '38', '55', '61', '63', '77', '83', '85', '115', '127',
       '131', '134', '135', '139', '141', '150', '156', '162', '184', '185',
       '202', '204', '231', '239', '265', '270', '283'],
      dtype='object')",False,1000,True,10,1.0,1.0,8b1a219022
67,./expes/v3_2021-01-29_di_300-prng-1-w1-p10,daily_issda-300,300,first-300,105,35,rng,num-start-51,51,536,classic,1001.9235227108002,False,,False,0.0,,,0,"Index(['1', '4', '5', '6', '10', '14', '15', '16', '17', '19',
       ...
       '264', '266', '271', '277', '278', '282', '285', '286', '294', '296'],
      dtype='object', length=105)",True,1000,True,10,0.0,0.0,0e303495e0
68,./expes/v3_2021-01-29_di_300-prng-1-w1-p10,daily_issda-300,300,first-300,70,23,rng,num-start-101,101,536,classic,9.120546102523804,True,,True,1.0,1.0,1.0,1,"Index(['2', '3', '4', '5', '9', '13', '21', '22', '23', '27', '28', '29', '33',
       '36', '42', '43', '44', '45', '48', '53', '57', '58', '63', '68', '69',
       '71', '72', '75', '81', '87', '89', '96', '99', '102', '103', '104',
       '105', '108', '115', '122', '137', '139', '144', '150', '170', '172',
       '174', '175', '192', '194', '195', '197', '204', '211', '216', '217',
       '218', '232', '238', '252', '255', '257', '258', '260', '276', '277',
       '284', '285', '294', '297'],
      dtype='object')",False,1000,True,10,1.0,1.0,4e3e0b78fe
69,./expes/v3_2021-01-29_di_300-prng-1-w1-p10,daily_issda-300,300,first-300,119,39,rng,num-start-101,101,536,classic,22.782684803009037,True,,True,1.0,1.0,1.0,1,"Index(['1', '4', '7', '8', '9', '10', '12', '15', '16', '19',
       ...
       '271', '276', '277', '284', '286', '287', '289', '292', '294', '295'],
      dtype='object', length=119)",False,1000,True,10,1.0,1.0,16ed5ebe59
70,./expes/v3_2021-01-29_di_300-prng-1-w1-p10,daily_issda-300,300,first-300,35,11,rng,num-start-181,181,536,classic,7.42435359954834,True,,True,1.0,1.0,1.0,1,"Index(['20', '24', '25', '26', '30', '31', '32', '36', '38', '45', '47', '49',
       '64', '69', '78', '110', '114', '115', '124', '149', '166', '188',
       '203', '204', '215', '218', '223', '260', '275', '283', '286', '290',
       '296', '299', '300'],
      dtype='object')",False,1000,True,10,1.0,1.0,519c14068e
71,./expes/v3_2021-01-29_di_300-prng-1-w1-p10,daily_issda-300,300,first-300,126,42,rng,num-start-231,231,536,classic,10.091994285583496,True,,True,1.0,1.0,1.0,1,"Index(['1', '2', '3', '4', '5', '7', '8', '9', '10', '13',
       ...
       '276', '277', '284', '285', '287', '290', '294', '295', '297', '300'],
      dtype='object', length=126)",False,1000,True,10,1.0,1.0,71b273a4da
72,./expes/v3_2021-01-29_di_300-prng-1-w1-p10,daily_issda-300,300,first-300,56,18,rng,num-start-81,81,536,classic,6.721020936965942,True,,True,1.0,1.0,1.0,1,"Index(['2', '3', '4', '5', '9', '13', '21', '23', '27', '29', '33', '42', '43',
       '45', '53', '57', '58', '63', '68', '69', '71', '72', '81', '87', '96',
       '102', '103', '104', '105', '108', '115', '122', '137', '144', '150',
       '170', '172', '174', '175', '192', '194', '195', '197', '204', '211',
       '216', '217', '218', '232', '238', '252', '258', '260', '277', '284',
       '297'],
      dtype='object')",False,1000,True,10,1.0,1.0,662ebfd7ed
73,./expes/v3_2021-01-29_di_300-prng-1-w1-p10,daily_issda-300,300,first-300,98,32,rng,num-start-111,111,536,classic,15.916084051132202,True,,True,1.0,1.0,1.0,1,"Index(['1', '6', '10', '11', '13', '15', '18', '22', '35', '36', '38', '43',
       '46', '48', '49', '51', '53', '55', '58', '59', '61', '63', '74', '77',
       '83', '85', '87', '93', '97', '99', '100', '105', '112', '115', '121',
       '127', '131', '132', '134', '135', '137', '139', '141', '143', '144',
       '145', '150', '155', '156', '159', '160', '162', '173', '178', '183',
       '184', '185', '187', '189', '196', '198', '199', '202', '204', '207',
       '208', '211', '214', '217', '218', '224', '225', '226', '231', '232',
       '234', '236', '239', '241', '242', '243', '246', '249', '250', '251',
       '257', '260', '264', '265', '270', '272', '274', '283', '287', '292',
       '293', '297', '299'],
      dtype='object')",False,1000,True,10,1.0,1.0,ccecaa0123
74,./expes/v3_2021-01-29_di_300-prng-1-w1-p10,daily_issda-300,300,first-300,126,42,rng,num-start-61,61,536,classic,1002.2477722167968,False,,False,0.0,,,0,"Index(['4', '6', '7', '8', '11', '12', '14', '15', '16', '17',
       ...
       '282', '283', '287', '292', '293', '294', '296', '297', '298', '300'],
      dtype='object', length=126)",True,1000,True,10,0.0,0.0,57224c098f
75,./expes/v3_2021-01-29_di_300-prng-1-w1-p10,daily_issda-300,300,first-300,126,42,rng,num-start-201,201,536,classic,9.256181001663208,True,,True,1.0,1.0,1.0,1,"Index(['1', '4', '5', '6', '10', '13', '14', '15', '16', '17',
       ...
       '270', '271', '277', '278', '280', '282', '285', '286', '294', '296'],
      dtype='object', length=126)",False,1000,True,10,1.0,1.0,5f719fb76c
76,./expes/v3_2021-01-29_di_300-prng-1-w1-p10,daily_issda-300,300,first-300,133,44,rng,num-start-1,1,536,classic,10.490798473358154,False,,True,0.2841273514643672,0.2639252619014224,0.3060220816405117,100,"Index(['3', '4', '5', '6', '7', '8', '11', '12', '15', '16',
       ...
       '268', '270', '274', '277', '278', '284', '289', '294', '297', '299'],
      dtype='object', length=133)",False,1000,True,10,1.0,1.0,3fb1d928fa
77,./expes/v3_2021-01-29_di_300-prng-1-w1-p10,daily_issda-300,300,first-300,91,30,rng,num-start-71,71,536,classic,1002.6365983486176,False,,False,0.0,,,0,"Index(['1', '7', '9', '10', '12', '15', '19', '24', '28', '40', '42', '44',
       '46', '48', '49', '50', '60', '62', '64', '65', '71', '75', '87', '89',
       '95', '97', '99', '100', '101', '102', '103', '108', '115', '126',
       '129', '131', '132', '134', '136', '137', '138', '140', '149', '150',
       '156', '157', '160', '164', '169', '171', '172', '183', '185', '186',
       '192', '194', '195', '200', '204', '210', '211', '212', '216', '217',
       '218', '219', '221', '226', '228', '229', '232', '241', '242', '248',
       '249', '250', '251', '257', '258', '264', '265', '268', '269', '271',
       '276', '277', '284', '286', '289', '294', '295'],
      dtype='object')",True,1000,True,10,0.0,0.0,b71008d86f
78,./expes/v3_2021-01-29_di_300-prng-1-w1-p10,daily_issda-300,300,first-300,133,44,rng,num-start-71,71,536,classic,1002.49014210701,False,,False,0.0,,,0,"Index(['3', '4', '5', '6', '7', '8', '11', '12', '15', '16',
       ...
       '268', '270', '274', '277', '278', '284', '289', '294', '297', '299'],
      dtype='object', length=133)",True,1000,True,10,0.0,0.0,985b4c8fa8
79,./expes/v3_2021-01-29_di_300-prng-1-w1-p10,daily_issda-300,300,first-300,70,23,rng,num-start-191,191,536,classic,8.315784454345703,True,,True,1.0,1.0,1.0,1,"Index(['1', '7', '9', '12', '15', '19', '24', '42', '46', '48', '49', '50',
       '60', '62', '65', '71', '75', '87', '97', '99', '100', '101', '102',
       '103', '108', '115', '126', '129', '134', '136', '138', '140', '149',
       '150', '156', '157', '160', '164', '171', '172', '183', '185', '186',
       '192', '194', '195', '200', '210', '212', '218', '221', '228', '241',
       '248', '249', '250', '251', '257', '258', '264', '268', '269', '271',
       '276', '277', '284', '286', '289', '294', '295'],
      dtype='object')",False,1000,True,10,1.0,1.0,ea94a4bd07
80,./expes/v3_2021-01-29_di_300-prng-1-w1-p10,daily_issda-300,300,first-300,126,42,rng,num-start-251,251,536,classic,12.298341751098633,True,,True,1.0,1.0,1.0,1,"Index(['1', '2', '3', '5', '7', '10', '12', '15', '17', '19',
       ...
       '272', '273', '274', '277', '279', '280', '282', '289', '294', '297'],
      dtype='object', length=126)",False,1000,True,10,1.0,1.0,a53df0bfc9
81,./expes/v3_2021-01-29_di_300-prng-1-w1-p10,daily_issda-300,300,first-300,98,32,rng,num-start-231,231,536,classic,9.92350697517395,True,,True,1.0,1.0,1.0,1,"Index(['1', '2', '3', '5', '7', '10', '12', '15', '19', '24', '27', '30', '34',
       '37', '41', '47', '48', '53', '56', '58', '61', '65', '68', '72', '75',
       '76', '77', '81', '82', '83', '85', '86', '91', '93', '94', '95', '101',
       '102', '105', '107', '108', '111', '126', '127', '128', '129', '131',
       '132', '136', '142', '144', '149', '152', '153', '155', '157', '159',
       '160', '161', '162', '163', '170', '174', '175', '177', '182', '184',
       '185', '186', '188', '189', '191', '193', '195', '197', '200', '207',
       '209', '213', '215', '222', '228', '232', '237', '239', '241', '242',
       '247', '248', '263', '269', '272', '277', '279', '280', '282', '294',
       '297'],
      dtype='object')",False,1000,True,10,1.0,1.0,7334138c9a
82,./expes/v3_2021-01-29_di_300-prng-1-w1-p10,daily_issda-300,300,first-300,84,28,rng,num-start-201,201,536,classic,8.80489993095398,True,,True,1.0,1.0,1.0,1,"Index(['3', '4', '5', '6', '7', '8', '11', '12', '15', '17', '23', '24', '25',
       '34', '37', '41', '43', '45', '48', '52', '59', '63', '73', '74', '79',
       '80', '85', '89', '92', '113', '114', '115', '117', '119', '121', '122',
       '123', '125', '130', '131', '133', '145', '146', '151', '152', '155',
       '156', '159', '163', '164', '172', '179', '186', '190', '192', '202',
       '205', '208', '210', '214', '216', '217', '228', '229', '233', '234',
       '236', '238', '241', '244', '245', '247', '251', '252', '254', '256',
       '262', '265', '268', '277', '278', '289', '297', '299'],
      dtype='object')",False,1000,True,10,1.0,1.0,d055d50223
83,./expes/v3_2021-01-29_di_300-prng-1-w1-p10,daily_issda-300,300,first-300,140,46,rng,num-start-81,81,536,classic,1002.7494049072266,False,,False,0.0,,,0,"Index(['1', '2', '3', '5', '7', '10', '12', '15', '17', '18',
       ...
       '274', '277', '279', '280', '281', '282', '287', '289', '294', '297'],
      dtype='object', length=140)",True,1000,True,10,0.0,0.0,aaf698c0b0
84,./expes/v3_2021-01-29_di_300-prng-1-w1-p10,daily_issda-300,300,first-300,119,39,rng,num-start-91,91,536,classic,1003.0817220211028,False,,False,0.0,,,0,"Index(['2', '5', '6', '8', '9', '10', '16', '19', '22', '23',
       ...
       '266', '267', '272', '274', '279', '281', '285', '290', '292', '296'],
      dtype='object', length=119)",True,1000,True,10,0.0,0.0,b782c0f5af
85,./expes/v3_2021-01-29_di_300-prng-1-w1-p10,daily_issda-300,300,first-300,42,14,rng,num-start-181,181,536,classic,8.336538314819336,True,,True,1.0,1.0,1.0,1,"Index(['4', '59', '61', '63', '87', '90', '93', '94', '101', '102', '103',
       '104', '111', '113', '121', '122', '123', '130', '136', '139', '140',
       '152', '154', '156', '167', '172', '176', '178', '188', '208', '230',
       '235', '246', '251', '253', '260', '268', '270', '276', '283', '294',
       '295'],
      dtype='object')",False,1000,True,10,1.0,1.0,0f5df4f364
86,./expes/v3_2021-01-29_di_300-prng-1-w1-p10,daily_issda-300,300,first-300,7,2,rng,num-start-211,211,536,classic,7.9324951171875,True,,True,1.0,1.0,1.0,1,"Index(['33', '61', '69', '131', '231', '254', '292'], dtype='object')",False,1000,True,10,1.0,1.0,9de1c88c5c
87,./expes/v3_2021-01-29_di_300-prng-1-w1-p10,daily_issda-300,300,first-300,7,2,rng,num-start-71,71,536,classic,2.834805965423584,True,,True,1.0,1.0,1.0,1,"Index(['63', '93', '102', '123', '172', '230', '251'], dtype='object')",False,1000,True,10,1.0,1.0,5d930eabca
88,./expes/v3_2021-01-29_di_300-prng-1-w1-p10,daily_issda-300,300,first-300,77,25,rng,num-start-181,181,536,classic,8.317171812057495,True,,True,1.0,1.0,1.0,1,"Index(['7', '8', '11', '15', '16', '19', '22', '23', '24', '33', '34', '35',
       '46', '50', '54', '61', '64', '67', '69', '70', '78', '82', '84', '99',
       '109', '112', '119', '120', '122', '133', '137', '138', '143', '144',
       '146', '151', '155', '168', '170', '173', '177', '180', '188', '190',
       '194', '198', '199', '200', '203', '204', '209', '211', '213', '216',
       '219', '224', '228', '241', '243', '244', '247', '248', '254', '260',
       '268', '274', '277', '278', '279', '282', '283', '292', '293', '294',
       '296', '298', '300'],
      dtype='object')",False,1000,True,10,1.0,1.0,10195da895
89,./expes/v3_2021-01-29_di_300-prng-1-w1-p10,daily_issda-300,300,first-300,112,37,rng,num-start-51,51,536,classic,1001.9353713989258,False,,False,0.0,,,0,"Index(['1', '3', '5', '6', '8', '9', '11', '16', '19', '22',
       ...
       '271', '276', '283', '284', '287', '289', '290', '295', '296', '299'],
      dtype='object', length=112)",True,1000,True,10,0.0,0.0,4aed690172
90,./expes/v3_2021-01-29_di_300-prng-1-w1-p10,daily_issda-300,300,first-300,133,44,rng,num-start-291,291,536,classic,13.411150932312012,True,,True,1.0,1.0,1.0,1,"Index(['1', '3', '5', '10', '11', '13', '15', '16', '17', '18',
       ...
       '272', '279', '283', '286', '287', '288', '291', '295', '298', '300'],
      dtype='object', length=133)",False,1000,True,10,1.0,1.0,decff38789
91,./expes/v3_2021-01-29_di_300-prng-1-w1-p10,daily_issda-300,300,first-300,126,42,rng,num-start-101,101,536,classic,1003.778038740158,False,,False,0.0,,,0,"Index(['1', '4', '5', '6', '10', '13', '14', '15', '16', '17',
       ...
       '270', '271', '277', '278', '280', '282', '285', '286', '294', '296'],
      dtype='object', length=126)",True,1000,True,10,0.0,0.0,6942338374
92,./expes/v3_2021-01-29_di_300-prng-1-w1-p10,daily_issda-300,300,first-300,28,9,rng,num-start-241,241,536,classic,9.639976739883425,True,,True,1.0,1.0,1.0,1,"Index(['1', '12', '19', '42', '46', '48', '49', '75', '99', '102', '134',
       '136', '140', '164', '172', '186', '192', '210', '212', '218', '241',
       '249', '251', '276', '277', '284', '289', '294'],
      dtype='object')",False,1000,True,10,1.0,1.0,319bc56c52
93,./expes/v3_2021-01-29_di_300-prng-1-w1-p10,daily_issda-300,300,first-300,28,9,rng,num-start-261,261,536,classic,10.62842082977295,True,,True,1.0,1.0,1.0,1,"Index(['4', '21', '27', '33', '42', '53', '57', '68', '71', '81', '87', '96',
       '105', '115', '122', '137', '150', '172', '174', '192', '195', '197',
       '217', '232', '238', '258', '260', '284'],
      dtype='object')",False,1000,True,10,1.0,1.0,35787e99cc
94,./expes/v3_2021-01-29_di_300-prng-1-w1-p10,daily_issda-300,300,first-300,56,18,rng,num-start-71,71,536,classic,1002.5832273960114,False,,False,0.0,,,0,"Index(['1', '8', '21', '32', '33', '38', '42', '47', '48', '49', '51', '52',
       '72', '73', '76', '98', '105', '112', '114', '123', '125', '129', '133',
       '134', '145', '156', '159', '162', '164', '167', '170', '171', '182',
       '184', '198', '205', '208', '216', '223', '227', '230', '242', '245',
       '249', '253', '259', '261', '262', '267', '273', '279', '281', '283',
       '287', '291', '299'],
      dtype='object')",True,1000,True,10,0.0,0.0,a2594d3ede
95,./expes/v3_2021-01-29_di_300-prng-1-w1-p10,daily_issda-300,300,first-300,140,46,rng,num-start-221,221,536,classic,10.39577865600586,True,,True,1.0,1.0,1.0,1,"Index(['1', '2', '3', '4', '5', '7', '8', '9', '10', '13',
       ...
       '277', '284', '285', '287', '288', '290', '294', '295', '297', '300'],
      dtype='object', length=140)",False,1000,True,10,1.0,1.0,cc24024ffe
96,./expes/v3_2021-01-29_di_300-prng-1-w1-p10,daily_issda-300,300,first-300,133,44,rng,num-start-291,291,536,classic,13.056060075759888,True,,True,1.0,1.0,1.0,1,"Index(['1', '4', '7', '8', '9', '10', '11', '12', '15', '16',
       ...
       '277', '283', '284', '286', '287', '289', '292', '294', '295', '297'],
      dtype='object', length=133)",False,1000,True,10,1.0,1.0,c41680545f
97,./expes/v3_2021-01-29_di_300-prng-1-w1-p10,daily_issda-300,300,first-300,14,4,rng,num-start-41,41,536,classic,2.723205089569092,True,,True,1.0,1.0,1.0,1,"Index(['63', '93', '94', '101', '102', '123', '136', '152', '172', '230',
       '235', '246', '251', '253'],
      dtype='object')",False,1000,True,10,1.0,1.0,a3c610136e
98,./expes/v3_2021-01-29_di_300-prng-1-w1-p10,daily_issda-300,300,first-300,14,4,rng,num-start-121,121,536,classic,4.870625734329224,True,,True,1.0,1.0,1.0,1,"Index(['47', '49', '73', '95', '96', '98', '156', '229', '232', '239', '244',
       '261', '263', '287'],
      dtype='object')",False,1000,True,10,1.0,1.0,1ad274438a
99,./expes/v3_2021-01-29_di_300-prng-1-w1-p10,daily_issda-300,300,first-300,98,32,rng,num-start-261,261,536,classic,11.061195611953735,True,,True,1.0,1.0,1.0,1,"Index(['5', '11', '13', '15', '17', '19', '21', '26', '29', '30', '31', '35',
       '39', '43', '44', '47', '55', '59', '66', '70', '81', '82', '83', '85',
       '86', '87', '89', '91', '94', '95', '98', '107', '108', '109', '114',
       '117', '119', '121', '126', '128', '129', '131', '137', '138', '140',
       '143', '156', '158', '159', '160', '164', '167', '175', '180', '182',
       '185', '186', '187', '188', '191', '192', '195', '202', '205', '209',
       '213', '217', '221', '228', '229', '233', '234', '237', '239', '246',
       '250', '251', '256', '257', '258', '259', '260', '261', '262', '263',
       '264', '266', '268', '269', '270', '272', '279', '286', '287', '288',
       '291', '295', '298'],
      dtype='object')",False,1000,True,10,1.0,1.0,4dd1a81e01
100,./expes/v3_2021-01-29_di_300-prng-1-w1-p10,daily_issda-300,300,first-300,7,2,rng,num-start-151,151,536,classic,5.919787883758545,True,,True,1.0,1.0,1.0,1,"Index(['15', '27', '128', '131', '184', '239', '272'], dtype='object')",False,1000,True,10,1.0,1.0,17513ed5ed
101,./expes/v3_2021-01-29_di_300-prng-1-w1-p10,daily_issda-300,300,first-300,77,25,rng,num-start-161,161,536,classic,7.223851919174194,True,,True,1.0,1.0,1.0,1,"Index(['2', '4', '9', '12', '14', '23', '37', '38', '47', '51', '54', '56',
       '59', '62', '66', '69', '71', '76', '82', '88', '94', '99', '103',
       '104', '107', '120', '126', '134', '135', '138', '146', '149', '151',
       '154', '155', '158', '160', '167', '168', '178', '189', '193', '199',
       '200', '202', '203', '207', '209', '211', '213', '217', '220', '225',
       '226', '231', '232', '233', '234', '235', '237', '239', '244', '246',
       '253', '257', '258', '262', '267', '271', '278', '280', '281', '292',
       '293', '296', '297', '300'],
      dtype='object')",False,1000,True,10,1.0,1.0,0895d83665
102,./expes/v3_2021-01-29_di_300-prng-1-w1-p10,daily_issda-300,300,first-300,28,9,rng,num-start-101,101,536,classic,4.314234972000122,True,,True,1.0,1.0,1.0,1,"Index(['3', '6', '11', '12', '15', '73', '79', '113', '114', '115', '117',
       '122', '130', '133', '146', '152', '155', '159', '172', '186', '210',
       '214', '216', '229', '234', '238', '241', '247'],
      dtype='object')",False,1000,True,10,1.0,1.0,525d2588f5
103,./expes/v3_2021-01-29_di_300-prng-1-w1-p10,daily_issda-300,300,first-300,56,18,rng,num-start-231,231,536,classic,9.259174585342407,True,,True,1.0,1.0,1.0,1,"Index(['1', '6', '10', '16', '27', '31', '32', '39', '43', '45', '47', '58',
       '70', '74', '75', '84', '88', '99', '103', '108', '115', '117', '134',
       '138', '141', '161', '173', '174', '180', '183', '186', '189', '192',
       '196', '197', '198', '206', '208', '215', '217', '226', '228', '236',
       '241', '243', '245', '248', '260', '261', '263', '271', '277', '278',
       '285', '286', '296'],
      dtype='object')",False,1000,True,10,1.0,1.0,4564db0f28
104,./expes/v3_2021-01-29_di_300-prng-1-w1-p10,daily_issda-300,300,first-300,28,9,rng,num-start-171,171,536,classic,7.131481170654297,True,,True,1.0,1.0,1.0,1,"Index(['8', '16', '19', '22', '31', '33', '47', '49', '73', '81', '95', '96',
       '98', '124', '156', '168', '203', '226', '229', '232', '238', '239',
       '244', '261', '263', '271', '276', '287'],
      dtype='object')",False,1000,True,10,1.0,1.0,5afb924cc3
105,./expes/v3_2021-01-29_di_300-prng-1-w1-p10,daily_issda-300,300,first-300,119,39,rng,num-start-121,121,536,classic,12.697127103805542,True,,True,1.0,1.0,1.0,1,"Index(['1', '2', '3', '4', '5', '7', '9', '10', '13', '14',
       ...
       '276', '277', '284', '285', '287', '290', '294', '295', '297', '300'],
      dtype='object', length=119)",False,1000,True,10,1.0,1.0,87e6551668
106,./expes/v3_2021-01-29_di_300-prng-1-w1-p10,daily_issda-300,300,first-300,35,11,rng,num-start-11,11,536,classic,1000.4736802577972,False,,False,0.0,,,0,"Index(['2', '5', '12', '14', '15', '16', '33', '49', '53', '61', '69', '108',
       '111', '114', '118', '120', '131', '137', '163', '177', '195', '196',
       '200', '217', '222', '225', '229', '231', '242', '250', '254', '271',
       '278', '284', '292'],
      dtype='object')",True,1000,True,10,0.0,0.0,9e4be2ca92
107,./expes/v3_2021-01-29_di_300-prng-1-w1-p10,daily_issda-300,300,first-300,56,18,rng,num-start-231,231,536,classic,9.97915768623352,True,,True,1.0,1.0,1.0,1,"Index(['1', '8', '21', '32', '33', '38', '42', '47', '48', '49', '51', '52',
       '72', '73', '76', '98', '105', '112', '114', '123', '125', '129', '133',
       '134', '145', '156', '159', '162', '164', '167', '170', '171', '182',
       '184', '198', '205', '208', '216', '223', '227', '230', '242', '245',
       '249', '253', '259', '261', '262', '267', '273', '279', '281', '283',
       '287', '291', '299'],
      dtype='object')",False,1000,True,10,1.0,1.0,0342cdd1b5
108,./expes/v3_2021-01-29_di_300-prng-1-w1-p10,daily_issda-300,300,first-300,98,32,rng,num-start-11,11,536,classic,1000.488585948944,False,,False,0.0,,,0,"Index(['1', '6', '10', '11', '13', '15', '18', '22', '35', '36', '38', '43',
       '46', '48', '49', '51', '53', '55', '58', '59', '61', '63', '74', '77',
       '83', '85', '87', '93', '97', '99', '100', '105', '112', '115', '121',
       '127', '131', '132', '134', '135', '137', '139', '141', '143', '144',
       '145', '150', '155', '156', '159', '160', '162', '173', '178', '183',
       '184', '185', '187', '189', '196', '198', '199', '202', '204', '207',
       '208', '211', '214', '217', '218', '224', '225', '226', '231', '232',
       '234', '236', '239', '241', '242', '243', '246', '249', '250', '251',
       '257', '260', '264', '265', '270', '272', '274', '283', '287', '292',
       '293', '297', '299'],
      dtype='object')",True,1000,True,10,0.0,0.0,38e5bf2510
109,./expes/v3_2021-01-29_di_300-prng-1-w1-p10,daily_issda-300,300,first-300,7,2,rng,num-start-51,51,536,classic,2.0058906078338623,True,,True,1.0,1.0,1.0,1,"Index(['67', '76', '96', '116', '119', '133', '149'], dtype='object')",False,1000,True,10,1.0,1.0,7af5734cb1
110,./expes/v3_2021-01-29_di_300-prng-1-w1-p10,daily_issda-300,300,first-300,35,11,rng,num-start-291,291,536,classic,11.732150554656982,True,,True,1.0,1.0,1.0,1,"Index(['11', '14', '31', '35', '45', '47', '53', '55', '80', '85', '89', '92',
       '100', '110', '114', '121', '128', '134', '135', '140', '142', '149',
       '156', '159', '173', '185', '191', '199', '203', '206', '246', '260',
       '267', '275', '282'],
      dtype='object')",False,1000,True,10,1.0,1.0,20ff3b4692
111,./expes/v3_2021-01-29_di_300-prng-1-w1-p10,daily_issda-300,300,first-300,7,2,rng,num-start-21,21,536,classic,1.6509528160095217,True,,True,1.0,1.0,1.0,1,"Index(['4', '71', '96', '137', '174', '192', '238'], dtype='object')",False,1000,True,10,1.0,1.0,247b49ef0f
112,./expes/v3_2021-01-29_di_300-prng-1-w1-p10,daily_issda-300,300,first-300,133,44,rng,num-start-81,81,536,classic,1002.9649436473846,False,,False,0.0,,,0,"Index(['2', '3', '8', '13', '17', '18', '19', '23', '24', '26',
       ...
       '278', '279', '282', '287', '291', '293', '295', '296', '299', '300'],
      dtype='object', length=133)",True,1000,True,10,0.0,0.0,95e723fdd0
113,./expes/v3_2021-01-29_di_300-prng-1-w1-p10,daily_issda-300,300,first-300,77,25,rng,num-start-231,231,536,classic,11.156933784484863,True,,True,1.0,1.0,1.0,1,"Index(['3', '8', '17', '18', '19', '23', '34', '37', '39', '42', '50', '58',
       '62', '69', '72', '74', '77', '81', '83', '86', '90', '92', '98', '100',
       '106', '115', '121', '123', '126', '128', '135', '137', '141', '143',
       '146', '155', '156', '161', '167', '168', '179', '182', '185', '186',
       '188', '192', '193', '196', '197', '212', '213', '216', '220', '222',
       '224', '226', '227', '229', '231', '234', '237', '241', '248', '251',
       '252', '255', '257', '267', '268', '274', '275', '282', '291', '293',
       '296', '299', '300'],
      dtype='object')",False,1000,True,10,1.0,1.0,bd89e55492
114,./expes/v3_2021-01-29_di_300-prng-1-w1-p10,daily_issda-300,300,first-300,91,30,rng,num-start-91,91,536,classic,1003.3905839920044,False,,False,0.0,,,0,"Index(['4', '7', '8', '11', '15', '16', '17', '19', '22', '23', '24', '33',
       '34', '35', '40', '46', '50', '54', '56', '61', '64', '67', '69', '70',
       '78', '80', '82', '84', '99', '102', '109', '112', '119', '120', '121',
       '122', '133', '135', '137', '138', '143', '144', '146', '150', '151',
       '155', '159', '161', '168', '170', '173', '174', '177', '180', '188',
       '190', '194', '198', '199', '200', '203', '204', '209', '211', '213',
       '216', '219', '224', '228', '241', '243', '244', '247', '248', '254',
       '259', '260', '268', '274', '275', '277', '278', '279', '282', '283',
       '292', '293', '294', '296', '298', '300'],
      dtype='object')",True,1000,True,10,0.0,0.0,8b5c76290b
115,./expes/v3_2021-01-29_di_300-prng-1-w1-p10,daily_issda-300,300,first-300,28,9,rng,num-start-131,131,536,classic,5.418534755706787,True,,True,1.0,1.0,1.0,1,"Index(['6', '9', '19', '29', '60', '76', '81', '106', '107', '115', '118',
       '119', '123', '135', '144', '157', '161', '174', '177', '182', '183',
       '189', '201', '216', '239', '262', '267', '296'],
      dtype='object')",False,1000,True,10,1.0,1.0,03bacd6f3f
116,./expes/v3_2021-01-29_di_300-prng-1-w1-p10,daily_issda-300,300,first-300,140,46,rng,num-start-111,111,536,classic,83.69576382637024,True,,True,1.0,1.0,1.0,1,"Index(['2', '7', '9', '11', '14', '16', '17', '18', '20', '23',
       ...
       '273', '277', '280', '286', '289', '292', '294', '297', '298', '300'],
      dtype='object', length=140)",False,1000,True,10,1.0,1.0,d637862e3e
117,./expes/v3_2021-01-29_di_300-prng-1-w1-p10,daily_issda-300,300,first-300,105,35,rng,num-start-131,131,536,classic,11.711420059204102,True,,True,1.0,1.0,1.0,1,"Index(['4', '6', '7', '8', '11', '15', '16', '17', '19', '22',
       ...
       '282', '283', '287', '292', '293', '294', '296', '297', '298', '300'],
      dtype='object', length=105)",False,1000,True,10,1.0,1.0,2f1cfdc472
118,./expes/v3_2021-01-29_di_300-prng-1-w1-p10,daily_issda-300,300,first-300,140,46,rng,num-start-1,1,536,classic,9.900818586349487,False,,True,0.2647845756337695,0.2504181767818828,0.2917117530251716,100,"Index(['1', '3', '5', '6', '8', '9', '10', '11', '16', '18',
       ...
       '283', '284', '287', '289', '290', '293', '295', '296', '299', '300'],
      dtype='object', length=140)",False,1000,True,10,1.0,1.0,9a81e91cba
119,./expes/v3_2021-01-29_di_300-prng-1-w1-p10,daily_issda-300,300,first-300,105,35,rng,num-start-71,71,536,classic,1002.5664157867432,False,,False,0.0,,,0,"Index(['1', '2', '3', '4', '5', '9', '10', '13', '14', '18',
       ...
       '276', '277', '284', '285', '287', '290', '294', '295', '297', '300'],
      dtype='object', length=105)",True,1000,True,10,0.0,0.0,2e7724f6f5
120,./expes/v3_2021-01-29_di_300-prng-1-w1-p10,daily_issda-300,300,first-300,133,44,rng,num-start-81,81,536,classic,1002.7823452949524,False,,False,0.0,,,0,"Index(['2', '4', '5', '9', '12', '13', '14', '21', '23', '24',
       ...
       '271', '278', '280', '281', '288', '292', '293', '296', '297', '300'],
      dtype='object', length=133)",True,1000,True,10,0.0,0.0,67a5893b06
121,./expes/v3_2021-01-29_di_300-prng-1-w1-p10,daily_issda-300,300,first-300,133,44,rng,num-start-281,281,536,classic,13.125959396362305,True,,True,1.0,1.0,1.0,1,"Index(['1', '4', '7', '8', '9', '10', '11', '12', '15', '16',
       ...
       '277', '283', '284', '286', '287', '289', '292', '294', '295', '297'],
      dtype='object', length=133)",False,1000,True,10,1.0,1.0,1c201ab057
122,./expes/v3_2021-01-29_di_300-prng-1-w1-p10,daily_issda-300,300,first-300,56,18,rng,num-start-231,231,536,classic,10.397408723831177,True,,True,1.0,1.0,1.0,1,"Index(['3', '8', '17', '18', '19', '23', '34', '37', '39', '69', '72', '81',
       '83', '90', '100', '106', '115', '121', '123', '128', '135', '143',
       '146', '155', '156', '161', '167', '168', '182', '185', '186', '188',
       '193', '196', '212', '216', '220', '224', '226', '231', '234', '237',
       '241', '248', '251', '252', '255', '257', '267', '274', '275', '282',
       '293', '296', '299', '300'],
      dtype='object')",False,1000,True,10,1.0,1.0,d93f18b320
123,./expes/v3_2021-01-29_di_300-prng-1-w1-p10,daily_issda-300,300,first-300,49,16,rng,num-start-31,31,536,classic,1001.1673836708068,False,,False,0.0,,,0,"Index(['6', '15', '36', '38', '43', '49', '55', '58', '61', '63', '77', '83',
       '85', '93', '100', '105', '112', '115', '127', '131', '134', '135',
       '139', '141', '145', '150', '156', '162', '173', '184', '185', '187',
       '196', '202', '204', '207', '225', '231', '232', '239', '249', '250',
       '257', '264', '265', '270', '283', '297', '299'],
      dtype='object')",True,1000,True,10,0.0,0.0,f6325f455e
124,./expes/v3_2021-01-29_di_300-prng-1-w1-p10,daily_issda-300,300,first-300,21,7,rng,num-start-151,151,536,classic,6.209915637969971,True,,True,1.0,1.0,1.0,1,"Index(['8', '16', '37', '44', '65', '67', '72', '76', '96', '110', '116',
       '119', '133', '135', '142', '149', '151', '221', '224', '231', '273'],
      dtype='object')",False,1000,True,10,1.0,1.0,5b93dd8a3c
125,./expes/v3_2021-01-29_di_300-prng-1-w1-p10,daily_issda-300,300,first-300,14,4,rng,num-start-111,111,536,classic,4.493261098861694,True,,True,1.0,1.0,1.0,1,"Index(['1', '12', '19', '42', '75', '102', '134', '140', '164', '192', '241',
       '249', '251', '294'],
      dtype='object')",False,1000,True,10,1.0,1.0,9ca25a8909
126,./expes/v3_2021-01-29_di_300-prng-1-w1-p10,daily_issda-300,300,first-300,140,46,rng,num-start-11,11,536,classic,1000.481648683548,False,,False,0.0,,,0,"Index(['4', '6', '7', '8', '11', '12', '14', '15', '16', '17',
       ...
       '283', '287', '292', '293', '294', '295', '296', '297', '298', '300'],
      dtype='object', length=140)",True,1000,True,10,0.0,0.0,57d205c352
127,./expes/v3_2021-01-29_di_300-prng-1-w1-p10,daily_issda-300,300,first-300,42,14,rng,num-start-21,21,536,classic,1000.744665145874,False,,False,0.0,,,0,"Index(['10', '14', '27', '32', '36', '42', '57', '64', '71', '72', '73', '78',
       '90', '101', '108', '128', '130', '143', '149', '156', '159', '163',
       '170', '173', '182', '188', '191', '197', '206', '210', '213', '215',
       '222', '243', '257', '260', '268', '273', '277', '283', '287', '293'],
      dtype='object')",True,1000,True,10,0.0,0.0,a4f6baddb6
128,./expes/v3_2021-01-29_di_300-prng-1-w1-p10,daily_issda-300,300,first-300,98,32,rng,num-start-221,221,536,classic,10.18674349784851,True,,True,1.0,1.0,1.0,1,"Index(['1', '6', '10', '11', '13', '15', '18', '22', '35', '36', '38', '43',
       '46', '48', '49', '51', '53', '55', '58', '59', '61', '63', '74', '77',
       '83', '85', '87', '93', '97', '99', '100', '105', '112', '115', '121',
       '127', '131', '132', '134', '135', '137', '139', '141', '143', '144',
       '145', '150', '155', '156', '159', '160', '162', '173', '178', '183',
       '184', '185', '187', '189', '196', '198', '199', '202', '204', '207',
       '208', '211', '214', '217', '218', '224', '225', '226', '231', '232',
       '234', '236', '239', '241', '242', '243', '246', '249', '250', '251',
       '257', '260', '264', '265', '270', '272', '274', '283', '287', '292',
       '293', '297', '299'],
      dtype='object')",False,1000,True,10,1.0,1.0,42fb537074
129,./expes/v3_2021-01-29_di_300-prng-1-w1-p10,daily_issda-300,300,first-300,119,39,rng,num-start-31,31,536,classic,1001.1215825080872,False,,False,0.0,,,0,"Index(['1', '8', '9', '12', '14', '17', '19', '20', '21', '24',
       ...
       '277', '279', '281', '283', '287', '291', '294', '295', '297', '299'],
      dtype='object', length=119)",True,1000,True,10,0.0,0.0,cd620bf166
130,./expes/v3_2021-01-29_di_300-prng-1-w1-p10,daily_issda-300,300,first-300,70,23,rng,num-start-41,41,536,classic,1001.4659683704376,False,,False,0.0,,,0,"Index(['2', '8', '16', '23', '37', '38', '44', '61', '65', '67', '68', '70',
       '71', '72', '73', '76', '82', '91', '92', '96', '100', '104', '110',
       '116', '119', '120', '121', '122', '129', '130', '132', '133', '135',
       '142', '144', '149', '151', '161', '178', '180', '183', '187', '188',
       '191', '192', '200', '203', '212', '218', '220', '221', '224', '226',
       '228', '230', '231', '236', '238', '250', '252', '255', '267', '268',
       '273', '275', '282', '284', '289', '290', '296'],
      dtype='object')",True,1000,True,10,0.0,0.0,8120b2a3c7
131,./expes/v3_2021-01-29_di_300-prng-1-w1-p10,daily_issda-300,300,first-300,7,2,rng,num-start-141,141,536,classic,5.425402402877808,True,,True,1.0,1.0,1.0,1,"Index(['63', '93', '102', '123', '172', '230', '251'], dtype='object')",False,1000,True,10,1.0,1.0,7eceab2fd6
132,./expes/v3_2021-01-29_di_300-prng-1-w1-p10,daily_issda-300,300,first-300,14,4,rng,num-start-261,261,536,classic,10.29788589477539,True,,True,1.0,1.0,1.0,1,"Index(['23', '56', '62', '76', '103', '134', '149', '178', '202', '211', '262',
       '267', '271', '300'],
      dtype='object')",False,1000,True,10,1.0,1.0,87d43f3a08
133,./expes/v3_2021-01-29_di_300-prng-1-w1-p10,daily_issda-300,300,first-300,126,42,rng,num-start-201,201,536,classic,9.360684633255005,True,,True,1.0,1.0,1.0,1,"Index(['1', '2', '3', '5', '7', '8', '9', '12', '14', '15',
       ...
       '281', '282', '283', '284', '285', '288', '292', '296', '297', '300'],
      dtype='object', length=126)",False,1000,True,10,1.0,1.0,eddf67bfdc
134,./expes/v3_2021-01-29_di_300-prng-1-w1-p10,daily_issda-300,300,first-300,63,21,rng,num-start-31,31,536,classic,1001.128870010376,False,,False,0.0,,,0,"Index(['2', '4', '9', '12', '14', '23', '37', '38', '47', '51', '54', '56',
       '59', '62', '69', '71', '76', '82', '94', '99', '103', '104', '107',
       '120', '126', '134', '138', '149', '154', '160', '167', '168', '178',
       '189', '199', '200', '202', '203', '209', '211', '213', '217', '220',
       '226', '233', '234', '235', '239', '246', '253', '257', '258', '262',
       '267', '271', '278', '280', '281', '292', '293', '296', '297', '300'],
      dtype='object')",True,1000,True,10,0.0,0.0,8d716fc089
