,expe,clients,clients_size,clients_subset,agg_size,agg_size_pc,method,days,days_size,days_total,noise_method,time,valid,valid_sum,success,score_avg,score_min,score_max,nsols,oracle,wall_hit,wall_time,pooled,pool_size,optimal,valid_sums,uuid
0,./expes/v3_2021-01-29_di_300-prng-1-w1-p10,daily_issda-300,300,first-300,42,14,rng,num-start-291,291,536,classic,11.602699756622314,True,,True,1.0,1.0,1.0,1,"Index(['13', '15', '19', '29', '44', '47', '70', '82', '85', '87', '89', '91',
       '94', '109', '119', '121', '129', '138', '158', '164', '167', '182',
       '185', '187', '191', '195', '202', '213', '217', '221', '228', '229',
       '239', '258', '261', '262', '264', '269', '270', '279', '287', '298'],
      dtype='object')",False,1000,True,10,1.0,1.0,35cc73ecd0
1,./expes/v3_2021-01-29_di_300-prng-1-w1-p10,daily_issda-300,300,first-300,14,4,rng,num-start-81,81,536,classic,3.502271175384521,True,,True,1.0,1.0,1.0,1,"Index(['3', '6', '114', '117', '122', '133', '146', '152', '186', '210', '214',
       '229', '241', '247'],
      dtype='object')",False,1000,True,10,1.0,1.0,3ac23ac654
2,./expes/v3_2021-01-29_di_300-prng-1-w1-p10,daily_issda-300,300,first-300,119,39,rng,num-start-141,141,536,classic,12.317861795425417,True,,True,1.0,1.0,1.0,1,"Index(['1', '4', '5', '6', '10', '13', '14', '15', '16', '17',
       ...
       '270', '271', '277', '278', '280', '282', '285', '286', '294', '296'],
      dtype='object', length=119)",False,1000,True,10,1.0,1.0,0dcaa11206
3,./expes/v3_2021-01-29_di_300-prng-1-w1-p10,daily_issda-300,300,first-300,49,16,rng,num-start-181,181,536,classic,7.623658180236816,True,,True,1.0,1.0,1.0,1,"Index(['4', '59', '61', '63', '75', '83', '87', '90', '93', '94', '101', '102',
       '103', '104', '111', '113', '121', '122', '123', '130', '136', '139',
       '140', '145', '152', '154', '156', '167', '172', '176', '178', '188',
       '208', '230', '235', '245', '246', '251', '253', '254', '257', '260',
       '268', '270', '276', '283', '291', '294', '295'],
      dtype='object')",False,1000,True,10,1.0,1.0,1bcaeb50ed
4,./expes/v3_2021-01-29_di_300-prng-1-w1-p10,daily_issda-300,300,first-300,49,16,rng,num-start-201,201,536,classic,8.165823221206665,True,,True,1.0,1.0,1.0,1,"Index(['2', '3', '4', '13', '21', '23', '27', '29', '33', '42', '45', '53',
       '57', '58', '63', '68', '71', '72', '81', '87', '96', '102', '103',
       '105', '108', '115', '122', '137', '144', '150', '172', '174', '175',
       '192', '194', '195', '197', '204', '211', '216', '217', '218', '232',
       '238', '252', '258', '260', '284', '297'],
      dtype='object')",False,1000,True,10,1.0,1.0,9de66de9bb
5,./expes/v3_2021-01-29_di_300-prng-1-w1-p10,daily_issda-300,300,first-300,70,23,rng,num-start-1,1,536,classic,12.373255014419556,False,,True,0.3954574515800569,0.3717891839267345,0.4216850680337598,100,"Index(['2', '5', '12', '14', '15', '16', '18', '33', '45', '49', '52', '53',
       '56', '61', '62', '69', '84', '89', '96', '98', '108', '111', '113',
       '114', '118', '119', '120', '125', '131', '137', '146', '149', '152',
       '156', '163', '171', '177', '188', '190', '192', '195', '196', '200',
       '202', '207', '213', '214', '217', '222', '225', '229', '231', '236',
       '242', '246', '250', '251', '254', '256', '257', '259', '260', '261',
       '267', '271', '278', '281', '284', '285', '292'],
      dtype='object')",False,1000,True,10,1.0,1.0,33364f3af9
6,./expes/v3_2021-01-29_di_300-prng-1-w1-p10,daily_issda-300,300,first-300,112,37,rng,num-start-231,231,536,classic,8.700942039489746,True,,True,1.0,1.0,1.0,1,"Index(['2', '3', '8', '16', '17', '19', '20', '22', '23', '36',
       ...
       '282', '284', '285', '287', '289', '290', '292', '296', '298', '299'],
      dtype='object', length=112)",False,1000,True,10,1.0,1.0,ec700f1a97
7,./expes/v3_2021-01-29_di_300-prng-1-w1-p10,daily_issda-300,300,first-300,126,42,rng,num-start-191,191,536,classic,9.692545175552368,True,,True,1.0,1.0,1.0,1,"Index(['2', '3', '8', '13', '17', '18', '19', '23', '26', '33',
       ...
       '278', '279', '282', '287', '291', '293', '295', '296', '299', '300'],
      dtype='object', length=126)",False,1000,True,10,1.0,1.0,a549dd971c
8,./expes/v3_2021-01-29_di_300-prng-1-w1-p10,daily_issda-300,300,first-300,49,16,rng,num-start-231,231,536,classic,8.776671648025513,True,,True,1.0,1.0,1.0,1,"Index(['9', '12', '23', '37', '38', '51', '54', '56', '59', '62', '69', '71',
       '76', '82', '99', '103', '104', '107', '120', '134', '138', '149',
       '154', '160', '167', '168', '178', '199', '200', '202', '203', '209',
       '211', '213', '217', '226', '234', '253', '258', '262', '267', '271',
       '278', '280', '292', '293', '296', '297', '300'],
      dtype='object')",False,1000,True,10,1.0,1.0,eb2f277f13
9,./expes/v3_2021-01-29_di_300-prng-1-w1-p10,daily_issda-300,300,first-300,98,32,rng,num-start-291,291,536,classic,12.643012285232544,True,,True,1.0,1.0,1.0,1,"Index(['1', '3', '5', '6', '8', '9', '11', '16', '19', '22', '27', '31', '33',
       '35', '36', '38', '39', '43', '44', '45', '47', '49', '52', '56', '60',
       '61', '68', '69', '73', '75', '81', '91', '95', '96', '97', '98', '101',
       '102', '107', '108', '109', '110', '118', '120', '124', '125', '127',
       '131', '133', '139', '143', '148', '149', '151', '152', '156', '160',
       '162', '168', '169', '171', '173', '189', '191', '193', '197', '198',
       '202', '203', '204', '206', '209', '210', '215', '216', '226', '227',
       '229', '230', '232', '235', '238', '239', '241', '244', '250', '256',
       '261', '263', '266', '271', '276', '283', '287', '289', '290', '296',
       '299'],
      dtype='object')",False,1000,True,10,1.0,1.0,549bdb3428
10,./expes/v3_2021-01-29_di_300-prng-1-w1-p10,daily_issda-300,300,first-300,126,42,rng,num-start-261,261,536,classic,10.774300813674929,True,,True,1.0,1.0,1.0,1,"Index(['2', '3', '8', '13', '17', '18', '19', '23', '26', '33',
       ...
       '278', '279', '282', '287', '291', '293', '295', '296', '299', '300'],
      dtype='object', length=126)",False,1000,True,10,1.0,1.0,8660d765db
11,./expes/v3_2021-01-29_di_300-prng-1-w1-p10,daily_issda-300,300,first-300,63,21,rng,num-start-111,111,536,classic,8.646711826324463,True,,True,1.0,1.0,1.0,1,"Index(['1', '2', '3', '7', '10', '12', '15', '27', '30', '34', '37', '53',
       '58', '65', '68', '72', '75', '81', '82', '85', '86', '91', '94', '95',
       '101', '102', '105', '108', '111', '127', '128', '131', '132', '136',
       '144', '149', '153', '155', '157', '159', '161', '162', '170', '174',
       '182', '184', '185', '191', '195', '197', '200', '207', '209', '213',
       '228', '239', '241', '242', '247', '272', '277', '279', '294'],
      dtype='object')",False,1000,True,10,1.0,1.0,186c323e97
12,./expes/v3_2021-01-29_di_300-prng-1-w1-p10,daily_issda-300,300,first-300,35,11,rng,num-start-21,21,536,classic,1000.7883551120758,False,,False,0.0,,,0,"Index(['20', '24', '25', '26', '30', '31', '32', '36', '38', '45', '47', '49',
       '64', '69', '78', '110', '114', '115', '124', '149', '166', '188',
       '203', '204', '215', '218', '223', '260', '275', '283', '286', '290',
       '296', '299', '300'],
      dtype='object')",True,1000,True,10,0.0,0.0,4630760cd6
13,./expes/v3_2021-01-29_di_300-prng-1-w1-p10,daily_issda-300,300,first-300,133,44,rng,num-start-221,221,536,classic,10.570690155029297,True,,True,1.0,1.0,1.0,1,"Index(['2', '4', '5', '9', '12', '13', '14', '21', '23', '24',
       ...
       '271', '278', '280', '281', '288', '292', '293', '296', '297', '300'],
      dtype='object', length=133)",False,1000,True,10,1.0,1.0,0c03aa9968
14,./expes/v3_2021-01-29_di_300-prng-1-w1-p10,daily_issda-300,300,first-300,84,28,rng,num-start-151,151,536,classic,6.639317035675049,True,,True,1.0,1.0,1.0,1,"Index(['4', '11', '14', '23', '24', '31', '32', '35', '42', '45', '46', '47',
       '52', '53', '55', '63', '75', '80', '83', '85', '89', '91', '92', '95',
       '100', '101', '102', '104', '110', '114', '118', '120', '121', '122',
       '127', '128', '133', '134', '135', '140', '142', '143', '144', '148',
       '149', '150', '154', '156', '157', '159', '160', '165', '166', '170',
       '173', '176', '183', '185', '191', '199', '203', '206', '212', '217',
       '221', '224', '226', '232', '236', '237', '242', '243', '246', '260',
       '261', '266', '267', '274', '275', '281', '282', '286', '294', '299'],
      dtype='object')",False,1000,True,10,1.0,1.0,26da6d156c
15,./expes/v3_2021-01-29_di_300-prng-1-w1-p10,daily_issda-300,300,first-300,14,4,rng,num-start-271,271,536,classic,10.798877000808716,True,,True,1.0,1.0,1.0,1,"Index(['8', '17', '18', '83', '106', '143', '220', '237', '248', '251', '252',
       '267', '293', '296'],
      dtype='object')",False,1000,True,10,1.0,1.0,0ec750e4fe
16,./expes/v3_2021-01-29_di_300-prng-1-w1-p10,daily_issda-300,300,first-300,42,14,rng,num-start-271,271,536,classic,10.867613792419434,True,,True,1.0,1.0,1.0,1,"Index(['10', '14', '27', '32', '36', '42', '57', '64', '71', '72', '73', '78',
       '90', '101', '108', '128', '130', '143', '149', '156', '159', '163',
       '170', '173', '182', '188', '191', '197', '206', '210', '213', '215',
       '222', '243', '257', '260', '268', '273', '277', '283', '287', '293'],
      dtype='object')",False,1000,True,10,1.0,1.0,3faff23f4b
17,./expes/v3_2021-01-29_di_300-prng-1-w1-p10,daily_issda-300,300,first-300,98,32,rng,num-start-51,51,536,classic,1001.772022485733,False,,False,0.0,,,0,"Index(['5', '11', '13', '15', '17', '19', '21', '26', '29', '30', '31', '35',
       '39', '43', '44', '47', '55', '59', '66', '70', '81', '82', '83', '85',
       '86', '87', '89', '91', '94', '95', '98', '107', '108', '109', '114',
       '117', '119', '121', '126', '128', '129', '131', '137', '138', '140',
       '143', '156', '158', '159', '160', '164', '167', '175', '180', '182',
       '185', '186', '187', '188', '191', '192', '195', '202', '205', '209',
       '213', '217', '221', '228', '229', '233', '234', '237', '239', '246',
       '250', '251', '256', '257', '258', '259', '260', '261', '262', '263',
       '264', '266', '268', '269', '270', '272', '279', '286', '287', '288',
       '291', '295', '298'],
      dtype='object')",True,1000,True,10,0.0,0.0,480e82b225
18,./expes/v3_2021-01-29_di_300-prng-1-w1-p10,daily_issda-300,300,first-300,84,28,rng,num-start-51,51,536,classic,1001.8245396614076,False,,False,0.0,,,0,"Index(['5', '13', '15', '19', '26', '29', '31', '39', '44', '47', '55', '70',
       '82', '83', '85', '86', '87', '89', '91', '94', '98', '107', '109',
       '114', '117', '119', '121', '128', '129', '137', '138', '140', '143',
       '156', '158', '159', '160', '164', '167', '175', '180', '182', '185',
       '186', '187', '188', '191', '195', '202', '205', '209', '213', '217',
       '221', '228', '229', '233', '234', '237', '239', '246', '250', '251',
       '256', '257', '258', '259', '260', '261', '262', '263', '264', '266',
       '268', '269', '270', '272', '279', '286', '287', '288', '291', '295',
       '298'],
      dtype='object')",True,1000,True,10,0.0,0.0,8f64de7646
19,./expes/v3_2021-01-29_di_300-prng-1-w1-p10,daily_issda-300,300,first-300,126,42,rng,num-start-121,121,536,classic,20.3624210357666,True,,True,1.0,1.0,1.0,1,"Index(['1', '2', '3', '5', '7', '10', '12', '15', '17', '19',
       ...
       '272', '273', '274', '277', '279', '280', '282', '289', '294', '297'],
      dtype='object', length=126)",False,1000,True,10,1.0,1.0,65e489f08d
20,./expes/v3_2021-01-29_di_300-prng-1-w1-p10,daily_issda-300,300,first-300,7,2,rng,num-start-171,171,536,classic,6.697166442871094,True,,True,1.0,1.0,1.0,1,"Index(['15', '27', '128', '131', '184', '239', '272'], dtype='object')",False,1000,True,10,1.0,1.0,991bf04e80
21,./expes/v3_2021-01-29_di_300-prng-1-w1-p10,daily_issda-300,300,first-300,119,39,rng,num-start-281,281,536,classic,12.418363571166992,True,,True,1.0,1.0,1.0,1,"Index(['1', '2', '3', '5', '7', '10', '12', '15', '17', '19',
       ...
       '269', '272', '274', '277', '279', '280', '282', '289', '294', '297'],
      dtype='object', length=119)",False,1000,True,10,1.0,1.0,ac85e73b9a
22,./expes/v3_2021-01-29_di_300-prng-1-w1-p10,daily_issda-300,300,first-300,126,42,rng,num-start-41,41,536,classic,1001.4884989261628,False,,False,0.0,,,0,"Index(['1', '6', '10', '11', '13', '15', '17', '18', '22', '28',
       ...
       '274', '280', '283', '284', '287', '288', '292', '293', '297', '299'],
      dtype='object', length=126)",True,1000,True,10,0.0,0.0,144ca3eb1c
23,./expes/v3_2021-01-29_di_300-prng-1-w1-p10,daily_issda-300,300,first-300,112,37,rng,num-start-151,151,536,classic,6.628076791763306,True,,True,1.0,1.0,1.0,1,"Index(['4', '5', '10', '11', '14', '22', '23', '24', '29', '31',
       ...
       '266', '267', '274', '275', '281', '282', '286', '293', '294', '299'],
      dtype='object', length=112)",False,1000,True,10,1.0,1.0,68cce85207
24,./expes/v3_2021-01-29_di_300-prng-1-w1-p10,daily_issda-300,300,first-300,56,18,rng,num-start-51,51,536,classic,1001.6840155124664,False,,False,0.0,,,0,"Index(['8', '16', '37', '38', '44', '61', '65', '67', '68', '70', '72', '76',
       '91', '92', '96', '100', '104', '110', '116', '119', '120', '121',
       '130', '132', '133', '135', '142', '144', '149', '151', '161', '178',
       '183', '187', '188', '191', '203', '220', '221', '224', '226', '228',
       '230', '231', '236', '238', '250', '252', '268', '273', '275', '282',
       '284', '289', '290', '296'],
      dtype='object')",True,1000,True,10,0.0,0.0,52cfce9c65
25,./expes/v3_2021-01-29_di_300-prng-1-w1-p10,daily_issda-300,300,first-300,63,21,rng,num-start-291,291,536,classic,12.353355169296265,True,,True,1.0,1.0,1.0,1,"Index(['4', '11', '14', '23', '24', '31', '35', '42', '45', '46', '47', '53',
       '55', '80', '83', '85', '89', '92', '100', '110', '114', '120', '121',
       '127', '128', '133', '134', '135', '140', '142', '144', '148', '149',
       '150', '154', '156', '157', '159', '160', '173', '176', '185', '191',
       '199', '203', '206', '212', '217', '221', '232', '237', '242', '243',
       '246', '260', '261', '266', '267', '274', '275', '281', '282', '294'],
      dtype='object')",False,1000,True,10,1.0,1.0,ad1b226765
26,./expes/v3_2021-01-29_di_300-prng-1-w1-p10,daily_issda-300,300,first-300,133,44,rng,num-start-61,61,536,classic,1002.1377189159392,False,,False,0.0,,,0,"Index(['4', '5', '10', '11', '14', '17', '19', '21', '22', '23',
       ...
       '271', '274', '275', '280', '281', '282', '286', '293', '294', '299'],
      dtype='object', length=133)",True,1000,True,10,0.0,0.0,1892b90356
27,./expes/v3_2021-01-29_di_300-prng-1-w1-p10,daily_issda-300,300,first-300,140,46,rng,num-start-271,271,536,classic,11.20837664604187,True,,True,1.0,1.0,1.0,1,"Index(['1', '6', '10', '11', '13', '15', '17', '18', '22', '27',
       ...
       '279', '280', '283', '284', '287', '288', '292', '293', '297', '299'],
      dtype='object', length=140)",False,1000,True,10,1.0,1.0,1281d7a9b4
28,./expes/v3_2021-01-29_di_300-prng-1-w1-p10,daily_issda-300,300,first-300,63,21,rng,num-start-121,121,536,classic,7.456444025039673,True,,True,1.0,1.0,1.0,1,"Index(['1', '8', '21', '32', '33', '38', '42', '47', '48', '49', '51', '52',
       '56', '64', '72', '73', '76', '98', '105', '112', '114', '123', '125',
       '129', '133', '134', '145', '148', '150', '155', '156', '159', '162',
       '164', '167', '170', '171', '182', '184', '198', '205', '208', '216',
       '223', '227', '230', '242', '245', '249', '251', '253', '259', '261',
       '262', '267', '273', '277', '279', '281', '283', '287', '291', '299'],
      dtype='object')",False,1000,True,10,1.0,1.0,04b81b58f4
29,./expes/v3_2021-01-29_di_300-prng-1-w1-p10,daily_issda-300,300,first-300,7,2,rng,num-start-171,171,536,classic,7.025027513504028,True,,True,1.0,1.0,1.0,1,"Index(['47', '53', '80', '121', '156', '203', '246'], dtype='object')",False,1000,True,10,1.0,1.0,0107ed174b
30,./expes/v3_2021-01-29_di_300-prng-1-w1-p10,daily_issda-300,300,first-300,21,7,rng,num-start-291,291,536,classic,10.620252132415771,True,,True,1.0,1.0,1.0,1,"Index(['7', '15', '27', '53', '58', '81', '94', '111', '127', '128', '131',
       '144', '184', '191', '195', '209', '239', '241', '272', '279', '294'],
      dtype='object')",False,1000,True,10,1.0,1.0,df8371c0e4
31,./expes/v3_2021-01-29_di_300-prng-1-w1-p10,daily_issda-300,300,first-300,14,4,rng,num-start-221,221,536,classic,8.854753732681274,True,,True,1.0,1.0,1.0,1,"Index(['16', '23', '44', '65', '71', '99', '108', '117', '127', '190', '193',
       '206', '236', '260'],
      dtype='object')",False,1000,True,10,1.0,1.0,fc5fd2e5fc
32,./expes/v3_2021-01-29_di_300-prng-1-w1-p10,daily_issda-300,300,first-300,133,44,rng,num-start-231,231,536,classic,10.582125902175903,True,,True,1.0,1.0,1.0,1,"Index(['3', '4', '5', '6', '7', '8', '11', '12', '15', '16',
       ...
       '268', '270', '274', '277', '278', '284', '289', '294', '297', '299'],
      dtype='object', length=133)",False,1000,True,10,1.0,1.0,1c612bfae6
33,./expes/v3_2021-01-29_di_300-prng-1-w1-p10,daily_issda-300,300,first-300,112,37,rng,num-start-291,291,536,classic,10.808392763137816,True,,True,1.0,1.0,1.0,1,"Index(['4', '6', '7', '8', '11', '12', '15', '16', '17', '19',
       ...
       '282', '283', '287', '292', '293', '294', '296', '297', '298', '300'],
      dtype='object', length=112)",False,1000,True,10,1.0,1.0,ea79747f37
34,./expes/v3_2021-01-29_di_300-prng-1-w1-p10,daily_issda-300,300,first-300,56,18,rng,num-start-1,1,536,classic,8.42536735534668,False,,True,0.4464090450455331,0.4159305488678427,0.4699656097482935,100,"Index(['4', '11', '14', '23', '31', '35', '45', '46', '47', '53', '55', '80',
       '83', '85', '89', '92', '100', '110', '114', '120', '121', '127', '128',
       '133', '134', '135', '140', '142', '144', '148', '149', '150', '154',
       '156', '157', '159', '160', '173', '185', '191', '199', '203', '206',
       '212', '217', '221', '232', '243', '246', '260', '261', '267', '275',
       '281', '282', '294'],
      dtype='object')",False,1000,True,10,1.0,1.0,5cc44250a9
35,./expes/v3_2021-01-29_di_300-prng-1-w1-p10,daily_issda-300,300,first-300,119,39,rng,num-start-161,161,536,classic,7.933106422424316,True,,True,1.0,1.0,1.0,1,"Index(['1', '3', '5', '11', '13', '15', '16', '17', '19', '21',
       ...
       '270', '272', '279', '283', '286', '287', '288', '291', '295', '298'],
      dtype='object', length=119)",False,1000,True,10,1.0,1.0,5659a7a4ee
36,./expes/v3_2021-01-29_di_300-prng-1-w1-p10,daily_issda-300,300,first-300,49,16,rng,num-start-131,131,536,classic,5.595179796218872,True,,True,1.0,1.0,1.0,1,"Index(['9', '12', '23', '37', '38', '51', '54', '56', '59', '62', '69', '71',
       '76', '82', '99', '103', '104', '107', '120', '134', '138', '149',
       '154', '160', '167', '168', '178', '199', '200', '202', '203', '209',
       '211', '213', '217', '226', '234', '253', '258', '262', '267', '271',
       '278', '280', '292', '293', '296', '297', '300'],
      dtype='object')",False,1000,True,10,1.0,1.0,880902452a
37,./expes/v3_2021-01-29_di_300-prng-1-w1-p10,daily_issda-300,300,first-300,42,14,rng,num-start-1,1,536,classic,11.237066745758057,False,,True,0.5295148244615384,0.4958367308037117,0.5595684694411991,100,"Index(['4', '59', '61', '63', '87', '90', '93', '94', '101', '102', '103',
       '104', '111', '113', '121', '122', '123', '130', '136', '139', '140',
       '152', '154', '156', '167', '172', '176', '178', '188', '208', '230',
       '235', '246', '251', '253', '260', '268', '270', '276', '283', '294',
       '295'],
      dtype='object')",False,1000,True,10,1.0,1.0,77761287b7
38,./expes/v3_2021-01-29_di_300-prng-1-w1-p10,daily_issda-300,300,first-300,56,18,rng,num-start-121,121,536,classic,5.285107851028442,True,,True,1.0,1.0,1.0,1,"Index(['3', '8', '17', '18', '19', '23', '34', '37', '39', '69', '72', '81',
       '83', '90', '100', '106', '115', '121', '123', '128', '135', '143',
       '146', '155', '156', '161', '167', '168', '182', '185', '186', '188',
       '193', '196', '212', '216', '220', '224', '226', '231', '234', '237',
       '241', '248', '251', '252', '255', '257', '267', '274', '275', '282',
       '293', '296', '299', '300'],
      dtype='object')",False,1000,True,10,1.0,1.0,6b2d10bb27
39,./expes/v3_2021-01-29_di_300-prng-1-w1-p10,daily_issda-300,300,first-300,35,11,rng,num-start-101,101,536,classic,4.522178649902344,True,,True,1.0,1.0,1.0,1,"Index(['21', '32', '38', '49', '51', '52', '72', '76', '105', '112', '129',
       '133', '134', '145', '156', '159', '162', '170', '182', '184', '198',
       '208', '216', '223', '227', '242', '245', '249', '259', '262', '267',
       '273', '283', '287', '299'],
      dtype='object')",False,1000,True,10,1.0,1.0,15c48eddc1
40,./expes/v3_2021-01-29_di_300-prng-1-w1-p10,daily_issda-300,300,first-300,126,42,rng,num-start-261,261,536,classic,10.088726997375488,True,,True,1.0,1.0,1.0,1,"Index(['1', '2', '3', '4', '5', '7', '8', '9', '10', '13',
       ...
       '276', '277', '284', '285', '287', '290', '294', '295', '297', '300'],
      dtype='object', length=126)",False,1000,True,10,1.0,1.0,8d689eab88
41,./expes/v3_2021-01-29_di_300-prng-1-w1-p10,daily_issda-300,300,first-300,84,28,rng,num-start-81,81,536,classic,1002.7153482437134,False,,False,0.0,,,0,"Index(['6', '8', '9', '10', '19', '22', '25', '29', '33', '34', '38', '41',
       '48', '52', '60', '72', '73', '76', '78', '81', '85', '89', '92', '101',
       '106', '107', '115', '118', '119', '121', '123', '134', '135', '140',
       '144', '147', '148', '152', '157', '159', '160', '161', '162', '163',
       '173', '174', '177', '182', '183', '185', '189', '193', '199', '200',
       '201', '203', '206', '208', '215', '216', '225', '227', '231', '234',
       '237', '239', '240', '243', '244', '251', '252', '253', '254', '257',
       '258', '262', '267', '272', '274', '279', '285', '290', '292', '296'],
      dtype='object')",True,1000,True,10,0.0,0.0,6d0263400c
42,./expes/v3_2021-01-29_di_300-prng-1-w1-p10,daily_issda-300,300,first-300,91,30,rng,num-start-171,171,536,classic,7.228026151657104,True,,True,1.0,1.0,1.0,1,"Index(['1', '7', '9', '10', '12', '15', '19', '24', '28', '40', '42', '44',
       '46', '48', '49', '50', '60', '62', '64', '65', '71', '75', '87', '89',
       '95', '97', '99', '100', '101', '102', '103', '108', '115', '126',
       '129', '131', '132', '134', '136', '137', '138', '140', '149', '150',
       '156', '157', '160', '164', '169', '171', '172', '183', '185', '186',
       '192', '194', '195', '200', '204', '210', '211', '212', '216', '217',
       '218', '219', '221', '226', '228', '229', '232', '241', '242', '248',
       '249', '250', '251', '257', '258', '264', '265', '268', '269', '271',
       '276', '277', '284', '286', '289', '294', '295'],
      dtype='object')",False,1000,True,10,1.0,1.0,4275ef00dc
43,./expes/v3_2021-01-29_di_300-prng-1-w1-p10,daily_issda-300,300,first-300,105,35,rng,num-start-221,221,536,classic,8.881292343139648,True,,True,1.0,1.0,1.0,1,"Index(['4', '5', '10', '11', '14', '22', '23', '24', '31', '32',
       ...
       '266', '267', '274', '275', '281', '282', '286', '293', '294', '299'],
      dtype='object', length=105)",False,1000,True,10,1.0,1.0,3d5fa34cb5
44,./expes/v3_2021-01-29_di_300-prng-1-w1-p10,daily_issda-300,300,first-300,133,44,rng,num-start-31,31,536,classic,1001.0822229385376,False,,False,0.0,,,0,"Index(['3', '4', '5', '6', '10', '24', '30', '34', '40', '41',
       ...
       '283', '285', '286', '287', '290', '291', '293', '294', '295', '297'],
      dtype='object', length=133)",True,1000,True,10,0.0,0.0,bdfaa1e9af
45,./expes/v3_2021-01-29_di_300-prng-1-w1-p10,daily_issda-300,300,first-300,21,7,rng,num-start-161,161,536,classic,6.98447322845459,True,,True,1.0,1.0,1.0,1,"Index(['7', '15', '27', '53', '58', '81', '94', '111', '127', '128', '131',
       '144', '184', '191', '195', '209', '239', '241', '272', '279', '294'],
      dtype='object')",False,1000,True,10,1.0,1.0,b80eed9284
46,./expes/v3_2021-01-29_di_300-prng-1-w1-p10,daily_issda-300,300,first-300,56,18,rng,num-start-221,221,536,classic,8.911866426467896,True,,True,1.0,1.0,1.0,1,"Index(['1', '6', '10', '16', '27', '31', '32', '39', '43', '45', '47', '58',
       '70', '74', '75', '84', '88', '99', '103', '108', '115', '117', '134',
       '138', '141', '161', '173', '174', '180', '183', '186', '189', '192',
       '196', '197', '198', '206', '208', '215', '217', '226', '228', '236',
       '241', '243', '245', '248', '260', '261', '263', '271', '277', '278',
       '285', '286', '296'],
      dtype='object')",False,1000,True,10,1.0,1.0,8c2cf583d2
47,./expes/v3_2021-01-29_di_300-prng-1-w1-p10,daily_issda-300,300,first-300,35,11,rng,num-start-281,281,536,classic,10.045933723449709,True,,True,1.0,1.0,1.0,1,"Index(['1', '6', '10', '31', '32', '39', '45', '47', '74', '75', '84', '103',
       '108', '115', '117', '138', '141', '173', '174', '180', '189', '192',
       '196', '208', '217', '226', '228', '236', '243', '248', '261', '263',
       '271', '286', '296'],
      dtype='object')",False,1000,True,10,1.0,1.0,b9fe8d61d1
48,./expes/v3_2021-01-29_di_300-prng-1-w1-p10,daily_issda-300,300,first-300,105,35,rng,num-start-131,131,536,classic,5.671283483505249,True,,True,1.0,1.0,1.0,1,"Index(['1', '2', '3', '5', '7', '12', '14', '15', '16', '18',
       ...
       '276', '277', '278', '281', '284', '285', '288', '292', '296', '297'],
      dtype='object', length=105)",False,1000,True,10,1.0,1.0,e34b7de6f7
49,./expes/v3_2021-01-29_di_300-prng-1-w1-p10,daily_issda-300,300,first-300,84,28,rng,num-start-161,161,536,classic,7.829358577728271,True,,True,1.0,1.0,1.0,1,"Index(['2', '8', '16', '20', '22', '23', '37', '38', '44', '58', '61', '65',
       '67', '68', '70', '71', '72', '73', '76', '82', '85', '91', '92', '94',
       '96', '99', '100', '104', '109', '110', '116', '119', '120', '121',
       '122', '129', '130', '132', '133', '135', '142', '144', '149', '151',
       '152', '161', '175', '178', '180', '183', '184', '187', '188', '191',
       '192', '200', '203', '212', '218', '220', '221', '224', '226', '228',
       '230', '231', '236', '238', '250', '252', '255', '267', '268', '273',
       '275', '282', '284', '285', '289', '290', '292', '296', '298', '299'],
      dtype='object')",False,1000,True,10,1.0,1.0,8365be3bd3
50,./expes/v3_2021-01-29_di_300-prng-1-w1-p10,daily_issda-300,300,first-300,42,14,rng,num-start-191,191,536,classic,8.165756464004517,True,,True,1.0,1.0,1.0,1,"Index(['3', '8', '17', '18', '23', '39', '69', '72', '83', '90', '100', '106',
       '121', '123', '128', '135', '143', '146', '156', '161', '168', '182',
       '185', '186', '188', '193', '196', '216', '220', '226', '231', '234',
       '237', '248', '251', '252', '267', '275', '282', '293', '296', '299'],
      dtype='object')",False,1000,True,10,1.0,1.0,263a22c05c
51,./expes/v3_2021-01-29_di_300-prng-1-w1-p10,daily_issda-300,300,first-300,119,39,rng,num-start-31,31,536,classic,1001.1962614059448,False,,False,0.0,,,0,"Index(['1', '2', '3', '4', '5', '7', '9', '10', '13', '14',
       ...
       '276', '277', '284', '285', '287', '290', '294', '295', '297', '300'],
      dtype='object', length=119)",True,1000,True,10,0.0,0.0,6c383cfca8
52,./expes/v3_2021-01-29_di_300-prng-1-w1-p10,daily_issda-300,300,first-300,112,37,rng,num-start-41,41,536,classic,1001.465439081192,False,,False,0.0,,,0,"Index(['4', '5', '10', '11', '14', '22', '23', '24', '29', '31',
       ...
       '266', '267', '274', '275', '281', '282', '286', '293', '294', '299'],
      dtype='object', length=112)",True,1000,True,10,0.0,0.0,91f8302815
53,./expes/v3_2021-01-29_di_300-prng-1-w1-p10,daily_issda-300,300,first-300,140,46,rng,num-start-211,211,536,classic,8.062049865722656,True,,True,1.0,1.0,1.0,1,"Index(['2', '3', '5', '6', '8', '9', '10', '16', '19', '22',
       ...
       '282', '285', '286', '290', '292', '293', '295', '296', '297', '298'],
      dtype='object', length=140)",False,1000,True,10,1.0,1.0,eea3acf1da
54,./expes/v3_2021-01-29_di_300-prng-1-w1-p10,daily_issda-300,300,first-300,84,28,rng,num-start-91,91,536,classic,29.21259617805481,True,,True,1.0,1.0,1.0,1,"Index(['4', '41', '45', '46', '48', '52', '59', '61', '63', '65', '67', '68',
       '69', '74', '75', '76', '78', '83', '87', '90', '93', '94', '98', '101',
       '102', '103', '104', '105', '106', '111', '113', '121', '122', '123',
       '128', '130', '133', '136', '139', '140', '145', '152', '154', '155',
       '156', '167', '172', '174', '176', '178', '181', '185', '188', '198',
       '202', '204', '205', '208', '209', '214', '224', '230', '235', '241',
       '245', '246', '251', '252', '253', '254', '257', '260', '263', '268',
       '270', '273', '274', '276', '279', '283', '291', '294', '295', '297'],
      dtype='object')",False,1000,True,10,1.0,1.0,e91521a147
55,./expes/v3_2021-01-29_di_300-prng-1-w1-p10,daily_issda-300,300,first-300,56,18,rng,num-start-261,261,536,classic,11.228254795074465,True,,True,1.0,1.0,1.0,1,"Index(['20', '24', '25', '26', '30', '31', '32', '33', '36', '38', '45', '47',
       '49', '50', '53', '61', '64', '69', '74', '78', '93', '97', '106',
       '110', '114', '115', '124', '149', '158', '161', '166', '188', '191',
       '203', '204', '215', '218', '219', '223', '239', '255', '260', '273',
       '275', '277', '281', '283', '286', '287', '289', '290', '293', '296',
       '298', '299', '300'],
      dtype='object')",False,1000,True,10,1.0,1.0,7a634a9d39
56,./expes/v3_2021-01-29_di_300-prng-1-w1-p10,daily_issda-300,300,first-300,84,28,rng,num-start-181,181,536,classic,8.501543760299683,True,,True,1.0,1.0,1.0,1,"Index(['1', '7', '9', '12', '15', '19', '24', '28', '40', '42', '44', '46',
       '48', '49', '50', '60', '62', '65', '71', '75', '87', '89', '95', '97',
       '99', '100', '101', '102', '103', '108', '115', '126', '129', '134',
       '136', '137', '138', '140', '149', '150', '156', '157', '160', '164',
       '171', '172', '183', '185', '186', '192', '194', '195', '200', '204',
       '210', '212', '217', '218', '219', '221', '226', '228', '229', '232',
       '241', '242', '248', '249', '250', '251', '257', '258', '264', '265',
       '268', '269', '271', '276', '277', '284', '286', '289', '294', '295'],
      dtype='object')",False,1000,True,10,1.0,1.0,f8957d46db
57,./expes/v3_2021-01-29_di_300-prng-1-w1-p10,daily_issda-300,300,first-300,140,46,rng,num-start-31,31,536,classic,1001.1455931663512,False,,False,0.0,,,0,"Index(['2', '3', '8', '16', '17', '18', '19', '20', '22', '23',
       ...
       '284', '285', '287', '289', '290', '292', '296', '298', '299', '300'],
      dtype='object', length=140)",True,1000,True,10,0.0,0.0,571141cd84
58,./expes/v3_2021-01-29_di_300-prng-1-w1-p10,daily_issda-300,300,first-300,98,32,rng,num-start-121,121,536,classic,10.58277440071106,True,,True,1.0,1.0,1.0,1,"Index(['1', '8', '9', '17', '20', '21', '32', '33', '36', '38', '42', '43',
       '46', '47', '48', '49', '51', '52', '56', '60', '64', '67', '72', '73',
       '76', '77', '88', '95', '96', '97', '98', '105', '111', '112', '113',
       '114', '121', '123', '124', '125', '129', '133', '134', '139', '141',
       '142', '145', '148', '149', '150', '155', '156', '159', '162', '163',
       '164', '167', '170', '171', '172', '182', '183', '184', '191', '198',
       '201', '205', '208', '215', '216', '223', '227', '228', '230', '231',
       '242', '244', '245', '249', '250', '251', '253', '259', '261', '262',
       '267', '268', '269', '273', '277', '279', '281', '283', '287', '291',
       '295', '297', '299'],
      dtype='object')",False,1000,True,10,1.0,1.0,54c99122bb
59,./expes/v3_2021-01-29_di_300-prng-1-w1-p10,daily_issda-300,300,first-300,133,44,rng,num-start-1,1,536,classic,11.706932306289673,False,,True,0.3191469356364233,0.296449520224758,0.340619526604213,100,"Index(['1', '2', '3', '5', '7', '8', '9', '12', '13', '14',
       ...
       '281', '282', '283', '284', '285', '288', '292', '296', '297', '300'],
      dtype='object', length=133)",False,1000,True,10,1.0,1.0,3506dfe433
60,./expes/v3_2021-01-29_di_300-prng-1-w1-p10,daily_issda-300,300,first-300,56,18,rng,num-start-41,41,536,classic,1001.5381348133088,False,,False,0.0,,,0,"Index(['3', '8', '17', '18', '19', '23', '34', '37', '39', '69', '72', '81',
       '83', '90', '100', '106', '115', '121', '123', '128', '135', '143',
       '146', '155', '156', '161', '167', '168', '182', '185', '186', '188',
       '193', '196', '212', '216', '220', '224', '226', '231', '234', '237',
       '241', '248', '251', '252', '255', '257', '267', '274', '275', '282',
       '293', '296', '299', '300'],
      dtype='object')",True,1000,True,10,0.0,0.0,29f79fd675
61,./expes/v3_2021-01-29_di_300-prng-1-w1-p10,daily_issda-300,300,first-300,63,21,rng,num-start-221,221,536,classic,8.124505281448364,True,,True,1.0,1.0,1.0,1,"Index(['1', '3', '8', '9', '16', '19', '22', '27', '31', '33', '35', '36',
       '38', '43', '44', '47', '49', '56', '73', '81', '95', '96', '98', '101',
       '102', '108', '110', '118', '120', '124', '131', '143', '148', '149',
       '151', '156', '162', '168', '193', '198', '203', '204', '206', '209',
       '215', '226', '229', '232', '235', '238', '239', '241', '244', '256',
       '261', '263', '266', '271', '276', '283', '287', '289', '290'],
      dtype='object')",False,1000,True,10,1.0,1.0,e134939e88
62,./expes/v3_2021-01-29_di_300-prng-1-w1-p10,daily_issda-300,300,first-300,56,18,rng,num-start-291,291,536,classic,11.739156484603882,True,,True,1.0,1.0,1.0,1,"Index(['8', '16', '37', '38', '44', '61', '65', '67', '68', '70', '72', '76',
       '91', '92', '96', '100', '104', '110', '116', '119', '120', '121',
       '130', '132', '133', '135', '142', '144', '149', '151', '161', '178',
       '183', '187', '188', '191', '203', '220', '221', '224', '226', '228',
       '230', '231', '236', '238', '250', '252', '268', '273', '275', '282',
       '284', '289', '290', '296'],
      dtype='object')",False,1000,True,10,1.0,1.0,479334cc1e
63,./expes/v3_2021-01-29_di_300-prng-1-w1-p10,daily_issda-300,300,first-300,21,7,rng,num-start-291,291,536,classic,11.432037353515623,True,,True,1.0,1.0,1.0,1,"Index(['1', '6', '31', '74', '75', '84', '108', '117', '138', '141', '174',
       '180', '189', '192', '196', '226', '236', '243', '248', '271', '286'],
      dtype='object')",False,1000,True,10,1.0,1.0,8369293916
64,./expes/v3_2021-01-29_di_300-prng-1-w1-p10,daily_issda-300,300,first-300,70,23,rng,num-start-221,221,536,classic,9.456972360610962,True,,True,1.0,1.0,1.0,1,"Index(['1', '7', '9', '12', '15', '19', '24', '42', '46', '48', '49', '50',
       '60', '62', '65', '71', '75', '87', '97', '99', '100', '101', '102',
       '103', '108', '115', '126', '129', '134', '136', '138', '140', '149',
       '150', '156', '157', '160', '164', '171', '172', '183', '185', '186',
       '192', '194', '195', '200', '210', '212', '218', '221', '228', '241',
       '248', '249', '250', '251', '257', '258', '264', '268', '269', '271',
       '276', '277', '284', '286', '289', '294', '295'],
      dtype='object')",False,1000,True,10,1.0,1.0,04547d1301
65,./expes/v3_2021-01-29_di_300-prng-1-w1-p10,daily_issda-300,300,first-300,7,2,rng,num-start-111,111,536,classic,4.430714845657349,True,,True,1.0,1.0,1.0,1,"Index(['6', '9', '19', '81', '107', '123', '267'], dtype='object')",False,1000,True,10,1.0,1.0,8c34c284df
66,./expes/v3_2021-01-29_di_300-prng-1-w1-p10,daily_issda-300,300,first-300,70,23,rng,num-start-121,121,536,classic,5.422773838043213,True,,True,1.0,1.0,1.0,1,"Index(['1', '7', '9', '12', '15', '19', '24', '42', '46', '48', '49', '50',
       '60', '62', '65', '71', '75', '87', '97', '99', '100', '101', '102',
       '103', '108', '115', '126', '129', '134', '136', '138', '140', '149',
       '150', '156', '157', '160', '164', '171', '172', '183', '185', '186',
       '192', '194', '195', '200', '210', '212', '218', '221', '228', '241',
       '248', '249', '250', '251', '257', '258', '264', '268', '269', '271',
       '276', '277', '284', '286', '289', '294', '295'],
      dtype='object')",False,1000,True,10,1.0,1.0,cc9a6468fa
67,./expes/v3_2021-01-29_di_300-prng-1-w1-p10,daily_issda-300,300,first-300,14,4,rng,num-start-151,151,536,classic,6.212229490280151,True,,True,1.0,1.0,1.0,1,"Index(['7', '34', '67', '99', '120', '122', '133', '190', '241', '243', '277',
       '279', '283', '298'],
      dtype='object')",False,1000,True,10,1.0,1.0,378910afdd
68,./expes/v3_2021-01-29_di_300-prng-1-w1-p10,daily_issda-300,300,first-300,126,42,rng,num-start-161,161,536,classic,6.81559944152832,True,,True,1.0,1.0,1.0,1,"Index(['3', '4', '5', '6', '10', '24', '30', '34', '40', '41',
       ...
       '283', '285', '286', '287', '290', '291', '293', '294', '295', '297'],
      dtype='object', length=126)",False,1000,True,10,1.0,1.0,2c734c1a65
69,./expes/v3_2021-01-29_di_300-prng-1-w1-p10,daily_issda-300,300,first-300,105,35,rng,num-start-101,101,536,classic,45.87286376953125,True,,True,1.0,1.0,1.0,1,"Index(['1', '2', '3', '4', '5', '9', '10', '13', '14', '18',
       ...
       '276', '277', '284', '285', '287', '290', '294', '295', '297', '300'],
      dtype='object', length=105)",False,1000,True,10,1.0,1.0,0e438d30c6
70,./expes/v3_2021-01-29_di_300-prng-1-w1-p10,daily_issda-300,300,first-300,119,39,rng,num-start-161,161,536,classic,6.861245155334473,True,,True,1.0,1.0,1.0,1,"Index(['2', '4', '5', '9', '12', '13', '14', '21', '23', '24',
       ...
       '271', '278', '280', '281', '288', '292', '293', '296', '297', '300'],
      dtype='object', length=119)",False,1000,True,10,1.0,1.0,a7985b8321
71,./expes/v3_2021-01-29_di_300-prng-1-w1-p10,daily_issda-300,300,first-300,21,7,rng,num-start-261,261,536,classic,9.808247804641724,True,,True,1.0,1.0,1.0,1,"Index(['11', '31', '35', '47', '53', '55', '80', '89', '114', '121', '135',
       '142', '149', '156', '185', '203', '206', '246', '267', '275', '282'],
      dtype='object')",False,1000,True,10,1.0,1.0,c542322464
72,./expes/v3_2021-01-29_di_300-prng-1-w1-p10,daily_issda-300,300,first-300,63,21,rng,num-start-251,251,536,classic,9.88443636894226,True,,True,1.0,1.0,1.0,1,"Index(['2', '5', '12', '14', '15', '16', '18', '33', '49', '52', '53', '61',
       '62', '69', '89', '96', '98', '108', '111', '113', '114', '118', '119',
       '120', '125', '131', '137', '146', '149', '152', '156', '163', '171',
       '177', '188', '192', '195', '196', '200', '202', '207', '213', '214',
       '217', '222', '225', '229', '231', '236', '242', '246', '250', '254',
       '256', '257', '259', '260', '271', '278', '281', '284', '285', '292'],
      dtype='object')",False,1000,True,10,1.0,1.0,add67f4547
73,./expes/v3_2021-01-29_di_300-prng-1-w1-p10,daily_issda-300,300,first-300,56,18,rng,num-start-1,1,536,classic,13.284027099609377,False,,True,0.4635456458953759,0.4393028706128324,0.4892460815447508,100,"Index(['7', '8', '15', '16', '19', '22', '33', '34', '50', '67', '69', '70',
       '78', '82', '84', '99', '112', '119', '120', '122', '133', '138', '144',
       '155', '168', '173', '180', '188', '190', '198', '199', '200', '203',
       '204', '209', '216', '219', '224', '228', '241', '243', '244', '254',
       '260', '268', '274', '277', '278', '279', '282', '283', '293', '294',
       '296', '298', '300'],
      dtype='object')",False,1000,True,10,1.0,1.0,f2023a9ec9
74,./expes/v3_2021-01-29_di_300-prng-1-w1-p10,daily_issda-300,300,first-300,49,16,rng,num-start-21,21,536,classic,1000.8290436267852,False,,False,0.0,,,0,"Index(['6', '15', '36', '38', '43', '49', '55', '58', '61', '63', '77', '83',
       '85', '93', '100', '105', '112', '115', '127', '131', '134', '135',
       '139', '141', '145', '150', '156', '162', '173', '184', '185', '187',
       '196', '202', '204', '207', '225', '231', '232', '239', '249', '250',
       '257', '264', '265', '270', '283', '297', '299'],
      dtype='object')",True,1000,True,10,0.0,0.0,b7b2d21816
75,./expes/v3_2021-01-29_di_300-prng-1-w1-p10,daily_issda-300,300,first-300,105,35,rng,num-start-261,261,536,classic,11.93890905380249,True,,True,1.0,1.0,1.0,1,"Index(['4', '6', '7', '8', '11', '15', '16', '17', '19', '22',
       ...
       '282', '283', '287', '292', '293', '294', '296', '297', '298', '300'],
      dtype='object', length=105)",False,1000,True,10,1.0,1.0,6a879a5577
76,./expes/v3_2021-01-29_di_300-prng-1-w1-p10,daily_issda-300,300,first-300,77,25,rng,num-start-41,41,536,classic,1001.5181143283844,False,,False,0.0,,,0,"Index(['1', '7', '9', '12', '15', '19', '24', '28', '40', '42', '46', '48',
       '49', '50', '60', '62', '65', '71', '75', '87', '95', '97', '99', '100',
       '101', '102', '103', '108', '115', '126', '129', '134', '136', '138',
       '140', '149', '150', '156', '157', '160', '164', '171', '172', '183',
       '185', '186', '192', '194', '195', '200', '204', '210', '212', '217',
       '218', '221', '226', '228', '229', '241', '248', '249', '250', '251',
       '257', '258', '264', '268', '269', '271', '276', '277', '284', '286',
       '289', '294', '295'],
      dtype='object')",True,1000,True,10,0.0,0.0,386d8dbeae
77,./expes/v3_2021-01-29_di_300-prng-1-w1-p10,daily_issda-300,300,first-300,56,18,rng,num-start-171,171,536,classic,7.187288761138916,True,,True,1.0,1.0,1.0,1,"Index(['2', '3', '4', '5', '9', '13', '21', '23', '27', '29', '33', '42', '43',
       '45', '53', '57', '58', '63', '68', '69', '71', '72', '81', '87', '96',
       '102', '103', '104', '105', '108', '115', '122', '137', '144', '150',
       '170', '172', '174', '175', '192', '194', '195', '197', '204', '211',
       '216', '217', '218', '232', '238', '252', '258', '260', '277', '284',
       '297'],
      dtype='object')",False,1000,True,10,1.0,1.0,e869526ff3
78,./expes/v3_2021-01-29_di_300-prng-1-w1-p10,daily_issda-300,300,first-300,28,9,rng,num-start-111,111,536,classic,4.960554599761963,True,,True,1.0,1.0,1.0,1,"Index(['11', '16', '23', '44', '46', '65', '71', '99', '108', '117', '120',
       '127', '137', '190', '193', '200', '206', '207', '209', '233', '236',
       '243', '249', '250', '254', '260', '267', '294'],
      dtype='object')",False,1000,True,10,1.0,1.0,23457da5ad
79,./expes/v3_2021-01-29_di_300-prng-1-w1-p10,daily_issda-300,300,first-300,126,42,rng,num-start-221,221,536,classic,10.20678687095642,True,,True,1.0,1.0,1.0,1,"Index(['4', '6', '7', '8', '11', '12', '14', '15', '16', '17',
       ...
       '282', '283', '287', '292', '293', '294', '296', '297', '298', '300'],
      dtype='object', length=126)",False,1000,True,10,1.0,1.0,f5a590b39e
80,./expes/v3_2021-01-29_di_300-prng-1-w1-p10,daily_issda-300,300,first-300,105,35,rng,num-start-1,1,536,classic,13.603317022323608,False,,True,0.3509148624811234,0.325574690326824,0.3717891839267345,100,"Index(['2', '3', '8', '17', '18', '19', '23', '33', '34', '37',
       ...
       '276', '278', '279', '282', '287', '291', '293', '296', '299', '300'],
      dtype='object', length=105)",False,1000,True,10,1.0,1.0,0380e3bb4f
81,./expes/v3_2021-01-29_di_300-prng-1-w1-p10,daily_issda-300,300,first-300,126,42,rng,num-start-181,181,536,classic,8.357499361038208,True,,True,1.0,1.0,1.0,1,"Index(['1', '2', '3', '5', '7', '8', '9', '12', '14', '15',
       ...
       '281', '282', '283', '284', '285', '288', '292', '296', '297', '300'],
      dtype='object', length=126)",False,1000,True,10,1.0,1.0,090905b258
82,./expes/v3_2021-01-29_di_300-prng-1-w1-p10,daily_issda-300,300,first-300,84,28,rng,num-start-251,251,536,classic,10.071021556854248,True,,True,1.0,1.0,1.0,1,"Index(['4', '41', '45', '46', '48', '52', '59', '61', '63', '65', '67', '68',
       '69', '74', '75', '76', '78', '83', '87', '90', '93', '94', '98', '101',
       '102', '103', '104', '105', '106', '111', '113', '121', '122', '123',
       '128', '130', '133', '136', '139', '140', '145', '152', '154', '155',
       '156', '167', '172', '174', '176', '178', '181', '185', '188', '198',
       '202', '204', '205', '208', '209', '214', '224', '230', '235', '241',
       '245', '246', '251', '252', '253', '254', '257', '260', '263', '268',
       '270', '273', '274', '276', '279', '283', '291', '294', '295', '297'],
      dtype='object')",False,1000,True,10,1.0,1.0,f4a8c17f7f
83,./expes/v3_2021-01-29_di_300-prng-1-w1-p10,daily_issda-300,300,first-300,98,32,rng,num-start-241,241,536,classic,12.117517232894896,True,,True,1.0,1.0,1.0,1,"Index(['3', '8', '17', '18', '19', '23', '33', '34', '37', '39', '41', '42',
       '50', '58', '62', '69', '72', '74', '77', '81', '82', '83', '85', '86',
       '90', '91', '92', '98', '100', '106', '115', '121', '123', '124', '125',
       '126', '128', '135', '137', '140', '141', '143', '146', '155', '156',
       '161', '164', '167', '168', '170', '178', '179', '182', '185', '186',
       '188', '192', '193', '196', '197', '200', '206', '208', '212', '213',
       '216', '220', '222', '223', '224', '226', '227', '229', '230', '231',
       '234', '237', '241', '246', '248', '251', '252', '254', '255', '256',
       '257', '267', '268', '269', '274', '275', '279', '282', '291', '293',
       '296', '299', '300'],
      dtype='object')",False,1000,True,10,1.0,1.0,d8b901dd47
84,./expes/v3_2021-01-29_di_300-prng-1-w1-p10,daily_issda-300,300,first-300,105,35,rng,num-start-151,151,536,classic,6.554022789001465,True,,True,1.0,1.0,1.0,1,"Index(['1', '4', '7', '9', '10', '12', '15', '19', '24', '28',
       ...
       '269', '271', '276', '277', '284', '286', '287', '289', '294', '295'],
      dtype='object', length=105)",False,1000,True,10,1.0,1.0,3c2b7e7a9a
85,./expes/v3_2021-01-29_di_300-prng-1-w1-p10,daily_issda-300,300,first-300,140,46,rng,num-start-31,31,536,classic,1001.1488585472108,False,,False,0.0,,,0,"Index(['3', '4', '5', '6', '10', '24', '30', '34', '39', '40',
       ...
       '283', '285', '286', '287', '290', '291', '293', '294', '295', '297'],
      dtype='object', length=140)",True,1000,True,10,0.0,0.0,9af3b88888
86,./expes/v3_2021-01-29_di_300-prng-1-w1-p10,daily_issda-300,300,first-300,42,14,rng,num-start-141,141,536,classic,5.903515815734863,True,,True,1.0,1.0,1.0,1,"Index(['8', '16', '37', '44', '61', '65', '67', '70', '72', '76', '91', '92',
       '96', '104', '110', '116', '119', '120', '132', '133', '135', '142',
       '149', '151', '161', '178', '183', '187', '220', '221', '224', '226',
       '228', '230', '231', '250', '268', '273', '275', '282', '284', '289'],
      dtype='object')",False,1000,True,10,1.0,1.0,40be951a61
87,./expes/v3_2021-01-29_di_300-prng-1-w1-p10,daily_issda-300,300,first-300,84,28,rng,num-start-81,81,536,classic,1002.745129108429,False,,False,0.0,,,0,"Index(['3', '4', '5', '6', '7', '8', '11', '12', '15', '17', '23', '24', '25',
       '34', '37', '41', '43', '45', '48', '52', '59', '63', '73', '74', '79',
       '80', '85', '89', '92', '113', '114', '115', '117', '119', '121', '122',
       '123', '125', '130', '131', '133', '145', '146', '151', '152', '155',
       '156', '159', '163', '164', '172', '179', '186', '190', '192', '202',
       '205', '208', '210', '214', '216', '217', '228', '229', '233', '234',
       '236', '238', '241', '244', '245', '247', '251', '252', '254', '256',
       '262', '265', '268', '277', '278', '289', '297', '299'],
      dtype='object')",True,1000,True,10,0.0,0.0,6384f57df3
88,./expes/v3_2021-01-29_di_300-prng-1-w1-p10,daily_issda-300,300,first-300,77,25,rng,num-start-271,271,536,classic,10.842329978942873,True,,True,1.0,1.0,1.0,1,"Index(['3', '8', '17', '18', '19', '23', '34', '37', '39', '42', '50', '58',
       '62', '69', '72', '74', '77', '81', '83', '86', '90', '92', '98', '100',
       '106', '115', '121', '123', '126', '128', '135', '137', '141', '143',
       '146', '155', '156', '161', '167', '168', '179', '182', '185', '186',
       '188', '192', '193', '196', '197', '212', '213', '216', '220', '222',
       '224', '226', '227', '229', '231', '234', '237', '241', '248', '251',
       '252', '255', '257', '267', '268', '274', '275', '282', '291', '293',
       '296', '299', '300'],
      dtype='object')",False,1000,True,10,1.0,1.0,eb39e99dae
89,./expes/v3_2021-01-29_di_300-prng-1-w1-p10,daily_issda-300,300,first-300,49,16,rng,num-start-121,121,536,classic,5.220519781112671,True,,True,1.0,1.0,1.0,1,"Index(['1', '12', '15', '19', '24', '42', '46', '48', '49', '50', '62', '75',
       '99', '100', '101', '102', '103', '126', '129', '134', '136', '140',
       '150', '156', '164', '172', '183', '185', '186', '192', '210', '212',
       '218', '221', '228', '241', '249', '250', '251', '257', '258', '264',
       '269', '276', '277', '284', '289', '294', '295'],
      dtype='object')",False,1000,True,10,1.0,1.0,b6bc4b0de6
90,./expes/v3_2021-01-29_di_300-prng-1-w1-p10,daily_issda-300,300,first-300,98,32,rng,num-start-161,161,536,classic,7.203289747238159,True,,True,1.0,1.0,1.0,1,"Index(['3', '5', '10', '11', '14', '26', '27', '28', '30', '32', '33', '36',
       '39', '42', '44', '48', '49', '57', '60', '64', '67', '71', '72', '73',
       '78', '83', '88', '90', '94', '99', '101', '102', '108', '109', '110',
       '116', '123', '124', '128', '129', '130', '133', '137', '140', '142',
       '143', '149', '156', '157', '158', '159', '160', '162', '163', '164',
       '170', '171', '172', '173', '179', '182', '185', '188', '191', '192',
       '197', '201', '206', '207', '208', '210', '213', '215', '222', '240',
       '243', '245', '246', '249', '257', '260', '268', '269', '270', '273',
       '275', '277', '278', '279', '283', '284', '285', '286', '287', '289',
       '293', '295', '297'],
      dtype='object')",False,1000,True,10,1.0,1.0,7d2100142d
91,./expes/v3_2021-01-29_di_300-prng-1-w1-p10,daily_issda-300,300,first-300,133,44,rng,num-start-71,71,536,classic,1002.560239315033,False,,False,0.0,,,0,"Index(['2', '3', '8', '13', '17', '18', '19', '23', '24', '26',
       ...
       '278', '279', '282', '287', '291', '293', '295', '296', '299', '300'],
      dtype='object', length=133)",True,1000,True,10,0.0,0.0,8b6f78901f
92,./expes/v3_2021-01-29_di_300-prng-1-w1-p10,daily_issda-300,300,first-300,28,9,rng,num-start-41,41,536,classic,1001.4463503360748,False,,False,0.0,,,0,"Index(['7', '15', '27', '37', '53', '58', '65', '68', '72', '81', '82', '94',
       '111', '127', '128', '131', '144', '184', '191', '195', '200', '209',
       '228', '239', '241', '272', '279', '294'],
      dtype='object')",True,1000,True,10,0.0,0.0,a3bdc915da
93,./expes/v3_2021-01-29_di_300-prng-1-w1-p10,daily_issda-300,300,first-300,119,39,rng,num-start-171,171,536,classic,7.506572008132935,True,,True,1.0,1.0,1.0,1,"Index(['3', '4', '5', '10', '30', '34', '40', '41', '45', '46',
       ...
       '281', '283', '285', '286', '287', '291', '293', '294', '295', '297'],
      dtype='object', length=119)",False,1000,True,10,1.0,1.0,8c52d100b5
94,./expes/v3_2021-01-29_di_300-prng-1-w1-p10,daily_issda-300,300,first-300,126,42,rng,num-start-11,11,536,classic,1000.4828457832336,False,,False,0.0,,,0,"Index(['1', '2', '3', '5', '7', '10', '12', '15', '17', '19',
       ...
       '272', '273', '274', '277', '279', '280', '282', '289', '294', '297'],
      dtype='object', length=126)",True,1000,True,10,0.0,0.0,5aa48817bb
95,./expes/v3_2021-01-29_di_300-prng-1-w1-p10,daily_issda-300,300,first-300,63,21,rng,num-start-111,111,536,classic,5.488011598587036,True,,True,1.0,1.0,1.0,1,"Index(['3', '10', '14', '26', '27', '30', '32', '33', '36', '42', '57', '60',
       '64', '67', '71', '72', '73', '78', '90', '99', '101', '108', '110',
       '123', '128', '129', '130', '137', '142', '143', '149', '156', '159',
       '163', '170', '173', '182', '185', '188', '191', '192', '197', '206',
       '208', '210', '213', '215', '222', '243', '245', '257', '260', '268',
       '270', '273', '277', '283', '284', '285', '286', '287', '293', '297'],
      dtype='object')",False,1000,True,10,1.0,1.0,f9e599c356
96,./expes/v3_2021-01-29_di_300-prng-1-w1-p10,daily_issda-300,300,first-300,119,39,rng,num-start-21,21,536,classic,1000.839173555374,False,,False,0.0,,,0,"Index(['1', '3', '5', '11', '13', '15', '16', '17', '19', '21',
       ...
       '270', '272', '279', '283', '286', '287', '288', '291', '295', '298'],
      dtype='object', length=119)",True,1000,True,10,0.0,0.0,ffa49ad354
97,./expes/v3_2021-01-29_di_300-prng-1-w1-p10,daily_issda-300,300,first-300,133,44,rng,num-start-271,271,536,classic,10.733819723129272,True,,True,1.0,1.0,1.0,1,"Index(['3', '5', '6', '10', '11', '14', '15', '26', '27', '28',
       ...
       '284', '285', '286', '287', '289', '291', '293', '295', '296', '297'],
      dtype='object', length=133)",False,1000,True,10,1.0,1.0,5e3f55e114
98,./expes/v3_2021-01-29_di_300-prng-1-w1-p10,daily_issda-300,300,first-300,35,11,rng,num-start-31,31,536,classic,1001.3430013656616,False,,False,0.0,,,0,"Index(['11', '14', '31', '35', '45', '47', '53', '55', '80', '85', '89', '92',
       '100', '110', '114', '121', '128', '134', '135', '140', '142', '149',
       '156', '159', '173', '185', '191', '199', '203', '206', '246', '260',
       '267', '275', '282'],
      dtype='object')",True,1000,True,10,0.0,0.0,cb42eb241f
99,./expes/v3_2021-01-29_di_300-prng-1-w1-p10,daily_issda-300,300,first-300,98,32,rng,num-start-1,1,536,classic,12.123534440994264,False,,True,0.3345869357106202,0.3060220816405117,0.3508430988780543,100,"Index(['3', '4', '5', '6', '7', '8', '11', '12', '15', '16', '17', '20', '23',
       '24', '25', '31', '34', '37', '41', '43', '45', '48', '52', '54', '59',
       '60', '63', '73', '74', '76', '79', '80', '85', '89', '92', '102',
       '113', '114', '115', '117', '119', '121', '122', '123', '125', '126',
       '130', '131', '133', '134', '138', '145', '146', '151', '152', '155',
       '156', '159', '163', '164', '172', '179', '186', '190', '192', '199',
       '202', '205', '208', '209', '210', '214', '216', '217', '228', '229',
       '233', '234', '236', '238', '239', '241', '244', '245', '247', '251',
       '252', '254', '256', '262', '265', '268', '270', '277', '278', '289',
       '297', '299'],
      dtype='object')",False,1000,True,10,1.0,1.0,c684fece15
100,./expes/v3_2021-01-29_di_300-prng-1-w1-p10,daily_issda-300,300,first-300,126,42,rng,num-start-141,141,536,classic,7.130476713180542,True,,True,1.0,1.0,1.0,1,"Index(['2', '3', '8', '16', '17', '19', '20', '22', '23', '24',
       ...
       '282', '284', '285', '287', '289', '290', '292', '296', '298', '299'],
      dtype='object', length=126)",False,1000,True,10,1.0,1.0,b8cd32d6e3
101,./expes/v3_2021-01-29_di_300-prng-1-w1-p10,daily_issda-300,300,first-300,21,7,rng,num-start-291,291,536,classic,11.245561838150024,True,,True,1.0,1.0,1.0,1,"Index(['7', '34', '67', '78', '99', '119', '120', '122', '133', '190', '200',
       '204', '241', '243', '244', '268', '277', '279', '282', '283', '298'],
      dtype='object')",False,1000,True,10,1.0,1.0,b232342194
102,./expes/v3_2021-01-29_di_300-prng-1-w1-p10,daily_issda-300,300,first-300,77,25,rng,num-start-91,91,536,classic,120.4544050693512,True,,True,1.0,1.0,1.0,1,"Index(['2', '8', '16', '20', '22', '23', '37', '38', '44', '61', '65', '67',
       '68', '70', '71', '72', '73', '76', '82', '91', '92', '96', '100',
       '104', '109', '110', '116', '119', '120', '121', '122', '129', '130',
       '132', '133', '135', '142', '144', '149', '151', '161', '178', '180',
       '183', '184', '187', '188', '191', '192', '200', '203', '212', '218',
       '220', '221', '224', '226', '228', '230', '231', '236', '238', '250',
       '252', '255', '267', '268', '273', '275', '282', '284', '289', '290',
       '292', '296', '298', '299'],
      dtype='object')",False,1000,True,10,1.0,1.0,aa69930e7e
103,./expes/v3_2021-01-29_di_300-prng-1-w1-p10,daily_issda-300,300,first-300,14,4,rng,num-start-161,161,536,classic,6.688026905059815,True,,True,1.0,1.0,1.0,1,"Index(['15', '33', '49', '61', '69', '108', '131', '195', '200', '231', '242',
       '250', '254', '292'],
      dtype='object')",False,1000,True,10,1.0,1.0,c9182eaeaa
104,./expes/v3_2021-01-29_di_300-prng-1-w1-p10,daily_issda-300,300,first-300,35,11,rng,num-start-51,51,536,classic,1002.2070138454436,False,,False,0.0,,,0,"Index(['21', '32', '38', '49', '51', '52', '72', '76', '105', '112', '129',
       '133', '134', '145', '156', '159', '162', '170', '182', '184', '198',
       '208', '216', '223', '227', '242', '245', '249', '259', '262', '267',
       '273', '283', '287', '299'],
      dtype='object')",True,1000,True,10,0.0,0.0,8626c28530
105,./expes/v3_2021-01-29_di_300-prng-1-w1-p10,daily_issda-300,300,first-300,84,28,rng,num-start-181,181,536,classic,7.82450532913208,True,,True,1.0,1.0,1.0,1,"Index(['20', '21', '24', '25', '26', '30', '31', '32', '33', '34', '36', '38',
       '40', '42', '45', '47', '48', '49', '50', '53', '61', '64', '69', '74',
       '78', '85', '93', '97', '106', '110', '114', '115', '124', '125', '128',
       '139', '148', '149', '154', '158', '159', '161', '166', '175', '176',
       '180', '186', '188', '191', '203', '204', '215', '216', '218', '219',
       '223', '230', '233', '234', '239', '243', '251', '254', '255', '260',
       '263', '269', '273', '275', '277', '281', '283', '286', '287', '289',
       '290', '293', '294', '295', '296', '297', '298', '299', '300'],
      dtype='object')",False,1000,True,10,1.0,1.0,7a588c0735
106,./expes/v3_2021-01-29_di_300-prng-1-w1-p10,daily_issda-300,300,first-300,7,2,rng,num-start-101,101,536,classic,4.274165391921997,True,,True,1.0,1.0,1.0,1,"Index(['29', '44', '47', '87', '129', '158', '185'], dtype='object')",False,1000,True,10,1.0,1.0,2b4a19fa8b
107,./expes/v3_2021-01-29_di_300-prng-1-w1-p10,daily_issda-300,300,first-300,98,32,rng,num-start-171,171,536,classic,7.091161489486694,True,,True,1.0,1.0,1.0,1,"Index(['2', '4', '5', '9', '12', '14', '23', '24', '35', '37', '38', '39',
       '40', '44', '47', '51', '52', '54', '56', '58', '59', '62', '65', '66',
       '69', '71', '76', '79', '82', '88', '90', '94', '99', '103', '104',
       '107', '108', '120', '126', '134', '135', '138', '141', '146', '147',
       '149', '151', '154', '155', '158', '160', '167', '168', '178', '189',
       '193', '199', '200', '202', '203', '207', '209', '211', '213', '216',
       '217', '220', '221', '224', '225', '226', '231', '232', '233', '234',
       '235', '237', '238', '239', '240', '241', '244', '246', '253', '257',
       '258', '259', '262', '267', '271', '278', '280', '281', '292', '293',
       '296', '297', '300'],
      dtype='object')",False,1000,True,10,1.0,1.0,21b3536fc4
108,./expes/v3_2021-01-29_di_300-prng-1-w1-p10,daily_issda-300,300,first-300,91,30,rng,num-start-151,151,536,classic,6.786320209503174,True,,True,1.0,1.0,1.0,1,"Index(['6', '8', '9', '10', '19', '22', '23', '25', '29', '31', '32', '33',
       '34', '38', '41', '48', '52', '60', '72', '73', '76', '78', '81', '82',
       '85', '89', '92', '101', '106', '107', '115', '118', '119', '121',
       '123', '131', '134', '135', '140', '144', '147', '148', '152', '157',
       '159', '160', '161', '162', '163', '173', '174', '177', '182', '183',
       '185', '189', '193', '199', '200', '201', '203', '206', '208', '215',
       '216', '225', '227', '231', '234', '237', '239', '240', '243', '244',
       '247', '251', '252', '253', '254', '256', '257', '258', '262', '267',
       '272', '274', '279', '285', '290', '292', '296'],
      dtype='object')",False,1000,True,10,1.0,1.0,0df1198e78
109,./expes/v3_2021-01-29_di_300-prng-1-w1-p10,daily_issda-300,300,first-300,70,23,rng,num-start-231,231,536,classic,9.619240283966064,True,,True,1.0,1.0,1.0,1,"Index(['13', '15', '19', '29', '44', '47', '70', '82', '83', '85', '86', '87',
       '89', '91', '94', '107', '109', '114', '119', '121', '128', '129',
       '138', '143', '156', '158', '159', '160', '164', '167', '180', '182',
       '185', '186', '187', '191', '195', '202', '205', '209', '213', '217',
       '221', '228', '229', '233', '234', '237', '239', '246', '250', '251',
       '256', '257', '258', '259', '260', '261', '262', '264', '266', '269',
       '270', '272', '279', '286', '287', '288', '291', '298'],
      dtype='object')",False,1000,True,10,1.0,1.0,beb553f52d
110,./expes/v3_2021-01-29_di_300-prng-1-w1-p10,daily_issda-300,300,first-300,112,37,rng,num-start-251,251,536,classic,10.637645244598389,True,,True,1.0,1.0,1.0,1,"Index(['2', '3', '8', '17', '18', '19', '23', '26', '33', '34',
       ...
       '276', '278', '279', '282', '287', '291', '293', '296', '299', '300'],
      dtype='object', length=112)",False,1000,True,10,1.0,1.0,48de4a159b
111,./expes/v3_2021-01-29_di_300-prng-1-w1-p10,daily_issda-300,300,first-300,21,7,rng,num-start-21,21,536,classic,1000.8504185676576,False,,False,0.0,,,0,"Index(['14', '32', '57', '71', '72', '90', '128', '130', '143', '149', '156',
       '163', '188', '197', '206', '213', '215', '257', '268', '277', '283'],
      dtype='object')",True,1000,True,10,0.0,0.0,47f6b6cc72
112,./expes/v3_2021-01-29_di_300-prng-1-w1-p10,daily_issda-300,300,first-300,98,32,rng,num-start-51,51,536,classic,1001.7844905853271,False,,False,0.0,,,0,"Index(['5', '6', '8', '9', '10', '19', '22', '23', '25', '29', '31', '32',
       '33', '34', '38', '41', '42', '44', '48', '52', '60', '72', '73', '76',
       '78', '81', '82', '85', '89', '92', '101', '106', '107', '115', '118',
       '119', '121', '123', '131', '134', '135', '140', '144', '147', '148',
       '152', '157', '159', '160', '161', '162', '163', '171', '173', '174',
       '177', '182', '183', '185', '189', '193', '195', '199', '200', '201',
       '203', '206', '208', '215', '216', '223', '225', '227', '230', '231',
       '234', '237', '239', '240', '243', '244', '247', '251', '252', '253',
       '254', '256', '257', '258', '262', '267', '272', '274', '279', '285',
       '290', '292', '296'],
      dtype='object')",True,1000,True,10,0.0,0.0,fe383c0f25
113,./expes/v3_2021-01-29_di_300-prng-1-w1-p10,daily_issda-300,300,first-300,119,39,rng,num-start-121,121,536,classic,12.837898969650269,True,,True,1.0,1.0,1.0,1,"Index(['1', '4', '5', '6', '10', '13', '14', '15', '16', '17',
       ...
       '270', '271', '277', '278', '280', '282', '285', '286', '294', '296'],
      dtype='object', length=119)",False,1000,True,10,1.0,1.0,ac02a432a1
114,./expes/v3_2021-01-29_di_300-prng-1-w1-p10,daily_issda-300,300,first-300,126,42,rng,num-start-241,241,536,classic,10.24094557762146,True,,True,1.0,1.0,1.0,1,"Index(['4', '6', '7', '8', '11', '12', '14', '15', '16', '17',
       ...
       '282', '283', '287', '292', '293', '294', '296', '297', '298', '300'],
      dtype='object', length=126)",False,1000,True,10,1.0,1.0,cc80cdc7b5
115,./expes/v3_2021-01-29_di_300-prng-1-w1-p10,daily_issda-300,300,first-300,91,30,rng,num-start-61,61,536,classic,1002.1676037311554,False,,False,0.0,,,0,"Index(['4', '7', '8', '11', '15', '16', '17', '19', '22', '23', '24', '33',
       '34', '35', '40', '46', '50', '54', '56', '61', '64', '67', '69', '70',
       '78', '80', '82', '84', '99', '102', '109', '112', '119', '120', '121',
       '122', '133', '135', '137', '138', '143', '144', '146', '150', '151',
       '155', '159', '161', '168', '170', '173', '174', '177', '180', '188',
       '190', '194', '198', '199', '200', '203', '204', '209', '211', '213',
       '216', '219', '224', '228', '241', '243', '244', '247', '248', '254',
       '259', '260', '268', '274', '275', '277', '278', '279', '282', '283',
       '292', '293', '294', '296', '298', '300'],
      dtype='object')",True,1000,True,10,0.0,0.0,4dbdf13e1c
116,./expes/v3_2021-01-29_di_300-prng-1-w1-p10,daily_issda-300,300,first-300,119,39,rng,num-start-131,131,536,classic,13.036849737167358,True,,True,1.0,1.0,1.0,1,"Index(['4', '6', '7', '8', '11', '12', '15', '16', '17', '19',
       ...
       '282', '283', '287', '292', '293', '294', '296', '297', '298', '300'],
      dtype='object', length=119)",False,1000,True,10,1.0,1.0,d89afe5b3d
117,./expes/v3_2021-01-29_di_300-prng-1-w1-p10,daily_issda-300,300,first-300,140,46,rng,num-start-171,171,536,classic,7.319011926651001,True,,True,1.0,1.0,1.0,1,"Index(['1', '2', '3', '5', '7', '10', '12', '15', '17', '18',
       ...
       '274', '277', '279', '280', '281', '282', '287', '289', '294', '297'],
      dtype='object', length=140)",False,1000,True,10,1.0,1.0,af4d577bc1
118,./expes/v3_2021-01-29_di_300-prng-1-w1-p10,daily_issda-300,300,first-300,84,28,rng,num-start-171,171,536,classic,7.2030205726623535,True,,True,1.0,1.0,1.0,1,"Index(['4', '41', '45', '46', '48', '52', '59', '61', '63', '65', '67', '68',
       '69', '74', '75', '76', '78', '83', '87', '90', '93', '94', '98', '101',
       '102', '103', '104', '105', '106', '111', '113', '121', '122', '123',
       '128', '130', '133', '136', '139', '140', '145', '152', '154', '155',
       '156', '167', '172', '174', '176', '178', '181', '185', '188', '198',
       '202', '204', '205', '208', '209', '214', '224', '230', '235', '241',
       '245', '246', '251', '252', '253', '254', '257', '260', '263', '268',
       '270', '273', '274', '276', '279', '283', '291', '294', '295', '297'],
      dtype='object')",False,1000,True,10,1.0,1.0,76b5c78b02
119,./expes/v3_2021-01-29_di_300-prng-1-w1-p10,daily_issda-300,300,first-300,70,23,rng,num-start-31,31,536,classic,1001.1363382339478,False,,False,0.0,,,0,"Index(['2', '4', '9', '12', '14', '23', '37', '38', '47', '51', '54', '56',
       '59', '62', '66', '69', '71', '76', '82', '94', '99', '103', '104',
       '107', '120', '126', '134', '135', '138', '146', '149', '154', '160',
       '167', '168', '178', '189', '193', '199', '200', '202', '203', '209',
       '211', '213', '217', '220', '226', '231', '232', '233', '234', '235',
       '239', '244', '246', '253', '257', '258', '262', '267', '271', '278',
       '280', '281', '292', '293', '296', '297', '300'],
      dtype='object')",True,1000,True,10,0.0,0.0,ca5c03eb20
120,./expes/v3_2021-01-29_di_300-prng-1-w1-p10,daily_issda-300,300,first-300,35,11,rng,num-start-211,211,536,classic,8.558535814285278,True,,True,1.0,1.0,1.0,1,"Index(['11', '16', '23', '33', '44', '46', '50', '59', '65', '71', '99', '108',
       '117', '120', '127', '133', '137', '190', '193', '194', '195', '198',
       '200', '206', '207', '209', '233', '236', '243', '249', '250', '254',
       '260', '267', '294'],
      dtype='object')",False,1000,True,10,1.0,1.0,8677b9da9a
121,./expes/v3_2021-01-29_di_300-prng-1-w1-p10,daily_issda-300,300,first-300,14,4,rng,num-start-191,191,536,classic,8.014067888259888,True,,True,1.0,1.0,1.0,1,"Index(['11', '31', '35', '47', '53', '80', '114', '121', '149', '156', '203',
       '206', '246', '282'],
      dtype='object')",False,1000,True,10,1.0,1.0,53872cf9f5
122,./expes/v3_2021-01-29_di_300-prng-1-w1-p10,daily_issda-300,300,first-300,28,9,rng,num-start-1,1,536,classic,11.780731439590454,False,,True,0.5766556669137081,0.5672287325853695,0.5910695899452346,100,"Index(['8', '16', '37', '44', '65', '67', '72', '76', '96', '110', '116',
       '119', '120', '132', '133', '135', '142', '149', '151', '183', '220',
       '221', '224', '231', '250', '273', '282', '289'],
      dtype='object')",False,1000,True,10,1.0,1.0,2b2a6849ee
123,./expes/v3_2021-01-29_di_300-prng-1-w1-p10,daily_issda-300,300,first-300,119,39,rng,num-start-101,101,536,classic,1003.7021872997284,False,,False,0.0,,,0,"Index(['1', '2', '3', '5', '7', '10', '12', '15', '17', '19',
       ...
       '269', '272', '274', '277', '279', '280', '282', '289', '294', '297'],
      dtype='object', length=119)",True,1000,True,10,0.0,0.0,0fb4caf22f
124,./expes/v3_2021-01-29_di_300-prng-1-w1-p10,daily_issda-300,300,first-300,133,44,rng,num-start-141,141,536,classic,6.584553241729736,True,,True,1.0,1.0,1.0,1,"Index(['2', '3', '8', '13', '17', '18', '19', '23', '24', '26',
       ...
       '278', '279', '282', '287', '291', '293', '295', '296', '299', '300'],
      dtype='object', length=133)",False,1000,True,10,1.0,1.0,8f2ca74daf
125,./expes/v3_2021-01-29_di_300-prng-1-w1-p10,daily_issda-300,300,first-300,28,9,rng,num-start-221,221,536,classic,8.860390663146973,True,,True,1.0,1.0,1.0,1,"Index(['61', '63', '87', '90', '93', '94', '101', '102', '103', '104', '111',
       '121', '122', '123', '130', '136', '152', '167', '172', '188', '230',
       '235', '246', '251', '253', '260', '268', '295'],
      dtype='object')",False,1000,True,10,1.0,1.0,f78e5d3f52
126,./expes/v3_2021-01-29_di_300-prng-1-w1-p10,daily_issda-300,300,first-300,112,37,rng,num-start-211,211,536,classic,9.262849807739258,True,,True,1.0,1.0,1.0,1,"Index(['7', '12', '20', '21', '24', '25', '26', '30', '31', '32',
       ...
       '289', '290', '293', '294', '295', '296', '297', '298', '299', '300'],
      dtype='object', length=112)",False,1000,True,10,1.0,1.0,6de4941e94
127,./expes/v3_2021-01-29_di_300-prng-1-w1-p10,daily_issda-300,300,first-300,42,14,rng,num-start-71,71,536,classic,5.8312828540802,True,,True,1.0,1.0,1.0,1,"Index(['3', '4', '6', '11', '12', '15', '23', '43', '45', '73', '79', '89',
       '113', '114', '115', '117', '122', '130', '133', '145', '146', '151',
       '152', '155', '159', '172', '179', '186', '210', '214', '216', '217',
       '229', '234', '238', '241', '247', '254', '265', '268', '289', '297'],
      dtype='object')",False,1000,True,10,1.0,1.0,966fc95179
128,./expes/v3_2021-01-29_di_300-prng-1-w1-p10,daily_issda-300,300,first-300,56,18,rng,num-start-151,151,536,classic,6.035593509674072,True,,True,1.0,1.0,1.0,1,"Index(['11', '16', '20', '23', '30', '33', '44', '45', '46', '50', '56', '59',
       '65', '71', '73', '76', '99', '100', '107', '108', '117', '120', '121',
       '127', '133', '137', '147', '174', '190', '193', '194', '195', '198',
       '200', '206', '207', '209', '228', '233', '234', '236', '243', '249',
       '250', '251', '254', '255', '260', '265', '267', '277', '286', '294',
       '297', '298', '300'],
      dtype='object')",False,1000,True,10,1.0,1.0,eb7a6f0566
129,./expes/v3_2021-01-29_di_300-prng-1-w1-p10,daily_issda-300,300,first-300,14,4,rng,num-start-71,71,536,classic,2.93445348739624,True,,True,1.0,1.0,1.0,1,"Index(['20', '25', '30', '38', '45', '49', '78', '110', '166', '188', '203',
       '260', '275', '299'],
      dtype='object')",False,1000,True,10,1.0,1.0,2e3e54b248
130,./expes/v3_2021-01-29_di_300-prng-1-w1-p10,daily_issda-300,300,first-300,133,44,rng,num-start-221,221,536,classic,8.562455415725708,True,,True,1.0,1.0,1.0,1,"Index(['1', '4', '7', '8', '9', '10', '11', '12', '15', '16',
       ...
       '277', '283', '284', '286', '287', '289', '292', '294', '295', '297'],
      dtype='object', length=133)",False,1000,True,10,1.0,1.0,aec1b871cd
131,./expes/v3_2021-01-29_di_300-prng-1-w1-p10,daily_issda-300,300,first-300,14,4,rng,num-start-261,261,536,classic,10.813353300094604,True,,True,1.0,1.0,1.0,1,"Index(['1', '6', '74', '117', '138', '141', '180', '192', '196', '236', '243',
       '248', '271', '286'],
      dtype='object')",False,1000,True,10,1.0,1.0,a0a9c23062
132,./expes/v3_2021-01-29_di_300-prng-1-w1-p10,daily_issda-300,300,first-300,14,4,rng,num-start-91,91,536,classic,3.845415353775024,True,,True,1.0,1.0,1.0,1,"Index(['15', '27', '58', '81', '127', '128', '131', '184', '191', '195', '239',
       '241', '272', '279'],
      dtype='object')",False,1000,True,10,1.0,1.0,c194496328
133,./expes/v3_2021-01-29_di_300-prng-1-w1-p10,daily_issda-300,300,first-300,77,25,rng,num-start-31,31,536,classic,1001.2040736675262,False,,False,0.0,,,0,"Index(['4', '41', '45', '46', '48', '52', '59', '61', '63', '68', '69', '75',
       '76', '78', '83', '87', '90', '93', '94', '98', '101', '102', '103',
       '104', '105', '106', '111', '113', '121', '122', '123', '128', '130',
       '133', '136', '139', '140', '145', '152', '154', '156', '167', '172',
       '174', '176', '178', '181', '188', '198', '202', '205', '208', '209',
       '224', '230', '235', '241', '245', '246', '251', '252', '253', '254',
       '257', '260', '263', '268', '270', '273', '274', '276', '279', '283',
       '291', '294', '295', '297'],
      dtype='object')",True,1000,True,10,0.0,0.0,7da804b560
134,./expes/v3_2021-01-29_di_300-prng-1-w1-p10,daily_issda-300,300,first-300,77,25,rng,num-start-1,1,536,classic,11.661401748657228,False,,True,0.3687713528092247,0.3457113439123753,0.3879690042168361,100,"Index(['4', '11', '14', '23', '24', '31', '32', '35', '42', '45', '46', '47',
       '52', '53', '55', '75', '80', '83', '85', '89', '92', '95', '100',
       '101', '102', '104', '110', '114', '118', '120', '121', '127', '128',
       '133', '134', '135', '140', '142', '144', '148', '149', '150', '154',
       '156', '157', '159', '160', '165', '166', '173', '176', '183', '185',
       '191', '199', '203', '206', '212', '217', '221', '224', '226', '232',
       '237', '242', '243', '246', '260', '261', '266', '267', '274', '275',
       '281', '282', '286', '294'],
      dtype='object')",False,1000,True,10,1.0,1.0,312993af8e
135,./expes/v3_2021-01-29_di_300-prng-1-w1-p10,daily_issda-300,300,first-300,98,32,rng,num-start-61,61,536,classic,1002.075252532959,False,,False,0.0,,,0,"Index(['2', '4', '5', '9', '12', '14', '23', '24', '35', '37', '38', '39',
       '40', '44', '47', '51', '52', '54', '56', '58', '59', '62', '65', '66',
       '69', '71', '76', '79', '82', '88', '90', '94', '99', '103', '104',
       '107', '108', '120', '126', '134', '135', '138', '141', '146', '147',
       '149', '151', '154', '155', '158', '160', '167', '168', '178', '189',
       '193', '199', '200', '202', '203', '207', '209', '211', '213', '216',
       '217', '220', '221', '224', '225', '226', '231', '232', '233', '234',
       '235', '237', '238', '239', '240', '241', '244', '246', '253', '257',
       '258', '259', '262', '267', '271', '278', '280', '281', '292', '293',
       '296', '297', '300'],
      dtype='object')",True,1000,True,10,0.0,0.0,27f00b43d5
136,./expes/v3_2021-01-29_di_300-prng-1-w1-p10,daily_issda-300,300,first-300,119,39,rng,num-start-141,141,536,classic,13.38214874267578,True,,True,1.0,1.0,1.0,1,"Index(['2', '3', '8', '17', '18', '19', '23', '26', '33', '34',
       ...
       '276', '278', '279', '282', '287', '291', '293', '296', '299', '300'],
      dtype='object', length=119)",False,1000,True,10,1.0,1.0,abd8e7fbcb
137,./expes/v3_2021-01-29_di_300-prng-1-w1-p10,daily_issda-300,300,first-300,7,2,rng,num-start-111,111,536,classic,4.540466070175171,True,,True,1.0,1.0,1.0,1,"Index(['38', '55', '127', '131', '139', '150', '270'], dtype='object')",False,1000,True,10,1.0,1.0,d9b79e4005
138,./expes/v3_2021-01-29_di_300-prng-1-w1-p10,daily_issda-300,300,first-300,112,37,rng,num-start-291,291,536,classic,11.13268494606018,True,,True,1.0,1.0,1.0,1,"Index(['3', '4', '5', '10', '30', '41', '45', '46', '48', '52',
       ...
       '281', '283', '285', '286', '287', '291', '293', '294', '295', '297'],
      dtype='object', length=112)",False,1000,True,10,1.0,1.0,44160753fb
139,./expes/v3_2021-01-29_di_300-prng-1-w1-p10,daily_issda-300,300,first-300,112,37,rng,num-start-91,91,536,classic,1003.2907526493073,False,,False,0.0,,,0,"Index(['1', '4', '5', '6', '10', '13', '14', '15', '16', '17',
       ...
       '266', '271', '277', '278', '280', '282', '285', '286', '294', '296'],
      dtype='object', length=112)",True,1000,True,10,0.0,0.0,35a8a91547
140,./expes/v3_2021-01-29_di_300-prng-1-w1-p10,daily_issda-300,300,first-300,91,30,rng,num-start-211,211,536,classic,8.434616327285767,True,,True,1.0,1.0,1.0,1,"Index(['2', '8', '16', '20', '22', '23', '36', '37', '38', '44', '48', '58',
       '61', '65', '67', '68', '70', '71', '72', '73', '76', '82', '85', '86',
       '91', '92', '94', '96', '99', '100', '104', '109', '110', '116', '119',
       '120', '121', '122', '129', '130', '132', '133', '135', '142', '144',
       '149', '151', '152', '160', '161', '175', '176', '178', '180', '183',
       '184', '187', '188', '191', '192', '200', '203', '212', '218', '220',
       '221', '224', '226', '228', '230', '231', '236', '238', '250', '252',
       '255', '267', '268', '270', '273', '275', '279', '282', '284', '285',
       '289', '290', '292', '296', '298', '299'],
      dtype='object')",False,1000,True,10,1.0,1.0,579d140888
141,./expes/v3_2021-01-29_di_300-prng-1-w1-p10,daily_issda-300,300,first-300,28,9,rng,num-start-161,161,536,classic,6.676603317260742,True,,True,1.0,1.0,1.0,1,"Index(['6', '9', '19', '29', '60', '76', '81', '106', '107', '115', '118',
       '119', '123', '135', '144', '157', '161', '174', '177', '182', '183',
       '189', '201', '216', '239', '262', '267', '296'],
      dtype='object')",False,1000,True,10,1.0,1.0,4232b1e316
142,./expes/v3_2021-01-29_di_300-prng-1-w1-p10,daily_issda-300,300,first-300,49,16,rng,num-start-141,141,536,classic,5.957342147827148,True,,True,1.0,1.0,1.0,1,"Index(['4', '11', '14', '31', '35', '45', '46', '47', '53', '55', '80', '85',
       '89', '92', '100', '110', '114', '121', '127', '128', '134', '135',
       '140', '142', '144', '148', '149', '150', '154', '156', '159', '160',
       '173', '185', '191', '199', '203', '206', '212', '217', '243', '246',
       '260', '261', '267', '275', '281', '282', '294'],
      dtype='object')",False,1000,True,10,1.0,1.0,976288f796
143,./expes/v3_2021-01-29_di_300-prng-1-w1-p10,daily_issda-300,300,first-300,14,4,rng,num-start-231,231,536,classic,8.655296325683594,True,,True,1.0,1.0,1.0,1,"Index(['23', '56', '62', '76', '103', '134', '149', '178', '202', '211', '262',
       '267', '271', '300'],
      dtype='object')",False,1000,True,10,1.0,1.0,c8ae822861
144,./expes/v3_2021-01-29_di_300-prng-1-w1-p10,daily_issda-300,300,first-300,77,25,rng,num-start-221,221,536,classic,8.408278942108154,True,,True,1.0,1.0,1.0,1,"Index(['3', '4', '5', '6', '7', '8', '11', '12', '15', '17', '23', '34', '37',
       '41', '43', '45', '48', '52', '63', '73', '74', '79', '80', '85', '89',
       '113', '114', '115', '117', '119', '121', '122', '125', '130', '133',
       '145', '146', '151', '152', '155', '156', '159', '163', '164', '172',
       '179', '186', '190', '192', '202', '205', '208', '210', '214', '216',
       '217', '228', '229', '233', '234', '236', '238', '241', '244', '245',
       '247', '251', '252', '254', '256', '262', '265', '268', '277', '278',
       '289', '297'],
      dtype='object')",False,1000,True,10,1.0,1.0,cc4ec5ff75
145,./expes/v3_2021-01-29_di_300-prng-1-w1-p10,daily_issda-300,300,first-300,35,11,rng,num-start-221,221,536,classic,8.759895324707031,True,,True,1.0,1.0,1.0,1,"Index(['20', '24', '25', '26', '30', '31', '32', '36', '38', '45', '47', '49',
       '64', '69', '78', '110', '114', '115', '124', '149', '166', '188',
       '203', '204', '215', '218', '223', '260', '275', '283', '286', '290',
       '296', '299', '300'],
      dtype='object')",False,1000,True,10,1.0,1.0,948fb2a7e7
146,./expes/v3_2021-01-29_di_300-prng-1-w1-p10,daily_issda-300,300,first-300,91,30,rng,num-start-31,31,536,classic,1001.3975076675416,False,,False,0.0,,,0,"Index(['2', '8', '16', '20', '22', '23', '36', '37', '38', '44', '48', '58',
       '61', '65', '67', '68', '70', '71', '72', '73', '76', '82', '85', '86',
       '91', '92', '94', '96', '99', '100', '104', '109', '110', '116', '119',
       '120', '121', '122', '129', '130', '132', '133', '135', '142', '144',
       '149', '151', '152', '160', '161', '175', '176', '178', '180', '183',
       '184', '187', '188', '191', '192', '200', '203', '212', '218', '220',
       '221', '224', '226', '228', '230', '231', '236', '238', '250', '252',
       '255', '267', '268', '270', '273', '275', '279', '282', '284', '285',
       '289', '290', '292', '296', '298', '299'],
      dtype='object')",True,1000,True,10,0.0,0.0,db0e4b880b
147,./expes/v3_2021-01-29_di_300-prng-1-w1-p10,daily_issda-300,300,first-300,112,37,rng,num-start-81,81,536,classic,1002.833785533905,False,,False,0.0,,,0,"Index(['1', '2', '3', '4', '5', '9', '10', '13', '14', '16',
       ...
       '276', '277', '284', '285', '287', '290', '294', '295', '297', '300'],
      dtype='object', length=112)",True,1000,True,10,0.0,0.0,f3c466c182
148,./expes/v3_2021-01-29_di_300-prng-1-w1-p10,daily_issda-300,300,first-300,84,28,rng,num-start-31,31,536,classic,1001.1342947483064,False,,False,0.0,,,0,"Index(['2', '4', '9', '12', '14', '23', '24', '35', '37', '38', '40', '47',
       '51', '52', '54', '56', '59', '62', '66', '69', '71', '76', '82', '88',
       '94', '99', '103', '104', '107', '108', '120', '126', '134', '135',
       '138', '146', '149', '151', '154', '155', '158', '160', '167', '168',
       '178', '189', '193', '199', '200', '202', '203', '207', '209', '211',
       '213', '216', '217', '220', '225', '226', '231', '232', '233', '234',
       '235', '237', '238', '239', '244', '246', '253', '257', '258', '262',
       '267', '271', '278', '280', '281', '292', '293', '296', '297', '300'],
      dtype='object')",True,1000,True,10,0.0,0.0,1b8d1e0075
149,./expes/v3_2021-01-29_di_300-prng-1-w1-p10,daily_issda-300,300,first-300,126,42,rng,num-start-111,111,536,classic,63.76960372924805,True,,True,1.0,1.0,1.0,1,"Index(['3', '4', '5', '6', '7', '8', '11', '12', '15', '16',
       ...
       '265', '268', '270', '274', '277', '278', '289', '294', '297', '299'],
      dtype='object', length=126)",False,1000,True,10,1.0,1.0,095bb6ccbf
150,./expes/v3_2021-01-29_di_300-prng-1-w1-p10,daily_issda-300,300,first-300,77,25,rng,num-start-1,1,536,classic,11.754067420959473,False,,True,0.3938859013388737,0.3717891839267345,0.4333694024201373,100,"Index(['7', '8', '11', '15', '16', '19', '22', '23', '24', '33', '34', '35',
       '46', '50', '54', '61', '64', '67', '69', '70', '78', '82', '84', '99',
       '109', '112', '119', '120', '122', '133', '137', '138', '143', '144',
       '146', '151', '155', '168', '170', '173', '177', '180', '188', '190',
       '194', '198', '199', '200', '203', '204', '209', '211', '213', '216',
       '219', '224', '228', '241', '243', '244', '247', '248', '254', '260',
       '268', '274', '277', '278', '279', '282', '283', '292', '293', '294',
       '296', '298', '300'],
      dtype='object')",False,1000,True,10,1.0,1.0,650e77d659
151,./expes/v3_2021-01-29_di_300-prng-1-w1-p10,daily_issda-300,300,first-300,84,28,rng,num-start-111,111,536,classic,12.003785848617554,True,,True,1.0,1.0,1.0,1,"Index(['20', '21', '24', '25', '26', '30', '31', '32', '33', '34', '36', '38',
       '40', '42', '45', '47', '48', '49', '50', '53', '61', '64', '69', '74',
       '78', '85', '93', '97', '106', '110', '114', '115', '124', '125', '128',
       '139', '148', '149', '154', '158', '159', '161', '166', '175', '176',
       '180', '186', '188', '191', '203', '204', '215', '216', '218', '219',
       '223', '230', '233', '234', '239', '243', '251', '254', '255', '260',
       '263', '269', '273', '275', '277', '281', '283', '286', '287', '289',
       '290', '293', '294', '295', '296', '297', '298', '299', '300'],
      dtype='object')",False,1000,True,10,1.0,1.0,7f0ec9e3f9
152,./expes/v3_2021-01-29_di_300-prng-1-w1-p10,daily_issda-300,300,first-300,35,11,rng,num-start-131,131,536,classic,6.020204782485962,True,,True,1.0,1.0,1.0,1,"Index(['11', '16', '23', '33', '44', '46', '50', '59', '65', '71', '99', '108',
       '117', '120', '127', '133', '137', '190', '193', '194', '195', '198',
       '200', '206', '207', '209', '233', '236', '243', '249', '250', '254',
       '260', '267', '294'],
      dtype='object')",False,1000,True,10,1.0,1.0,05c1704f38
153,./expes/v3_2021-01-29_di_300-prng-1-w1-p10,daily_issda-300,300,first-300,7,2,rng,num-start-161,161,536,classic,6.397637605667114,True,,True,1.0,1.0,1.0,1,"Index(['23', '44', '65', '99', '117', '190', '193'], dtype='object')",False,1000,True,10,1.0,1.0,3014d77925
154,./expes/v3_2021-01-29_di_300-prng-1-w1-p10,daily_issda-300,300,first-300,49,16,rng,num-start-231,231,536,classic,9.345340251922607,True,,True,1.0,1.0,1.0,1,"Index(['6', '9', '10', '19', '29', '34', '41', '60', '72', '76', '81', '89',
       '101', '106', '107', '115', '118', '119', '123', '135', '144', '147',
       '157', '161', '162', '174', '177', '182', '183', '185', '189', '201',
       '208', '215', '216', '225', '231', '234', '237', '239', '251', '252',
       '262', '267', '272', '274', '290', '292', '296'],
      dtype='object')",False,1000,True,10,1.0,1.0,5d66aa3bf6
155,./expes/v3_2021-01-29_di_300-prng-1-w1-p10,daily_issda-300,300,first-300,133,44,rng,num-start-261,261,536,classic,12.162260055541992,True,,True,1.0,1.0,1.0,1,"Index(['1', '2', '4', '5', '6', '10', '13', '14', '15', '16',
       ...
       '270', '271', '277', '278', '280', '282', '285', '286', '294', '296'],
      dtype='object', length=133)",False,1000,True,10,1.0,1.0,393378047d
156,./expes/v3_2021-01-29_di_300-prng-1-w1-p10,daily_issda-300,300,first-300,77,25,rng,num-start-181,181,536,classic,7.607566356658935,True,,True,1.0,1.0,1.0,1,"Index(['1', '2', '3', '5', '7', '10', '12', '15', '24', '27', '30', '34', '37',
       '53', '58', '61', '65', '68', '72', '75', '81', '82', '85', '86', '91',
       '93', '94', '95', '101', '102', '105', '108', '111', '126', '127',
       '128', '131', '132', '136', '144', '149', '153', '155', '157', '159',
       '161', '162', '170', '174', '177', '182', '184', '185', '188', '191',
       '193', '195', '197', '200', '207', '209', '213', '215', '228', '232',
       '237', '239', '241', '242', '247', '263', '272', '277', '279', '282',
       '294', '297'],
      dtype='object')",False,1000,True,10,1.0,1.0,dbd2cc8739
157,./expes/v3_2021-01-29_di_300-prng-1-w1-p10,daily_issda-300,300,first-300,56,18,rng,num-start-1,1,536,classic,12.83419704437256,False,,True,0.4565543375643341,0.4274974259233285,0.4827393998881283,100,"Index(['1', '12', '15', '19', '24', '42', '46', '48', '49', '50', '60', '62',
       '71', '75', '99', '100', '101', '102', '103', '115', '126', '129',
       '134', '136', '138', '140', '150', '156', '160', '164', '172', '183',
       '185', '186', '192', '195', '210', '212', '218', '221', '228', '241',
       '248', '249', '250', '251', '257', '258', '264', '269', '276', '277',
       '284', '289', '294', '295'],
      dtype='object')",False,1000,True,10,1.0,1.0,b592658720
158,./expes/v3_2021-01-29_di_300-prng-1-w1-p10,daily_issda-300,300,first-300,84,28,rng,num-start-21,21,536,classic,1000.7468330860138,False,,False,0.0,,,0,"Index(['6', '10', '11', '15', '35', '36', '38', '43', '46', '48', '49', '53',
       '55', '58', '59', '61', '63', '74', '77', '83', '85', '87', '93', '100',
       '105', '112', '115', '121', '127', '131', '132', '134', '135', '137',
       '139', '141', '143', '144', '145', '150', '156', '159', '162', '173',
       '178', '183', '184', '185', '187', '189', '196', '198', '202', '204',
       '207', '208', '211', '214', '217', '218', '224', '225', '226', '231',
       '232', '234', '236', '239', '242', '243', '246', '249', '250', '251',
       '257', '264', '265', '270', '274', '283', '292', '293', '297', '299'],
      dtype='object')",True,1000,True,10,0.0,0.0,502da9b0fa
159,./expes/v3_2021-01-29_di_300-prng-1-w1-p10,daily_issda-300,300,first-300,112,37,rng,num-start-181,181,536,classic,7.959703207015991,True,,True,1.0,1.0,1.0,1,"Index(['7', '9', '11', '14', '16', '18', '20', '23', '30', '33',
       ...
       '273', '277', '280', '286', '289', '292', '294', '297', '298', '300'],
      dtype='object', length=112)",False,1000,True,10,1.0,1.0,4740071dcd
160,./expes/v3_2021-01-29_di_300-prng-1-w1-p10,daily_issda-300,300,first-300,112,37,rng,num-start-11,11,536,classic,1000.4332966804504,False,,False,0.0,,,0,"Index(['2', '4', '5', '9', '12', '13', '14', '21', '23', '24',
       ...
       '269', '271', '278', '280', '281', '292', '293', '296', '297', '300'],
      dtype='object', length=112)",True,1000,True,10,0.0,0.0,099e6155c8
161,./expes/v3_2021-01-29_di_300-prng-1-w1-p10,daily_issda-300,300,first-300,105,35,rng,num-start-201,201,536,classic,8.06957221031189,True,,True,1.0,1.0,1.0,1,"Index(['1', '3', '5', '6', '8', '9', '11', '16', '19', '22',
       ...
       '266', '271', '276', '283', '287', '289', '290', '295', '296', '299'],
      dtype='object', length=105)",False,1000,True,10,1.0,1.0,93e6e9a4cc
162,./expes/v3_2021-01-29_di_300-prng-1-w1-p10,daily_issda-300,300,first-300,35,11,rng,num-start-71,71,536,classic,5.193237066268921,True,,True,1.0,1.0,1.0,1,"Index(['21', '32', '38', '49', '51', '52', '72', '76', '105', '112', '129',
       '133', '134', '145', '156', '159', '162', '170', '182', '184', '198',
       '208', '216', '223', '227', '242', '245', '249', '259', '262', '267',
       '273', '283', '287', '299'],
      dtype='object')",False,1000,True,10,1.0,1.0,e012f22b5d
163,./expes/v3_2021-01-29_di_300-prng-1-w1-p10,daily_issda-300,300,first-300,7,2,rng,num-start-211,211,536,classic,7.695407867431641,True,,True,1.0,1.0,1.0,1,"Index(['1', '19', '42', '75', '134', '249', '294'], dtype='object')",False,1000,True,10,1.0,1.0,c6209767e4
164,./expes/v3_2021-01-29_di_300-prng-1-w1-p10,daily_issda-300,300,first-300,112,37,rng,num-start-91,91,536,classic,1003.1073775291444,False,,False,0.0,,,0,"Index(['2', '4', '5', '9', '12', '13', '14', '21', '23', '24',
       ...
       '269', '271', '278', '280', '281', '292', '293', '296', '297', '300'],
      dtype='object', length=112)",True,1000,True,10,0.0,0.0,10cb0bbbf0
165,./expes/v3_2021-01-29_di_300-prng-1-w1-p10,daily_issda-300,300,first-300,70,23,rng,num-start-241,241,536,classic,9.150300979614258,True,,True,1.0,1.0,1.0,1,"Index(['1', '6', '10', '15', '16', '17', '27', '31', '32', '39', '43', '45',
       '47', '58', '59', '70', '74', '75', '84', '88', '92', '99', '103',
       '108', '115', '117', '121', '130', '134', '138', '141', '159', '161',
       '172', '173', '174', '180', '183', '186', '187', '189', '191', '192',
       '196', '197', '198', '206', '208', '215', '217', '221', '226', '228',
       '236', '241', '243', '245', '248', '257', '260', '261', '262', '263',
       '271', '277', '278', '285', '286', '294', '296'],
      dtype='object')",False,1000,True,10,1.0,1.0,7b0a87237c
166,./expes/v3_2021-01-29_di_300-prng-1-w1-p10,daily_issda-300,300,first-300,112,37,rng,num-start-41,41,536,classic,1001.4080200195312,False,,False,0.0,,,0,"Index(['1', '6', '10', '11', '13', '15', '17', '18', '22', '35',
       ...
       '270', '272', '274', '283', '287', '288', '292', '293', '297', '299'],
      dtype='object', length=112)",True,1000,True,10,0.0,0.0,b36ebc110b
167,./expes/v3_2021-01-29_di_300-prng-1-w1-p10,daily_issda-300,300,first-300,98,32,rng,num-start-61,61,536,classic,1002.0566215515136,False,,False,0.0,,,0,"Index(['3', '4', '5', '6', '7', '8', '11', '12', '15', '16', '17', '20', '23',
       '24', '25', '31', '34', '37', '41', '43', '45', '48', '52', '54', '59',
       '60', '63', '73', '74', '76', '79', '80', '85', '89', '92', '102',
       '113', '114', '115', '117', '119', '121', '122', '123', '125', '126',
       '130', '131', '133', '134', '138', '145', '146', '151', '152', '155',
       '156', '159', '163', '164', '172', '179', '186', '190', '192', '199',
       '202', '205', '208', '209', '210', '214', '216', '217', '228', '229',
       '233', '234', '236', '238', '239', '241', '244', '245', '247', '251',
       '252', '254', '256', '262', '265', '268', '270', '277', '278', '289',
       '297', '299'],
      dtype='object')",True,1000,True,10,0.0,0.0,57f1f14dff
168,./expes/v3_2021-01-29_di_300-prng-1-w1-p10,daily_issda-300,300,first-300,84,28,rng,num-start-41,41,536,classic,1001.5560178756714,False,,False,0.0,,,0,"Index(['6', '8', '9', '10', '19', '22', '25', '29', '33', '34', '38', '41',
       '48', '52', '60', '72', '73', '76', '78', '81', '85', '89', '92', '101',
       '106', '107', '115', '118', '119', '121', '123', '134', '135', '140',
       '144', '147', '148', '152', '157', '159', '160', '161', '162', '163',
       '173', '174', '177', '182', '183', '185', '189', '193', '199', '200',
       '201', '203', '206', '208', '215', '216', '225', '227', '231', '234',
       '237', '239', '240', '243', '244', '251', '252', '253', '254', '257',
       '258', '262', '267', '272', '274', '279', '285', '290', '292', '296'],
      dtype='object')",True,1000,True,10,0.0,0.0,d2fb16a5f1
