expe,clients,clients_size,clients_subset,agg_size,method,days,days_size,days_total,time,valid,valid_sum,success,nsols,wall_hit,wall_time,pooled,valid_sums
./expes/v2_2020-11-27_di_500-prng-3,daily_issda_500,500,first-500,171,rng,num-start-101,101,536,1008.3970704078674,False,,False,0,True,1000,True,0.0
./expes/v2_2020-11-27_di_500-prng-3,daily_issda_500,500,first-500,361,rng,num-start-71,71,536,1005.7369730472565,False,,False,0,True,1000,True,0.0
./expes/v2_2020-11-27_di_500-prng-3,daily_issda_500,500,first-500,111,rng,num-start-251,251,536,32.96418881416321,True,,True,1,False,1000,True,1.0
./expes/v2_2020-11-27_di_500-prng-3,daily_issda_500,500,first-500,41,rng,num-start-131,131,536,23.303635120391846,True,,True,1,False,1000,True,1.0
./expes/v2_2020-11-27_di_500-prng-3,daily_issda_500,500,first-500,151,rng,num-start-121,121,536,1009.7510514259338,False,,False,0,True,1000,True,0.0
./expes/v2_2020-11-27_di_500-prng-3,daily_issda_500,500,first-500,261,rng,num-start-271,271,536,41.00572109222412,True,,True,1,False,1000,True,1.0
./expes/v2_2020-11-27_di_500-prng-3,daily_issda_500,500,first-500,331,rng,num-start-41,41,536,1003.5882799625397,False,,False,0,True,1000,True,0.0
./expes/v2_2020-11-27_di_500-prng-3,daily_issda_500,500,first-500,451,rng,num-start-61,61,536,1004.7699320316315,False,,False,0,True,1000,True,0.0
./expes/v2_2020-11-27_di_500-prng-3,daily_issda_500,500,first-500,401,rng,num-start-231,231,536,29.268192052841187,True,,True,1,False,1000,True,1.0
./expes/v2_2020-11-27_di_500-prng-3,daily_issda_500,500,first-500,31,rng,num-start-21,21,536,1001.6788949966431,False,,False,0,True,1000,True,0.0
./expes/v2_2020-11-27_di_500-prng-3,daily_issda_500,500,first-500,81,rng,num-start-31,31,536,1002.6619622707367,False,,False,0,True,1000,True,0.0
./expes/v2_2020-11-27_di_500-prng-3,daily_issda_500,500,first-500,451,rng,num-start-281,281,536,29.016587257385254,True,,True,1,False,1000,True,1.0
./expes/v2_2020-11-27_di_500-prng-3,daily_issda_500,500,first-500,391,rng,num-start-151,151,536,304.3304193019867,True,,True,1,False,1000,True,1.0
./expes/v2_2020-11-27_di_500-prng-3,daily_issda_500,500,first-500,411,rng,num-start-191,191,536,21.68891668319702,True,,True,1,False,1000,True,1.0
./expes/v2_2020-11-27_di_500-prng-3,daily_issda_500,500,first-500,271,rng,num-start-191,191,536,1015.2327444553375,False,,False,0,True,1000,True,0.0
./expes/v2_2020-11-27_di_500-prng-3,daily_issda_500,500,first-500,431,rng,num-start-181,181,536,31.128339529037476,True,,True,1,False,1000,True,1.0
./expes/v2_2020-11-27_di_500-prng-3,daily_issda_500,500,first-500,11,rng,num-start-151,151,536,15.022037267684937,True,,True,1,False,1000,True,1.0
./expes/v2_2020-11-27_di_500-prng-3,daily_issda_500,500,first-500,211,rng,num-start-261,261,536,36.62418818473816,True,,True,1,False,1000,True,1.0
./expes/v2_2020-11-27_di_500-prng-3,daily_issda_500,500,first-500,191,rng,num-start-81,81,536,1006.297770023346,False,,False,0,True,1000,True,0.0
./expes/v2_2020-11-27_di_500-prng-3,daily_issda_500,500,first-500,391,rng,num-start-61,61,536,1004.8460440635681,False,,False,0,True,1000,True,0.0
./expes/v2_2020-11-27_di_500-prng-3,daily_issda_500,500,first-500,471,rng,num-start-281,281,536,29.753442764282227,True,,True,1,False,1000,True,1.0
./expes/v2_2020-11-27_di_500-prng-3,daily_issda_500,500,first-500,341,rng,num-start-141,141,536,1011.9409639835358,False,,False,0,True,1000,True,0.0
./expes/v2_2020-11-27_di_500-prng-3,daily_issda_500,500,first-500,411,rng,num-start-291,291,536,33.76382780075073,True,,True,1,False,1000,True,1.0
./expes/v2_2020-11-27_di_500-prng-3,daily_issda_500,500,first-500,461,rng,num-start-261,261,536,26.384336709976196,True,,True,1,False,1000,True,1.0
./expes/v2_2020-11-27_di_500-prng-3,daily_issda_500,500,first-500,441,rng,num-start-81,81,536,1006.4495825767517,False,,False,0,True,1000,True,0.0
./expes/v2_2020-11-27_di_500-prng-3,daily_issda_500,500,first-500,151,rng,num-start-91,91,536,1008.0361409187317,False,,False,0,True,1000,True,0.0
./expes/v2_2020-11-27_di_500-prng-3,daily_issda_500,500,first-500,151,rng,num-start-81,81,536,1006.3919856548309,False,,False,0,True,1000,True,0.0
./expes/v2_2020-11-27_di_500-prng-3,daily_issda_500,500,first-500,131,rng,num-start-121,121,536,1010.5104637145996,False,,False,0,True,1000,True,0.0
./expes/v2_2020-11-27_di_500-prng-3,daily_issda_500,500,first-500,11,rng,num-start-161,161,536,16.57645845413208,True,,True,1,False,1000,True,1.0
./expes/v2_2020-11-27_di_500-prng-3,daily_issda_500,500,first-500,221,rng,num-start-41,41,536,1003.3461828231812,False,,False,0,True,1000,True,0.0
./expes/v2_2020-11-27_di_500-prng-3,daily_issda_500,500,first-500,381,rng,num-start-161,161,536,156.79057908058167,True,,True,1,False,1000,True,1.0
./expes/v2_2020-11-27_di_500-prng-3,daily_issda_500,500,first-500,71,rng,num-start-211,211,536,28.859750747680664,True,,True,1,False,1000,True,1.0
./expes/v2_2020-11-27_di_500-prng-3,daily_issda_500,500,first-500,61,rng,num-start-271,271,536,33.76384472846985,True,,True,1,False,1000,True,1.0
./expes/v2_2020-11-27_di_500-prng-3,daily_issda_500,500,first-500,471,rng,num-start-191,191,536,20.24999475479126,True,,True,1,False,1000,True,1.0
./expes/v2_2020-11-27_di_500-prng-3,daily_issda_500,500,first-500,201,rng,num-start-291,291,536,56.80690956115723,True,,True,1,False,1000,True,1.0
./expes/v2_2020-11-27_di_500-prng-3,daily_issda_500,500,first-500,221,rng,num-start-81,81,536,1007.6157023906708,False,,False,0,True,1000,True,0.0
./expes/v2_2020-11-27_di_500-prng-3,daily_issda_500,500,first-500,481,rng,num-start-221,221,536,20.90157961845398,True,,True,1,False,1000,True,1.0
./expes/v2_2020-11-27_di_500-prng-3,daily_issda_500,500,first-500,361,rng,num-start-21,21,536,1001.7095463275909,False,,False,0,True,1000,True,0.0
./expes/v2_2020-11-27_di_500-prng-3,daily_issda_500,500,first-500,61,rng,num-start-251,251,536,28.963830709457397,True,,True,1,False,1000,True,1.0
./expes/v2_2020-11-27_di_500-prng-3,daily_issda_500,500,first-500,341,rng,num-start-51,51,536,1004.3638007640839,False,,False,0,True,1000,True,0.0
./expes/v2_2020-11-27_di_500-prng-3,daily_issda_500,500,first-500,141,rng,num-start-251,251,536,39.51044201850891,True,,True,1,False,1000,True,1.0
./expes/v2_2020-11-27_di_500-prng-3,daily_issda_500,500,first-500,351,rng,num-start-231,231,536,30.79340147972107,True,,True,1,False,1000,True,1.0
./expes/v2_2020-11-27_di_500-prng-3,daily_issda_500,500,first-500,31,rng,num-start-241,241,536,23.36912727355957,True,,True,1,False,1000,True,1.0
./expes/v2_2020-11-27_di_500-prng-3,daily_issda_500,500,first-500,331,rng,num-start-51,51,536,1004.2935311794281,False,,False,0,True,1000,True,0.0
./expes/v2_2020-11-27_di_500-prng-3,daily_issda_500,500,first-500,211,rng,num-start-101,101,536,1009.1111953258514,False,,False,0,True,1000,True,0.0
./expes/v2_2020-11-27_di_500-prng-3,daily_issda_500,500,first-500,441,rng,num-start-41,41,536,1003.8567671775818,False,,False,0,True,1000,True,0.0
./expes/v2_2020-11-27_di_500-prng-3,daily_issda_500,500,first-500,1,rng,num-start-81,81,536,7.029423236846924,True,,True,1,False,1000,True,1.0
./expes/v2_2020-11-27_di_500-prng-3,daily_issda_500,500,first-500,491,rng,num-start-11,11,536,1000.9782626628876,False,,False,0,True,1000,True,0.0
./expes/v2_2020-11-27_di_500-prng-3,daily_issda_500,500,first-500,411,rng,num-start-141,141,536,33.84546756744385,True,,True,1,False,1000,True,1.0
./expes/v2_2020-11-27_di_500-prng-3,daily_issda_500,500,first-500,431,rng,num-start-81,81,536,1006.5119681358337,False,,False,0,True,1000,True,0.0
./expes/v2_2020-11-27_di_500-prng-3,daily_issda_500,500,first-500,231,rng,num-start-51,51,536,1004.6826374530792,False,,False,0,True,1000,True,0.0
./expes/v2_2020-11-27_di_500-prng-3,daily_issda_500,500,first-500,161,rng,num-start-211,211,536,70.23315119743347,True,,True,1,False,1000,True,1.0
./expes/v2_2020-11-27_di_500-prng-3,daily_issda_500,500,first-500,161,rng,num-start-81,81,536,1006.835480928421,False,,False,0,True,1000,True,0.0
./expes/v2_2020-11-27_di_500-prng-3,daily_issda_500,500,first-500,131,rng,num-start-101,101,536,1007.9820909500122,False,,False,0,True,1000,True,0.0
./expes/v2_2020-11-27_di_500-prng-3,daily_issda_500,500,first-500,451,rng,num-start-261,261,536,24.651220083236694,True,,True,1,False,1000,True,1.0
./expes/v2_2020-11-27_di_500-prng-3,daily_issda_500,500,first-500,111,rng,num-start-231,231,536,26.720667839050293,True,,True,1,False,1000,True,1.0
./expes/v2_2020-11-27_di_500-prng-3,daily_issda_500,500,first-500,411,rng,num-start-151,151,536,55.135857820510864,True,,True,1,False,1000,True,1.0
./expes/v2_2020-11-27_di_500-prng-3,daily_issda_500,500,first-500,271,rng,num-start-1,1,536,5.45476222038269,False,,False,2,False,1000,True,1.0
./expes/v2_2020-11-27_di_500-prng-3,daily_issda_500,500,first-500,261,rng,num-start-201,201,536,566.9737737178802,True,,True,1,False,1000,True,1.0
./expes/v2_2020-11-27_di_500-prng-3,daily_issda_500,500,first-500,481,rng,num-start-101,101,536,9.254879474639893,True,,True,1,False,1000,True,1.0
./expes/v2_2020-11-27_di_500-prng-3,daily_issda_500,500,first-500,271,rng,num-start-111,111,536,1009.2734975814819,False,,False,0,True,1000,True,0.0
./expes/v2_2020-11-27_di_500-prng-3,daily_issda_500,500,first-500,241,rng,num-start-231,231,536,31.832379817962646,True,,True,1,False,1000,True,1.0
./expes/v2_2020-11-27_di_500-prng-3,daily_issda_500,500,first-500,461,rng,num-start-221,221,536,23.06626558303833,True,,True,1,False,1000,True,1.0
./expes/v2_2020-11-27_di_500-prng-3,daily_issda_500,500,first-500,61,rng,num-start-11,11,536,1001.0035917758942,False,,False,0,True,1000,True,0.0
./expes/v2_2020-11-27_di_500-prng-3,daily_issda_500,500,first-500,41,rng,num-start-111,111,536,14.20068073272705,True,,True,1,False,1000,True,1.0
./expes/v2_2020-11-27_di_500-prng-3,daily_issda_500,500,first-500,461,rng,num-start-61,61,536,1005.3522198200226,False,,False,0,True,1000,True,0.0
./expes/v2_2020-11-27_di_500-prng-3,daily_issda_500,500,first-500,211,rng,num-start-51,51,536,1004.6198635101318,False,,False,0,True,1000,True,0.0
./expes/v2_2020-11-27_di_500-prng-3,daily_issda_500,500,first-500,451,rng,num-start-211,211,536,23.87012267112732,True,,True,1,False,1000,True,1.0
./expes/v2_2020-11-27_di_500-prng-3,daily_issda_500,500,first-500,31,rng,num-start-1,1,536,3.3578693866729736,False,,False,2,False,1000,True,1.0
./expes/v2_2020-11-27_di_500-prng-3,daily_issda_500,500,first-500,341,rng,num-start-211,211,536,75.82650661468506,True,,True,1,False,1000,True,1.0
./expes/v2_2020-11-27_di_500-prng-3,daily_issda_500,500,first-500,181,rng,num-start-61,61,536,1005.0072693824768,False,,False,0,True,1000,True,0.0
./expes/v2_2020-11-27_di_500-prng-3,daily_issda_500,500,first-500,311,rng,num-start-181,181,536,1016.1067585945129,False,,False,0,True,1000,True,0.0
./expes/v2_2020-11-27_di_500-prng-3,daily_issda_500,500,first-500,171,rng,num-start-271,271,536,38.89261174201965,True,,True,1,False,1000,True,1.0
./expes/v2_2020-11-27_di_500-prng-3,daily_issda_500,500,first-500,281,rng,num-start-191,191,536,1015.8789613246918,False,,False,0,True,1000,True,0.0
./expes/v2_2020-11-27_di_500-prng-3,daily_issda_500,500,first-500,471,rng,num-start-271,271,536,26.48240351676941,True,,True,1,False,1000,True,1.0
./expes/v2_2020-11-27_di_500-prng-3,daily_issda_500,500,first-500,151,rng,num-start-181,181,536,124.96621966362,True,,True,1,False,1000,True,1.0
./expes/v2_2020-11-27_di_500-prng-3,daily_issda_500,500,first-500,241,rng,num-start-141,141,536,1011.7518801689148,False,,False,0,True,1000,True,0.0
./expes/v2_2020-11-27_di_500-prng-3,daily_issda_500,500,first-500,201,rng,num-start-141,141,536,1011.2245121002197,False,,False,0,True,1000,True,0.0
./expes/v2_2020-11-27_di_500-prng-3,daily_issda_500,500,first-500,281,rng,num-start-281,281,536,44.12494993209839,True,,True,1,False,1000,True,1.0
./expes/v2_2020-11-27_di_500-prng-3,daily_issda_500,500,first-500,111,rng,num-start-201,201,536,29.212491273880005,True,,True,1,False,1000,True,1.0
./expes/v2_2020-11-27_di_500-prng-3,daily_issda_500,500,first-500,201,rng,num-start-121,121,536,1011.1218271255493,False,,False,0,True,1000,True,0.0
./expes/v2_2020-11-27_di_500-prng-3,daily_issda_500,500,first-500,101,rng,num-start-171,171,536,47.78507161140442,True,,True,1,False,1000,True,1.0
./expes/v2_2020-11-27_di_500-prng-3,daily_issda_500,500,first-500,201,rng,num-start-151,151,536,1013.556711435318,False,,False,0,True,1000,True,0.0
./expes/v2_2020-11-27_di_500-prng-3,daily_issda_500,500,first-500,171,rng,num-start-101,101,536,1008.9943120479584,False,,False,0,True,1000,True,0.0
./expes/v2_2020-11-27_di_500-prng-3,daily_issda_500,500,first-500,121,rng,num-start-61,61,536,1005.834540605545,False,,False,0,True,1000,True,0.0
./expes/v2_2020-11-27_di_500-prng-3,daily_issda_500,500,first-500,371,rng,num-start-271,271,536,37.59482216835022,True,,True,1,False,1000,True,1.0
./expes/v2_2020-11-27_di_500-prng-3,daily_issda_500,500,first-500,441,rng,num-start-201,201,536,22.517196655273438,True,,True,1,False,1000,True,1.0
./expes/v2_2020-11-27_di_500-prng-3,daily_issda_500,500,first-500,351,rng,num-start-191,191,536,63.308571577072144,True,,True,1,False,1000,True,1.0
./expes/v2_2020-11-27_di_500-prng-3,daily_issda_500,500,first-500,141,rng,num-start-151,151,536,1012.1811280250549,False,,False,0,True,1000,True,0.0
./expes/v2_2020-11-27_di_500-prng-3,daily_issda_500,500,first-500,391,rng,num-start-61,61,536,1005.2474792003632,False,,False,0,True,1000,True,0.0
./expes/v2_2020-11-27_di_500-prng-3,daily_issda_500,500,first-500,381,rng,num-start-121,121,536,1010.0542259216309,False,,False,0,True,1000,True,0.0
./expes/v2_2020-11-27_di_500-prng-3,daily_issda_500,500,first-500,391,rng,num-start-231,231,536,31.78533959388733,True,,True,1,False,1000,True,1.0
./expes/v2_2020-11-27_di_500-prng-3,daily_issda_500,500,first-500,381,rng,num-start-251,251,536,34.13671398162842,True,,True,1,False,1000,True,1.0
./expes/v2_2020-11-27_di_500-prng-3,daily_issda_500,500,first-500,141,rng,num-start-291,291,536,43.23888182640076,True,,True,1,False,1000,True,1.0
./expes/v2_2020-11-27_di_500-prng-3,daily_issda_500,500,first-500,311,rng,num-start-271,271,536,42.852452754974365,True,,True,1,False,1000,True,1.0
./expes/v2_2020-11-27_di_500-prng-3,daily_issda_500,500,first-500,21,rng,num-start-91,91,536,9.856468677520752,True,,True,1,False,1000,True,1.0
./expes/v2_2020-11-27_di_500-prng-3,daily_issda_500,500,first-500,481,rng,num-start-251,251,536,26.271183490753174,True,,True,1,False,1000,True,1.0
./expes/v2_2020-11-27_di_500-prng-3,daily_issda_500,500,first-500,171,rng,num-start-161,161,536,1013.6034529209137,False,,False,0,True,1000,True,0.0
./expes/v2_2020-11-27_di_500-prng-3,daily_issda_500,500,first-500,181,rng,num-start-281,281,536,45.49279236793518,True,,True,1,False,1000,True,1.0
./expes/v2_2020-11-27_di_500-prng-3,daily_issda_500,500,first-500,91,rng,num-start-11,11,536,1001.1233520507812,False,,False,0,True,1000,True,0.0
./expes/v2_2020-11-27_di_500-prng-3,daily_issda_500,500,first-500,391,rng,num-start-141,141,536,1012.0664176940918,False,,False,0,True,1000,True,0.0
./expes/v2_2020-11-27_di_500-prng-3,daily_issda_500,500,first-500,31,rng,num-start-71,71,536,121.45863437652588,True,,True,1,False,1000,True,1.0
./expes/v2_2020-11-27_di_500-prng-3,daily_issda_500,500,first-500,481,rng,num-start-91,91,536,8.417397499084473,True,,True,1,False,1000,True,1.0
./expes/v2_2020-11-27_di_500-prng-3,daily_issda_500,500,first-500,191,rng,num-start-41,41,536,1003.3754587173462,False,,False,0,True,1000,True,0.0
./expes/v2_2020-11-27_di_500-prng-3,daily_issda_500,500,first-500,21,rng,num-start-151,151,536,15.00938606262207,True,,True,1,False,1000,True,1.0
./expes/v2_2020-11-27_di_500-prng-3,daily_issda_500,500,first-500,81,rng,num-start-261,261,536,34.53160357475281,True,,True,1,False,1000,True,1.0
./expes/v2_2020-11-27_di_500-prng-3,daily_issda_500,500,first-500,121,rng,num-start-11,11,536,1000.9789199829102,False,,False,0,True,1000,True,0.0
./expes/v2_2020-11-27_di_500-prng-3,daily_issda_500,500,first-500,161,rng,num-start-11,11,536,1000.954380273819,False,,False,0,True,1000,True,0.0
./expes/v2_2020-11-27_di_500-prng-3,daily_issda_500,500,first-500,61,rng,num-start-181,181,536,21.672276735305786,True,,True,1,False,1000,True,1.0
./expes/v2_2020-11-27_di_500-prng-3,daily_issda_500,500,first-500,11,rng,num-start-1,1,536,1.8523540496826172,False,,False,2,False,1000,True,1.0
./expes/v2_2020-11-27_di_500-prng-3,daily_issda_500,500,first-500,211,rng,num-start-121,121,536,1010.8353681564331,False,,False,0,True,1000,True,0.0
./expes/v2_2020-11-27_di_500-prng-3,daily_issda_500,500,first-500,401,rng,num-start-141,141,536,120.99163508415222,True,,True,1,False,1000,True,1.0
./expes/v2_2020-11-27_di_500-prng-3,daily_issda_500,500,first-500,11,rng,num-start-191,191,536,18.044606685638428,True,,True,1,False,1000,True,1.0
./expes/v2_2020-11-27_di_500-prng-3,daily_issda_500,500,first-500,321,rng,num-start-51,51,536,1003.8527545928955,False,,False,0,True,1000,True,0.0
./expes/v2_2020-11-27_di_500-prng-3,daily_issda_500,500,first-500,51,rng,num-start-211,211,536,23.020952224731445,True,,True,1,False,1000,True,1.0
./expes/v2_2020-11-27_di_500-prng-3,daily_issda_500,500,first-500,221,rng,num-start-31,31,536,1002.6967265605927,False,,False,0,True,1000,True,0.0
./expes/v2_2020-11-27_di_500-prng-3,daily_issda_500,500,first-500,311,rng,num-start-251,251,536,41.755048751831055,True,,True,1,False,1000,True,1.0
./expes/v2_2020-11-27_di_500-prng-3,daily_issda_500,500,first-500,31,rng,num-start-211,211,536,22.14637303352356,True,,True,1,False,1000,True,1.0
./expes/v2_2020-11-27_di_500-prng-3,daily_issda_500,500,first-500,261,rng,num-start-51,51,536,1004.284332036972,False,,False,0,True,1000,True,0.0
./expes/v2_2020-11-27_di_500-prng-3,daily_issda_500,500,first-500,451,rng,num-start-131,131,536,13.305223226547241,True,,True,1,False,1000,True,1.0
./expes/v2_2020-11-27_di_500-prng-3,daily_issda_500,500,first-500,381,rng,num-start-11,11,536,1000.8649210929871,False,,False,0,True,1000,True,0.0
./expes/v2_2020-11-27_di_500-prng-3,daily_issda_500,500,first-500,451,rng,num-start-141,141,536,20.029258012771606,True,,True,1,False,1000,True,1.0
./expes/v2_2020-11-27_di_500-prng-3,daily_issda_500,500,first-500,41,rng,num-start-51,51,536,1004.47012758255,False,,False,0,True,1000,True,0.0
./expes/v2_2020-11-27_di_500-prng-3,daily_issda_500,500,first-500,51,rng,num-start-251,251,536,26.642029285430908,True,,True,1,False,1000,True,1.0
./expes/v2_2020-11-27_di_500-prng-3,daily_issda_500,500,first-500,371,rng,num-start-221,221,536,39.10636067390442,True,,True,1,False,1000,True,1.0
./expes/v2_2020-11-27_di_500-prng-3,daily_issda_500,500,first-500,481,rng,num-start-131,131,536,13.114859819412231,True,,True,1,False,1000,True,1.0
./expes/v2_2020-11-27_di_500-prng-3,daily_issda_500,500,first-500,81,rng,num-start-141,141,536,67.95754718780518,True,,True,1,False,1000,True,1.0
./expes/v2_2020-11-27_di_500-prng-3,daily_issda_500,500,first-500,461,rng,num-start-161,161,536,18.472429990768433,True,,True,1,False,1000,True,1.0
./expes/v2_2020-11-27_di_500-prng-3,daily_issda_500,500,first-500,271,rng,num-start-191,191,536,1016.5450313091278,False,,False,0,True,1000,True,0.0
./expes/v2_2020-11-27_di_500-prng-3,daily_issda_500,500,first-500,131,rng,num-start-151,151,536,1011.7189493179321,False,,False,0,True,1000,True,0.0
./expes/v2_2020-11-27_di_500-prng-3,daily_issda_500,500,first-500,371,rng,num-start-21,21,536,1001.7243485450745,False,,False,0,True,1000,True,0.0
./expes/v2_2020-11-27_di_500-prng-3,daily_issda_500,500,first-500,211,rng,num-start-281,281,536,42.244173765182495,True,,True,1,False,1000,True,1.0
./expes/v2_2020-11-27_di_500-prng-3,daily_issda_500,500,first-500,391,rng,num-start-241,241,536,30.021798849105835,True,,True,1,False,1000,True,1.0
./expes/v2_2020-11-27_di_500-prng-3,daily_issda_500,500,first-500,151,rng,num-start-281,281,536,41.831528186798096,True,,True,1,False,1000,True,1.0
./expes/v2_2020-11-27_di_500-prng-3,daily_issda_500,500,first-500,21,rng,num-start-171,171,536,16.88850975036621,True,,True,1,False,1000,True,1.0
./expes/v2_2020-11-27_di_500-prng-3,daily_issda_500,500,first-500,251,rng,num-start-171,171,536,1014.1296193599701,False,,False,0,True,1000,True,0.0
./expes/v2_2020-11-27_di_500-prng-3,daily_issda_500,500,first-500,121,rng,num-start-81,81,536,1007.273818731308,False,,False,0,True,1000,True,0.0
./expes/v2_2020-11-27_di_500-prng-3,daily_issda_500,500,first-500,71,rng,num-start-181,181,536,38.988194704055786,True,,True,1,False,1000,True,1.0
./expes/v2_2020-11-27_di_500-prng-3,daily_issda_500,500,first-500,191,rng,num-start-241,241,536,38.493464946746826,True,,True,1,False,1000,True,1.0
./expes/v2_2020-11-27_di_500-prng-3,daily_issda_500,500,first-500,271,rng,num-start-121,121,536,1011.0313897132874,False,,False,0,True,1000,True,0.0
./expes/v2_2020-11-27_di_500-prng-3,daily_issda_500,500,first-500,261,rng,num-start-211,211,536,166.52856373786926,True,,True,1,False,1000,True,1.0
./expes/v2_2020-11-27_di_500-prng-3,daily_issda_500,500,first-500,161,rng,num-start-291,291,536,40.24627375602722,True,,True,1,False,1000,True,1.0
./expes/v2_2020-11-27_di_500-prng-3,daily_issda_500,500,first-500,51,rng,num-start-161,161,536,28.431477069854736,True,,True,1,False,1000,True,1.0
./expes/v2_2020-11-27_di_500-prng-3,daily_issda_500,500,first-500,261,rng,num-start-261,261,536,40.10110330581665,True,,True,1,False,1000,True,1.0
./expes/v2_2020-11-27_di_500-prng-3,daily_issda_500,500,first-500,291,rng,num-start-291,291,536,43.45080614089966,True,,True,1,False,1000,True,1.0
./expes/v2_2020-11-27_di_500-prng-3,daily_issda_500,500,first-500,291,rng,num-start-251,251,536,35.513206243515015,True,,True,1,False,1000,True,1.0
./expes/v2_2020-11-27_di_500-prng-3,daily_issda_500,500,first-500,311,rng,num-start-161,161,536,1013.626592874527,False,,False,0,True,1000,True,0.0
./expes/v2_2020-11-27_di_500-prng-3,daily_issda_500,500,first-500,441,rng,num-start-241,241,536,24.329604387283325,True,,True,1,False,1000,True,1.0
./expes/v2_2020-11-27_di_500-prng-3,daily_issda_500,500,first-500,311,rng,num-start-91,91,536,1007.0705277919769,False,,False,0,True,1000,True,0.0
./expes/v2_2020-11-27_di_500-prng-3,daily_issda_500,500,first-500,151,rng,num-start-91,91,536,1007.1824226379395,False,,False,0,True,1000,True,0.0
./expes/v2_2020-11-27_di_500-prng-3,daily_issda_500,500,first-500,231,rng,num-start-231,231,536,86.43466663360596,True,,True,1,False,1000,True,1.0
./expes/v2_2020-11-27_di_500-prng-3,daily_issda_500,500,first-500,271,rng,num-start-251,251,536,39.90420913696289,True,,True,1,False,1000,True,1.0
./expes/v2_2020-11-27_di_500-prng-3,daily_issda_500,500,first-500,151,rng,num-start-251,251,536,37.46384000778198,True,,True,1,False,1000,True,1.0
./expes/v2_2020-11-27_di_500-prng-3,daily_issda_500,500,first-500,131,rng,num-start-241,241,536,34.24905204772949,True,,True,1,False,1000,True,1.0
./expes/v2_2020-11-27_di_500-prng-3,daily_issda_500,500,first-500,351,rng,num-start-171,171,536,1015.6559069156647,False,,False,0,True,1000,True,0.0
./expes/v2_2020-11-27_di_500-prng-3,daily_issda_500,500,first-500,81,rng,num-start-51,51,536,1003.9415326118469,False,,False,0,True,1000,True,0.0
./expes/v2_2020-11-27_di_500-prng-3,daily_issda_500,500,first-500,291,rng,num-start-61,61,536,1005.5094068050385,False,,False,0,True,1000,True,0.0
./expes/v2_2020-11-27_di_500-prng-3,daily_issda_500,500,first-500,461,rng,num-start-151,151,536,16.693070650100708,True,,True,1,False,1000,True,1.0
./expes/v2_2020-11-27_di_500-prng-3,daily_issda_500,500,first-500,401,rng,num-start-161,161,536,55.93225073814392,True,,True,1,False,1000,True,1.0
./expes/v2_2020-11-27_di_500-prng-3,daily_issda_500,500,first-500,131,rng,num-start-201,201,536,61.2837073802948,True,,True,1,False,1000,True,1.0
./expes/v2_2020-11-27_di_500-prng-3,daily_issda_500,500,first-500,371,rng,num-start-111,111,536,1009.8884701728821,False,,False,0,True,1000,True,0.0
./expes/v2_2020-11-27_di_500-prng-3,daily_issda_500,500,first-500,71,rng,num-start-131,131,536,31.029582977294922,True,,True,1,False,1000,True,1.0
./expes/v2_2020-11-27_di_500-prng-3,daily_issda_500,500,first-500,141,rng,num-start-211,211,536,48.58284544944763,True,,True,1,False,1000,True,1.0
./expes/v2_2020-11-27_di_500-prng-3,daily_issda_500,500,first-500,361,rng,num-start-81,81,536,1006.4300611019135,False,,False,0,True,1000,True,0.0
./expes/v2_2020-11-27_di_500-prng-3,daily_issda_500,500,first-500,371,rng,num-start-241,241,536,29.46217632293701,True,,True,1,False,1000,True,1.0
./expes/v2_2020-11-27_di_500-prng-3,daily_issda_500,500,first-500,341,rng,num-start-201,201,536,51.766631841659546,True,,True,1,False,1000,True,1.0
./expes/v2_2020-11-27_di_500-prng-3,daily_issda_500,500,first-500,461,rng,num-start-131,131,536,13.75599217414856,True,,True,1,False,1000,True,1.0
./expes/v2_2020-11-27_di_500-prng-3,daily_issda_500,500,first-500,451,rng,num-start-61,61,536,1005.5431115627289,False,,False,0,True,1000,True,0.0
./expes/v2_2020-11-27_di_500-prng-3,daily_issda_500,500,first-500,11,rng,num-start-1,1,536,3.83200740814209,False,,False,2,False,1000,True,1.0
./expes/v2_2020-11-27_di_500-prng-3,daily_issda_500,500,first-500,161,rng,num-start-271,271,536,39.92943978309631,True,,True,1,False,1000,True,1.0
./expes/v2_2020-11-27_di_500-prng-3,daily_issda_500,500,first-500,361,rng,num-start-141,141,536,1011.5168898105621,False,,False,0,True,1000,True,0.0
./expes/v2_2020-11-27_di_500-prng-3,daily_issda_500,500,first-500,191,rng,num-start-31,31,536,1002.606696844101,False,,False,0,True,1000,True,0.0
./expes/v2_2020-11-27_di_500-prng-3,daily_issda_500,500,first-500,111,rng,num-start-101,101,536,1009.0834412574768,False,,False,0,True,1000,True,0.0
./expes/v2_2020-11-27_di_500-prng-3,daily_issda_500,500,first-500,401,rng,num-start-51,51,536,1004.149290561676,False,,False,0,True,1000,True,0.0
./expes/v2_2020-11-27_di_500-prng-3,daily_issda_500,500,first-500,251,rng,num-start-151,151,536,1012.5347030162811,False,,False,0,True,1000,True,0.0
./expes/v2_2020-11-27_di_500-prng-3,daily_issda_500,500,first-500,311,rng,num-start-121,121,536,1010.1333682537079,False,,False,0,True,1000,True,0.0
./expes/v2_2020-11-27_di_500-prng-3,daily_issda_500,500,first-500,101,rng,num-start-141,141,536,124.5801317691803,True,,True,1,False,1000,True,1.0
./expes/v2_2020-11-27_di_500-prng-3,daily_issda_500,500,first-500,211,rng,num-start-61,61,536,1005.459615945816,False,,False,0,True,1000,True,0.0
./expes/v2_2020-11-27_di_500-prng-3,daily_issda_500,500,first-500,331,rng,num-start-91,91,536,1007.9079275131226,False,,False,0,True,1000,True,0.0
./expes/v2_2020-11-27_di_500-prng-3,daily_issda_500,500,first-500,11,rng,num-start-11,11,536,1001.8011152744293,False,,False,0,True,1000,True,0.0
./expes/v2_2020-11-27_di_500-prng-3,daily_issda_500,500,first-500,251,rng,num-start-271,271,536,39.19632935523987,True,,True,1,False,1000,True,1.0
./expes/v2_2020-11-27_di_500-prng-3,daily_issda_500,500,first-500,51,rng,num-start-231,231,536,24.353452444076538,True,,True,1,False,1000,True,1.0
./expes/v2_2020-11-27_di_500-prng-3,daily_issda_500,500,first-500,101,rng,num-start-251,251,536,29.348769426345825,True,,True,1,False,1000,True,1.0
./expes/v2_2020-11-27_di_500-prng-3,daily_issda_500,500,first-500,401,rng,num-start-291,291,536,37.691627502441406,True,,True,1,False,1000,True,1.0
