expe,clients,clients_size,clients_subset,agg_size,method,days,days_size,days_total,time,valid,valid_sum,success,nsols,wall_hit,wall_time,pooled,valid_sums
./expes/v2_2020-11-27_di_500-prng-3,daily_issda_500,500,first-500,201,rng,num-start-191,191,536,1008.7192785739899,False,,False,0,True,1000,True,0.0
./expes/v2_2020-11-27_di_500-prng-3,daily_issda_500,500,first-500,431,rng,num-start-91,91,536,1004.3453476428986,False,,False,0,True,1000,True,0.0
./expes/v2_2020-11-27_di_500-prng-3,daily_issda_500,500,first-500,471,rng,num-start-101,101,536,5.854029893875122,True,,True,1,False,1000,True,1.0
./expes/v2_2020-11-27_di_500-prng-3,daily_issda_500,500,first-500,461,rng,num-start-231,231,536,13.569139957427979,True,,True,1,False,1000,True,1.0
./expes/v2_2020-11-27_di_500-prng-3,daily_issda_500,500,first-500,21,rng,num-start-281,281,536,14.885208129882812,True,,True,1,False,1000,True,1.0
./expes/v2_2020-11-27_di_500-prng-3,daily_issda_500,500,first-500,31,rng,num-start-161,161,536,8.789453983306885,True,,True,1,False,1000,True,1.0
./expes/v2_2020-11-27_di_500-prng-3,daily_issda_500,500,first-500,481,rng,num-start-1,1,536,1.2410264015197754,False,,False,2,False,1000,True,1.0
./expes/v2_2020-11-27_di_500-prng-3,daily_issda_500,500,first-500,141,rng,num-start-111,111,536,1005.1931314468384,False,,False,0,True,1000,True,0.0
./expes/v2_2020-11-27_di_500-prng-3,daily_issda_500,500,first-500,111,rng,num-start-151,151,536,41.93443465232849,True,,True,1,False,1000,True,1.0
./expes/v2_2020-11-27_di_500-prng-3,daily_issda_500,500,first-500,131,rng,num-start-151,151,536,1006.8862648010254,False,,False,0,True,1000,True,0.0
./expes/v2_2020-11-27_di_500-prng-3,daily_issda_500,500,first-500,241,rng,num-start-231,231,536,36.05701160430908,True,,True,1,False,1000,True,1.0
./expes/v2_2020-11-27_di_500-prng-3,daily_issda_500,500,first-500,341,rng,num-start-71,71,536,1003.2677893638611,False,,False,0,True,1000,True,0.0
./expes/v2_2020-11-27_di_500-prng-3,daily_issda_500,500,first-500,41,rng,num-start-161,161,536,9.368202924728394,True,,True,1,False,1000,True,1.0
./expes/v2_2020-11-27_di_500-prng-3,daily_issda_500,500,first-500,151,rng,num-start-191,191,536,103.54051113128662,True,,True,1,False,1000,True,1.0
./expes/v2_2020-11-27_di_500-prng-3,daily_issda_500,500,first-500,261,rng,num-start-251,251,536,30.358089923858643,True,,True,1,False,1000,True,1.0
./expes/v2_2020-11-27_di_500-prng-3,daily_issda_500,500,first-500,141,rng,num-start-181,181,536,27.32790446281433,True,,True,1,False,1000,True,1.0
./expes/v2_2020-11-27_di_500-prng-3,daily_issda_500,500,first-500,131,rng,num-start-11,11,536,1000.6492781639099,False,,False,0,True,1000,True,0.0
./expes/v2_2020-11-27_di_500-prng-3,daily_issda_500,500,first-500,131,rng,num-start-261,261,536,18.524220943450928,True,,True,1,False,1000,True,1.0
./expes/v2_2020-11-27_di_500-prng-3,daily_issda_500,500,first-500,481,rng,num-start-51,51,536,7.339066028594971,True,,True,1,False,1000,True,1.0
./expes/v2_2020-11-27_di_500-prng-3,daily_issda_500,500,first-500,61,rng,num-start-91,91,536,1004.1509273052216,False,,False,0,True,1000,True,0.0
./expes/v2_2020-11-27_di_500-prng-3,daily_issda_500,500,first-500,321,rng,num-start-171,171,536,1007.9346959590912,False,,False,0,True,1000,True,0.0
./expes/v2_2020-11-27_di_500-prng-3,daily_issda_500,500,first-500,61,rng,num-start-121,121,536,1005.4918601512909,False,,False,0,True,1000,True,0.0
./expes/v2_2020-11-27_di_500-prng-3,daily_issda_500,500,first-500,381,rng,num-start-291,291,536,18.917351722717285,True,,True,1,False,1000,True,1.0
./expes/v2_2020-11-27_di_500-prng-3,daily_issda_500,500,first-500,281,rng,num-start-241,241,536,16.96809673309326,True,,True,1,False,1000,True,1.0
./expes/v2_2020-11-27_di_500-prng-3,daily_issda_500,500,first-500,201,rng,num-start-31,31,536,1001.6209006309509,False,,False,0,True,1000,True,0.0
./expes/v2_2020-11-27_di_500-prng-3,daily_issda_500,500,first-500,341,rng,num-start-101,101,536,1004.6245160102844,False,,False,0,True,1000,True,0.0
./expes/v2_2020-11-27_di_500-prng-3,daily_issda_500,500,first-500,221,rng,num-start-201,201,536,53.45900630950928,True,,True,1,False,1000,True,1.0
./expes/v2_2020-11-27_di_500-prng-3,daily_issda_500,500,first-500,301,rng,num-start-221,221,536,28.822452783584595,True,,True,1,False,1000,True,1.0
./expes/v2_2020-11-27_di_500-prng-3,daily_issda_500,500,first-500,481,rng,num-start-251,251,536,12.412818670272827,True,,True,1,False,1000,True,1.0
./expes/v2_2020-11-27_di_500-prng-3,daily_issda_500,500,first-500,221,rng,num-start-221,221,536,35.44543933868408,True,,True,1,False,1000,True,1.0
./expes/v2_2020-11-27_di_500-prng-3,daily_issda_500,500,first-500,261,rng,num-start-191,191,536,1008.975156545639,False,,False,0,True,1000,True,0.0
./expes/v2_2020-11-27_di_500-prng-3,daily_issda_500,500,first-500,251,rng,num-start-111,111,536,1005.0665974617004,False,,False,0,True,1000,True,0.0
./expes/v2_2020-11-27_di_500-prng-3,daily_issda_500,500,first-500,331,rng,num-start-251,251,536,22.33611035346985,True,,True,1,False,1000,True,1.0
./expes/v2_2020-11-27_di_500-prng-3,daily_issda_500,500,first-500,161,rng,num-start-91,91,536,1004.1789782047272,False,,False,0,True,1000,True,0.0
./expes/v2_2020-11-27_di_500-prng-3,daily_issda_500,500,first-500,21,rng,num-start-261,261,536,15.093934535980225,True,,True,1,False,1000,True,1.0
./expes/v2_2020-11-27_di_500-prng-3,daily_issda_500,500,first-500,1,rng,num-start-221,221,536,10.09009599685669,True,,True,1,False,1000,True,1.0
./expes/v2_2020-11-27_di_500-prng-3,daily_issda_500,500,first-500,381,rng,num-start-251,251,536,16.73341989517212,True,,True,1,False,1000,True,1.0
./expes/v2_2020-11-27_di_500-prng-3,daily_issda_500,500,first-500,431,rng,num-start-271,271,536,16.322576999664307,True,,True,1,False,1000,True,1.0
./expes/v2_2020-11-27_di_500-prng-3,daily_issda_500,500,first-500,51,rng,num-start-111,111,536,14.506594181060791,True,,True,1,False,1000,True,1.0
./expes/v2_2020-11-27_di_500-prng-3,daily_issda_500,500,first-500,171,rng,num-start-231,231,536,17.189205646514893,True,,True,1,False,1000,True,1.0
./expes/v2_2020-11-27_di_500-prng-3,daily_issda_500,500,first-500,141,rng,num-start-1,1,536,5.1564812660217285,False,,False,2,False,1000,True,1.0
./expes/v2_2020-11-27_di_500-prng-3,daily_issda_500,500,first-500,121,rng,num-start-131,131,536,1005.9114487171173,False,,False,0,True,1000,True,0.0
./expes/v2_2020-11-27_di_500-prng-3,daily_issda_500,500,first-500,361,rng,num-start-281,281,536,23.145089149475098,True,,True,1,False,1000,True,1.0
./expes/v2_2020-11-27_di_500-prng-3,daily_issda_500,500,first-500,81,rng,num-start-201,201,536,12.019395589828491,True,,True,1,False,1000,True,1.0
./expes/v2_2020-11-27_di_500-prng-3,daily_issda_500,500,first-500,31,rng,num-start-41,41,536,1001.9464457035065,False,,False,0,True,1000,True,0.0
./expes/v2_2020-11-27_di_500-prng-3,daily_issda_500,500,first-500,131,rng,num-start-51,51,536,1002.2694067955017,False,,False,0,True,1000,True,0.0
./expes/v2_2020-11-27_di_500-prng-3,daily_issda_500,500,first-500,371,rng,num-start-231,231,536,32.41918754577637,True,,True,1,False,1000,True,1.0
./expes/v2_2020-11-27_di_500-prng-3,daily_issda_500,500,first-500,491,rng,num-start-181,181,536,10.146384239196777,True,,True,1,False,1000,True,1.0
./expes/v2_2020-11-27_di_500-prng-3,daily_issda_500,500,first-500,371,rng,num-start-141,141,536,1006.3834912776947,False,,False,0,True,1000,True,0.0
./expes/v2_2020-11-27_di_500-prng-3,daily_issda_500,500,first-500,71,rng,num-start-101,101,536,1004.6565082073212,False,,False,0,True,1000,True,0.0
./expes/v2_2020-11-27_di_500-prng-3,daily_issda_500,500,first-500,41,rng,num-start-61,61,536,1002.8476464748383,False,,False,0,True,1000,True,0.0
./expes/v2_2020-11-27_di_500-prng-3,daily_issda_500,500,first-500,11,rng,num-start-91,91,536,5.171273469924927,True,,True,1,False,1000,True,1.0
./expes/v2_2020-11-27_di_500-prng-3,daily_issda_500,500,first-500,181,rng,num-start-171,171,536,1007.8741364479065,False,,False,0,True,1000,True,0.0
./expes/v2_2020-11-27_di_500-prng-3,daily_issda_500,500,first-500,341,rng,num-start-91,91,536,1004.3745648860931,False,,False,0,True,1000,True,0.0
./expes/v2_2020-11-27_di_500-prng-3,daily_issda_500,500,first-500,381,rng,num-start-221,221,536,15.758915185928345,True,,True,1,False,1000,True,1.0
./expes/v2_2020-11-27_di_500-prng-3,daily_issda_500,500,first-500,351,rng,num-start-101,101,536,1004.6833667755127,False,,False,0,True,1000,True,0.0
./expes/v2_2020-11-27_di_500-prng-3,daily_issda_500,500,first-500,41,rng,num-start-1,1,536,1.0982625484466553,False,,False,2,False,1000,True,1.0
./expes/v2_2020-11-27_di_500-prng-3,daily_issda_500,500,first-500,331,rng,num-start-11,11,536,1000.9693484306335,False,,False,0,True,1000,True,0.0
./expes/v2_2020-11-27_di_500-prng-3,daily_issda_500,500,first-500,441,rng,num-start-241,241,536,14.9549880027771,True,,True,1,False,1000,True,1.0
./expes/v2_2020-11-27_di_500-prng-3,daily_issda_500,500,first-500,231,rng,num-start-251,251,536,24.93717122077942,True,,True,1,False,1000,True,1.0
./expes/v2_2020-11-27_di_500-prng-3,daily_issda_500,500,first-500,301,rng,num-start-21,21,536,1001.2720637321472,False,,False,0,True,1000,True,0.0
./expes/v2_2020-11-27_di_500-prng-3,daily_issda_500,500,first-500,31,rng,num-start-31,31,536,1001.8347547054291,False,,False,0,True,1000,True,0.0
./expes/v2_2020-11-27_di_500-prng-3,daily_issda_500,500,first-500,111,rng,num-start-221,221,536,14.778319835662842,True,,True,1,False,1000,True,1.0
./expes/v2_2020-11-27_di_500-prng-3,daily_issda_500,500,first-500,281,rng,num-start-241,241,536,35.65308451652527,True,,True,1,False,1000,True,1.0
./expes/v2_2020-11-27_di_500-prng-3,daily_issda_500,500,first-500,31,rng,num-start-21,21,536,1001.164626121521,False,,False,0,True,1000,True,0.0
./expes/v2_2020-11-27_di_500-prng-3,daily_issda_500,500,first-500,201,rng,num-start-231,231,536,27.888543367385864,True,,True,1,False,1000,True,1.0
./expes/v2_2020-11-27_di_500-prng-3,daily_issda_500,500,first-500,271,rng,num-start-81,81,536,1003.7881486415863,False,,False,0,True,1000,True,0.0
./expes/v2_2020-11-27_di_500-prng-3,daily_issda_500,500,first-500,231,rng,num-start-251,251,536,18.239404439926147,True,,True,1,False,1000,True,1.0
./expes/v2_2020-11-27_di_500-prng-3,daily_issda_500,500,first-500,91,rng,num-start-61,61,536,1002.8032803535461,False,,False,0,True,1000,True,0.0
./expes/v2_2020-11-27_di_500-prng-3,daily_issda_500,500,first-500,91,rng,num-start-81,81,536,1003.8900392055511,False,,False,0,True,1000,True,0.0
./expes/v2_2020-11-27_di_500-prng-3,daily_issda_500,500,first-500,241,rng,num-start-31,31,536,1001.6200082302094,False,,False,0,True,1000,True,0.0
./expes/v2_2020-11-27_di_500-prng-3,daily_issda_500,500,first-500,221,rng,num-start-291,291,536,22.286431312561035,True,,True,1,False,1000,True,1.0
./expes/v2_2020-11-27_di_500-prng-3,daily_issda_500,500,first-500,441,rng,num-start-101,101,536,916.2684774398804,True,,True,1,False,1000,True,1.0
./expes/v2_2020-11-27_di_500-prng-3,daily_issda_500,500,first-500,161,rng,num-start-181,181,536,67.63921046257019,True,,True,1,False,1000,True,1.0
./expes/v2_2020-11-27_di_500-prng-3,daily_issda_500,500,first-500,251,rng,num-start-81,81,536,1003.7994146347046,False,,False,0,True,1000,True,0.0
./expes/v2_2020-11-27_di_500-prng-3,daily_issda_500,500,first-500,411,rng,num-start-241,241,536,14.532314777374268,True,,True,1,False,1000,True,1.0
./expes/v2_2020-11-27_di_500-prng-3,daily_issda_500,500,first-500,471,rng,num-start-221,221,536,12.198614597320557,True,,True,1,False,1000,True,1.0
./expes/v2_2020-11-27_di_500-prng-3,daily_issda_500,500,first-500,141,rng,num-start-171,171,536,137.9819791316986,True,,True,1,False,1000,True,1.0
./expes/v2_2020-11-27_di_500-prng-3,daily_issda_500,500,first-500,391,rng,num-start-171,171,536,19.92369318008423,True,,True,1,False,1000,True,1.0
./expes/v2_2020-11-27_di_500-prng-3,daily_issda_500,500,first-500,461,rng,num-start-41,41,536,1001.931428194046,False,,False,0,True,1000,True,0.0
./expes/v2_2020-11-27_di_500-prng-3,daily_issda_500,500,first-500,161,rng,num-start-121,121,536,1005.7097306251526,False,,False,0,True,1000,True,0.0
./expes/v2_2020-11-27_di_500-prng-3,daily_issda_500,500,first-500,141,rng,num-start-1,1,536,1.3117775917053223,False,,False,2,False,1000,True,1.0
./expes/v2_2020-11-27_di_500-prng-3,daily_issda_500,500,first-500,131,rng,num-start-241,241,536,19.250656843185425,True,,True,1,False,1000,True,1.0
./expes/v2_2020-11-27_di_500-prng-3,daily_issda_500,500,first-500,351,rng,num-start-161,161,536,309.3815941810608,True,,True,1,False,1000,True,1.0
./expes/v2_2020-11-27_di_500-prng-3,daily_issda_500,500,first-500,431,rng,num-start-21,21,536,1001.1538870334625,False,,False,0,True,1000,True,0.0
./expes/v2_2020-11-27_di_500-prng-3,daily_issda_500,500,first-500,461,rng,num-start-101,101,536,5.8983612060546875,True,,True,1,False,1000,True,1.0
./expes/v2_2020-11-27_di_500-prng-3,daily_issda_500,500,first-500,161,rng,num-start-81,81,536,1003.7459833621979,False,,False,0,True,1000,True,0.0
./expes/v2_2020-11-27_di_500-prng-3,daily_issda_500,500,first-500,11,rng,num-start-271,271,536,14.173095703125,True,,True,1,False,1000,True,1.0
./expes/v2_2020-11-27_di_500-prng-3,daily_issda_500,500,first-500,21,rng,num-start-141,141,536,8.07606029510498,True,,True,1,False,1000,True,1.0
./expes/v2_2020-11-27_di_500-prng-3,daily_issda_500,500,first-500,51,rng,num-start-251,251,536,14.513803720474243,True,,True,1,False,1000,True,1.0
./expes/v2_2020-11-27_di_500-prng-3,daily_issda_500,500,first-500,11,rng,num-start-241,241,536,12.88228464126587,True,,True,1,False,1000,True,1.0
./expes/v2_2020-11-27_di_500-prng-3,daily_issda_500,500,first-500,311,rng,num-start-161,161,536,1007.3235740661621,False,,False,0,True,1000,True,0.0
./expes/v2_2020-11-27_di_500-prng-3,daily_issda_500,500,first-500,181,rng,num-start-41,41,536,1001.8062679767609,False,,False,0,True,1000,True,0.0
./expes/v2_2020-11-27_di_500-prng-3,daily_issda_500,500,first-500,481,rng,num-start-251,251,536,12.548583030700684,True,,True,1,False,1000,True,1.0
./expes/v2_2020-11-27_di_500-prng-3,daily_issda_500,500,first-500,461,rng,num-start-161,161,536,9.296578168869019,True,,True,1,False,1000,True,1.0
./expes/v2_2020-11-27_di_500-prng-3,daily_issda_500,500,first-500,11,rng,num-start-141,141,536,7.520347833633423,True,,True,1,False,1000,True,1.0
./expes/v2_2020-11-27_di_500-prng-3,daily_issda_500,500,first-500,441,rng,num-start-21,21,536,1001.2628953456879,False,,False,0,True,1000,True,0.0
./expes/v2_2020-11-27_di_500-prng-3,daily_issda_500,500,first-500,191,rng,num-start-181,181,536,81.15417718887329,True,,True,1,False,1000,True,1.0
./expes/v2_2020-11-27_di_500-prng-3,daily_issda_500,500,first-500,461,rng,num-start-101,101,536,9.665403604507446,True,,True,1,False,1000,True,1.0
./expes/v2_2020-11-27_di_500-prng-3,daily_issda_500,500,first-500,41,rng,num-start-171,171,536,11.857129573822021,True,,True,1,False,1000,True,1.0
./expes/v2_2020-11-27_di_500-prng-3,daily_issda_500,500,first-500,101,rng,num-start-71,71,536,1003.4822957515717,False,,False,0,True,1000,True,0.0
./expes/v2_2020-11-27_di_500-prng-3,daily_issda_500,500,first-500,411,rng,num-start-141,141,536,40.201701641082764,True,,True,1,False,1000,True,1.0
./expes/v2_2020-11-27_di_500-prng-3,daily_issda_500,500,first-500,331,rng,num-start-21,21,536,1001.782232761383,False,,False,0,True,1000,True,0.0
./expes/v2_2020-11-27_di_500-prng-3,daily_issda_500,500,first-500,361,rng,num-start-221,221,536,15.684203147888184,True,,True,1,False,1000,True,1.0
./expes/v2_2020-11-27_di_500-prng-3,daily_issda_500,500,first-500,471,rng,num-start-191,191,536,10.597697973251343,True,,True,1,False,1000,True,1.0
./expes/v2_2020-11-27_di_500-prng-3,daily_issda_500,500,first-500,261,rng,num-start-221,221,536,42.01259636878967,True,,True,1,False,1000,True,1.0
./expes/v2_2020-11-27_di_500-prng-3,daily_issda_500,500,first-500,481,rng,num-start-81,81,536,4.331554412841797,True,,True,1,False,1000,True,1.0
./expes/v2_2020-11-27_di_500-prng-3,daily_issda_500,500,first-500,431,rng,num-start-131,131,536,15.889219999313354,True,,True,1,False,1000,True,1.0
./expes/v2_2020-11-27_di_500-prng-3,daily_issda_500,500,first-500,331,rng,num-start-181,181,536,272.2464790344238,True,,True,1,False,1000,True,1.0
./expes/v2_2020-11-27_di_500-prng-3,daily_issda_500,500,first-500,81,rng,num-start-61,61,536,1002.841956615448,False,,False,0,True,1000,True,0.0
./expes/v2_2020-11-27_di_500-prng-3,daily_issda_500,500,first-500,171,rng,num-start-91,91,536,1004.2010087966919,False,,False,0,True,1000,True,0.0
./expes/v2_2020-11-27_di_500-prng-3,daily_issda_500,500,first-500,421,rng,num-start-1,1,536,6.2315967082977295,False,,False,2,False,1000,True,1.0
./expes/v2_2020-11-27_di_500-prng-3,daily_issda_500,500,first-500,381,rng,num-start-291,291,536,20.763652801513672,True,,True,1,False,1000,True,1.0
./expes/v2_2020-11-27_di_500-prng-3,daily_issda_500,500,first-500,421,rng,num-start-151,151,536,25.404422283172607,True,,True,1,False,1000,True,1.0
./expes/v2_2020-11-27_di_500-prng-3,daily_issda_500,500,first-500,251,rng,num-start-121,121,536,1005.7158975601196,False,,False,0,True,1000,True,0.0
./expes/v2_2020-11-27_di_500-prng-3,daily_issda_500,500,first-500,111,rng,num-start-51,51,536,1002.3270320892334,False,,False,0,True,1000,True,0.0
./expes/v2_2020-11-27_di_500-prng-3,daily_issda_500,500,first-500,111,rng,num-start-161,161,536,35.44377160072327,True,,True,1,False,1000,True,1.0
./expes/v2_2020-11-27_di_500-prng-3,daily_issda_500,500,first-500,351,rng,num-start-121,121,536,1005.6649327278137,False,,False,0,True,1000,True,0.0
./expes/v2_2020-11-27_di_500-prng-3,daily_issda_500,500,first-500,471,rng,num-start-81,81,536,8.4371497631073,True,,True,1,False,1000,True,1.0
./expes/v2_2020-11-27_di_500-prng-3,daily_issda_500,500,first-500,431,rng,num-start-181,181,536,11.076473951339722,True,,True,1,False,1000,True,1.0
./expes/v2_2020-11-27_di_500-prng-3,daily_issda_500,500,first-500,231,rng,num-start-261,261,536,20.457891941070557,True,,True,1,False,1000,True,1.0
./expes/v2_2020-11-27_di_500-prng-3,daily_issda_500,500,first-500,211,rng,num-start-101,101,536,1004.7391636371613,False,,False,0,True,1000,True,0.0
./expes/v2_2020-11-27_di_500-prng-3,daily_issda_500,500,first-500,391,rng,num-start-121,121,536,1005.5245833396912,False,,False,0,True,1000,True,0.0
./expes/v2_2020-11-27_di_500-prng-3,daily_issda_500,500,first-500,391,rng,num-start-201,201,536,17.24338388442993,True,,True,1,False,1000,True,1.0
./expes/v2_2020-11-27_di_500-prng-3,daily_issda_500,500,first-500,11,rng,num-start-81,81,536,4.055543422698975,True,,True,1,False,1000,True,1.0
./expes/v2_2020-11-27_di_500-prng-3,daily_issda_500,500,first-500,71,rng,num-start-51,51,536,1002.2592661380768,False,,False,0,True,1000,True,0.0
./expes/v2_2020-11-27_di_500-prng-3,daily_issda_500,500,first-500,371,rng,num-start-111,111,536,1005.0642294883728,False,,False,0,True,1000,True,0.0
./expes/v2_2020-11-27_di_500-prng-3,daily_issda_500,500,first-500,201,rng,num-start-291,291,536,20.89295792579651,True,,True,1,False,1000,True,1.0
./expes/v2_2020-11-27_di_500-prng-3,daily_issda_500,500,first-500,461,rng,num-start-251,251,536,13.164998531341553,True,,True,1,False,1000,True,1.0
./expes/v2_2020-11-27_di_500-prng-3,daily_issda_500,500,first-500,281,rng,num-start-281,281,536,29.670422554016113,True,,True,1,False,1000,True,1.0
./expes/v2_2020-11-27_di_500-prng-3,daily_issda_500,500,first-500,331,rng,num-start-101,101,536,1004.7604532241821,False,,False,0,True,1000,True,0.0
./expes/v2_2020-11-27_di_500-prng-3,daily_issda_500,500,first-500,361,rng,num-start-101,101,536,1004.8605563640594,False,,False,0,True,1000,True,0.0
./expes/v2_2020-11-27_di_500-prng-3,daily_issda_500,500,first-500,81,rng,num-start-21,21,536,1001.025981426239,False,,False,0,True,1000,True,0.0
./expes/v2_2020-11-27_di_500-prng-3,daily_issda_500,500,first-500,361,rng,num-start-251,251,536,16.759754419326782,True,,True,1,False,1000,True,1.0
./expes/v2_2020-11-27_di_500-prng-3,daily_issda_500,500,first-500,431,rng,num-start-31,31,536,1001.5147578716278,False,,False,0,True,1000,True,0.0
./expes/v2_2020-11-27_di_500-prng-3,daily_issda_500,500,first-500,461,rng,num-start-231,231,536,13.644606828689575,True,,True,1,False,1000,True,1.0
./expes/v2_2020-11-27_di_500-prng-3,daily_issda_500,500,first-500,291,rng,num-start-171,171,536,1008.1478750705719,False,,False,0,True,1000,True,0.0
./expes/v2_2020-11-27_di_500-prng-3,daily_issda_500,500,first-500,221,rng,num-start-281,281,536,23.3557231426239,True,,True,1,False,1000,True,1.0
./expes/v2_2020-11-27_di_500-prng-3,daily_issda_500,500,first-500,251,rng,num-start-201,201,536,61.167397260665894,True,,True,1,False,1000,True,1.0
./expes/v2_2020-11-27_di_500-prng-3,daily_issda_500,500,first-500,301,rng,num-start-121,121,536,1005.6613323688507,False,,False,0,True,1000,True,0.0
./expes/v2_2020-11-27_di_500-prng-3,daily_issda_500,500,first-500,91,rng,num-start-21,21,536,1001.2603266239166,False,,False,0,True,1000,True,0.0
./expes/v2_2020-11-27_di_500-prng-3,daily_issda_500,500,first-500,91,rng,num-start-281,281,536,18.41713786125183,True,,True,1,False,1000,True,1.0
./expes/v2_2020-11-27_di_500-prng-3,daily_issda_500,500,first-500,451,rng,num-start-151,151,536,10.04694652557373,True,,True,1,False,1000,True,1.0
./expes/v2_2020-11-27_di_500-prng-3,daily_issda_500,500,first-500,251,rng,num-start-151,151,536,1006.7829234600067,False,,False,0,True,1000,True,0.0
./expes/v2_2020-11-27_di_500-prng-3,daily_issda_500,500,first-500,291,rng,num-start-241,241,536,17.413872003555298,True,,True,1,False,1000,True,1.0
./expes/v2_2020-11-27_di_500-prng-3,daily_issda_500,500,first-500,111,rng,num-start-231,231,536,14.980884552001953,True,,True,1,False,1000,True,1.0
./expes/v2_2020-11-27_di_500-prng-3,daily_issda_500,500,first-500,391,rng,num-start-41,41,536,1001.8257894515991,False,,False,0,True,1000,True,0.0
./expes/v2_2020-11-27_di_500-prng-3,daily_issda_500,500,first-500,451,rng,num-start-281,281,536,15.716613054275513,True,,True,1,False,1000,True,1.0
./expes/v2_2020-11-27_di_500-prng-3,daily_issda_500,500,first-500,451,rng,num-start-191,191,536,11.698323726654053,True,,True,1,False,1000,True,1.0
./expes/v2_2020-11-27_di_500-prng-3,daily_issda_500,500,first-500,231,rng,num-start-91,91,536,1004.1419713497162,False,,False,0,True,1000,True,0.0
./expes/v2_2020-11-27_di_500-prng-3,daily_issda_500,500,first-500,351,rng,num-start-131,131,536,1005.7461693286896,False,,False,0,True,1000,True,0.0
./expes/v2_2020-11-27_di_500-prng-3,daily_issda_500,500,first-500,151,rng,num-start-71,71,536,1003.1284697055817,False,,False,0,True,1000,True,0.0
./expes/v2_2020-11-27_di_500-prng-3,daily_issda_500,500,first-500,161,rng,num-start-281,281,536,19.29412817955017,True,,True,1,False,1000,True,1.0
./expes/v2_2020-11-27_di_500-prng-3,daily_issda_500,500,first-500,271,rng,num-start-171,171,536,1007.7030284404755,False,,False,0,True,1000,True,0.0
./expes/v2_2020-11-27_di_500-prng-3,daily_issda_500,500,first-500,31,rng,num-start-41,41,536,1001.8360319137573,False,,False,0,True,1000,True,0.0
./expes/v2_2020-11-27_di_500-prng-3,daily_issda_500,500,first-500,241,rng,num-start-271,271,536,20.78329849243164,True,,True,1,False,1000,True,1.0
./expes/v2_2020-11-27_di_500-prng-3,daily_issda_500,500,first-500,311,rng,num-start-81,81,536,1003.8369228839874,False,,False,0,True,1000,True,0.0
./expes/v2_2020-11-27_di_500-prng-3,daily_issda_500,500,first-500,391,rng,num-start-271,271,536,17.35506510734558,True,,True,1,False,1000,True,1.0
./expes/v2_2020-11-27_di_500-prng-3,daily_issda_500,500,first-500,81,rng,num-start-101,101,536,1004.6450684070587,False,,False,0,True,1000,True,0.0
./expes/v2_2020-11-27_di_500-prng-3,daily_issda_500,500,first-500,401,rng,num-start-171,171,536,26.25082492828369,True,,True,1,False,1000,True,1.0
./expes/v2_2020-11-27_di_500-prng-3,daily_issda_500,500,first-500,191,rng,num-start-101,101,536,1004.65855717659,False,,False,0,True,1000,True,0.0
./expes/v2_2020-11-27_di_500-prng-3,daily_issda_500,500,first-500,401,rng,num-start-191,191,536,12.652039289474487,True,,True,1,False,1000,True,1.0
./expes/v2_2020-11-27_di_500-prng-3,daily_issda_500,500,first-500,51,rng,num-start-231,231,536,14.69357442855835,True,,True,1,False,1000,True,1.0
./expes/v2_2020-11-27_di_500-prng-3,daily_issda_500,500,first-500,61,rng,num-start-11,11,536,1000.6188888549805,False,,False,0,True,1000,True,0.0
./expes/v2_2020-11-27_di_500-prng-3,daily_issda_500,500,first-500,441,rng,num-start-221,221,536,14.707517862319946,True,,True,1,False,1000,True,1.0
./expes/v2_2020-11-27_di_500-prng-3,daily_issda_500,500,first-500,441,rng,num-start-291,291,536,19.98036813735962,True,,True,1,False,1000,True,1.0
./expes/v2_2020-11-27_di_500-prng-3,daily_issda_500,500,first-500,341,rng,num-start-201,201,536,44.46655201911926,True,,True,1,False,1000,True,1.0
./expes/v2_2020-11-27_di_500-prng-3,daily_issda_500,500,first-500,361,rng,num-start-81,81,536,1004.3591892719269,False,,False,0,True,1000,True,0.0
./expes/v2_2020-11-27_di_500-prng-3,daily_issda_500,500,first-500,31,rng,num-start-121,121,536,7.499107837677002,True,,True,1,False,1000,True,1.0
./expes/v2_2020-11-27_di_500-prng-3,daily_issda_500,500,first-500,481,rng,num-start-141,141,536,7.565185070037842,True,,True,1,False,1000,True,1.0
./expes/v2_2020-11-27_di_500-prng-3,daily_issda_500,500,first-500,251,rng,num-start-271,271,536,21.103960275650024,True,,True,1,False,1000,True,1.0
./expes/v2_2020-11-27_di_500-prng-3,daily_issda_500,500,first-500,301,rng,num-start-141,141,536,1006.4294242858887,False,,False,0,True,1000,True,0.0
./expes/v2_2020-11-27_di_500-prng-3,daily_issda_500,500,first-500,461,rng,num-start-11,11,536,1000.6548707485199,False,,False,0,True,1000,True,0.0
./expes/v2_2020-11-27_di_500-prng-3,daily_issda_500,500,first-500,131,rng,num-start-11,11,536,1000.855672121048,False,,False,0,True,1000,True,0.0
./expes/v2_2020-11-27_di_500-prng-3,daily_issda_500,500,first-500,121,rng,num-start-161,161,536,22.995115756988525,True,,True,1,False,1000,True,1.0
./expes/v2_2020-11-27_di_500-prng-3,daily_issda_500,500,first-500,271,rng,num-start-241,241,536,27.711992025375366,True,,True,1,False,1000,True,1.0
./expes/v2_2020-11-27_di_500-prng-3,daily_issda_500,500,first-500,331,rng,num-start-221,221,536,21.77356219291687,True,,True,1,False,1000,True,1.0
./expes/v2_2020-11-27_di_500-prng-3,daily_issda_500,500,first-500,141,rng,num-start-141,141,536,1006.6188561916351,False,,False,0,True,1000,True,0.0
./expes/v2_2020-11-27_di_500-prng-3,daily_issda_500,500,first-500,271,rng,num-start-21,21,536,1001.3837456703186,False,,False,0,True,1000,True,0.0
./expes/v2_2020-11-27_di_500-prng-3,daily_issda_500,500,first-500,121,rng,num-start-81,81,536,1003.748950958252,False,,False,0,True,1000,True,0.0
./expes/v2_2020-11-27_di_500-prng-3,daily_issda_500,500,first-500,281,rng,num-start-71,71,536,1003.2781136035919,False,,False,0,True,1000,True,0.0
./expes/v2_2020-11-27_di_500-prng-3,daily_issda_500,500,first-500,331,rng,num-start-281,281,536,19.382975578308105,True,,True,1,False,1000,True,1.0
./expes/v2_2020-11-27_di_500-prng-3,daily_issda_500,500,first-500,311,rng,num-start-201,201,536,185.2986183166504,True,,True,1,False,1000,True,1.0
./expes/v2_2020-11-27_di_500-prng-3,daily_issda_500,500,first-500,291,rng,num-start-1,1,536,4.046866178512573,False,,False,2,False,1000,True,1.0
./expes/v2_2020-11-27_di_500-prng-3,daily_issda_500,500,first-500,451,rng,num-start-171,171,536,9.555186033248901,True,,True,1,False,1000,True,1.0
./expes/v2_2020-11-27_di_500-prng-3,daily_issda_500,500,first-500,151,rng,num-start-291,291,536,19.5731999874115,True,,True,1,False,1000,True,1.0
./expes/v2_2020-11-27_di_500-prng-3,daily_issda_500,500,first-500,281,rng,num-start-21,21,536,1001.0926613807678,False,,False,0,True,1000,True,0.0
./expes/v2_2020-11-27_di_500-prng-3,daily_issda_500,500,first-500,291,rng,num-start-51,51,536,1002.448187828064,False,,False,0,True,1000,True,0.0
./expes/v2_2020-11-27_di_500-prng-3,daily_issda_500,500,first-500,91,rng,num-start-1,1,536,1.2442946434020996,False,,False,2,False,1000,True,1.0
./expes/v2_2020-11-27_di_500-prng-3,daily_issda_500,500,first-500,81,rng,num-start-211,211,536,16.508466482162476,True,,True,1,False,1000,True,1.0
./expes/v2_2020-11-27_di_500-prng-3,daily_issda_500,500,first-500,181,rng,num-start-21,21,536,1001.2009987831116,False,,False,0,True,1000,True,0.0
./expes/v2_2020-11-27_di_500-prng-3,daily_issda_500,500,first-500,441,rng,num-start-181,181,536,12.138168811798096,True,,True,1,False,1000,True,1.0
./expes/v2_2020-11-27_di_500-prng-3,daily_issda_500,500,first-500,51,rng,num-start-221,221,536,13.144745349884033,True,,True,1,False,1000,True,1.0
./expes/v2_2020-11-27_di_500-prng-3,daily_issda_500,500,first-500,1,rng,num-start-181,181,536,8.363178491592407,True,,True,1,False,1000,True,1.0
./expes/v2_2020-11-27_di_500-prng-3,daily_issda_500,500,first-500,1,rng,num-start-131,131,536,6.0663902759552,True,,True,1,False,1000,True,1.0
./expes/v2_2020-11-27_di_500-prng-3,daily_issda_500,500,first-500,391,rng,num-start-31,31,536,1001.5162577629089,False,,False,0,True,1000,True,0.0
./expes/v2_2020-11-27_di_500-prng-3,daily_issda_500,500,first-500,471,rng,num-start-201,201,536,11.004201650619507,True,,True,1,False,1000,True,1.0
./expes/v2_2020-11-27_di_500-prng-3,daily_issda_500,500,first-500,101,rng,num-start-231,231,536,16.60994577407837,True,,True,1,False,1000,True,1.0
