expe,clients,clients_size,clients_subset,agg_size,method,days,days_size,days_total,time,valid,valid_sum,success,nsols,wall_hit,wall_time,pooled,valid_sums
./expes/v2_2020-11-04_dbh_150-prng-1,daily_base_hphc_150,150,first-150,61,rng,num-start-121,121,365,1.3681447505950928,True,,True,1,False,1000,True,1.0
./expes/v2_2020-11-04_dbh_150-prng-1,daily_base_hphc_150,150,first-150,81,rng,num-start-61,61,365,0.9459817409515381,True,,True,1,False,1000,True,1.0
./expes/v2_2020-11-04_dbh_150-prng-1,daily_base_hphc_150,150,first-150,41,rng,num-start-231,231,365,2.0416440963745117,True,,True,1,False,1000,True,1.0
./expes/v2_2020-11-04_dbh_150-prng-1,daily_base_hphc_150,150,first-150,1,rng,num-start-101,101,365,0.6331338882446289,True,,True,1,False,1000,True,1.0
./expes/v2_2020-11-04_dbh_150-prng-1,daily_base_hphc_150,150,first-150,121,rng,num-start-151,151,365,1.4055581092834473,True,,True,1,False,1000,True,1.0
./expes/v2_2020-11-04_dbh_150-prng-1,daily_base_hphc_150,150,first-150,41,rng,num-start-211,211,365,1.9844169616699219,True,,True,1,False,1000,True,1.0
./expes/v2_2020-11-04_dbh_150-prng-1,daily_base_hphc_150,150,first-150,101,rng,num-start-21,21,365,1000.2274191379547,False,,False,0,True,1000,True,0.0
