expe,clients,clients_size,clients_subset,agg_size,method,days,days_size,days_total,time,valid,valid_sum,success,nsols,wall_hit,wall_time,pooled,valid_sums
./expes/v2_2020-11-04_dbh_150-prng-1,daily_base_hphc_150,150,first-150,41,rng,num-start-151,151,365,1.578160285949707,True,,True,1,False,1000,True,1.0
./expes/v2_2020-11-04_dbh_150-prng-1,daily_base_hphc_150,150,first-150,61,rng,num-start-131,131,365,1.1392171382904053,True,,True,1,False,1000,True,1.0
./expes/v2_2020-11-04_dbh_150-prng-1,daily_base_hphc_150,150,first-150,101,rng,num-start-91,91,365,0.8875248432159424,True,,True,1,False,1000,True,1.0
./expes/v2_2020-11-04_dbh_150-prng-1,daily_base_hphc_150,150,first-150,131,rng,num-start-141,141,365,1.2231550216674805,True,,True,1,False,1000,True,1.0
./expes/v2_2020-11-04_dbh_150-prng-1,daily_base_hphc_150,150,first-150,1,rng,num-start-151,151,365,0.8912632465362549,True,,True,1,False,1000,True,1.0
./expes/v2_2020-11-04_dbh_150-prng-1,daily_base_hphc_150,150,first-150,21,rng,num-start-221,221,365,1.9696552753448486,True,,True,1,False,1000,True,1.0
./expes/v2_2020-11-04_dbh_150-prng-1,daily_base_hphc_150,150,first-150,61,rng,num-start-91,91,365,1.0784015655517578,True,,True,1,False,1000,True,1.0
./expes/v2_2020-11-04_dbh_150-prng-1,daily_base_hphc_150,150,first-150,111,rng,num-start-1,1,365,0.039330482482910156,False,,False,2,False,1000,True,1.0
./expes/v2_2020-11-04_dbh_150-prng-1,daily_base_hphc_150,150,first-150,111,rng,num-start-171,171,365,1.4920094013214111,True,,True,1,False,1000,True,1.0
./expes/v2_2020-11-04_dbh_150-prng-1,daily_base_hphc_150,150,first-150,61,rng,num-start-11,11,365,1000.1894969940186,False,,False,0,True,1000,True,0.0
