expe,clients,clients_size,clients_subset,agg_size,method,days,days_size,days_total,time,valid,valid_sum,success,nsols,wall_hit,wall_time,pooled,valid_sums
./expes/v2_2020-11-04_hbh_150-prng-1,30_base_hphc_150,150,first-150,131,rng,num-start-701,701,17520,7.327607870101929,True,,True,1,False,1000,True,1.0
./expes/v2_2020-11-04_hbh_150-prng-1,30_base_hphc_150,150,first-150,141,rng,num-start-341,341,17520,3.0070581436157227,True,,True,1,False,1000,True,1.0
./expes/v2_2020-11-04_hbh_150-prng-1,30_base_hphc_150,150,first-150,61,rng,num-start-441,441,17520,4.675191640853882,True,,True,1,False,1000,True,1.0
./expes/v2_2020-11-04_hbh_150-prng-1,30_base_hphc_150,150,first-150,121,rng,num-start-51,51,17520,0.6588578224182129,True,,True,1,False,1000,True,1.0
./expes/v2_2020-11-04_hbh_150-prng-1,30_base_hphc_150,150,first-150,131,rng,num-start-931,931,17520,8.620367765426636,True,,True,1,False,1000,True,1.0
./expes/v2_2020-11-04_hbh_150-prng-1,30_base_hphc_150,150,first-150,81,rng,num-start-171,171,17520,1.9121603965759277,True,,True,1,False,1000,True,1.0
./expes/v2_2020-11-04_hbh_150-prng-1,30_base_hphc_150,150,first-150,41,rng,num-start-101,101,17520,1.2442076206207275,True,,True,1,False,1000,True,1.0
./expes/v2_2020-11-04_hbh_150-prng-1,30_base_hphc_150,150,first-150,81,rng,num-start-891,891,17520,10.51456093788147,True,,True,1,False,1000,True,1.0
./expes/v2_2020-11-04_hbh_150-prng-1,30_base_hphc_150,150,first-150,61,rng,num-start-641,641,17520,6.11725640296936,True,,True,1,False,1000,True,1.0
./expes/v2_2020-11-04_hbh_150-prng-1,30_base_hphc_150,150,first-150,61,rng,num-start-141,141,17520,1.6192426681518555,True,,True,1,False,1000,True,1.0
./expes/v2_2020-11-04_hbh_150-prng-1,30_base_hphc_150,150,first-150,111,rng,num-start-521,521,17520,5.037715196609497,True,,True,1,False,1000,True,1.0
./expes/v2_2020-11-04_hbh_150-prng-1,30_base_hphc_150,150,first-150,11,rng,num-start-581,581,17520,5.864523887634277,True,,True,1,False,1000,True,1.0
./expes/v2_2020-11-04_hbh_150-prng-1,30_base_hphc_150,150,first-150,71,rng,num-start-651,651,17520,6.797162771224976,True,,True,1,False,1000,True,1.0
./expes/v2_2020-11-04_hbh_150-prng-1,30_base_hphc_150,150,first-150,141,rng,num-start-911,911,17520,8.049277782440186,True,,True,1,False,1000,True,1.0
./expes/v2_2020-11-04_hbh_150-prng-1,30_base_hphc_150,150,first-150,21,rng,num-start-381,381,17520,4.665658712387085,True,,True,1,False,1000,True,1.0
./expes/v2_2020-11-04_hbh_150-prng-1,30_base_hphc_150,150,first-150,71,rng,num-start-81,81,17520,1.0619206428527832,True,,True,1,False,1000,True,1.0
./expes/v2_2020-11-04_hbh_150-prng-1,30_base_hphc_150,150,first-150,111,rng,num-start-281,281,17520,3.365999937057495,True,,True,1,False,1000,True,1.0
./expes/v2_2020-11-04_hbh_150-prng-1,30_base_hphc_150,150,first-150,1,rng,num-start-421,421,17520,3.4495668411254883,True,,True,1,False,1000,True,1.0
./expes/v2_2020-11-04_hbh_150-prng-1,30_base_hphc_150,150,first-150,11,rng,num-start-281,281,17520,3.4663476943969727,True,,True,1,False,1000,True,1.0
./expes/v2_2020-11-04_hbh_150-prng-1,30_base_hphc_150,150,first-150,11,rng,num-start-751,751,17520,7.91321325302124,True,,True,1,False,1000,True,1.0
./expes/v2_2020-11-04_hbh_150-prng-1,30_base_hphc_150,150,first-150,111,rng,num-start-631,631,17520,8.035029649734497,True,,True,1,False,1000,True,1.0
./expes/v2_2020-11-04_hbh_150-prng-1,30_base_hphc_150,150,first-150,91,rng,num-start-341,341,17520,3.998605489730835,True,,True,1,False,1000,True,1.0
./expes/v2_2020-11-04_hbh_150-prng-1,30_base_hphc_150,150,first-150,31,rng,num-start-161,161,17520,2.0590755939483643,True,,True,1,False,1000,True,1.0
./expes/v2_2020-11-04_hbh_150-prng-1,30_base_hphc_150,150,first-150,121,rng,num-start-611,611,17520,7.558162450790405,True,,True,1,False,1000,True,1.0
./expes/v2_2020-11-04_hbh_150-prng-1,30_base_hphc_150,150,first-150,31,rng,num-start-261,261,17520,3.309244155883789,True,,True,1,False,1000,True,1.0
./expes/v2_2020-11-04_hbh_150-prng-1,30_base_hphc_150,150,first-150,61,rng,num-start-371,371,17520,4.603724002838135,True,,True,1,False,1000,True,1.0
./expes/v2_2020-11-04_hbh_150-prng-1,30_base_hphc_150,150,first-150,61,rng,num-start-341,341,17520,4.247941017150879,True,,True,1,False,1000,True,1.0
./expes/v2_2020-11-04_hbh_150-prng-1,30_base_hphc_150,150,first-150,81,rng,num-start-361,361,17520,4.51767373085022,True,,True,1,False,1000,True,1.0
./expes/v2_2020-11-04_hbh_150-prng-1,30_base_hphc_150,150,first-150,31,rng,num-start-991,991,17520,13.653517723083496,True,,True,1,False,1000,True,1.0
./expes/v2_2020-11-04_hbh_150-prng-1,30_base_hphc_150,150,first-150,141,rng,num-start-331,331,17520,3.367405652999878,True,,True,1,False,1000,True,1.0
./expes/v2_2020-11-04_hbh_150-prng-1,30_base_hphc_150,150,first-150,131,rng,num-start-251,251,17520,2.943784236907959,True,,True,1,False,1000,True,1.0
./expes/v2_2020-11-04_hbh_150-prng-1,30_base_hphc_150,150,first-150,31,rng,num-start-11,11,17520,1000.1362881660461,False,,False,0,True,1000,True,0.0
