expe,clients,clients_size,clients_subset,agg_size,method,days,days_size,days_total,time,valid,valid_sum,success,nsols,wall_hit,wall_time,pooled,valid_sums
./expes/v2_2020-11-04_hbh_150-prng-1,30_base_hphc_150,150,first-150,141,rng,num-start-201,201,17520,2.2065064907073975,True,,True,1,False,1000,True,1.0
./expes/v2_2020-11-04_hbh_150-prng-1,30_base_hphc_150,150,first-150,71,rng,num-start-281,281,17520,3.228405237197876,True,,True,1,False,1000,True,1.0
./expes/v2_2020-11-04_hbh_150-prng-1,30_base_hphc_150,150,first-150,1,rng,num-start-211,211,17520,1.6245238780975342,True,,True,1,False,1000,True,1.0
./expes/v2_2020-11-04_hbh_150-prng-1,30_base_hphc_150,150,first-150,121,rng,num-start-41,41,17520,1.1378073692321777,True,,True,1,False,1000,True,1.0
./expes/v2_2020-11-04_hbh_150-prng-1,30_base_hphc_150,150,first-150,11,rng,num-start-941,941,17520,9.151301622390747,True,,True,1,False,1000,True,1.0
./expes/v2_2020-11-04_hbh_150-prng-1,30_base_hphc_150,150,first-150,81,rng,num-start-691,691,17520,7.007671356201172,True,,True,1,False,1000,True,1.0
./expes/v2_2020-11-04_hbh_150-prng-1,30_base_hphc_150,150,first-150,91,rng,num-start-51,51,17520,11.31252145767212,True,,True,1,False,1000,True,1.0
./expes/v2_2020-11-04_hbh_150-prng-1,30_base_hphc_150,150,first-150,121,rng,num-start-401,401,17520,3.95736026763916,True,,True,1,False,1000,True,1.0
./expes/v2_2020-11-04_hbh_150-prng-1,30_base_hphc_150,150,first-150,111,rng,num-start-261,261,17520,2.5223047733306885,True,,True,1,False,1000,True,1.0
./expes/v2_2020-11-04_hbh_150-prng-1,30_base_hphc_150,150,first-150,141,rng,num-start-661,661,17520,5.536621332168579,True,,True,1,False,1000,True,1.0
./expes/v2_2020-11-04_hbh_150-prng-1,30_base_hphc_150,150,first-150,31,rng,num-start-111,111,17520,1.2577416896820068,True,,True,1,False,1000,True,1.0
./expes/v2_2020-11-04_hbh_150-prng-1,30_base_hphc_150,150,first-150,41,rng,num-start-431,431,17520,4.9823338985443115,True,,True,1,False,1000,True,1.0
./expes/v2_2020-11-04_hbh_150-prng-1,30_base_hphc_150,150,first-150,41,rng,num-start-881,881,17520,13.926807880401611,True,,True,1,False,1000,True,1.0
./expes/v2_2020-11-04_hbh_150-prng-1,30_base_hphc_150,150,first-150,101,rng,num-start-251,251,17520,3.0264551639556885,True,,True,1,False,1000,True,1.0
./expes/v2_2020-11-04_hbh_150-prng-1,30_base_hphc_150,150,first-150,21,rng,num-start-551,551,17520,6.6235032081604,True,,True,1,False,1000,True,1.0
./expes/v2_2020-11-04_hbh_150-prng-1,30_base_hphc_150,150,first-150,91,rng,num-start-391,391,17520,5.008021116256714,True,,True,1,False,1000,True,1.0
./expes/v2_2020-11-04_hbh_150-prng-1,30_base_hphc_150,150,first-150,101,rng,num-start-821,821,17520,9.403198957443237,True,,True,1,False,1000,True,1.0
./expes/v2_2020-11-04_hbh_150-prng-1,30_base_hphc_150,150,first-150,81,rng,num-start-771,771,17520,10.584357023239136,True,,True,1,False,1000,True,1.0
./expes/v2_2020-11-04_hbh_150-prng-1,30_base_hphc_150,150,first-150,101,rng,num-start-391,391,17520,4.440504550933838,True,,True,1,False,1000,True,1.0
./expes/v2_2020-11-04_hbh_150-prng-1,30_base_hphc_150,150,first-150,111,rng,num-start-681,681,17520,8.372750997543335,True,,True,1,False,1000,True,1.0
./expes/v2_2020-11-04_hbh_150-prng-1,30_base_hphc_150,150,first-150,31,rng,num-start-391,391,17520,4.857388496398926,True,,True,1,False,1000,True,1.0
./expes/v2_2020-11-04_hbh_150-prng-1,30_base_hphc_150,150,first-150,141,rng,num-start-161,161,17520,1.9104909896850586,True,,True,1,False,1000,True,1.0
./expes/v2_2020-11-04_hbh_150-prng-1,30_base_hphc_150,150,first-150,11,rng,num-start-921,921,17520,10.198436260223389,True,,True,1,False,1000,True,1.0
./expes/v2_2020-11-04_hbh_150-prng-1,30_base_hphc_150,150,first-150,11,rng,num-start-831,831,17520,9.179429292678833,True,,True,1,False,1000,True,1.0
./expes/v2_2020-11-04_hbh_150-prng-1,30_base_hphc_150,150,first-150,11,rng,num-start-571,571,17520,6.172160625457764,True,,True,1,False,1000,True,1.0
./expes/v2_2020-11-04_hbh_150-prng-1,30_base_hphc_150,150,first-150,21,rng,num-start-981,981,17520,12.139440774917603,True,,True,1,False,1000,True,1.0
./expes/v2_2020-11-04_hbh_150-prng-1,30_base_hphc_150,150,first-150,101,rng,num-start-701,701,17520,8.426250696182251,True,,True,1,False,1000,True,1.0
./expes/v2_2020-11-04_hbh_150-prng-1,30_base_hphc_150,150,first-150,21,rng,num-start-941,941,17520,12.986784219741821,True,,True,1,False,1000,True,1.0
./expes/v2_2020-11-04_hbh_150-prng-1,30_base_hphc_150,150,first-150,41,rng,num-start-591,591,17520,8.45423436164856,True,,True,1,False,1000,True,1.0
./expes/v2_2020-11-04_hbh_150-prng-1,30_base_hphc_150,150,first-150,111,rng,num-start-341,341,17520,4.375763177871704,True,,True,1,False,1000,True,1.0
./expes/v2_2020-11-04_hbh_150-prng-1,30_base_hphc_150,150,first-150,101,rng,num-start-291,291,17520,4.023038387298584,True,,True,1,False,1000,True,1.0
./expes/v2_2020-11-04_hbh_150-prng-1,30_base_hphc_150,150,first-150,31,rng,num-start-531,531,17520,7.402979135513306,True,,True,1,False,1000,True,1.0
./expes/v2_2020-11-04_hbh_150-prng-1,30_base_hphc_150,150,first-150,21,rng,num-start-491,491,17520,6.441138505935669,True,,True,1,False,1000,True,1.0
./expes/v2_2020-11-04_hbh_150-prng-1,30_base_hphc_150,150,first-150,131,rng,num-start-551,551,17520,6.273873329162598,True,,True,1,False,1000,True,1.0
./expes/v2_2020-11-04_hbh_150-prng-1,30_base_hphc_150,150,first-150,1,rng,num-start-241,241,17520,2.2638444900512695,True,,True,1,False,1000,True,1.0
./expes/v2_2020-11-04_hbh_150-prng-1,30_base_hphc_150,150,first-150,71,rng,num-start-241,241,17520,3.44870924949646,True,,True,1,False,1000,True,1.0
./expes/v2_2020-11-04_hbh_150-prng-1,30_base_hphc_150,150,first-150,131,rng,num-start-791,791,17520,9.969162702560425,True,,True,1,False,1000,True,1.0
