expe,clients,clients_size,clients_subset,agg_size,method,days,days_size,days_total,time,valid,valid_sum,success,nsols,wall_hit,wall_time,pooled,valid_sums
./expes/v2_2020-11-04_hbh_150-prng-1,30_base_hphc_150,150,first-150,61,rng,num-start-571,571,17520,5.402623176574707,True,,True,1,False,1000,True,1.0
./expes/v2_2020-11-04_hbh_150-prng-1,30_base_hphc_150,150,first-150,121,rng,num-start-981,981,17520,8.50101613998413,True,,True,1,False,1000,True,1.0
./expes/v2_2020-11-04_hbh_150-prng-1,30_base_hphc_150,150,first-150,91,rng,num-start-651,651,17520,6.1111900806427,True,,True,1,False,1000,True,1.0
./expes/v2_2020-11-04_hbh_150-prng-1,30_base_hphc_150,150,first-150,1,rng,num-start-491,491,17520,3.6493566036224365,True,,True,1,False,1000,True,1.0
./expes/v2_2020-11-04_hbh_150-prng-1,30_base_hphc_150,150,first-150,51,rng,num-start-431,431,17520,4.086897611618042,True,,True,1,False,1000,True,1.0
./expes/v2_2020-11-04_hbh_150-prng-1,30_base_hphc_150,150,first-150,1,rng,num-start-131,131,17520,1.0153796672821045,True,,True,1,False,1000,True,1.0
./expes/v2_2020-11-04_hbh_150-prng-1,30_base_hphc_150,150,first-150,131,rng,num-start-921,921,17520,10.000496625900269,True,,True,1,False,1000,True,1.0
./expes/v2_2020-11-04_hbh_150-prng-1,30_base_hphc_150,150,first-150,41,rng,num-start-301,301,17520,3.02944278717041,True,,True,1,False,1000,True,1.0
./expes/v2_2020-11-04_hbh_150-prng-1,30_base_hphc_150,150,first-150,121,rng,num-start-591,591,17520,5.615838527679443,True,,True,1,False,1000,True,1.0
./expes/v2_2020-11-04_hbh_150-prng-1,30_base_hphc_150,150,first-150,131,rng,num-start-121,121,17520,1.1975946426391602,True,,True,1,False,1000,True,1.0
./expes/v2_2020-11-04_hbh_150-prng-1,30_base_hphc_150,150,first-150,1,rng,num-start-221,221,17520,1.6444709300994873,True,,True,1,False,1000,True,1.0
./expes/v2_2020-11-04_hbh_150-prng-1,30_base_hphc_150,150,first-150,41,rng,num-start-291,291,17520,3.127349615097046,True,,True,1,False,1000,True,1.0
./expes/v2_2020-11-04_hbh_150-prng-1,30_base_hphc_150,150,first-150,61,rng,num-start-191,191,17520,1.9734272956848145,True,,True,1,False,1000,True,1.0
./expes/v2_2020-11-04_hbh_150-prng-1,30_base_hphc_150,150,first-150,1,rng,num-start-861,861,17520,6.528753280639648,True,,True,1,False,1000,True,1.0
./expes/v2_2020-11-04_hbh_150-prng-1,30_base_hphc_150,150,first-150,11,rng,num-start-161,161,17520,1.6552772521972656,True,,True,1,False,1000,True,1.0
./expes/v2_2020-11-04_hbh_150-prng-1,30_base_hphc_150,150,first-150,121,rng,num-start-441,441,17520,4.437838792800903,True,,True,1,False,1000,True,1.0
./expes/v2_2020-11-04_hbh_150-prng-1,30_base_hphc_150,150,first-150,61,rng,num-start-761,761,17520,8.030571460723877,True,,True,1,False,1000,True,1.0
./expes/v2_2020-11-04_hbh_150-prng-1,30_base_hphc_150,150,first-150,91,rng,num-start-871,871,17520,9.244436264038086,True,,True,1,False,1000,True,1.0
./expes/v2_2020-11-04_hbh_150-prng-1,30_base_hphc_150,150,first-150,131,rng,num-start-411,411,17520,4.140009880065918,True,,True,1,False,1000,True,1.0
./expes/v2_2020-11-04_hbh_150-prng-1,30_base_hphc_150,150,first-150,31,rng,num-start-951,951,17520,10.567976236343384,True,,True,1,False,1000,True,1.0
./expes/v2_2020-11-04_hbh_150-prng-1,30_base_hphc_150,150,first-150,31,rng,num-start-271,271,17520,2.7861695289611816,True,,True,1,False,1000,True,1.0
./expes/v2_2020-11-04_hbh_150-prng-1,30_base_hphc_150,150,first-150,141,rng,num-start-781,781,17520,6.697149753570557,True,,True,1,False,1000,True,1.0
./expes/v2_2020-11-04_hbh_150-prng-1,30_base_hphc_150,150,first-150,31,rng,num-start-711,711,17520,7.415244102478027,True,,True,1,False,1000,True,1.0
./expes/v2_2020-11-04_hbh_150-prng-1,30_base_hphc_150,150,first-150,101,rng,num-start-431,431,17520,4.305122137069702,True,,True,1,False,1000,True,1.0
./expes/v2_2020-11-04_hbh_150-prng-1,30_base_hphc_150,150,first-150,91,rng,num-start-101,101,17520,1.2087182998657227,True,,True,1,False,1000,True,1.0
./expes/v2_2020-11-04_hbh_150-prng-1,30_base_hphc_150,150,first-150,141,rng,num-start-321,321,17520,3.0205976963043213,True,,True,1,False,1000,True,1.0
./expes/v2_2020-11-04_hbh_150-prng-1,30_base_hphc_150,150,first-150,61,rng,num-start-781,781,17520,7.998453378677368,True,,True,1,False,1000,True,1.0
./expes/v2_2020-11-04_hbh_150-prng-1,30_base_hphc_150,150,first-150,101,rng,num-start-331,331,17520,3.4902725219726562,True,,True,1,False,1000,True,1.0
./expes/v2_2020-11-04_hbh_150-prng-1,30_base_hphc_150,150,first-150,51,rng,num-start-241,241,17520,2.581123113632202,True,,True,1,False,1000,True,1.0
./expes/v2_2020-11-04_hbh_150-prng-1,30_base_hphc_150,150,first-150,51,rng,num-start-381,381,17520,3.6870813369750977,True,,True,1,False,1000,True,1.0
./expes/v2_2020-11-04_hbh_150-prng-1,30_base_hphc_150,150,first-150,11,rng,num-start-791,791,17520,7.58135724067688,True,,True,1,False,1000,True,1.0
./expes/v2_2020-11-04_hbh_150-prng-1,30_base_hphc_150,150,first-150,11,rng,num-start-61,61,17520,0.667449951171875,True,,True,1,False,1000,True,1.0
./expes/v2_2020-11-04_hbh_150-prng-1,30_base_hphc_150,150,first-150,101,rng,num-start-171,171,17520,1.8577210903167725,True,,True,1,False,1000,True,1.0
./expes/v2_2020-11-04_hbh_150-prng-1,30_base_hphc_150,150,first-150,41,rng,num-start-761,761,17520,7.434894323348999,True,,True,1,False,1000,True,1.0
./expes/v2_2020-11-04_hbh_150-prng-1,30_base_hphc_150,150,first-150,51,rng,num-start-791,791,17520,8.910187721252441,True,,True,1,False,1000,True,1.0
./expes/v2_2020-11-04_hbh_150-prng-1,30_base_hphc_150,150,first-150,1,rng,num-start-911,911,17520,7.481691837310791,True,,True,1,False,1000,True,1.0
./expes/v2_2020-11-04_hbh_150-prng-1,30_base_hphc_150,150,first-150,31,rng,num-start-871,871,17520,9.928648948669434,True,,True,1,False,1000,True,1.0
./expes/v2_2020-11-04_hbh_150-prng-1,30_base_hphc_150,150,first-150,21,rng,num-start-401,401,17520,4.026238918304443,True,,True,1,False,1000,True,1.0
./expes/v2_2020-11-04_hbh_150-prng-1,30_base_hphc_150,150,first-150,1,rng,num-start-621,621,17520,5.112624883651733,True,,True,1,False,1000,True,1.0
./expes/v2_2020-11-04_hbh_150-prng-1,30_base_hphc_150,150,first-150,71,rng,num-start-951,951,17520,10.319074392318726,True,,True,1,False,1000,True,1.0
./expes/v2_2020-11-04_hbh_150-prng-1,30_base_hphc_150,150,first-150,61,rng,num-start-841,841,17520,9.280509233474731,True,,True,1,False,1000,True,1.0
./expes/v2_2020-11-04_hbh_150-prng-1,30_base_hphc_150,150,first-150,61,rng,num-start-551,551,17520,5.6917500495910645,True,,True,1,False,1000,True,1.0
./expes/v2_2020-11-04_hbh_150-prng-1,30_base_hphc_150,150,first-150,41,rng,num-start-771,771,17520,7.494279384613037,True,,True,1,False,1000,True,1.0
./expes/v2_2020-11-04_hbh_150-prng-1,30_base_hphc_150,150,first-150,31,rng,num-start-51,51,17520,0.8934364318847656,True,,True,1,False,1000,True,1.0
./expes/v2_2020-11-04_hbh_150-prng-1,30_base_hphc_150,150,first-150,81,rng,num-start-461,461,17520,4.662898778915405,True,,True,1,False,1000,True,1.0
./expes/v2_2020-11-04_hbh_150-prng-1,30_base_hphc_150,150,first-150,101,rng,num-start-731,731,17520,7.885841369628906,True,,True,1,False,1000,True,1.0
./expes/v2_2020-11-04_hbh_150-prng-1,30_base_hphc_150,150,first-150,61,rng,num-start-861,861,17520,9.990462064743042,True,,True,1,False,1000,True,1.0
./expes/v2_2020-11-04_hbh_150-prng-1,30_base_hphc_150,150,first-150,11,rng,num-start-661,661,17520,7.008610486984253,True,,True,1,False,1000,True,1.0
./expes/v2_2020-11-04_hbh_150-prng-1,30_base_hphc_150,150,first-150,21,rng,num-start-421,421,17520,4.858802556991577,True,,True,1,False,1000,True,1.0
./expes/v2_2020-11-04_hbh_150-prng-1,30_base_hphc_150,150,first-150,131,rng,num-start-341,341,17520,3.832906484603882,True,,True,1,False,1000,True,1.0
./expes/v2_2020-11-04_hbh_150-prng-1,30_base_hphc_150,150,first-150,41,rng,num-start-861,861,17520,9.165693044662476,True,,True,1,False,1000,True,1.0
./expes/v2_2020-11-04_hbh_150-prng-1,30_base_hphc_150,150,first-150,111,rng,num-start-911,911,17520,11.262840747833252,True,,True,1,False,1000,True,1.0
./expes/v2_2020-11-04_hbh_150-prng-1,30_base_hphc_150,150,first-150,21,rng,num-start-331,331,17520,3.596179962158203,True,,True,1,False,1000,True,1.0
./expes/v2_2020-11-04_hbh_150-prng-1,30_base_hphc_150,150,first-150,21,rng,num-start-131,131,17520,1.633335828781128,True,,True,1,False,1000,True,1.0
./expes/v2_2020-11-04_hbh_150-prng-1,30_base_hphc_150,150,first-150,71,rng,num-start-861,861,17520,9.934302568435669,True,,True,1,False,1000,True,1.0
./expes/v2_2020-11-04_hbh_150-prng-1,30_base_hphc_150,150,first-150,21,rng,num-start-371,371,17520,4.593604564666748,True,,True,1,False,1000,True,1.0
./expes/v2_2020-11-04_hbh_150-prng-1,30_base_hphc_150,150,first-150,111,rng,num-start-551,551,17520,6.066818475723267,True,,True,1,False,1000,True,1.0
./expes/v2_2020-11-04_hbh_150-prng-1,30_base_hphc_150,150,first-150,121,rng,num-start-281,281,17520,3.2231390476226807,True,,True,1,False,1000,True,1.0
./expes/v2_2020-11-04_hbh_150-prng-1,30_base_hphc_150,150,first-150,141,rng,num-start-941,941,17520,8.87991452217102,True,,True,1,False,1000,True,1.0
./expes/v2_2020-11-04_hbh_150-prng-1,30_base_hphc_150,150,first-150,141,rng,num-start-511,511,17520,5.315420627593994,True,,True,1,False,1000,True,1.0
./expes/v2_2020-11-04_hbh_150-prng-1,30_base_hphc_150,150,first-150,71,rng,num-start-301,301,17520,3.535132646560669,True,,True,1,False,1000,True,1.0
./expes/v2_2020-11-04_hbh_150-prng-1,30_base_hphc_150,150,first-150,81,rng,num-start-921,921,17520,9.579555749893188,True,,True,1,False,1000,True,1.0
