,expe,clients,clients_size,clients_subset,agg_size,agg_size_pc,method,days,days_size,days_total,noise_method,time,valid,valid_sum,success,score_avg,score_min,score_max,nsols,oracle,wall_hit,wall_time,pooled,pool_size,optimal,valid_sums,uuid
0,./expes/v3_2021-01-29_hi_300-prng-1-w1-p100,30_issda-300,300,first-300,77,25,rng,num-start-231,231,25726,classic,9.095062971115112,True,,True,1.0,1.0,1.0,1,"Index(['1', '6', '10', '14', '15', '16', '17', '23', '27', '31', '32', '39',
       '43', '45', '47', '58', '59', '70', '74', '75', '84', '88', '92', '99',
       '103', '105', '108', '114', '115', '117', '121', '130', '134', '138',
       '141', '159', '161', '172', '173', '174', '180', '183', '186', '187',
       '189', '191', '192', '196', '197', '198', '199', '206', '208', '215',
       '217', '219', '221', '226', '228', '236', '241', '243', '245', '248',
       '257', '260', '261', '262', '263', '266', '271', '277', '278', '285',
       '286', '294', '296'],
      dtype='object')",False,1000,True,100,1.0,1.0,cb27b92d2b
1,./expes/v3_2021-01-29_hi_300-prng-1-w1-p100,30_issda-300,300,first-300,63,21,rng,num-start-171,171,25726,classic,6.37037467956543,True,,True,1.0,1.0,1.0,1,"Index(['1', '6', '10', '16', '27', '31', '32', '39', '43', '45', '47', '58',
       '59', '70', '74', '75', '84', '88', '99', '103', '108', '115', '117',
       '121', '130', '134', '138', '141', '159', '161', '172', '173', '174',
       '180', '183', '186', '187', '189', '191', '192', '196', '197', '198',
       '206', '208', '215', '217', '226', '228', '236', '241', '243', '245',
       '248', '260', '261', '263', '271', '277', '278', '285', '286', '296'],
      dtype='object')",False,1000,True,100,1.0,1.0,8c6e3f81a6
2,./expes/v3_2021-01-29_hi_300-prng-1-w1-p100,30_issda-300,300,first-300,14,4,rng,num-start-101,101,25726,classic,3.851032733917236,True,,True,1.0,1.0,1.0,1,"Index(['16', '23', '44', '65', '71', '99', '108', '117', '127', '190', '193',
       '206', '236', '260'],
      dtype='object')",False,1000,True,100,1.0,1.0,b12d6fef8b
3,./expes/v3_2021-01-29_hi_300-prng-1-w1-p100,30_issda-300,300,first-300,49,16,rng,num-start-11,11,25726,classic,1000.4084239006042,False,,False,0.0,,,0,"Index(['1', '6', '10', '27', '31', '32', '39', '43', '45', '47', '58', '70',
       '74', '75', '84', '88', '103', '108', '115', '117', '138', '141', '161',
       '173', '174', '180', '189', '192', '196', '197', '206', '208', '215',
       '217', '226', '228', '236', '241', '243', '245', '248', '260', '261',
       '263', '271', '277', '285', '286', '296'],
      dtype='object')",True,1000,True,100,0.0,0.0,920f1c4548
4,./expes/v3_2021-01-29_hi_300-prng-1-w1-p100,30_issda-300,300,first-300,91,30,rng,num-start-10800,10800,25726,classic,470.6517970561981,True,,True,1.0,1.0,1.0,1,"Index(['1', '6', '10', '14', '15', '16', '17', '19', '23', '27', '31', '32',
       '39', '40', '43', '45', '47', '53', '58', '59', '70', '74', '75', '84',
       '88', '92', '99', '103', '105', '107', '108', '113', '114', '115',
       '117', '121', '130', '134', '138', '141', '142', '145', '159', '161',
       '172', '173', '174', '177', '180', '183', '186', '187', '189', '191',
       '192', '196', '197', '198', '199', '206', '208', '215', '217', '219',
       '221', '222', '226', '228', '234', '236', '241', '243', '244', '245',
       '248', '256', '257', '260', '261', '262', '263', '264', '266', '271',
       '277', '278', '282', '285', '286', '294', '296'],
      dtype='object')",False,1000,True,100,1.0,1.0,e6ac16a88b
5,./expes/v3_2021-01-29_hi_300-prng-1-w1-p100,30_issda-300,300,first-300,126,42,rng,num-start-10300,10300,25726,classic,405.4352550506592,True,,True,1.0,1.0,1.0,1,"Index(['3', '4', '5', '6', '7', '8', '11', '12', '15', '16',
       ...
       '265', '268', '270', '274', '277', '278', '289', '294', '297', '299'],
      dtype='object', length=126)",False,1000,True,100,1.0,1.0,9791cea23c
6,./expes/v3_2021-01-29_hi_300-prng-1-w1-p100,30_issda-300,300,first-300,21,7,rng,num-start-8300,8300,25726,classic,322.20360803604126,True,,True,1.0,1.0,1.0,1,"Index(['1', '12', '19', '42', '49', '75', '99', '102', '134', '140', '164',
       '192', '212', '241', '249', '251', '276', '277', '284', '289', '294'],
      dtype='object')",False,1000,True,100,1.0,1.0,c0b855368e
7,./expes/v3_2021-01-29_hi_300-prng-1-w1-p100,30_issda-300,300,first-300,133,44,rng,num-start-9800,9800,25726,classic,391.29419207572937,True,,True,1.0,1.0,1.0,1,"Index(['1', '2', '3', '5', '7', '10', '12', '15', '17', '19',
       ...
       '273', '274', '277', '279', '280', '281', '282', '289', '294', '297'],
      dtype='object', length=133)",False,1000,True,100,1.0,1.0,ca8ae918dd
