expe,clients,clients_size,clients_subset,agg_size,agg_size_pc,method,days,days_size,days_total,noise_method,time,valid,valid_sum,success,score_avg,score_min,score_max,nsols,oracle,wall_hit,wall_time,pooled,pool_size,uuid,infeasible,optimal,valid_sums
./expes/v2_2021-04-12_issda-daily_500-prng-1-w1-p2,daily_issda-500,500,first-500,300,60,rng,num-start-300,300,536,classic,22.687716960906982,True,,True,1.0,1.0,1.0,1,"['1', '2', '3', '5', '7', '8', '9', '10', '11', '12', '13', '14', '15', '16', '17', '18', '19', '20', '23', '25', '29', '31', '33', '34', '36', '37', '40', '43', '45', '47', '49', '50', '51', '52', '53', '54', '56', '57', '59', '61', '62', '65', '67', '69', '70', '75', '81', '82', '83', '84', '86', '87', '88', '89', '91', '93', '95', '96', '97', '98', '100', '103', '106', '108', '109', '110', '111', '112', '113', '114', '115', '116', '117', '118', '119', '120', '121', '125', '128', '130', '131', '133', '137', '138', '140', '144', '145', '146', '149', '151', '152', '153', '156', '157', '158', '159', '160', '163', '165', '167', '168', '170', '171', '174', '176', '177', '178', '181', '183', '187', '188', '190', '192', '194', '195', '196', '197', '198', '200', '202', '203', '204', '206', '207', '208', '212', '213', '214', '216', '217', '219', '220', '222', '225', '229', '231', '232', '233', '235', '236', '241', '242', '243', '246', '247', '249', '250', '251', '253', '254', '255', '256', '257', '258', '259', '260', '261', '262', '263', '264', '265', '266', '267', '269', '271', '273', '274', '276', '277', '278', '279', '281', '282', '283', '284', '285', '288', '289', '290', '292', '294', '295', '296', '297', '300', '301', '302', '303', '304', '308', '311', '312', '314', '315', '319', '320', '323', '324', '326', '329', '332', '333', '334', '337', '338', '340', '341', '344', '345', '346', '347', '348', '352', '356', '357', '360', '361', '365', '369', '370', '371', '372', '374', '376', '378', '380', '381', '387', '390', '391', '392', '393', '394', '395', '398', '399', '400', '401', '402', '403', '404', '408', '409', '411', '412', '415', '416', '417', '419', '420', '421', '424', '425', '427', '428', '429', '431', '434', '435', '436', '437', '439', '440', '441', '445', '446', '447', '449', '450', '452', '454', '458', '459', '460', '461', '462', '466', '467', '469', '470', '472', '473', '475', '477', '478', '480', '481', '482', '484', '487', '488', '489', '491', '492', '493', '495', '496', '497', '499', '500']",False,1000,True,2,a1ed65dafd,0.0,1.0,1.0
./expes/v2_2021-04-12_issda-daily_500-prng-1-w1-p2,daily_issda-500,500,first-500,50,10,rng,num-start-500,500,536,classic,19.97751498222351,True,,True,1.0,1.0,1.0,1,"['11', '14', '31', '35', '45', '47', '53', '55', '80', '85', '89', '100', '110', '114', '121', '134', '135', '140', '142', '149', '156', '159', '185', '191', '203', '206', '246', '267', '275', '282', '311', '322', '329', '370', '375', '392', '400', '410', '414', '424', '425', '433', '435', '438', '445', '451', '470', '475', '483', '492']",False,1000,True,2,60234a1c5e,0.0,1.0,1.0
./expes/v2_2021-04-12_issda-daily_500-prng-1-w1-p2,daily_issda-500,500,first-500,250,50,rng,num-start-500,500,536,classic,40.20742654800415,True,,True,1.0,1.0,1.0,1,"['4', '5', '10', '11', '14', '17', '19', '21', '22', '23', '24', '27', '29', '31', '32', '35', '39', '40', '42', '43', '45', '46', '47', '48', '50', '52', '53', '55', '59', '60', '63', '66', '70', '73', '75', '77', '79', '80', '82', '83', '85', '87', '89', '91', '92', '95', '97', '98', '99', '100', '101', '102', '103', '104', '107', '108', '110', '111', '113', '114', '118', '119', '120', '121', '122', '124', '125', '127', '128', '129', '130', '131', '133', '134', '135', '138', '140', '142', '143', '144', '147', '148', '149', '150', '151', '152', '154', '156', '157', '159', '160', '162', '165', '166', '167', '168', '170', '173', '174', '176', '183', '185', '186', '187', '191', '196', '199', '201', '203', '206', '207', '210', '211', '212', '214', '216', '217', '218', '220', '221', '224', '225', '226', '228', '232', '233', '236', '237', '242', '243', '245', '246', '252', '254', '255', '256', '260', '261', '266', '267', '270', '271', '274', '275', '280', '281', '282', '286', '290', '292', '293', '294', '299', '302', '305', '307', '311', '316', '317', '318', '321', '322', '324', '325', '326', '329', '332', '334', '335', '336', '337', '342', '343', '344', '345', '346', '347', '349', '352', '358', '359', '361', '363', '368', '370', '375', '377', '378', '382', '383', '392', '393', '396', '397', '400', '402', '405', '409', '410', '411', '412', '414', '417', '418', '419', '424', '425', '426', '428', '430', '431', '433', '435', '438', '439', '440', '442', '444', '445', '446', '448', '451', '452', '456', '457', '458', '459', '461', '462', '464', '466', '468', '470', '473', '474', '475', '476', '477', '479', '483', '484', '489', '490', '492', '493', '494', '495', '496', '497', '498']",False,1000,True,2,6f08dd5ae5,0.0,1.0,1.0
