expe,clients,clients_size,clients_subset,agg_size,agg_size_pc,method,days,days_size,days_total,noise_method,time,valid,valid_sum,success,score_avg,score_min,score_max,nsols,oracle,wall_hit,wall_time,pooled,pool_size,uuid,infeasible,optimal,valid_sums
./expes/v2_2021-04-12_issda-daily_500-prng-1-w1-p2,daily_issda-500,500,first-500,250,50,rng,num-start-350,350,536,classic,21.378546953201294,True,,True,1.0,1.0,1.0,1,"['4', '6', '7', '8', '11', '12', '14', '15', '16', '17', '18', '19', '22', '23', '24', '31', '32', '33', '34', '35', '40', '41', '44', '46', '50', '53', '54', '56', '61', '62', '64', '67', '68', '69', '70', '71', '78', '80', '82', '84', '87', '91', '94', '95', '96', '98', '99', '102', '109', '112', '114', '115', '116', '119', '120', '121', '122', '123', '129', '133', '135', '136', '137', '138', '139', '143', '144', '146', '149', '150', '151', '153', '154', '155', '156', '159', '161', '162', '164', '165', '168', '170', '171', '173', '174', '175', '177', '178', '180', '181', '185', '187', '188', '190', '193', '194', '198', '199', '200', '203', '204', '209', '211', '213', '214', '216', '219', '221', '223', '224', '225', '228', '231', '234', '236', '238', '239', '241', '243', '244', '247', '248', '251', '254', '257', '259', '260', '266', '267', '268', '272', '274', '275', '277', '278', '279', '281', '282', '283', '287', '292', '293', '294', '295', '296', '297', '298', '300', '301', '302', '303', '304', '305', '308', '310', '311', '312', '313', '315', '316', '318', '321', '322', '324', '325', '326', '328', '329', '330', '333', '335', '336', '344', '345', '346', '347', '348', '349', '350', '351', '354', '357', '358', '362', '366', '367', '368', '369', '373', '377', '378', '380', '389', '390', '394', '396', '398', '399', '400', '403', '404', '407', '410', '411', '412', '413', '414', '415', '416', '417', '422', '424', '426', '427', '429', '430', '433', '436', '438', '439', '441', '442', '443', '444', '445', '446', '447', '450', '452', '454', '460', '463', '464', '466', '469', '470', '472', '473', '475', '476', '480', '482', '486', '489', '491', '492', '494', '495', '498', '499']",False,1000,True,2,eeeef15eb1,0.0,1.0,1.0
./expes/v2_2021-04-12_issda-daily_500-prng-1-w1-p2,daily_issda-500,500,first-500,300,60,rng,num-start-300,300,536,classic,15.342152833938599,True,,True,1.0,1.0,1.0,1,"['2', '4', '5', '6', '7', '10', '11', '14', '17', '18', '19', '21', '22', '23', '24', '27', '28', '29', '31', '32', '35', '39', '40', '41', '42', '43', '44', '45', '46', '47', '48', '49', '50', '52', '53', '55', '58', '59', '60', '63', '66', '70', '72', '73', '75', '77', '79', '80', '81', '82', '83', '85', '86', '87', '89', '91', '92', '95', '97', '98', '99', '100', '101', '102', '103', '104', '106', '107', '108', '109', '110', '111', '112', '113', '114', '118', '119', '120', '121', '122', '124', '125', '127', '128', '129', '130', '131', '132', '133', '134', '135', '138', '140', '142', '143', '144', '147', '148', '149', '150', '151', '152', '153', '154', '156', '157', '159', '160', '162', '165', '166', '167', '168', '170', '173', '174', '176', '178', '183', '185', '186', '187', '188', '191', '196', '199', '200', '201', '203', '205', '206', '207', '210', '211', '212', '213', '214', '216', '217', '218', '220', '221', '223', '224', '225', '226', '228', '232', '233', '236', '237', '238', '242', '243', '245', '246', '250', '251', '252', '254', '255', '256', '260', '261', '263', '266', '267', '268', '270', '271', '274', '275', '279', '280', '281', '282', '286', '288', '290', '292', '293', '294', '299', '302', '305', '307', '311', '312', '313', '316', '317', '318', '321', '322', '324', '325', '326', '329', '332', '334', '335', '336', '337', '342', '343', '344', '345', '346', '347', '349', '352', '353', '357', '358', '359', '361', '363', '365', '368', '370', '375', '377', '378', '382', '383', '389', '392', '393', '394', '395', '396', '397', '398', '400', '401', '402', '404', '405', '409', '410', '411', '412', '414', '415', '417', '418', '419', '420', '424', '425', '426', '428', '429', '430', '431', '433', '435', '438', '439', '440', '442', '443', '444', '445', '446', '448', '449', '450', '451', '452', '454', '456', '457', '458', '459', '461', '462', '464', '466', '468', '469', '470', '473', '474', '475', '476', '477', '479', '483', '484', '487', '489', '490', '492', '493', '494', '495', '496', '497', '498']",False,1000,True,2,71a24c0775,0.0,1.0,1.0
