expe,clients,clients_size,clients_subset,agg_size,method,days,days_size,days_total,time,valid,valid_sum,success,nsols,wall_hit,wall_time,pooled,valid_sums
./expes/v2_2020-12-17_dh_1000-prng-1,30_issda_1000,1000,rng-1000,601,rng,num-start-6001,6001,25726,1162.6085903644562,True,,True,1,False,5000,True,1.0
./expes/v2_2020-12-17_dh_1000-prng-1,30_issda_1000,1000,rng-1000,301,rng,num-start-1001,1001,25726,249.91266298294067,True,,True,1,False,5000,True,1.0
./expes/v2_2020-12-17_dh_1000-prng-1,30_issda_1000,1000,rng-1000,401,rng,num-start-9001,9001,25726,1932.6580965518951,True,,True,1,False,5000,True,1.0
./expes/v2_2020-12-17_dh_1000-prng-1,30_issda_1000,1000,rng-1000,601,rng,num-start-6001,6001,25726,1333.6053385734558,True,,True,1,False,5000,True,1.0
./expes/v2_2020-12-17_dh_1000-prng-1,30_issda_1000,1000,rng-1000,901,rng,num-start-15001,15001,25726,2583.6833934783936,True,,True,1,False,5000,True,1.0
./expes/v2_2020-12-17_dh_1000-prng-1,30_issda_1000,1000,rng-1000,701,rng,num-start-4001,4001,25726,823.8069615364075,True,,True,1,False,5000,True,1.0
./expes/v2_2020-12-17_dh_1000-prng-1,30_issda_1000,1000,rng-1000,701,rng,num-start-1,1,25726,0.19881987571716309,False,,False,2,False,5000,True,1.0
./expes/v2_2020-12-17_dh_1000-prng-1,30_issda_1000,1000,rng-1000,201,rng,num-start-15001,15001,25726,2664.8781287670135,True,,True,1,False,5000,True,1.0
./expes/v2_2020-12-17_dh_1000-prng-1,30_issda_1000,1000,rng-1000,301,rng,num-start-2001,2001,25726,445.72612476348877,True,,True,1,False,5000,True,1.0
./expes/v2_2020-12-17_dh_1000-prng-1,30_issda_1000,1000,rng-1000,201,rng,num-start-6001,6001,25726,1051.3477294445038,True,,True,1,False,5000,True,1.0
./expes/v2_2020-12-17_dh_1000-prng-1,30_issda_1000,1000,rng-1000,901,rng,num-start-15001,15001,25726,2619.289200782776,True,,True,1,False,5000,True,1.0
./expes/v2_2020-12-17_dh_1000-prng-1,30_issda_1000,1000,rng-1000,801,rng,num-start-8001,8001,25726,1279.3844256401062,True,,True,1,False,5000,True,1.0
./expes/v2_2020-12-17_dh_1000-prng-1,30_issda_1000,1000,rng-1000,101,rng,num-start-3001,3001,25726,414.27548813819885,True,,True,1,False,5000,True,1.0
./expes/v2_2020-12-17_dh_1000-prng-1,30_issda_1000,1000,rng-1000,201,rng,num-start-11001,11001,25726,1881.7923383712769,True,,True,1,False,5000,True,1.0
./expes/v2_2020-12-17_dh_1000-prng-1,30_issda_1000,1000,rng-1000,101,rng,num-start-16001,16001,25726,2882.3085477352142,True,,True,1,False,5000,True,1.0
./expes/v2_2020-12-17_dh_1000-prng-1,30_issda_1000,1000,rng-1000,801,rng,num-start-1,1,25726,0.13208675384521484,False,,False,2,False,5000,True,1.0
./expes/v2_2020-12-17_dh_1000-prng-1,30_issda_1000,1000,rng-1000,401,rng,num-start-5001,5001,25726,1061.9785912036896,True,,True,1,False,5000,True,1.0
./expes/v2_2020-12-17_dh_1000-prng-1,30_issda_1000,1000,rng-1000,201,rng,num-start-1,1,25726,0.19959759712219238,False,,False,2,False,5000,True,1.0
./expes/v2_2020-12-17_dh_1000-prng-1,30_issda_1000,1000,rng-1000,601,rng,num-start-2001,2001,25726,358.79801750183105,True,,True,1,False,5000,True,1.0
./expes/v2_2020-12-17_dh_1000-prng-1,30_issda_1000,1000,rng-1000,701,rng,num-start-1,1,25726,0.2278599739074707,False,,False,2,False,5000,True,1.0
./expes/v2_2020-12-17_dh_1000-prng-1,30_issda_1000,1000,rng-1000,401,rng,num-start-3001,3001,25726,629.964747428894,True,,True,1,False,5000,True,1.0
./expes/v2_2020-12-17_dh_1000-prng-1,30_issda_1000,1000,rng-1000,401,rng,num-start-2001,2001,25726,565.7983846664429,True,,True,1,False,5000,True,1.0
./expes/v2_2020-12-17_dh_1000-prng-1,30_issda_1000,1000,rng-1000,801,rng,num-start-13001,13001,25726,2814.020870447159,True,,True,1,False,5000,True,1.0
./expes/v2_2020-12-17_dh_1000-prng-1,30_issda_1000,1000,rng-1000,301,rng,num-start-1001,1001,25726,214.35753679275513,True,,True,1,False,5000,True,1.0
./expes/v2_2020-12-17_dh_1000-prng-1,30_issda_1000,1000,rng-1000,901,rng,num-start-9001,9001,25726,1429.1858172416687,True,,True,1,False,5000,True,1.0
./expes/v2_2020-12-17_dh_1000-prng-1,30_issda_1000,1000,rng-1000,1,rng,num-start-14001,14001,25726,1244.944390296936,True,,True,1,False,5000,True,1.0
./expes/v2_2020-12-17_dh_1000-prng-1,30_issda_1000,1000,rng-1000,1,rng,num-start-4001,4001,25726,360.7380509376526,True,,True,1,False,5000,True,1.0
./expes/v2_2020-12-17_dh_1000-prng-1,30_issda_1000,1000,rng-1000,201,rng,num-start-6001,6001,25726,1144.9820766448975,True,,True,1,False,5000,True,1.0
./expes/v2_2020-12-17_dh_1000-prng-1,30_issda_1000,1000,rng-1000,801,rng,num-start-5001,5001,25726,1117.1129336357117,True,,True,1,False,5000,True,1.0
./expes/v2_2020-12-17_dh_1000-prng-1,30_issda_1000,1000,rng-1000,501,rng,num-start-1,1,25726,0.16621971130371094,False,,False,2,False,5000,True,1.0
./expes/v2_2020-12-17_dh_1000-prng-1,30_issda_1000,1000,rng-1000,201,rng,num-start-12001,12001,25726,2097.852203607559,True,,True,1,False,5000,True,1.0
./expes/v2_2020-12-17_dh_1000-prng-1,30_issda_1000,1000,rng-1000,201,rng,num-start-4001,4001,25726,862.6782274246216,True,,True,1,False,5000,True,1.0
./expes/v2_2020-12-17_dh_1000-prng-1,30_issda_1000,1000,rng-1000,1,rng,num-start-5001,5001,25726,460.4487166404724,True,,True,1,False,5000,True,1.0
./expes/v2_2020-12-17_dh_1000-prng-1,30_issda_1000,1000,rng-1000,1,rng,num-start-11001,11001,25726,975.3596048355103,True,,True,1,False,5000,True,1.0
./expes/v2_2020-12-17_dh_1000-prng-1,30_issda_1000,1000,rng-1000,201,rng,num-start-8001,8001,25726,1367.3575401306152,True,,True,1,False,5000,True,1.0
./expes/v2_2020-12-17_dh_1000-prng-1,30_issda_1000,1000,rng-1000,701,rng,num-start-4001,4001,25726,1003.4025774002075,True,,True,1,False,5000,True,1.0
./expes/v2_2020-12-17_dh_1000-prng-1,30_issda_1000,1000,rng-1000,501,rng,num-start-4001,4001,25726,836.4028689861298,True,,True,1,False,5000,True,1.0
./expes/v2_2020-12-17_dh_1000-prng-1,30_issda_1000,1000,rng-1000,701,rng,num-start-3001,3001,25726,613.59197473526,True,,True,1,False,5000,True,1.0
./expes/v2_2020-12-17_dh_1000-prng-1,30_issda_1000,1000,rng-1000,1,rng,num-start-4001,4001,25726,347.6027534008026,True,,True,1,False,5000,True,1.0
./expes/v2_2020-12-17_dh_1000-prng-1,30_issda_1000,1000,rng-1000,901,rng,num-start-3001,3001,25726,956.6213428974152,True,,True,1,False,5000,True,1.0
./expes/v2_2020-12-17_dh_1000-prng-1,30_issda_1000,1000,rng-1000,301,rng,num-start-14001,14001,25726,2788.5500025749207,True,,True,1,False,5000,True,1.0
./expes/v2_2020-12-17_dh_1000-prng-1,30_issda_1000,1000,rng-1000,901,rng,num-start-12001,12001,25726,1754.1115055084229,True,,True,1,False,5000,True,1.0
./expes/v2_2020-12-17_dh_1000-prng-1,30_issda_1000,1000,rng-1000,701,rng,num-start-15001,15001,25726,2928.982659101486,True,,True,1,False,5000,True,1.0
./expes/v2_2020-12-17_dh_1000-prng-1,30_issda_1000,1000,rng-1000,301,rng,num-start-1001,1001,25726,183.5278935432434,True,,True,1,False,5000,True,1.0
./expes/v2_2020-12-17_dh_1000-prng-1,30_issda_1000,1000,rng-1000,401,rng,num-start-9001,9001,25726,1896.8549337387085,True,,True,1,False,5000,True,1.0
./expes/v2_2020-12-17_dh_1000-prng-1,30_issda_1000,1000,rng-1000,901,rng,num-start-16001,16001,25726,3228.2070960998535,True,,True,1,False,5000,True,1.0
./expes/v2_2020-12-17_dh_1000-prng-1,30_issda_1000,1000,rng-1000,201,rng,num-start-14001,14001,25726,2552.415858745575,True,,True,1,False,5000,True,1.0
./expes/v2_2020-12-17_dh_1000-prng-1,30_issda_1000,1000,rng-1000,1,rng,num-start-1001,1001,25726,87.10403728485107,True,,True,1,False,5000,True,1.0
./expes/v2_2020-12-17_dh_1000-prng-1,30_issda_1000,1000,rng-1000,501,rng,num-start-8001,8001,25726,1964.1692531108856,True,,True,1,False,5000,True,1.0
./expes/v2_2020-12-17_dh_1000-prng-1,30_issda_1000,1000,rng-1000,401,rng,num-start-10001,10001,25726,2153.7993195056915,True,,True,1,False,5000,True,1.0
./expes/v2_2020-12-17_dh_1000-prng-1,30_issda_1000,1000,rng-1000,801,rng,num-start-1001,1001,25726,292.44855999946594,True,,True,1,False,5000,True,1.0
./expes/v2_2020-12-17_dh_1000-prng-1,30_issda_1000,1000,rng-1000,801,rng,num-start-5001,5001,25726,910.0177643299103,True,,True,1,False,5000,True,1.0
./expes/v2_2020-12-17_dh_1000-prng-1,30_issda_1000,1000,rng-1000,801,rng,num-start-16001,16001,25726,4178.354602575302,True,,True,1,False,5000,True,1.0
./expes/v2_2020-12-17_dh_1000-prng-1,30_issda_1000,1000,rng-1000,701,rng,num-start-8001,8001,25726,1840.9568388462067,True,,True,1,False,5000,True,1.0
./expes/v2_2020-12-17_dh_1000-prng-1,30_issda_1000,1000,rng-1000,701,rng,num-start-16001,16001,25726,3327.5450987815857,True,,True,1,False,5000,True,1.0
./expes/v2_2020-12-17_dh_1000-prng-1,30_issda_1000,1000,rng-1000,201,rng,num-start-16001,16001,25726,2720.037710428238,True,,True,1,False,5000,True,1.0
./expes/v2_2020-12-17_dh_1000-prng-1,30_issda_1000,1000,rng-1000,101,rng,num-start-4001,4001,25726,543.822208404541,True,,True,1,False,5000,True,1.0
./expes/v2_2020-12-17_dh_1000-prng-1,30_issda_1000,1000,rng-1000,801,rng,num-start-1001,1001,25726,192.77539348602295,True,,True,1,False,5000,True,1.0
./expes/v2_2020-12-17_dh_1000-prng-1,30_issda_1000,1000,rng-1000,501,rng,num-start-5001,5001,25726,937.2316431999207,True,,True,1,False,5000,True,1.0
./expes/v2_2020-12-17_dh_1000-prng-1,30_issda_1000,1000,rng-1000,601,rng,num-start-15001,15001,25726,4092.3233091831207,True,,True,1,False,5000,True,1.0
./expes/v2_2020-12-17_dh_1000-prng-1,30_issda_1000,1000,rng-1000,201,rng,num-start-8001,8001,25726,1628.3785634040833,True,,True,1,False,5000,True,1.0
./expes/v2_2020-12-17_dh_1000-prng-1,30_issda_1000,1000,rng-1000,101,rng,num-start-10001,10001,25726,1557.4613575935364,True,,True,1,False,5000,True,1.0
./expes/v2_2020-12-17_dh_1000-prng-1,30_issda_1000,1000,rng-1000,101,rng,num-start-1001,1001,25726,157.37569952011108,True,,True,1,False,5000,True,1.0
./expes/v2_2020-12-17_dh_1000-prng-1,30_issda_1000,1000,rng-1000,501,rng,num-start-16001,16001,25726,3307.478020429611,True,,True,1,False,5000,True,1.0
./expes/v2_2020-12-17_dh_1000-prng-1,30_issda_1000,1000,rng-1000,201,rng,num-start-12001,12001,25726,2099.640540122986,True,,True,1,False,5000,True,1.0
./expes/v2_2020-12-17_dh_1000-prng-1,30_issda_1000,1000,rng-1000,601,rng,num-start-1,1,25726,0.15009021759033203,False,,False,2,False,5000,True,1.0
./expes/v2_2020-12-17_dh_1000-prng-1,30_issda_1000,1000,rng-1000,301,rng,num-start-1001,1001,25726,197.35332822799683,True,,True,1,False,5000,True,1.0
./expes/v2_2020-12-17_dh_1000-prng-1,30_issda_1000,1000,rng-1000,301,rng,num-start-14001,14001,25726,2296.4748401641846,True,,True,1,False,5000,True,1.0
./expes/v2_2020-12-17_dh_1000-prng-1,30_issda_1000,1000,rng-1000,901,rng,num-start-8001,8001,25726,1811.4133117198944,True,,True,1,False,5000,True,1.0
./expes/v2_2020-12-17_dh_1000-prng-1,30_issda_1000,1000,rng-1000,901,rng,num-start-8001,8001,25726,1327.842089176178,True,,True,1,False,5000,True,1.0
./expes/v2_2020-12-17_dh_1000-prng-1,30_issda_1000,1000,rng-1000,301,rng,num-start-11001,11001,25726,2080.0096805095673,True,,True,1,False,5000,True,1.0
./expes/v2_2020-12-17_dh_1000-prng-1,30_issda_1000,1000,rng-1000,901,rng,num-start-6001,6001,25726,834.6823132038116,True,,True,1,False,5000,True,1.0
./expes/v2_2020-12-17_dh_1000-prng-1,30_issda_1000,1000,rng-1000,801,rng,num-start-8001,8001,25726,1629.7997152805328,True,,True,1,False,5000,True,1.0
./expes/v2_2020-12-17_dh_1000-prng-1,30_issda_1000,1000,rng-1000,101,rng,num-start-10001,10001,25726,1762.5559017658234,True,,True,1,False,5000,True,1.0
./expes/v2_2020-12-17_dh_1000-prng-1,30_issda_1000,1000,rng-1000,201,rng,num-start-2001,2001,25726,355.2923393249512,True,,True,1,False,5000,True,1.0
./expes/v2_2020-12-17_dh_1000-prng-1,30_issda_1000,1000,rng-1000,1,rng,num-start-16001,16001,25726,1351.8046836853027,True,,True,1,False,5000,True,1.0
./expes/v2_2020-12-17_dh_1000-prng-1,30_issda_1000,1000,rng-1000,701,rng,num-start-1001,1001,25726,202.31876063346863,True,,True,1,False,5000,True,1.0
./expes/v2_2020-12-17_dh_1000-prng-1,30_issda_1000,1000,rng-1000,601,rng,num-start-4001,4001,25726,1086.9478356838226,True,,True,1,False,5000,True,1.0
./expes/v2_2020-12-17_dh_1000-prng-1,30_issda_1000,1000,rng-1000,1,rng,num-start-3001,3001,25726,258.23499369621277,True,,True,1,False,5000,True,1.0
./expes/v2_2020-12-17_dh_1000-prng-1,30_issda_1000,1000,rng-1000,801,rng,num-start-7001,7001,25726,1332.0359354019165,True,,True,1,False,5000,True,1.0
./expes/v2_2020-12-17_dh_1000-prng-1,30_issda_1000,1000,rng-1000,501,rng,num-start-5001,5001,25726,1125.0388963222504,True,,True,1,False,5000,True,1.0
./expes/v2_2020-12-17_dh_1000-prng-1,30_issda_1000,1000,rng-1000,301,rng,num-start-5001,5001,25726,943.334570646286,True,,True,1,False,5000,True,1.0
./expes/v2_2020-12-17_dh_1000-prng-1,30_issda_1000,1000,rng-1000,201,rng,num-start-15001,15001,25726,2686.342629432678,True,,True,1,False,5000,True,1.0
./expes/v2_2020-12-17_dh_1000-prng-1,30_issda_1000,1000,rng-1000,801,rng,num-start-11001,11001,25726,2253.624287843704,True,,True,1,False,5000,True,1.0
./expes/v2_2020-12-17_dh_1000-prng-1,30_issda_1000,1000,rng-1000,201,rng,num-start-1001,1001,25726,184.76845335960388,True,,True,1,False,5000,True,1.0
./expes/v2_2020-12-17_dh_1000-prng-1,30_issda_1000,1000,rng-1000,1,rng,num-start-14001,14001,25726,1185.9057793617249,True,,True,1,False,5000,True,1.0
./expes/v2_2020-12-17_dh_1000-prng-1,30_issda_1000,1000,rng-1000,801,rng,num-start-4001,4001,25726,802.6706502437592,True,,True,1,False,5000,True,1.0
./expes/v2_2020-12-17_dh_1000-prng-1,30_issda_1000,1000,rng-1000,701,rng,num-start-10001,10001,25726,2146.9509601593018,True,,True,1,False,5000,True,1.0
