expe,clients,clients_size,clients_subset,agg_size,method,days,days_size,days_total,time,valid,valid_sum,success,nsols,wall_hit,wall_time,pooled,valid_sums
./expes/v2_2020-12-17_dh_1000-prng-1,30_issda_1000,1000,rng-1000,501,rng,num-start-3001,3001,25726,820.920065164566,True,,True,1,False,5000,True,1.0
./expes/v2_2020-12-17_dh_1000-prng-1,30_issda_1000,1000,rng-1000,1,rng,num-start-14001,14001,25726,1238.1738855838776,True,,True,1,False,5000,True,1.0
./expes/v2_2020-12-17_dh_1000-prng-1,30_issda_1000,1000,rng-1000,201,rng,num-start-14001,14001,25726,2715.4977526664734,True,,True,1,False,5000,True,1.0
./expes/v2_2020-12-17_dh_1000-prng-1,30_issda_1000,1000,rng-1000,501,rng,num-start-11001,11001,25726,2906.885842561722,True,,True,1,False,5000,True,1.0
./expes/v2_2020-12-17_dh_1000-prng-1,30_issda_1000,1000,rng-1000,201,rng,num-start-13001,13001,25726,2167.4893391132355,True,,True,1,False,5000,True,1.0
./expes/v2_2020-12-17_dh_1000-prng-1,30_issda_1000,1000,rng-1000,501,rng,num-start-7001,7001,25726,1641.185966014862,True,,True,1,False,5000,True,1.0
./expes/v2_2020-12-17_dh_1000-prng-1,30_issda_1000,1000,rng-1000,301,rng,num-start-8001,8001,25726,1681.6118886470795,True,,True,1,False,5000,True,1.0
./expes/v2_2020-12-17_dh_1000-prng-1,30_issda_1000,1000,rng-1000,1,rng,num-start-12001,12001,25726,1024.3216700553894,True,,True,1,False,5000,True,1.0
./expes/v2_2020-12-17_dh_1000-prng-1,30_issda_1000,1000,rng-1000,401,rng,num-start-1001,1001,25726,222.54822897911072,True,,True,1,False,5000,True,1.0
./expes/v2_2020-12-17_dh_1000-prng-1,30_issda_1000,1000,rng-1000,401,rng,num-start-16001,16001,25726,3656.6767342090607,True,,True,1,False,5000,True,1.0
./expes/v2_2020-12-17_dh_1000-prng-1,30_issda_1000,1000,rng-1000,401,rng,num-start-1,1,25726,0.17671918869018555,False,,False,2,False,5000,True,1.0
./expes/v2_2020-12-17_dh_1000-prng-1,30_issda_1000,1000,rng-1000,801,rng,num-start-4001,4001,25726,690.0814878940582,True,,True,1,False,5000,True,1.0
./expes/v2_2020-12-17_dh_1000-prng-1,30_issda_1000,1000,rng-1000,901,rng,num-start-5001,5001,25726,951.3161656856537,True,,True,1,False,5000,True,1.0
./expes/v2_2020-12-17_dh_1000-prng-1,30_issda_1000,1000,rng-1000,401,rng,num-start-11001,11001,25726,2394.856248140335,True,,True,1,False,5000,True,1.0
./expes/v2_2020-12-17_dh_1000-prng-1,30_issda_1000,1000,rng-1000,601,rng,num-start-8001,8001,25726,1739.441013097763,True,,True,1,False,5000,True,1.0
./expes/v2_2020-12-17_dh_1000-prng-1,30_issda_1000,1000,rng-1000,401,rng,num-start-15001,15001,25726,2900.8149008750916,True,,True,1,False,5000,True,1.0
./expes/v2_2020-12-17_dh_1000-prng-1,30_issda_1000,1000,rng-1000,401,rng,num-start-5001,5001,25726,899.3015847206116,True,,False,2,False,5000,True,1.0
./expes/v2_2020-12-17_dh_1000-prng-1,30_issda_1000,1000,rng-1000,501,rng,num-start-15001,15001,25726,3548.058844804764,True,,True,1,False,5000,True,1.0
./expes/v2_2020-12-17_dh_1000-prng-1,30_issda_1000,1000,rng-1000,201,rng,num-start-4001,4001,25726,725.608097076416,True,,True,1,False,5000,True,1.0
./expes/v2_2020-12-17_dh_1000-prng-1,30_issda_1000,1000,rng-1000,701,rng,num-start-15001,15001,25726,3504.556216478348,True,,True,1,False,5000,True,1.0
./expes/v2_2020-12-17_dh_1000-prng-1,30_issda_1000,1000,rng-1000,801,rng,num-start-6001,6001,25726,1048.7567460536957,True,,True,1,False,5000,True,1.0
./expes/v2_2020-12-17_dh_1000-prng-1,30_issda_1000,1000,rng-1000,801,rng,num-start-1,1,25726,0.22286581993103027,False,,False,2,False,5000,True,1.0
./expes/v2_2020-12-17_dh_1000-prng-1,30_issda_1000,1000,rng-1000,901,rng,num-start-9001,9001,25726,1484.7034001350403,True,,True,1,False,5000,True,1.0
./expes/v2_2020-12-17_dh_1000-prng-1,30_issda_1000,1000,rng-1000,201,rng,num-start-10001,10001,25726,1746.4378926753998,True,,True,1,False,5000,True,1.0
./expes/v2_2020-12-17_dh_1000-prng-1,30_issda_1000,1000,rng-1000,401,rng,num-start-4001,4001,25726,940.7559127807617,True,,True,1,False,5000,True,1.0
./expes/v2_2020-12-17_dh_1000-prng-1,30_issda_1000,1000,rng-1000,301,rng,num-start-7001,7001,25726,1192.4661259651184,True,,True,1,False,5000,True,1.0
./expes/v2_2020-12-17_dh_1000-prng-1,30_issda_1000,1000,rng-1000,601,rng,num-start-1001,1001,25726,206.10970306396484,True,,True,1,False,5000,True,1.0
./expes/v2_2020-12-17_dh_1000-prng-1,30_issda_1000,1000,rng-1000,501,rng,num-start-12001,12001,25726,2437.586982488632,True,,True,1,False,5000,True,1.0
./expes/v2_2020-12-17_dh_1000-prng-1,30_issda_1000,1000,rng-1000,401,rng,num-start-9001,9001,25726,1997.3322706222534,True,,True,1,False,5000,True,1.0
./expes/v2_2020-12-17_dh_1000-prng-1,30_issda_1000,1000,rng-1000,301,rng,num-start-9001,9001,25726,1917.1960108280182,True,,True,1,False,5000,True,1.0
./expes/v2_2020-12-17_dh_1000-prng-1,30_issda_1000,1000,rng-1000,1,rng,num-start-5001,5001,25726,438.22800970077515,True,,True,1,False,5000,True,1.0
./expes/v2_2020-12-17_dh_1000-prng-1,30_issda_1000,1000,rng-1000,1,rng,num-start-1,1,25726,0.14743518829345703,True,,False,2,False,5000,True,1.0
./expes/v2_2020-12-17_dh_1000-prng-1,30_issda_1000,1000,rng-1000,901,rng,num-start-10001,10001,25726,1096.1983261108398,True,,True,1,False,5000,True,1.0
./expes/v2_2020-12-17_dh_1000-prng-1,30_issda_1000,1000,rng-1000,901,rng,num-start-13001,13001,25726,1888.9335713386536,True,,True,1,False,5000,True,1.0
./expes/v2_2020-12-17_dh_1000-prng-1,30_issda_1000,1000,rng-1000,501,rng,num-start-3001,3001,25726,640.3505229949951,True,,True,1,False,5000,True,1.0
./expes/v2_2020-12-17_dh_1000-prng-1,30_issda_1000,1000,rng-1000,201,rng,num-start-14001,14001,25726,2579.0061547756195,True,,True,1,False,5000,True,1.0
./expes/v2_2020-12-17_dh_1000-prng-1,30_issda_1000,1000,rng-1000,901,rng,num-start-1001,1001,25726,182.8739528656006,True,,True,1,False,5000,True,1.0
./expes/v2_2020-12-17_dh_1000-prng-1,30_issda_1000,1000,rng-1000,1,rng,num-start-1,1,25726,0.15938997268676758,True,,True,1,False,5000,True,1.0
./expes/v2_2020-12-17_dh_1000-prng-1,30_issda_1000,1000,rng-1000,701,rng,num-start-1001,1001,25726,196.99372553825378,True,,True,1,False,5000,True,1.0
./expes/v2_2020-12-17_dh_1000-prng-1,30_issda_1000,1000,rng-1000,501,rng,num-start-11001,11001,25726,2242.040979385376,True,,True,1,False,5000,True,1.0
./expes/v2_2020-12-17_dh_1000-prng-1,30_issda_1000,1000,rng-1000,301,rng,num-start-9001,9001,25726,1841.8057160377502,True,,True,1,False,5000,True,1.0
./expes/v2_2020-12-17_dh_1000-prng-1,30_issda_1000,1000,rng-1000,201,rng,num-start-1001,1001,25726,148.80603194236755,True,,True,1,False,5000,True,1.0
./expes/v2_2020-12-17_dh_1000-prng-1,30_issda_1000,1000,rng-1000,601,rng,num-start-12001,12001,25726,2369.1567499637604,True,,True,1,False,5000,True,1.0
./expes/v2_2020-12-17_dh_1000-prng-1,30_issda_1000,1000,rng-1000,301,rng,num-start-14001,14001,25726,3171.1548657417297,True,,True,1,False,5000,True,1.0
./expes/v2_2020-12-17_dh_1000-prng-1,30_issda_1000,1000,rng-1000,901,rng,num-start-8001,8001,25726,1462.7009587287903,True,,True,1,False,5000,True,1.0
./expes/v2_2020-12-17_dh_1000-prng-1,30_issda_1000,1000,rng-1000,801,rng,num-start-12001,12001,25726,2357.1013605594635,True,,True,1,False,5000,True,1.0
./expes/v2_2020-12-17_dh_1000-prng-1,30_issda_1000,1000,rng-1000,301,rng,num-start-1,1,25726,0.18781208992004395,False,,False,2,False,5000,True,1.0
./expes/v2_2020-12-17_dh_1000-prng-1,30_issda_1000,1000,rng-1000,101,rng,num-start-9001,9001,25726,1283.6004331111908,True,,True,1,False,5000,True,1.0
./expes/v2_2020-12-17_dh_1000-prng-1,30_issda_1000,1000,rng-1000,701,rng,num-start-1,1,25726,0.15332937240600586,False,,False,2,False,5000,True,1.0
./expes/v2_2020-12-17_dh_1000-prng-1,30_issda_1000,1000,rng-1000,1,rng,num-start-8001,8001,25726,695.9902799129486,True,,True,1,False,5000,True,1.0
./expes/v2_2020-12-17_dh_1000-prng-1,30_issda_1000,1000,rng-1000,901,rng,num-start-11001,11001,25726,1725.7941229343414,True,,True,1,False,5000,True,1.0
./expes/v2_2020-12-17_dh_1000-prng-1,30_issda_1000,1000,rng-1000,1,rng,num-start-9001,9001,25726,804.3209664821625,True,,True,1,False,5000,True,1.0
./expes/v2_2020-12-17_dh_1000-prng-1,30_issda_1000,1000,rng-1000,1,rng,num-start-3001,3001,25726,261.41811990737915,True,,True,1,False,5000,True,1.0
./expes/v2_2020-12-17_dh_1000-prng-1,30_issda_1000,1000,rng-1000,301,rng,num-start-8001,8001,25726,1620.4554567337036,True,,True,1,False,5000,True,1.0
./expes/v2_2020-12-17_dh_1000-prng-1,30_issda_1000,1000,rng-1000,401,rng,num-start-11001,11001,25726,2565.1516568660736,True,,True,1,False,5000,True,1.0
./expes/v2_2020-12-17_dh_1000-prng-1,30_issda_1000,1000,rng-1000,901,rng,num-start-5001,5001,25726,1172.7621529102325,True,,True,1,False,5000,True,1.0
./expes/v2_2020-12-17_dh_1000-prng-1,30_issda_1000,1000,rng-1000,1,rng,num-start-8001,8001,25726,707.0212922096252,True,,True,1,False,5000,True,1.0
./expes/v2_2020-12-17_dh_1000-prng-1,30_issda_1000,1000,rng-1000,1,rng,num-start-10001,10001,25726,891.3047919273376,True,,True,1,False,5000,True,1.0
./expes/v2_2020-12-17_dh_1000-prng-1,30_issda_1000,1000,rng-1000,401,rng,num-start-4001,4001,25726,837.0160541534424,True,,True,1,False,5000,True,1.0
./expes/v2_2020-12-17_dh_1000-prng-1,30_issda_1000,1000,rng-1000,701,rng,num-start-5001,5001,25726,1044.4054174423218,True,,True,1,False,5000,True,1.0
./expes/v2_2020-12-17_dh_1000-prng-1,30_issda_1000,1000,rng-1000,901,rng,num-start-6001,6001,25726,731.6235454082489,True,,True,1,False,5000,True,1.0
./expes/v2_2020-12-17_dh_1000-prng-1,30_issda_1000,1000,rng-1000,701,rng,num-start-2001,2001,25726,575.8755612373352,True,,True,1,False,5000,True,1.0
./expes/v2_2020-12-17_dh_1000-prng-1,30_issda_1000,1000,rng-1000,401,rng,num-start-1,1,25726,0.13817358016967773,False,,False,2,False,5000,True,1.0
./expes/v2_2020-12-17_dh_1000-prng-1,30_issda_1000,1000,rng-1000,401,rng,num-start-13001,13001,25726,2841.3294064998627,True,,True,1,False,5000,True,1.0
./expes/v2_2020-12-17_dh_1000-prng-1,30_issda_1000,1000,rng-1000,801,rng,num-start-3001,3001,25726,513.9909451007843,True,,True,1,False,5000,True,1.0
./expes/v2_2020-12-17_dh_1000-prng-1,30_issda_1000,1000,rng-1000,101,rng,num-start-2001,2001,25726,406.58612394332886,True,,True,1,False,5000,True,1.0
./expes/v2_2020-12-17_dh_1000-prng-1,30_issda_1000,1000,rng-1000,201,rng,num-start-13001,13001,25726,1944.3347508907318,True,,True,1,False,5000,True,1.0
./expes/v2_2020-12-17_dh_1000-prng-1,30_issda_1000,1000,rng-1000,401,rng,num-start-4001,4001,25726,1089.1680042743683,True,,True,1,False,5000,True,1.0
./expes/v2_2020-12-17_dh_1000-prng-1,30_issda_1000,1000,rng-1000,401,rng,num-start-15001,15001,25726,2965.398419380188,True,,True,1,False,5000,True,1.0
./expes/v2_2020-12-17_dh_1000-prng-1,30_issda_1000,1000,rng-1000,601,rng,num-start-3001,3001,25726,621.85320353508,True,,True,1,False,5000,True,1.0
./expes/v2_2020-12-17_dh_1000-prng-1,30_issda_1000,1000,rng-1000,401,rng,num-start-4001,4001,25726,937.4533879756927,True,,True,1,False,5000,True,1.0
./expes/v2_2020-12-17_dh_1000-prng-1,30_issda_1000,1000,rng-1000,201,rng,num-start-4001,4001,25726,741.4727251529694,True,,True,1,False,5000,True,1.0
./expes/v2_2020-12-17_dh_1000-prng-1,30_issda_1000,1000,rng-1000,201,rng,num-start-14001,14001,25726,3346.8544442653656,True,,True,1,False,5000,True,1.0
./expes/v2_2020-12-17_dh_1000-prng-1,30_issda_1000,1000,rng-1000,1,rng,num-start-5001,5001,25726,427.3516013622284,True,,True,1,False,5000,True,1.0
./expes/v2_2020-12-17_dh_1000-prng-1,30_issda_1000,1000,rng-1000,201,rng,num-start-6001,6001,25726,1116.3835003376007,True,,True,1,False,5000,True,1.0
./expes/v2_2020-12-17_dh_1000-prng-1,30_issda_1000,1000,rng-1000,701,rng,num-start-9001,9001,25726,1941.060685634613,True,,True,1,False,5000,True,1.0
./expes/v2_2020-12-17_dh_1000-prng-1,30_issda_1000,1000,rng-1000,601,rng,num-start-14001,14001,25726,2795.930713415146,True,,True,1,False,5000,True,1.0
./expes/v2_2020-12-17_dh_1000-prng-1,30_issda_1000,1000,rng-1000,601,rng,num-start-15001,15001,25726,3581.394147872925,True,,True,1,False,5000,True,1.0
./expes/v2_2020-12-17_dh_1000-prng-1,30_issda_1000,1000,rng-1000,501,rng,num-start-1001,1001,25726,236.81859254837036,True,,True,1,False,5000,True,1.0
./expes/v2_2020-12-17_dh_1000-prng-1,30_issda_1000,1000,rng-1000,301,rng,num-start-14001,14001,25726,2172.9644873142242,True,,True,1,False,5000,True,1.0
./expes/v2_2020-12-17_dh_1000-prng-1,30_issda_1000,1000,rng-1000,701,rng,num-start-8001,8001,25726,1524.9205195903778,True,,True,1,False,5000,True,1.0
./expes/v2_2020-12-17_dh_1000-prng-1,30_issda_1000,1000,rng-1000,301,rng,num-start-1001,1001,25726,213.91233134269714,True,,True,1,False,5000,True,1.0
./expes/v2_2020-12-17_dh_1000-prng-1,30_issda_1000,1000,rng-1000,801,rng,num-start-2001,2001,25726,462.59818625450134,True,,True,1,False,5000,True,1.0
./expes/v2_2020-12-17_dh_1000-prng-1,30_issda_1000,1000,rng-1000,1,rng,num-start-5001,5001,25726,425.2706072330475,True,,True,1,False,5000,True,1.0
./expes/v2_2020-12-17_dh_1000-prng-1,30_issda_1000,1000,rng-1000,901,rng,num-start-1,1,25726,0.13082027435302734,False,,False,2,False,5000,True,1.0
./expes/v2_2020-12-17_dh_1000-prng-1,30_issda_1000,1000,rng-1000,1,rng,num-start-3001,3001,25726,258.1535623073578,True,,True,1,False,5000,True,1.0
./expes/v2_2020-12-17_dh_1000-prng-1,30_issda_1000,1000,rng-1000,901,rng,num-start-1,1,25726,0.16247010231018066,False,,False,2,False,5000,True,1.0
./expes/v2_2020-12-17_dh_1000-prng-1,30_issda_1000,1000,rng-1000,701,rng,num-start-1001,1001,25726,170.82560658454895,True,,True,1,False,5000,True,1.0
./expes/v2_2020-12-17_dh_1000-prng-1,30_issda_1000,1000,rng-1000,901,rng,num-start-16001,16001,25726,2308.6072776317596,True,,True,1,False,5000,True,1.0
