expe,clients,clients_size,clients_subset,agg_size,agg_size_pc,method,days,days_size,days_total,noise_method,time,valid,valid_sum,success,score_avg,score_min,score_max,nsols,oracle,wall_hit,wall_time,pooled,pool_size,uuid,infeasible,optimal,valid_sums
./expes/v2_2021-03-23_issda-30_2000-prng-1-w8-p2,30_issda-2000,2000,first-2000,600,30,rng,num-start-1400,1400,25726,classic,4366.339769363403,True,,True,1.0,1.0,1.0,1,"['11', '15', '16', '17', '20', '22', '24', '25', '32', '37', '40', '43', '54', '56', '57', '59', '62', '63', '64', '69', '70', '73', '74', '90', '101', '102', '103', '104', '106', '107', '110', '111', '114', '120', '123', '124', '128', '132', '135', '142', '145', '147', '150', '151', '154', '158', '159', '162', '166', '168', '171', '175', '178', '180', '191', '192', '193', '201', '202', '203', '204', '214', '217', '221', '226', '227', '232', '240', '241', '251', '252', '253', '255', '256', '257', '261', '263', '264', '265', '266', '269', '281', '282', '284', '287', '291', '293', '294', '301', '305', '307', '309', '310', '311', '316', '322', '331', '333', '335', '337', '346', '347', '349', '350', '353', '356', '358', '367', '376', '377', '386', '387', '388', '392', '394', '395', '401', '402', '403', '405', '407', '408', '411', '417', '418', '427', '431', '433', '435', '437', '438', '439', '444', '448', '450', '455', '456', '461', '467', '470', '472', '474', '483', '484', '486', '490', '496', '497', '499', '500', '510', '512', '513', '514', '515', '517', '523', '526', '528', '529', '532', '533', '538', '540', '542', '544', '545', '548', '552', '554', '559', '563', '565', '570', '577', '581', '584', '591', '592', '594', '597', '602', '603', '604', '605', '607', '608', '618', '620', '622', '625', '630', '631', '632', '634', '635', '636', '638', '639', '642', '647', '648', '650', '651', '652', '654', '659', '667', '670', '674', '675', '678', '681', '685', '686', '687', '689', '691', '695', '696', '712', '713', '720', '721', '727', '728', '729', '731', '737', '743', '746', '749', '752', '754', '757', '762', '763', '768', '769', '775', '776', '778', '786', '787', '791', '796', '802', '805', '807', '820', '823', '826', '827', '828', '829', '831', '833', '834', '836', '837', '840', '849', '850', '854', '859', '860', '862', '866', '867', '875', '877', '882', '887', '889', '893', '894', '897', '904', '905', '907', '908', '912', '913', '915', '920', '921', '928', '933', '941', '948', '950', '957', '958', '967', '970', '971', '973', '978', '981', '984', '987', '989', '990', '992', '994', '996', '997', '1008', '1010', '1011', '1013', '1016', '1018', '1026', '1027', '1028', '1029', '1033', '1034', '1037', '1039', '1053', '1056', '1057', '1060', '1061', '1063', '1064', '1070', '1072', '1076', '1077', '1080', '1082', '1089', '1091', '1092', '1096', '1099', '1100', '1103', '1104', '1105', '1106', '1107', '1111', '1113', '1114', '1116', '1121', '1126', '1129', '1134', '1135', '1138', '1139', '1141', '1145', '1146', '1154', '1156', '1164', '1166', '1171', '1172', '1178', '1180', '1184', '1185', '1188', '1191', '1193', '1197', '1201', '1202', '1209', '1212', '1226', '1229', '1231', '1237', '1238', '1250', '1253', '1254', '1255', '1256', '1262', '1264', '1272', '1282', '1283', '1284', '1295', '1297', '1298', '1302', '1304', '1309', '1312', '1324', '1325', '1326', '1327', '1330', '1332', '1333', '1340', '1347', '1349', '1350', '1355', '1359', '1367', '1383', '1386', '1395', '1398', '1402', '1403', '1404', '1405', '1412', '1416', '1419', '1433', '1442', '1443', '1445', '1446', '1449', '1453', '1455', '1458', '1465', '1466', '1478', '1484', '1485', '1489', '1493', '1497', '1499', '1510', '1511', '1513', '1514', '1523', '1525', '1526', '1529', '1531', '1533', '1535', '1537', '1540', '1541', '1543', '1546', '1547', '1552', '1553', '1554', '1556', '1557', '1564', '1566', '1567', '1569', '1572', '1573', '1579', '1582', '1585', '1586', '1591', '1594', '1598', '1600', '1602', '1603', '1607', '1611', '1613', '1622', '1626', '1627', '1628', '1630', '1637', '1642', '1643', '1644', '1645', '1649', '1653', '1655', '1658', '1661', '1664', '1665', '1666', '1668', '1670', '1673', '1676', '1679', '1680', '1682', '1684', '1689', '1693', '1698', '1702', '1705', '1715', '1719', '1725', '1734', '1738', '1742', '1745', '1749', '1753', '1756', '1757', '1759', '1761', '1769', '1772', '1777', '1778', '1780', '1786', '1789', '1793', '1794', '1800', '1805', '1808', '1819', '1823', '1829', '1830', '1837', '1838', '1840', '1841', '1842', '1844', '1845', '1847', '1848', '1856', '1858', '1859', '1861', '1862', '1864', '1870', '1878', '1880', '1881', '1885', '1888', '1892', '1893', '1897', '1905', '1907', '1911', '1917', '1923', '1925', '1926', '1927', '1930', '1931', '1936', '1944', '1948', '1949', '1957', '1958', '1960', '1961', '1962', '1966', '1968', '1970', '1975', '1976', '1982', '1987', '1990', '1992', '1994', '1996', '1997', '1998']",False,8000,True,2,d3c310107f,0.0,1.0,1.0
./expes/v2_2021-03-23_issda-30_2000-prng-1-w8-p2,30_issda-2000,2000,first-2000,800,40,rng,num-start-400,400,25726,classic,8073.862095594406,False,,False,0,,,0,"['1', '3', '4', '5', '7', '15', '17', '19', '20', '21', '26', '28', '29', '30', '31', '32', '34', '39', '42', '45', '47', '51', '55', '57', '58', '61', '62', '63', '65', '67', '68', '69', '73', '74', '75', '78', '79', '80', '81', '82', '83', '84', '85', '87', '92', '93', '94', '96', '97', '99', '103', '114', '119', '124', '126', '128', '129', '131', '135', '136', '142', '144', '145', '146', '148', '152', '155', '157', '161', '162', '165', '166', '167', '168', '169', '171', '172', '173', '174', '179', '184', '186', '187', '188', '192', '195', '201', '203', '204', '206', '207', '208', '211', '215', '216', '223', '224', '228', '231', '233', '236', '237', '238', '240', '241', '244', '246', '249', '253', '254', '255', '256', '257', '261', '266', '267', '268', '272', '274', '277', '284', '286', '287', '289', '291', '292', '294', '299', '300', '301', '304', '305', '307', '310', '311', '315', '317', '319', '320', '321', '323', '325', '328', '330', '332', '336', '340', '342', '347', '350', '359', '365', '366', '368', '370', '373', '374', '377', '379', '383', '386', '387', '388', '390', '391', '392', '394', '399', '400', '406', '407', '409', '414', '417', '419', '420', '422', '423', '425', '426', '427', '432', '438', '441', '443', '445', '448', '449', '451', '452', '453', '455', '457', '461', '471', '473', '477', '479', '483', '485', '489', '490', '491', '492', '496', '498', '500', '514', '518', '522', '524', '526', '527', '529', '531', '532', '533', '534', '535', '537', '553', '556', '563', '564', '565', '571', '574', '576', '578', '588', '590', '593', '594', '595', '597', '600', '601', '602', '603', '607', '613', '616', '617', '618', '619', '620', '621', '622', '626', '631', '636', '638', '640', '645', '647', '648', '650', '652', '656', '660', '661', '664', '665', '667', '668', '670', '673', '677', '678', '682', '683', '685', '687', '688', '691', '692', '693', '697', '702', '704', '706', '708', '710', '711', '713', '718', '722', '723', '725', '731', '732', '734', '735', '736', '740', '741', '742', '750', '752', '753', '755', '756', '759', '761', '762', '763', '770', '772', '775', '776', '777', '783', '786', '787', '789', '792', '794', '795', '796', '802', '803', '807', '809', '813', '816', '817', '823', '824', '826', '830', '832', '836', '840', '843', '849', '850', '851', '852', '855', '856', '857', '859', '861', '862', '865', '867', '872', '873', '874', '883', '884', '890', '892', '894', '906', '907', '911', '912', '913', '915', '918', '919', '923', '925', '928', '930', '933', '938', '939', '940', '944', '955', '957', '964', '965', '966', '967', '970', '971', '975', '976', '977', '980', '982', '986', '987', '988', '996', '997', '998', '1000', '1001', '1003', '1005', '1008', '1009', '1011', '1013', '1015', '1018', '1019', '1020', '1021', '1022', '1029', '1032', '1034', '1035', '1039', '1041', '1042', '1048', '1058', '1061', '1063', '1066', '1067', '1068', '1069', '1072', '1073', '1075', '1076', '1077', '1081', '1083', '1085', '1086', '1091', '1093', '1095', '1097', '1102', '1107', '1108', '1112', '1113', '1115', '1120', '1121', '1122', '1124', '1125', '1129', '1132', '1133', '1140', '1144', '1147', '1149', '1150', '1155', '1157', '1160', '1163', '1164', '1166', '1167', '1168', '1172', '1176', '1179', '1180', '1188', '1190', '1194', '1195', '1198', '1199', '1201', '1203', '1204', '1208', '1209', '1215', '1218', '1222', '1223', '1226', '1230', '1233', '1234', '1235', '1236', '1237', '1239', '1241', '1242', '1245', '1246', '1249', '1250', '1252', '1253', '1254', '1255', '1259', '1265', '1267', '1271', '1272', '1274', '1277', '1281', '1284', '1285', '1286', '1291', '1295', '1297', '1298', '1299', '1301', '1303', '1306', '1308', '1309', '1312', '1313', '1314', '1320', '1321', '1325', '1330', '1333', '1339', '1343', '1344', '1345', '1346', '1347', '1350', '1353', '1357', '1364', '1366', '1369', '1373', '1378', '1380', '1384', '1385', '1387', '1390', '1391', '1392', '1393', '1394', '1395', '1396', '1398', '1400', '1401', '1406', '1408', '1411', '1413', '1415', '1417', '1429', '1431', '1433', '1434', '1435', '1436', '1437', '1438', '1442', '1445', '1446', '1447', '1448', '1449', '1453', '1455', '1459', '1462', '1464', '1466', '1469', '1470', '1471', '1472', '1474', '1480', '1486', '1490', '1493', '1494', '1495', '1496', '1497', '1499', '1500', '1504', '1505', '1514', '1518', '1519', '1528', '1530', '1532', '1533', '1535', '1536', '1541', '1546', '1548', '1550', '1552', '1553', '1555', '1561', '1572', '1582', '1583', '1585', '1590', '1591', '1592', '1593', '1594', '1597', '1602', '1604', '1605', '1606', '1608', '1609', '1615', '1616', '1618', '1621', '1623', '1625', '1627', '1628', '1634', '1635', '1638', '1639', '1640', '1645', '1646', '1648', '1649', '1651', '1653', '1655', '1657', '1659', '1660', '1663', '1664', '1669', '1671', '1674', '1676', '1678', '1679', '1683', '1684', '1685', '1690', '1691', '1692', '1694', '1696', '1698', '1699', '1700', '1701', '1708', '1712', '1716', '1717', '1721', '1723', '1726', '1729', '1730', '1731', '1732', '1734', '1740', '1742', '1744', '1747', '1749', '1752', '1756', '1760', '1762', '1763', '1765', '1766', '1769', '1770', '1772', '1773', '1777', '1780', '1783', '1785', '1786', '1787', '1790', '1791', '1792', '1793', '1794', '1796', '1798', '1799', '1805', '1811', '1812', '1813', '1814', '1819', '1821', '1823', '1824', '1827', '1830', '1832', '1834', '1839', '1840', '1841', '1842', '1844', '1846', '1848', '1849', '1850', '1853', '1856', '1860', '1861', '1864', '1868', '1870', '1872', '1875', '1876', '1878', '1879', '1880', '1881', '1882', '1883', '1884', '1885', '1888', '1889', '1890', '1891', '1892', '1908', '1911', '1913', '1914', '1916', '1917', '1918', '1919', '1920', '1922', '1929', '1932', '1935', '1937', '1939', '1940', '1942', '1945', '1946', '1953', '1955', '1959', '1962', '1963', '1965', '1968', '1969', '1971', '1972', '1973', '1974', '1978', '1980', '1982', '1983', '1984', '1986', '1988', '1992', '1996', '2000']",True,8000,True,2,3f4d2c5d03,0.0,0.0,0.0
./expes/v2_2021-03-23_issda-30_2000-prng-1-w8-p2,30_issda-2000,2000,first-2000,1000,50,rng,num-start-600,600,25726,classic,8116.145641088486,False,,False,0,,,0,"['1', '3', '7', '10', '12', '14', '22', '23', '25', '26', '27', '28', '29', '30', '32', '33', '34', '35', '36', '41', '43', '44', '45', '46', '47', '48', '53', '56', '57', '58', '61', '62', '63', '66', '67', '68', '69', '70', '71', '72', '75', '76', '77', '80', '81', '82', '85', '88', '90', '91', '93', '101', '103', '105', '108', '112', '114', '115', '118', '119', '122', '123', '125', '129', '130', '132', '133', '134', '136', '140', '141', '144', '145', '147', '148', '152', '153', '154', '164', '165', '167', '168', '169', '170', '171', '172', '173', '175', '176', '177', '178', '179', '181', '182', '183', '184', '186', '190', '192', '194', '195', '196', '197', '199', '200', '201', '205', '206', '208', '209', '210', '212', '216', '217', '218', '219', '220', '221', '222', '223', '224', '227', '228', '229', '230', '231', '233', '234', '237', '239', '240', '241', '242', '243', '245', '248', '250', '254', '255', '259', '261', '262', '263', '267', '269', '272', '277', '278', '279', '280', '281', '282', '285', '286', '287', '288', '289', '292', '294', '299', '300', '301', '302', '303', '304', '305', '307', '308', '315', '316', '317', '320', '322', '325', '327', '328', '330', '331', '332', '335', '336', '338', '340', '341', '347', '348', '349', '350', '351', '353', '355', '356', '357', '359', '362', '364', '365', '372', '373', '375', '378', '379', '384', '387', '388', '389', '392', '393', '394', '396', '398', '401', '402', '405', '407', '408', '411', '412', '414', '415', '417', '421', '425', '426', '427', '429', '431', '433', '434', '438', '446', '447', '450', '451', '453', '454', '456', '459', '462', '464', '465', '470', '473', '475', '477', '480', '481', '483', '485', '487', '490', '492', '495', '497', '500', '501', '504', '505', '506', '507', '508', '509', '512', '519', '520', '522', '523', '529', '530', '534', '535', '539', '542', '545', '546', '547', '549', '551', '555', '560', '562', '563', '564', '566', '567', '568', '576', '579', '583', '584', '586', '589', '590', '591', '592', '593', '594', '595', '597', '598', '599', '601', '605', '606', '607', '608', '611', '612', '614', '615', '617', '618', '619', '620', '623', '625', '631', '633', '634', '635', '636', '637', '638', '639', '641', '642', '643', '644', '645', '646', '648', '649', '654', '655', '656', '658', '661', '663', '664', '667', '670', '672', '673', '674', '676', '682', '684', '686', '687', '690', '691', '692', '693', '694', '698', '699', '701', '702', '703', '705', '706', '709', '710', '711', '713', '714', '720', '722', '724', '727', '729', '731', '732', '733', '734', '735', '738', '739', '741', '742', '745', '746', '748', '750', '751', '754', '756', '757', '758', '759', '761', '762', '763', '764', '768', '769', '772', '773', '776', '777', '779', '780', '781', '786', '787', '788', '791', '792', '794', '795', '798', '799', '800', '801', '807', '808', '809', '812', '813', '814', '815', '818', '820', '821', '822', '825', '826', '832', '834', '835', '836', '840', '843', '844', '849', '850', '854', '856', '859', '860', '864', '868', '869', '870', '871', '872', '873', '876', '880', '883', '884', '886', '890', '891', '893', '894', '895', '898', '899', '901', '902', '903', '905', '908', '909', '910', '911', '912', '914', '915', '916', '918', '919', '920', '922', '928', '929', '931', '933', '935', '937', '938', '941', '942', '948', '949', '959', '961', '963', '966', '967', '970', '971', '972', '975', '977', '978', '981', '987', '991', '992', '994', '995', '997', '998', '999', '1000', '1001', '1003', '1004', '1005', '1006', '1013', '1014', '1018', '1019', '1020', '1021', '1022', '1023', '1024', '1025', '1028', '1029', '1030', '1031', '1032', '1033', '1034', '1035', '1037', '1038', '1039', '1040', '1041', '1043', '1045', '1046', '1047', '1049', '1050', '1053', '1054', '1058', '1059', '1063', '1065', '1066', '1067', '1069', '1070', '1072', '1073', '1076', '1077', '1079', '1080', '1081', '1082', '1083', '1084', '1089', '1090', '1093', '1095', '1104', '1106', '1108', '1113', '1114', '1117', '1119', '1120', '1121', '1122', '1123', '1126', '1131', '1134', '1136', '1138', '1139', '1142', '1146', '1147', '1149', '1150', '1152', '1153', '1154', '1155', '1156', '1160', '1161', '1163', '1165', '1166', '1170', '1171', '1173', '1174', '1175', '1180', '1181', '1185', '1186', '1188', '1190', '1191', '1195', '1197', '1199', '1200', '1206', '1209', '1213', '1217', '1218', '1222', '1224', '1226', '1229', '1230', '1231', '1232', '1235', '1238', '1239', '1240', '1243', '1244', '1249', '1250', '1251', '1253', '1255', '1256', '1257', '1259', '1264', '1265', '1271', '1272', '1273', '1277', '1278', '1279', '1280', '1281', '1285', '1286', '1287', '1288', '1289', '1291', '1294', '1295', '1296', '1298', '1299', '1302', '1303', '1310', '1312', '1314', '1315', '1319', '1323', '1324', '1326', '1327', '1331', '1332', '1333', '1335', '1337', '1339', '1340', '1341', '1342', '1344', '1345', '1346', '1347', '1348', '1349', '1354', '1358', '1359', '1362', '1363', '1366', '1367', '1368', '1370', '1371', '1373', '1379', '1382', '1385', '1386', '1389', '1390', '1393', '1396', '1399', '1401', '1402', '1403', '1407', '1409', '1410', '1414', '1415', '1416', '1418', '1419', '1420', '1422', '1423', '1424', '1426', '1427', '1428', '1431', '1432', '1436', '1437', '1438', '1439', '1441', '1442', '1443', '1444', '1445', '1446', '1451', '1452', '1453', '1454', '1455', '1456', '1460', '1463', '1466', '1467', '1469', '1470', '1472', '1473', '1474', '1475', '1477', '1478', '1480', '1481', '1482', '1484', '1485', '1486', '1487', '1491', '1492', '1493', '1497', '1502', '1505', '1508', '1509', '1510', '1511', '1518', '1519', '1522', '1523', '1524', '1525', '1531', '1533', '1534', '1535', '1536', '1543', '1547', '1548', '1549', '1551', '1554', '1555', '1556', '1559', '1560', '1561', '1562', '1563', '1564', '1566', '1569', '1570', '1571', '1573', '1575', '1577', '1581', '1586', '1592', '1595', '1597', '1598', '1600', '1602', '1605', '1608', '1610', '1611', '1612', '1616', '1619', '1620', '1623', '1625', '1628', '1630', '1632', '1636', '1637', '1641', '1644', '1645', '1648', '1649', '1653', '1654', '1655', '1656', '1661', '1662', '1665', '1666', '1668', '1669', '1670', '1673', '1674', '1678', '1682', '1685', '1686', '1690', '1691', '1695', '1696', '1697', '1698', '1699', '1700', '1701', '1703', '1707', '1709', '1712', '1713', '1715', '1716', '1717', '1719', '1721', '1724', '1726', '1728', '1729', '1730', '1731', '1733', '1735', '1740', '1742', '1746', '1751', '1752', '1755', '1756', '1758', '1759', '1760', '1762', '1772', '1775', '1779', '1780', '1781', '1784', '1786', '1791', '1793', '1795', '1796', '1797', '1799', '1802', '1805', '1806', '1807', '1809', '1810', '1811', '1813', '1814', '1818', '1820', '1822', '1824', '1826', '1827', '1829', '1830', '1834', '1837', '1838', '1840', '1844', '1847', '1848', '1850', '1851', '1854', '1855', '1857', '1858', '1860', '1862', '1863', '1864', '1865', '1867', '1869', '1870', '1872', '1876', '1877', '1879', '1882', '1883', '1884', '1885', '1886', '1887', '1888', '1890', '1892', '1894', '1895', '1896', '1900', '1902', '1903', '1908', '1910', '1911', '1913', '1918', '1919', '1922', '1925', '1929', '1930', '1932', '1935', '1937', '1938', '1939', '1941', '1942', '1946', '1949', '1950', '1954', '1958', '1959', '1961', '1962', '1963', '1964', '1965', '1971', '1975', '1976', '1977', '1978', '1981', '1983', '1985', '1987', '1989', '1990', '1993', '1996', '1997', '1999', '2000']",True,8000,True,2,189226ad21,0.0,0.0,0.0
./expes/v2_2021-03-23_issda-30_2000-prng-1-w8-p2,30_issda-2000,2000,first-2000,400,20,rng,num-start-2400,2400,25726,classic,1389.3102972507477,True,,True,1.0,1.0,1.0,1,"['2', '8', '11', '14', '17', '18', '25', '27', '31', '36', '38', '49', '53', '54', '59', '60', '61', '62', '70', '71', '74', '84', '85', '89', '97', '100', '104', '106', '108', '109', '111', '113', '124', '125', '130', '132', '133', '135', '136', '137', '141', '142', '153', '155', '166', '167', '170', '171', '172', '173', '174', '178', '180', '182', '192', '197', '204', '205', '209', '212', '213', '218', '223', '226', '227', '228', '229', '230', '242', '246', '247', '249', '263', '266', '272', '273', '282', '283', '284', '285', '289', '292', '298', '304', '305', '306', '322', '332', '333', '337', '345', '347', '351', '354', '355', '361', '372', '382', '388', '394', '405', '406', '408', '409', '411', '416', '420', '428', '430', '431', '438', '453', '455', '456', '460', '473', '474', '484', '485', '488', '498', '499', '509', '531', '538', '539', '547', '548', '550', '553', '562', '567', '569', '576', '584', '595', '597', '603', '607', '616', '630', '633', '659', '666', '674', '677', '684', '685', '693', '700', '709', '712', '715', '727', '749', '750', '757', '761', '763', '764', '765', '776', '777', '782', '785', '786', '791', '796', '797', '813', '816', '822', '824', '825', '833', '840', '843', '861', '864', '866', '870', '871', '878', '888', '893', '910', '920', '923', '925', '926', '929', '936', '940', '949', '950', '958', '964', '971', '973', '980', '985', '988', '1004', '1007', '1008', '1013', '1016', '1018', '1019', '1026', '1030', '1035', '1037', '1045', '1060', '1070', '1073', '1080', '1084', '1097', '1101', '1106', '1111', '1115', '1118', '1121', '1124', '1136', '1137', '1139', '1146', '1148', '1151', '1158', '1160', '1174', '1176', '1177', '1179', '1186', '1188', '1190', '1197', '1199', '1205', '1206', '1209', '1210', '1212', '1215', '1223', '1224', '1235', '1239', '1242', '1243', '1245', '1246', '1247', '1248', '1252', '1253', '1256', '1263', '1275', '1280', '1284', '1290', '1300', '1305', '1309', '1315', '1317', '1322', '1327', '1334', '1359', '1368', '1375', '1381', '1386', '1389', '1391', '1400', '1409', '1410', '1419', '1426', '1433', '1434', '1436', '1441', '1442', '1445', '1452', '1453', '1466', '1474', '1476', '1485', '1487', '1490', '1492', '1495', '1508', '1510', '1511', '1518', '1527', '1528', '1529', '1531', '1542', '1558', '1566', '1567', '1581', '1583', '1586', '1587', '1589', '1593', '1598', '1599', '1604', '1606', '1611', '1618', '1625', '1628', '1631', '1636', '1638', '1645', '1654', '1658', '1659', '1669', '1681', '1686', '1706', '1728', '1732', '1733', '1743', '1745', '1746', '1760', '1762', '1770', '1775', '1777', '1780', '1786', '1791', '1794', '1797', '1800', '1801', '1803', '1806', '1816', '1817', '1818', '1821', '1822', '1828', '1829', '1834', '1835', '1840', '1856', '1857', '1863', '1867', '1880', '1883', '1887', '1891', '1893', '1918', '1922', '1925', '1928', '1938', '1939', '1940', '1948', '1949', '1954', '1957', '1958', '1963', '1970', '1972', '1975', '1980', '1984', '1998', '2000']",False,8000,True,2,0c4a122ce8,0.0,1.0,1.0
./expes/v2_2021-03-23_issda-30_2000-prng-1-w8-p2,30_issda-2000,2000,first-2000,800,40,rng,num-start-4000,4000,25726,classic,3490.653314590454,True,,True,1.0,1.0,1.0,1,"['1', '2', '10', '11', '14', '20', '22', '23', '24', '25', '26', '28', '30', '31', '32', '33', '34', '35', '37', '40', '41', '44', '46', '47', '48', '50', '51', '57', '59', '61', '62', '65', '69', '72', '73', '74', '75', '77', '80', '84', '85', '86', '87', '91', '92', '96', '97', '98', '102', '104', '108', '122', '123', '124', '127', '130', '132', '135', '137', '138', '141', '142', '144', '145', '148', '149', '150', '151', '152', '153', '154', '155', '158', '159', '160', '161', '165', '170', '171', '172', '174', '175', '177', '179', '180', '181', '185', '186', '189', '191', '193', '195', '196', '197', '199', '202', '203', '206', '207', '213', '215', '218', '221', '222', '223', '224', '232', '235', '236', '237', '239', '242', '245', '250', '252', '253', '259', '261', '266', '267', '269', '270', '272', '273', '275', '276', '278', '279', '280', '284', '288', '289', '290', '291', '294', '300', '301', '305', '316', '319', '323', '324', '325', '327', '328', '337', '339', '342', '347', '348', '354', '355', '360', '361', '364', '366', '367', '371', '372', '373', '375', '378', '379', '382', '384', '386', '388', '389', '390', '391', '392', '393', '398', '399', '400', '401', '403', '404', '405', '406', '407', '409', '411', '412', '415', '418', '419', '420', '424', '427', '428', '430', '431', '432', '435', '436', '437', '438', '439', '443', '447', '448', '450', '454', '459', '464', '466', '468', '471', '472', '476', '477', '479', '486', '487', '489', '491', '495', '496', '497', '498', '501', '505', '511', '514', '521', '523', '524', '525', '526', '527', '529', '530', '532', '533', '537', '546', '552', '553', '558', '560', '564', '565', '567', '570', '573', '574', '576', '578', '580', '582', '592', '595', '596', '601', '603', '607', '613', '617', '618', '622', '623', '624', '633', '635', '636', '637', '638', '639', '646', '647', '649', '650', '654', '657', '660', '663', '669', '670', '674', '676', '677', '678', '682', '687', '690', '692', '696', '699', '700', '701', '702', '703', '704', '709', '712', '714', '719', '721', '726', '727', '728', '729', '733', '737', '740', '742', '754', '756', '758', '759', '762', '765', '769', '770', '772', '773', '777', '781', '784', '786', '788', '791', '792', '795', '796', '798', '800', '801', '803', '806', '808', '809', '810', '812', '814', '821', '823', '825', '828', '829', '830', '831', '832', '834', '836', '840', '841', '842', '843', '847', '848', '852', '853', '855', '859', '860', '862', '864', '874', '879', '881', '883', '885', '889', '891', '895', '900', '902', '903', '905', '906', '909', '913', '915', '917', '923', '926', '927', '928', '929', '930', '932', '937', '938', '940', '947', '948', '950', '951', '953', '954', '957', '961', '963', '964', '966', '968', '970', '973', '974', '975', '976', '982', '985', '986', '988', '989', '991', '996', '998', '999', '1006', '1009', '1010', '1012', '1017', '1019', '1020', '1021', '1022', '1024', '1025', '1030', '1031', '1033', '1034', '1036', '1041', '1043', '1046', '1049', '1050', '1051', '1054', '1055', '1056', '1057', '1058', '1062', '1063', '1064', '1065', '1066', '1067', '1069', '1071', '1074', '1076', '1079', '1083', '1085', '1087', '1088', '1092', '1094', '1096', '1097', '1098', '1100', '1103', '1104', '1106', '1107', '1109', '1112', '1113', '1115', '1116', '1119', '1127', '1128', '1129', '1130', '1135', '1145', '1146', '1147', '1151', '1153', '1154', '1156', '1160', '1164', '1165', '1167', '1168', '1169', '1172', '1174', '1177', '1178', '1182', '1186', '1188', '1190', '1193', '1194', '1195', '1197', '1198', '1202', '1203', '1209', '1211', '1214', '1220', '1222', '1226', '1228', '1229', '1231', '1232', '1233', '1236', '1237', '1239', '1240', '1245', '1247', '1249', '1250', '1251', '1253', '1257', '1258', '1259', '1261', '1262', '1266', '1270', '1275', '1277', '1278', '1280', '1282', '1285', '1286', '1287', '1289', '1290', '1291', '1293', '1297', '1299', '1300', '1303', '1304', '1308', '1309', '1310', '1311', '1312', '1313', '1315', '1316', '1319', '1328', '1330', '1332', '1334', '1337', '1339', '1340', '1342', '1346', '1352', '1357', '1364', '1365', '1375', '1377', '1379', '1383', '1389', '1390', '1395', '1397', '1398', '1402', '1403', '1404', '1405', '1407', '1408', '1412', '1416', '1421', '1422', '1423', '1429', '1431', '1434', '1436', '1437', '1438', '1442', '1443', '1444', '1448', '1450', '1452', '1457', '1463', '1467', '1470', '1472', '1476', '1479', '1480', '1482', '1486', '1489', '1492', '1493', '1497', '1499', '1501', '1506', '1510', '1514', '1515', '1516', '1518', '1522', '1525', '1534', '1537', '1544', '1546', '1547', '1549', '1553', '1560', '1561', '1562', '1567', '1568', '1570', '1572', '1574', '1576', '1583', '1594', '1595', '1596', '1598', '1600', '1614', '1618', '1620', '1622', '1623', '1625', '1632', '1633', '1635', '1637', '1639', '1640', '1641', '1642', '1645', '1646', '1647', '1649', '1651', '1654', '1658', '1659', '1660', '1669', '1671', '1675', '1676', '1679', '1682', '1684', '1687', '1688', '1690', '1698', '1700', '1701', '1702', '1703', '1704', '1705', '1706', '1715', '1717', '1719', '1721', '1725', '1726', '1728', '1730', '1732', '1734', '1736', '1739', '1743', '1744', '1745', '1746', '1750', '1752', '1753', '1755', '1756', '1763', '1769', '1770', '1771', '1774', '1775', '1777', '1782', '1785', '1788', '1794', '1800', '1801', '1802', '1803', '1807', '1813', '1818', '1819', '1821', '1824', '1825', '1827', '1829', '1830', '1835', '1836', '1837', '1844', '1845', '1846', '1849', '1854', '1855', '1856', '1858', '1861', '1862', '1864', '1865', '1867', '1873', '1874', '1876', '1879', '1884', '1885', '1886', '1888', '1890', '1892', '1893', '1895', '1896', '1899', '1904', '1906', '1907', '1909', '1910', '1913', '1914', '1917', '1918', '1925', '1926', '1928', '1934', '1935', '1937', '1940', '1944', '1946', '1949', '1956', '1960', '1961', '1963', '1965', '1969', '1972', '1974', '1975', '1976', '1981', '1984', '1986', '1989', '1993', '1997']",False,8000,True,2,459de6935b,0.0,1.0,1.0
./expes/v2_2021-03-23_issda-30_2000-prng-1-w8-p2,30_issda-2000,2000,first-2000,700,35,rng,num-start-1200,1200,25726,classic,2956.6724038124084,True,,True,1.0,1.0,1.0,1,"['1', '2', '4', '6', '8', '10', '16', '21', '22', '30', '31', '32', '36', '37', '40', '41', '43', '49', '52', '53', '57', '58', '59', '60', '63', '65', '71', '72', '82', '83', '88', '92', '95', '98', '102', '103', '105', '106', '107', '112', '114', '122', '123', '127', '128', '131', '133', '137', '140', '141', '143', '144', '149', '153', '154', '158', '159', '166', '167', '171', '184', '185', '186', '191', '192', '194', '195', '196', '199', '201', '203', '210', '212', '214', '218', '219', '220', '227', '229', '230', '231', '232', '234', '235', '236', '243', '244', '245', '247', '249', '250', '252', '253', '255', '258', '260', '264', '267', '270', '273', '274', '277', '281', '289', '294', '300', '301', '307', '310', '314', '316', '325', '330', '331', '332', '338', '339', '345', '349', '350', '352', '353', '358', '360', '364', '366', '371', '372', '374', '377', '380', '387', '388', '389', '395', '397', '400', '403', '405', '407', '408', '409', '410', '411', '415', '416', '419', '420', '421', '425', '426', '429', '431', '434', '438', '443', '444', '447', '451', '455', '456', '458', '461', '463', '464', '468', '469', '471', '472', '473', '480', '483', '484', '485', '494', '495', '496', '498', '500', '501', '502', '505', '506', '507', '509', '510', '513', '515', '516', '517', '519', '522', '523', '524', '525', '526', '530', '533', '534', '539', '540', '542', '544', '545', '547', '555', '556', '558', '560', '561', '562', '564', '565', '571', '575', '576', '577', '578', '579', '580', '588', '594', '596', '597', '601', '606', '607', '608', '616', '617', '620', '621', '625', '626', '628', '629', '634', '636', '637', '640', '644', '647', '650', '652', '654', '661', '662', '666', '677', '680', '683', '684', '687', '691', '694', '696', '697', '703', '709', '712', '714', '718', '720', '722', '724', '726', '729', '734', '738', '739', '740', '745', '746', '748', '749', '751', '754', '755', '756', '764', '771', '772', '777', '780', '783', '784', '787', '788', '791', '792', '793', '794', '795', '805', '807', '808', '813', '815', '818', '825', '827', '831', '832', '833', '844', '856', '858', '862', '863', '864', '866', '867', '869', '871', '873', '874', '880', '886', '893', '896', '898', '899', '904', '905', '907', '910', '912', '913', '917', '921', '922', '925', '927', '929', '931', '932', '933', '942', '944', '956', '960', '961', '962', '963', '965', '969', '970', '972', '974', '975', '977', '979', '984', '986', '987', '992', '993', '994', '996', '997', '998', '1000', '1002', '1005', '1012', '1014', '1015', '1020', '1025', '1026', '1029', '1034', '1035', '1038', '1039', '1041', '1044', '1048', '1049', '1053', '1058', '1065', '1066', '1068', '1069', '1073', '1077', '1080', '1082', '1086', '1090', '1092', '1094', '1095', '1096', '1098', '1101', '1103', '1107', '1109', '1110', '1111', '1113', '1116', '1117', '1119', '1124', '1126', '1130', '1134', '1138', '1140', '1142', '1143', '1144', '1146', '1147', '1150', '1161', '1163', '1166', '1167', '1169', '1171', '1182', '1184', '1186', '1192', '1195', '1197', '1201', '1205', '1206', '1207', '1211', '1216', '1218', '1219', '1220', '1221', '1232', '1234', '1237', '1240', '1245', '1249', '1255', '1261', '1262', '1279', '1281', '1283', '1285', '1287', '1294', '1296', '1298', '1301', '1304', '1306', '1310', '1313', '1315', '1318', '1321', '1322', '1323', '1324', '1325', '1327', '1331', '1335', '1336', '1339', '1343', '1344', '1345', '1346', '1348', '1349', '1351', '1356', '1360', '1363', '1365', '1369', '1374', '1377', '1379', '1383', '1386', '1393', '1394', '1395', '1396', '1398', '1402', '1404', '1406', '1407', '1416', '1418', '1427', '1437', '1439', '1440', '1441', '1442', '1444', '1446', '1454', '1456', '1457', '1463', '1464', '1466', '1471', '1472', '1478', '1484', '1485', '1486', '1487', '1496', '1497', '1504', '1506', '1514', '1515', '1516', '1517', '1519', '1525', '1527', '1529', '1530', '1533', '1539', '1540', '1541', '1546', '1547', '1551', '1557', '1559', '1560', '1564', '1565', '1567', '1571', '1575', '1577', '1578', '1584', '1585', '1587', '1588', '1593', '1597', '1602', '1603', '1607', '1608', '1613', '1621', '1623', '1626', '1627', '1632', '1634', '1635', '1641', '1646', '1648', '1651', '1652', '1654', '1655', '1656', '1658', '1660', '1664', '1668', '1670', '1673', '1676', '1678', '1680', '1682', '1685', '1686', '1687', '1688', '1691', '1694', '1696', '1697', '1698', '1701', '1704', '1711', '1714', '1720', '1724', '1735', '1737', '1739', '1740', '1741', '1745', '1748', '1750', '1752', '1756', '1761', '1762', '1765', '1768', '1770', '1771', '1772', '1773', '1776', '1784', '1786', '1788', '1791', '1792', '1795', '1800', '1802', '1807', '1810', '1814', '1815', '1816', '1819', '1820', '1821', '1835', '1836', '1837', '1840', '1841', '1842', '1845', '1846', '1847', '1848', '1852', '1853', '1861', '1862', '1864', '1865', '1875', '1877', '1879', '1886', '1888', '1889', '1896', '1901', '1902', '1908', '1910', '1911', '1912', '1913', '1914', '1917', '1918', '1920', '1921', '1924', '1926', '1930', '1932', '1934', '1937', '1938', '1946', '1948', '1950', '1951', '1955', '1959', '1964', '1965', '1967', '1968', '1974', '1977', '1983', '1990', '1991', '1992', '1993', '1995', '2000']",False,8000,True,2,e5ef069af0,0.0,1.0,1.0
./expes/v2_2021-03-23_issda-30_2000-prng-1-w8-p2,30_issda-2000,2000,first-2000,100,5,rng,num-start-3400,3400,25726,classic,1077.673677444458,True,,True,1.0,1.0,1.0,1,"['4', '23', '39', '63', '106', '121', '125', '153', '170', '172', '179', '187', '231', '277', '293', '298', '333', '335', '351', '393', '409', '431', '458', '467', '536', '551', '562', '641', '691', '696', '717', '730', '744', '753', '768', '782', '788', '790', '821', '829', '858', '867', '868', '902', '909', '943', '962', '972', '977', '989', '1039', '1043', '1052', '1084', '1105', '1109', '1137', '1144', '1181', '1221', '1232', '1245', '1248', '1273', '1279', '1313', '1318', '1347', '1354', '1355', '1356', '1360', '1365', '1369', '1396', '1407', '1414', '1415', '1428', '1488', '1613', '1635', '1660', '1671', '1677', '1678', '1679', '1726', '1771', '1774', '1807', '1814', '1856', '1874', '1882', '1928', '1939', '1982', '1990', '2000']",False,8000,True,2,7313b69c66,0.0,1.0,1.0
./expes/v2_2021-03-23_issda-30_2000-prng-1-w8-p2,30_issda-2000,2000,first-2000,600,30,rng,num-start-2400,2400,25726,classic,1817.8886094093323,True,,True,1.0,1.0,1.0,1,"['1', '3', '8', '9', '12', '13', '19', '21', '23', '27', '29', '30', '35', '40', '41', '42', '44', '45', '46', '47', '51', '54', '57', '58', '63', '67', '68', '73', '75', '78', '80', '81', '88', '89', '90', '91', '96', '99', '106', '108', '113', '114', '116', '119', '120', '122', '133', '135', '146', '150', '153', '157', '161', '162', '163', '164', '165', '169', '172', '177', '183', '184', '186', '187', '189', '191', '199', '202', '205', '207', '212', '214', '219', '220', '222', '223', '233', '236', '238', '241', '242', '245', '249', '252', '254', '255', '257', '258', '268', '269', '274', '280', '290', '291', '294', '295', '296', '301', '302', '304', '309', '313', '314', '316', '317', '319', '323', '324', '327', '337', '342', '344', '348', '349', '352', '353', '354', '355', '357', '365', '373', '374', '379', '381', '389', '391', '395', '397', '400', '402', '406', '413', '416', '417', '418', '421', '424', '428', '429', '430', '434', '436', '440', '443', '448', '449', '452', '454', '456', '457', '459', '460', '461', '465', '467', '471', '476', '481', '483', '487', '488', '490', '491', '495', '498', '501', '504', '512', '520', '523', '524', '529', '531', '533', '535', '538', '539', '541', '548', '549', '551', '552', '558', '560', '571', '580', '582', '584', '588', '593', '594', '596', '601', '603', '605', '607', '608', '610', '619', '620', '621', '624', '625', '629', '633', '635', '636', '642', '643', '647', '649', '650', '655', '656', '660', '667', '673', '683', '686', '687', '689', '690', '700', '705', '706', '713', '715', '716', '717', '724', '725', '726', '733', '740', '741', '743', '747', '757', '765', '766', '767', '769', '771', '773', '785', '786', '787', '792', '793', '796', '802', '805', '808', '810', '811', '819', '820', '823', '825', '826', '827', '829', '830', '832', '834', '836', '837', '838', '839', '840', '843', '844', '845', '846', '852', '854', '856', '857', '858', '860', '861', '867', '874', '876', '877', '880', '887', '889', '894', '899', '904', '906', '910', '912', '915', '916', '917', '922', '929', '931', '934', '936', '942', '944', '946', '947', '952', '956', '961', '966', '968', '972', '973', '978', '985', '986', '988', '991', '995', '1000', '1004', '1005', '1007', '1012', '1013', '1016', '1017', '1019', '1020', '1022', '1023', '1027', '1030', '1032', '1045', '1046', '1047', '1052', '1053', '1058', '1059', '1062', '1072', '1073', '1077', '1083', '1089', '1090', '1092', '1095', '1097', '1101', '1103', '1105', '1110', '1129', '1133', '1134', '1153', '1157', '1162', '1171', '1173', '1176', '1186', '1189', '1193', '1202', '1203', '1208', '1209', '1215', '1216', '1219', '1222', '1224', '1227', '1234', '1235', '1237', '1242', '1243', '1248', '1250', '1252', '1255', '1256', '1258', '1260', '1264', '1277', '1281', '1282', '1284', '1287', '1288', '1293', '1296', '1297', '1301', '1307', '1308', '1312', '1313', '1317', '1320', '1321', '1332', '1335', '1337', '1339', '1341', '1342', '1343', '1347', '1349', '1351', '1353', '1357', '1358', '1364', '1365', '1366', '1367', '1369', '1370', '1392', '1395', '1397', '1407', '1408', '1411', '1413', '1415', '1417', '1421', '1425', '1429', '1430', '1432', '1433', '1434', '1441', '1448', '1449', '1450', '1457', '1463', '1472', '1474', '1477', '1483', '1485', '1487', '1491', '1496', '1497', '1500', '1508', '1510', '1512', '1513', '1516', '1521', '1522', '1523', '1533', '1536', '1540', '1542', '1547', '1553', '1554', '1559', '1564', '1565', '1566', '1568', '1576', '1583', '1584', '1586', '1598', '1602', '1603', '1604', '1605', '1610', '1612', '1614', '1616', '1617', '1619', '1630', '1631', '1635', '1636', '1646', '1647', '1650', '1651', '1652', '1655', '1664', '1667', '1669', '1671', '1674', '1677', '1686', '1688', '1692', '1693', '1694', '1700', '1704', '1706', '1711', '1721', '1722', '1724', '1725', '1726', '1727', '1729', '1732', '1735', '1736', '1738', '1741', '1750', '1763', '1771', '1772', '1773', '1777', '1778', '1784', '1788', '1795', '1809', '1810', '1811', '1812', '1813', '1814', '1820', '1830', '1836', '1837', '1842', '1843', '1849', '1855', '1857', '1865', '1875', '1877', '1882', '1883', '1884', '1886', '1892', '1895', '1896', '1901', '1902', '1905', '1908', '1915', '1921', '1925', '1927', '1932', '1933', '1942', '1943', '1947', '1949', '1950', '1952', '1953', '1954', '1959', '1961', '1962', '1965', '1971', '1976', '1979', '1981', '1983', '1984', '1985', '1988', '1989', '1991', '1993', '1995', '1996']",False,8000,True,2,2f1b27b268,0.0,1.0,1.0
./expes/v2_2021-03-23_issda-30_2000-prng-1-w8-p2,30_issda-2000,2000,first-2000,1000,50,rng,num-start-4000,4000,25726,classic,3508.8744826316833,True,,True,1.0,1.0,1.0,1,"['2', '4', '5', '8', '9', '11', '12', '16', '18', '19', '21', '22', '23', '26', '28', '30', '32', '35', '36', '37', '38', '39', '41', '42', '43', '44', '45', '46', '48', '49', '50', '53', '56', '58', '59', '60', '61', '63', '64', '66', '67', '71', '72', '73', '77', '78', '81', '82', '83', '84', '85', '90', '93', '94', '95', '98', '99', '100', '102', '107', '114', '115', '117', '121', '128', '129', '130', '132', '134', '138', '139', '140', '141', '143', '145', '146', '147', '149', '150', '151', '154', '157', '158', '162', '167', '168', '171', '172', '174', '175', '178', '183', '184', '186', '188', '189', '191', '193', '196', '198', '202', '203', '205', '206', '207', '210', '211', '214', '218', '219', '221', '222', '223', '225', '228', '229', '232', '234', '235', '236', '237', '238', '242', '245', '248', '250', '253', '254', '257', '258', '259', '265', '268', '273', '276', '277', '278', '280', '283', '284', '285', '290', '291', '298', '300', '302', '304', '307', '312', '316', '320', '322', '324', '325', '326', '327', '328', '329', '332', '333', '336', '337', '338', '339', '340', '342', '343', '345', '346', '348', '349', '352', '353', '354', '355', '362', '363', '364', '365', '368', '371', '376', '379', '381', '383', '385', '386', '389', '398', '402', '405', '408', '409', '410', '411', '412', '418', '420', '421', '422', '423', '424', '426', '428', '429', '430', '434', '435', '437', '438', '441', '444', '446', '449', '450', '451', '452', '455', '456', '458', '459', '461', '462', '463', '465', '466', '467', '469', '471', '473', '475', '476', '478', '479', '481', '482', '483', '486', '489', '491', '493', '494', '495', '497', '498', '500', '501', '502', '504', '505', '507', '508', '509', '512', '513', '514', '517', '518', '519', '520', '523', '529', '530', '531', '532', '534', '537', '542', '546', '547', '548', '549', '551', '552', '553', '554', '555', '559', '560', '563', '564', '565', '568', '569', '576', '577', '581', '582', '584', '589', '594', '595', '596', '597', '602', '603', '604', '606', '607', '608', '609', '611', '612', '613', '614', '621', '622', '624', '625', '626', '628', '629', '630', '632', '635', '636', '638', '639', '641', '642', '645', '648', '649', '650', '651', '655', '656', '657', '658', '659', '660', '663', '667', '671', '672', '676', '677', '679', '681', '682', '684', '685', '689', '691', '694', '695', '696', '697', '699', '702', '704', '705', '706', '708', '709', '711', '713', '716', '718', '724', '727', '728', '729', '731', '732', '736', '737', '739', '740', '747', '748', '752', '754', '755', '756', '759', '762', '766', '768', '773', '774', '775', '776', '777', '778', '779', '781', '784', '785', '786', '787', '792', '794', '798', '799', '800', '802', '804', '806', '807', '809', '811', '814', '815', '817', '818', '819', '820', '821', '822', '823', '824', '825', '828', '829', '830', '833', '834', '837', '838', '843', '845', '847', '849', '853', '854', '861', '863', '865', '866', '873', '874', '880', '881', '884', '885', '887', '892', '896', '897', '898', '899', '900', '903', '906', '907', '909', '912', '913', '915', '918', '921', '922', '924', '926', '928', '929', '932', '934', '938', '939', '941', '942', '944', '946', '947', '948', '952', '957', '959', '961', '962', '968', '971', '977', '981', '984', '986', '991', '993', '994', '995', '996', '1000', '1002', '1003', '1006', '1009', '1010', '1011', '1013', '1014', '1015', '1016', '1017', '1023', '1024', '1025', '1026', '1027', '1029', '1031', '1033', '1034', '1035', '1037', '1039', '1040', '1042', '1043', '1045', '1046', '1047', '1048', '1050', '1053', '1054', '1055', '1058', '1059', '1063', '1067', '1072', '1073', '1074', '1078', '1079', '1081', '1082', '1083', '1088', '1091', '1094', '1095', '1101', '1102', '1103', '1105', '1106', '1107', '1109', '1110', '1111', '1112', '1115', '1116', '1117', '1118', '1121', '1122', '1123', '1124', '1125', '1127', '1128', '1129', '1132', '1133', '1136', '1140', '1141', '1143', '1146', '1148', '1149', '1150', '1154', '1156', '1157', '1160', '1166', '1167', '1168', '1169', '1170', '1171', '1173', '1175', '1177', '1180', '1184', '1185', '1186', '1187', '1188', '1189', '1191', '1197', '1200', '1202', '1204', '1207', '1210', '1211', '1212', '1215', '1216', '1218', '1221', '1222', '1224', '1226', '1229', '1230', '1231', '1232', '1233', '1237', '1240', '1241', '1242', '1245', '1248', '1249', '1250', '1251', '1252', '1253', '1254', '1255', '1256', '1257', '1260', '1264', '1266', '1270', '1274', '1275', '1276', '1277', '1280', '1282', '1286', '1288', '1289', '1290', '1292', '1293', '1298', '1302', '1303', '1305', '1309', '1312', '1316', '1318', '1322', '1324', '1326', '1327', '1328', '1329', '1330', '1331', '1335', '1336', '1338', '1339', '1345', '1346', '1350', '1351', '1352', '1353', '1354', '1356', '1358', '1360', '1362', '1363', '1364', '1368', '1370', '1373', '1374', '1377', '1379', '1381', '1382', '1383', '1387', '1388', '1389', '1390', '1395', '1396', '1397', '1400', '1403', '1406', '1407', '1408', '1410', '1411', '1413', '1415', '1417', '1419', '1424', '1426', '1432', '1433', '1435', '1437', '1439', '1440', '1441', '1442', '1444', '1448', '1451', '1453', '1455', '1457', '1458', '1459', '1460', '1462', '1464', '1465', '1466', '1467', '1469', '1471', '1472', '1473', '1474', '1478', '1480', '1483', '1484', '1486', '1487', '1488', '1492', '1494', '1495', '1496', '1498', '1500', '1501', '1503', '1506', '1509', '1510', '1511', '1512', '1513', '1516', '1517', '1522', '1524', '1526', '1528', '1529', '1531', '1534', '1536', '1538', '1539', '1541', '1543', '1545', '1548', '1552', '1554', '1555', '1559', '1560', '1562', '1564', '1565', '1569', '1572', '1573', '1576', '1578', '1579', '1589', '1590', '1593', '1594', '1595', '1596', '1597', '1598', '1602', '1603', '1604', '1605', '1608', '1609', '1611', '1612', '1615', '1616', '1618', '1621', '1623', '1624', '1625', '1626', '1629', '1631', '1633', '1634', '1635', '1636', '1643', '1644', '1646', '1647', '1648', '1650', '1652', '1654', '1655', '1656', '1657', '1658', '1661', '1662', '1666', '1669', '1670', '1673', '1674', '1676', '1679', '1680', '1681', '1682', '1683', '1689', '1692', '1696', '1697', '1698', '1699', '1700', '1702', '1705', '1706', '1710', '1711', '1712', '1713', '1716', '1721', '1722', '1723', '1724', '1725', '1729', '1731', '1732', '1734', '1735', '1736', '1737', '1738', '1739', '1742', '1743', '1744', '1745', '1748', '1752', '1753', '1754', '1756', '1757', '1759', '1760', '1762', '1764', '1766', '1767', '1773', '1774', '1776', '1777', '1778', '1779', '1782', '1784', '1786', '1790', '1794', '1795', '1797', '1800', '1801', '1803', '1805', '1806', '1808', '1809', '1813', '1815', '1817', '1818', '1821', '1825', '1826', '1829', '1830', '1831', '1835', '1837', '1839', '1842', '1843', '1845', '1847', '1850', '1851', '1852', '1858', '1862', '1863', '1864', '1865', '1866', '1870', '1871', '1872', '1873', '1877', '1879', '1880', '1882', '1883', '1885', '1886', '1887', '1888', '1889', '1891', '1893', '1895', '1896', '1897', '1898', '1901', '1902', '1905', '1907', '1910', '1911', '1912', '1918', '1920', '1921', '1922', '1924', '1926', '1927', '1928', '1929', '1933', '1934', '1936', '1937', '1938', '1945', '1946', '1950', '1951', '1955', '1956', '1957', '1959', '1961', '1965', '1966', '1967', '1971', '1974', '1975', '1976', '1977', '1978', '1980', '1981', '1982', '1983', '1985', '1987', '1988', '1990', '1992', '1993', '1994', '1995', '1996', '1997', '1998', '1999', '2000']",False,8000,True,2,d0fce3ae6d,0.0,1.0,1.0
./expes/v2_2021-03-23_issda-30_2000-prng-1-w8-p2,30_issda-2000,2000,first-2000,200,10,rng,num-start-1400,1400,25726,classic,1002.6589798927307,True,,True,1.0,1.0,1.0,1,"['1', '26', '35', '38', '45', '59', '76', '94', '111', '157', '166', '176', '181', '183', '184', '191', '193', '197', '200', '240', '245', '253', '260', '283', '292', '299', '347', '353', '380', '385', '387', '394', '396', '397', '402', '404', '406', '408', '412', '430', '457', '502', '503', '513', '515', '522', '525', '536', '544', '545', '549', '559', '593', '597', '622', '624', '627', '640', '655', '675', '682', '688', '732', '739', '740', '741', '742', '765', '768', '773', '778', '779', '798', '815', '838', '840', '841', '848', '864', '867', '870', '874', '881', '904', '912', '914', '916', '925', '964', '965', '973', '981', '991', '994', '995', '997', '999', '1001', '1002', '1008', '1025', '1030', '1032', '1055', '1059', '1070', '1076', '1081', '1102', '1103', '1105', '1134', '1143', '1154', '1176', '1180', '1202', '1206', '1207', '1208', '1217', '1224', '1233', '1234', '1236', '1246', '1250', '1254', '1267', '1271', '1298', '1301', '1321', '1328', '1343', '1345', '1358', '1373', '1375', '1390', '1391', '1394', '1397', '1405', '1430', '1433', '1436', '1446', '1473', '1478', '1480', '1493', '1495', '1505', '1529', '1548', '1556', '1562', '1578', '1594', '1606', '1625', '1631', '1632', '1639', '1643', '1646', '1649', '1650', '1651', '1673', '1684', '1696', '1703', '1706', '1709', '1730', '1773', '1783', '1787', '1795', '1801', '1803', '1822', '1828', '1849', '1853', '1863', '1865', '1870', '1877', '1899', '1900', '1911', '1927', '1949', '1977', '1978', '1987', '2000']",False,8000,True,2,7439973956,0.0,1.0,1.0
./expes/v2_2021-03-23_issda-30_2000-prng-1-w8-p2,30_issda-2000,2000,first-2000,500,25,rng,num-start-200,200,25726,classic,8038.01708483696,False,,False,0,,,0,"['4', '5', '12', '18', '19', '22', '26', '30', '35', '36', '37', '38', '43', '45', '46', '49', '53', '56', '58', '59', '60', '61', '63', '67', '71', '73', '77', '78', '81', '82', '83', '90', '94', '98', '115', '121', '129', '130', '132', '134', '143', '145', '150', '157', '168', '171', '174', '178', '188', '193', '198', '203', '205', '206', '210', '211', '214', '221', '222', '223', '225', '234', '235', '236', '237', '242', '248', '257', '258', '265', '268', '273', '276', '277', '278', '300', '302', '322', '325', '326', '327', '329', '332', '336', '342', '343', '345', '346', '348', '349', '352', '355', '363', '371', '379', '381', '385', '386', '389', '398', '409', '410', '411', '412', '421', '422', '426', '429', '430', '435', '437', '444', '446', '449', '452', '455', '458', '459', '462', '465', '469', '471', '473', '476', '478', '481', '482', '491', '495', '498', '512', '517', '519', '520', '523', '530', '546', '547', '549', '551', '552', '559', '568', '576', '577', '582', '594', '595', '597', '603', '604', '606', '607', '608', '611', '612', '622', '628', '632', '636', '639', '642', '645', '650', '651', '656', '657', '658', '660', '667', '672', '679', '681', '682', '694', '695', '697', '699', '704', '705', '706', '708', '709', '711', '724', '731', '747', '748', '752', '754', '759', '768', '775', '777', '778', '779', '781', '786', '792', '799', '802', '806', '807', '809', '814', '817', '824', '828', '829', '833', '847', '849', '853', '863', '865', '873', '874', '880', '885', '887', '892', '897', '899', '913', '921', '922', '924', '928', '932', '938', '939', '941', '942', '944', '962', '968', '971', '977', '984', '986', '993', '994', '1000', '1002', '1003', '1009', '1015', '1016', '1017', '1023', '1024', '1026', '1029', '1033', '1034', '1035', '1037', '1040', '1042', '1043', '1045', '1050', '1053', '1058', '1063', '1067', '1073', '1081', '1091', '1095', '1103', '1106', '1107', '1109', '1112', '1116', '1122', '1123', '1124', '1127', '1128', '1129', '1133', '1136', '1140', '1149', '1150', '1154', '1156', '1157', '1160', '1166', '1168', '1169', '1175', '1180', '1184', '1185', '1188', '1197', '1202', '1204', '1207', '1210', '1211', '1212', '1215', '1222', '1229', '1230', '1232', '1237', '1241', '1245', '1248', '1254', '1255', '1257', '1260', '1276', '1277', '1280', '1289', '1292', '1293', '1302', '1316', '1326', '1328', '1329', '1331', '1335', '1336', '1345', '1351', '1352', '1360', '1362', '1364', '1373', '1374', '1379', '1381', '1382', '1383', '1387', '1389', '1395', '1406', '1408', '1424', '1426', '1439', '1440', '1441', '1442', '1444', '1457', '1458', '1465', '1473', '1478', '1483', '1486', '1487', '1488', '1494', '1496', '1501', '1511', '1512', '1517', '1522', '1524', '1545', '1548', '1555', '1559', '1562', '1565', '1572', '1573', '1578', '1579', '1589', '1593', '1595', '1597', '1598', '1602', '1603', '1605', '1609', '1611', '1612', '1615', '1616', '1618', '1631', '1633', '1634', '1636', '1643', '1644', '1646', '1648', '1652', '1658', '1662', '1666', '1673', '1674', '1676', '1679', '1681', '1692', '1696', '1697', '1700', '1705', '1712', '1716', '1721', '1723', '1724', '1731', '1734', '1736', '1738', '1742', '1744', '1748', '1756', '1757', '1759', '1762', '1764', '1774', '1777', '1778', '1782', '1786', '1794', '1800', '1805', '1808', '1813', '1815', '1818', '1825', '1830', '1835', '1837', '1843', '1845', '1847', '1863', '1864', '1865', '1866', '1871', '1873', '1877', '1879', '1885', '1889', '1895', '1896', '1897', '1898', '1907', '1910', '1918', '1921', '1922', '1924', '1927', '1928', '1933', '1934', '1936', '1946', '1950', '1951', '1955', '1956', '1961', '1966', '1971', '1976', '1978', '1981', '1983', '1985', '1987', '1988', '1994', '1995', '1998', '1999']",True,8000,True,2,ee34c28c53,0.0,0.0,0.0
./expes/v2_2021-03-23_issda-30_2000-prng-1-w8-p2,30_issda-2000,2000,first-2000,200,10,rng,num-start-600,600,25726,classic,3363.3353741168976,True,,True,1.0,1.0,1.0,1,"['1', '4', '22', '40', '43', '52', '57', '58', '65', '72', '88', '137', '144', '149', '171', '184', '191', '194', '195', '196', '201', '210', '219', '229', '234', '243', '249', '252', '294', '300', '307', '330', '332', '338', '345', '372', '374', '387', '395', '397', '408', '419', '426', '447', '458', '472', '484', '506', '510', '513', '516', '522', '524', '525', '526', '534', '540', '542', '547', '555', '556', '562', '564', '571', '575', '577', '579', '597', '620', '621', '634', '640', '647', '680', '691', '712', '729', '734', '739', '746', '754', '756', '783', '792', '795', '807', '808', '813', '827', '831', '844', '856', '867', '871', '896', '899', '904', '921', '922', '927', '933', '942', '956', '962', '965', '972', '984', '993', '994', '997', '1002', '1025', '1026', '1038', '1053', '1058', '1069', '1077', '1080', '1086', '1096', '1130', '1147', '1150', '1166', '1167', '1171', '1186', '1195', '1201', '1207', '1219', '1220', '1221', '1237', '1245', '1261', '1262', '1279', '1287', '1294', '1296', '1298', '1306', '1313', '1335', '1336', '1349', '1360', '1363', '1377', '1393', '1402', '1404', '1406', '1407', '1439', '1441', '1444', '1454', '1478', '1504', '1506', '1517', '1519', '1530', '1547', '1551', '1560', '1588', '1593', '1613', '1634', '1635', '1648', '1655', '1676', '1691', '1694', '1750', '1772', '1773', '1784', '1788', '1792', '1815', '1835', '1836', '1847', '1862', '1879', '1888', '1914', '1918', '1924', '1926', '1930', '1934', '1959', '1995']",False,8000,True,2,b568ac6073,0.0,1.0,1.0
./expes/v2_2021-03-23_issda-30_2000-prng-1-w8-p2,30_issda-2000,2000,first-2000,700,35,rng,num-start-2600,2600,25726,classic,2073.70565366745,True,,True,1.0,1.0,1.0,1,"['6', '8', '10', '16', '17', '19', '24', '25', '31', '32', '35', '36', '37', '39', '46', '49', '59', '60', '63', '64', '70', '75', '78', '80', '85', '87', '89', '91', '98', '99', '109', '112', '113', '115', '116', '121', '122', '124', '127', '128', '132', '134', '135', '138', '139', '141', '145', '149', '150', '151', '152', '157', '161', '162', '168', '171', '174', '183', '187', '190', '196', '198', '202', '204', '205', '206', '210', '222', '223', '231', '232', '237', '239', '240', '247', '248', '249', '252', '256', '264', '267', '270', '271', '274', '279', '282', '285', '288', '292', '293', '295', '296', '298', '301', '302', '306', '311', '312', '315', '318', '319', '321', '322', '324', '325', '328', '330', '331', '335', '337', '341', '344', '347', '348', '349', '351', '353', '355', '361', '366', '367', '368', '376', '379', '383', '384', '401', '402', '403', '410', '421', '423', '428', '429', '436', '438', '440', '441', '444', '446', '448', '449', '450', '451', '453', '454', '455', '456', '458', '462', '463', '467', '469', '470', '474', '475', '476', '479', '481', '482', '490', '491', '492', '493', '497', '500', '507', '511', '514', '515', '516', '521', '523', '524', '525', '526', '533', '535', '536', '537', '540', '553', '556', '557', '558', '560', '562', '568', '575', '577', '581', '587', '588', '589', '595', '605', '606', '607', '608', '620', '623', '626', '628', '636', '638', '639', '642', '645', '646', '647', '649', '652', '653', '659', '660', '661', '663', '666', '674', '676', '677', '678', '679', '680', '681', '683', '684', '685', '686', '688', '689', '691', '693', '694', '697', '702', '704', '705', '706', '712', '713', '714', '723', '724', '725', '728', '729', '732', '735', '736', '738', '740', '750', '752', '753', '754', '755', '756', '760', '763', '766', '771', '775', '776', '778', '780', '781', '789', '793', '796', '797', '799', '800', '804', '807', '810', '814', '815', '818', '823', '825', '829', '830', '831', '832', '835', '836', '849', '853', '855', '857', '860', '862', '864', '866', '867', '873', '874', '878', '883', '886', '887', '888', '889', '890', '894', '900', '901', '903', '905', '906', '910', '912', '913', '920', '922', '923', '924', '926', '931', '933', '939', '942', '944', '945', '947', '951', '955', '956', '957', '958', '959', '960', '963', '964', '970', '972', '974', '976', '981', '983', '986', '987', '988', '992', '994', '995', '1003', '1005', '1008', '1009', '1012', '1014', '1015', '1017', '1020', '1021', '1022', '1024', '1025', '1027', '1029', '1036', '1037', '1039', '1041', '1046', '1048', '1050', '1057', '1058', '1060', '1061', '1062', '1064', '1065', '1066', '1068', '1071', '1075', '1085', '1086', '1089', '1094', '1097', '1098', '1114', '1115', '1119', '1122', '1124', '1127', '1130', '1135', '1137', '1141', '1147', '1149', '1157', '1158', '1160', '1161', '1164', '1167', '1168', '1169', '1170', '1172', '1176', '1178', '1180', '1183', '1186', '1187', '1188', '1191', '1196', '1197', '1199', '1202', '1203', '1209', '1216', '1220', '1222', '1225', '1236', '1237', '1239', '1242', '1251', '1254', '1257', '1258', '1260', '1261', '1263', '1265', '1267', '1270', '1271', '1275', '1277', '1280', '1283', '1286', '1287', '1288', '1293', '1295', '1300', '1302', '1303', '1307', '1314', '1316', '1317', '1322', '1323', '1324', '1325', '1326', '1328', '1329', '1330', '1336', '1342', '1343', '1344', '1346', '1349', '1350', '1352', '1357', '1362', '1363', '1370', '1371', '1376', '1379', '1386', '1387', '1388', '1390', '1393', '1396', '1398', '1399', '1402', '1404', '1410', '1411', '1412', '1414', '1415', '1417', '1419', '1422', '1423', '1425', '1426', '1427', '1428', '1436', '1438', '1445', '1450', '1451', '1454', '1459', '1472', '1473', '1476', '1477', '1478', '1482', '1483', '1486', '1488', '1489', '1493', '1496', '1499', '1506', '1508', '1511', '1515', '1516', '1518', '1520', '1522', '1524', '1526', '1527', '1537', '1538', '1539', '1541', '1544', '1547', '1549', '1551', '1554', '1557', '1558', '1561', '1572', '1574', '1581', '1585', '1586', '1592', '1593', '1595', '1602', '1604', '1606', '1608', '1613', '1614', '1615', '1616', '1623', '1625', '1627', '1631', '1632', '1634', '1636', '1637', '1640', '1645', '1646', '1648', '1649', '1650', '1651', '1659', '1660', '1662', '1663', '1667', '1681', '1683', '1686', '1690', '1693', '1695', '1701', '1705', '1709', '1711', '1716', '1717', '1718', '1721', '1722', '1724', '1728', '1729', '1735', '1736', '1737', '1743', '1747', '1748', '1749', '1752', '1753', '1756', '1757', '1763', '1768', '1769', '1773', '1776', '1777', '1780', '1781', '1783', '1787', '1792', '1793', '1797', '1800', '1801', '1802', '1804', '1806', '1809', '1812', '1813', '1816', '1817', '1823', '1827', '1829', '1830', '1831', '1842', '1847', '1848', '1854', '1857', '1858', '1859', '1862', '1863', '1867', '1870', '1874', '1877', '1884', '1886', '1888', '1889', '1890', '1893', '1895', '1896', '1899', '1900', '1901', '1906', '1908', '1913', '1914', '1915', '1916', '1918', '1922', '1927', '1928', '1931', '1935', '1936', '1938', '1940', '1942', '1945', '1946', '1947', '1948', '1950', '1953', '1954', '1958', '1960', '1965', '1967', '1971', '1977', '1980', '1981', '1982', '1983', '1984', '1987', '1992', '2000']",False,8000,True,2,9b8419eea3,0.0,1.0,1.0
./expes/v2_2021-03-23_issda-30_2000-prng-1-w8-p2,30_issda-2000,2000,first-2000,400,20,rng,num-start-800,800,25726,classic,2090.013025045395,True,,True,1.0,1.0,1.0,1,"['6', '8', '10', '19', '24', '31', '32', '35', '36', '39', '49', '59', '63', '64', '70', '75', '85', '89', '98', '113', '115', '116', '121', '122', '124', '127', '132', '135', '138', '141', '145', '151', '152', '161', '162', '168', '174', '190', '202', '204', '205', '206', '222', '223', '237', '239', '240', '249', '256', '264', '267', '288', '292', '295', '301', '302', '311', '319', '321', '322', '324', '325', '328', '331', '337', '341', '347', '349', '351', '353', '355', '368', '383', '401', '402', '421', '423', '428', '436', '438', '451', '458', '462', '463', '469', '470', '474', '475', '476', '479', '482', '490', '491', '500', '507', '511', '515', '516', '523', '524', '533', '537', '540', '558', '560', '562', '575', '587', '589', '606', '620', '626', '636', '638', '639', '642', '645', '646', '652', '653', '660', '663', '666', '677', '678', '679', '681', '683', '686', '688', '689', '691', '693', '694', '697', '704', '706', '712', '713', '725', '728', '729', '732', '738', '753', '755', '756', '763', '771', '778', '789', '793', '796', '799', '800', '804', '807', '810', '818', '823', '829', '830', '831', '836', '857', '860', '862', '867', '883', '886', '889', '900', '905', '906', '910', '912', '913', '920', '922', '923', '924', '926', '931', '933', '939', '942', '945', '947', '951', '955', '956', '957', '958', '959', '960', '970', '972', '976', '981', '983', '986', '992', '1003', '1005', '1008', '1009', '1014', '1021', '1022', '1024', '1025', '1027', '1029', '1036', '1037', '1048', '1050', '1062', '1065', '1066', '1068', '1086', '1094', '1097', '1114', '1115', '1122', '1124', '1127', '1130', '1137', '1141', '1157', '1158', '1161', '1167', '1170', '1172', '1180', '1183', '1186', '1191', '1196', '1197', '1202', '1203', '1216', '1220', '1222', '1239', '1251', '1254', '1257', '1258', '1263', '1265', '1267', '1283', '1288', '1302', '1314', '1323', '1324', '1325', '1329', '1336', '1343', '1349', '1357', '1363', '1370', '1371', '1386', '1387', '1388', '1390', '1396', '1398', '1402', '1404', '1415', '1419', '1422', '1423', '1425', '1427', '1428', '1438', '1445', '1450', '1451', '1454', '1473', '1477', '1478', '1482', '1483', '1486', '1489', '1493', '1508', '1511', '1515', '1518', '1520', '1526', '1537', '1539', '1544', '1547', '1551', '1554', '1557', '1558', '1592', '1593', '1595', '1602', '1604', '1606', '1608', '1615', '1616', '1627', '1631', '1634', '1637', '1640', '1649', '1651', '1659', '1683', '1686', '1690', '1701', '1711', '1716', '1718', '1721', '1722', '1728', '1729', '1735', '1737', '1752', '1753', '1756', '1757', '1763', '1769', '1773', '1781', '1783', '1787', '1792', '1797', '1800', '1802', '1806', '1812', '1816', '1817', '1823', '1827', '1829', '1830', '1831', '1842', '1854', '1858', '1859', '1862', '1867', '1870', '1874', '1877', '1884', '1888', '1890', '1895', '1896', '1900', '1901', '1906', '1915', '1916', '1922', '1935', '1936', '1938', '1940', '1942', '1953', '1965', '1967', '1971', '1977', '1982', '1992', '2000']",False,8000,True,2,374dd7868c,0.0,1.0,1.0
./expes/v2_2021-03-23_issda-30_2000-prng-1-w8-p2,30_issda-2000,2000,first-2000,100,5,rng,num-start-2600,2600,25726,classic,1955.0333950519562,True,,True,1.0,1.0,1.0,1,"['49', '57', '74', '116', '174', '188', '280', '325', '331', '337', '347', '356', '362', '364', '373', '435', '473', '484', '512', '516', '550', '572', '632', '653', '666', '725', '737', '740', '742', '746', '762', '779', '806', '819', '850', '868', '883', '912', '913', '945', '953', '1004', '1021', '1026', '1029', '1043', '1045', '1053', '1056', '1076', '1077', '1087', '1115', '1147', '1148', '1191', '1216', '1241', '1243', '1308', '1342', '1356', '1372', '1382', '1396', '1465', '1481', '1505', '1508', '1513', '1545', '1563', '1618', '1631', '1632', '1646', '1657', '1703', '1712', '1739', '1749', '1760', '1762', '1768', '1784', '1811', '1827', '1831', '1846', '1857', '1860', '1861', '1895', '1909', '1917', '1942', '1945', '1956', '1958', '1970']",False,8000,True,2,aa1b2f6d86,0.0,1.0,1.0
./expes/v2_2021-03-23_issda-30_2000-prng-1-w8-p2,30_issda-2000,2000,first-2000,300,15,rng,num-start-2400,2400,25726,classic,1342.5514118671417,True,,True,1.0,1.0,1.0,1,"['1', '2', '10', '20', '23', '31', '32', '34', '35', '37', '41', '44', '61', '62', '69', '72', '74', '80', '86', '87', '96', '98', '108', '122', '123', '124', '130', '137', '138', '141', '142', '144', '150', '151', '152', '153', '154', '161', '171', '175', '179', '185', '186', '189', '193', '206', '207', '213', '221', '222', '224', '239', '242', '259', '261', '269', '270', '276', '278', '280', '284', '288', '291', '300', '316', '323', '325', '360', '361', '364', '375', '379', '382', '384', '386', '389', '390', '391', '401', '403', '407', '418', '428', '430', '432', '435', '436', '437', '438', '468', '471', '479', '489', '496', '498', '505', '511', '521', '523', '527', '529', '552', '553', '570', '574', '578', '592', '596', '601', '603', '607', '622', '623', '637', '638', '639', '646', '654', '669', '674', '678', '682', '690', '733', '742', '756', '762', '769', '786', '791', '792', '796', '803', '808', '809', '812', '814', '821', '834', '840', '843', '859', '860', '862', '864', '903', '905', '913', '915', '917', '923', '926', '927', '928', '929', '937', '951', '953', '954', '963', '973', '975', '982', '988', '989', '991', '998', '1006', '1024', '1041', '1043', '1049', '1050', '1051', '1064', '1066', '1069', '1083', '1088', '1104', '1129', '1135', '1146', '1147', '1154', '1160', '1172', '1177', '1182', '1194', '1197', '1203', '1209', '1211', '1214', '1220', '1222', '1226', '1229', '1232', '1233', '1237', '1250', '1251', '1258', '1259', '1261', '1262', '1275', '1277', '1285', '1289', '1290', '1300', '1303', '1304', '1312', '1315', '1319', '1332', '1339', '1340', '1342', '1346', '1357', '1383', '1397', '1403', '1407', '1416', '1421', '1436', '1443', '1448', '1450', '1452', '1476', '1486', '1497', '1499', '1501', '1514', '1515', '1516', '1534', '1553', '1570', '1576', '1583', '1594', '1595', '1600', '1625', '1633', '1646', '1647', '1659', '1675', '1687', '1701', '1704', '1705', '1721', '1726', '1734', '1736', '1746', '1750', '1752', '1755', '1771', '1774', '1775', '1802', '1807', '1813', '1824', '1825', '1854', '1861', '1865', '1874', '1879', '1890', '1892', '1893', '1899', '1904', '1909', '1926', '1940', '1946', '1963', '1965', '1972', '1975', '1976', '1989', '1993', '1997']",False,8000,True,2,40f24b1f0c,0.0,1.0,1.0
