expe,clients,clients_size,clients_subset,agg_size,agg_size_pc,method,days,days_size,days_total,noise_method,time,valid,valid_sum,success,score_avg,score_min,score_max,nsols,oracle,wall_hit,wall_time,pooled,pool_size,uuid,infeasible,optimal,valid_sums
./expes/v2_2021-03-19_issda-30_2000-prng-1-w5-p2,30_issda-2000,2000,first-2000,600,30,rng,num-start-2000,2000,25726,classic,2589.0316984653473,True,,True,1.0,1.0,1.0,1,"['7', '10', '14', '25', '28', '30', '35', '41', '46', '47', '53', '57', '63', '66', '67', '68', '69', '70', '72', '76', '77', '80', '82', '90', '93', '101', '105', '118', '119', '125', '129', '130', '132', '134', '136', '141', '144', '147', '154', '164', '165', '168', '169', '170', '171', '172', '173', '175', '177', '179', '183', '184', '186', '190', '192', '195', '196', '199', '200', '205', '210', '217', '218', '219', '221', '222', '223', '224', '228', '229', '233', '234', '239', '240', '248', '250', '255', '259', '261', '262', '272', '277', '279', '281', '282', '285', '286', '288', '289', '292', '294', '304', '305', '308', '315', '317', '322', '325', '328', '330', '335', '341', '347', '348', '349', '350', '353', '355', '357', '359', '362', '364', '365', '379', '384', '389', '392', '394', '396', '398', '401', '402', '405', '408', '411', '414', '421', '426', '429', '431', '433', '446', '447', '451', '456', '459', '462', '465', '470', '473', '475', '477', '480', '481', '483', '497', '500', '501', '504', '507', '508', '512', '522', '523', '530', '535', '542', '545', '546', '547', '551', '555', '562', '568', '579', '583', '586', '589', '590', '592', '593', '594', '595', '597', '598', '601', '605', '606', '607', '608', '612', '614', '615', '618', '619', '633', '639', '642', '643', '654', '655', '656', '658', '664', '667', '670', '691', '692', '694', '698', '699', '701', '703', '705', '710', '711', '713', '720', '729', '731', '732', '733', '734', '738', '739', '741', '742', '746', '748', '750', '751', '754', '756', '757', '758', '759', '761', '762', '764', '768', '769', '772', '773', '776', '777', '780', '781', '786', '787', '792', '795', '798', '800', '801', '807', '808', '812', '814', '821', '825', '826', '834', '835', '836', '840', '844', '850', '854', '856', '860', '868', '872', '873', '876', '880', '883', '884', '886', '890', '893', '895', '899', '901', '902', '903', '905', '912', '914', '916', '919', '920', '928', '929', '931', '933', '935', '938', '941', '942', '948', '966', '970', '972', '975', '977', '981', '991', '994', '999', '1000', '1001', '1003', '1004', '1014', '1018', '1019', '1020', '1021', '1022', '1023', '1024', '1025', '1028', '1029', '1030', '1032', '1033', '1034', '1035', '1038', '1039', '1040', '1045', '1049', '1054', '1058', '1059', '1065', '1066', '1067', '1073', '1076', '1077', '1079', '1080', '1082', '1083', '1084', '1090', '1093', '1095', '1106', '1117', '1121', '1139', '1142', '1146', '1150', '1153', '1155', '1156', '1160', '1161', '1165', '1166', '1174', '1175', '1181', '1185', '1186', '1188', '1190', '1191', '1197', '1199', '1200', '1206', '1222', '1229', '1230', '1231', '1232', '1238', '1239', '1240', '1243', '1244', '1249', '1250', '1253', '1256', '1257', '1265', '1271', '1273', '1278', '1280', '1281', '1288', '1289', '1291', '1295', '1296', '1302', '1310', '1315', '1319', '1323', '1324', '1326', '1327', '1331', '1332', '1333', '1335', '1337', '1339', '1340', '1341', '1342', '1344', '1345', '1346', '1347', '1349', '1354', '1358', '1359', '1368', '1371', '1373', '1379', '1385', '1393', '1402', '1403', '1407', '1410', '1414', '1415', '1416', '1418', '1424', '1432', '1436', '1437', '1438', '1444', '1445', '1451', '1454', '1455', '1466', '1469', '1472', '1474', '1477', '1478', '1485', '1486', '1487', '1491', '1492', '1493', '1502', '1505', '1508', '1509', '1510', '1518', '1519', '1522', '1523', '1524', '1525', '1531', '1534', '1535', '1536', '1543', '1548', '1555', '1556', '1561', '1566', '1570', '1571', '1573', '1597', '1598', '1600', '1602', '1605', '1610', '1611', '1616', '1619', '1620', '1625', '1632', '1648', '1653', '1655', '1656', '1661', '1662', '1666', '1668', '1669', '1673', '1678', '1682', '1685', '1690', '1691', '1696', '1697', '1699', '1700', '1701', '1703', '1707', '1709', '1712', '1713', '1716', '1717', '1719', '1724', '1726', '1728', '1729', '1733', '1735', '1742', '1746', '1752', '1755', '1760', '1762', '1772', '1775', '1779', '1780', '1793', '1797', '1799', '1805', '1807', '1809', '1818', '1820', '1824', '1826', '1830', '1834', '1837', '1838', '1840', '1844', '1847', '1848', '1850', '1851', '1854', '1855', '1857', '1858', '1860', '1862', '1864', '1867', '1870', '1877', '1882', '1883', '1884', '1886', '1890', '1895', '1896', '1900', '1902', '1903', '1908', '1910', '1911', '1918', '1919', '1929', '1935', '1937', '1938', '1939', '1942', '1946', '1961', '1964', '1965', '1971', '1976', '1977', '1978', '1981', '1983', '1987', '1989', '1990', '1993', '1997']",False,5000,True,2,1212bb3dbb,0.0,1.0,1.0
./expes/v2_2021-03-19_issda-30_2000-prng-1-w5-p2,30_issda-2000,2000,first-2000,800,40,rng,num-start-1200,1200,25726,classic,5173.090216398239,True,,False,1.0,1.0,1.0,1,"['4', '7', '9', '10', '11', '18', '19', '22', '24', '33', '36', '37', '40', '41', '44', '49', '50', '51', '52', '57', '58', '61', '64', '65', '66', '69', '70', '73', '74', '75', '77', '84', '89', '94', '95', '96', '101', '102', '105', '110', '111', '116', '117', '121', '123', '124', '126', '127', '130', '133', '135', '137', '139', '146', '149', '150', '151', '152', '155', '157', '158', '159', '164', '165', '167', '170', '173', '174', '177', '180', '183', '186', '188', '189', '191', '192', '193', '194', '195', '197', '204', '205', '206', '208', '209', '214', '216', '218', '222', '228', '230', '232', '236', '238', '239', '243', '250', '252', '261', '262', '263', '264', '270', '272', '274', '275', '277', '278', '280', '283', '287', '288', '290', '292', '295', '297', '301', '307', '309', '310', '311', '315', '320', '321', '322', '323', '325', '326', '329', '331', '333', '337', '341', '343', '347', '348', '350', '353', '354', '355', '356', '358', '359', '361', '362', '364', '370', '372', '373', '377', '380', '382', '385', '389', '392', '393', '394', '407', '409', '414', '419', '420', '426', '427', '431', '432', '435', '436', '438', '442', '443', '444', '446', '449', '452', '455', '461', '462', '465', '467', '468', '473', '475', '476', '477', '478', '481', '484', '485', '488', '492', '494', '495', '502', '505', '506', '508', '510', '511', '512', '513', '514', '515', '516', '519', '520', '521', '523', '524', '526', '527', '529', '531', '532', '537', '541', '545', '547', '550', '551', '557', '560', '562', '569', '571', '572', '575', '579', '583', '586', '588', '594', '596', '598', '604', '607', '608', '620', '622', '623', '627', '631', '632', '634', '635', '639', '640', '641', '642', '645', '648', '649', '653', '657', '658', '665', '666', '669', '672', '674', '675', '678', '679', '684', '686', '689', '690', '691', '693', '699', '700', '701', '702', '705', '707', '712', '718', '719', '725', '730', '733', '735', '736', '737', '738', '739', '740', '742', '743', '746', '747', '750', '751', '753', '762', '763', '764', '765', '766', '768', '775', '777', '779', '782', '784', '785', '788', '790', '791', '799', '800', '801', '802', '803', '804', '805', '806', '809', '810', '819', '820', '822', '823', '825', '826', '828', '829', '830', '833', '838', '842', '844', '845', '850', '854', '857', '859', '860', '861', '867', '868', '872', '876', '881', '883', '889', '890', '894', '899', '903', '904', '906', '907', '909', '911', '912', '913', '918', '919', '925', '928', '929', '930', '931', '932', '936', '937', '938', '941', '943', '945', '949', '952', '953', '954', '955', '956', '957', '958', '961', '964', '968', '969', '971', '973', '977', '979', '983', '988', '989', '991', '992', '994', '995', '996', '997', '998', '1001', '1002', '1004', '1005', '1008', '1016', '1020', '1021', '1023', '1025', '1026', '1029', '1030', '1033', '1034', '1040', '1041', '1042', '1043', '1045', '1046', '1048', '1049', '1052', '1053', '1054', '1055', '1056', '1058', '1061', '1062', '1064', '1067', '1070', '1071', '1072', '1073', '1074', '1075', '1076', '1077', '1078', '1087', '1090', '1092', '1097', '1102', '1103', '1104', '1108', '1109', '1112', '1115', '1116', '1117', '1122', '1124', '1128', '1130', '1142', '1143', '1147', '1148', '1150', '1152', '1156', '1160', '1163', '1166', '1171', '1175', '1177', '1180', '1182', '1189', '1190', '1191', '1198', '1200', '1201', '1205', '1206', '1208', '1211', '1212', '1216', '1218', '1219', '1222', '1224', '1240', '1241', '1242', '1243', '1251', '1253', '1254', '1255', '1257', '1261', '1262', '1263', '1267', '1269', '1273', '1274', '1275', '1277', '1278', '1279', '1281', '1286', '1288', '1295', '1297', '1298', '1301', '1305', '1306', '1307', '1308', '1310', '1313', '1315', '1317', '1324', '1327', '1328', '1330', '1332', '1335', '1338', '1339', '1342', '1349', '1350', '1354', '1356', '1359', '1362', '1366', '1370', '1371', '1372', '1374', '1378', '1382', '1383', '1384', '1386', '1390', '1391', '1393', '1394', '1395', '1396', '1398', '1402', '1403', '1404', '1408', '1413', '1414', '1417', '1419', '1425', '1432', '1433', '1441', '1443', '1445', '1446', '1447', '1449', '1451', '1454', '1456', '1457', '1458', '1460', '1461', '1462', '1463', '1465', '1466', '1467', '1468', '1469', '1472', '1473', '1474', '1475', '1481', '1482', '1483', '1487', '1491', '1492', '1493', '1494', '1497', '1498', '1500', '1505', '1508', '1509', '1513', '1516', '1521', '1525', '1526', '1528', '1532', '1535', '1537', '1538', '1539', '1541', '1544', '1545', '1546', '1547', '1548', '1556', '1557', '1558', '1560', '1563', '1566', '1569', '1570', '1571', '1573', '1574', '1584', '1588', '1592', '1595', '1600', '1604', '1606', '1607', '1613', '1615', '1618', '1622', '1627', '1629', '1630', '1631', '1632', '1635', '1636', '1637', '1639', '1642', '1644', '1646', '1647', '1648', '1651', '1652', '1656', '1657', '1659', '1664', '1666', '1669', '1670', '1671', '1672', '1675', '1677', '1679', '1681', '1687', '1689', '1690', '1691', '1703', '1707', '1708', '1711', '1712', '1713', '1715', '1716', '1718', '1722', '1732', '1734', '1738', '1739', '1741', '1743', '1746', '1749', '1755', '1758', '1760', '1762', '1766', '1767', '1768', '1770', '1774', '1781', '1783', '1784', '1785', '1791', '1792', '1794', '1796', '1798', '1799', '1800', '1804', '1805', '1806', '1807', '1809', '1811', '1812', '1813', '1818', '1819', '1822', '1827', '1831', '1833', '1834', '1840', '1841', '1843', '1845', '1846', '1848', '1850', '1855', '1857', '1859', '1860', '1861', '1867', '1868', '1874', '1875', '1876', '1877', '1880', '1882', '1885', '1886', '1887', '1888', '1889', '1892', '1895', '1897', '1903', '1904', '1909', '1910', '1914', '1916', '1917', '1919', '1920', '1922', '1923', '1926', '1927', '1932', '1933', '1941', '1942', '1943', '1944', '1945', '1946', '1955', '1956', '1958', '1961', '1962', '1964', '1965', '1966', '1968', '1970', '1971', '1973', '1980', '1981', '1983', '1985', '1986', '1988', '1989', '1990', '1992', '1995']",True,5000,True,2,46053a2d8f,0.0,0.0,1.0
./expes/v2_2021-03-19_issda-30_2000-prng-1-w5-p2,30_issda-2000,2000,first-2000,600,30,rng,num-start-200,200,25726,classic,5028.854864358902,False,,False,0,,,0,"['2', '4', '6', '7', '11', '19', '21', '24', '27', '28', '30', '34', '38', '41', '45', '47', '49', '53', '55', '57', '60', '66', '68', '71', '74', '75', '76', '82', '86', '90', '96', '100', '101', '107', '111', '115', '117', '118', '121', '129', '130', '134', '136', '138', '141', '148', '161', '162', '166', '175', '183', '187', '188', '189', '195', '209', '219', '221', '222', '227', '228', '231', '232', '236', '243', '244', '250', '251', '253', '259', '260', '265', '268', '271', '272', '273', '274', '276', '280', '285', '289', '290', '291', '292', '293', '294', '299', '301', '304', '305', '306', '307', '315', '317', '322', '326', '327', '328', '331', '339', '340', '341', '346', '347', '352', '354', '361', '364', '366', '368', '369', '370', '371', '372', '373', '375', '379', '380', '392', '397', '401', '403', '404', '407', '408', '419', '420', '425', '427', '429', '437', '442', '444', '449', '464', '472', '487', '488', '499', '503', '504', '505', '511', '513', '514', '515', '517', '524', '525', '533', '541', '543', '548', '549', '555', '558', '561', '562', '565', '571', '573', '574', '576', '579', '580', '586', '587', '592', '593', '597', '600', '601', '602', '604', '605', '606', '608', '612', '616', '617', '618', '620', '622', '627', '628', '630', '634', '635', '637', '640', '643', '645', '647', '649', '650', '651', '654', '667', '668', '678', '680', '683', '685', '689', '693', '694', '696', '697', '698', '705', '706', '708', '713', '717', '718', '720', '721', '727', '728', '729', '731', '733', '735', '740', '742', '743', '745', '747', '750', '753', '757', '762', '764', '766', '770', '771', '773', '777', '778', '779', '780', '783', '784', '785', '787', '790', '798', '803', '804', '817', '827', '828', '830', '831', '832', '836', '837', '839', '840', '848', '850', '851', '854', '858', '859', '862', '864', '872', '876', '880', '885', '887', '890', '897', '904', '909', '912', '922', '928', '929', '934', '947', '948', '949', '951', '953', '954', '958', '961', '963', '966', '968', '972', '973', '975', '977', '978', '980', '982', '983', '984', '985', '986', '987', '989', '991', '995', '997', '1000', '1003', '1004', '1008', '1009', '1011', '1017', '1020', '1023', '1025', '1030', '1050', '1051', '1056', '1058', '1062', '1070', '1075', '1085', '1086', '1090', '1091', '1093', '1102', '1103', '1105', '1109', '1114', '1117', '1118', '1121', '1123', '1125', '1127', '1133', '1134', '1138', '1146', '1148', '1155', '1156', '1159', '1170', '1176', '1179', '1185', '1190', '1193', '1200', '1201', '1202', '1204', '1208', '1209', '1210', '1217', '1219', '1221', '1230', '1231', '1236', '1237', '1246', '1247', '1251', '1253', '1257', '1259', '1260', '1264', '1265', '1266', '1271', '1274', '1275', '1276', '1278', '1279', '1282', '1284', '1285', '1290', '1292', '1293', '1295', '1305', '1308', '1316', '1320', '1321', '1323', '1326', '1328', '1329', '1330', '1331', '1332', '1334', '1336', '1352', '1353', '1356', '1357', '1360', '1364', '1369', '1374', '1376', '1380', '1389', '1397', '1398', '1404', '1405', '1408', '1410', '1411', '1412', '1415', '1417', '1423', '1424', '1427', '1437', '1439', '1443', '1444', '1446', '1450', '1451', '1460', '1467', '1471', '1472', '1474', '1475', '1476', '1477', '1478', '1480', '1495', '1496', '1498', '1499', '1501', '1512', '1516', '1517', '1518', '1520', '1521', '1523', '1526', '1527', '1533', '1536', '1548', '1553', '1555', '1556', '1558', '1561', '1569', '1577', '1585', '1587', '1589', '1590', '1595', '1596', '1599', '1600', '1601', '1602', '1610', '1614', '1622', '1629', '1633', '1634', '1636', '1642', '1643', '1654', '1663', '1665', '1666', '1673', '1675', '1677', '1679', '1682', '1684', '1689', '1693', '1694', '1697', '1700', '1703', '1711', '1713', '1714', '1718', '1722', '1723', '1724', '1725', '1727', '1729', '1731', '1745', '1746', '1749', '1751', '1753', '1759', '1761', '1769', '1775', '1776', '1777', '1778', '1779', '1782', '1785', '1787', '1795', '1796', '1800', '1804', '1819', '1821', '1826', '1827', '1829', '1830', '1831', '1833', '1837', '1841', '1846', '1848', '1850', '1866', '1868', '1872', '1877', '1878', '1881', '1889', '1892', '1893', '1904', '1916', '1917', '1918', '1920', '1921', '1924', '1928', '1930', '1931', '1932', '1936', '1937', '1945', '1946', '1948', '1950', '1951', '1953', '1955', '1957', '1959', '1960', '1961', '1963', '1966', '1967', '1968', '1969', '1970', '1976', '1977', '1980', '1983', '1984', '1992', '1993', '1998', '1999', '2000']",True,5000,True,2,225867256a,0.0,0.0,0.0
./expes/v2_2021-03-19_issda-30_2000-prng-1-w5-p2,30_issda-2000,2000,first-2000,300,15,rng,num-start-1800,1800,25726,classic,1367.6269929409027,True,,True,1.0,1.0,1.0,1,"['6', '10', '19', '24', '31', '32', '35', '36', '39', '59', '64', '75', '85', '89', '98', '113', '115', '116', '121', '122', '124', '127', '132', '135', '151', '152', '161', '162', '168', '174', '190', '202', '205', '206', '222', '237', '239', '240', '249', '264', '267', '288', '292', '295', '302', '311', '319', '321', '324', '325', '328', '337', '353', '368', '383', '401', '402', '423', '428', '458', '462', '469', '474', '475', '476', '479', '482', '490', '491', '500', '511', '515', '523', '524', '533', '540', '558', '560', '575', '587', '589', '606', '620', '626', '636', '638', '639', '642', '645', '646', '652', '653', '660', '666', '678', '683', '686', '688', '689', '691', '693', '694', '697', '704', '706', '712', '713', '725', '728', '729', '732', '738', '753', '756', '771', '778', '789', '793', '796', '799', '804', '807', '810', '818', '823', '830', '831', '836', '860', '862', '883', '889', '900', '905', '913', '920', '923', '933', '939', '942', '945', '947', '956', '957', '960', '972', '976', '986', '992', '1003', '1005', '1008', '1009', '1014', '1021', '1022', '1024', '1025', '1029', '1036', '1048', '1050', '1062', '1066', '1068', '1086', '1094', '1114', '1115', '1122', '1124', '1127', '1137', '1141', '1157', '1158', '1161', '1167', '1172', '1180', '1183', '1186', '1191', '1202', '1203', '1216', '1220', '1239', '1251', '1257', '1258', '1263', '1265', '1267', '1283', '1288', '1314', '1323', '1325', '1329', '1343', '1357', '1371', '1386', '1390', '1396', '1402', '1404', '1415', '1419', '1422', '1423', '1438', '1445', '1450', '1451', '1473', '1477', '1482', '1483', '1486', '1489', '1493', '1508', '1511', '1518', '1539', '1544', '1547', '1551', '1557', '1592', '1593', '1595', '1602', '1604', '1608', '1615', '1631', '1634', '1637', '1640', '1649', '1659', '1683', '1686', '1690', '1701', '1711', '1716', '1718', '1721', '1722', '1728', '1729', '1735', '1752', '1753', '1756', '1757', '1763', '1769', '1773', '1781', '1783', '1787', '1792', '1802', '1817', '1827', '1829', '1830', '1831', '1854', '1858', '1859', '1862', '1870', '1874', '1884', '1888', '1890', '1895', '1896', '1900', '1901', '1906', '1915', '1916', '1922', '1935', '1936', '1938', '1942', '1965', '1967', '1971', '1977', '1982', '2000']",False,5000,True,2,9bab47c3e1,0.0,1.0,1.0
./expes/v2_2021-03-19_issda-30_2000-prng-1-w5-p2,30_issda-2000,2000,first-2000,900,45,rng,num-start-1400,1400,25726,classic,3931.915118455887,True,,True,1.0,1.0,1.0,1,"['1', '2', '4', '6', '7', '11', '13', '19', '21', '24', '26', '27', '28', '30', '34', '35', '36', '38', '39', '41', '45', '47', '49', '52', '53', '55', '57', '58', '60', '61', '66', '68', '69', '70', '71', '74', '75', '76', '78', '81', '82', '86', '90', '93', '96', '97', '99', '100', '101', '104', '106', '107', '110', '111', '115', '117', '118', '121', '124', '125', '126', '129', '130', '131', '134', '136', '137', '138', '141', '146', '148', '155', '161', '162', '166', '168', '172', '173', '175', '178', '180', '183', '187', '188', '189', '193', '195', '196', '199', '202', '205', '209', '213', '219', '221', '222', '226', '227', '228', '231', '232', '236', '237', '238', '242', '243', '244', '250', '251', '253', '256', '257', '259', '260', '265', '266', '267', '268', '269', '270', '271', '272', '273', '274', '276', '280', '282', '284', '285', '287', '289', '290', '291', '292', '293', '294', '295', '299', '301', '304', '305', '306', '307', '309', '310', '312', '315', '317', '320', '322', '326', '327', '328', '329', '331', '332', '335', '339', '340', '341', '346', '347', '348', '351', '352', '354', '360', '361', '364', '366', '368', '369', '370', '371', '372', '373', '375', '378', '379', '380', '382', '386', '392', '393', '397', '399', '401', '403', '404', '407', '408', '410', '412', '413', '415', '419', '420', '425', '427', '428', '429', '434', '437', '440', '441', '442', '444', '449', '452', '457', '459', '464', '468', '472', '473', '474', '479', '481', '482', '483', '486', '487', '488', '489', '492', '493', '499', '502', '503', '504', '505', '510', '511', '513', '514', '515', '517', '521', '524', '525', '529', '533', '538', '540', '541', '543', '548', '549', '550', '555', '558', '561', '562', '565', '569', '571', '573', '574', '576', '579', '580', '581', '585', '586', '587', '588', '592', '593', '594', '595', '597', '600', '601', '602', '604', '605', '606', '607', '608', '612', '616', '617', '618', '620', '622', '627', '628', '630', '634', '635', '637', '639', '640', '641', '643', '645', '647', '648', '649', '650', '651', '654', '658', '662', '663', '665', '667', '668', '677', '678', '680', '683', '685', '689', '693', '694', '696', '697', '698', '700', '705', '706', '708', '713', '714', '715', '717', '718', '720', '721', '724', '726', '727', '728', '729', '731', '732', '733', '734', '735', '740', '741', '742', '743', '745', '746', '747', '750', '753', '756', '757', '761', '762', '764', '766', '767', '768', '770', '771', '772', '773', '775', '777', '778', '779', '780', '783', '784', '785', '787', '788', '790', '791', '797', '798', '799', '803', '804', '811', '814', '817', '822', '825', '827', '828', '830', '831', '832', '835', '836', '837', '839', '840', '841', '848', '850', '851', '854', '858', '859', '862', '864', '867', '872', '875', '876', '878', '879', '880', '882', '885', '887', '888', '890', '893', '897', '904', '905', '906', '909', '912', '914', '920', '922', '928', '929', '930', '934', '936', '945', '946', '947', '948', '949', '951', '953', '954', '958', '959', '961', '962', '963', '966', '967', '968', '970', '972', '973', '975', '977', '978', '980', '982', '983', '984', '985', '986', '987', '988', '989', '990', '991', '995', '997', '1000', '1003', '1004', '1006', '1007', '1008', '1009', '1011', '1017', '1019', '1020', '1023', '1025', '1030', '1036', '1038', '1042', '1050', '1051', '1056', '1058', '1059', '1060', '1062', '1063', '1070', '1075', '1081', '1085', '1086', '1087', '1089', '1090', '1091', '1093', '1100', '1102', '1103', '1105', '1106', '1109', '1110', '1111', '1114', '1117', '1118', '1121', '1123', '1124', '1125', '1127', '1130', '1131', '1133', '1134', '1136', '1137', '1138', '1139', '1142', '1146', '1148', '1151', '1155', '1156', '1158', '1159', '1165', '1170', '1171', '1174', '1175', '1176', '1178', '1179', '1182', '1185', '1190', '1193', '1197', '1200', '1201', '1202', '1204', '1208', '1209', '1210', '1214', '1217', '1219', '1221', '1222', '1226', '1230', '1231', '1236', '1237', '1241', '1246', '1247', '1251', '1253', '1254', '1257', '1259', '1260', '1264', '1265', '1266', '1269', '1271', '1272', '1274', '1275', '1276', '1278', '1279', '1280', '1281', '1282', '1284', '1285', '1290', '1292', '1293', '1295', '1305', '1308', '1312', '1316', '1320', '1321', '1323', '1326', '1327', '1328', '1329', '1330', '1331', '1332', '1334', '1336', '1339', '1340', '1342', '1343', '1344', '1345', '1352', '1353', '1355', '1356', '1357', '1360', '1363', '1364', '1365', '1368', '1369', '1370', '1374', '1376', '1377', '1380', '1382', '1385', '1389', '1394', '1395', '1396', '1397', '1398', '1399', '1404', '1405', '1408', '1409', '1410', '1411', '1412', '1415', '1417', '1423', '1424', '1425', '1427', '1428', '1429', '1435', '1437', '1439', '1441', '1443', '1444', '1445', '1446', '1448', '1450', '1451', '1453', '1460', '1461', '1464', '1467', '1468', '1471', '1472', '1474', '1475', '1476', '1477', '1478', '1480', '1481', '1485', '1487', '1488', '1489', '1491', '1494', '1495', '1496', '1498', '1499', '1500', '1501', '1509', '1512', '1514', '1516', '1517', '1518', '1520', '1521', '1523', '1526', '1527', '1533', '1536', '1537', '1538', '1541', '1548', '1549', '1553', '1555', '1556', '1558', '1561', '1565', '1567', '1569', '1572', '1574', '1576', '1577', '1582', '1585', '1587', '1589', '1590', '1595', '1596', '1598', '1599', '1600', '1601', '1602', '1609', '1610', '1614', '1620', '1622', '1627', '1628', '1629', '1631', '1632', '1633', '1634', '1636', '1642', '1643', '1645', '1648', '1650', '1654', '1655', '1663', '1664', '1665', '1666', '1668', '1673', '1675', '1677', '1679', '1681', '1682', '1684', '1689', '1693', '1694', '1697', '1700', '1703', '1706', '1707', '1711', '1712', '1713', '1714', '1715', '1718', '1722', '1723', '1724', '1725', '1727', '1729', '1731', '1738', '1739', '1745', '1746', '1749', '1751', '1753', '1755', '1759', '1761', '1769', '1775', '1776', '1777', '1778', '1779', '1780', '1782', '1785', '1787', '1793', '1795', '1796', '1800', '1803', '1804', '1808', '1814', '1819', '1821', '1822', '1823', '1826', '1827', '1829', '1830', '1831', '1833', '1836', '1837', '1841', '1846', '1848', '1850', '1865', '1866', '1867', '1868', '1870', '1872', '1874', '1877', '1878', '1881', '1887', '1888', '1889', '1892', '1893', '1894', '1899', '1904', '1906', '1915', '1916', '1917', '1918', '1920', '1921', '1923', '1924', '1925', '1926', '1927', '1928', '1930', '1931', '1932', '1935', '1936', '1937', '1945', '1946', '1948', '1949', '1950', '1951', '1953', '1955', '1956', '1957', '1959', '1960', '1961', '1963', '1966', '1967', '1968', '1969', '1970', '1973', '1976', '1977', '1980', '1982', '1983', '1984', '1986', '1990', '1992', '1993', '1994', '1998', '1999', '2000']",False,5000,True,2,2f7fe2d516,0.0,1.0,1.0
./expes/v2_2021-03-19_issda-30_2000-prng-1-w5-p2,30_issda-2000,2000,first-2000,100,5,rng,num-start-1000,1000,25726,classic,499.228390455246,True,,True,1.0,1.0,1.0,1,"['27', '32', '59', '64', '74', '88', '132', '135', '200', '268', '275', '279', '309', '311', '327', '393', '445', '475', '476', '480', '488', '529', '532', '552', '617', '690', '719', '749', '758', '791', '794', '799', '809', '814', '835', '863', '875', '894', '911', '961', '964', '969', '971', '976', '1014', '1039', '1072', '1094', '1108', '1115', '1126', '1129', '1176', '1182', '1190', '1197', '1199', '1211', '1214', '1219', '1237', '1241', '1282', '1284', '1301', '1309', '1376', '1377', '1397', '1463', '1469', '1473', '1492', '1519', '1553', '1592', '1596', '1598', '1615', '1641', '1687', '1707', '1714', '1716', '1752', '1764', '1773', '1778', '1800', '1852', '1862', '1876', '1885', '1887', '1897', '1903', '1917', '1961', '1975', '1978']",False,5000,True,2,3f865e6340,0.0,1.0,1.0
./expes/v2_2021-03-19_issda-30_2000-prng-1-w5-p2,30_issda-2000,2000,first-2000,900,45,rng,num-start-200,200,25726,classic,5028.9889550209045,False,,False,0,,,0,"['1', '3', '4', '12', '13', '14', '16', '18', '19', '23', '24', '25', '27', '30', '34', '36', '38', '42', '43', '45', '47', '48', '50', '55', '59', '60', '64', '72', '73', '74', '76', '79', '83', '84', '86', '87', '92', '93', '94', '95', '96', '97', '98', '102', '106', '111', '113', '115', '117', '120', '125', '129', '130', '133', '136', '137', '140', '141', '142', '144', '147', '156', '157', '159', '160', '161', '162', '164', '168', '170', '171', '172', '178', '179', '180', '181', '182', '184', '185', '189', '190', '192', '193', '208', '213', '218', '220', '221', '223', '227', '228', '229', '235', '236', '239', '240', '242', '243', '244', '248', '249', '250', '252', '256', '258', '259', '262', '263', '265', '267', '268', '270', '272', '273', '277', '280', '281', '285', '286', '287', '290', '294', '297', '298', '300', '301', '303', '306', '308', '309', '310', '312', '314', '320', '321', '329', '331', '333', '334', '335', '337', '342', '343', '344', '347', '350', '353', '355', '357', '358', '360', '361', '362', '365', '366', '372', '374', '375', '377', '378', '383', '385', '386', '387', '389', '390', '392', '394', '396', '402', '406', '409', '411', '413', '414', '415', '416', '418', '419', '422', '423', '424', '428', '429', '430', '432', '433', '436', '438', '440', '442', '443', '446', '447', '449', '450', '452', '456', '459', '461', '462', '472', '473', '478', '479', '481', '483', '484', '487', '489', '491', '492', '495', '496', '497', '504', '505', '507', '508', '510', '511', '512', '516', '520', '523', '524', '525', '528', '529', '530', '531', '532', '533', '535', '538', '540', '542', '543', '546', '547', '550', '553', '554', '555', '556', '558', '560', '561', '562', '564', '565', '567', '568', '571', '575', '577', '579', '581', '582', '583', '588', '592', '593', '598', '599', '603', '606', '609', '612', '613', '615', '616', '618', '619', '621', '623', '627', '629', '632', '633', '635', '641', '644', '646', '647', '651', '655', '659', '660', '661', '664', '665', '671', '672', '673', '675', '677', '679', '680', '681', '683', '685', '686', '688', '690', '693', '694', '696', '697', '698', '702', '706', '707', '708', '709', '712', '715', '716', '717', '718', '722', '726', '730', '731', '733', '736', '738', '739', '740', '741', '744', '745', '748', '749', '750', '753', '754', '755', '761', '764', '765', '766', '767', '770', '775', '776', '778', '779', '780', '785', '786', '790', '793', '798', '799', '800', '802', '804', '806', '808', '813', '814', '820', '823', '824', '826', '828', '829', '831', '832', '833', '834', '836', '837', '838', '839', '844', '847', '848', '849', '850', '851', '853', '855', '856', '860', '864', '865', '866', '867', '868', '869', '870', '871', '874', '875', '876', '877', '878', '879', '880', '882', '883', '888', '889', '890', '893', '895', '897', '911', '913', '915', '920', '930', '931', '932', '933', '936', '939', '940', '942', '943', '946', '949', '950', '953', '954', '955', '958', '959', '960', '961', '962', '963', '964', '967', '969', '970', '973', '974', '978', '979', '980', '983', '984', '985', '994', '997', '999', '1003', '1005', '1006', '1007', '1008', '1009', '1010', '1012', '1014', '1016', '1018', '1023', '1026', '1029', '1035', '1038', '1039', '1040', '1043', '1044', '1046', '1047', '1049', '1051', '1052', '1054', '1058', '1062', '1064', '1066', '1067', '1069', '1070', '1073', '1075', '1078', '1079', '1080', '1083', '1085', '1086', '1087', '1091', '1093', '1095', '1102', '1104', '1107', '1109', '1110', '1111', '1114', '1116', '1117', '1118', '1119', '1123', '1124', '1125', '1127', '1129', '1130', '1131', '1132', '1133', '1137', '1140', '1143', '1144', '1145', '1149', '1150', '1152', '1158', '1159', '1164', '1166', '1167', '1170', '1171', '1173', '1174', '1176', '1179', '1183', '1186', '1190', '1192', '1194', '1195', '1196', '1197', '1198', '1203', '1206', '1207', '1208', '1210', '1212', '1216', '1218', '1219', '1224', '1225', '1229', '1230', '1235', '1238', '1242', '1244', '1250', '1251', '1252', '1254', '1255', '1258', '1260', '1261', '1264', '1266', '1267', '1275', '1276', '1277', '1281', '1283', '1287', '1289', '1290', '1291', '1292', '1293', '1295', '1299', '1300', '1304', '1306', '1308', '1309', '1322', '1325', '1326', '1327', '1328', '1329', '1330', '1336', '1339', '1344', '1345', '1346', '1347', '1353', '1354', '1355', '1359', '1361', '1363', '1367', '1370', '1372', '1375', '1376', '1378', '1381', '1383', '1384', '1385', '1386', '1388', '1389', '1390', '1391', '1393', '1395', '1396', '1397', '1400', '1401', '1402', '1406', '1407', '1408', '1412', '1414', '1415', '1417', '1418', '1419', '1421', '1422', '1427', '1431', '1432', '1433', '1436', '1437', '1438', '1440', '1444', '1446', '1447', '1449', '1451', '1452', '1453', '1454', '1458', '1461', '1462', '1464', '1467', '1469', '1471', '1472', '1474', '1477', '1478', '1480', '1482', '1489', '1490', '1496', '1500', '1504', '1505', '1506', '1507', '1508', '1513', '1519', '1522', '1525', '1526', '1527', '1529', '1532', '1533', '1538', '1544', '1545', '1548', '1549', '1550', '1551', '1552', '1553', '1554', '1556', '1557', '1562', '1564', '1567', '1570', '1572', '1573', '1574', '1575', '1578', '1579', '1581', '1584', '1586', '1587', '1589', '1592', '1593', '1594', '1595', '1598', '1599', '1600', '1605', '1606', '1607', '1609', '1613', '1614', '1615', '1618', '1620', '1621', '1622', '1623', '1625', '1626', '1627', '1628', '1629', '1632', '1639', '1642', '1644', '1646', '1650', '1652', '1654', '1656', '1657', '1658', '1660', '1662', '1663', '1664', '1666', '1667', '1668', '1669', '1674', '1676', '1681', '1683', '1684', '1688', '1691', '1692', '1693', '1695', '1697', '1698', '1700', '1703', '1705', '1706', '1708', '1711', '1712', '1713', '1715', '1718', '1719', '1720', '1722', '1724', '1726', '1728', '1729', '1733', '1734', '1736', '1738', '1743', '1746', '1749', '1750', '1751', '1754', '1756', '1758', '1760', '1762', '1766', '1769', '1774', '1777', '1778', '1780', '1783', '1789', '1790', '1791', '1792', '1795', '1801', '1804', '1805', '1806', '1807', '1811', '1813', '1814', '1817', '1818', '1822', '1823', '1825', '1826', '1827', '1829', '1834', '1837', '1841', '1842', '1843', '1844', '1847', '1854', '1857', '1858', '1859', '1865', '1867', '1869', '1871', '1874', '1875', '1876', '1879', '1880', '1887', '1888', '1889', '1891', '1895', '1896', '1899', '1900', '1904', '1905', '1909', '1910', '1912', '1916', '1919', '1921', '1922', '1923', '1925', '1931', '1934', '1935', '1936', '1938', '1939', '1941', '1946', '1947', '1948', '1950', '1951', '1955', '1956', '1959', '1960', '1961', '1962', '1964', '1966', '1968', '1979', '1980', '1981', '1982', '1983', '1985', '1986', '1987', '1993', '1994', '1998', '1999']",True,5000,True,2,7df4a17663,0.0,0.0,0.0
./expes/v2_2021-03-19_issda-30_2000-prng-1-w5-p2,30_issda-2000,2000,first-2000,900,45,rng,num-start-1600,1600,25726,classic,5227.2338235378265,True,,False,1.0,1.0,1.0,1,"['4', '5', '6', '8', '10', '11', '15', '16', '24', '27', '32', '37', '39', '41', '42', '44', '46', '48', '49', '53', '55', '56', '57', '58', '59', '61', '62', '64', '65', '67', '68', '70', '72', '73', '74', '75', '76', '77', '81', '87', '88', '89', '91', '93', '94', '95', '102', '103', '104', '105', '109', '110', '113', '122', '123', '124', '125', '126', '130', '132', '135', '137', '140', '141', '142', '147', '149', '157', '158', '159', '160', '164', '165', '171', '176', '177', '182', '187', '189', '190', '194', '197', '199', '200', '204', '205', '209', '211', '212', '214', '215', '219', '220', '221', '222', '223', '224', '226', '229', '230', '231', '233', '236', '238', '242', '244', '245', '246', '248', '249', '251', '253', '254', '255', '256', '257', '260', '262', '264', '266', '267', '268', '270', '273', '275', '276', '278', '279', '280', '282', '284', '286', '290', '294', '295', '300', '301', '306', '307', '309', '311', '313', '320', '322', '326', '327', '329', '330', '333', '335', '338', '345', '347', '348', '349', '350', '351', '352', '353', '355', '362', '364', '366', '367', '369', '370', '372', '373', '376', '379', '380', '382', '383', '384', '388', '389', '391', '392', '393', '397', '400', '405', '407', '408', '409', '410', '411', '414', '421', '422', '427', '429', '431', '433', '434', '445', '446', '447', '448', '449', '453', '455', '456', '459', '460', '461', '466', '471', '475', '476', '479', '480', '481', '482', '484', '487', '488', '489', '490', '491', '495', '496', '501', '502', '507', '509', '512', '513', '514', '515', '518', '521', '523', '526', '529', '530', '532', '537', '540', '541', '542', '543', '544', '545', '547', '548', '550', '551', '552', '554', '555', '556', '561', '563', '571', '572', '573', '581', '583', '584', '588', '592', '595', '598', '601', '602', '603', '606', '612', '614', '615', '616', '617', '621', '623', '624', '630', '635', '640', '641', '642', '643', '645', '646', '647', '648', '651', '653', '656', '660', '662', '665', '667', '669', '672', '673', '674', '678', '679', '681', '682', '684', '686', '690', '694', '695', '696', '697', '699', '700', '704', '705', '708', '710', '718', '719', '720', '721', '722', '723', '726', '731', '736', '738', '739', '741', '746', '749', '752', '753', '755', '757', '758', '760', '763', '765', '767', '769', '770', '771', '772', '773', '774', '778', '779', '784', '785', '786', '791', '794', '797', '798', '799', '801', '802', '803', '807', '809', '813', '814', '816', '820', '822', '823', '826', '827', '835', '836', '837', '839', '841', '846', '847', '848', '851', '854', '857', '860', '861', '862', '863', '865', '867', '871', '873', '875', '878', '881', '884', '886', '890', '892', '894', '896', '898', '907', '908', '910', '911', '912', '917', '918', '923', '924', '927', '931', '933', '935', '936', '938', '943', '944', '951', '952', '955', '957', '958', '959', '961', '964', '969', '970', '971', '972', '976', '978', '981', '982', '983', '986', '987', '988', '989', '991', '992', '994', '996', '999', '1002', '1003', '1004', '1005', '1008', '1011', '1012', '1014', '1017', '1019', '1020', '1022', '1025', '1029', '1031', '1032', '1034', '1036', '1037', '1039', '1042', '1045', '1048', '1050', '1055', '1056', '1060', '1062', '1063', '1065', '1066', '1068', '1072', '1073', '1076', '1077', '1080', '1081', '1084', '1085', '1086', '1090', '1094', '1095', '1097', '1098', '1099', '1100', '1101', '1102', '1104', '1108', '1109', '1110', '1113', '1114', '1115', '1116', '1124', '1126', '1127', '1129', '1132', '1134', '1135', '1136', '1137', '1138', '1140', '1141', '1145', '1146', '1147', '1155', '1156', '1160', '1161', '1162', '1164', '1165', '1166', '1168', '1170', '1172', '1175', '1176', '1178', '1180', '1182', '1186', '1188', '1189', '1190', '1195', '1197', '1198', '1199', '1200', '1201', '1202', '1204', '1206', '1207', '1208', '1209', '1211', '1213', '1214', '1218', '1219', '1220', '1222', '1224', '1227', '1228', '1229', '1231', '1232', '1237', '1238', '1240', '1241', '1245', '1247', '1251', '1254', '1259', '1262', '1266', '1267', '1269', '1271', '1274', '1275', '1276', '1277', '1281', '1282', '1284', '1285', '1286', '1287', '1288', '1293', '1295', '1297', '1298', '1299', '1300', '1301', '1304', '1309', '1315', '1317', '1319', '1320', '1321', '1323', '1325', '1327', '1328', '1330', '1331', '1332', '1337', '1339', '1340', '1343', '1347', '1351', '1356', '1357', '1358', '1363', '1366', '1368', '1373', '1375', '1376', '1377', '1378', '1380', '1381', '1383', '1384', '1385', '1389', '1390', '1392', '1395', '1396', '1397', '1401', '1405', '1407', '1413', '1415', '1416', '1421', '1422', '1423', '1424', '1425', '1427', '1429', '1430', '1431', '1432', '1433', '1434', '1436', '1437', '1440', '1441', '1444', '1445', '1446', '1448', '1460', '1462', '1463', '1465', '1466', '1467', '1468', '1469', '1470', '1471', '1472', '1473', '1474', '1476', '1477', '1481', '1489', '1490', '1491', '1492', '1493', '1496', '1499', '1503', '1504', '1506', '1512', '1515', '1519', '1520', '1521', '1523', '1527', '1531', '1532', '1533', '1534', '1541', '1543', '1544', '1545', '1546', '1549', '1550', '1551', '1553', '1557', '1560', '1572', '1575', '1578', '1581', '1582', '1586', '1588', '1589', '1591', '1592', '1596', '1597', '1598', '1601', '1602', '1603', '1604', '1612', '1613', '1615', '1620', '1622', '1623', '1626', '1629', '1635', '1636', '1637', '1640', '1641', '1645', '1647', '1651', '1652', '1653', '1654', '1658', '1659', '1660', '1662', '1663', '1665', '1666', '1669', '1671', '1673', '1674', '1679', '1683', '1687', '1696', '1704', '1706', '1707', '1708', '1710', '1713', '1714', '1716', '1718', '1719', '1724', '1726', '1728', '1729', '1732', '1735', '1739', '1741', '1744', '1745', '1746', '1749', '1750', '1752', '1753', '1754', '1755', '1756', '1758', '1759', '1761', '1762', '1763', '1764', '1765', '1767', '1769', '1770', '1772', '1773', '1776', '1778', '1779', '1781', '1782', '1783', '1787', '1788', '1793', '1800', '1802', '1803', '1804', '1805', '1807', '1809', '1810', '1813', '1816', '1817', '1818', '1822', '1823', '1824', '1825', '1826', '1827', '1835', '1837', '1838', '1839', '1842', '1843', '1847', '1851', '1852', '1853', '1856', '1862', '1864', '1866', '1870', '1872', '1876', '1878', '1879', '1885', '1886', '1887', '1888', '1889', '1892', '1893', '1897', '1899', '1900', '1903', '1904', '1905', '1909', '1913', '1914', '1915', '1917', '1918', '1923', '1924', '1927', '1928', '1931', '1932', '1934', '1935', '1936', '1939', '1941', '1944', '1945', '1946', '1947', '1948', '1951', '1953', '1956', '1957', '1961', '1962', '1964', '1965', '1967', '1968', '1969', '1973', '1975', '1976', '1978', '1980', '1981', '1985', '1987', '1989', '1990', '1991', '1993', '1997']",True,5000,True,2,21883489cf,0.0,0.0,1.0
./expes/v2_2021-03-19_issda-30_2000-prng-1-w5-p2,30_issda-2000,2000,first-2000,400,20,rng,num-start-800,800,25726,classic,2820.9349777698517,True,,True,1.0,1.0,1.0,1,"['6', '8', '10', '19', '24', '31', '32', '35', '36', '39', '49', '59', '63', '64', '70', '75', '85', '89', '98', '113', '115', '116', '121', '122', '124', '127', '132', '135', '138', '141', '145', '151', '152', '161', '162', '168', '174', '190', '202', '204', '205', '206', '222', '223', '237', '239', '240', '249', '256', '264', '267', '288', '292', '295', '301', '302', '311', '319', '321', '322', '324', '325', '328', '331', '337', '341', '347', '349', '351', '353', '355', '368', '383', '401', '402', '421', '423', '428', '436', '438', '451', '458', '462', '463', '469', '470', '474', '475', '476', '479', '482', '490', '491', '500', '507', '511', '515', '516', '523', '524', '533', '537', '540', '558', '560', '562', '575', '587', '589', '606', '620', '626', '636', '638', '639', '642', '645', '646', '652', '653', '660', '663', '666', '677', '678', '679', '681', '683', '686', '688', '689', '691', '693', '694', '697', '704', '706', '712', '713', '725', '728', '729', '732', '738', '753', '755', '756', '763', '771', '778', '789', '793', '796', '799', '800', '804', '807', '810', '818', '823', '829', '830', '831', '836', '857', '860', '862', '867', '883', '886', '889', '900', '905', '906', '910', '912', '913', '920', '922', '923', '924', '926', '931', '933', '939', '942', '945', '947', '951', '955', '956', '957', '958', '959', '960', '970', '972', '976', '981', '983', '986', '992', '1003', '1005', '1008', '1009', '1014', '1021', '1022', '1024', '1025', '1027', '1029', '1036', '1037', '1048', '1050', '1062', '1065', '1066', '1068', '1086', '1094', '1097', '1114', '1115', '1122', '1124', '1127', '1130', '1137', '1141', '1157', '1158', '1161', '1167', '1170', '1172', '1180', '1183', '1186', '1191', '1196', '1197', '1202', '1203', '1216', '1220', '1222', '1239', '1251', '1254', '1257', '1258', '1263', '1265', '1267', '1283', '1288', '1302', '1314', '1323', '1324', '1325', '1329', '1336', '1343', '1349', '1357', '1363', '1370', '1371', '1386', '1387', '1388', '1390', '1396', '1398', '1402', '1404', '1415', '1419', '1422', '1423', '1425', '1427', '1428', '1438', '1445', '1450', '1451', '1454', '1473', '1477', '1478', '1482', '1483', '1486', '1489', '1493', '1508', '1511', '1515', '1518', '1520', '1526', '1537', '1539', '1544', '1547', '1551', '1554', '1557', '1558', '1592', '1593', '1595', '1602', '1604', '1606', '1608', '1615', '1616', '1627', '1631', '1634', '1637', '1640', '1649', '1651', '1659', '1683', '1686', '1690', '1701', '1711', '1716', '1718', '1721', '1722', '1728', '1729', '1735', '1737', '1752', '1753', '1756', '1757', '1763', '1769', '1773', '1781', '1783', '1787', '1792', '1797', '1800', '1802', '1806', '1812', '1816', '1817', '1823', '1827', '1829', '1830', '1831', '1842', '1854', '1858', '1859', '1862', '1867', '1870', '1874', '1877', '1884', '1888', '1890', '1895', '1896', '1900', '1901', '1906', '1915', '1916', '1922', '1935', '1936', '1938', '1940', '1942', '1953', '1965', '1967', '1971', '1977', '1982', '1992', '2000']",False,5000,True,2,2ada66af6f,0.0,1.0,1.0
./expes/v2_2021-03-19_issda-30_2000-prng-1-w5-p2,30_issda-2000,2000,first-2000,300,15,rng,num-start-200,200,25726,classic,5026.979213476181,False,,False,0,,,0,"['15', '24', '27', '32', '42', '44', '46', '56', '59', '64', '65', '70', '74', '87', '88', '91', '93', '124', '125', '130', '132', '135', '137', '158', '164', '182', '199', '200', '209', '211', '214', '215', '222', '244', '248', '255', '268', '270', '273', '275', '279', '284', '309', '311', '320', '327', '335', '347', '364', '376', '380', '384', '391', '393', '405', '433', '445', '447', '456', '460', '461', '475', '476', '480', '484', '487', '488', '489', '515', '529', '532', '540', '541', '547', '552', '555', '556', '571', '572', '573', '584', '598', '602', '612', '616', '617', '621', '635', '641', '643', '645', '646', '656', '660', '669', '672', '678', '681', '684', '690', '695', '696', '697', '705', '719', '723', '738', '746', '749', '757', '758', '772', '773', '774', '791', '794', '799', '809', '814', '835', '836', '841', '851', '863', '875', '884', '892', '894', '896', '898', '911', '924', '935', '943', '955', '961', '964', '969', '971', '976', '988', '991', '1003', '1014', '1025', '1036', '1039', '1066', '1068', '1072', '1085', '1094', '1097', '1108', '1110', '1115', '1124', '1126', '1129', '1146', '1165', '1166', '1172', '1175', '1176', '1178', '1182', '1188', '1190', '1197', '1199', '1201', '1207', '1208', '1211', '1214', '1219', '1220', '1229', '1231', '1232', '1237', '1240', '1241', '1247', '1251', '1259', '1262', '1271', '1282', '1284', '1285', '1287', '1295', '1297', '1298', '1300', '1301', '1309', '1319', '1331', '1332', '1339', '1343', '1375', '1376', '1377', '1383', '1385', '1389', '1392', '1395', '1397', '1401', '1413', '1425', '1430', '1431', '1448', '1462', '1463', '1466', '1469', '1472', '1473', '1476', '1492', '1506', '1512', '1519', '1520', '1553', '1560', '1575', '1582', '1592', '1596', '1598', '1612', '1613', '1615', '1640', '1641', '1647', '1653', '1659', '1662', '1666', '1687', '1704', '1707', '1708', '1713', '1714', '1716', '1718', '1729', '1749', '1752', '1753', '1754', '1763', '1764', '1765', '1769', '1773', '1776', '1778', '1782', '1788', '1800', '1805', '1813', '1837', '1838', '1852', '1853', '1862', '1876', '1879', '1885', '1887', '1889', '1897', '1903', '1917', '1918', '1927', '1944', '1956', '1961', '1962', '1964', '1968', '1973', '1975', '1976', '1978', '1990', '1993']",True,5000,True,2,eb860c1bc6,0.0,0.0,0.0
