expe,clients,clients_size,clients_subset,agg_size,agg_size_pc,method,days,days_size,days_total,noise_method,time,valid,valid_sum,success,score_avg,score_min,score_max,nsols,oracle,wall_hit,wall_time,pooled,pool_size,uuid,infeasible,optimal,valid_sums
./expes/v2_2021-03-19_issda-30_2000-prng-1-w5-p2,30_issda-2000,2000,first-2000,600,30,rng,num-start-600,600,25726,classic,5054.264126777649,False,,False,0,,,0,"['4', '7', '9', '10', '11', '18', '22', '24', '33', '36', '37', '40', '41', '44', '49', '50', '51', '52', '57', '61', '64', '65', '66', '69', '73', '74', '75', '77', '84', '89', '94', '101', '105', '110', '111', '116', '117', '121', '123', '124', '135', '137', '139', '146', '150', '151', '152', '155', '157', '164', '165', '167', '170', '173', '174', '177', '180', '188', '192', '193', '194', '197', '205', '206', '208', '209', '216', '218', '228', '230', '232', '236', '238', '243', '250', '252', '262', '264', '270', '277', '280', '283', '287', '288', '290', '295', '297', '301', '310', '311', '315', '320', '321', '322', '323', '325', '329', '331', '333', '337', '341', '347', '348', '350', '353', '354', '356', '361', '362', '364', '370', '372', '373', '377', '385', '392', '393', '394', '407', '409', '420', '426', '427', '431', '432', '435', '436', '442', '444', '446', '449', '455', '461', '462', '465', '468', '473', '475', '477', '481', '484', '494', '502', '506', '508', '510', '511', '512', '514', '516', '519', '520', '521', '523', '524', '526', '527', '531', '532', '537', '541', '545', '547', '550', '551', '560', '562', '571', '572', '579', '583', '586', '588', '594', '596', '604', '607', '608', '622', '627', '632', '634', '635', '639', '641', '648', '653', '665', '666', '672', '674', '675', '678', '686', '691', '699', '700', '705', '707', '712', '718', '719', '725', '730', '733', '735', '737', '738', '740', '742', '743', '746', '750', '751', '762', '763', '764', '765', '768', '779', '782', '784', '785', '788', '790', '791', '799', '800', '801', '803', '805', '806', '809', '810', '819', '823', '825', '826', '828', '829', '830', '833', '838', '842', '845', '850', '854', '857', '859', '860', '867', '868', '872', '876', '883', '889', '890', '899', '904', '911', '912', '913', '918', '919', '925', '929', '930', '932', '936', '937', '941', '943', '945', '949', '952', '953', '955', '956', '957', '958', '964', '968', '969', '979', '983', '988', '989', '992', '994', '995', '996', '997', '998', '1001', '1002', '1004', '1005', '1008', '1020', '1021', '1023', '1026', '1029', '1030', '1033', '1040', '1041', '1043', '1045', '1048', '1049', '1052', '1053', '1054', '1055', '1056', '1058', '1061', '1062', '1064', '1067', '1070', '1072', '1073', '1074', '1076', '1077', '1078', '1087', '1092', '1097', '1108', '1115', '1117', '1122', '1124', '1130', '1142', '1143', '1147', '1148', '1152', '1160', '1163', '1166', '1171', '1175', '1177', '1180', '1189', '1191', '1198', '1200', '1201', '1205', '1206', '1208', '1211', '1212', '1216', '1219', '1222', '1240', '1241', '1242', '1243', '1251', '1254', '1255', '1257', '1261', '1262', '1263', '1267', '1273', '1274', '1277', '1278', '1279', '1281', '1286', '1301', '1306', '1308', '1313', '1315', '1327', '1328', '1332', '1335', '1338', '1342', '1349', '1350', '1354', '1356', '1359', '1366', '1371', '1372', '1374', '1378', '1382', '1383', '1384', '1390', '1391', '1394', '1395', '1396', '1398', '1402', '1403', '1404', '1408', '1414', '1417', '1419', '1425', '1432', '1433', '1441', '1445', '1446', '1447', '1451', '1454', '1456', '1458', '1460', '1461', '1463', '1465', '1466', '1467', '1469', '1473', '1474', '1481', '1482', '1483', '1487', '1491', '1493', '1494', '1497', '1498', '1505', '1508', '1509', '1513', '1516', '1521', '1525', '1526', '1528', '1532', '1537', '1538', '1544', '1545', '1546', '1547', '1548', '1556', '1557', '1558', '1560', '1563', '1566', '1569', '1571', '1584', '1588', '1592', '1600', '1604', '1607', '1613', '1615', '1618', '1622', '1627', '1631', '1632', '1636', '1637', '1639', '1642', '1644', '1646', '1647', '1648', '1651', '1652', '1657', '1659', '1664', '1666', '1669', '1670', '1671', '1672', '1675', '1679', '1681', '1690', '1691', '1703', '1707', '1711', '1712', '1713', '1715', '1718', '1722', '1739', '1741', '1746', '1749', '1760', '1762', '1767', '1768', '1770', '1774', '1784', '1791', '1792', '1794', '1796', '1798', '1804', '1805', '1806', '1807', '1809', '1811', '1812', '1813', '1818', '1822', '1827', '1831', '1833', '1834', '1840', '1843', '1846', '1848', '1850', '1855', '1857', '1859', '1860', '1861', '1867', '1868', '1874', '1876', '1877', '1882', '1885', '1886', '1888', '1889', '1895', '1903', '1909', '1910', '1914', '1916', '1917', '1919', '1922', '1923', '1927', '1932', '1933', '1941', '1942', '1945', '1946', '1955', '1956', '1958', '1961', '1964', '1965', '1966', '1968', '1970', '1971', '1973', '1980', '1985', '1988', '1989', '1992', '1995']",True,5000,True,2,8354539fbb,0.0,0.0,0.0
./expes/v2_2021-03-19_issda-30_2000-prng-1-w5-p2,30_issda-2000,2000,first-2000,300,15,rng,num-start-400,400,25726,classic,5035.469508647919,False,,False,0,,,0,"['15', '24', '27', '32', '42', '44', '46', '56', '59', '64', '65', '70', '74', '87', '88', '91', '93', '124', '125', '130', '132', '135', '137', '158', '164', '182', '199', '200', '209', '211', '214', '215', '222', '244', '248', '255', '268', '270', '273', '275', '279', '284', '309', '311', '320', '327', '335', '347', '364', '376', '380', '384', '391', '393', '405', '433', '445', '447', '456', '460', '461', '475', '476', '480', '484', '487', '488', '489', '515', '529', '532', '540', '541', '547', '552', '555', '556', '571', '572', '573', '584', '598', '602', '612', '616', '617', '621', '635', '641', '643', '645', '646', '656', '660', '669', '672', '678', '681', '684', '690', '695', '696', '697', '705', '719', '723', '738', '746', '749', '757', '758', '772', '773', '774', '791', '794', '799', '809', '814', '835', '836', '841', '851', '863', '875', '884', '892', '894', '896', '898', '911', '924', '935', '943', '955', '961', '964', '969', '971', '976', '988', '991', '1003', '1014', '1025', '1036', '1039', '1066', '1068', '1072', '1085', '1094', '1097', '1108', '1110', '1115', '1124', '1126', '1129', '1146', '1165', '1166', '1172', '1175', '1176', '1178', '1182', '1188', '1190', '1197', '1199', '1201', '1207', '1208', '1211', '1214', '1219', '1220', '1229', '1231', '1232', '1237', '1240', '1241', '1247', '1251', '1259', '1262', '1271', '1282', '1284', '1285', '1287', '1295', '1297', '1298', '1300', '1301', '1309', '1319', '1331', '1332', '1339', '1343', '1375', '1376', '1377', '1383', '1385', '1389', '1392', '1395', '1397', '1401', '1413', '1425', '1430', '1431', '1448', '1462', '1463', '1466', '1469', '1472', '1473', '1476', '1492', '1506', '1512', '1519', '1520', '1553', '1560', '1575', '1582', '1592', '1596', '1598', '1612', '1613', '1615', '1640', '1641', '1647', '1653', '1659', '1662', '1666', '1687', '1704', '1707', '1708', '1713', '1714', '1716', '1718', '1729', '1749', '1752', '1753', '1754', '1763', '1764', '1765', '1769', '1773', '1776', '1778', '1782', '1788', '1800', '1805', '1813', '1837', '1838', '1852', '1853', '1862', '1876', '1879', '1885', '1887', '1889', '1897', '1903', '1917', '1918', '1927', '1944', '1956', '1961', '1962', '1964', '1968', '1973', '1975', '1976', '1978', '1990', '1993']",True,5000,True,2,4760926266,0.0,0.0,0.0
./expes/v2_2021-03-19_issda-30_2000-prng-1-w5-p2,30_issda-2000,2000,first-2000,100,5,rng,num-start-1800,1800,25726,classic,850.8458297252655,True,,True,1.0,1.0,1.0,1,"['2', '10', '31', '35', '61', '62', '74', '86', '122', '130', '137', '144', '171', '175', '186', '193', '221', '222', '291', '323', '379', '382', '389', '390', '401', '430', '438', '471', '479', '496', '521', '570', '592', '596', '603', '622', '646', '669', '792', '812', '821', '834', '903', '915', '926', '927', '928', '937', '951', '954', '975', '1024', '1041', '1049', '1051', '1064', '1083', '1104', '1129', '1147', '1154', '1203', '1211', '1220', '1229', '1258', '1261', '1277', '1290', '1300', '1312', '1332', '1340', '1342', '1357', '1403', '1421', '1450', '1514', '1553', '1570', '1594', '1600', '1625', '1647', '1659', '1704', '1721', '1726', '1734', '1736', '1752', '1755', '1774', '1802', '1824', '1893', '1909', '1963', '1976']",False,5000,True,2,c2f4f9b3f4,0.0,1.0,1.0
./expes/v2_2021-03-19_issda-30_2000-prng-1-w5-p2,30_issda-2000,2000,first-2000,100,5,rng,num-start-2000,2000,25726,classic,829.0719788074493,True,,True,1.0,1.0,1.0,1,"['1', '45', '59', '76', '94', '166', '181', '184', '191', '193', '200', '240', '245', '299', '396', '397', '404', '406', '408', '412', '502', '513', '536', '544', '559', '597', '624', '655', '688', '732', '739', '741', '742', '765', '840', '848', '870', '881', '912', '964', '994', '997', '1002', '1025', '1032', '1055', '1076', '1103', '1105', '1134', '1154', '1176', '1180', '1202', '1206', '1207', '1233', '1250', '1298', '1301', '1321', '1343', '1358', '1390', '1397', '1405', '1430', '1433', '1436', '1493', '1495', '1505', '1548', '1556', '1562', '1578', '1625', '1632', '1639', '1643', '1646', '1649', '1650', '1684', '1696', '1706', '1730', '1787', '1803', '1828', '1849', '1863', '1865', '1870', '1877', '1911', '1949', '1978', '1987', '2000']",False,5000,True,2,a8eb1e6e0a,0.0,1.0,1.0
./expes/v2_2021-03-19_issda-30_2000-prng-1-w5-p2,30_issda-2000,2000,first-2000,400,20,rng,num-start-1000,1000,25726,classic,5093.648452997208,True,,False,1.0,1.0,1.0,1,"['1', '12', '13', '19', '21', '23', '27', '29', '35', '42', '44', '45', '46', '47', '57', '58', '63', '67', '68', '78', '80', '88', '89', '90', '91', '96', '99', '108', '113', '114', '119', '120', '122', '133', '135', '146', '157', '161', '162', '163', '165', '172', '177', '184', '186', '189', '191', '199', '205', '207', '212', '214', '220', '222', '223', '233', '236', '238', '241', '249', '252', '254', '258', '269', '274', '280', '290', '291', '295', '301', '302', '309', '313', '314', '316', '317', '319', '324', '337', '352', '353', '354', '357', '365', '373', '379', '381', '389', '391', '395', '397', '406', '417', '421', '424', '428', '429', '430', '434', '436', '443', '448', '452', '454', '456', '457', '460', '461', '465', '467', '471', '476', '481', '483', '487', '488', '490', '491', '495', '498', '501', '520', '523', '524', '529', '531', '533', '549', '552', '580', '582', '584', '588', '601', '605', '607', '608', '619', '624', '625', '633', '635', '636', '642', '649', '655', '656', '660', '683', '686', '687', '700', '705', '706', '713', '715', '716', '725', '726', '741', '743', '747', '757', '765', '766', '767', '785', '786', '787', '792', '796', '802', '805', '808', '810', '811', '819', '820', '825', '826', '827', '830', '832', '834', '836', '839', '840', '843', '845', '852', '854', '856', '861', '867', '874', '876', '887', '889', '894', '904', '906', '912', '915', '929', '931', '934', '936', '944', '946', '947', '952', '956', '961', '966', '968', '973', '978', '985', '986', '988', '1000', '1004', '1005', '1007', '1013', '1016', '1017', '1022', '1023', '1027', '1030', '1032', '1046', '1047', '1052', '1053', '1058', '1059', '1072', '1077', '1089', '1095', '1097', '1105', '1110', '1133', '1134', '1153', '1162', '1173', '1176', '1186', '1189', '1193', '1208', '1216', '1219', '1227', '1234', '1235', '1237', '1242', '1243', '1252', '1255', '1256', '1260', '1277', '1281', '1282', '1284', '1287', '1293', '1296', '1301', '1308', '1312', '1313', '1317', '1320', '1332', '1335', '1339', '1341', '1343', '1347', '1349', '1351', '1353', '1358', '1365', '1366', '1367', '1369', '1370', '1392', '1395', '1397', '1407', '1411', '1415', '1417', '1421', '1432', '1433', '1441', '1449', '1450', '1457', '1463', '1472', '1477', '1483', '1485', '1487', '1491', '1496', '1500', '1510', '1512', '1521', '1522', '1523', '1533', '1540', '1542', '1547', '1553', '1559', '1564', '1568', '1583', '1584', '1598', '1603', '1604', '1605', '1612', '1614', '1616', '1617', '1619', '1630', '1635', '1647', '1652', '1655', '1664', '1667', '1669', '1674', '1692', '1693', '1694', '1700', '1706', '1721', '1722', '1726', '1727', '1732', '1735', '1736', '1741', '1750', '1763', '1771', '1772', '1795', '1809', '1810', '1814', '1830', '1837', '1843', '1849', '1857', '1875', '1882', '1883', '1884', '1895', '1905', '1908', '1915', '1927', '1933', '1942', '1943', '1949', '1950', '1952', '1953', '1959', '1971', '1981', '1983', '1988', '1995', '1996']",True,5000,True,2,5e338702fc,0.0,0.0,1.0
./expes/v2_2021-03-19_issda-30_2000-prng-1-w5-p2,30_issda-2000,2000,first-2000,500,25,rng,num-start-1600,1600,25726,classic,1398.3239240646362,True,,True,1.0,1.0,1.0,1,"['5', '7', '8', '9', '11', '12', '20', '27', '30', '32', '45', '46', '56', '60', '62', '63', '66', '69', '71', '74', '79', '80', '84', '88', '89', '90', '94', '97', '101', '105', '107', '108', '110', '112', '114', '116', '126', '141', '142', '145', '146', '151', '159', '166', '174', '178', '184', '187', '190', '191', '193', '194', '205', '206', '211', '214', '220', '225', '230', '237', '241', '249', '257', '258', '259', '260', '263', '265', '267', '268', '269', '273', '274', '277', '281', '286', '291', '294', '300', '301', '302', '304', '306', '307', '309', '315', '318', '321', '322', '328', '329', '337', '342', '343', '362', '366', '367', '368', '374', '381', '384', '390', '391', '396', '398', '399', '400', '415', '416', '418', '425', '434', '438', '439', '441', '448', '452', '457', '461', '462', '463', '464', '465', '473', '480', '483', '487', '488', '489', '500', '501', '507', '509', '515', '519', '520', '526', '527', '528', '530', '531', '535', '536', '537', '538', '539', '541', '549', '551', '556', '565', '566', '574', '581', '589', '593', '595', '596', '601', '604', '605', '606', '608', '611', '614', '617', '618', '622', '628', '630', '631', '632', '637', '643', '648', '650', '655', '661', '680', '682', '684', '686', '697', '700', '703', '707', '709', '712', '719', '722', '729', '730', '736', '740', '746', '751', '755', '756', '760', '761', '762', '764', '768', '770', '771', '794', '796', '799', '806', '811', '813', '815', '831', '836', '839', '847', '853', '869', '870', '871', '872', '875', '877', '878', '879', '880', '881', '882', '884', '890', '891', '895', '901', '902', '903', '905', '909', '912', '919', '921', '922', '924', '941', '944', '945', '949', '950', '956', '963', '966', '972', '976', '981', '985', '988', '992', '997', '1006', '1017', '1018', '1020', '1026', '1027', '1033', '1045', '1048', '1059', '1065', '1066', '1068', '1070', '1071', '1074', '1075', '1078', '1079', '1082', '1087', '1089', '1090', '1092', '1093', '1094', '1096', '1098', '1100', '1113', '1117', '1118', '1120', '1121', '1126', '1127', '1136', '1138', '1140', '1147', '1156', '1158', '1168', '1170', '1171', '1174', '1175', '1183', '1185', '1190', '1195', '1199', '1205', '1207', '1210', '1211', '1213', '1218', '1219', '1222', '1224', '1229', '1236', '1241', '1246', '1247', '1250', '1252', '1257', '1265', '1269', '1271', '1275', '1285', '1289', '1292', '1298', '1308', '1309', '1313', '1315', '1318', '1322', '1330', '1332', '1334', '1336', '1338', '1339', '1342', '1346', '1365', '1366', '1367', '1372', '1374', '1381', '1387', '1395', '1396', '1401', '1402', '1404', '1416', '1424', '1430', '1432', '1435', '1436', '1437', '1438', '1442', '1445', '1460', '1463', '1467', '1468', '1472', '1473', '1477', '1481', '1485', '1488', '1489', '1491', '1493', '1500', '1502', '1504', '1506', '1508', '1513', '1515', '1517', '1526', '1527', '1533', '1538', '1547', '1553', '1557', '1561', '1564', '1570', '1583', '1585', '1592', '1608', '1611', '1613', '1626', '1627', '1635', '1636', '1641', '1643', '1645', '1646', '1651', '1653', '1657', '1659', '1664', '1674', '1679', '1682', '1683', '1687', '1688', '1689', '1691', '1693', '1696', '1703', '1707', '1709', '1710', '1713', '1716', '1717', '1720', '1733', '1739', '1740', '1741', '1745', '1749', '1765', '1766', '1769', '1775', '1777', '1778', '1779', '1781', '1785', '1795', '1797', '1813', '1815', '1816', '1817', '1820', '1822', '1823', '1827', '1829', '1833', '1839', '1840', '1845', '1847', '1848', '1851', '1855', '1857', '1858', '1863', '1865', '1866', '1869', '1873', '1881', '1886', '1887', '1897', '1909', '1911', '1916', '1920', '1922', '1931', '1945', '1949', '1951', '1954', '1963', '1965', '1970', '1982', '1987', '1989', '1990']",False,5000,True,2,653676a8b7,0.0,1.0,1.0
./expes/v2_2021-03-19_issda-30_2000-prng-1-w5-p2,30_issda-2000,2000,first-2000,800,40,rng,num-start-1200,1200,25726,classic,3995.109394311905,True,,True,1.0,1.0,1.0,1,"['2', '7', '8', '11', '12', '14', '15', '17', '18', '20', '21', '23', '24', '25', '27', '29', '31', '32', '36', '38', '40', '42', '46', '49', '53', '54', '56', '58', '59', '60', '61', '62', '68', '70', '71', '74', '80', '84', '85', '86', '87', '89', '97', '100', '102', '104', '105', '106', '108', '109', '111', '113', '116', '117', '119', '120', '121', '122', '124', '125', '130', '131', '132', '133', '134', '135', '136', '137', '141', '142', '147', '152', '153', '155', '156', '157', '161', '162', '166', '167', '170', '171', '172', '173', '174', '176', '178', '180', '182', '183', '188', '189', '192', '193', '194', '197', '198', '203', '204', '205', '209', '210', '212', '213', '218', '223', '226', '227', '228', '229', '230', '242', '243', '244', '246', '247', '249', '253', '263', '266', '271', '272', '273', '276', '277', '282', '283', '284', '285', '288', '289', '292', '295', '298', '301', '304', '305', '306', '312', '319', '322', '329', '331', '332', '333', '335', '337', '341', '345', '346', '347', '350', '351', '352', '354', '355', '361', '362', '365', '367', '371', '372', '373', '374', '375', '382', '383', '387', '388', '391', '394', '400', '405', '406', '408', '409', '411', '412', '414', '416', '420', '421', '423', '428', '430', '431', '432', '433', '438', '444', '452', '453', '455', '456', '457', '459', '460', '462', '466', '473', '474', '476', '484', '485', '488', '496', '497', '498', '499', '503', '507', '509', '515', '519', '520', '522', '526', '530', '531', '532', '533', '535', '538', '539', '547', '548', '550', '553', '557', '559', '562', '564', '567', '569', '571', '576', '581', '583', '584', '585', '590', '595', '596', '597', '599', '603', '605', '607', '610', '615', '616', '617', '620', '625', '627', '630', '631', '633', '636', '638', '642', '644', '645', '646', '651', '657', '659', '661', '662', '663', '666', '673', '674', '675', '677', '678', '684', '685', '687', '688', '691', '692', '693', '694', '698', '700', '706', '709', '711', '712', '714', '715', '723', '724', '727', '732', '734', '736', '746', '747', '748', '749', '750', '757', '758', '761', '763', '764', '765', '766', '767', '776', '777', '780', '782', '785', '786', '789', '791', '796', '797', '798', '799', '810', '811', '813', '816', '817', '818', '822', '824', '825', '826', '827', '832', '833', '835', '836', '837', '838', '840', '843', '846', '850', '853', '854', '855', '861', '863', '864', '866', '867', '868', '870', '871', '873', '875', '878', '881', '888', '892', '893', '894', '896', '899', '900', '901', '903', '910', '916', '920', '923', '925', '926', '929', '930', '934', '936', '937', '940', '946', '949', '950', '951', '952', '956', '958', '962', '964', '965', '969', '971', '973', '974', '977', '980', '981', '985', '987', '988', '1004', '1007', '1008', '1013', '1016', '1017', '1018', '1019', '1021', '1026', '1028', '1029', '1030', '1035', '1036', '1037', '1041', '1042', '1044', '1045', '1050', '1053', '1056', '1057', '1059', '1060', '1061', '1063', '1064', '1066', '1070', '1071', '1072', '1073', '1075', '1077', '1079', '1080', '1083', '1084', '1088', '1089', '1091', '1093', '1097', '1100', '1101', '1102', '1106', '1110', '1111', '1113', '1114', '1115', '1118', '1121', '1124', '1132', '1133', '1136', '1137', '1139', '1142', '1146', '1148', '1151', '1154', '1158', '1160', '1162', '1165', '1169', '1173', '1174', '1176', '1177', '1179', '1183', '1185', '1186', '1188', '1190', '1191', '1197', '1198', '1199', '1202', '1204', '1205', '1206', '1209', '1210', '1212', '1215', '1223', '1224', '1228', '1231', '1235', '1238', '1239', '1240', '1242', '1243', '1245', '1246', '1247', '1248', '1251', '1252', '1253', '1255', '1256', '1263', '1264', '1275', '1280', '1281', '1284', '1290', '1295', '1300', '1303', '1305', '1308', '1309', '1312', '1315', '1317', '1320', '1322', '1325', '1327', '1328', '1330', '1334', '1338', '1347', '1349', '1350', '1357', '1358', '1359', '1364', '1367', '1368', '1370', '1371', '1372', '1373', '1375', '1381', '1386', '1387', '1389', '1390', '1391', '1393', '1394', '1395', '1396', '1399', '1400', '1402', '1405', '1409', '1410', '1414', '1415', '1419', '1421', '1423', '1426', '1428', '1433', '1434', '1436', '1439', '1441', '1442', '1445', '1446', '1449', '1452', '1453', '1454', '1455', '1457', '1458', '1466', '1468', '1469', '1474', '1476', '1481', '1483', '1485', '1487', '1489', '1490', '1491', '1492', '1495', '1503', '1508', '1510', '1511', '1513', '1518', '1520', '1523', '1526', '1527', '1528', '1529', '1531', '1532', '1533', '1541', '1542', '1545', '1546', '1551', '1558', '1559', '1560', '1561', '1564', '1565', '1566', '1567', '1572', '1580', '1581', '1582', '1583', '1584', '1585', '1586', '1587', '1589', '1592', '1593', '1594', '1595', '1597', '1598', '1599', '1604', '1606', '1611', '1618', '1625', '1628', '1629', '1631', '1634', '1636', '1637', '1638', '1639', '1645', '1653', '1654', '1656', '1658', '1659', '1669', '1681', '1682', '1684', '1686', '1688', '1703', '1705', '1706', '1708', '1713', '1715', '1719', '1720', '1721', '1724', '1728', '1731', '1732', '1733', '1734', '1738', '1741', '1743', '1744', '1745', '1746', '1749', '1760', '1762', '1763', '1770', '1774', '1775', '1776', '1777', '1779', '1780', '1786', '1791', '1792', '1794', '1796', '1797', '1800', '1801', '1803', '1804', '1806', '1808', '1809', '1810', '1813', '1816', '1817', '1818', '1820', '1821', '1822', '1825', '1828', '1829', '1831', '1834', '1835', '1837', '1838', '1840', '1841', '1847', '1849', '1856', '1857', '1861', '1863', '1867', '1874', '1875', '1880', '1883', '1885', '1887', '1889', '1891', '1893', '1894', '1903', '1907', '1908', '1911', '1918', '1922', '1925', '1927', '1928', '1930', '1932', '1933', '1934', '1936', '1938', '1939', '1940', '1945', '1947', '1948', '1949', '1953', '1954', '1957', '1958', '1960', '1963', '1967', '1968', '1970', '1971', '1972', '1975', '1976', '1980', '1982', '1984', '1985', '1986', '1988', '1991', '1992', '1994', '1995', '1997', '1998', '2000']",False,5000,True,2,f5de4f77b4,0.0,1.0,1.0
./expes/v2_2021-03-19_issda-30_2000-prng-1-w5-p2,30_issda-2000,2000,first-2000,300,15,rng,num-start-1000,1000,25726,classic,2951.82027053833,True,,True,1.0,1.0,1.0,1,"['15', '20', '38', '41', '53', '65', '73', '76', '83', '84', '88', '89', '92', '95', '106', '114', '121', '122', '127', '128', '137', '153', '160', '167', '170', '178', '183', '185', '191', '199', '207', '212', '218', '233', '240', '251', '280', '291', '298', '307', '314', '318', '326', '331', '338', '339', '346', '348', '354', '364', '365', '377', '385', '393', '397', '400', '401', '407', '411', '414', '416', '425', '426', '427', '432', '440', '441', '442', '449', '455', '469', '475', '478', '484', '487', '496', '497', '507', '510', '511', '513', '519', '521', '532', '534', '536', '537', '550', '557', '566', '567', '569', '574', '575', '586', '591', '592', '593', '594', '595', '596', '598', '599', '600', '601', '607', '615', '622', '625', '635', '639', '645', '646', '657', '659', '662', '663', '666', '670', '679', '690', '692', '694', '703', '729', '732', '738', '743', '745', '748', '763', '782', '794', '795', '804', '812', '823', '826', '839', '841', '846', '848', '855', '861', '863', '868', '869', '877', '881', '883', '893', '899', '900', '904', '909', '910', '925', '932', '941', '948', '966', '970', '979', '981', '1005', '1008', '1013', '1017', '1022', '1037', '1042', '1063', '1066', '1077', '1082', '1084', '1095', '1100', '1119', '1122', '1126', '1144', '1158', '1167', '1171', '1173', '1174', '1193', '1194', '1206', '1220', '1227', '1241', '1243', '1261', '1266', '1271', '1283', '1285', '1286', '1296', '1300', '1301', '1313', '1316', '1326', '1328', '1335', '1336', '1338', '1340', '1341', '1346', '1376', '1380', '1383', '1387', '1393', '1405', '1429', '1436', '1444', '1451', '1470', '1478', '1499', '1506', '1510', '1526', '1530', '1568', '1582', '1585', '1588', '1597', '1606', '1620', '1634', '1638', '1640', '1641', '1642', '1648', '1653', '1665', '1669', '1676', '1694', '1698', '1702', '1710', '1720', '1722', '1731', '1737', '1738', '1751', '1759', '1765', '1766', '1773', '1777', '1781', '1782', '1784', '1790', '1803', '1807', '1822', '1825', '1832', '1835', '1843', '1845', '1846', '1853', '1862', '1871', '1878', '1880', '1890', '1894', '1900', '1901', '1905', '1915', '1930', '1932', '1934', '1935', '1956', '1959', '1966', '1968', '1970', '1972', '1976', '1979', '1988', '1989']",False,5000,True,2,aebd597386,0.0,1.0,1.0
./expes/v2_2021-03-19_issda-30_2000-prng-1-w5-p2,30_issda-2000,2000,first-2000,300,15,rng,num-start-2000,2000,25726,classic,1990.7462363243103,True,,True,1.0,1.0,1.0,1,"['6', '9', '11', '16', '31', '52', '66', '67', '68', '71', '73', '76', '90', '91', '92', '95', '104', '129', '133', '134', '148', '156', '164', '166', '183', '190', '197', '198', '203', '217', '223', '232', '238', '239', '245', '273', '275', '279', '285', '286', '290', '294', '307', '312', '315', '321', '325', '329', '334', '338', '340', '341', '357', '358', '361', '366', '374', '392', '394', '399', '400', '401', '423', '426', '428', '430', '459', '460', '483', '487', '489', '491', '492', '495', '497', '503', '505', '512', '531', '537', '538', '545', '547', '557', '563', '569', '581', '585', '593', '607', '617', '620', '621', '632', '644', '655', '662', '665', '672', '673', '680', '703', '712', '715', '716', '717', '728', '740', '743', '747', '750', '767', '769', '782', '788', '795', '800', '821', '822', '830', '837', '846', '849', '851', '861', '862', '863', '867', '868', '869', '874', '879', '888', '891', '892', '893', '894', '899', '901', '904', '905', '913', '916', '917', '918', '923', '930', '934', '936', '939', '940', '946', '948', '950', '963', '978', '981', '984', '989', '994', '1003', '1004', '1007', '1016', '1018', '1024', '1027', '1028', '1065', '1066', '1067', '1069', '1070', '1072', '1076', '1093', '1097', '1099', '1104', '1109', '1116', '1125', '1128', '1138', '1145', '1162', '1171', '1179', '1184', '1194', '1198', '1206', '1212', '1219', '1224', '1232', '1234', '1236', '1243', '1246', '1249', '1257', '1265', '1268', '1285', '1288', '1317', '1329', '1331', '1338', '1339', '1348', '1353', '1356', '1361', '1366', '1373', '1380', '1381', '1383', '1395', '1402', '1405', '1408', '1424', '1430', '1438', '1460', '1471', '1480', '1488', '1508', '1515', '1523', '1524', '1527', '1539', '1571', '1573', '1582', '1583', '1584', '1587', '1589', '1593', '1604', '1612', '1616', '1638', '1654', '1661', '1666', '1673', '1676', '1682', '1687', '1694', '1695', '1698', '1699', '1707', '1725', '1729', '1744', '1752', '1759', '1762', '1766', '1768', '1772', '1781', '1786', '1818', '1821', '1830', '1837', '1839', '1840', '1853', '1863', '1865', '1870', '1871', '1884', '1886', '1890', '1893', '1928', '1932', '1937', '1941', '1951', '1952', '1971', '1974', '1984', '1986', '1987', '1988', '1995']",False,5000,True,2,78069a8a6e,0.0,1.0,1.0
./expes/v2_2021-03-19_issda-30_2000-prng-1-w5-p2,30_issda-2000,2000,first-2000,900,45,rng,num-start-600,600,25726,classic,5054.840255737305,False,,False,0,,,0,"['1', '2', '3', '7', '8', '9', '12', '13', '16', '17', '19', '21', '23', '27', '29', '30', '32', '35', '40', '41', '42', '44', '45', '46', '47', '48', '51', '54', '57', '58', '63', '67', '68', '69', '73', '75', '78', '80', '81', '84', '88', '89', '90', '91', '96', '99', '106', '108', '111', '113', '114', '115', '116', '119', '120', '122', '123', '125', '133', '134', '135', '137', '146', '150', '152', '153', '157', '161', '162', '163', '164', '165', '169', '172', '177', '178', '179', '182', '183', '184', '186', '187', '189', '190', '191', '196', '198', '199', '202', '205', '207', '211', '212', '213', '214', '215', '219', '220', '221', '222', '223', '231', '233', '236', '238', '241', '242', '245', '247', '249', '252', '254', '255', '257', '258', '261', '268', '269', '271', '274', '280', '285', '290', '291', '292', '294', '295', '296', '301', '302', '303', '304', '309', '311', '313', '314', '315', '316', '317', '319', '321', '323', '324', '325', '326', '327', '328', '330', '337', '338', '342', '344', '348', '349', '352', '353', '354', '355', '357', '360', '365', '368', '369', '373', '374', '379', '381', '387', '389', '391', '392', '395', '397', '400', '401', '402', '406', '410', '413', '416', '417', '418', '419', '420', '421', '424', '427', '428', '429', '430', '434', '435', '436', '437', '440', '443', '447', '448', '449', '452', '454', '456', '457', '459', '460', '461', '465', '467', '471', '476', '479', '481', '482', '483', '485', '486', '487', '488', '490', '491', '495', '497', '498', '500', '501', '502', '503', '504', '505', '506', '509', '512', '519', '520', '523', '524', '527', '529', '531', '533', '535', '538', '539', '541', '545', '548', '549', '551', '552', '553', '558', '560', '561', '565', '571', '573', '577', '580', '581', '582', '583', '584', '587', '588', '591', '593', '594', '595', '596', '597', '601', '602', '603', '605', '607', '608', '610', '612', '613', '614', '616', '619', '620', '621', '624', '625', '627', '629', '631', '632', '633', '634', '635', '636', '641', '642', '643', '645', '646', '647', '649', '650', '655', '656', '658', '659', '660', '662', '664', '667', '673', '681', '683', '684', '685', '686', '687', '689', '690', '692', '693', '696', '700', '703', '704', '705', '706', '707', '711', '713', '715', '716', '717', '719', '723', '724', '725', '726', '727', '728', '731', '733', '736', '740', '741', '743', '747', '751', '756', '757', '761', '763', '764', '765', '766', '767', '769', '771', '773', '774', '778', '780', '783', '784', '785', '786', '787', '790', '792', '793', '796', '802', '805', '808', '810', '811', '815', '817', '819', '820', '823', '825', '826', '827', '829', '830', '832', '833', '834', '836', '837', '838', '839', '840', '843', '844', '845', '846', '848', '852', '854', '855', '856', '857', '858', '859', '860', '861', '863', '865', '867', '869', '874', '875', '876', '877', '878', '879', '880', '885', '887', '889', '891', '892', '893', '894', '896', '899', '901', '904', '906', '910', '911', '912', '915', '916', '917', '922', '929', '931', '934', '936', '941', '942', '943', '944', '946', '947', '952', '954', '956', '961', '966', '968', '971', '972', '973', '978', '985', '986', '988', '991', '995', '999', '1000', '1001', '1004', '1005', '1007', '1009', '1012', '1013', '1015', '1016', '1017', '1019', '1020', '1022', '1023', '1027', '1028', '1030', '1032', '1041', '1044', '1045', '1046', '1047', '1049', '1052', '1053', '1058', '1059', '1060', '1062', '1067', '1072', '1073', '1077', '1078', '1081', '1083', '1087', '1089', '1090', '1092', '1095', '1097', '1099', '1101', '1102', '1103', '1105', '1110', '1111', '1112', '1125', '1129', '1132', '1133', '1134', '1142', '1144', '1146', '1149', '1152', '1153', '1157', '1162', '1168', '1169', '1171', '1173', '1176', '1177', '1184', '1186', '1189', '1193', '1202', '1203', '1207', '1208', '1209', '1211', '1213', '1215', '1216', '1217', '1219', '1220', '1222', '1223', '1224', '1225', '1227', '1234', '1235', '1237', '1238', '1242', '1243', '1245', '1248', '1250', '1251', '1252', '1253', '1255', '1256', '1257', '1258', '1260', '1263', '1264', '1267', '1269', '1273', '1277', '1280', '1281', '1282', '1284', '1285', '1287', '1288', '1293', '1295', '1296', '1297', '1301', '1302', '1305', '1307', '1308', '1311', '1312', '1313', '1314', '1317', '1318', '1319', '1320', '1321', '1329', '1332', '1334', '1335', '1337', '1339', '1341', '1342', '1343', '1347', '1349', '1351', '1352', '1353', '1355', '1356', '1357', '1358', '1364', '1365', '1366', '1367', '1369', '1370', '1371', '1374', '1380', '1381', '1391', '1392', '1394', '1395', '1397', '1402', '1407', '1408', '1411', '1413', '1415', '1417', '1421', '1425', '1426', '1429', '1430', '1432', '1433', '1434', '1435', '1441', '1448', '1449', '1450', '1452', '1457', '1460', '1463', '1469', '1472', '1474', '1475', '1477', '1478', '1480', '1483', '1485', '1487', '1491', '1496', '1497', '1499', '1500', '1502', '1506', '1508', '1510', '1511', '1512', '1513', '1516', '1521', '1522', '1523', '1525', '1528', '1533', '1536', '1540', '1542', '1547', '1548', '1551', '1553', '1554', '1556', '1558', '1559', '1562', '1564', '1565', '1566', '1567', '1568', '1574', '1576', '1583', '1584', '1586', '1589', '1595', '1598', '1599', '1600', '1602', '1603', '1604', '1605', '1607', '1609', '1610', '1612', '1614', '1616', '1617', '1618', '1619', '1624', '1628', '1630', '1631', '1635', '1636', '1637', '1638', '1645', '1646', '1647', '1648', '1650', '1651', '1652', '1654', '1655', '1658', '1659', '1660', '1664', '1667', '1669', '1671', '1674', '1677', '1678', '1683', '1686', '1688', '1689', '1692', '1693', '1694', '1696', '1697', '1700', '1704', '1706', '1707', '1709', '1710', '1711', '1712', '1714', '1717', '1721', '1722', '1724', '1725', '1726', '1727', '1729', '1731', '1732', '1735', '1736', '1738', '1741', '1750', '1754', '1763', '1764', '1765', '1770', '1771', '1772', '1773', '1776', '1777', '1778', '1784', '1785', '1786', '1787', '1788', '1789', '1791', '1795', '1801', '1803', '1806', '1809', '1810', '1811', '1812', '1813', '1814', '1820', '1825', '1830', '1831', '1833', '1836', '1837', '1842', '1843', '1847', '1848', '1849', '1852', '1855', '1857', '1865', '1872', '1873', '1874', '1875', '1877', '1879', '1880', '1882', '1883', '1884', '1886', '1888', '1892', '1895', '1896', '1897', '1900', '1901', '1902', '1905', '1908', '1909', '1913', '1915', '1921', '1925', '1927', '1930', '1932', '1933', '1934', '1940', '1941', '1942', '1943', '1947', '1948', '1949', '1950', '1952', '1953', '1954', '1955', '1957', '1959', '1961', '1962', '1965', '1970', '1971', '1973', '1976', '1978', '1979', '1981', '1983', '1984', '1985', '1986', '1987', '1988', '1989', '1991', '1993', '1995', '1996']",True,5000,True,2,a56d03e51b,0.0,0.0,0.0
./expes/v2_2021-03-19_issda-30_2000-prng-1-w5-p2,30_issda-2000,2000,first-2000,100,5,rng,num-start-800,800,25726,classic,1549.22709608078,True,,True,1.0,1.0,1.0,1,"['8', '11', '14', '17', '49', '84', '89', '106', '113', '130', '166', '172', '180', '209', '228', '230', '249', '272', '284', '285', '322', '345', '347', '382', '405', '409', '416', '420', '430', '460', '485', '488', '547', '548', '576', '597', '677', '685', '693', '700', '765', '776', '777', '786', '813', '843', '864', '866', '870', '926', '949', '950', '1008', '1030', '1037', '1136', '1186', '1210', '1223', '1239', '1256', '1263', '1381', '1386', '1410', '1434', '1441', '1452', '1485', '1487', '1492', '1508', '1529', '1566', '1583', '1586', '1618', '1625', '1658', '1733', '1743', '1746', '1775', '1786', '1801', '1816', '1818', '1822', '1828', '1834', '1835', '1840', '1857', '1867', '1883', '1893', '1918', '1938', '1949', '1975']",False,5000,True,2,dd7b89aebf,0.0,1.0,1.0
