expe,clients,clients_size,clients_subset,agg_size,agg_size_pc,method,days,days_size,days_total,noise_method,time,valid,valid_sum,success,score_avg,score_min,score_max,nsols,oracle,wall_hit,wall_time,pooled,pool_size,uuid,infeasible,optimal,valid_sums
./expes/v2_2021-03-19_issda-30_2000-prng-1-w5-p2,30_issda-2000,2000,first-2000,300,15,rng,num-start-1800,1800,25726,classic,2038.6262185573578,True,,True,1.0,1.0,1.0,1,"['4', '5', '12', '19', '26', '30', '35', '37', '43', '45', '46', '49', '53', '58', '59', '60', '61', '63', '67', '71', '73', '90', '115', '130', '143', '145', '171', '178', '188', '193', '205', '210', '222', '223', '225', '234', '242', '248', '265', '276', '300', '327', '329', '336', '343', '345', '346', '349', '355', '363', '371', '379', '381', '386', '389', '409', '410', '421', '429', '430', '444', '449', '452', '455', '462', '465', '469', '471', '473', '476', '478', '498', '512', '520', '523', '530', '546', '551', '552', '559', '576', '582', '594', '595', '604', '608', '622', '632', '639', '651', '660', '679', '682', '704', '705', '706', '708', '709', '724', '731', '747', '752', '759', '768', '778', '781', '786', '792', '799', '806', '807', '814', '828', '829', '847', '849', '853', '863', '865', '873', '874', '885', '887', '897', '899', '913', '921', '924', '928', '932', '939', '941', '942', '962', '968', '971', '984', '986', '994', '1000', '1003', '1015', '1016', '1017', '1023', '1026', '1029', '1034', '1035', '1037', '1040', '1042', '1045', '1050', '1053', '1058', '1063', '1067', '1081', '1103', '1106', '1107', '1109', '1116', '1123', '1124', '1128', '1129', '1133', '1136', '1140', '1150', '1166', '1168', '1184', '1185', '1197', '1204', '1207', '1211', '1215', '1229', '1241', '1245', '1248', '1255', '1260', '1277', '1280', '1289', '1292', '1302', '1316', '1326', '1328', '1331', '1335', '1345', '1351', '1360', '1362', '1373', '1379', '1382', '1387', '1389', '1406', '1424', '1426', '1439', '1440', '1441', '1444', '1457', '1458', '1473', '1478', '1483', '1487', '1494', '1496', '1501', '1512', '1517', '1522', '1524', '1545', '1548', '1559', '1562', '1565', '1572', '1579', '1589', '1593', '1595', '1605', '1611', '1616', '1631', '1633', '1634', '1636', '1643', '1644', '1648', '1658', '1666', '1673', '1674', '1681', '1700', '1705', '1712', '1716', '1721', '1724', '1734', '1736', '1738', '1744', '1748', '1756', '1762', '1764', '1778', '1782', '1805', '1808', '1815', '1830', '1835', '1843', '1847', '1864', '1865', '1877', '1885', '1889', '1898', '1907', '1918', '1922', '1924', '1927', '1928', '1933', '1936', '1946', '1950', '1951', '1956', '1961', '1966', '1978', '1981', '1985', '1994', '1998', '1999']",False,5000,True,2,86e8b819ec,0.0,1.0,1.0
./expes/v2_2021-03-19_issda-30_2000-prng-1-w5-p2,30_issda-2000,2000,first-2000,300,15,rng,num-start-1400,1400,25726,classic,1619.6687717437744,True,,True,1.0,1.0,1.0,1,"['12', '13', '14', '18', '23', '38', '94', '120', '133', '156', '157', '162', '179', '181', '182', '184', '190', '192', '208', '218', '220', '236', '242', '252', '259', '265', '267', '270', '273', '280', '294', '298', '300', '303', '309', '310', '312', '329', '333', '334', '335', '347', '350', '353', '358', '361', '366', '372', '375', '389', '402', '406', '411', '413', '414', '418', '424', '433', '442', '443', '449', '452', '461', '473', '481', '487', '491', '512', '520', '525', '528', '532', '533', '538', '542', '543', '547', '553', '555', '558', '560', '561', '577', '582', '606', '609', '613', '615', '618', '621', '646', '665', '671', '673', '686', '688', '694', '696', '702', '709', '712', '722', '733', '739', '745', '749', '755', '766', '767', '790', '806', '813', '820', '824', '828', '829', '831', '832', '834', '836', '839', '851', '853', '865', '868', '874', '889', '890', '895', '897', '920', '939', '940', '955', '958', '962', '967', '978', '979', '980', '983', '984', '1003', '1007', '1012', '1016', '1026', '1040', '1051', '1052', '1054', '1069', '1070', '1073', '1079', '1086', '1091', '1095', '1102', '1107', '1109', '1114', '1116', '1124', '1131', '1140', '1143', '1144', '1145', '1158', '1164', '1171', '1173', '1174', '1176', '1179', '1186', '1203', '1206', '1216', '1229', '1235', '1244', '1251', '1252', '1261', '1287', '1290', '1293', '1326', '1327', '1328', '1336', '1347', '1355', '1383', '1385', '1388', '1393', '1396', '1401', '1402', '1406', '1412', '1417', '1422', '1431', '1432', '1438', '1444', '1449', '1452', '1453', '1467', '1474', '1480', '1490', '1496', '1505', '1508', '1513', '1519', '1522', '1529', '1549', '1550', '1553', '1554', '1556', '1562', '1574', '1575', '1578', '1581', '1584', '1589', '1594', '1595', '1598', '1605', '1607', '1613', '1620', '1623', '1625', '1627', '1632', '1644', '1652', '1654', '1660', '1662', '1663', '1674', '1676', '1688', '1691', '1695', '1697', '1700', '1706', '1711', '1712', '1713', '1720', '1728', '1729', '1733', '1736', '1749', '1758', '1769', '1774', '1780', '1789', '1792', '1795', '1811', '1817', '1825', '1827', '1841', '1842', '1854', '1865', '1869', '1891', '1896', '1899', '1905', '1910', '1919', '1934', '1938', '1946', '1950', '1962', '1981', '1993', '1999']",False,5000,True,2,fdc8ee7ed7,0.0,1.0,1.0
./expes/v2_2021-03-19_issda-30_2000-prng-1-w5-p2,30_issda-2000,2000,first-2000,400,20,rng,num-start-200,200,25726,classic,5013.834489583969,False,,False,0,,,0,"['12', '13', '14', '18', '23', '27', '30', '36', '38', '43', '47', '60', '94', '115', '120', '125', '133', '136', '137', '156', '157', '162', '171', '179', '181', '182', '184', '190', '192', '208', '218', '220', '236', '242', '252', '259', '265', '267', '270', '273', '280', '281', '287', '294', '298', '300', '303', '309', '310', '312', '329', '333', '334', '335', '342', '344', '347', '350', '353', '358', '361', '362', '366', '372', '375', '386', '389', '390', '402', '406', '411', '413', '414', '418', '424', '433', '438', '442', '443', '449', '452', '461', '472', '473', '481', '484', '487', '491', '497', '505', '512', '520', '525', '528', '532', '533', '538', '542', '543', '547', '550', '553', '555', '558', '560', '561', '564', '565', '575', '577', '582', '588', '599', '606', '609', '613', '615', '618', '621', '632', '644', '646', '665', '671', '673', '686', '688', '694', '696', '702', '709', '712', '718', '722', '733', '739', '745', '748', '749', '755', '766', '767', '780', '790', '806', '813', '814', '820', '824', '826', '828', '829', '831', '832', '834', '836', '839', '844', '850', '851', '853', '865', '868', '870', '874', '889', '890', '895', '897', '915', '920', '930', '931', '933', '939', '940', '955', '958', '962', '967', '973', '978', '979', '980', '983', '984', '1003', '1006', '1007', '1012', '1016', '1023', '1026', '1038', '1039', '1040', '1043', '1049', '1051', '1052', '1054', '1066', '1069', '1070', '1073', '1078', '1079', '1085', '1086', '1091', '1095', '1102', '1104', '1107', '1109', '1114', '1116', '1117', '1124', '1130', '1131', '1140', '1143', '1144', '1145', '1158', '1164', '1166', '1171', '1173', '1174', '1176', '1179', '1183', '1186', '1203', '1206', '1216', '1229', '1235', '1242', '1244', '1251', '1252', '1254', '1255', '1258', '1261', '1267', '1281', '1287', '1290', '1293', '1304', '1309', '1322', '1325', '1326', '1327', '1328', '1336', '1346', '1347', '1354', '1355', '1381', '1383', '1385', '1386', '1388', '1393', '1396', '1401', '1402', '1406', '1412', '1414', '1417', '1422', '1431', '1432', '1438', '1444', '1446', '1449', '1451', '1452', '1453', '1454', '1461', '1462', '1467', '1469', '1474', '1480', '1490', '1496', '1505', '1508', '1513', '1519', '1522', '1526', '1529', '1538', '1549', '1550', '1552', '1553', '1554', '1556', '1562', '1574', '1575', '1578', '1579', '1581', '1584', '1587', '1589', '1594', '1595', '1598', '1605', '1607', '1613', '1620', '1623', '1625', '1626', '1627', '1632', '1639', '1644', '1652', '1654', '1660', '1662', '1663', '1674', '1676', '1688', '1691', '1695', '1697', '1700', '1706', '1708', '1711', '1712', '1713', '1719', '1720', '1728', '1729', '1733', '1736', '1749', '1758', '1760', '1766', '1769', '1774', '1777', '1780', '1783', '1789', '1792', '1795', '1811', '1817', '1818', '1825', '1826', '1827', '1841', '1842', '1854', '1858', '1865', '1869', '1880', '1891', '1895', '1896', '1899', '1905', '1910', '1916', '1919', '1934', '1935', '1938', '1946', '1950', '1962', '1981', '1985', '1993', '1999']",True,5000,True,2,9cb732e2eb,0.0,0.0,0.0
./expes/v2_2021-03-19_issda-30_2000-prng-1-w5-p2,30_issda-2000,2000,first-2000,500,25,rng,num-start-2000,2000,25726,classic,1767.1914830207825,True,,True,1.0,1.0,1.0,1,"['1', '2', '4', '10', '16', '22', '32', '36', '40', '41', '43', '49', '52', '53', '57', '58', '60', '63', '65', '72', '83', '88', '92', '95', '98', '103', '105', '106', '112', '114', '122', '127', '137', '140', '141', '143', '144', '149', '153', '154', '158', '167', '171', '184', '185', '186', '191', '194', '195', '196', '199', '201', '210', '212', '218', '219', '220', '227', '229', '230', '232', '234', '235', '236', '243', '247', '249', '252', '253', '258', '264', '267', '270', '273', '277', '281', '289', '294', '300', '301', '307', '316', '325', '330', '332', '338', '345', '350', '352', '353', '358', '360', '364', '372', '374', '377', '387', '389', '395', '397', '400', '405', '407', '408', '409', '411', '415', '419', '421', '426', '429', '434', '443', '447', '455', '456', '458', '461', '464', '468', '472', '483', '484', '496', '501', '502', '505', '506', '507', '509', '510', '513', '516', '517', '522', '523', '524', '525', '526', '530', '534', '539', '540', '542', '545', '547', '555', '556', '558', '562', '564', '571', '575', '577', '578', '579', '580', '597', '601', '606', '607', '616', '620', '621', '625', '626', '629', '634', '637', '640', '644', '647', '661', '680', '683', '684', '687', '691', '696', '697', '709', '712', '714', '718', '720', '722', '724', '729', '734', '739', '746', '748', '749', '751', '754', '755', '756', '764', '772', '777', '780', '783', '784', '787', '788', '791', '792', '795', '807', '808', '813', '815', '825', '827', '831', '833', '844', '856', '858', '866', '867', '869', '871', '874', '880', '886', '896', '898', '899', '904', '905', '907', '912', '913', '917', '921', '922', '927', '929', '933', '942', '944', '956', '960', '961', '962', '963', '965', '969', '972', '974', '975', '984', '993', '994', '996', '997', '998', '1000', '1002', '1005', '1015', '1020', '1025', '1026', '1038', '1039', '1041', '1049', '1053', '1058', '1065', '1068', '1069', '1073', '1077', '1080', '1082', '1086', '1094', '1095', '1096', '1103', '1109', '1111', '1113', '1116', '1117', '1119', '1124', '1130', '1134', '1138', '1142', '1144', '1147', '1150', '1161', '1166', '1167', '1171', '1182', '1184', '1186', '1195', '1197', '1201', '1206', '1207', '1211', '1216', '1218', '1219', '1220', '1221', '1232', '1234', '1237', '1240', '1245', '1249', '1255', '1261', '1262', '1279', '1281', '1287', '1294', '1296', '1298', '1301', '1304', '1306', '1313', '1315', '1318', '1321', '1322', '1323', '1324', '1325', '1327', '1331', '1335', '1336', '1345', '1346', '1349', '1356', '1360', '1363', '1369', '1374', '1377', '1383', '1386', '1393', '1394', '1395', '1396', '1398', '1402', '1404', '1406', '1407', '1416', '1418', '1439', '1441', '1442', '1444', '1446', '1454', '1466', '1471', '1472', '1478', '1484', '1485', '1486', '1504', '1506', '1514', '1515', '1517', '1519', '1525', '1530', '1540', '1546', '1547', '1551', '1557', '1560', '1564', '1565', '1575', '1577', '1578', '1585', '1587', '1588', '1593', '1602', '1607', '1608', '1613', '1621', '1623', '1626', '1627', '1632', '1634', '1635', '1648', '1652', '1654', '1655', '1656', '1660', '1664', '1668', '1676', '1680', '1682', '1685', '1686', '1687', '1691', '1694', '1696', '1697', '1698', '1711', '1720', '1724', '1739', '1740', '1741', '1748', '1750', '1752', '1756', '1761', '1762', '1765', '1768', '1770', '1771', '1772', '1773', '1776', '1784', '1788', '1791', '1792', '1795', '1810', '1815', '1816', '1835', '1836', '1837', '1840', '1841', '1842', '1845', '1846', '1847', '1848', '1852', '1853', '1861', '1862', '1864', '1875', '1879', '1886', '1888', '1902', '1908', '1910', '1911', '1912', '1913', '1914', '1917', '1918', '1924', '1926', '1930', '1934', '1951', '1959', '1965', '1967', '1983', '1990', '1995', '2000']",False,5000,True,2,8733e7975e,0.0,1.0,1.0
./expes/v2_2021-03-19_issda-30_2000-prng-1-w5-p2,30_issda-2000,2000,first-2000,300,15,rng,num-start-1600,1600,25726,classic,2809.359738111496,True,,True,1.0,1.0,1.0,1,"['15', '24', '27', '32', '42', '44', '46', '56', '59', '64', '65', '70', '74', '87', '88', '91', '93', '124', '125', '130', '132', '135', '137', '158', '164', '182', '199', '200', '209', '211', '214', '215', '222', '244', '248', '255', '268', '270', '273', '275', '279', '284', '309', '311', '320', '327', '335', '347', '364', '376', '380', '384', '391', '393', '405', '433', '445', '447', '456', '460', '461', '475', '476', '480', '484', '487', '488', '489', '515', '529', '532', '540', '541', '547', '552', '555', '556', '571', '572', '573', '584', '598', '602', '612', '616', '617', '621', '635', '641', '643', '645', '646', '656', '660', '669', '672', '678', '681', '684', '690', '695', '696', '697', '705', '719', '723', '738', '746', '749', '757', '758', '772', '773', '774', '791', '794', '799', '809', '814', '835', '836', '841', '851', '863', '875', '884', '892', '894', '896', '898', '911', '924', '935', '943', '955', '961', '964', '969', '971', '976', '988', '991', '1003', '1014', '1025', '1036', '1039', '1066', '1068', '1072', '1085', '1094', '1097', '1108', '1110', '1115', '1124', '1126', '1129', '1146', '1165', '1166', '1172', '1175', '1176', '1178', '1182', '1188', '1190', '1197', '1199', '1201', '1207', '1208', '1211', '1214', '1219', '1220', '1229', '1231', '1232', '1237', '1240', '1241', '1247', '1251', '1259', '1262', '1271', '1282', '1284', '1285', '1287', '1295', '1297', '1298', '1300', '1301', '1309', '1319', '1331', '1332', '1339', '1343', '1375', '1376', '1377', '1383', '1385', '1389', '1392', '1395', '1397', '1401', '1413', '1425', '1430', '1431', '1448', '1462', '1463', '1466', '1469', '1472', '1473', '1476', '1492', '1506', '1512', '1519', '1520', '1553', '1560', '1575', '1582', '1592', '1596', '1598', '1612', '1613', '1615', '1640', '1641', '1647', '1653', '1659', '1662', '1666', '1687', '1704', '1707', '1708', '1713', '1714', '1716', '1718', '1729', '1749', '1752', '1753', '1754', '1763', '1764', '1765', '1769', '1773', '1776', '1778', '1782', '1788', '1800', '1805', '1813', '1837', '1838', '1852', '1853', '1862', '1876', '1879', '1885', '1887', '1889', '1897', '1903', '1917', '1918', '1927', '1944', '1956', '1961', '1962', '1964', '1968', '1973', '1975', '1976', '1978', '1990', '1993']",False,5000,True,2,1cd77fa066,0.0,1.0,1.0
./expes/v2_2021-03-19_issda-30_2000-prng-1-w5-p2,30_issda-2000,2000,first-2000,700,35,rng,num-start-1000,1000,25726,classic,5069.978363037109,True,,False,1.0,1.0,1.0,1,"['1', '7', '10', '12', '14', '23', '25', '28', '29', '30', '35', '41', '45', '46', '47', '53', '57', '58', '63', '66', '67', '68', '69', '70', '71', '72', '75', '76', '77', '80', '82', '90', '91', '93', '101', '103', '105', '114', '118', '119', '125', '129', '130', '132', '134', '136', '141', '144', '147', '153', '154', '164', '165', '168', '169', '170', '171', '172', '173', '175', '177', '179', '182', '183', '184', '186', '190', '192', '195', '196', '197', '199', '200', '205', '210', '217', '218', '219', '221', '222', '223', '224', '228', '229', '230', '233', '234', '237', '239', '240', '248', '250', '255', '259', '261', '262', '263', '272', '277', '279', '281', '282', '285', '286', '288', '289', '292', '294', '299', '300', '302', '303', '304', '305', '308', '315', '317', '320', '322', '325', '328', '330', '331', '335', '341', '347', '348', '349', '350', '353', '355', '356', '357', '359', '362', '364', '365', '379', '384', '388', '389', '392', '394', '396', '398', '401', '402', '405', '408', '411', '414', '415', '417', '421', '426', '427', '429', '431', '433', '434', '438', '446', '447', '451', '456', '459', '462', '465', '470', '473', '475', '477', '480', '481', '483', '490', '497', '500', '501', '504', '507', '508', '512', '519', '520', '522', '523', '530', '535', '539', '542', '545', '546', '547', '551', '555', '562', '567', '568', '579', '583', '584', '586', '589', '590', '592', '593', '594', '595', '597', '598', '601', '605', '606', '607', '608', '612', '614', '615', '618', '619', '620', '631', '633', '634', '637', '638', '639', '642', '643', '644', '645', '646', '649', '654', '655', '656', '658', '664', '667', '670', '674', '691', '692', '694', '698', '699', '701', '703', '705', '709', '710', '711', '713', '720', '729', '731', '732', '733', '734', '738', '739', '741', '742', '746', '748', '750', '751', '754', '756', '757', '758', '759', '761', '762', '764', '768', '769', '772', '773', '776', '777', '780', '781', '786', '787', '792', '795', '798', '800', '801', '807', '808', '812', '813', '814', '821', '825', '826', '832', '834', '835', '836', '840', '844', '849', '850', '854', '856', '860', '864', '868', '871', '872', '873', '876', '880', '883', '884', '886', '890', '891', '893', '894', '895', '899', '901', '902', '903', '905', '908', '912', '914', '916', '919', '920', '928', '929', '931', '933', '935', '938', '941', '942', '948', '963', '966', '970', '972', '975', '977', '981', '987', '991', '994', '999', '1000', '1001', '1003', '1004', '1013', '1014', '1018', '1019', '1020', '1021', '1022', '1023', '1024', '1025', '1028', '1029', '1030', '1032', '1033', '1034', '1035', '1038', '1039', '1040', '1045', '1047', '1049', '1054', '1058', '1059', '1065', '1066', '1067', '1070', '1072', '1073', '1076', '1077', '1079', '1080', '1082', '1083', '1084', '1090', '1093', '1095', '1106', '1117', '1120', '1121', '1123', '1139', '1142', '1146', '1150', '1153', '1155', '1156', '1160', '1161', '1165', '1166', '1174', '1175', '1180', '1181', '1185', '1186', '1188', '1190', '1191', '1197', '1199', '1200', '1206', '1209', '1222', '1224', '1229', '1230', '1231', '1232', '1235', '1238', '1239', '1240', '1243', '1244', '1249', '1250', '1253', '1256', '1257', '1265', '1271', '1273', '1278', '1280', '1281', '1288', '1289', '1291', '1295', '1296', '1302', '1303', '1310', '1312', '1315', '1319', '1323', '1324', '1326', '1327', '1331', '1332', '1333', '1335', '1337', '1339', '1340', '1341', '1342', '1344', '1345', '1346', '1347', '1348', '1349', '1354', '1358', '1359', '1362', '1363', '1366', '1368', '1371', '1373', '1379', '1385', '1393', '1396', '1402', '1403', '1407', '1410', '1414', '1415', '1416', '1418', '1419', '1420', '1422', '1424', '1426', '1432', '1436', '1437', '1438', '1441', '1444', '1445', '1451', '1453', '1454', '1455', '1466', '1469', '1470', '1472', '1474', '1477', '1478', '1485', '1486', '1487', '1491', '1492', '1493', '1502', '1505', '1508', '1509', '1510', '1511', '1518', '1519', '1522', '1523', '1524', '1525', '1531', '1534', '1535', '1536', '1543', '1548', '1549', '1555', '1556', '1561', '1566', '1570', '1571', '1573', '1577', '1581', '1595', '1597', '1598', '1600', '1602', '1605', '1610', '1611', '1612', '1616', '1619', '1620', '1625', '1628', '1632', '1637', '1648', '1653', '1654', '1655', '1656', '1661', '1662', '1665', '1666', '1668', '1669', '1673', '1678', '1682', '1685', '1686', '1690', '1691', '1695', '1696', '1697', '1698', '1699', '1700', '1701', '1703', '1707', '1709', '1712', '1713', '1716', '1717', '1719', '1724', '1726', '1728', '1729', '1733', '1735', '1742', '1746', '1751', '1752', '1755', '1760', '1762', '1772', '1775', '1779', '1780', '1781', '1793', '1797', '1799', '1805', '1806', '1807', '1809', '1818', '1820', '1824', '1826', '1830', '1834', '1837', '1838', '1840', '1844', '1847', '1848', '1850', '1851', '1854', '1855', '1857', '1858', '1860', '1862', '1864', '1867', '1870', '1877', '1882', '1883', '1884', '1886', '1890', '1895', '1896', '1900', '1902', '1903', '1908', '1910', '1911', '1918', '1919', '1929', '1935', '1937', '1938', '1939', '1941', '1942', '1946', '1949', '1959', '1961', '1964', '1965', '1971', '1976', '1977', '1978', '1981', '1983', '1987', '1989', '1990', '1993', '1997']",True,5000,True,2,e9575c0fce,0.0,0.0,1.0
./expes/v2_2021-03-19_issda-30_2000-prng-1-w5-p2,30_issda-2000,2000,first-2000,200,10,rng,num-start-600,600,25726,classic,2354.645082950592,True,,True,1.0,1.0,1.0,1,"['4', '14', '18', '23', '39', '49', '53', '58', '63', '67', '76', '82', '90', '106', '107', '121', '125', '153', '160', '170', '172', '179', '187', '211', '231', '234', '238', '242', '277', '293', '298', '318', '333', '335', '344', '351', '365', '368', '373', '388', '393', '409', '419', '428', '431', '451', '452', '455', '458', '467', '471', '482', '492', '495', '507', '517', '536', '550', '551', '561', '562', '567', '573', '578', '635', '641', '661', '687', '691', '696', '700', '705', '717', '730', '740', '744', '745', '746', '753', '755', '761', '768', '781', '782', '788', '790', '796', '821', '829', '858', '867', '868', '875', '881', '888', '902', '909', '934', '941', '943', '952', '962', '972', '976', '977', '986', '989', '1021', '1025', '1027', '1032', '1039', '1043', '1048', '1052', '1053', '1063', '1080', '1084', '1105', '1109', '1120', '1125', '1127', '1137', '1144', '1174', '1181', '1221', '1232', '1234', '1243', '1244', '1245', '1248', '1268', '1273', '1279', '1305', '1310', '1313', '1318', '1347', '1354', '1355', '1356', '1360', '1365', '1369', '1370', '1380', '1384', '1396', '1407', '1414', '1415', '1426', '1428', '1487', '1488', '1533', '1543', '1567', '1570', '1579', '1581', '1606', '1613', '1629', '1635', '1642', '1660', '1671', '1677', '1678', '1679', '1685', '1704', '1726', '1753', '1760', '1771', '1774', '1807', '1814', '1856', '1868', '1874', '1875', '1882', '1893', '1900', '1928', '1939', '1941', '1958', '1964', '1982', '1990', '2000']",False,5000,True,2,4a6321f147,0.0,1.0,1.0
./expes/v2_2021-03-19_issda-30_2000-prng-1-w5-p2,30_issda-2000,2000,first-2000,800,40,rng,num-start-2000,2000,25726,classic,2457.987714290619,True,,True,1.0,1.0,1.0,1,"['1', '2', '4', '6', '8', '10', '16', '21', '22', '25', '29', '30', '31', '32', '34', '36', '37', '38', '40', '41', '43', '47', '49', '52', '53', '57', '58', '59', '60', '63', '65', '71', '72', '80', '81', '82', '83', '85', '86', '88', '92', '95', '98', '102', '103', '105', '106', '107', '108', '112', '113', '114', '122', '123', '127', '128', '131', '132', '133', '137', '140', '141', '143', '144', '149', '153', '154', '158', '159', '166', '167', '171', '175', '184', '185', '186', '191', '192', '194', '195', '196', '199', '201', '203', '210', '211', '212', '214', '218', '219', '220', '227', '229', '230', '231', '232', '234', '235', '236', '243', '244', '245', '247', '249', '250', '252', '253', '255', '258', '260', '262', '264', '267', '270', '273', '274', '277', '281', '284', '289', '294', '300', '301', '305', '307', '310', '314', '316', '325', '329', '330', '331', '332', '338', '339', '345', '349', '350', '352', '353', '358', '360', '363', '364', '366', '370', '371', '372', '374', '377', '379', '380', '381', '387', '388', '389', '394', '395', '397', '400', '403', '405', '407', '408', '409', '410', '411', '415', '416', '419', '420', '421', '422', '425', '426', '429', '431', '434', '438', '443', '444', '447', '451', '455', '456', '458', '461', '463', '464', '468', '469', '471', '472', '473', '477', '480', '483', '484', '485', '494', '495', '496', '498', '500', '501', '502', '505', '506', '507', '509', '510', '512', '513', '515', '516', '517', '519', '522', '523', '524', '525', '526', '530', '533', '534', '539', '540', '542', '544', '545', '547', '555', '556', '558', '559', '560', '561', '562', '564', '565', '571', '575', '576', '577', '578', '579', '580', '581', '582', '588', '594', '596', '597', '601', '606', '607', '608', '616', '617', '620', '621', '625', '626', '628', '629', '634', '636', '637', '640', '644', '647', '648', '650', '652', '654', '660', '661', '662', '663', '666', '667', '672', '675', '677', '680', '683', '684', '685', '686', '687', '688', '691', '694', '696', '697', '703', '704', '709', '712', '714', '718', '720', '722', '724', '726', '729', '731', '734', '738', '739', '740', '745', '746', '748', '749', '751', '754', '755', '756', '764', '771', '772', '777', '780', '783', '784', '787', '788', '789', '791', '792', '793', '794', '795', '798', '805', '807', '808', '813', '815', '818', '825', '827', '831', '832', '833', '837', '844', '845', '850', '856', '858', '859', '862', '863', '864', '866', '867', '869', '871', '873', '874', '879', '880', '884', '886', '893', '896', '898', '899', '904', '905', '907', '910', '912', '913', '917', '921', '922', '925', '927', '929', '931', '932', '933', '942', '944', '956', '958', '960', '961', '962', '963', '965', '969', '970', '972', '973', '974', '975', '977', '979', '984', '986', '987', '992', '993', '994', '996', '997', '998', '1000', '1002', '1005', '1012', '1014', '1015', '1020', '1022', '1025', '1026', '1029', '1034', '1035', '1038', '1039', '1041', '1044', '1046', '1048', '1049', '1053', '1058', '1065', '1066', '1068', '1069', '1073', '1077', '1078', '1080', '1082', '1086', '1090', '1092', '1094', '1095', '1096', '1098', '1101', '1103', '1107', '1109', '1110', '1111', '1113', '1115', '1116', '1117', '1119', '1120', '1122', '1124', '1126', '1130', '1134', '1138', '1140', '1142', '1143', '1144', '1146', '1147', '1150', '1161', '1163', '1166', '1167', '1168', '1169', '1171', '1182', '1184', '1186', '1192', '1195', '1197', '1201', '1205', '1206', '1207', '1211', '1216', '1218', '1219', '1220', '1221', '1222', '1232', '1234', '1237', '1240', '1244', '1245', '1249', '1253', '1255', '1261', '1262', '1267', '1270', '1272', '1279', '1281', '1283', '1285', '1287', '1294', '1296', '1298', '1301', '1304', '1306', '1310', '1311', '1313', '1315', '1318', '1321', '1322', '1323', '1324', '1325', '1327', '1329', '1330', '1331', '1335', '1336', '1339', '1343', '1344', '1345', '1346', '1348', '1349', '1351', '1352', '1356', '1359', '1360', '1363', '1365', '1369', '1374', '1377', '1379', '1380', '1383', '1386', '1388', '1393', '1394', '1395', '1396', '1398', '1402', '1404', '1406', '1407', '1416', '1417', '1418', '1427', '1437', '1439', '1440', '1441', '1442', '1444', '1446', '1454', '1456', '1457', '1460', '1463', '1464', '1466', '1471', '1472', '1478', '1484', '1485', '1486', '1487', '1488', '1489', '1496', '1497', '1504', '1506', '1514', '1515', '1516', '1517', '1519', '1525', '1527', '1529', '1530', '1532', '1533', '1539', '1540', '1541', '1546', '1547', '1551', '1552', '1555', '1557', '1559', '1560', '1564', '1565', '1567', '1571', '1575', '1577', '1578', '1580', '1584', '1585', '1587', '1588', '1590', '1593', '1597', '1602', '1603', '1606', '1607', '1608', '1610', '1613', '1615', '1621', '1623', '1624', '1626', '1627', '1632', '1634', '1635', '1641', '1646', '1648', '1650', '1651', '1652', '1654', '1655', '1656', '1658', '1660', '1664', '1668', '1670', '1673', '1676', '1678', '1680', '1682', '1685', '1686', '1687', '1688', '1691', '1694', '1696', '1697', '1698', '1701', '1702', '1703', '1704', '1710', '1711', '1714', '1720', '1724', '1732', '1735', '1737', '1739', '1740', '1741', '1745', '1747', '1748', '1750', '1752', '1756', '1761', '1762', '1765', '1768', '1770', '1771', '1772', '1773', '1776', '1779', '1784', '1785', '1786', '1788', '1791', '1792', '1795', '1800', '1802', '1803', '1807', '1810', '1814', '1815', '1816', '1819', '1820', '1821', '1835', '1836', '1837', '1840', '1841', '1842', '1845', '1846', '1847', '1848', '1852', '1853', '1861', '1862', '1864', '1865', '1875', '1877', '1879', '1886', '1888', '1889', '1891', '1895', '1896', '1901', '1902', '1903', '1906', '1908', '1910', '1911', '1912', '1913', '1914', '1917', '1918', '1920', '1921', '1924', '1926', '1930', '1932', '1934', '1935', '1937', '1938', '1946', '1948', '1950', '1951', '1955', '1959', '1964', '1965', '1967', '1968', '1972', '1974', '1977', '1980', '1983', '1984', '1990', '1991', '1992', '1993', '1995', '2000']",False,5000,True,2,c831b89527,0.0,1.0,1.0
./expes/v2_2021-03-19_issda-30_2000-prng-1-w5-p2,30_issda-2000,2000,first-2000,800,40,rng,num-start-1800,1800,25726,classic,1968.9027814865112,True,,True,1.0,1.0,1.0,1,"['12', '13', '14', '18', '19', '23', '27', '30', '34', '36', '38', '42', '43', '45', '47', '48', '55', '59', '60', '64', '73', '74', '76', '84', '86', '87', '92', '93', '94', '95', '97', '98', '102', '106', '113', '115', '117', '120', '125', '129', '130', '133', '136', '137', '141', '142', '144', '147', '156', '157', '159', '161', '162', '164', '168', '171', '172', '178', '179', '180', '181', '182', '184', '185', '190', '192', '193', '208', '218', '220', '221', '223', '227', '229', '235', '236', '239', '242', '244', '250', '252', '256', '258', '259', '262', '263', '265', '267', '270', '272', '273', '277', '280', '281', '285', '286', '287', '294', '297', '298', '300', '301', '303', '306', '308', '309', '310', '312', '314', '320', '321', '329', '331', '333', '334', '335', '337', '342', '343', '344', '347', '350', '353', '357', '358', '360', '361', '362', '365', '366', '372', '374', '375', '377', '378', '385', '386', '387', '389', '390', '392', '396', '402', '406', '409', '411', '413', '414', '415', '418', '419', '422', '423', '424', '428', '429', '430', '432', '433', '436', '438', '440', '442', '443', '446', '449', '450', '452', '456', '459', '461', '462', '472', '473', '478', '479', '481', '483', '484', '487', '489', '491', '492', '495', '497', '504', '505', '507', '510', '511', '512', '516', '520', '524', '525', '528', '529', '530', '531', '532', '533', '535', '538', '540', '542', '543', '547', '550', '553', '554', '555', '556', '558', '560', '561', '562', '564', '565', '567', '571', '575', '577', '579', '582', '583', '588', '592', '593', '598', '599', '603', '606', '609', '612', '613', '615', '616', '618', '619', '621', '623', '627', '629', '632', '633', '635', '641', '644', '646', '647', '651', '655', '659', '660', '661', '664', '665', '671', '672', '673', '675', '679', '680', '681', '683', '685', '686', '688', '690', '693', '694', '696', '697', '698', '702', '706', '707', '708', '709', '712', '716', '717', '718', '722', '726', '730', '731', '733', '736', '738', '739', '740', '741', '744', '745', '748', '749', '750', '753', '754', '755', '764', '766', '767', '770', '775', '776', '778', '780', '786', '790', '793', '798', '799', '800', '802', '804', '806', '808', '813', '814', '820', '824', '826', '828', '829', '831', '832', '833', '834', '836', '837', '838', '839', '844', '848', '849', '850', '851', '853', '855', '856', '860', '864', '865', '866', '867', '868', '870', '874', '875', '876', '877', '878', '882', '883', '888', '889', '890', '893', '895', '897', '911', '913', '915', '920', '930', '931', '932', '933', '936', '939', '940', '942', '949', '950', '953', '954', '955', '958', '959', '962', '963', '964', '967', '969', '970', '973', '978', '979', '980', '983', '984', '985', '994', '997', '999', '1003', '1005', '1006', '1007', '1008', '1010', '1012', '1014', '1016', '1018', '1023', '1026', '1029', '1035', '1038', '1039', '1040', '1043', '1046', '1047', '1049', '1051', '1052', '1054', '1058', '1062', '1064', '1066', '1067', '1069', '1070', '1073', '1075', '1078', '1079', '1083', '1085', '1086', '1087', '1091', '1095', '1102', '1104', '1107', '1109', '1111', '1114', '1116', '1117', '1119', '1124', '1125', '1127', '1129', '1130', '1131', '1133', '1137', '1140', '1143', '1144', '1145', '1149', '1152', '1158', '1159', '1164', '1166', '1167', '1170', '1171', '1173', '1174', '1176', '1179', '1183', '1186', '1192', '1194', '1195', '1198', '1203', '1206', '1207', '1208', '1210', '1216', '1218', '1224', '1225', '1229', '1230', '1235', '1238', '1242', '1244', '1250', '1251', '1252', '1254', '1255', '1258', '1260', '1261', '1264', '1266', '1267', '1275', '1277', '1281', '1283', '1287', '1289', '1290', '1291', '1292', '1293', '1300', '1304', '1306', '1308', '1309', '1322', '1325', '1326', '1327', '1328', '1330', '1336', '1339', '1344', '1345', '1346', '1347', '1353', '1354', '1355', '1359', '1367', '1370', '1372', '1375', '1376', '1378', '1381', '1383', '1384', '1385', '1386', '1388', '1389', '1390', '1391', '1393', '1395', '1396', '1400', '1401', '1402', '1406', '1407', '1408', '1412', '1414', '1415', '1417', '1419', '1421', '1422', '1427', '1431', '1432', '1433', '1436', '1438', '1440', '1444', '1446', '1447', '1449', '1451', '1452', '1453', '1454', '1458', '1461', '1462', '1464', '1467', '1469', '1471', '1472', '1474', '1478', '1480', '1482', '1489', '1490', '1496', '1505', '1506', '1507', '1508', '1513', '1519', '1522', '1525', '1526', '1527', '1529', '1533', '1538', '1544', '1545', '1548', '1549', '1550', '1551', '1552', '1553', '1554', '1556', '1557', '1562', '1572', '1573', '1574', '1575', '1578', '1579', '1581', '1584', '1587', '1589', '1592', '1593', '1594', '1595', '1598', '1599', '1600', '1605', '1606', '1607', '1609', '1613', '1615', '1618', '1620', '1621', '1622', '1623', '1625', '1626', '1627', '1628', '1629', '1632', '1639', '1642', '1644', '1646', '1652', '1654', '1657', '1660', '1662', '1663', '1664', '1666', '1668', '1669', '1674', '1676', '1681', '1683', '1688', '1691', '1692', '1693', '1695', '1697', '1700', '1703', '1705', '1706', '1708', '1711', '1712', '1713', '1715', '1719', '1720', '1722', '1724', '1726', '1728', '1729', '1733', '1736', '1738', '1743', '1746', '1749', '1750', '1754', '1756', '1758', '1760', '1762', '1766', '1769', '1774', '1777', '1780', '1783', '1789', '1790', '1791', '1792', '1795', '1801', '1804', '1805', '1806', '1807', '1811', '1814', '1817', '1818', '1823', '1825', '1826', '1827', '1829', '1834', '1837', '1841', '1842', '1843', '1844', '1847', '1854', '1857', '1858', '1859', '1865', '1867', '1869', '1871', '1875', '1876', '1879', '1880', '1888', '1889', '1891', '1895', '1896', '1899', '1900', '1904', '1905', '1909', '1910', '1912', '1916', '1919', '1921', '1923', '1925', '1931', '1934', '1935', '1936', '1938', '1939', '1941', '1946', '1947', '1950', '1951', '1955', '1956', '1959', '1960', '1961', '1962', '1964', '1966', '1968', '1979', '1980', '1981', '1982', '1983', '1985', '1986', '1987', '1993', '1994', '1998', '1999']",False,5000,True,2,b82407c162,0.0,1.0,1.0
./expes/v2_2021-03-19_issda-30_2000-prng-1-w5-p2,30_issda-2000,2000,first-2000,400,20,rng,num-start-1000,1000,25726,classic,3616.825117111206,True,,True,1.0,1.0,1.0,1,"['2', '8', '11', '14', '17', '18', '25', '27', '31', '36', '38', '49', '53', '54', '59', '60', '61', '62', '70', '71', '74', '84', '85', '89', '97', '100', '104', '106', '108', '109', '111', '113', '124', '125', '130', '132', '133', '135', '136', '137', '141', '142', '153', '155', '166', '167', '170', '171', '172', '173', '174', '178', '180', '182', '192', '197', '204', '205', '209', '212', '213', '218', '223', '226', '227', '228', '229', '230', '242', '246', '247', '249', '263', '266', '272', '273', '282', '283', '284', '285', '289', '292', '298', '304', '305', '306', '322', '332', '333', '337', '345', '347', '351', '354', '355', '361', '372', '382', '388', '394', '405', '406', '408', '409', '411', '416', '420', '428', '430', '431', '438', '453', '455', '456', '460', '473', '474', '484', '485', '488', '498', '499', '509', '531', '538', '539', '547', '548', '550', '553', '562', '567', '569', '576', '584', '595', '597', '603', '607', '616', '630', '633', '659', '666', '674', '677', '684', '685', '693', '700', '709', '712', '715', '727', '749', '750', '757', '761', '763', '764', '765', '776', '777', '782', '785', '786', '791', '796', '797', '813', '816', '822', '824', '825', '833', '840', '843', '861', '864', '866', '870', '871', '878', '888', '893', '910', '920', '923', '925', '926', '929', '936', '940', '949', '950', '958', '964', '971', '973', '980', '985', '988', '1004', '1007', '1008', '1013', '1016', '1018', '1019', '1026', '1030', '1035', '1037', '1045', '1060', '1070', '1073', '1080', '1084', '1097', '1101', '1106', '1111', '1115', '1118', '1121', '1124', '1136', '1137', '1139', '1146', '1148', '1151', '1158', '1160', '1174', '1176', '1177', '1179', '1186', '1188', '1190', '1197', '1199', '1205', '1206', '1209', '1210', '1212', '1215', '1223', '1224', '1235', '1239', '1242', '1243', '1245', '1246', '1247', '1248', '1252', '1253', '1256', '1263', '1275', '1280', '1284', '1290', '1300', '1305', '1309', '1315', '1317', '1322', '1327', '1334', '1359', '1368', '1375', '1381', '1386', '1389', '1391', '1400', '1409', '1410', '1419', '1426', '1433', '1434', '1436', '1441', '1442', '1445', '1452', '1453', '1466', '1474', '1476', '1485', '1487', '1490', '1492', '1495', '1508', '1510', '1511', '1518', '1527', '1528', '1529', '1531', '1542', '1558', '1566', '1567', '1581', '1583', '1586', '1587', '1589', '1593', '1598', '1599', '1604', '1606', '1611', '1618', '1625', '1628', '1631', '1636', '1638', '1645', '1654', '1658', '1659', '1669', '1681', '1686', '1706', '1728', '1732', '1733', '1743', '1745', '1746', '1760', '1762', '1770', '1775', '1777', '1780', '1786', '1791', '1794', '1797', '1800', '1801', '1803', '1806', '1816', '1817', '1818', '1821', '1822', '1828', '1829', '1834', '1835', '1840', '1856', '1857', '1863', '1867', '1880', '1883', '1887', '1891', '1893', '1918', '1922', '1925', '1928', '1938', '1939', '1940', '1948', '1949', '1954', '1957', '1958', '1963', '1970', '1972', '1975', '1980', '1984', '1998', '2000']",False,5000,True,2,2c8776968c,0.0,1.0,1.0
./expes/v2_2021-03-19_issda-30_2000-prng-1-w5-p2,30_issda-2000,2000,first-2000,400,20,rng,num-start-200,200,25726,classic,5014.253857135773,False,,False,0,,,0,"['7', '15', '20', '22', '27', '38', '41', '53', '55', '65', '71', '73', '76', '83', '84', '85', '88', '89', '92', '95', '106', '110', '114', '121', '122', '124', '127', '128', '137', '153', '154', '159', '160', '162', '164', '167', '170', '175', '178', '183', '185', '191', '195', '199', '207', '212', '218', '232', '233', '235', '238', '240', '251', '262', '280', '285', '291', '298', '307', '314', '318', '322', '326', '331', '332', '338', '339', '343', '346', '348', '354', '364', '365', '377', '385', '392', '393', '397', '400', '401', '407', '411', '414', '416', '421', '425', '426', '427', '432', '433', '440', '441', '442', '448', '449', '455', '456', '469', '475', '478', '479', '484', '487', '496', '497', '507', '510', '511', '513', '519', '521', '527', '528', '532', '534', '536', '537', '550', '552', '557', '566', '567', '569', '574', '575', '586', '591', '592', '593', '594', '595', '596', '598', '599', '600', '601', '607', '609', '615', '622', '625', '635', '638', '639', '645', '646', '657', '659', '662', '663', '666', '670', '678', '679', '690', '692', '694', '703', '711', '729', '732', '738', '743', '745', '748', '750', '763', '781', '782', '794', '795', '796', '800', '804', '809', '811', '812', '820', '823', '826', '827', '839', '841', '846', '848', '852', '855', '861', '863', '868', '869', '877', '881', '883', '889', '893', '899', '900', '901', '904', '909', '910', '925', '930', '932', '941', '948', '952', '966', '968', '970', '979', '981', '997', '1002', '1005', '1008', '1013', '1017', '1022', '1037', '1042', '1050', '1063', '1066', '1072', '1077', '1079', '1082', '1084', '1095', '1100', '1113', '1119', '1122', '1126', '1128', '1144', '1149', '1152', '1158', '1166', '1167', '1171', '1173', '1174', '1193', '1194', '1206', '1218', '1220', '1227', '1241', '1243', '1246', '1250', '1261', '1266', '1269', '1271', '1272', '1283', '1285', '1286', '1296', '1300', '1301', '1313', '1316', '1326', '1328', '1335', '1336', '1338', '1340', '1341', '1346', '1367', '1369', '1376', '1380', '1383', '1387', '1393', '1405', '1409', '1425', '1429', '1436', '1444', '1451', '1470', '1478', '1499', '1506', '1510', '1526', '1529', '1530', '1554', '1568', '1571', '1573', '1577', '1582', '1585', '1586', '1588', '1597', '1604', '1606', '1607', '1613', '1620', '1634', '1635', '1636', '1638', '1640', '1641', '1642', '1648', '1653', '1659', '1665', '1669', '1676', '1677', '1694', '1695', '1698', '1702', '1710', '1716', '1720', '1722', '1731', '1737', '1738', '1751', '1753', '1754', '1757', '1759', '1765', '1766', '1771', '1773', '1777', '1781', '1782', '1784', '1790', '1795', '1798', '1800', '1801', '1803', '1807', '1814', '1822', '1825', '1827', '1832', '1835', '1842', '1843', '1845', '1846', '1853', '1854', '1862', '1871', '1875', '1876', '1878', '1880', '1889', '1890', '1894', '1900', '1901', '1905', '1915', '1930', '1932', '1934', '1935', '1948', '1956', '1959', '1966', '1968', '1970', '1972', '1976', '1979', '1984', '1988', '1989']",True,5000,True,2,8eccf98960,0.0,0.0,0.0
