expe,clients,clients_size,clients_subset,agg_size,agg_size_pc,method,days,days_size,days_total,noise_method,time,valid,valid_sum,success,score_avg,score_min,score_max,nsols,oracle,wall_hit,wall_time,pooled,pool_size,uuid,infeasible,optimal,valid_sums
./expes/v2_2021-03-23_issda-30_2000-prng-1-w2-p2,30_issda-2000,2000,first-2000,100,5,rng,num-start-3600,3600,25726,classic,1123.9377167224884,True,,True,1.0,1.0,1.0,1,"['15', '41', '53', '89', '95', '121', '137', '167', '178', '183', '185', '212', '218', '318', '331', '338', '354', '365', '397', '400', '440', '455', '478', '484', '507', '510', '532', '534', '537', '557', '567', '574', '575', '591', '593', '594', '598', '615', '622', '625', '635', '639', '692', '738', '763', '795', '812', '823', '848', '868', '883', '925', '948', '970', '981', '1037', '1042', '1063', '1066', '1095', '1100', '1122', '1126', '1173', '1227', '1241', '1283', '1285', '1313', '1328', '1376', '1444', '1478', '1499', '1568', '1597', '1634', '1640', '1653', '1665', '1676', '1694', '1698', '1722', '1731', '1737', '1738', '1751', '1773', '1777', '1803', '1807', '1862', '1880', '1900', '1915', '1930', '1932', '1935', '1968']",False,2000,True,2,225e6e2448,0.0,1.0,1.0
./expes/v2_2021-03-23_issda-30_2000-prng-1-w2-p2,30_issda-2000,2000,first-2000,600,30,rng,num-start-2200,2200,25726,classic,1725.4442586898804,True,,True,1.0,1.0,1.0,1,"['4', '7', '10', '12', '15', '20', '22', '27', '38', '41', '42', '48', '53', '55', '58', '65', '66', '71', '73', '76', '83', '84', '85', '88', '89', '92', '95', '97', '106', '109', '110', '114', '121', '122', '124', '127', '128', '136', '137', '138', '139', '142', '153', '154', '156', '158', '159', '160', '162', '164', '167', '168', '170', '175', '178', '182', '183', '185', '188', '191', '192', '195', '199', '202', '207', '212', '218', '227', '232', '233', '235', '238', '240', '243', '248', '250', '251', '262', '272', '273', '280', '285', '289', '291', '295', '298', '305', '306', '307', '314', '318', '320', '322', '323', '325', '326', '331', '332', '334', '335', '338', '339', '343', '346', '348', '353', '354', '358', '362', '364', '365', '368', '370', '374', '377', '385', '392', '393', '397', '400', '401', '402', '405', '407', '411', '414', '416', '421', '425', '426', '427', '432', '433', '440', '441', '442', '448', '449', '453', '455', '456', '469', '470', '472', '475', '478', '479', '484', '487', '489', '496', '497', '503', '507', '510', '511', '513', '515', '516', '519', '521', '527', '528', '529', '530', '532', '534', '536', '537', '538', '550', '552', '557', '566', '567', '569', '574', '575', '582', '585', '586', '591', '592', '593', '594', '595', '596', '598', '599', '600', '601', '607', '609', '613', '615', '616', '620', '621', '622', '625', '626', '635', '638', '639', '640', '642', '645', '646', '649', '657', '659', '662', '663', '666', '669', '670', '676', '678', '679', '690', '692', '694', '697', '703', '711', '712', '718', '729', '731', '732', '736', '738', '742', '743', '745', '747', '748', '750', '753', '762', '763', '781', '782', '794', '795', '796', '800', '803', '804', '809', '811', '812', '815', '820', '821', '823', '825', '826', '827', '828', '832', '839', '841', '843', '846', '848', '852', '855', '861', '863', '866', '868', '869', '877', '881', '883', '888', '889', '893', '898', '899', '900', '901', '903', '904', '906', '909', '910', '925', '926', '930', '932', '939', '940', '941', '948', '952', '957', '966', '968', '970', '977', '979', '981', '982', '991', '992', '997', '1002', '1004', '1005', '1008', '1013', '1015', '1017', '1022', '1037', '1038', '1042', '1048', '1050', '1063', '1066', '1067', '1072', '1074', '1077', '1078', '1079', '1082', '1084', '1085', '1095', '1100', '1101', '1103', '1107', '1110', '1113', '1115', '1117', '1119', '1121', '1122', '1126', '1128', '1144', '1149', '1150', '1152', '1158', '1164', '1166', '1167', '1171', '1173', '1174', '1176', '1180', '1192', '1193', '1194', '1197', '1205', '1206', '1218', '1220', '1223', '1227', '1231', '1237', '1241', '1243', '1246', '1249', '1250', '1256', '1260', '1261', '1265', '1266', '1269', '1271', '1272', '1275', '1277', '1283', '1284', '1285', '1286', '1288', '1292', '1296', '1300', '1301', '1305', '1311', '1313', '1316', '1323', '1326', '1328', '1335', '1336', '1338', '1340', '1341', '1346', '1353', '1354', '1356', '1367', '1369', '1376', '1380', '1383', '1384', '1386', '1387', '1393', '1395', '1405', '1409', '1420', '1425', '1429', '1436', '1441', '1444', '1448', '1451', '1456', '1457', '1461', '1466', '1470', '1478', '1499', '1506', '1510', '1526', '1527', '1528', '1529', '1530', '1539', '1546', '1548', '1554', '1557', '1568', '1571', '1573', '1577', '1580', '1582', '1585', '1586', '1588', '1591', '1594', '1597', '1603', '1604', '1606', '1607', '1611', '1612', '1613', '1619', '1620', '1626', '1631', '1634', '1635', '1636', '1638', '1640', '1641', '1642', '1645', '1648', '1653', '1654', '1657', '1659', '1665', '1669', '1675', '1676', '1677', '1692', '1694', '1695', '1698', '1700', '1702', '1703', '1710', '1714', '1716', '1720', '1722', '1731', '1736', '1737', '1738', '1747', '1751', '1753', '1754', '1757', '1759', '1761', '1765', '1766', '1770', '1771', '1773', '1777', '1781', '1782', '1784', '1790', '1791', '1795', '1798', '1800', '1801', '1803', '1805', '1807', '1809', '1814', '1816', '1822', '1825', '1827', '1828', '1832', '1835', '1837', '1838', '1842', '1843', '1845', '1846', '1848', '1852', '1853', '1854', '1859', '1862', '1865', '1867', '1870', '1871', '1875', '1876', '1878', '1880', '1885', '1889', '1890', '1893', '1894', '1896', '1900', '1901', '1902', '1905', '1915', '1918', '1919', '1921', '1925', '1927', '1930', '1932', '1934', '1935', '1942', '1945', '1948', '1953', '1956', '1959', '1965', '1966', '1968', '1970', '1972', '1976', '1977', '1979', '1984', '1986', '1988', '1989', '1995']",False,2000,True,2,7ab8cb0003,0.0,1.0,1.0
./expes/v2_2021-03-23_issda-30_2000-prng-1-w2-p2,30_issda-2000,2000,first-2000,500,25,rng,num-start-800,800,25726,classic,2102.279422521591,True,,False,1.0,1.0,1.0,1,"['7', '10', '14', '25', '28', '35', '41', '46', '47', '53', '63', '68', '69', '70', '76', '77', '80', '90', '93', '101', '105', '118', '119', '125', '129', '130', '132', '134', '136', '141', '144', '147', '154', '164', '165', '168', '169', '170', '171', '172', '173', '175', '177', '179', '184', '186', '190', '192', '195', '196', '199', '200', '205', '217', '219', '221', '222', '223', '224', '228', '229', '233', '234', '239', '240', '248', '250', '259', '272', '277', '281', '282', '285', '288', '292', '304', '305', '308', '315', '317', '322', '325', '328', '330', '335', '341', '347', '349', '350', '353', '357', '359', '362', '364', '365', '384', '389', '392', '394', '396', '398', '401', '402', '405', '408', '411', '414', '421', '426', '429', '431', '433', '447', '451', '456', '459', '462', '465', '470', '473', '475', '480', '481', '497', '500', '501', '504', '507', '508', '512', '522', '523', '530', '542', '545', '547', '551', '555', '562', '568', '579', '583', '586', '589', '592', '594', '595', '598', '601', '605', '606', '608', '612', '614', '615', '619', '633', '639', '643', '654', '656', '658', '664', '667', '670', '691', '692', '694', '698', '701', '703', '705', '713', '720', '729', '731', '732', '733', '738', '739', '741', '742', '746', '750', '751', '754', '757', '758', '759', '762', '769', '772', '773', '776', '777', '780', '781', '786', '787', '792', '795', '798', '800', '807', '812', '814', '821', '825', '826', '834', '835', '836', '840', '844', '850', '854', '856', '860', '868', '873', '876', '883', '884', '886', '890', '893', '895', '901', '902', '905', '912', '914', '919', '928', '929', '933', '935', '938', '941', '942', '948', '966', '970', '972', '975', '981', '994', '999', '1000', '1001', '1003', '1004', '1014', '1018', '1019', '1020', '1021', '1022', '1025', '1028', '1030', '1032', '1033', '1034', '1035', '1038', '1039', '1040', '1045', '1054', '1058', '1059', '1065', '1066', '1067', '1073', '1076', '1077', '1080', '1082', '1083', '1084', '1090', '1095', '1106', '1117', '1121', '1139', '1142', '1146', '1153', '1155', '1156', '1160', '1161', '1166', '1174', '1175', '1185', '1186', '1188', '1190', '1191', '1197', '1199', '1200', '1206', '1222', '1229', '1230', '1231', '1232', '1238', '1239', '1240', '1243', '1244', '1249', '1250', '1253', '1256', '1257', '1265', '1271', '1278', '1280', '1281', '1295', '1296', '1310', '1315', '1319', '1323', '1326', '1327', '1331', '1335', '1337', '1339', '1341', '1342', '1346', '1347', '1349', '1354', '1358', '1359', '1368', '1371', '1379', '1385', '1393', '1402', '1403', '1407', '1414', '1415', '1416', '1418', '1424', '1436', '1437', '1438', '1444', '1445', '1451', '1455', '1466', '1469', '1472', '1474', '1477', '1478', '1485', '1486', '1487', '1491', '1492', '1493', '1502', '1505', '1508', '1510', '1518', '1523', '1524', '1525', '1531', '1534', '1535', '1536', '1548', '1555', '1556', '1561', '1566', '1570', '1597', '1598', '1600', '1602', '1605', '1611', '1619', '1620', '1625', '1632', '1648', '1653', '1655', '1656', '1661', '1662', '1666', '1668', '1669', '1673', '1678', '1682', '1685', '1690', '1691', '1697', '1699', '1700', '1701', '1703', '1707', '1709', '1712', '1713', '1717', '1726', '1728', '1729', '1733', '1735', '1742', '1746', '1752', '1755', '1760', '1762', '1772', '1775', '1779', '1780', '1793', '1799', '1805', '1807', '1809', '1818', '1820', '1826', '1830', '1834', '1837', '1838', '1844', '1847', '1848', '1850', '1851', '1854', '1855', '1857', '1858', '1860', '1862', '1864', '1867', '1870', '1877', '1882', '1883', '1884', '1886', '1890', '1895', '1896', '1900', '1902', '1908', '1910', '1918', '1929', '1937', '1938', '1946', '1961', '1964', '1971', '1977', '1978', '1981', '1983', '1987', '1993', '1997']",True,2000,True,2,d265e89f12,0.0,0.0,1.0
./expes/v2_2021-03-23_issda-30_2000-prng-1-w2-p2,30_issda-2000,2000,first-2000,500,25,rng,num-start-2000,2000,25726,classic,1635.1675827503204,True,,True,1.0,1.0,1.0,1,"['2', '8', '11', '12', '14', '15', '17', '18', '25', '27', '31', '32', '36', '38', '40', '46', '49', '53', '54', '56', '59', '60', '61', '62', '70', '71', '74', '80', '84', '85', '89', '97', '100', '104', '106', '108', '109', '111', '113', '119', '121', '124', '125', '130', '132', '133', '135', '136', '137', '141', '142', '153', '155', '156', '161', '166', '167', '170', '171', '172', '173', '174', '176', '178', '180', '182', '189', '192', '194', '197', '203', '204', '205', '209', '212', '213', '218', '223', '226', '227', '228', '229', '230', '242', '246', '247', '249', '263', '266', '271', '272', '273', '282', '283', '284', '285', '289', '292', '298', '304', '305', '306', '322', '332', '333', '337', '345', '347', '350', '351', '354', '355', '361', '372', '382', '383', '387', '388', '394', '405', '406', '408', '409', '411', '416', '420', '428', '430', '431', '433', '438', '452', '453', '455', '456', '460', '466', '473', '474', '484', '485', '488', '498', '499', '507', '509', '515', '519', '526', '531', '538', '539', '547', '548', '550', '553', '562', '564', '567', '569', '576', '584', '595', '597', '603', '607', '615', '616', '617', '620', '630', '633', '646', '651', '659', '663', '666', '674', '675', '677', '684', '685', '687', '692', '693', '700', '709', '711', '712', '715', '724', '727', '747', '749', '750', '757', '761', '763', '764', '765', '776', '777', '782', '785', '786', '789', '791', '796', '797', '813', '816', '818', '822', '824', '825', '826', '833', '840', '843', '854', '855', '861', '864', '866', '870', '871', '878', '881', '888', '893', '900', '901', '910', '916', '920', '923', '925', '926', '929', '934', '936', '940', '946', '949', '950', '956', '958', '964', '971', '973', '974', '980', '985', '988', '1004', '1007', '1008', '1013', '1016', '1018', '1019', '1026', '1029', '1030', '1035', '1037', '1045', '1053', '1060', '1061', '1064', '1070', '1073', '1080', '1084', '1097', '1101', '1106', '1110', '1111', '1114', '1115', '1118', '1121', '1124', '1132', '1136', '1137', '1139', '1146', '1148', '1151', '1154', '1158', '1160', '1165', '1174', '1176', '1177', '1179', '1186', '1188', '1190', '1197', '1199', '1205', '1206', '1209', '1210', '1212', '1215', '1223', '1224', '1228', '1235', '1238', '1239', '1240', '1242', '1243', '1245', '1246', '1247', '1248', '1251', '1252', '1253', '1256', '1263', '1275', '1280', '1281', '1284', '1290', '1300', '1305', '1309', '1315', '1317', '1322', '1327', '1334', '1350', '1359', '1368', '1372', '1373', '1375', '1381', '1386', '1389', '1391', '1396', '1399', '1400', '1409', '1410', '1419', '1426', '1428', '1433', '1434', '1436', '1441', '1442', '1445', '1452', '1453', '1458', '1466', '1474', '1476', '1485', '1487', '1490', '1492', '1495', '1503', '1508', '1510', '1511', '1518', '1527', '1528', '1529', '1531', '1542', '1558', '1560', '1564', '1565', '1566', '1567', '1580', '1581', '1583', '1586', '1587', '1589', '1593', '1598', '1599', '1604', '1606', '1611', '1618', '1625', '1628', '1631', '1636', '1637', '1638', '1639', '1645', '1654', '1658', '1659', '1669', '1681', '1686', '1706', '1708', '1715', '1728', '1732', '1733', '1743', '1745', '1746', '1760', '1762', '1770', '1775', '1776', '1777', '1780', '1786', '1791', '1792', '1794', '1796', '1797', '1800', '1801', '1803', '1804', '1806', '1810', '1816', '1817', '1818', '1821', '1822', '1828', '1829', '1834', '1835', '1837', '1840', '1841', '1847', '1856', '1857', '1863', '1867', '1880', '1883', '1885', '1887', '1891', '1893', '1894', '1907', '1918', '1922', '1925', '1927', '1928', '1933', '1934', '1938', '1939', '1940', '1948', '1949', '1954', '1957', '1958', '1963', '1968', '1970', '1971', '1972', '1975', '1980', '1982', '1984', '1997', '1998', '2000']",False,2000,True,2,bde3c616c8,0.0,1.0,1.0
./expes/v2_2021-03-23_issda-30_2000-prng-1-w2-p2,30_issda-2000,2000,first-2000,800,40,rng,num-start-1000,1000,25726,classic,2125.1898505687714,True,,False,1.0,1.0,1.0,1,"['4', '8', '10', '11', '15', '16', '24', '27', '32', '37', '41', '42', '44', '46', '48', '49', '53', '56', '57', '58', '59', '61', '62', '64', '65', '67', '68', '70', '72', '73', '74', '75', '76', '87', '88', '89', '91', '93', '94', '95', '102', '103', '105', '109', '110', '113', '122', '124', '125', '126', '130', '132', '135', '137', '140', '141', '142', '147', '149', '157', '158', '159', '160', '164', '171', '176', '177', '182', '187', '189', '190', '197', '199', '200', '204', '205', '209', '211', '212', '214', '215', '219', '220', '222', '223', '230', '231', '233', '236', '242', '244', '245', '246', '248', '249', '251', '253', '254', '255', '256', '257', '260', '262', '264', '266', '267', '268', '270', '273', '275', '279', '280', '282', '284', '290', '294', '295', '300', '301', '306', '307', '309', '311', '320', '322', '327', '329', '333', '335', '347', '348', '349', '351', '352', '353', '362', '364', '366', '367', '369', '370', '372', '373', '376', '379', '380', '382', '383', '384', '388', '389', '391', '392', '393', '397', '405', '407', '408', '409', '411', '414', '422', '431', '433', '445', '446', '447', '448', '453', '455', '456', '460', '461', '466', '471', '475', '476', '480', '481', '482', '484', '487', '488', '489', '490', '491', '496', '501', '502', '507', '509', '512', '513', '514', '515', '518', '521', '523', '529', '530', '532', '537', '540', '541', '542', '543', '544', '545', '547', '548', '550', '551', '552', '554', '555', '556', '561', '563', '571', '572', '573', '583', '584', '588', '592', '595', '598', '601', '602', '603', '606', '612', '614', '615', '616', '617', '621', '623', '630', '635', '640', '641', '642', '643', '645', '646', '647', '648', '653', '656', '660', '662', '665', '667', '669', '672', '674', '678', '679', '681', '682', '684', '686', '690', '694', '695', '696', '697', '699', '700', '705', '708', '710', '718', '719', '720', '721', '722', '723', '726', '731', '736', '738', '739', '746', '749', '753', '755', '757', '758', '760', '763', '765', '767', '769', '770', '771', '772', '773', '774', '778', '779', '784', '785', '786', '791', '794', '797', '798', '799', '801', '802', '803', '807', '809', '813', '814', '816', '820', '822', '827', '835', '836', '839', '841', '846', '847', '848', '851', '854', '857', '860', '861', '862', '863', '867', '871', '873', '875', '878', '881', '884', '886', '890', '892', '894', '896', '898', '908', '911', '912', '918', '923', '924', '927', '931', '935', '936', '938', '943', '944', '951', '952', '955', '958', '959', '961', '964', '969', '970', '971', '976', '978', '981', '982', '983', '986', '987', '988', '989', '991', '996', '999', '1003', '1004', '1012', '1014', '1017', '1020', '1025', '1029', '1031', '1034', '1036', '1039', '1042', '1045', '1048', '1050', '1055', '1056', '1060', '1062', '1063', '1065', '1066', '1068', '1072', '1076', '1077', '1080', '1081', '1084', '1085', '1086', '1090', '1094', '1095', '1097', '1098', '1099', '1100', '1102', '1108', '1109', '1110', '1113', '1114', '1115', '1116', '1124', '1126', '1127', '1129', '1132', '1134', '1135', '1136', '1137', '1138', '1140', '1141', '1145', '1146', '1147', '1155', '1156', '1160', '1161', '1162', '1164', '1165', '1166', '1168', '1170', '1172', '1175', '1176', '1178', '1180', '1182', '1186', '1188', '1189', '1190', '1195', '1197', '1198', '1199', '1200', '1201', '1202', '1204', '1206', '1207', '1208', '1209', '1211', '1213', '1214', '1219', '1220', '1224', '1227', '1228', '1229', '1231', '1232', '1237', '1238', '1240', '1241', '1245', '1247', '1251', '1254', '1259', '1262', '1266', '1269', '1271', '1274', '1276', '1282', '1284', '1285', '1286', '1287', '1288', '1293', '1295', '1297', '1298', '1299', '1300', '1301', '1304', '1309', '1315', '1317', '1319', '1320', '1321', '1323', '1325', '1327', '1328', '1331', '1332', '1337', '1339', '1340', '1343', '1351', '1357', '1358', '1363', '1366', '1368', '1373', '1375', '1376', '1377', '1378', '1380', '1381', '1383', '1384', '1385', '1389', '1390', '1392', '1395', '1396', '1397', '1401', '1405', '1413', '1415', '1416', '1421', '1422', '1424', '1425', '1427', '1429', '1430', '1431', '1434', '1436', '1437', '1440', '1444', '1445', '1448', '1460', '1462', '1463', '1465', '1466', '1467', '1468', '1469', '1470', '1471', '1472', '1473', '1476', '1477', '1481', '1490', '1491', '1492', '1493', '1496', '1499', '1503', '1504', '1506', '1512', '1515', '1519', '1520', '1521', '1523', '1527', '1531', '1532', '1533', '1534', '1541', '1543', '1544', '1545', '1546', '1549', '1550', '1551', '1553', '1557', '1560', '1572', '1575', '1581', '1582', '1586', '1588', '1589', '1591', '1592', '1596', '1597', '1598', '1601', '1602', '1603', '1604', '1612', '1613', '1615', '1620', '1622', '1623', '1626', '1629', '1635', '1636', '1637', '1640', '1641', '1645', '1647', '1651', '1652', '1653', '1654', '1658', '1659', '1660', '1662', '1663', '1666', '1669', '1671', '1673', '1674', '1679', '1683', '1687', '1696', '1704', '1706', '1707', '1708', '1710', '1713', '1714', '1716', '1718', '1724', '1726', '1728', '1729', '1735', '1741', '1744', '1746', '1749', '1750', '1752', '1753', '1754', '1755', '1756', '1758', '1759', '1761', '1763', '1764', '1765', '1767', '1769', '1770', '1772', '1773', '1776', '1778', '1779', '1781', '1782', '1783', '1787', '1788', '1793', '1800', '1802', '1803', '1804', '1805', '1807', '1810', '1813', '1816', '1817', '1818', '1822', '1823', '1824', '1825', '1826', '1837', '1838', '1839', '1843', '1847', '1851', '1852', '1853', '1856', '1862', '1864', '1866', '1870', '1872', '1876', '1878', '1879', '1885', '1886', '1887', '1888', '1889', '1893', '1897', '1900', '1903', '1904', '1909', '1913', '1914', '1915', '1917', '1918', '1923', '1924', '1927', '1928', '1931', '1932', '1934', '1935', '1936', '1941', '1944', '1945', '1946', '1947', '1948', '1951', '1953', '1956', '1957', '1961', '1962', '1964', '1967', '1968', '1969', '1973', '1975', '1976', '1978', '1980', '1981', '1985', '1989', '1990', '1991', '1993', '1997']",True,2000,True,2,2ec97e4c16,0.0,0.0,1.0
./expes/v2_2021-03-23_issda-30_2000-prng-1-w2-p2,30_issda-2000,2000,first-2000,500,25,rng,num-start-1600,1600,25726,classic,1115.789883852005,True,,True,1.0,1.0,1.0,1,"['6', '9', '11', '16', '31', '33', '34', '52', '64', '66', '67', '68', '71', '73', '75', '76', '77', '85', '88', '90', '91', '92', '95', '98', '102', '103', '104', '107', '110', '114', '123', '129', '133', '134', '135', '144', '148', '152', '156', '160', '164', '166', '172', '181', '183', '190', '196', '197', '198', '199', '203', '205', '217', '223', '232', '238', '239', '241', '245', '273', '275', '279', '285', '286', '290', '294', '299', '307', '312', '313', '314', '315', '321', '324', '325', '329', '334', '337', '338', '339', '340', '341', '345', '346', '352', '355', '357', '358', '359', '361', '362', '366', '374', '381', '382', '384', '390', '391', '392', '393', '394', '397', '399', '400', '401', '410', '413', '423', '426', '428', '430', '451', '458', '459', '460', '483', '487', '489', '491', '492', '494', '495', '497', '503', '505', '512', '522', '531', '537', '538', '540', '545', '547', '557', '563', '568', '569', '579', '581', '585', '593', '603', '607', '617', '620', '621', '628', '631', '632', '637', '644', '655', '660', '662', '665', '670', '672', '673', '680', '695', '700', '703', '704', '708', '712', '713', '715', '716', '717', '725', '728', '738', '739', '740', '743', '747', '750', '752', '766', '767', '769', '771', '782', '783', '788', '795', '796', '800', '804', '811', '813', '814', '821', '822', '829', '830', '831', '837', '846', '849', '851', '852', '861', '862', '863', '864', '867', '868', '869', '874', '879', '887', '888', '891', '892', '893', '894', '899', '900', '901', '904', '905', '906', '911', '913', '915', '916', '917', '918', '923', '925', '930', '934', '936', '939', '940', '946', '948', '950', '956', '959', '963', '965', '977', '978', '981', '983', '984', '989', '994', '1003', '1004', '1007', '1016', '1018', '1023', '1024', '1027', '1028', '1038', '1040', '1047', '1051', '1052', '1065', '1066', '1067', '1069', '1070', '1071', '1072', '1076', '1093', '1097', '1099', '1100', '1104', '1106', '1109', '1116', '1125', '1128', '1138', '1139', '1145', '1146', '1156', '1157', '1158', '1162', '1167', '1168', '1171', '1172', '1177', '1179', '1184', '1185', '1188', '1191', '1194', '1198', '1203', '1206', '1212', '1216', '1219', '1220', '1224', '1225', '1232', '1234', '1235', '1236', '1238', '1240', '1241', '1242', '1243', '1246', '1249', '1250', '1257', '1265', '1268', '1285', '1288', '1299', '1303', '1308', '1310', '1311', '1314', '1315', '1317', '1329', '1331', '1335', '1336', '1338', '1339', '1347', '1348', '1353', '1356', '1361', '1366', '1373', '1380', '1381', '1383', '1395', '1402', '1405', '1408', '1413', '1418', '1424', '1428', '1430', '1438', '1447', '1460', '1471', '1475', '1476', '1479', '1480', '1481', '1488', '1503', '1508', '1515', '1517', '1523', '1524', '1526', '1527', '1535', '1539', '1541', '1556', '1564', '1565', '1571', '1573', '1579', '1582', '1583', '1584', '1587', '1589', '1592', '1593', '1604', '1612', '1616', '1617', '1620', '1626', '1633', '1638', '1641', '1648', '1650', '1654', '1657', '1659', '1661', '1664', '1666', '1673', '1674', '1676', '1682', '1685', '1687', '1688', '1690', '1694', '1695', '1698', '1699', '1707', '1712', '1713', '1714', '1725', '1729', '1736', '1737', '1742', '1744', '1748', '1752', '1759', '1761', '1762', '1766', '1768', '1771', '1772', '1773', '1781', '1783', '1785', '1786', '1792', '1800', '1802', '1805', '1818', '1819', '1821', '1823', '1830', '1837', '1839', '1840', '1846', '1853', '1856', '1860', '1863', '1865', '1866', '1870', '1871', '1874', '1884', '1886', '1887', '1890', '1893', '1910', '1911', '1916', '1917', '1928', '1932', '1937', '1941', '1946', '1948', '1951', '1952', '1956', '1958', '1959', '1967', '1971', '1973', '1974', '1976', '1984', '1986', '1987', '1988', '1995', '1997']",False,2000,True,2,a4ad381405,0.0,1.0,1.0
