expe,clients,clients_size,clients_subset,agg_size,agg_size_pc,method,days,days_size,days_total,noise_method,time,valid,valid_sum,success,score_avg,score_min,score_max,nsols,oracle,wall_hit,wall_time,pooled,pool_size,uuid,infeasible,optimal,valid_sums
./expes/v2_2021-03-23_issda-30_2000-prng-1-w2-p2,30_issda-2000,2000,first-2000,500,25,rng,num-start-3400,3400,25726,classic,2466.218517065048,True,,False,1.0,1.0,1.0,1,"['1', '3', '4', '5', '7', '19', '26', '28', '29', '30', '31', '34', '39', '45', '47', '55', '65', '68', '74', '75', '78', '80', '81', '83', '84', '85', '87', '93', '94', '96', '99', '103', '119', '126', '128', '129', '131', '142', '144', '146', '148', '152', '162', '165', '166', '167', '169', '171', '184', '187', '188', '192', '195', '201', '203', '204', '206', '207', '208', '223', '224', '236', '237', '238', '240', '241', '244', '246', '254', '255', '256', '266', '267', '268', '272', '274', '277', '284', '286', '287', '292', '300', '301', '307', '310', '315', '317', '319', '323', '325', '328', '332', '336', '340', '342', '347', '350', '359', '366', '368', '370', '374', '377', '379', '383', '386', '387', '388', '390', '391', '392', '394', '399', '407', '409', '417', '419', '422', '426', '432', '438', '441', '448', '449', '452', '453', '455', '457', '483', '489', '491', '492', '496', '498', '500', '514', '526', '531', '532', '533', '534', '553', '556', '563', '564', '565', '571', '574', '576', '578', '590', '593', '595', '597', '601', '613', '617', '618', '619', '620', '622', '631', '636', '638', '640', '645', '648', '650', '656', '665', '667', '668', '673', '677', '682', '683', '685', '687', '688', '691', '692', '693', '702', '704', '711', '718', '722', '725', '732', '734', '735', '736', '740', '752', '753', '759', '762', '763', '770', '776', '789', '795', '796', '802', '809', '813', '817', '823', '824', '826', '830', '840', '849', '850', '851', '856', '857', '859', '862', '872', '873', '874', '890', '892', '894', '906', '907', '912', '913', '915', '918', '923', '928', '938', '940', '957', '964', '966', '967', '971', '975', '976', '977', '980', '982', '986', '987', '996', '997', '998', '1003', '1009', '1011', '1013', '1020', '1032', '1034', '1041', '1042', '1048', '1067', '1068', '1069', '1072', '1075', '1081', '1083', '1085', '1091', '1095', '1102', '1107', '1108', '1113', '1115', '1121', '1122', '1124', '1129', '1132', '1144', '1147', '1149', '1150', '1157', '1163', '1164', '1166', '1167', '1176', '1179', '1180', '1188', '1195', '1203', '1204', '1208', '1209', '1218', '1222', '1223', '1233', '1234', '1236', '1237', '1241', '1242', '1245', '1246', '1250', '1252', '1254', '1255', '1267', '1271', '1272', '1281', '1284', '1286', '1291', '1297', '1298', '1299', '1301', '1306', '1312', '1314', '1320', '1321', '1325', '1330', '1333', '1339', '1343', '1345', '1347', '1353', '1357', '1364', '1369', '1378', '1380', '1384', '1385', '1390', '1391', '1392', '1394', '1395', '1396', '1400', '1401', '1408', '1411', '1415', '1429', '1431', '1433', '1435', '1437', '1438', '1442', '1445', '1448', '1453', '1455', '1459', '1466', '1470', '1471', '1472', '1474', '1486', '1490', '1493', '1495', '1496', '1497', '1499', '1505', '1514', '1519', '1533', '1535', '1546', '1548', '1552', '1553', '1561', '1572', '1582', '1597', '1604', '1606', '1608', '1616', '1618', '1623', '1625', '1628', '1635', '1638', '1639', '1640', '1645', '1646', '1649', '1651', '1657', '1660', '1663', '1664', '1669', '1671', '1674', '1683', '1685', '1690', '1691', '1696', '1698', '1699', '1700', '1701', '1708', '1712', '1716', '1717', '1721', '1723', '1726', '1730', '1731', '1732', '1734', '1740', '1742', '1744', '1749', '1752', '1756', '1765', '1773', '1777', '1783', '1785', '1786', '1790', '1792', '1793', '1796', '1811', '1813', '1824', '1827', '1832', '1834', '1840', '1841', '1844', '1848', '1849', '1853', '1860', '1861', '1864', '1870', '1872', '1876', '1878', '1879', '1880', '1881', '1882', '1884', '1888', '1889', '1890', '1891', '1892', '1911', '1913', '1918', '1919', '1922', '1939', '1940', '1945', '1946', '1953', '1969', '1973', '1974', '1978', '1980', '1982', '1983', '1988', '1996', '2000']",True,2000,True,2,53a14df422,0.0,0.0,1.0
./expes/v2_2021-03-23_issda-30_2000-prng-1-w2-p2,30_issda-2000,2000,first-2000,600,30,rng,num-start-200,200,25726,classic,2028.0267162322998,False,,False,0,,,0,"['4', '8', '13', '14', '16', '18', '23', '26', '27', '35', '36', '39', '43', '45', '49', '51', '53', '56', '58', '59', '61', '63', '64', '67', '76', '78', '81', '82', '88', '90', '95', '101', '106', '107', '108', '109', '116', '117', '121', '125', '128', '132', '147', '148', '150', '153', '160', '169', '170', '172', '173', '179', '186', '187', '191', '199', '201', '202', '210', '211', '212', '218', '222', '225', '231', '232', '234', '238', '242', '245', '251', '253', '256', '258', '260', '265', '270', '276', '277', '279', '280', '282', '284', '291', '292', '293', '298', '301', '304', '318', '319', '330', '333', '335', '344', '348', '349', '351', '354', '361', '365', '368', '369', '373', '375', '377', '387', '388', '390', '393', '399', '401', '404', '405', '408', '409', '410', '411', '413', '419', '421', '424', '428', '429', '431', '433', '435', '439', '451', '452', '455', '458', '460', '463', '466', '467', '469', '471', '473', '475', '482', '489', '492', '495', '496', '504', '507', '512', '516', '517', '522', '523', '529', '532', '536', '538', '540', '545', '546', '549', '550', '551', '555', '561', '562', '567', '569', '570', '571', '572', '573', '578', '580', '584', '585', '597', '601', '607', '608', '611', '626', '630', '632', '635', '637', '638', '639', '640', '641', '648', '651', '658', '660', '661', '663', '671', '676', '681', '687', '690', '691', '696', '697', '699', '700', '702', '704', '705', '712', '714', '717', '718', '724', '725', '729', '730', '735', '738', '740', '741', '742', '743', '744', '745', '746', '747', '748', '749', '751', '753', '755', '761', '768', '776', '778', '781', '782', '788', '789', '790', '796', '797', '801', '805', '808', '810', '819', '821', '829', '831', '832', '834', '835', '837', '845', '850', '851', '856', '858', '861', '867', '868', '869', '875', '879', '881', '884', '886', '888', '892', '893', '901', '902', '909', '912', '919', '920', '934', '936', '941', '942', '943', '944', '952', '958', '962', '967', '972', '974', '976', '977', '978', '986', '989', '994', '995', '997', '1000', '1004', '1007', '1008', '1009', '1013', '1021', '1024', '1025', '1026', '1027', '1029', '1032', '1035', '1039', '1043', '1048', '1052', '1053', '1056', '1058', '1059', '1063', '1067', '1068', '1071', '1080', '1081', '1084', '1095', '1096', '1098', '1099', '1102', '1105', '1108', '1109', '1110', '1113', '1115', '1119', '1120', '1123', '1124', '1125', '1127', '1135', '1137', '1138', '1141', '1143', '1144', '1147', '1154', '1156', '1157', '1168', '1169', '1174', '1181', '1189', '1190', '1202', '1203', '1206', '1215', '1217', '1221', '1227', '1230', '1232', '1234', '1243', '1244', '1245', '1247', '1248', '1252', '1255', '1262', '1264', '1266', '1268', '1269', '1273', '1275', '1276', '1279', '1280', '1285', '1286', '1289', '1295', '1296', '1299', '1302', '1305', '1307', '1310', '1312', '1313', '1318', '1331', '1332', '1335', '1338', '1344', '1347', '1349', '1351', '1354', '1355', '1356', '1359', '1360', '1365', '1367', '1369', '1370', '1371', '1380', '1384', '1390', '1391', '1395', '1396', '1398', '1400', '1402', '1403', '1404', '1405', '1407', '1410', '1411', '1412', '1414', '1415', '1422', '1425', '1426', '1428', '1430', '1432', '1435', '1444', '1446', '1455', '1465', '1466', '1467', '1473', '1477', '1487', '1488', '1498', '1500', '1504', '1505', '1507', '1510', '1514', '1520', '1526', '1530', '1533', '1534', '1543', '1544', '1550', '1551', '1556', '1558', '1560', '1561', '1567', '1568', '1570', '1575', '1579', '1581', '1582', '1585', '1588', '1606', '1607', '1609', '1613', '1616', '1617', '1622', '1623', '1625', '1629', '1631', '1632', '1634', '1635', '1639', '1640', '1641', '1642', '1646', '1651', '1654', '1657', '1660', '1662', '1665', '1669', '1671', '1677', '1678', '1679', '1682', '1685', '1692', '1701', '1704', '1707', '1711', '1712', '1714', '1718', '1719', '1722', '1726', '1727', '1728', '1731', '1732', '1739', '1747', '1751', '1753', '1760', '1761', '1766', '1767', '1771', '1773', '1774', '1779', '1788', '1789', '1802', '1806', '1807', '1812', '1814', '1816', '1818', '1822', '1829', '1832', '1835', '1838', '1839', '1846', '1849', '1851', '1856', '1865', '1866', '1868', '1874', '1875', '1878', '1882', '1885', '1892', '1893', '1895', '1897', '1899', '1900', '1911', '1912', '1913', '1915', '1918', '1925', '1928', '1933', '1934', '1939', '1941', '1945', '1951', '1952', '1958', '1959', '1964', '1968', '1971', '1972', '1975', '1978', '1982', '1989', '1990', '1992', '2000']",True,2000,True,2,04bbfd9697,0.0,0.0,0.0
./expes/v2_2021-03-23_issda-30_2000-prng-1-w2-p2,30_issda-2000,2000,first-2000,200,10,rng,num-start-1800,1800,25726,classic,1570.3891565799713,True,,True,1.0,1.0,1.0,1,"['12', '13', '14', '18', '38', '162', '179', '182', '190', '208', '236', '242', '252', '259', '265', '270', '273', '294', '298', '300', '303', '312', '329', '334', '347', '358', '372', '375', '389', '402', '406', '411', '413', '414', '418', '424', '443', '452', '481', '487', '491', '512', '520', '528', '532', '542', '543', '553', '555', '558', '577', '606', '613', '618', '621', '665', '686', '688', '694', '696', '702', '709', '722', '739', '749', '790', '806', '813', '820', '828', '829', '831', '832', '834', '851', '853', '865', '868', '874', '889', '895', '920', '939', '940', '962', '967', '978', '979', '980', '983', '984', '1003', '1007', '1012', '1016', '1026', '1040', '1052', '1054', '1070', '1079', '1091', '1095', '1102', '1109', '1114', '1116', '1124', '1131', '1140', '1144', '1145', '1164', '1171', '1174', '1176', '1179', '1186', '1206', '1216', '1229', '1244', '1251', '1252', '1261', '1287', '1290', '1293', '1326', '1328', '1336', '1347', '1355', '1383', '1388', '1393', '1396', '1401', '1406', '1412', '1417', '1432', '1438', '1444', '1449', '1452', '1467', '1490', '1496', '1505', '1513', '1522', '1549', '1553', '1562', '1574', '1575', '1578', '1581', '1584', '1605', '1613', '1620', '1623', '1625', '1627', '1652', '1654', '1660', '1662', '1663', '1674', '1676', '1688', '1691', '1695', '1706', '1712', '1713', '1729', '1733', '1736', '1769', '1774', '1780', '1789', '1811', '1817', '1825', '1827', '1841', '1842', '1865', '1869', '1891', '1910', '1934', '1950', '1981', '1999']",False,2000,True,2,812056adfb,0.0,1.0,1.0
./expes/v2_2021-03-23_issda-30_2000-prng-1-w2-p2,30_issda-2000,2000,first-2000,500,25,rng,num-start-3800,3800,25726,classic,2544.5485413074493,True,,False,1.0,1.0,1.0,1,"['4', '8', '10', '15', '16', '24', '27', '32', '37', '41', '42', '44', '46', '56', '58', '59', '64', '65', '67', '68', '70', '72', '73', '74', '87', '88', '89', '91', '93', '95', '102', '103', '105', '109', '110', '113', '124', '125', '126', '130', '132', '135', '137', '140', '141', '147', '158', '164', '176', '177', '182', '199', '200', '209', '211', '214', '215', '222', '233', '244', '245', '246', '248', '249', '251', '253', '254', '255', '256', '257', '260', '262', '264', '266', '267', '268', '270', '273', '275', '279', '284', '309', '311', '320', '322', '327', '335', '347', '351', '352', '364', '366', '376', '380', '384', '391', '392', '393', '405', '407', '409', '433', '445', '447', '448', '453', '455', '456', '460', '461', '466', '475', '476', '480', '484', '487', '488', '489', '490', '491', '501', '502', '509', '515', '518', '529', '532', '537', '540', '541', '543', '547', '551', '552', '554', '555', '556', '561', '571', '572', '573', '584', '588', '592', '595', '598', '602', '612', '615', '616', '617', '621', '623', '635', '641', '643', '645', '646', '647', '656', '660', '662', '667', '669', '672', '674', '678', '681', '684', '690', '695', '696', '697', '699', '700', '705', '708', '710', '719', '720', '721', '723', '738', '739', '746', '749', '757', '758', '763', '765', '767', '772', '773', '774', '779', '791', '794', '798', '799', '809', '814', '820', '835', '836', '839', '841', '847', '848', '851', '854', '857', '860', '862', '863', '867', '871', '873', '875', '878', '881', '884', '890', '892', '894', '896', '898', '911', '924', '935', '936', '943', '944', '951', '952', '955', '961', '964', '969', '971', '976', '978', '986', '988', '989', '991', '999', '1003', '1004', '1014', '1017', '1025', '1029', '1031', '1036', '1039', '1045', '1050', '1056', '1062', '1063', '1065', '1066', '1068', '1072', '1076', '1080', '1085', '1094', '1095', '1097', '1098', '1100', '1108', '1109', '1110', '1114', '1115', '1124', '1126', '1129', '1138', '1145', '1146', '1161', '1164', '1165', '1166', '1170', '1172', '1175', '1176', '1178', '1182', '1188', '1190', '1197', '1199', '1201', '1202', '1206', '1207', '1208', '1209', '1211', '1214', '1219', '1220', '1229', '1231', '1232', '1237', '1238', '1240', '1241', '1247', '1251', '1254', '1259', '1262', '1266', '1269', '1271', '1276', '1282', '1284', '1285', '1286', '1287', '1288', '1295', '1297', '1298', '1299', '1300', '1301', '1304', '1309', '1315', '1319', '1325', '1331', '1332', '1339', '1343', '1358', '1375', '1376', '1377', '1383', '1385', '1389', '1392', '1395', '1397', '1401', '1413', '1415', '1421', '1422', '1424', '1425', '1430', '1431', '1440', '1448', '1460', '1462', '1463', '1466', '1467', '1469', '1472', '1473', '1476', '1481', '1492', '1506', '1512', '1519', '1520', '1527', '1532', '1543', '1550', '1553', '1557', '1560', '1575', '1582', '1588', '1591', '1592', '1596', '1598', '1603', '1612', '1613', '1615', '1620', '1622', '1626', '1629', '1640', '1641', '1645', '1647', '1651', '1652', '1653', '1654', '1659', '1660', '1662', '1663', '1666', '1673', '1679', '1687', '1696', '1704', '1706', '1707', '1708', '1713', '1714', '1716', '1718', '1729', '1741', '1749', '1750', '1752', '1753', '1754', '1756', '1758', '1763', '1764', '1765', '1767', '1769', '1773', '1776', '1778', '1782', '1783', '1788', '1800', '1802', '1803', '1805', '1810', '1813', '1816', '1818', '1822', '1823', '1837', '1838', '1839', '1843', '1851', '1852', '1853', '1862', '1870', '1876', '1879', '1885', '1886', '1887', '1888', '1889', '1893', '1897', '1900', '1903', '1917', '1918', '1924', '1927', '1932', '1944', '1946', '1947', '1956', '1961', '1962', '1964', '1968', '1973', '1975', '1976', '1978', '1985', '1989', '1990', '1991', '1993', '1997']",True,2000,True,2,fdf07da58e,0.0,0.0,1.0
./expes/v2_2021-03-23_issda-30_2000-prng-1-w2-p2,30_issda-2000,2000,first-2000,900,45,rng,num-start-1200,1200,25726,classic,2169.9762918949127,True,,False,1.0,1.0,1.0,1,"['1', '2', '10', '11', '14', '20', '22', '23', '24', '25', '26', '28', '29', '30', '31', '32', '33', '34', '35', '37', '40', '41', '44', '46', '47', '48', '50', '51', '56', '57', '59', '61', '62', '65', '69', '72', '73', '74', '75', '77', '80', '84', '85', '86', '87', '88', '91', '92', '93', '94', '96', '97', '98', '102', '103', '104', '107', '108', '109', '120', '122', '123', '124', '127', '130', '132', '135', '137', '138', '141', '142', '144', '145', '148', '149', '150', '151', '152', '153', '154', '155', '157', '158', '159', '160', '161', '165', '170', '171', '172', '174', '175', '177', '179', '180', '181', '185', '186', '189', '191', '193', '195', '196', '197', '199', '202', '203', '205', '206', '207', '213', '215', '218', '221', '222', '223', '224', '232', '234', '235', '236', '237', '239', '242', '245', '250', '252', '253', '255', '259', '261', '264', '266', '267', '269', '270', '272', '273', '275', '276', '278', '279', '280', '281', '284', '287', '288', '289', '290', '291', '294', '296', '300', '301', '305', '316', '317', '319', '321', '323', '324', '325', '327', '328', '337', '339', '342', '347', '348', '354', '355', '360', '361', '364', '366', '367', '371', '372', '373', '375', '378', '379', '382', '384', '386', '388', '389', '390', '391', '392', '393', '398', '399', '400', '401', '403', '404', '405', '406', '407', '409', '411', '412', '415', '418', '419', '420', '424', '427', '428', '430', '431', '432', '435', '436', '437', '438', '439', '443', '447', '448', '450', '454', '459', '464', '466', '468', '471', '472', '476', '477', '479', '486', '487', '489', '491', '495', '496', '497', '498', '500', '501', '502', '503', '505', '510', '511', '514', '521', '523', '524', '525', '526', '527', '529', '530', '532', '533', '537', '546', '552', '553', '557', '558', '560', '563', '564', '565', '567', '570', '571', '573', '574', '576', '578', '580', '581', '582', '583', '586', '592', '595', '596', '601', '603', '607', '613', '617', '618', '622', '623', '624', '633', '635', '636', '637', '638', '639', '640', '646', '647', '649', '650', '654', '657', '660', '663', '669', '670', '674', '676', '677', '678', '682', '687', '690', '692', '696', '699', '700', '701', '702', '703', '704', '709', '712', '714', '719', '721', '726', '727', '728', '729', '731', '733', '736', '737', '740', '742', '745', '746', '749', '754', '756', '758', '759', '762', '765', '769', '770', '772', '773', '777', '781', '784', '786', '788', '791', '792', '795', '796', '798', '799', '800', '801', '803', '806', '808', '809', '810', '812', '814', '815', '817', '821', '823', '825', '828', '829', '830', '831', '832', '834', '836', '838', '840', '841', '842', '843', '847', '848', '852', '853', '854', '855', '859', '860', '862', '864', '874', '879', '880', '881', '883', '885', '889', '891', '895', '900', '902', '903', '905', '906', '907', '909', '911', '913', '915', '917', '923', '926', '927', '928', '929', '930', '932', '933', '934', '937', '938', '940', '947', '948', '950', '951', '953', '954', '957', '960', '961', '963', '964', '966', '967', '968', '970', '973', '974', '975', '976', '979', '982', '985', '986', '988', '989', '990', '991', '996', '998', '999', '1006', '1009', '1010', '1012', '1013', '1015', '1017', '1019', '1020', '1021', '1022', '1024', '1025', '1030', '1031', '1033', '1034', '1036', '1040', '1041', '1043', '1046', '1049', '1050', '1051', '1054', '1055', '1056', '1057', '1058', '1062', '1063', '1064', '1065', '1066', '1067', '1069', '1071', '1072', '1074', '1076', '1079', '1082', '1083', '1085', '1087', '1088', '1092', '1094', '1096', '1097', '1098', '1100', '1103', '1104', '1106', '1107', '1109', '1110', '1112', '1113', '1115', '1116', '1119', '1126', '1127', '1128', '1129', '1130', '1135', '1145', '1146', '1147', '1149', '1151', '1153', '1154', '1156', '1157', '1160', '1164', '1165', '1167', '1168', '1169', '1172', '1174', '1177', '1178', '1182', '1186', '1188', '1190', '1192', '1193', '1194', '1195', '1197', '1198', '1200', '1202', '1203', '1209', '1211', '1212', '1214', '1220', '1222', '1224', '1225', '1226', '1228', '1229', '1231', '1232', '1233', '1236', '1237', '1239', '1240', '1245', '1247', '1249', '1250', '1251', '1252', '1253', '1257', '1258', '1259', '1261', '1262', '1266', '1270', '1275', '1277', '1278', '1279', '1280', '1282', '1285', '1286', '1287', '1289', '1290', '1291', '1293', '1297', '1299', '1300', '1303', '1304', '1307', '1308', '1309', '1310', '1311', '1312', '1313', '1315', '1316', '1319', '1321', '1328', '1330', '1332', '1334', '1337', '1339', '1340', '1342', '1346', '1352', '1357', '1360', '1364', '1365', '1368', '1369', '1375', '1377', '1379', '1383', '1389', '1390', '1395', '1397', '1398', '1402', '1403', '1404', '1405', '1407', '1408', '1412', '1416', '1421', '1422', '1423', '1429', '1431', '1432', '1434', '1436', '1437', '1438', '1442', '1443', '1444', '1447', '1448', '1450', '1452', '1457', '1463', '1467', '1468', '1470', '1472', '1473', '1476', '1479', '1480', '1481', '1482', '1485', '1486', '1489', '1492', '1493', '1497', '1499', '1501', '1504', '1506', '1510', '1514', '1515', '1516', '1518', '1522', '1524', '1525', '1532', '1533', '1534', '1537', '1543', '1544', '1546', '1547', '1548', '1549', '1553', '1555', '1560', '1561', '1562', '1567', '1568', '1570', '1572', '1574', '1576', '1583', '1594', '1595', '1596', '1598', '1600', '1607', '1614', '1618', '1620', '1622', '1623', '1625', '1632', '1633', '1634', '1635', '1637', '1639', '1640', '1641', '1642', '1645', '1646', '1647', '1649', '1651', '1654', '1658', '1659', '1660', '1669', '1670', '1671', '1673', '1675', '1676', '1679', '1682', '1684', '1687', '1688', '1690', '1698', '1700', '1701', '1702', '1703', '1704', '1705', '1706', '1715', '1717', '1719', '1721', '1725', '1726', '1728', '1730', '1732', '1734', '1736', '1739', '1743', '1744', '1745', '1746', '1750', '1752', '1753', '1755', '1756', '1763', '1764', '1769', '1770', '1771', '1774', '1775', '1777', '1782', '1785', '1788', '1794', '1800', '1801', '1802', '1803', '1807', '1813', '1818', '1819', '1821', '1824', '1825', '1827', '1829', '1830', '1835', '1836', '1837', '1839', '1844', '1845', '1846', '1849', '1854', '1855', '1856', '1858', '1861', '1862', '1863', '1864', '1865', '1867', '1873', '1874', '1876', '1879', '1884', '1885', '1886', '1888', '1890', '1892', '1893', '1895', '1896', '1899', '1904', '1905', '1906', '1907', '1909', '1910', '1913', '1914', '1917', '1918', '1920', '1923', '1925', '1926', '1928', '1934', '1935', '1936', '1937', '1940', '1944', '1946', '1949', '1950', '1951', '1956', '1957', '1960', '1961', '1963', '1965', '1966', '1969', '1972', '1974', '1975', '1976', '1981', '1984', '1986', '1987', '1989', '1993', '1994', '1997']",True,2000,True,2,7ec67fbd40,0.0,0.0,1.0
