expe,clients,clients_size,clients_subset,agg_size,agg_size_pc,method,days,days_size,days_total,noise_method,time,valid,valid_sum,success,score_avg,score_min,score_max,nsols,oracle,wall_hit,wall_time,pooled,pool_size,uuid,infeasible,optimal,valid_sums
./expes/v2_2021-03-23_issda-30_2000-prng-1-w2-p2,30_issda-2000,2000,first-2000,500,25,rng,num-start-1000,1000,25726,classic,2179.4051892757416,True,,False,1.0,1.0,1.0,1,"['4', '8', '10', '15', '16', '24', '27', '32', '37', '41', '42', '44', '46', '56', '58', '59', '64', '65', '67', '68', '70', '72', '73', '74', '87', '88', '89', '91', '93', '95', '102', '103', '105', '109', '110', '113', '124', '125', '126', '130', '132', '135', '137', '140', '141', '147', '158', '164', '176', '177', '182', '199', '200', '209', '211', '214', '215', '222', '233', '244', '245', '246', '248', '249', '251', '253', '254', '255', '256', '257', '260', '262', '264', '266', '267', '268', '270', '273', '275', '279', '284', '309', '311', '320', '322', '327', '335', '347', '351', '352', '364', '366', '376', '380', '384', '391', '392', '393', '405', '407', '409', '433', '445', '447', '448', '453', '455', '456', '460', '461', '466', '475', '476', '480', '484', '487', '488', '489', '490', '491', '501', '502', '509', '515', '518', '529', '532', '537', '540', '541', '543', '547', '551', '552', '554', '555', '556', '561', '571', '572', '573', '584', '588', '592', '595', '598', '602', '612', '615', '616', '617', '621', '623', '635', '641', '643', '645', '646', '647', '656', '660', '662', '667', '669', '672', '674', '678', '681', '684', '690', '695', '696', '697', '699', '700', '705', '708', '710', '719', '720', '721', '723', '738', '739', '746', '749', '757', '758', '763', '765', '767', '772', '773', '774', '779', '791', '794', '798', '799', '809', '814', '820', '835', '836', '839', '841', '847', '848', '851', '854', '857', '860', '862', '863', '867', '871', '873', '875', '878', '881', '884', '890', '892', '894', '896', '898', '911', '924', '935', '936', '943', '944', '951', '952', '955', '961', '964', '969', '971', '976', '978', '986', '988', '989', '991', '999', '1003', '1004', '1014', '1017', '1025', '1029', '1031', '1036', '1039', '1045', '1050', '1056', '1062', '1063', '1065', '1066', '1068', '1072', '1076', '1080', '1085', '1094', '1095', '1097', '1098', '1100', '1108', '1109', '1110', '1114', '1115', '1124', '1126', '1129', '1138', '1145', '1146', '1161', '1164', '1165', '1166', '1170', '1172', '1175', '1176', '1178', '1182', '1188', '1190', '1197', '1199', '1201', '1202', '1206', '1207', '1208', '1209', '1211', '1214', '1219', '1220', '1229', '1231', '1232', '1237', '1238', '1240', '1241', '1247', '1251', '1254', '1259', '1262', '1266', '1269', '1271', '1276', '1282', '1284', '1285', '1286', '1287', '1288', '1295', '1297', '1298', '1299', '1300', '1301', '1304', '1309', '1315', '1319', '1325', '1331', '1332', '1339', '1343', '1358', '1375', '1376', '1377', '1383', '1385', '1389', '1392', '1395', '1397', '1401', '1413', '1415', '1421', '1422', '1424', '1425', '1430', '1431', '1440', '1448', '1460', '1462', '1463', '1466', '1467', '1469', '1472', '1473', '1476', '1481', '1492', '1506', '1512', '1519', '1520', '1527', '1532', '1543', '1550', '1553', '1557', '1560', '1575', '1582', '1588', '1591', '1592', '1596', '1598', '1603', '1612', '1613', '1615', '1620', '1622', '1626', '1629', '1640', '1641', '1645', '1647', '1651', '1652', '1653', '1654', '1659', '1660', '1662', '1663', '1666', '1673', '1679', '1687', '1696', '1704', '1706', '1707', '1708', '1713', '1714', '1716', '1718', '1729', '1741', '1749', '1750', '1752', '1753', '1754', '1756', '1758', '1763', '1764', '1765', '1767', '1769', '1773', '1776', '1778', '1782', '1783', '1788', '1800', '1802', '1803', '1805', '1810', '1813', '1816', '1818', '1822', '1823', '1837', '1838', '1839', '1843', '1851', '1852', '1853', '1862', '1870', '1876', '1879', '1885', '1886', '1887', '1888', '1889', '1893', '1897', '1900', '1903', '1917', '1918', '1924', '1927', '1932', '1944', '1946', '1947', '1956', '1961', '1962', '1964', '1968', '1973', '1975', '1976', '1978', '1985', '1989', '1990', '1991', '1993', '1997']",True,2000,True,2,e854a2864e,0.0,0.0,1.0
./expes/v2_2021-03-23_issda-30_2000-prng-1-w2-p2,30_issda-2000,2000,first-2000,1000,50,rng,num-start-1600,1600,25726,classic,1370.4245173931122,True,,True,1.0,1.0,1.0,1,"['6', '8', '10', '11', '13', '14', '16', '17', '19', '23', '24', '25', '27', '28', '31', '32', '33', '35', '36', '37', '39', '40', '44', '46', '48', '49', '59', '60', '63', '64', '65', '70', '75', '77', '78', '80', '82', '83', '85', '87', '89', '91', '95', '98', '99', '100', '105', '108', '109', '110', '112', '113', '115', '116', '121', '122', '124', '125', '127', '128', '132', '133', '134', '135', '138', '139', '141', '145', '146', '149', '150', '151', '152', '156', '157', '158', '160', '161', '162', '166', '168', '171', '174', '176', '181', '183', '187', '189', '190', '193', '196', '198', '202', '204', '205', '206', '210', '213', '214', '220', '222', '223', '228', '231', '232', '237', '239', '240', '247', '248', '249', '252', '256', '258', '261', '263', '264', '267', '270', '271', '272', '273', '274', '279', '282', '283', '285', '288', '292', '293', '295', '296', '297', '298', '301', '302', '303', '306', '308', '309', '311', '312', '314', '315', '318', '319', '321', '322', '323', '324', '325', '328', '330', '331', '333', '335', '337', '338', '341', '344', '345', '347', '348', '349', '351', '353', '354', '355', '356', '357', '358', '359', '361', '366', '367', '368', '372', '376', '377', '378', '379', '383', '384', '385', '392', '393', '401', '402', '403', '405', '409', '410', '411', '418', '421', '423', '428', '429', '430', '433', '434', '435', '436', '438', '440', '441', '444', '446', '448', '449', '450', '451', '452', '453', '454', '455', '456', '458', '462', '463', '465', '467', '469', '470', '471', '474', '475', '476', '477', '478', '479', '481', '482', '483', '485', '486', '488', '489', '490', '491', '492', '493', '494', '497', '500', '505', '507', '511', '514', '515', '516', '518', '519', '521', '522', '523', '524', '525', '526', '529', '531', '533', '535', '536', '537', '540', '541', '545', '548', '553', '556', '557', '558', '560', '562', '566', '568', '569', '573', '575', '577', '581', '583', '587', '588', '589', '593', '594', '595', '605', '606', '607', '608', '609', '612', '613', '617', '618', '620', '623', '625', '626', '628', '635', '636', '638', '639', '642', '644', '645', '646', '647', '649', '650', '651', '652', '653', '655', '657', '659', '660', '661', '663', '666', '667', '669', '674', '676', '677', '678', '679', '680', '681', '682', '683', '684', '685', '686', '688', '689', '691', '692', '693', '694', '697', '702', '704', '705', '706', '712', '713', '714', '715', '719', '721', '722', '723', '724', '725', '726', '728', '729', '732', '735', '736', '738', '740', '742', '743', '744', '750', '752', '753', '754', '755', '756', '758', '760', '762', '763', '764', '765', '766', '768', '769', '770', '771', '775', '776', '778', '780', '781', '789', '793', '795', '796', '797', '799', '800', '801', '804', '807', '810', '814', '815', '818', '819', '822', '823', '825', '828', '829', '830', '831', '832', '834', '835', '836', '844', '847', '849', '852', '853', '855', '857', '860', '862', '864', '866', '867', '868', '870', '873', '874', '875', '878', '883', '886', '887', '888', '889', '890', '894', '895', '896', '898', '900', '901', '903', '905', '906', '907', '909', '910', '912', '913', '919', '920', '922', '923', '924', '926', '929', '931', '933', '938', '939', '941', '942', '943', '944', '945', '946', '947', '951', '955', '956', '957', '958', '959', '960', '963', '964', '970', '971', '972', '974', '976', '977', '980', '981', '983', '986', '987', '988', '989', '990', '992', '994', '995', '1003', '1005', '1006', '1008', '1009', '1011', '1012', '1014', '1015', '1017', '1019', '1020', '1021', '1022', '1024', '1025', '1027', '1029', '1033', '1035', '1036', '1037', '1038', '1039', '1040', '1041', '1046', '1047', '1048', '1050', '1052', '1056', '1057', '1058', '1059', '1060', '1061', '1062', '1064', '1065', '1066', '1067', '1068', '1071', '1075', '1077', '1082', '1085', '1086', '1089', '1092', '1094', '1097', '1098', '1100', '1103', '1104', '1110', '1114', '1115', '1118', '1119', '1121', '1122', '1124', '1127', '1130', '1134', '1135', '1137', '1141', '1144', '1147', '1149', '1157', '1158', '1160', '1161', '1162', '1164', '1167', '1168', '1169', '1170', '1171', '1172', '1176', '1178', '1180', '1183', '1184', '1186', '1187', '1188', '1190', '1191', '1193', '1196', '1197', '1199', '1202', '1203', '1204', '1209', '1216', '1220', '1221', '1222', '1225', '1227', '1230', '1236', '1237', '1238', '1239', '1240', '1242', '1245', '1246', '1250', '1251', '1253', '1254', '1257', '1258', '1260', '1261', '1263', '1265', '1267', '1270', '1271', '1273', '1275', '1277', '1280', '1283', '1285', '1286', '1287', '1288', '1293', '1295', '1296', '1300', '1302', '1303', '1306', '1307', '1311', '1314', '1316', '1317', '1318', '1319', '1322', '1323', '1324', '1325', '1326', '1328', '1329', '1330', '1336', '1341', '1342', '1343', '1344', '1345', '1346', '1348', '1349', '1350', '1352', '1357', '1358', '1362', '1363', '1370', '1371', '1375', '1376', '1379', '1386', '1387', '1388', '1390', '1391', '1392', '1393', '1394', '1396', '1398', '1399', '1402', '1404', '1410', '1411', '1412', '1414', '1415', '1417', '1419', '1420', '1422', '1423', '1425', '1426', '1427', '1428', '1435', '1436', '1438', '1445', '1447', '1450', '1451', '1452', '1454', '1455', '1456', '1457', '1459', '1461', '1465', '1472', '1473', '1475', '1476', '1477', '1478', '1482', '1483', '1486', '1488', '1489', '1493', '1496', '1499', '1505', '1506', '1508', '1511', '1512', '1513', '1515', '1516', '1518', '1519', '1520', '1522', '1524', '1526', '1527', '1528', '1534', '1535', '1537', '1538', '1539', '1541', '1542', '1543', '1544', '1546', '1547', '1549', '1551', '1552', '1554', '1557', '1558', '1561', '1568', '1572', '1573', '1574', '1576', '1581', '1582', '1583', '1585', '1586', '1589', '1590', '1591', '1592', '1593', '1595', '1600', '1601', '1602', '1604', '1605', '1606', '1608', '1613', '1614', '1615', '1616', '1623', '1625', '1627', '1629', '1631', '1632', '1633', '1634', '1636', '1637', '1639', '1640', '1641', '1645', '1646', '1647', '1648', '1649', '1650', '1651', '1653', '1655', '1656', '1658', '1659', '1660', '1662', '1663', '1664', '1667', '1671', '1672', '1681', '1683', '1684', '1686', '1690', '1693', '1694', '1695', '1701', '1702', '1705', '1706', '1707', '1708', '1709', '1711', '1713', '1716', '1717', '1718', '1721', '1722', '1724', '1726', '1728', '1729', '1731', '1732', '1735', '1736', '1737', '1738', '1741', '1743', '1744', '1745', '1747', '1748', '1749', '1751', '1752', '1753', '1756', '1757', '1763', '1768', '1769', '1773', '1776', '1777', '1780', '1781', '1782', '1783', '1784', '1785', '1786', '1787', '1788', '1791', '1792', '1793', '1797', '1800', '1801', '1802', '1804', '1806', '1809', '1812', '1813', '1815', '1816', '1817', '1818', '1823', '1824', '1827', '1829', '1830', '1831', '1833', '1835', '1836', '1841', '1842', '1847', '1848', '1849', '1850', '1851', '1854', '1857', '1858', '1859', '1862', '1863', '1867', '1870', '1874', '1875', '1877', '1880', '1884', '1886', '1888', '1889', '1890', '1891', '1893', '1894', '1895', '1896', '1899', '1900', '1901', '1906', '1908', '1911', '1913', '1914', '1915', '1916', '1917', '1918', '1922', '1926', '1927', '1928', '1930', '1931', '1932', '1935', '1936', '1938', '1940', '1942', '1945', '1946', '1947', '1948', '1949', '1950', '1951', '1952', '1953', '1954', '1955', '1958', '1959', '1960', '1964', '1965', '1967', '1971', '1973', '1977', '1979', '1980', '1981', '1982', '1983', '1984', '1985', '1987', '1992', '1998', '2000']",False,2000,True,2,ff54323b0e,0.0,1.0,1.0
./expes/v2_2021-03-23_issda-30_2000-prng-1-w2-p2,30_issda-2000,2000,first-2000,500,25,rng,num-start-1600,1600,25726,classic,1064.4993650913239,True,,True,1.0,1.0,1.0,1,"['12', '13', '14', '18', '23', '27', '30', '36', '38', '43', '47', '60', '73', '76', '94', '113', '115', '120', '125', '130', '133', '136', '137', '141', '147', '156', '157', '162', '171', '172', '179', '181', '182', '184', '185', '190', '192', '208', '218', '220', '236', '239', '242', '252', '258', '259', '265', '267', '270', '273', '280', '281', '287', '294', '297', '298', '300', '303', '308', '309', '310', '312', '314', '329', '331', '333', '334', '335', '342', '344', '347', '350', '353', '358', '361', '362', '366', '372', '374', '375', '386', '387', '389', '390', '402', '406', '409', '411', '413', '414', '415', '418', '424', '428', '430', '433', '436', '438', '440', '442', '443', '449', '452', '461', '472', '473', '479', '481', '484', '487', '491', '495', '497', '505', '511', '512', '520', '525', '528', '530', '531', '532', '533', '538', '540', '542', '543', '547', '550', '553', '555', '558', '560', '561', '562', '564', '565', '575', '577', '582', '583', '588', '592', '599', '606', '609', '612', '613', '615', '618', '621', '623', '632', '644', '646', '659', '660', '661', '664', '665', '671', '673', '675', '681', '685', '686', '688', '694', '696', '698', '702', '707', '709', '712', '716', '718', '722', '730', '733', '738', '739', '745', '748', '749', '754', '755', '764', '766', '767', '775', '780', '790', '802', '806', '813', '814', '820', '824', '826', '828', '829', '831', '832', '834', '836', '839', '844', '850', '851', '853', '855', '856', '865', '868', '870', '874', '883', '888', '889', '890', '895', '897', '911', '915', '920', '930', '931', '933', '939', '940', '942', '953', '955', '958', '962', '967', '973', '978', '979', '980', '983', '984', '997', '1003', '1006', '1007', '1010', '1012', '1016', '1023', '1026', '1038', '1039', '1040', '1043', '1049', '1051', '1052', '1054', '1064', '1066', '1069', '1070', '1073', '1078', '1079', '1085', '1086', '1091', '1095', '1102', '1104', '1107', '1109', '1114', '1116', '1117', '1124', '1130', '1131', '1133', '1140', '1143', '1144', '1145', '1149', '1158', '1164', '1166', '1171', '1173', '1174', '1176', '1179', '1183', '1186', '1194', '1198', '1203', '1206', '1207', '1216', '1229', '1235', '1242', '1244', '1251', '1252', '1254', '1255', '1258', '1260', '1261', '1267', '1281', '1287', '1289', '1290', '1293', '1304', '1308', '1309', '1322', '1325', '1326', '1327', '1328', '1336', '1344', '1346', '1347', '1354', '1355', '1372', '1378', '1381', '1383', '1385', '1386', '1388', '1393', '1396', '1401', '1402', '1406', '1408', '1412', '1414', '1417', '1419', '1422', '1431', '1432', '1438', '1444', '1446', '1449', '1451', '1452', '1453', '1454', '1461', '1462', '1467', '1469', '1474', '1480', '1489', '1490', '1496', '1505', '1506', '1507', '1508', '1513', '1519', '1522', '1526', '1529', '1533', '1538', '1549', '1550', '1552', '1553', '1554', '1556', '1557', '1562', '1574', '1575', '1578', '1579', '1581', '1584', '1587', '1589', '1593', '1594', '1595', '1598', '1605', '1607', '1613', '1620', '1622', '1623', '1625', '1626', '1627', '1632', '1639', '1644', '1652', '1654', '1657', '1660', '1662', '1663', '1666', '1668', '1674', '1676', '1688', '1691', '1692', '1695', '1697', '1700', '1705', '1706', '1708', '1711', '1712', '1713', '1719', '1720', '1726', '1728', '1729', '1733', '1736', '1746', '1749', '1758', '1760', '1762', '1766', '1769', '1774', '1777', '1780', '1783', '1789', '1791', '1792', '1795', '1811', '1814', '1817', '1818', '1825', '1826', '1827', '1834', '1841', '1842', '1854', '1858', '1865', '1869', '1871', '1880', '1891', '1895', '1896', '1899', '1900', '1904', '1905', '1910', '1916', '1919', '1931', '1934', '1935', '1936', '1938', '1946', '1950', '1951', '1961', '1962', '1980', '1981', '1985', '1987', '1993', '1994', '1999']",False,2000,True,2,714ec20971,0.0,1.0,1.0
./expes/v2_2021-03-23_issda-30_2000-prng-1-w2-p2,30_issda-2000,2000,first-2000,1000,50,rng,num-start-2400,2400,25726,classic,1883.7535934448242,True,,True,1.0,1.0,1.0,1,"['1', '2', '3', '4', '6', '7', '11', '13', '19', '21', '24', '26', '27', '28', '30', '34', '35', '36', '38', '39', '41', '42', '45', '46', '47', '49', '52', '53', '55', '56', '57', '58', '60', '61', '66', '68', '69', '70', '71', '74', '75', '76', '78', '81', '82', '86', '90', '93', '96', '97', '99', '100', '101', '104', '106', '107', '108', '110', '111', '115', '117', '118', '121', '124', '125', '126', '128', '129', '130', '131', '134', '136', '137', '138', '141', '146', '148', '155', '158', '160', '161', '162', '166', '168', '172', '173', '175', '178', '179', '180', '181', '183', '187', '188', '189', '193', '195', '196', '199', '202', '203', '205', '209', '213', '219', '221', '222', '224', '226', '227', '228', '231', '232', '236', '237', '238', '242', '243', '244', '248', '250', '251', '253', '256', '257', '259', '260', '265', '266', '267', '268', '269', '270', '271', '272', '273', '274', '276', '280', '282', '284', '285', '287', '289', '290', '291', '292', '293', '294', '295', '299', '301', '304', '305', '306', '307', '309', '310', '312', '315', '317', '320', '322', '326', '327', '328', '329', '331', '332', '335', '339', '340', '341', '343', '346', '347', '348', '351', '352', '354', '360', '361', '364', '365', '366', '368', '369', '370', '371', '372', '373', '375', '378', '379', '380', '382', '386', '392', '393', '397', '399', '401', '403', '404', '407', '408', '409', '410', '412', '413', '415', '419', '420', '424', '425', '426', '427', '428', '429', '434', '436', '437', '440', '441', '442', '444', '449', '452', '457', '459', '464', '468', '472', '473', '474', '479', '481', '482', '483', '486', '487', '488', '489', '490', '492', '493', '495', '499', '502', '503', '504', '505', '509', '510', '511', '513', '514', '515', '517', '521', '524', '525', '529', '533', '538', '540', '541', '543', '548', '549', '550', '555', '558', '561', '562', '563', '565', '568', '569', '571', '573', '574', '576', '577', '579', '580', '581', '582', '585', '586', '587', '588', '592', '593', '594', '595', '597', '600', '601', '602', '604', '605', '606', '607', '608', '612', '616', '617', '618', '620', '622', '626', '627', '628', '629', '630', '634', '635', '637', '639', '640', '641', '643', '645', '647', '648', '649', '650', '651', '654', '658', '659', '662', '663', '664', '665', '667', '668', '677', '678', '680', '683', '685', '689', '693', '694', '696', '697', '698', '700', '701', '705', '706', '708', '713', '714', '715', '716', '717', '718', '720', '721', '724', '726', '727', '728', '729', '731', '732', '733', '734', '735', '740', '741', '742', '743', '744', '745', '746', '747', '750', '751', '753', '756', '757', '761', '762', '764', '766', '767', '768', '770', '771', '772', '773', '775', '777', '778', '779', '780', '782', '783', '784', '785', '787', '788', '790', '791', '792', '797', '798', '799', '800', '803', '804', '805', '806', '811', '814', '817', '818', '821', '822', '825', '827', '828', '830', '831', '832', '835', '836', '837', '839', '840', '841', '847', '848', '850', '851', '854', '858', '859', '860', '862', '864', '867', '868', '872', '875', '876', '878', '879', '880', '882', '885', '887', '888', '890', '893', '897', '904', '905', '906', '909', '912', '914', '920', '922', '928', '929', '930', '934', '936', '945', '946', '947', '948', '949', '951', '953', '954', '958', '959', '961', '962', '963', '966', '967', '968', '970', '972', '973', '975', '976', '977', '978', '980', '982', '983', '984', '985', '986', '987', '988', '989', '990', '991', '995', '997', '1000', '1003', '1004', '1006', '1007', '1008', '1009', '1011', '1013', '1017', '1019', '1020', '1023', '1025', '1027', '1030', '1036', '1038', '1042', '1049', '1050', '1051', '1052', '1056', '1057', '1058', '1059', '1060', '1062', '1063', '1070', '1075', '1081', '1083', '1085', '1086', '1087', '1089', '1090', '1091', '1093', '1094', '1100', '1102', '1103', '1105', '1106', '1109', '1110', '1111', '1114', '1115', '1117', '1118', '1121', '1123', '1124', '1125', '1127', '1130', '1131', '1133', '1134', '1136', '1137', '1138', '1139', '1142', '1146', '1148', '1151', '1152', '1155', '1156', '1158', '1159', '1165', '1170', '1171', '1174', '1175', '1176', '1178', '1179', '1182', '1185', '1187', '1189', '1190', '1193', '1197', '1200', '1201', '1202', '1204', '1208', '1209', '1210', '1214', '1216', '1217', '1219', '1221', '1222', '1226', '1230', '1231', '1236', '1237', '1240', '1241', '1246', '1247', '1250', '1251', '1252', '1253', '1254', '1257', '1259', '1260', '1264', '1265', '1266', '1269', '1271', '1272', '1274', '1275', '1276', '1277', '1278', '1279', '1280', '1281', '1282', '1284', '1285', '1290', '1292', '1293', '1295', '1305', '1308', '1312', '1316', '1320', '1321', '1323', '1326', '1327', '1328', '1329', '1330', '1331', '1332', '1334', '1336', '1338', '1339', '1340', '1342', '1343', '1344', '1345', '1352', '1353', '1355', '1356', '1357', '1359', '1360', '1363', '1364', '1365', '1368', '1369', '1370', '1373', '1374', '1375', '1376', '1377', '1380', '1382', '1385', '1388', '1389', '1392', '1394', '1395', '1396', '1397', '1398', '1399', '1404', '1405', '1408', '1409', '1410', '1411', '1412', '1415', '1417', '1419', '1423', '1424', '1425', '1427', '1428', '1429', '1435', '1437', '1439', '1441', '1443', '1444', '1445', '1446', '1448', '1450', '1451', '1453', '1460', '1461', '1464', '1465', '1467', '1468', '1470', '1471', '1472', '1474', '1475', '1476', '1477', '1478', '1480', '1481', '1485', '1487', '1488', '1489', '1491', '1494', '1495', '1496', '1498', '1499', '1500', '1501', '1509', '1512', '1513', '1514', '1516', '1517', '1518', '1520', '1521', '1523', '1526', '1527', '1533', '1536', '1537', '1538', '1539', '1541', '1543', '1544', '1547', '1548', '1549', '1553', '1555', '1556', '1558', '1561', '1565', '1566', '1567', '1569', '1572', '1574', '1576', '1577', '1582', '1585', '1587', '1589', '1590', '1595', '1596', '1598', '1599', '1600', '1601', '1602', '1609', '1610', '1614', '1620', '1622', '1627', '1628', '1629', '1631', '1632', '1633', '1634', '1636', '1640', '1641', '1642', '1643', '1645', '1648', '1650', '1654', '1655', '1657', '1663', '1664', '1665', '1666', '1668', '1671', '1673', '1675', '1677', '1679', '1681', '1682', '1683', '1684', '1689', '1693', '1694', '1697', '1700', '1703', '1704', '1706', '1707', '1711', '1712', '1713', '1714', '1715', '1717', '1718', '1721', '1722', '1723', '1724', '1725', '1727', '1729', '1731', '1738', '1739', '1741', '1742', '1745', '1746', '1749', '1751', '1753', '1755', '1759', '1761', '1768', '1769', '1775', '1776', '1777', '1778', '1779', '1780', '1782', '1785', '1787', '1793', '1795', '1796', '1800', '1803', '1804', '1806', '1808', '1814', '1817', '1819', '1821', '1822', '1823', '1826', '1827', '1829', '1830', '1831', '1833', '1836', '1837', '1838', '1841', '1843', '1844', '1846', '1848', '1850', '1861', '1862', '1865', '1866', '1867', '1868', '1870', '1872', '1874', '1877', '1878', '1881', '1886', '1887', '1888', '1889', '1892', '1893', '1894', '1899', '1903', '1904', '1906', '1910', '1915', '1916', '1917', '1918', '1920', '1921', '1923', '1924', '1925', '1926', '1927', '1928', '1930', '1931', '1932', '1935', '1936', '1937', '1945', '1946', '1947', '1948', '1949', '1950', '1951', '1953', '1955', '1956', '1957', '1959', '1960', '1961', '1963', '1966', '1967', '1968', '1969', '1970', '1973', '1976', '1977', '1980', '1982', '1983', '1984', '1985', '1986', '1990', '1992', '1993', '1994', '1997', '1998', '1999', '2000']",False,2000,True,2,2936cf319b,0.0,1.0,1.0
./expes/v2_2021-03-23_issda-30_2000-prng-1-w2-p2,30_issda-2000,2000,first-2000,100,5,rng,num-start-400,400,25726,classic,356.95805764198303,True,,True,1.0,1.0,1.0,1,"['14', '208', '236', '242', '252', '270', '298', '329', '347', '358', '372', '375', '389', '402', '406', '411', '413', '414', '424', '443', '452', '481', '487', '491', '520', '542', '543', '553', '558', '577', '606', '613', '621', '665', '686', '702', '709', '749', '831', '832', '834', '895', '920', '939', '978', '983', '984', '1003', '1012', '1016', '1026', '1040', '1052', '1070', '1079', '1102', '1131', '1164', '1174', '1176', '1179', '1206', '1216', '1229', '1287', '1293', '1326', '1355', '1383', '1388', '1401', '1406', '1417', '1444', '1452', '1467', '1490', '1505', '1549', '1562', '1581', '1613', '1625', '1627', '1652', '1660', '1662', '1691', '1712', '1774', '1789', '1817', '1827', '1842', '1869', '1891', '1934', '1950', '1981', '1999']",False,2000,True,2,db33a632f7,0.0,1.0,1.0
./expes/v2_2021-03-23_issda-30_2000-prng-1-w2-p2,30_issda-2000,2000,first-2000,100,5,rng,num-start-800,800,25726,classic,1235.5064463615417,True,,True,1.0,1.0,1.0,1,"['1', '45', '59', '76', '94', '166', '181', '184', '191', '193', '200', '240', '245', '299', '396', '397', '404', '406', '408', '412', '502', '513', '536', '544', '559', '597', '624', '655', '688', '732', '739', '741', '742', '765', '840', '848', '870', '881', '912', '964', '994', '997', '1002', '1025', '1032', '1055', '1076', '1103', '1105', '1134', '1154', '1176', '1180', '1202', '1206', '1207', '1233', '1250', '1298', '1301', '1321', '1343', '1358', '1390', '1397', '1405', '1430', '1433', '1436', '1493', '1495', '1505', '1548', '1556', '1562', '1578', '1625', '1632', '1639', '1643', '1646', '1649', '1650', '1684', '1696', '1706', '1730', '1787', '1803', '1828', '1849', '1863', '1865', '1870', '1877', '1911', '1949', '1978', '1987', '2000']",False,2000,True,2,71b0c681f2,0.0,1.0,1.0
./expes/v2_2021-03-23_issda-30_2000-prng-1-w2-p2,30_issda-2000,2000,first-2000,800,40,rng,num-start-3600,3600,25726,classic,2632.814292192459,True,,False,1.0,1.0,1.0,1,"['1', '2', '4', '6', '7', '11', '13', '19', '21', '24', '27', '28', '30', '34', '38', '39', '41', '45', '47', '49', '52', '53', '55', '57', '60', '61', '66', '68', '69', '71', '74', '75', '76', '78', '81', '82', '86', '90', '93', '96', '99', '100', '101', '104', '106', '107', '110', '111', '115', '117', '118', '121', '124', '125', '129', '130', '134', '136', '137', '138', '141', '146', '148', '161', '162', '166', '172', '173', '175', '178', '183', '187', '188', '189', '193', '195', '199', '205', '209', '219', '221', '222', '226', '227', '228', '231', '232', '236', '238', '242', '243', '244', '250', '251', '253', '256', '259', '260', '265', '268', '269', '271', '272', '273', '274', '276', '280', '284', '285', '287', '289', '290', '291', '292', '293', '294', '299', '301', '304', '305', '306', '307', '309', '310', '312', '315', '317', '320', '322', '326', '327', '328', '331', '335', '339', '340', '341', '346', '347', '348', '352', '354', '360', '361', '364', '366', '368', '369', '370', '371', '372', '373', '375', '378', '379', '380', '382', '386', '392', '393', '397', '399', '401', '403', '404', '407', '408', '412', '415', '419', '420', '425', '427', '428', '429', '434', '437', '441', '442', '444', '449', '452', '457', '464', '472', '473', '479', '481', '482', '483', '486', '487', '488', '489', '492', '493', '499', '503', '504', '505', '511', '513', '514', '515', '517', '521', '524', '525', '533', '540', '541', '543', '548', '549', '555', '558', '561', '562', '565', '569', '571', '573', '574', '576', '579', '580', '581', '586', '587', '588', '592', '593', '594', '595', '597', '600', '601', '602', '604', '605', '606', '607', '608', '612', '616', '617', '618', '620', '622', '627', '628', '630', '634', '635', '637', '639', '640', '643', '645', '647', '648', '649', '650', '651', '654', '663', '665', '667', '668', '678', '680', '683', '685', '689', '693', '694', '696', '697', '698', '700', '705', '706', '708', '713', '714', '715', '717', '718', '720', '721', '724', '726', '727', '728', '729', '731', '733', '734', '735', '740', '741', '742', '743', '745', '746', '747', '750', '753', '756', '757', '761', '762', '764', '766', '767', '768', '770', '771', '773', '775', '777', '778', '779', '780', '783', '784', '785', '787', '788', '790', '791', '797', '798', '799', '803', '804', '811', '814', '817', '822', '825', '827', '828', '830', '831', '832', '835', '836', '837', '839', '840', '841', '848', '850', '851', '854', '858', '859', '862', '864', '872', '875', '876', '878', '880', '882', '885', '887', '888', '890', '897', '904', '909', '912', '914', '922', '928', '929', '930', '934', '936', '946', '947', '948', '949', '951', '953', '954', '958', '959', '961', '962', '963', '966', '967', '968', '972', '973', '975', '977', '978', '980', '982', '983', '984', '985', '986', '987', '988', '989', '991', '995', '997', '1000', '1003', '1004', '1006', '1007', '1008', '1009', '1011', '1017', '1019', '1020', '1023', '1025', '1030', '1036', '1038', '1042', '1050', '1051', '1056', '1058', '1059', '1060', '1062', '1063', '1070', '1075', '1085', '1086', '1087', '1089', '1090', '1091', '1093', '1102', '1103', '1105', '1109', '1110', '1111', '1114', '1117', '1118', '1121', '1123', '1124', '1125', '1127', '1130', '1131', '1133', '1134', '1137', '1138', '1146', '1148', '1155', '1156', '1158', '1159', '1165', '1170', '1174', '1175', '1176', '1178', '1179', '1185', '1190', '1193', '1200', '1201', '1202', '1204', '1208', '1209', '1210', '1214', '1217', '1219', '1221', '1230', '1231', '1236', '1237', '1246', '1247', '1251', '1253', '1257', '1259', '1260', '1264', '1265', '1266', '1269', '1271', '1272', '1274', '1275', '1276', '1278', '1279', '1280', '1282', '1284', '1285', '1290', '1292', '1293', '1295', '1305', '1308', '1312', '1316', '1320', '1321', '1323', '1326', '1327', '1328', '1329', '1330', '1331', '1332', '1334', '1336', '1339', '1342', '1344', '1345', '1352', '1353', '1355', '1356', '1357', '1360', '1363', '1364', '1368', '1369', '1370', '1374', '1376', '1377', '1380', '1382', '1389', '1394', '1395', '1396', '1397', '1398', '1399', '1404', '1405', '1408', '1409', '1410', '1411', '1412', '1415', '1417', '1423', '1424', '1425', '1427', '1429', '1437', '1439', '1443', '1444', '1445', '1446', '1448', '1450', '1451', '1460', '1461', '1464', '1467', '1468', '1471', '1472', '1474', '1475', '1476', '1477', '1478', '1480', '1481', '1485', '1488', '1494', '1495', '1496', '1498', '1499', '1500', '1501', '1509', '1512', '1516', '1517', '1518', '1520', '1521', '1523', '1526', '1527', '1533', '1536', '1537', '1538', '1541', '1548', '1553', '1555', '1556', '1558', '1561', '1569', '1577', '1585', '1587', '1589', '1590', '1595', '1596', '1599', '1600', '1601', '1602', '1609', '1610', '1614', '1620', '1622', '1627', '1629', '1631', '1632', '1633', '1634', '1636', '1642', '1643', '1645', '1648', '1654', '1655', '1663', '1665', '1666', '1673', '1675', '1677', '1679', '1681', '1682', '1684', '1689', '1693', '1694', '1697', '1700', '1703', '1706', '1707', '1711', '1712', '1713', '1714', '1715', '1718', '1722', '1723', '1724', '1725', '1727', '1729', '1731', '1738', '1739', '1745', '1746', '1749', '1751', '1753', '1759', '1761', '1769', '1775', '1776', '1777', '1778', '1779', '1780', '1782', '1785', '1787', '1793', '1795', '1796', '1800', '1803', '1804', '1819', '1821', '1822', '1823', '1826', '1827', '1829', '1830', '1831', '1833', '1836', '1837', '1841', '1846', '1848', '1850', '1865', '1866', '1867', '1868', '1872', '1874', '1877', '1878', '1881', '1888', '1889', '1892', '1893', '1894', '1899', '1904', '1906', '1915', '1916', '1917', '1918', '1920', '1921', '1923', '1924', '1925', '1927', '1928', '1930', '1931', '1932', '1935', '1936', '1937', '1945', '1946', '1948', '1950', '1951', '1953', '1955', '1957', '1959', '1960', '1961', '1963', '1966', '1967', '1968', '1969', '1970', '1973', '1976', '1977', '1980', '1983', '1984', '1990', '1992', '1993', '1994', '1998', '1999', '2000']",True,2000,True,2,f4fd3a4370,0.0,0.0,1.0
./expes/v2_2021-03-23_issda-30_2000-prng-1-w2-p2,30_issda-2000,2000,first-2000,1000,50,rng,num-start-2200,2200,25726,classic,1561.798706293106,True,,True,1.0,1.0,1.0,1,"['1', '7', '10', '11', '12', '15', '16', '17', '18', '19', '20', '22', '24', '25', '32', '35', '37', '38', '40', '43', '49', '52', '54', '55', '56', '57', '59', '61', '62', '63', '64', '67', '69', '70', '73', '74', '76', '77', '80', '83', '84', '90', '94', '97', '101', '102', '103', '104', '105', '106', '107', '108', '110', '111', '113', '114', '116', '117', '118', '120', '123', '124', '128', '131', '132', '135', '138', '142', '145', '146', '147', '150', '151', '152', '154', '158', '159', '162', '163', '166', '168', '171', '174', '175', '178', '179', '180', '182', '183', '184', '189', '191', '192', '193', '196', '197', '201', '202', '203', '204', '206', '208', '210', '213', '214', '216', '217', '218', '221', '222', '225', '226', '227', '230', '232', '233', '234', '236', '238', '240', '241', '250', '251', '252', '253', '255', '256', '257', '261', '263', '264', '265', '266', '269', '272', '273', '277', '281', '282', '284', '287', '288', '289', '291', '293', '294', '295', '301', '305', '307', '308', '309', '310', '311', '314', '316', '318', '319', '322', '331', '332', '333', '334', '335', '336', '337', '338', '340', '342', '344', '346', '347', '349', '350', '353', '354', '355', '356', '357', '358', '359', '367', '372', '376', '377', '383', '386', '387', '388', '392', '393', '394', '395', '396', '401', '402', '403', '404', '405', '407', '408', '409', '411', '415', '416', '417', '418', '420', '427', '430', '431', '433', '434', '435', '437', '438', '439', '443', '444', '446', '448', '450', '452', '453', '455', '456', '457', '461', '464', '466', '467', '470', '472', '474', '475', '478', '479', '483', '484', '486', '489', '490', '496', '497', '499', '500', '507', '508', '509', '510', '511', '512', '513', '514', '515', '517', '523', '526', '527', '528', '529', '531', '532', '533', '535', '536', '538', '540', '541', '542', '543', '544', '545', '548', '549', '550', '552', '554', '559', '560', '561', '563', '565', '566', '570', '574', '577', '581', '582', '584', '585', '586', '587', '591', '592', '594', '597', '599', '601', '602', '603', '604', '605', '607', '608', '609', '613', '614', '616', '618', '619', '620', '621', '622', '623', '625', '628', '630', '631', '632', '633', '634', '635', '636', '638', '639', '642', '645', '647', '648', '650', '651', '652', '654', '655', '658', '659', '660', '662', '663', '664', '666', '667', '669', '670', '674', '675', '677', '678', '679', '681', '684', '685', '686', '687', '689', '691', '695', '696', '698', '703', '711', '712', '713', '714', '720', '721', '726', '727', '728', '729', '731', '733', '734', '737', '741', '743', '746', '748', '749', '752', '753', '754', '757', '758', '759', '762', '763', '768', '769', '770', '775', '776', '778', '781', '783', '784', '786', '787', '791', '792', '794', '796', '801', '802', '803', '805', '807', '817', '820', '823', '826', '827', '828', '829', '830', '831', '833', '834', '836', '837', '838', '840', '842', '846', '848', '849', '850', '854', '858', '859', '860', '862', '865', '866', '867', '875', '876', '877', '878', '882', '884', '887', '889', '893', '894', '895', '896', '897', '901', '904', '905', '907', '908', '912', '913', '915', '916', '920', '921', '924', '926', '927', '928', '930', '933', '935', '936', '940', '941', '942', '945', '948', '950', '952', '954', '957', '958', '959', '962', '965', '967', '969', '970', '971', '972', '973', '974', '975', '978', '981', '984', '987', '989', '990', '991', '992', '994', '996', '997', '998', '1001', '1002', '1003', '1008', '1009', '1010', '1011', '1012', '1013', '1016', '1018', '1021', '1025', '1026', '1027', '1028', '1029', '1033', '1034', '1037', '1038', '1039', '1040', '1042', '1047', '1050', '1051', '1053', '1054', '1056', '1057', '1060', '1061', '1063', '1064', '1065', '1068', '1069', '1070', '1072', '1075', '1076', '1077', '1080', '1082', '1083', '1087', '1088', '1089', '1090', '1091', '1092', '1095', '1096', '1099', '1100', '1103', '1104', '1105', '1106', '1107', '1109', '1111', '1113', '1114', '1115', '1116', '1121', '1122', '1126', '1129', '1131', '1132', '1133', '1134', '1135', '1138', '1139', '1141', '1143', '1145', '1146', '1147', '1151', '1153', '1154', '1155', '1156', '1161', '1164', '1166', '1167', '1171', '1172', '1176', '1178', '1180', '1182', '1184', '1185', '1188', '1189', '1190', '1191', '1192', '1193', '1197', '1200', '1201', '1202', '1209', '1211', '1212', '1213', '1215', '1218', '1226', '1227', '1228', '1229', '1231', '1234', '1237', '1238', '1241', '1243', '1245', '1247', '1250', '1252', '1253', '1254', '1255', '1256', '1257', '1258', '1259', '1261', '1262', '1264', '1265', '1267', '1271', '1272', '1280', '1281', '1282', '1283', '1284', '1288', '1294', '1295', '1296', '1297', '1298', '1299', '1300', '1302', '1304', '1307', '1309', '1312', '1315', '1320', '1324', '1325', '1326', '1327', '1329', '1330', '1332', '1333', '1339', '1340', '1345', '1347', '1348', '1349', '1350', '1353', '1355', '1359', '1365', '1367', '1369', '1381', '1383', '1386', '1388', '1390', '1393', '1395', '1398', '1399', '1402', '1403', '1404', '1405', '1412', '1413', '1416', '1419', '1422', '1423', '1433', '1434', '1435', '1437', '1438', '1440', '1442', '1443', '1445', '1446', '1447', '1449', '1453', '1455', '1456', '1458', '1459', '1460', '1462', '1464', '1465', '1466', '1472', '1476', '1478', '1481', '1482', '1484', '1485', '1489', '1490', '1493', '1497', '1499', '1502', '1504', '1505', '1507', '1508', '1510', '1511', '1513', '1514', '1521', '1522', '1523', '1525', '1526', '1529', '1531', '1532', '1533', '1534', '1535', '1537', '1540', '1541', '1543', '1546', '1547', '1548', '1550', '1552', '1553', '1554', '1556', '1557', '1561', '1563', '1564', '1565', '1566', '1567', '1568', '1569', '1572', '1573', '1575', '1577', '1579', '1581', '1582', '1584', '1585', '1586', '1591', '1594', '1598', '1600', '1601', '1602', '1603', '1604', '1607', '1610', '1611', '1613', '1614', '1618', '1619', '1622', '1626', '1627', '1628', '1630', '1634', '1635', '1636', '1637', '1640', '1642', '1643', '1644', '1645', '1647', '1649', '1653', '1655', '1656', '1657', '1658', '1659', '1660', '1661', '1662', '1664', '1665', '1666', '1668', '1669', '1670', '1671', '1673', '1674', '1676', '1679', '1680', '1682', '1684', '1685', '1688', '1689', '1692', '1693', '1696', '1698', '1699', '1702', '1703', '1705', '1710', '1711', '1715', '1718', '1719', '1724', '1725', '1727', '1731', '1732', '1734', '1738', '1742', '1744', '1745', '1746', '1747', '1749', '1753', '1755', '1756', '1757', '1759', '1761', '1766', '1769', '1771', '1772', '1774', '1776', '1777', '1778', '1779', '1780', '1783', '1786', '1789', '1791', '1793', '1794', '1795', '1800', '1804', '1805', '1808', '1810', '1813', '1814', '1815', '1819', '1821', '1822', '1823', '1829', '1830', '1833', '1835', '1837', '1838', '1840', '1841', '1842', '1844', '1845', '1847', '1848', '1849', '1856', '1857', '1858', '1859', '1861', '1862', '1864', '1870', '1871', '1872', '1874', '1878', '1880', '1881', '1883', '1884', '1885', '1888', '1889', '1891', '1892', '1893', '1897', '1898', '1899', '1900', '1903', '1904', '1905', '1906', '1907', '1909', '1911', '1916', '1917', '1920', '1923', '1924', '1925', '1926', '1927', '1930', '1931', '1935', '1936', '1943', '1944', '1948', '1949', '1951', '1952', '1955', '1957', '1958', '1960', '1961', '1962', '1964', '1966', '1968', '1970', '1971', '1972', '1973', '1974', '1975', '1976', '1978', '1981', '1982', '1987', '1990', '1992', '1994', '1995', '1996', '1997', '1998']",False,2000,True,2,c6bb5025fe,0.0,1.0,1.0
./expes/v2_2021-03-23_issda-30_2000-prng-1-w2-p2,30_issda-2000,2000,first-2000,1000,50,rng,num-start-4000,4000,25726,classic,2705.3353843688965,True,,False,1.0,1.0,1.0,1,"['4', '5', '8', '9', '13', '14', '15', '16', '17', '18', '20', '21', '22', '23', '26', '27', '35', '36', '38', '39', '40', '43', '45', '49', '50', '51', '53', '56', '58', '59', '61', '63', '64', '67', '71', '76', '78', '81', '82', '83', '85', '88', '89', '90', '93', '95', '97', '101', '104', '106', '107', '108', '109', '116', '117', '118', '119', '121', '123', '125', '128', '132', '136', '138', '139', '142', '145', '146', '147', '148', '149', '150', '151', '153', '156', '160', '162', '164', '166', '169', '170', '172', '173', '175', '179', '180', '182', '183', '186', '187', '190', '191', '193', '198', '199', '201', '202', '208', '210', '211', '212', '217', '218', '221', '222', '223', '225', '231', '232', '234', '235', '236', '238', '240', '242', '244', '245', '250', '251', '253', '256', '258', '260', '265', '269', '270', '272', '275', '276', '277', '278', '279', '280', '282', '284', '286', '287', '289', '290', '291', '292', '293', '296', '297', '298', '300', '301', '304', '305', '308', '310', '311', '317', '318', '319', '320', '322', '324', '325', '327', '330', '333', '334', '335', '336', '342', '344', '345', '346', '347', '348', '349', '351', '352', '354', '355', '357', '360', '361', '363', '365', '367', '368', '369', '373', '375', '377', '380', '385', '387', '388', '390', '392', '393', '395', '399', '400', '401', '402', '403', '404', '405', '408', '409', '410', '411', '413', '414', '415', '418', '419', '420', '421', '423', '424', '425', '426', '428', '429', '431', '432', '433', '435', '437', '439', '449', '450', '451', '452', '455', '458', '460', '463', '466', '467', '468', '469', '471', '472', '473', '475', '478', '482', '484', '489', '490', '492', '495', '496', '504', '507', '508', '512', '513', '516', '517', '522', '523', '526', '529', '531', '532', '534', '536', '538', '539', '540', '545', '546', '549', '550', '551', '555', '557', '560', '561', '562', '564', '565', '566', '567', '568', '569', '570', '571', '572', '573', '574', '578', '579', '580', '584', '585', '587', '588', '594', '597', '599', '600', '601', '605', '607', '608', '611', '612', '613', '614', '617', '620', '624', '626', '628', '630', '632', '635', '636', '637', '638', '639', '640', '641', '644', '646', '648', '649', '651', '652', '653', '658', '660', '661', '663', '665', '667', '668', '669', '671', '672', '673', '674', '676', '677', '681', '685', '687', '688', '689', '690', '691', '693', '696', '697', '698', '699', '700', '702', '704', '705', '710', '712', '714', '717', '718', '724', '725', '727', '728', '729', '730', '734', '735', '736', '737', '738', '740', '741', '742', '743', '744', '745', '746', '747', '748', '749', '751', '752', '753', '755', '760', '761', '762', '763', '766', '767', '768', '775', '776', '778', '779', '781', '782', '787', '788', '789', '790', '792', '796', '797', '799', '800', '801', '803', '804', '805', '807', '808', '810', '814', '818', '819', '820', '821', '825', '826', '829', '831', '832', '833', '834', '835', '837', '843', '845', '848', '849', '850', '851', '856', '858', '861', '862', '866', '867', '868', '869', '874', '875', '879', '881', '883', '884', '886', '888', '889', '892', '893', '894', '896', '898', '899', '901', '902', '904', '909', '912', '913', '917', '919', '920', '923', '924', '928', '932', '934', '936', '939', '941', '942', '943', '944', '947', '952', '954', '958', '959', '962', '966', '967', '972', '974', '976', '977', '978', '981', '982', '984', '985', '986', '989', '991', '993', '994', '995', '997', '1000', '1003', '1004', '1005', '1007', '1008', '1009', '1011', '1012', '1013', '1015', '1021', '1022', '1024', '1025', '1026', '1027', '1028', '1029', '1030', '1032', '1033', '1035', '1039', '1043', '1046', '1048', '1049', '1052', '1053', '1054', '1056', '1057', '1058', '1059', '1063', '1065', '1066', '1067', '1068', '1070', '1071', '1074', '1075', '1077', '1078', '1080', '1081', '1083', '1084', '1086', '1088', '1092', '1094', '1095', '1096', '1098', '1099', '1101', '1102', '1104', '1105', '1108', '1109', '1110', '1113', '1115', '1117', '1119', '1120', '1123', '1124', '1125', '1126', '1127', '1129', '1130', '1135', '1137', '1138', '1140', '1141', '1143', '1144', '1146', '1147', '1149', '1151', '1154', '1156', '1157', '1160', '1164', '1166', '1168', '1169', '1170', '1174', '1176', '1181', '1183', '1189', '1190', '1198', '1202', '1203', '1206', '1208', '1209', '1210', '1215', '1217', '1218', '1219', '1221', '1226', '1227', '1230', '1232', '1234', '1235', '1243', '1244', '1245', '1247', '1248', '1249', '1252', '1255', '1256', '1262', '1264', '1265', '1266', '1268', '1269', '1271', '1272', '1273', '1274', '1275', '1276', '1277', '1278', '1279', '1280', '1283', '1285', '1286', '1289', '1291', '1292', '1294', '1295', '1296', '1299', '1302', '1305', '1307', '1310', '1312', '1313', '1316', '1318', '1320', '1327', '1331', '1332', '1334', '1335', '1338', '1340', '1341', '1342', '1344', '1347', '1348', '1349', '1351', '1353', '1354', '1355', '1356', '1357', '1358', '1359', '1360', '1365', '1367', '1369', '1370', '1371', '1372', '1376', '1377', '1380', '1384', '1388', '1389', '1390', '1391', '1392', '1395', '1396', '1398', '1400', '1402', '1403', '1404', '1405', '1407', '1409', '1410', '1411', '1412', '1414', '1415', '1418', '1419', '1421', '1422', '1425', '1426', '1428', '1430', '1432', '1435', '1436', '1437', '1444', '1446', '1447', '1452', '1455', '1462', '1463', '1465', '1466', '1467', '1469', '1473', '1477', '1482', '1487', '1488', '1491', '1496', '1498', '1500', '1504', '1505', '1507', '1510', '1514', '1519', '1520', '1521', '1522', '1523', '1526', '1530', '1533', '1534', '1538', '1540', '1543', '1544', '1548', '1550', '1551', '1552', '1556', '1558', '1560', '1561', '1565', '1567', '1568', '1570', '1574', '1575', '1579', '1581', '1582', '1585', '1588', '1590', '1592', '1593', '1596', '1602', '1605', '1606', '1607', '1609', '1611', '1613', '1616', '1617', '1618', '1621', '1622', '1623', '1625', '1627', '1629', '1631', '1632', '1633', '1634', '1635', '1638', '1639', '1640', '1641', '1642', '1646', '1651', '1652', '1654', '1655', '1657', '1659', '1660', '1662', '1665', '1669', '1671', '1677', '1678', '1679', '1681', '1682', '1685', '1687', '1688', '1690', '1692', '1693', '1701', '1702', '1703', '1704', '1705', '1707', '1710', '1711', '1712', '1714', '1716', '1718', '1719', '1720', '1721', '1722', '1723', '1724', '1725', '1726', '1727', '1728', '1729', '1731', '1732', '1734', '1735', '1739', '1740', '1745', '1747', '1751', '1753', '1757', '1758', '1760', '1761', '1762', '1763', '1766', '1767', '1768', '1771', '1773', '1774', '1779', '1781', '1786', '1788', '1789', '1799', '1800', '1802', '1805', '1806', '1807', '1812', '1813', '1814', '1816', '1818', '1820', '1822', '1823', '1824', '1829', '1830', '1831', '1832', '1835', '1836', '1838', '1839', '1845', '1846', '1847', '1849', '1850', '1851', '1853', '1856', '1857', '1858', '1859', '1860', '1862', '1863', '1865', '1866', '1867', '1868', '1871', '1872', '1874', '1875', '1876', '1877', '1878', '1881', '1882', '1884', '1885', '1888', '1891', '1892', '1893', '1895', '1897', '1899', '1900', '1902', '1908', '1909', '1910', '1911', '1912', '1913', '1915', '1918', '1919', '1920', '1921', '1922', '1925', '1926', '1928', '1933', '1934', '1939', '1941', '1942', '1945', '1951', '1952', '1955', '1958', '1959', '1960', '1964', '1965', '1966', '1967', '1968', '1971', '1972', '1975', '1978', '1979', '1980', '1981', '1982', '1987', '1989', '1990', '1992', '1999', '2000']",True,2000,True,2,ccffe65452,0.0,0.0,1.0
./expes/v2_2021-03-23_issda-30_2000-prng-1-w2-p2,30_issda-2000,2000,first-2000,800,40,rng,num-start-3400,3400,25726,classic,2565.677933216095,True,,True,1.0,1.0,1.0,1,"['6', '8', '9', '11', '12', '15', '16', '21', '25', '26', '28', '30', '31', '33', '34', '36', '39', '48', '52', '54', '56', '57', '64', '65', '66', '67', '68', '69', '71', '73', '74', '75', '76', '77', '85', '88', '89', '90', '91', '92', '95', '98', '99', '100', '102', '103', '104', '107', '109', '110', '113', '114', '116', '122', '123', '124', '129', '133', '134', '135', '139', '140', '143', '144', '145', '147', '148', '151', '152', '154', '156', '160', '161', '164', '165', '166', '167', '172', '175', '181', '182', '183', '186', '187', '190', '194', '196', '197', '198', '199', '203', '205', '211', '215', '217', '219', '223', '232', '237', '238', '239', '241', '243', '245', '247', '248', '253', '256', '257', '260', '261', '262', '267', '273', '275', '279', '285', '286', '289', '290', '294', '299', '301', '306', '307', '310', '312', '313', '314', '315', '316', '317', '318', '320', '321', '324', '325', '329', '331', '334', '337', '338', '339', '340', '341', '342', '345', '346', '348', '350', '351', '352', '355', '357', '358', '359', '360', '361', '362', '364', '365', '366', '367', '374', '375', '381', '382', '384', '387', '390', '391', '392', '393', '394', '395', '397', '399', '400', '401', '410', '413', '422', '423', '426', '428', '429', '430', '433', '434', '439', '447', '451', '453', '454', '458', '459', '460', '465', '469', '482', '483', '487', '489', '491', '492', '494', '495', '497', '501', '503', '505', '506', '508', '512', '519', '522', '531', '532', '533', '537', '538', '540', '544', '545', '547', '557', '562', '563', '568', '569', '570', '579', '581', '582', '585', '589', '590', '593', '594', '596', '601', '603', '607', '612', '613', '614', '617', '620', '621', '627', '628', '631', '632', '637', '638', '644', '649', '650', '655', '660', '662', '665', '667', '670', '672', '673', '680', '684', '686', '688', '694', '695', '700', '703', '704', '708', '712', '713', '715', '716', '717', '724', '725', '728', '729', '735', '738', '739', '740', '743', '747', '750', '751', '752', '766', '767', '769', '771', '776', '778', '779', '782', '783', '788', '790', '791', '792', '795', '796', '798', '800', '803', '804', '807', '811', '812', '813', '814', '817', '818', '819', '820', '821', '822', '825', '829', '830', '831', '833', '834', '837', '846', '849', '851', '852', '854', '857', '858', '860', '861', '862', '863', '864', '866', '867', '868', '869', '874', '876', '877', '879', '880', '882', '887', '888', '889', '891', '892', '893', '894', '899', '900', '901', '904', '905', '906', '910', '911', '913', '915', '916', '917', '918', '923', '924', '925', '930', '931', '933', '934', '936', '938', '939', '940', '941', '942', '944', '946', '947', '948', '950', '951', '956', '959', '962', '963', '965', '968', '972', '974', '976', '977', '978', '979', '981', '983', '984', '989', '990', '993', '994', '1002', '1003', '1004', '1007', '1010', '1014', '1016', '1018', '1023', '1024', '1027', '1028', '1038', '1040', '1044', '1046', '1047', '1051', '1052', '1056', '1058', '1060', '1065', '1066', '1067', '1069', '1070', '1071', '1072', '1075', '1076', '1082', '1088', '1089', '1091', '1093', '1097', '1099', '1100', '1103', '1104', '1106', '1107', '1109', '1113', '1116', '1117', '1125', '1128', '1129', '1130', '1138', '1139', '1140', '1144', '1145', '1146', '1151', '1153', '1156', '1157', '1158', '1160', '1162', '1164', '1167', '1168', '1169', '1171', '1172', '1173', '1177', '1179', '1180', '1182', '1184', '1185', '1188', '1191', '1194', '1198', '1203', '1206', '1207', '1210', '1212', '1216', '1219', '1220', '1224', '1225', '1226', '1232', '1234', '1235', '1236', '1238', '1240', '1241', '1242', '1243', '1245', '1246', '1247', '1248', '1249', '1250', '1257', '1259', '1265', '1267', '1268', '1270', '1275', '1279', '1281', '1282', '1285', '1286', '1288', '1291', '1295', '1297', '1299', '1301', '1303', '1305', '1308', '1309', '1310', '1311', '1314', '1315', '1317', '1324', '1329', '1331', '1335', '1336', '1338', '1339', '1345', '1346', '1347', '1348', '1351', '1353', '1356', '1359', '1361', '1363', '1364', '1366', '1371', '1373', '1380', '1381', '1383', '1387', '1395', '1402', '1405', '1406', '1408', '1413', '1416', '1418', '1420', '1421', '1424', '1425', '1428', '1430', '1431', '1435', '1438', '1440', '1445', '1447', '1453', '1455', '1458', '1460', '1461', '1463', '1471', '1474', '1475', '1476', '1478', '1479', '1480', '1481', '1482', '1484', '1488', '1489', '1494', '1503', '1508', '1513', '1515', '1517', '1523', '1524', '1526', '1527', '1528', '1535', '1539', '1541', '1543', '1544', '1556', '1559', '1561', '1564', '1565', '1571', '1572', '1573', '1575', '1579', '1582', '1583', '1584', '1587', '1589', '1590', '1592', '1593', '1604', '1612', '1613', '1615', '1616', '1617', '1620', '1624', '1626', '1633', '1638', '1641', '1648', '1650', '1653', '1654', '1656', '1657', '1659', '1661', '1662', '1664', '1666', '1670', '1673', '1674', '1675', '1676', '1679', '1681', '1682', '1685', '1687', '1688', '1689', '1690', '1691', '1694', '1695', '1698', '1699', '1700', '1707', '1708', '1709', '1712', '1713', '1714', '1715', '1717', '1718', '1725', '1729', '1736', '1737', '1740', '1742', '1743', '1744', '1748', '1749', '1750', '1751', '1752', '1759', '1761', '1762', '1763', '1766', '1768', '1771', '1772', '1773', '1781', '1783', '1785', '1786', '1790', '1791', '1792', '1794', '1796', '1797', '1800', '1802', '1805', '1808', '1818', '1819', '1821', '1823', '1825', '1826', '1830', '1837', '1839', '1840', '1842', '1846', '1847', '1852', '1853', '1856', '1858', '1860', '1863', '1865', '1866', '1870', '1871', '1872', '1874', '1878', '1882', '1884', '1886', '1887', '1890', '1893', '1907', '1910', '1911', '1912', '1916', '1917', '1918', '1921', '1923', '1928', '1932', '1935', '1937', '1941', '1943', '1946', '1948', '1949', '1951', '1952', '1955', '1956', '1958', '1959', '1965', '1966', '1967', '1968', '1971', '1973', '1974', '1976', '1984', '1985', '1986', '1987', '1988', '1995', '1997']",False,2000,True,2,70274d0a16,0.0,1.0,1.0
./expes/v2_2021-03-23_issda-30_2000-prng-1-w2-p2,30_issda-2000,2000,first-2000,700,35,rng,num-start-200,200,25726,classic,2034.1096768379211,False,,False,0,,,0,"['4', '5', '12', '16', '18', '19', '21', '22', '23', '26', '30', '35', '36', '37', '38', '39', '42', '43', '45', '46', '49', '50', '53', '56', '58', '59', '60', '61', '63', '66', '67', '71', '73', '77', '78', '81', '82', '83', '85', '90', '94', '98', '99', '100', '115', '121', '128', '129', '130', '132', '134', '143', '145', '146', '147', '149', '150', '154', '157', '158', '167', '168', '171', '174', '175', '178', '183', '184', '186', '188', '189', '193', '198', '203', '205', '206', '207', '210', '211', '214', '219', '221', '222', '223', '225', '229', '234', '235', '236', '237', '242', '248', '253', '257', '258', '259', '265', '268', '273', '276', '277', '278', '284', '290', '291', '300', '302', '307', '316', '322', '324', '325', '326', '327', '329', '332', '336', '339', '342', '343', '345', '346', '348', '349', '352', '353', '355', '363', '364', '365', '368', '371', '376', '379', '381', '383', '385', '386', '389', '398', '408', '409', '410', '411', '412', '418', '421', '422', '424', '426', '429', '430', '435', '437', '441', '444', '446', '449', '450', '451', '452', '455', '458', '459', '461', '462', '463', '465', '466', '469', '471', '473', '476', '478', '479', '481', '482', '489', '491', '495', '498', '500', '502', '504', '505', '507', '512', '513', '517', '518', '519', '520', '523', '529', '530', '531', '546', '547', '549', '551', '552', '559', '564', '568', '576', '577', '582', '594', '595', '596', '597', '602', '603', '604', '606', '607', '608', '611', '612', '613', '614', '621', '622', '626', '628', '629', '630', '632', '636', '639', '641', '642', '645', '648', '649', '650', '651', '655', '656', '657', '658', '660', '667', '671', '672', '679', '681', '682', '685', '691', '694', '695', '697', '699', '704', '705', '706', '708', '709', '711', '724', '727', '729', '731', '736', '739', '747', '748', '752', '754', '756', '759', '762', '768', '773', '775', '777', '778', '779', '781', '786', '792', '799', '800', '802', '806', '807', '809', '811', '814', '815', '817', '822', '823', '824', '828', '829', '833', '845', '847', '849', '853', '854', '863', '865', '873', '874', '880', '881', '885', '887', '892', '897', '898', '899', '900', '913', '915', '918', '921', '922', '924', '928', '929', '932', '934', '938', '939', '941', '942', '944', '952', '961', '962', '968', '971', '977', '981', '984', '986', '993', '994', '995', '996', '1000', '1002', '1003', '1009', '1011', '1014', '1015', '1016', '1017', '1023', '1024', '1026', '1027', '1029', '1033', '1034', '1035', '1037', '1040', '1042', '1043', '1045', '1048', '1050', '1053', '1054', '1058', '1063', '1067', '1073', '1081', '1083', '1091', '1095', '1101', '1102', '1103', '1106', '1107', '1109', '1110', '1112', '1115', '1116', '1118', '1122', '1123', '1124', '1125', '1127', '1128', '1129', '1132', '1133', '1136', '1140', '1148', '1149', '1150', '1154', '1156', '1157', '1160', '1166', '1168', '1169', '1170', '1175', '1177', '1180', '1184', '1185', '1186', '1188', '1197', '1202', '1204', '1207', '1210', '1211', '1212', '1215', '1216', '1218', '1221', '1222', '1229', '1230', '1232', '1233', '1237', '1241', '1242', '1245', '1248', '1252', '1253', '1254', '1255', '1257', '1260', '1266', '1276', '1277', '1280', '1289', '1292', '1293', '1302', '1309', '1316', '1318', '1322', '1324', '1326', '1328', '1329', '1331', '1335', '1336', '1339', '1345', '1351', '1352', '1356', '1360', '1362', '1363', '1364', '1368', '1373', '1374', '1377', '1379', '1381', '1382', '1383', '1387', '1389', '1395', '1397', '1406', '1407', '1408', '1410', '1413', '1417', '1419', '1424', '1426', '1437', '1439', '1440', '1441', '1442', '1444', '1453', '1457', '1458', '1460', '1464', '1465', '1473', '1478', '1480', '1483', '1486', '1487', '1488', '1492', '1494', '1496', '1498', '1501', '1509', '1511', '1512', '1517', '1522', '1524', '1529', '1538', '1543', '1545', '1548', '1555', '1559', '1562', '1564', '1565', '1569', '1572', '1573', '1578', '1579', '1589', '1590', '1593', '1594', '1595', '1597', '1598', '1602', '1603', '1605', '1608', '1609', '1611', '1612', '1615', '1616', '1618', '1623', '1624', '1625', '1629', '1631', '1633', '1634', '1636', '1643', '1644', '1646', '1647', '1648', '1652', '1654', '1656', '1658', '1662', '1666', '1673', '1674', '1676', '1679', '1680', '1681', '1682', '1683', '1692', '1696', '1697', '1698', '1700', '1705', '1710', '1712', '1713', '1716', '1721', '1722', '1723', '1724', '1731', '1734', '1735', '1736', '1738', '1739', '1742', '1744', '1748', '1754', '1756', '1757', '1759', '1760', '1762', '1764', '1766', '1767', '1773', '1774', '1777', '1778', '1782', '1786', '1794', '1797', '1800', '1805', '1808', '1809', '1813', '1815', '1818', '1825', '1826', '1829', '1830', '1831', '1835', '1837', '1843', '1845', '1847', '1850', '1858', '1863', '1864', '1865', '1866', '1871', '1873', '1877', '1879', '1880', '1883', '1885', '1886', '1887', '1888', '1889', '1895', '1896', '1897', '1898', '1905', '1907', '1910', '1911', '1918', '1921', '1922', '1924', '1927', '1928', '1933', '1934', '1936', '1945', '1946', '1950', '1951', '1955', '1956', '1959', '1961', '1966', '1967', '1971', '1974', '1976', '1978', '1980', '1981', '1983', '1985', '1987', '1988', '1992', '1994', '1995', '1998', '1999', '2000']",True,2000,True,2,7811a1f116,0.0,0.0,0.0
./expes/v2_2021-03-23_issda-30_2000-prng-1-w2-p2,30_issda-2000,2000,first-2000,800,40,rng,num-start-1200,1200,25726,classic,2205.2461473941803,True,,False,1.0,1.0,1.0,1,"['7', '11', '12', '15', '16', '17', '20', '22', '24', '25', '32', '35', '37', '38', '40', '43', '49', '54', '56', '57', '59', '62', '63', '64', '67', '69', '70', '73', '74', '80', '83', '84', '90', '94', '97', '101', '102', '103', '104', '105', '106', '107', '108', '110', '111', '114', '116', '118', '120', '123', '124', '128', '132', '135', '142', '145', '146', '147', '150', '151', '154', '158', '159', '162', '163', '166', '168', '171', '175', '178', '180', '182', '184', '191', '192', '193', '197', '201', '202', '203', '204', '210', '213', '214', '216', '217', '218', '221', '222', '225', '226', '227', '232', '233', '236', '240', '241', '250', '251', '252', '253', '255', '256', '257', '261', '263', '264', '265', '266', '269', '281', '282', '284', '287', '288', '289', '291', '293', '294', '295', '301', '305', '307', '308', '309', '310', '311', '314', '316', '322', '331', '332', '333', '334', '335', '337', '346', '347', '349', '350', '353', '354', '355', '356', '358', '359', '367', '376', '377', '386', '387', '388', '392', '393', '394', '395', '401', '402', '403', '404', '405', '407', '408', '411', '415', '417', '418', '420', '427', '430', '431', '433', '435', '437', '438', '439', '444', '448', '450', '452', '453', '455', '456', '461', '466', '467', '470', '472', '474', '475', '483', '484', '486', '489', '490', '496', '497', '499', '500', '508', '510', '511', '512', '513', '514', '515', '517', '523', '526', '528', '529', '531', '532', '533', '535', '536', '538', '540', '542', '544', '545', '548', '549', '550', '552', '554', '559', '563', '565', '570', '574', '577', '581', '584', '591', '592', '594', '597', '602', '603', '604', '605', '607', '608', '609', '616', '618', '620', '621', '622', '625', '630', '631', '632', '633', '634', '635', '636', '638', '639', '642', '645', '647', '648', '650', '651', '652', '654', '659', '660', '662', '663', '664', '667', '669', '670', '674', '675', '678', '679', '681', '685', '686', '687', '689', '691', '695', '696', '712', '713', '714', '720', '721', '726', '727', '728', '729', '731', '733', '734', '737', '741', '743', '746', '749', '752', '754', '757', '762', '763', '768', '769', '770', '775', '776', '778', '781', '783', '784', '786', '787', '791', '792', '796', '801', '802', '803', '805', '807', '817', '820', '823', '826', '827', '828', '829', '830', '831', '833', '834', '836', '837', '840', '848', '849', '850', '854', '859', '860', '862', '865', '866', '867', '875', '877', '878', '882', '887', '889', '893', '894', '895', '896', '897', '901', '904', '905', '907', '908', '912', '913', '915', '916', '920', '921', '924', '928', '930', '933', '941', '945', '948', '950', '957', '958', '959', '962', '965', '967', '970', '971', '973', '975', '978', '981', '984', '987', '989', '990', '992', '994', '996', '997', '998', '1001', '1003', '1008', '1010', '1011', '1013', '1016', '1018', '1021', '1026', '1027', '1028', '1029', '1033', '1034', '1037', '1039', '1040', '1042', '1053', '1054', '1056', '1057', '1060', '1061', '1063', '1064', '1068', '1070', '1072', '1076', '1077', '1080', '1082', '1087', '1089', '1091', '1092', '1095', '1096', '1099', '1100', '1103', '1104', '1105', '1106', '1107', '1109', '1111', '1113', '1114', '1116', '1121', '1122', '1126', '1129', '1132', '1134', '1135', '1138', '1139', '1141', '1143', '1145', '1146', '1147', '1153', '1154', '1156', '1164', '1166', '1171', '1172', '1178', '1180', '1182', '1184', '1185', '1188', '1190', '1191', '1193', '1197', '1200', '1201', '1202', '1209', '1212', '1213', '1215', '1226', '1227', '1229', '1231', '1234', '1237', '1238', '1241', '1243', '1245', '1247', '1250', '1252', '1253', '1254', '1255', '1256', '1262', '1264', '1265', '1267', '1271', '1272', '1282', '1283', '1284', '1288', '1295', '1297', '1298', '1300', '1302', '1304', '1309', '1312', '1320', '1324', '1325', '1326', '1327', '1330', '1332', '1333', '1340', '1347', '1348', '1349', '1350', '1353', '1355', '1359', '1365', '1367', '1383', '1386', '1388', '1390', '1393', '1395', '1398', '1402', '1403', '1404', '1405', '1412', '1416', '1419', '1433', '1434', '1435', '1442', '1443', '1445', '1446', '1447', '1449', '1453', '1455', '1456', '1458', '1459', '1460', '1462', '1464', '1465', '1466', '1472', '1478', '1482', '1484', '1485', '1489', '1493', '1497', '1499', '1505', '1507', '1508', '1510', '1511', '1513', '1514', '1522', '1523', '1525', '1526', '1529', '1531', '1533', '1534', '1535', '1537', '1540', '1541', '1543', '1546', '1547', '1550', '1552', '1553', '1554', '1556', '1557', '1561', '1563', '1564', '1566', '1567', '1568', '1569', '1572', '1573', '1579', '1581', '1582', '1584', '1585', '1586', '1591', '1594', '1598', '1600', '1602', '1603', '1604', '1607', '1611', '1613', '1614', '1618', '1619', '1622', '1626', '1627', '1628', '1630', '1635', '1637', '1640', '1642', '1643', '1644', '1645', '1647', '1649', '1653', '1655', '1657', '1658', '1661', '1662', '1664', '1665', '1666', '1668', '1669', '1670', '1673', '1676', '1679', '1680', '1682', '1684', '1689', '1692', '1693', '1698', '1699', '1702', '1703', '1705', '1710', '1715', '1719', '1724', '1725', '1731', '1734', '1738', '1742', '1744', '1745', '1746', '1747', '1749', '1753', '1756', '1757', '1759', '1761', '1769', '1772', '1774', '1776', '1777', '1778', '1779', '1780', '1783', '1786', '1789', '1791', '1793', '1794', '1795', '1800', '1805', '1808', '1813', '1814', '1819', '1821', '1822', '1823', '1829', '1830', '1835', '1837', '1838', '1840', '1841', '1842', '1844', '1845', '1847', '1848', '1856', '1858', '1859', '1861', '1862', '1864', '1870', '1878', '1880', '1881', '1885', '1888', '1891', '1892', '1893', '1897', '1898', '1900', '1903', '1904', '1905', '1907', '1911', '1917', '1920', '1923', '1924', '1925', '1926', '1927', '1930', '1931', '1936', '1943', '1944', '1948', '1949', '1951', '1952', '1955', '1957', '1958', '1960', '1961', '1962', '1964', '1966', '1968', '1970', '1971', '1975', '1976', '1982', '1987', '1990', '1992', '1994', '1996', '1997', '1998']",True,2000,True,2,cd96c021fd,0.0,0.0,1.0
./expes/v2_2021-03-23_issda-30_2000-prng-1-w2-p2,30_issda-2000,2000,first-2000,500,25,rng,num-start-1200,1200,25726,classic,2218.6256189346313,True,,False,1.0,1.0,1.0,1,"['2', '4', '7', '11', '19', '24', '27', '28', '34', '38', '41', '45', '47', '49', '55', '57', '60', '66', '68', '71', '74', '75', '76', '82', '86', '96', '100', '107', '111', '115', '117', '121', '130', '134', '136', '148', '161', '162', '166', '183', '187', '189', '195', '209', '219', '222', '227', '231', '232', '236', '243', '244', '250', '259', '260', '265', '268', '271', '272', '273', '274', '280', '285', '289', '290', '291', '292', '294', '299', '301', '304', '305', '306', '317', '322', '326', '327', '328', '331', '340', '341', '346', '347', '352', '354', '361', '364', '366', '368', '369', '370', '371', '372', '373', '379', '397', '401', '403', '404', '407', '408', '419', '420', '425', '427', '429', '442', '444', '449', '464', '487', '488', '499', '503', '504', '505', '511', '513', '514', '515', '524', '525', '533', '541', '543', '549', '555', '558', '561', '562', '565', '571', '573', '576', '579', '580', '586', '587', '592', '593', '597', '601', '602', '604', '605', '606', '608', '612', '616', '617', '618', '620', '627', '628', '630', '634', '635', '640', '643', '647', '649', '650', '651', '654', '667', '668', '680', '685', '689', '693', '694', '696', '697', '698', '705', '706', '708', '713', '717', '718', '720', '721', '727', '728', '729', '731', '733', '735', '740', '742', '743', '745', '747', '750', '753', '757', '762', '764', '766', '770', '771', '773', '778', '779', '780', '783', '784', '785', '787', '798', '804', '827', '828', '831', '832', '836', '837', '839', '840', '848', '850', '851', '854', '858', '859', '862', '864', '880', '885', '887', '890', '904', '909', '912', '922', '928', '929', '934', '947', '948', '949', '951', '953', '954', '958', '961', '963', '966', '968', '972', '973', '977', '978', '982', '983', '984', '985', '986', '989', '991', '995', '1000', '1004', '1008', '1009', '1011', '1017', '1023', '1025', '1030', '1050', '1051', '1056', '1058', '1062', '1070', '1075', '1085', '1086', '1090', '1091', '1093', '1103', '1105', '1114', '1117', '1121', '1123', '1125', '1127', '1133', '1146', '1148', '1155', '1156', '1159', '1176', '1185', '1190', '1201', '1202', '1204', '1208', '1209', '1210', '1217', '1221', '1231', '1236', '1237', '1246', '1247', '1251', '1253', '1257', '1260', '1264', '1265', '1266', '1271', '1274', '1276', '1278', '1279', '1282', '1284', '1285', '1290', '1292', '1293', '1305', '1308', '1316', '1320', '1321', '1326', '1330', '1331', '1332', '1334', '1336', '1352', '1356', '1357', '1360', '1364', '1369', '1374', '1376', '1380', '1389', '1397', '1405', '1410', '1411', '1412', '1415', '1417', '1423', '1427', '1439', '1443', '1444', '1450', '1451', '1467', '1471', '1472', '1474', '1475', '1476', '1477', '1478', '1495', '1496', '1498', '1499', '1512', '1516', '1517', '1518', '1520', '1523', '1526', '1533', '1536', '1548', '1555', '1556', '1558', '1561', '1569', '1577', '1585', '1587', '1589', '1590', '1599', '1600', '1601', '1602', '1610', '1614', '1629', '1633', '1634', '1636', '1642', '1665', '1666', '1673', '1675', '1677', '1679', '1682', '1684', '1693', '1694', '1697', '1703', '1711', '1714', '1718', '1722', '1723', '1724', '1727', '1729', '1731', '1745', '1746', '1749', '1751', '1753', '1761', '1769', '1775', '1776', '1777', '1778', '1779', '1782', '1785', '1787', '1795', '1796', '1804', '1826', '1827', '1829', '1830', '1831', '1833', '1837', '1846', '1848', '1850', '1872', '1877', '1881', '1889', '1892', '1893', '1904', '1916', '1917', '1918', '1920', '1921', '1924', '1928', '1930', '1931', '1932', '1936', '1937', '1945', '1946', '1948', '1950', '1955', '1957', '1959', '1960', '1961', '1963', '1966', '1967', '1968', '1969', '1970', '1976', '1977', '1980', '1983', '1984', '1992', '1998', '1999', '2000']",True,2000,True,2,ce5d240f9d,0.0,0.0,1.0
./expes/v2_2021-03-23_issda-30_2000-prng-1-w2-p2,30_issda-2000,2000,first-2000,400,20,rng,num-start-200,200,25726,classic,2035.2494497299194,False,,False,0,,,0,"['4', '9', '10', '11', '18', '33', '37', '40', '41', '44', '49', '50', '51', '52', '57', '64', '65', '66', '69', '73', '74', '75', '84', '89', '94', '101', '105', '116', '117', '121', '123', '124', '139', '151', '152', '155', '157', '165', '170', '174', '180', '188', '192', '193', '197', '205', '208', '209', '216', '218', '228', '232', '236', '238', '243', '250', '252', '262', '270', '280', '287', '288', '295', '310', '311', '315', '322', '325', '329', '331', '337', '341', '347', '350', '353', '356', '362', '364', '372', '373', '377', '392', '394', '407', '426', '427', '431', '432', '435', '436', '446', '449', '455', '462', '465', '468', '473', '475', '477', '484', '494', '502', '506', '508', '511', '512', '514', '516', '519', '521', '524', '526', '531', '537', '541', '545', '550', '560', '571', '572', '583', '586', '594', '622', '627', '632', '634', '635', '639', '648', '653', '665', '666', '672', '686', '691', '699', '700', '705', '707', '719', '725', '737', '738', '740', '742', '743', '746', '750', '751', '762', '763', '764', '765', '779', '788', '790', '801', '803', '805', '806', '810', '819', '823', '833', '838', '842', '845', '850', '857', '860', '867', '868', '872', '883', '889', '911', '912', '913', '918', '919', '925', '929', '930', '932', '936', '945', '949', '952', '953', '969', '983', '996', '997', '998', '1001', '1002', '1004', '1005', '1021', '1026', '1029', '1033', '1040', '1041', '1043', '1045', '1048', '1049', '1053', '1055', '1056', '1061', '1062', '1064', '1067', '1070', '1072', '1076', '1077', '1078', '1087', '1097', '1115', '1130', '1142', '1143', '1147', '1148', '1152', '1163', '1171', '1177', '1191', '1198', '1205', '1206', '1208', '1211', '1212', '1216', '1240', '1241', '1242', '1243', '1251', '1257', '1261', '1262', '1263', '1274', '1277', '1278', '1279', '1286', '1301', '1306', '1308', '1313', '1315', '1335', '1338', '1342', '1350', '1354', '1356', '1359', '1372', '1374', '1378', '1382', '1396', '1398', '1402', '1403', '1404', '1408', '1414', '1417', '1433', '1445', '1447', '1451', '1454', '1463', '1465', '1467', '1469', '1481', '1482', '1483', '1487', '1493', '1494', '1497', '1505', '1508', '1513', '1516', '1521', '1526', '1532', '1538', '1544', '1545', '1547', '1548', '1556', '1558', '1563', '1569', '1584', '1588', '1600', '1607', '1615', '1618', '1622', '1627', '1631', '1632', '1637', '1639', '1644', '1646', '1651', '1657', '1664', '1666', '1669', '1670', '1681', '1690', '1691', '1703', '1711', '1712', '1718', '1722', '1739', '1741', '1749', '1760', '1762', '1767', '1768', '1784', '1791', '1792', '1794', '1796', '1804', '1806', '1807', '1809', '1811', '1818', '1822', '1827', '1831', '1840', '1843', '1846', '1848', '1850', '1857', '1859', '1860', '1861', '1867', '1876', '1877', '1882', '1885', '1886', '1888', '1895', '1903', '1909', '1910', '1914', '1916', '1917', '1922', '1927', '1933', '1942', '1945', '1955', '1956', '1958', '1961', '1964', '1965', '1966', '1968', '1970', '1973', '1988', '1989']",True,2000,True,2,7569b584f3,0.0,0.0,0.0
./expes/v2_2021-03-23_issda-30_2000-prng-1-w2-p2,30_issda-2000,2000,first-2000,800,40,rng,num-start-2000,2000,25726,classic,1939.4280652999878,True,,True,1.0,1.0,1.0,1,"['1', '3', '4', '7', '8', '9', '11', '24', '25', '26', '30', '32', '33', '35', '36', '38', '39', '40', '44', '47', '48', '53', '56', '57', '58', '60', '64', '71', '76', '77', '81', '82', '86', '87', '89', '90', '93', '96', '99', '102', '104', '108', '111', '112', '114', '117', '118', '119', '121', '122', '123', '125', '127', '128', '129', '130', '132', '134', '136', '137', '138', '141', '144', '145', '149', '150', '153', '157', '158', '159', '165', '166', '168', '170', '172', '173', '174', '175', '176', '177', '178', '182', '184', '185', '186', '187', '189', '192', '193', '200', '201', '204', '208', '210', '211', '212', '213', '215', '218', '225', '226', '232', '237', '240', '242', '243', '246', '247', '250', '251', '252', '254', '258', '261', '265', '266', '268', '269', '273', '274', '281', '282', '286', '287', '290', '291', '293', '295', '296', '297', '299', '300', '301', '302', '305', '306', '307', '309', '310', '311', '312', '317', '318', '320', '323', '326', '331', '333', '334', '335', '338', '341', '343', '345', '349', '353', '361', '365', '366', '369', '371', '372', '374', '375', '376', '380', '385', '389', '391', '392', '397', '399', '400', '401', '403', '407', '409', '410', '412', '414', '415', '419', '421', '422', '426', '428', '430', '432', '433', '436', '440', '441', '446', '447', '450', '452', '453', '456', '457', '458', '459', '465', '469', '471', '473', '476', '477', '478', '481', '489', '491', '493', '497', '500', '501', '504', '508', '509', '513', '516', '517', '519', '521', '524', '530', '531', '532', '534', '535', '537', '539', '540', '541', '542', '543', '544', '549', '551', '553', '554', '555', '557', '568', '570', '571', '572', '573', '578', '582', '583', '585', '589', '590', '594', '596', '600', '601', '606', '611', '614', '615', '621', '624', '625', '631', '632', '634', '635', '639', '643', '644', '648', '653', '663', '664', '667', '668', '670', '674', '676', '679', '680', '681', '687', '692', '693', '695', '697', '701', '702', '704', '705', '706', '711', '712', '716', '718', '725', '728', '729', '731', '735', '739', '741', '745', '746', '747', '749', '750', '752', '757', '763', '771', '772', '780', '781', '782', '784', '788', '791', '793', '796', '798', '801', '804', '806', '807', '808', '809', '811', '813', '815', '816', '818', '819', '821', '823', '828', '829', '832', '851', '854', '856', '857', '859', '862', '863', '864', '865', '870', '872', '876', '878', '880', '882', '883', '884', '886', '889', '902', '903', '906', '908', '913', '914', '916', '917', '920', '921', '925', '927', '929', '930', '935', '936', '939', '940', '941', '943', '946', '949', '952', '954', '955', '956', '958', '963', '968', '969', '970', '971', '972', '973', '980', '981', '982', '984', '987', '988', '989', '991', '994', '995', '998', '1000', '1002', '1003', '1010', '1012', '1013', '1014', '1017', '1018', '1025', '1027', '1028', '1030', '1031', '1033', '1034', '1036', '1037', '1038', '1040', '1041', '1046', '1049', '1050', '1051', '1054', '1055', '1056', '1058', '1059', '1060', '1061', '1062', '1072', '1073', '1076', '1078', '1079', '1080', '1082', '1084', '1087', '1088', '1089', '1090', '1091', '1093', '1095', '1097', '1098', '1099', '1108', '1110', '1113', '1115', '1119', '1121', '1122', '1123', '1124', '1125', '1126', '1127', '1129', '1133', '1135', '1138', '1140', '1141', '1143', '1144', '1146', '1148', '1151', '1156', '1159', '1160', '1161', '1163', '1165', '1169', '1170', '1174', '1177', '1182', '1184', '1188', '1191', '1192', '1194', '1195', '1197', '1200', '1202', '1207', '1210', '1218', '1221', '1222', '1227', '1229', '1231', '1234', '1240', '1242', '1246', '1247', '1248', '1249', '1250', '1252', '1253', '1255', '1256', '1257', '1258', '1264', '1265', '1268', '1273', '1274', '1278', '1279', '1281', '1283', '1285', '1286', '1288', '1290', '1292', '1296', '1300', '1303', '1304', '1305', '1309', '1317', '1318', '1326', '1331', '1332', '1334', '1335', '1338', '1342', '1344', '1345', '1347', '1349', '1351', '1353', '1357', '1361', '1363', '1368', '1369', '1370', '1372', '1374', '1375', '1377', '1384', '1385', '1394', '1395', '1396', '1397', '1398', '1399', '1401', '1406', '1409', '1410', '1414', '1415', '1418', '1419', '1420', '1424', '1426', '1428', '1432', '1435', '1436', '1437', '1441', '1447', '1448', '1452', '1454', '1457', '1458', '1459', '1465', '1467', '1468', '1476', '1479', '1481', '1484', '1485', '1486', '1488', '1493', '1494', '1498', '1502', '1503', '1509', '1513', '1516', '1517', '1518', '1523', '1528', '1530', '1533', '1535', '1536', '1537', '1538', '1542', '1548', '1550', '1551', '1553', '1554', '1556', '1557', '1565', '1566', '1571', '1572', '1574', '1581', '1582', '1590', '1591', '1592', '1596', '1598', '1603', '1606', '1607', '1615', '1617', '1619', '1627', '1633', '1634', '1635', '1637', '1638', '1641', '1642', '1646', '1648', '1651', '1652', '1654', '1656', '1658', '1662', '1664', '1665', '1670', '1672', '1674', '1676', '1678', '1679', '1680', '1682', '1684', '1690', '1692', '1693', '1694', '1698', '1703', '1705', '1709', '1710', '1711', '1712', '1715', '1721', '1722', '1723', '1732', '1733', '1739', '1740', '1747', '1748', '1754', '1759', '1760', '1767', '1769', '1770', '1783', '1784', '1785', '1786', '1788', '1790', '1791', '1792', '1793', '1795', '1796', '1799', '1801', '1802', '1807', '1808', '1809', '1810', '1811', '1813', '1817', '1821', '1827', '1829', '1831', '1834', '1838', '1839', '1843', '1844', '1852', '1854', '1856', '1861', '1863', '1864', '1865', '1867', '1869', '1873', '1875', '1878', '1880', '1882', '1883', '1890', '1892', '1898', '1901', '1906', '1910', '1912', '1913', '1915', '1918', '1920', '1922', '1925', '1927', '1929', '1930', '1932', '1935', '1937', '1938', '1940', '1941', '1942', '1944', '1947', '1948', '1950', '1951', '1952', '1956', '1957', '1959', '1962', '1966', '1968', '1970', '1971', '1978', '1982', '1983', '1985', '1988', '1989', '1990', '1991', '1992', '1994', '1996', '1999', '2000']",False,2000,True,2,9334af58b7,0.0,1.0,1.0
./expes/v2_2021-03-23_issda-30_2000-prng-1-w2-p2,30_issda-2000,2000,first-2000,700,35,rng,num-start-3800,3800,25726,classic,2317.2208545207977,True,,True,1.0,1.0,1.0,1,"['1', '3', '7', '8', '9', '12', '13', '16', '19', '21', '23', '27', '29', '30', '32', '35', '40', '41', '42', '44', '45', '46', '47', '51', '54', '57', '58', '63', '67', '68', '73', '75', '78', '80', '81', '84', '88', '89', '90', '91', '96', '99', '106', '108', '113', '114', '116', '119', '120', '122', '123', '133', '135', '146', '150', '153', '157', '161', '162', '163', '164', '165', '169', '172', '177', '183', '184', '186', '187', '189', '190', '191', '198', '199', '202', '205', '207', '212', '214', '219', '220', '222', '223', '231', '233', '236', '238', '241', '242', '245', '247', '249', '252', '254', '255', '257', '258', '261', '268', '269', '271', '274', '280', '290', '291', '294', '295', '296', '301', '302', '304', '309', '311', '313', '314', '316', '317', '319', '323', '324', '327', '328', '337', '342', '344', '348', '349', '352', '353', '354', '355', '357', '365', '373', '374', '379', '381', '389', '391', '392', '395', '397', '400', '402', '406', '410', '413', '416', '417', '418', '420', '421', '424', '428', '429', '430', '434', '436', '437', '440', '443', '447', '448', '449', '452', '454', '456', '457', '459', '460', '461', '465', '467', '471', '476', '481', '482', '483', '487', '488', '490', '491', '495', '498', '500', '501', '502', '503', '504', '505', '506', '512', '520', '523', '524', '527', '529', '531', '533', '535', '538', '539', '541', '548', '549', '551', '552', '558', '560', '561', '571', '577', '580', '582', '584', '587', '588', '593', '594', '596', '597', '601', '603', '605', '607', '608', '610', '614', '619', '620', '621', '624', '625', '627', '629', '633', '634', '635', '636', '641', '642', '643', '645', '647', '649', '650', '655', '656', '658', '659', '660', '664', '667', '673', '683', '684', '685', '686', '687', '689', '690', '692', '700', '705', '706', '713', '715', '716', '717', '719', '723', '724', '725', '726', '733', '740', '741', '743', '747', '751', '757', '764', '765', '766', '767', '769', '771', '773', '784', '785', '786', '787', '792', '793', '796', '802', '805', '808', '810', '811', '815', '817', '819', '820', '823', '825', '826', '827', '829', '830', '832', '833', '834', '836', '837', '838', '839', '840', '843', '844', '845', '846', '848', '852', '854', '856', '857', '858', '860', '861', '863', '867', '874', '876', '877', '878', '879', '880', '885', '887', '889', '894', '899', '904', '906', '910', '912', '915', '916', '917', '922', '929', '931', '934', '936', '942', '943', '944', '946', '947', '952', '956', '961', '966', '968', '972', '973', '978', '985', '986', '988', '991', '995', '1000', '1004', '1005', '1007', '1012', '1013', '1016', '1017', '1019', '1020', '1022', '1023', '1027', '1030', '1032', '1041', '1044', '1045', '1046', '1047', '1049', '1052', '1053', '1058', '1059', '1062', '1067', '1072', '1073', '1077', '1083', '1089', '1090', '1092', '1095', '1097', '1101', '1103', '1105', '1110', '1129', '1132', '1133', '1134', '1146', '1153', '1157', '1162', '1171', '1173', '1176', '1186', '1189', '1193', '1202', '1203', '1208', '1209', '1211', '1215', '1216', '1219', '1222', '1223', '1224', '1227', '1234', '1235', '1237', '1242', '1243', '1245', '1248', '1250', '1252', '1255', '1256', '1257', '1258', '1260', '1264', '1277', '1280', '1281', '1282', '1284', '1285', '1287', '1288', '1293', '1295', '1296', '1297', '1301', '1305', '1307', '1308', '1312', '1313', '1317', '1318', '1319', '1320', '1321', '1332', '1335', '1337', '1339', '1341', '1342', '1343', '1347', '1349', '1351', '1353', '1355', '1357', '1358', '1364', '1365', '1366', '1367', '1369', '1370', '1392', '1395', '1397', '1407', '1408', '1411', '1413', '1415', '1417', '1421', '1425', '1429', '1430', '1432', '1433', '1434', '1435', '1441', '1448', '1449', '1450', '1452', '1457', '1463', '1472', '1474', '1477', '1480', '1483', '1485', '1487', '1491', '1496', '1497', '1499', '1500', '1506', '1508', '1510', '1511', '1512', '1513', '1516', '1521', '1522', '1523', '1533', '1536', '1540', '1542', '1547', '1553', '1554', '1559', '1564', '1565', '1566', '1568', '1576', '1583', '1584', '1586', '1598', '1599', '1602', '1603', '1604', '1605', '1610', '1612', '1614', '1616', '1617', '1619', '1630', '1631', '1635', '1636', '1645', '1646', '1647', '1650', '1651', '1652', '1655', '1659', '1664', '1667', '1669', '1671', '1674', '1677', '1678', '1686', '1688', '1689', '1692', '1693', '1694', '1696', '1700', '1704', '1706', '1711', '1712', '1714', '1721', '1722', '1724', '1725', '1726', '1727', '1729', '1732', '1735', '1736', '1738', '1741', '1750', '1763', '1770', '1771', '1772', '1773', '1777', '1778', '1784', '1785', '1786', '1788', '1795', '1801', '1806', '1809', '1810', '1811', '1812', '1813', '1814', '1820', '1830', '1831', '1833', '1836', '1837', '1842', '1843', '1848', '1849', '1855', '1857', '1865', '1872', '1875', '1877', '1880', '1882', '1883', '1884', '1886', '1892', '1895', '1896', '1901', '1902', '1905', '1908', '1913', '1915', '1921', '1925', '1927', '1932', '1933', '1940', '1942', '1943', '1947', '1948', '1949', '1950', '1952', '1953', '1954', '1959', '1961', '1962', '1965', '1971', '1976', '1979', '1981', '1983', '1984', '1985', '1986', '1987', '1988', '1989', '1991', '1993', '1995', '1996']",False,2000,True,2,0324b5b1d0,0.0,1.0,1.0
./expes/v2_2021-03-23_issda-30_2000-prng-1-w2-p2,30_issda-2000,2000,first-2000,700,35,rng,num-start-4000,4000,25726,classic,2698.7759375572205,True,,False,1.0,1.0,1.0,1,"['1', '3', '4', '8', '9', '11', '24', '25', '30', '32', '35', '38', '39', '40', '44', '47', '48', '53', '56', '57', '58', '60', '71', '76', '77', '81', '82', '86', '87', '89', '93', '96', '99', '102', '104', '108', '111', '112', '114', '117', '118', '119', '121', '122', '123', '125', '127', '128', '129', '130', '132', '134', '137', '138', '141', '144', '145', '149', '150', '159', '165', '166', '168', '170', '172', '173', '174', '176', '177', '178', '182', '184', '186', '187', '189', '192', '193', '200', '201', '208', '210', '211', '212', '213', '215', '218', '225', '226', '232', '237', '240', '242', '246', '247', '250', '251', '252', '254', '258', '261', '265', '266', '268', '269', '273', '281', '282', '286', '287', '290', '293', '295', '296', '299', '300', '301', '305', '306', '307', '309', '310', '311', '312', '317', '318', '320', '323', '326', '331', '333', '334', '335', '338', '341', '343', '345', '349', '353', '361', '365', '366', '369', '371', '372', '374', '375', '376', '380', '385', '389', '391', '392', '397', '399', '400', '401', '403', '407', '409', '410', '412', '414', '415', '419', '421', '422', '426', '428', '433', '436', '440', '441', '447', '450', '452', '453', '456', '457', '458', '459', '465', '469', '471', '473', '476', '477', '478', '489', '491', '493', '497', '500', '501', '504', '508', '509', '513', '516', '517', '519', '524', '530', '531', '532', '534', '535', '537', '539', '540', '542', '543', '544', '549', '551', '553', '554', '555', '557', '568', '570', '571', '572', '573', '578', '583', '589', '590', '594', '600', '601', '606', '611', '614', '615', '621', '624', '625', '631', '632', '634', '635', '639', '643', '644', '648', '653', '663', '664', '667', '668', '670', '674', '676', '679', '681', '687', '692', '693', '695', '697', '701', '702', '704', '705', '706', '711', '712', '716', '718', '725', '728', '729', '731', '735', '741', '745', '746', '747', '749', '750', '752', '757', '763', '771', '780', '781', '782', '788', '791', '796', '801', '804', '806', '807', '808', '809', '811', '813', '815', '816', '818', '819', '821', '823', '828', '829', '832', '851', '854', '856', '857', '859', '862', '863', '864', '865', '870', '872', '876', '878', '882', '883', '884', '886', '889', '902', '903', '906', '908', '913', '914', '916', '917', '920', '927', '929', '930', '935', '936', '939', '940', '941', '946', '949', '954', '955', '958', '963', '968', '970', '971', '972', '973', '980', '981', '982', '984', '987', '989', '991', '994', '998', '1000', '1002', '1010', '1012', '1013', '1014', '1017', '1018', '1025', '1027', '1028', '1030', '1034', '1036', '1037', '1038', '1040', '1041', '1046', '1049', '1050', '1054', '1055', '1056', '1058', '1059', '1060', '1061', '1062', '1072', '1073', '1076', '1079', '1080', '1082', '1084', '1087', '1088', '1089', '1090', '1091', '1093', '1095', '1098', '1099', '1108', '1110', '1113', '1115', '1119', '1121', '1122', '1123', '1124', '1126', '1127', '1129', '1133', '1135', '1138', '1140', '1141', '1143', '1146', '1148', '1151', '1156', '1159', '1160', '1161', '1169', '1170', '1174', '1177', '1182', '1184', '1188', '1192', '1194', '1195', '1200', '1202', '1207', '1210', '1218', '1221', '1222', '1227', '1231', '1234', '1240', '1242', '1246', '1247', '1248', '1249', '1250', '1252', '1253', '1255', '1256', '1257', '1258', '1265', '1268', '1274', '1278', '1279', '1281', '1285', '1288', '1290', '1292', '1300', '1303', '1304', '1309', '1317', '1318', '1326', '1331', '1332', '1334', '1338', '1342', '1344', '1345', '1347', '1349', '1353', '1357', '1361', '1363', '1368', '1369', '1370', '1372', '1374', '1375', '1377', '1385', '1394', '1396', '1397', '1398', '1399', '1409', '1410', '1414', '1415', '1418', '1419', '1424', '1426', '1428', '1432', '1435', '1437', '1441', '1447', '1448', '1454', '1458', '1459', '1467', '1468', '1479', '1481', '1485', '1486', '1488', '1493', '1494', '1498', '1502', '1513', '1516', '1517', '1518', '1523', '1530', '1535', '1536', '1537', '1538', '1548', '1551', '1553', '1554', '1556', '1557', '1565', '1566', '1574', '1581', '1582', '1590', '1591', '1592', '1596', '1598', '1603', '1606', '1607', '1615', '1617', '1619', '1627', '1633', '1635', '1637', '1638', '1641', '1642', '1646', '1651', '1652', '1654', '1656', '1662', '1670', '1672', '1674', '1676', '1678', '1679', '1682', '1684', '1692', '1693', '1694', '1698', '1703', '1705', '1709', '1710', '1715', '1721', '1722', '1723', '1732', '1739', '1740', '1747', '1748', '1754', '1759', '1760', '1767', '1769', '1770', '1783', '1784', '1785', '1786', '1788', '1790', '1791', '1792', '1793', '1795', '1796', '1799', '1801', '1802', '1807', '1808', '1809', '1810', '1811', '1813', '1817', '1821', '1829', '1831', '1834', '1838', '1839', '1843', '1844', '1852', '1854', '1856', '1861', '1863', '1864', '1867', '1869', '1873', '1875', '1878', '1880', '1882', '1883', '1890', '1892', '1898', '1901', '1910', '1912', '1913', '1915', '1920', '1922', '1925', '1927', '1929', '1930', '1932', '1935', '1938', '1940', '1941', '1942', '1944', '1947', '1948', '1950', '1951', '1952', '1956', '1957', '1959', '1962', '1968', '1970', '1971', '1978', '1982', '1985', '1988', '1989', '1990', '1991', '1992', '1994', '1996', '2000']",True,2000,True,2,be028aa9c1,0.0,0.0,1.0
./expes/v2_2021-03-23_issda-30_2000-prng-1-w2-p2,30_issda-2000,2000,first-2000,800,40,rng,num-start-3000,3000,25726,classic,2243.6177232265472,True,,True,1.0,1.0,1.0,1,"['4', '8', '10', '11', '15', '16', '24', '27', '32', '37', '41', '42', '44', '46', '48', '49', '53', '56', '57', '58', '59', '61', '62', '64', '65', '67', '68', '70', '72', '73', '74', '75', '76', '87', '88', '89', '91', '93', '94', '95', '102', '103', '105', '109', '110', '113', '122', '124', '125', '126', '130', '132', '135', '137', '140', '141', '142', '147', '149', '157', '158', '159', '160', '164', '171', '176', '177', '182', '187', '189', '190', '197', '199', '200', '204', '205', '209', '211', '212', '214', '215', '219', '220', '222', '223', '230', '231', '233', '236', '242', '244', '245', '246', '248', '249', '251', '253', '254', '255', '256', '257', '260', '262', '264', '266', '267', '268', '270', '273', '275', '279', '280', '282', '284', '290', '294', '295', '300', '301', '306', '307', '309', '311', '320', '322', '327', '329', '333', '335', '347', '348', '349', '351', '352', '353', '362', '364', '366', '367', '369', '370', '372', '373', '376', '379', '380', '382', '383', '384', '388', '389', '391', '392', '393', '397', '405', '407', '408', '409', '411', '414', '422', '431', '433', '445', '446', '447', '448', '453', '455', '456', '460', '461', '466', '471', '475', '476', '480', '481', '482', '484', '487', '488', '489', '490', '491', '496', '501', '502', '507', '509', '512', '513', '514', '515', '518', '521', '523', '529', '530', '532', '537', '540', '541', '542', '543', '544', '545', '547', '548', '550', '551', '552', '554', '555', '556', '561', '563', '571', '572', '573', '583', '584', '588', '592', '595', '598', '601', '602', '603', '606', '612', '614', '615', '616', '617', '621', '623', '630', '635', '640', '641', '642', '643', '645', '646', '647', '648', '653', '656', '660', '662', '665', '667', '669', '672', '674', '678', '679', '681', '682', '684', '686', '690', '694', '695', '696', '697', '699', '700', '705', '708', '710', '718', '719', '720', '721', '722', '723', '726', '731', '736', '738', '739', '746', '749', '753', '755', '757', '758', '760', '763', '765', '767', '769', '770', '771', '772', '773', '774', '778', '779', '784', '785', '786', '791', '794', '797', '798', '799', '801', '802', '803', '807', '809', '813', '814', '816', '820', '822', '827', '835', '836', '839', '841', '846', '847', '848', '851', '854', '857', '860', '861', '862', '863', '867', '871', '873', '875', '878', '881', '884', '886', '890', '892', '894', '896', '898', '908', '911', '912', '918', '923', '924', '927', '931', '935', '936', '938', '943', '944', '951', '952', '955', '958', '959', '961', '964', '969', '970', '971', '976', '978', '981', '982', '983', '986', '987', '988', '989', '991', '996', '999', '1003', '1004', '1012', '1014', '1017', '1020', '1025', '1029', '1031', '1034', '1036', '1039', '1042', '1045', '1048', '1050', '1055', '1056', '1060', '1062', '1063', '1065', '1066', '1068', '1072', '1076', '1077', '1080', '1081', '1084', '1085', '1086', '1090', '1094', '1095', '1097', '1098', '1099', '1100', '1102', '1108', '1109', '1110', '1113', '1114', '1115', '1116', '1124', '1126', '1127', '1129', '1132', '1134', '1135', '1136', '1137', '1138', '1140', '1141', '1145', '1146', '1147', '1155', '1156', '1160', '1161', '1162', '1164', '1165', '1166', '1168', '1170', '1172', '1175', '1176', '1178', '1180', '1182', '1186', '1188', '1189', '1190', '1195', '1197', '1198', '1199', '1200', '1201', '1202', '1204', '1206', '1207', '1208', '1209', '1211', '1213', '1214', '1219', '1220', '1224', '1227', '1228', '1229', '1231', '1232', '1237', '1238', '1240', '1241', '1245', '1247', '1251', '1254', '1259', '1262', '1266', '1269', '1271', '1274', '1276', '1282', '1284', '1285', '1286', '1287', '1288', '1293', '1295', '1297', '1298', '1299', '1300', '1301', '1304', '1309', '1315', '1317', '1319', '1320', '1321', '1323', '1325', '1327', '1328', '1331', '1332', '1337', '1339', '1340', '1343', '1351', '1357', '1358', '1363', '1366', '1368', '1373', '1375', '1376', '1377', '1378', '1380', '1381', '1383', '1384', '1385', '1389', '1390', '1392', '1395', '1396', '1397', '1401', '1405', '1413', '1415', '1416', '1421', '1422', '1424', '1425', '1427', '1429', '1430', '1431', '1434', '1436', '1437', '1440', '1444', '1445', '1448', '1460', '1462', '1463', '1465', '1466', '1467', '1468', '1469', '1470', '1471', '1472', '1473', '1476', '1477', '1481', '1490', '1491', '1492', '1493', '1496', '1499', '1503', '1504', '1506', '1512', '1515', '1519', '1520', '1521', '1523', '1527', '1531', '1532', '1533', '1534', '1541', '1543', '1544', '1545', '1546', '1549', '1550', '1551', '1553', '1557', '1560', '1572', '1575', '1581', '1582', '1586', '1588', '1589', '1591', '1592', '1596', '1597', '1598', '1601', '1602', '1603', '1604', '1612', '1613', '1615', '1620', '1622', '1623', '1626', '1629', '1635', '1636', '1637', '1640', '1641', '1645', '1647', '1651', '1652', '1653', '1654', '1658', '1659', '1660', '1662', '1663', '1666', '1669', '1671', '1673', '1674', '1679', '1683', '1687', '1696', '1704', '1706', '1707', '1708', '1710', '1713', '1714', '1716', '1718', '1724', '1726', '1728', '1729', '1735', '1741', '1744', '1746', '1749', '1750', '1752', '1753', '1754', '1755', '1756', '1758', '1759', '1761', '1763', '1764', '1765', '1767', '1769', '1770', '1772', '1773', '1776', '1778', '1779', '1781', '1782', '1783', '1787', '1788', '1793', '1800', '1802', '1803', '1804', '1805', '1807', '1810', '1813', '1816', '1817', '1818', '1822', '1823', '1824', '1825', '1826', '1837', '1838', '1839', '1843', '1847', '1851', '1852', '1853', '1856', '1862', '1864', '1866', '1870', '1872', '1876', '1878', '1879', '1885', '1886', '1887', '1888', '1889', '1893', '1897', '1900', '1903', '1904', '1909', '1913', '1914', '1915', '1917', '1918', '1923', '1924', '1927', '1928', '1931', '1932', '1934', '1935', '1936', '1941', '1944', '1945', '1946', '1947', '1948', '1951', '1953', '1956', '1957', '1961', '1962', '1964', '1967', '1968', '1969', '1973', '1975', '1976', '1978', '1980', '1981', '1985', '1989', '1990', '1991', '1993', '1997']",False,2000,True,2,10a3266c5e,0.0,1.0,1.0
