expe,clients,clients_size,clients_subset,agg_size,agg_size_pc,method,days,days_size,days_total,noise_method,time,valid,valid_sum,success,score_avg,score_min,score_max,nsols,oracle,wall_hit,wall_time,pooled,pool_size,uuid,infeasible,optimal,valid_sums
./expes/v2_2021-03-23_issda-30_2000-prng-1-w2-p2,30_issda-2000,2000,first-2000,100,5,rng,num-start-3600,3600,25726,classic,1107.48562002182,True,,True,1.0,1.0,1.0,1,"['4', '7', '11', '27', '45', '60', '107', '134', '136', '148', '209', '232', '260', '271', '285', '299', '322', '327', '340', '341', '373', '404', '408', '420', '429', '442', '444', '505', '511', '524', '541', '573', '593', '612', '618', '627', '635', '643', '680', '693', '728', '735', '740', '762', '780', '785', '798', '836', '850', '912', '954', '961', '1086', '1105', '1114', '1176', '1201', '1221', '1236', '1265', '1266', '1276', '1282', '1330', '1336', '1389', '1415', '1450', '1498', '1516', '1520', '1561', '1569', '1585', '1590', '1629', '1633', '1675', '1677', '1722', '1724', '1777', '1779', '1785', '1787', '1795', '1831', '1846', '1877', '1889', '1917', '1928', '1931', '1932', '1967', '1970', '1977', '1980', '1984', '1992']",False,2000,True,2,07f02d8ac5,0.0,1.0,1.0
./expes/v2_2021-03-23_issda-30_2000-prng-1-w2-p2,30_issda-2000,2000,first-2000,800,40,rng,num-start-1600,1600,25726,classic,2200.37229347229,True,,False,1.0,1.0,1.0,1,"['1', '3', '4', '7', '8', '9', '11', '24', '25', '26', '30', '32', '33', '35', '36', '38', '39', '40', '44', '47', '48', '53', '56', '57', '58', '60', '64', '71', '76', '77', '81', '82', '86', '87', '89', '90', '93', '96', '99', '102', '104', '108', '111', '112', '114', '117', '118', '119', '121', '122', '123', '125', '127', '128', '129', '130', '132', '134', '136', '137', '138', '141', '144', '145', '149', '150', '153', '157', '158', '159', '165', '166', '168', '170', '172', '173', '174', '175', '176', '177', '178', '182', '184', '185', '186', '187', '189', '192', '193', '200', '201', '204', '208', '210', '211', '212', '213', '215', '218', '225', '226', '232', '237', '240', '242', '243', '246', '247', '250', '251', '252', '254', '258', '261', '265', '266', '268', '269', '273', '274', '281', '282', '286', '287', '290', '291', '293', '295', '296', '297', '299', '300', '301', '302', '305', '306', '307', '309', '310', '311', '312', '317', '318', '320', '323', '326', '331', '333', '334', '335', '338', '341', '343', '345', '349', '353', '361', '365', '366', '369', '371', '372', '374', '375', '376', '380', '385', '389', '391', '392', '397', '399', '400', '401', '403', '407', '409', '410', '412', '414', '415', '419', '421', '422', '426', '428', '430', '432', '433', '436', '440', '441', '446', '447', '450', '452', '453', '456', '457', '458', '459', '465', '469', '471', '473', '476', '477', '478', '481', '489', '491', '493', '497', '500', '501', '504', '508', '509', '513', '516', '517', '519', '521', '524', '530', '531', '532', '534', '535', '537', '539', '540', '541', '542', '543', '544', '549', '551', '553', '554', '555', '557', '568', '570', '571', '572', '573', '578', '582', '583', '585', '589', '590', '594', '596', '600', '601', '606', '611', '614', '615', '621', '624', '625', '631', '632', '634', '635', '639', '643', '644', '648', '653', '663', '664', '667', '668', '670', '674', '676', '679', '680', '681', '687', '692', '693', '695', '697', '701', '702', '704', '705', '706', '711', '712', '716', '718', '725', '728', '729', '731', '735', '739', '741', '745', '746', '747', '749', '750', '752', '757', '763', '771', '772', '780', '781', '782', '784', '788', '791', '793', '796', '798', '801', '804', '806', '807', '808', '809', '811', '813', '815', '816', '818', '819', '821', '823', '828', '829', '832', '851', '854', '856', '857', '859', '862', '863', '864', '865', '870', '872', '876', '878', '880', '882', '883', '884', '886', '889', '902', '903', '906', '908', '913', '914', '916', '917', '920', '921', '925', '927', '929', '930', '935', '936', '939', '940', '941', '943', '946', '949', '952', '954', '955', '956', '958', '963', '968', '969', '970', '971', '972', '973', '980', '981', '982', '984', '987', '988', '989', '991', '994', '995', '998', '1000', '1002', '1003', '1010', '1012', '1013', '1014', '1017', '1018', '1025', '1027', '1028', '1030', '1031', '1033', '1034', '1036', '1037', '1038', '1040', '1041', '1046', '1049', '1050', '1051', '1054', '1055', '1056', '1058', '1059', '1060', '1061', '1062', '1072', '1073', '1076', '1078', '1079', '1080', '1082', '1084', '1087', '1088', '1089', '1090', '1091', '1093', '1095', '1097', '1098', '1099', '1108', '1110', '1113', '1115', '1119', '1121', '1122', '1123', '1124', '1125', '1126', '1127', '1129', '1133', '1135', '1138', '1140', '1141', '1143', '1144', '1146', '1148', '1151', '1156', '1159', '1160', '1161', '1163', '1165', '1169', '1170', '1174', '1177', '1182', '1184', '1188', '1191', '1192', '1194', '1195', '1197', '1200', '1202', '1207', '1210', '1218', '1221', '1222', '1227', '1229', '1231', '1234', '1240', '1242', '1246', '1247', '1248', '1249', '1250', '1252', '1253', '1255', '1256', '1257', '1258', '1264', '1265', '1268', '1273', '1274', '1278', '1279', '1281', '1283', '1285', '1286', '1288', '1290', '1292', '1296', '1300', '1303', '1304', '1305', '1309', '1317', '1318', '1326', '1331', '1332', '1334', '1335', '1338', '1342', '1344', '1345', '1347', '1349', '1351', '1353', '1357', '1361', '1363', '1368', '1369', '1370', '1372', '1374', '1375', '1377', '1384', '1385', '1394', '1395', '1396', '1397', '1398', '1399', '1401', '1406', '1409', '1410', '1414', '1415', '1418', '1419', '1420', '1424', '1426', '1428', '1432', '1435', '1436', '1437', '1441', '1447', '1448', '1452', '1454', '1457', '1458', '1459', '1465', '1467', '1468', '1476', '1479', '1481', '1484', '1485', '1486', '1488', '1493', '1494', '1498', '1502', '1503', '1509', '1513', '1516', '1517', '1518', '1523', '1528', '1530', '1533', '1535', '1536', '1537', '1538', '1542', '1548', '1550', '1551', '1553', '1554', '1556', '1557', '1565', '1566', '1571', '1572', '1574', '1581', '1582', '1590', '1591', '1592', '1596', '1598', '1603', '1606', '1607', '1615', '1617', '1619', '1627', '1633', '1634', '1635', '1637', '1638', '1641', '1642', '1646', '1648', '1651', '1652', '1654', '1656', '1658', '1662', '1664', '1665', '1670', '1672', '1674', '1676', '1678', '1679', '1680', '1682', '1684', '1690', '1692', '1693', '1694', '1698', '1703', '1705', '1709', '1710', '1711', '1712', '1715', '1721', '1722', '1723', '1732', '1733', '1739', '1740', '1747', '1748', '1754', '1759', '1760', '1767', '1769', '1770', '1783', '1784', '1785', '1786', '1788', '1790', '1791', '1792', '1793', '1795', '1796', '1799', '1801', '1802', '1807', '1808', '1809', '1810', '1811', '1813', '1817', '1821', '1827', '1829', '1831', '1834', '1838', '1839', '1843', '1844', '1852', '1854', '1856', '1861', '1863', '1864', '1865', '1867', '1869', '1873', '1875', '1878', '1880', '1882', '1883', '1890', '1892', '1898', '1901', '1906', '1910', '1912', '1913', '1915', '1918', '1920', '1922', '1925', '1927', '1929', '1930', '1932', '1935', '1937', '1938', '1940', '1941', '1942', '1944', '1947', '1948', '1950', '1951', '1952', '1956', '1957', '1959', '1962', '1966', '1968', '1970', '1971', '1978', '1982', '1983', '1985', '1988', '1989', '1990', '1991', '1992', '1994', '1996', '1999', '2000']",True,2000,True,2,95a0222ef6,0.0,0.0,1.0
./expes/v2_2021-03-23_issda-30_2000-prng-1-w2-p2,30_issda-2000,2000,first-2000,700,35,rng,num-start-3400,3400,25726,classic,2442.14976644516,True,,False,1.0,1.0,1.0,1,"['4', '5', '12', '16', '18', '19', '21', '22', '23', '26', '30', '35', '36', '37', '38', '39', '42', '43', '45', '46', '49', '50', '53', '56', '58', '59', '60', '61', '63', '66', '67', '71', '73', '77', '78', '81', '82', '83', '85', '90', '94', '98', '99', '100', '115', '121', '128', '129', '130', '132', '134', '143', '145', '146', '147', '149', '150', '154', '157', '158', '167', '168', '171', '174', '175', '178', '183', '184', '186', '188', '189', '193', '198', '203', '205', '206', '207', '210', '211', '214', '219', '221', '222', '223', '225', '229', '234', '235', '236', '237', '242', '248', '253', '257', '258', '259', '265', '268', '273', '276', '277', '278', '284', '290', '291', '300', '302', '307', '316', '322', '324', '325', '326', '327', '329', '332', '336', '339', '342', '343', '345', '346', '348', '349', '352', '353', '355', '363', '364', '365', '368', '371', '376', '379', '381', '383', '385', '386', '389', '398', '408', '409', '410', '411', '412', '418', '421', '422', '424', '426', '429', '430', '435', '437', '441', '444', '446', '449', '450', '451', '452', '455', '458', '459', '461', '462', '463', '465', '466', '469', '471', '473', '476', '478', '479', '481', '482', '489', '491', '495', '498', '500', '502', '504', '505', '507', '512', '513', '517', '518', '519', '520', '523', '529', '530', '531', '546', '547', '549', '551', '552', '559', '564', '568', '576', '577', '582', '594', '595', '596', '597', '602', '603', '604', '606', '607', '608', '611', '612', '613', '614', '621', '622', '626', '628', '629', '630', '632', '636', '639', '641', '642', '645', '648', '649', '650', '651', '655', '656', '657', '658', '660', '667', '671', '672', '679', '681', '682', '685', '691', '694', '695', '697', '699', '704', '705', '706', '708', '709', '711', '724', '727', '729', '731', '736', '739', '747', '748', '752', '754', '756', '759', '762', '768', '773', '775', '777', '778', '779', '781', '786', '792', '799', '800', '802', '806', '807', '809', '811', '814', '815', '817', '822', '823', '824', '828', '829', '833', '845', '847', '849', '853', '854', '863', '865', '873', '874', '880', '881', '885', '887', '892', '897', '898', '899', '900', '913', '915', '918', '921', '922', '924', '928', '929', '932', '934', '938', '939', '941', '942', '944', '952', '961', '962', '968', '971', '977', '981', '984', '986', '993', '994', '995', '996', '1000', '1002', '1003', '1009', '1011', '1014', '1015', '1016', '1017', '1023', '1024', '1026', '1027', '1029', '1033', '1034', '1035', '1037', '1040', '1042', '1043', '1045', '1048', '1050', '1053', '1054', '1058', '1063', '1067', '1073', '1081', '1083', '1091', '1095', '1101', '1102', '1103', '1106', '1107', '1109', '1110', '1112', '1115', '1116', '1118', '1122', '1123', '1124', '1125', '1127', '1128', '1129', '1132', '1133', '1136', '1140', '1148', '1149', '1150', '1154', '1156', '1157', '1160', '1166', '1168', '1169', '1170', '1175', '1177', '1180', '1184', '1185', '1186', '1188', '1197', '1202', '1204', '1207', '1210', '1211', '1212', '1215', '1216', '1218', '1221', '1222', '1229', '1230', '1232', '1233', '1237', '1241', '1242', '1245', '1248', '1252', '1253', '1254', '1255', '1257', '1260', '1266', '1276', '1277', '1280', '1289', '1292', '1293', '1302', '1309', '1316', '1318', '1322', '1324', '1326', '1328', '1329', '1331', '1335', '1336', '1339', '1345', '1351', '1352', '1356', '1360', '1362', '1363', '1364', '1368', '1373', '1374', '1377', '1379', '1381', '1382', '1383', '1387', '1389', '1395', '1397', '1406', '1407', '1408', '1410', '1413', '1417', '1419', '1424', '1426', '1437', '1439', '1440', '1441', '1442', '1444', '1453', '1457', '1458', '1460', '1464', '1465', '1473', '1478', '1480', '1483', '1486', '1487', '1488', '1492', '1494', '1496', '1498', '1501', '1509', '1511', '1512', '1517', '1522', '1524', '1529', '1538', '1543', '1545', '1548', '1555', '1559', '1562', '1564', '1565', '1569', '1572', '1573', '1578', '1579', '1589', '1590', '1593', '1594', '1595', '1597', '1598', '1602', '1603', '1605', '1608', '1609', '1611', '1612', '1615', '1616', '1618', '1623', '1624', '1625', '1629', '1631', '1633', '1634', '1636', '1643', '1644', '1646', '1647', '1648', '1652', '1654', '1656', '1658', '1662', '1666', '1673', '1674', '1676', '1679', '1680', '1681', '1682', '1683', '1692', '1696', '1697', '1698', '1700', '1705', '1710', '1712', '1713', '1716', '1721', '1722', '1723', '1724', '1731', '1734', '1735', '1736', '1738', '1739', '1742', '1744', '1748', '1754', '1756', '1757', '1759', '1760', '1762', '1764', '1766', '1767', '1773', '1774', '1777', '1778', '1782', '1786', '1794', '1797', '1800', '1805', '1808', '1809', '1813', '1815', '1818', '1825', '1826', '1829', '1830', '1831', '1835', '1837', '1843', '1845', '1847', '1850', '1858', '1863', '1864', '1865', '1866', '1871', '1873', '1877', '1879', '1880', '1883', '1885', '1886', '1887', '1888', '1889', '1895', '1896', '1897', '1898', '1905', '1907', '1910', '1911', '1918', '1921', '1922', '1924', '1927', '1928', '1933', '1934', '1936', '1945', '1946', '1950', '1951', '1955', '1956', '1959', '1961', '1966', '1967', '1971', '1974', '1976', '1978', '1980', '1981', '1983', '1985', '1987', '1988', '1992', '1994', '1995', '1998', '1999', '2000']",True,2000,True,2,e35635628f,0.0,0.0,1.0
./expes/v2_2021-03-23_issda-30_2000-prng-1-w2-p2,30_issda-2000,2000,first-2000,900,45,rng,num-start-2200,2200,25726,classic,1691.9201173782349,True,,True,1.0,1.0,1.0,1,"['1', '3', '4', '5', '7', '15', '16', '17', '18', '19', '20', '21', '26', '28', '29', '30', '31', '32', '34', '39', '42', '43', '45', '47', '51', '55', '57', '58', '61', '62', '63', '65', '67', '68', '69', '73', '74', '75', '78', '79', '80', '81', '82', '83', '84', '85', '87', '92', '93', '94', '95', '96', '97', '99', '103', '114', '119', '124', '126', '128', '129', '131', '135', '136', '140', '142', '144', '145', '146', '148', '150', '152', '155', '157', '160', '161', '162', '165', '166', '167', '168', '169', '171', '172', '173', '174', '175', '178', '179', '184', '186', '187', '188', '190', '192', '195', '201', '203', '204', '206', '207', '208', '209', '211', '215', '216', '223', '224', '228', '230', '231', '233', '235', '236', '237', '238', '240', '241', '243', '244', '246', '248', '249', '253', '254', '255', '256', '257', '261', '266', '267', '268', '271', '272', '274', '276', '277', '284', '286', '287', '289', '291', '292', '294', '299', '300', '301', '304', '305', '307', '310', '311', '315', '316', '317', '319', '320', '321', '323', '325', '328', '330', '332', '335', '336', '340', '342', '347', '350', '358', '359', '365', '366', '368', '370', '373', '374', '377', '379', '380', '383', '386', '387', '388', '390', '391', '392', '394', '399', '400', '402', '406', '407', '409', '414', '417', '418', '419', '420', '422', '423', '425', '426', '427', '431', '432', '438', '441', '443', '445', '448', '449', '451', '452', '453', '455', '457', '461', '471', '473', '476', '477', '479', '483', '485', '489', '490', '491', '492', '496', '498', '500', '508', '509', '511', '514', '518', '522', '524', '526', '527', '529', '531', '532', '533', '534', '535', '537', '538', '553', '554', '556', '563', '564', '565', '568', '571', '574', '576', '578', '580', '581', '588', '590', '593', '594', '595', '597', '600', '601', '602', '603', '604', '607', '611', '612', '613', '614', '616', '617', '618', '619', '620', '621', '622', '626', '631', '636', '638', '640', '645', '647', '648', '650', '652', '656', '657', '660', '661', '664', '665', '667', '668', '670', '673', '677', '678', '682', '683', '685', '687', '688', '691', '692', '693', '697', '698', '702', '704', '706', '708', '710', '711', '713', '718', '722', '723', '725', '727', '728', '731', '732', '734', '735', '736', '740', '741', '742', '750', '752', '753', '755', '756', '757', '759', '761', '762', '763', '770', '771', '772', '775', '776', '777', '783', '786', '787', '789', '792', '794', '795', '796', '802', '803', '807', '809', '812', '813', '816', '817', '823', '824', '826', '830', '831', '832', '836', '837', '840', '843', '849', '850', '851', '852', '854', '855', '856', '857', '859', '860', '861', '862', '864', '865', '867', '869', '872', '873', '874', '883', '884', '885', '890', '892', '894', '904', '906', '907', '911', '912', '913', '914', '915', '918', '919', '920', '923', '925', '928', '929', '930', '933', '938', '939', '940', '944', '947', '948', '955', '957', '964', '965', '966', '967', '970', '971', '975', '976', '977', '980', '982', '986', '987', '988', '990', '996', '997', '998', '1000', '1001', '1003', '1005', '1008', '1009', '1011', '1013', '1015', '1018', '1019', '1020', '1021', '1022', '1029', '1032', '1034', '1035', '1039', '1041', '1042', '1048', '1058', '1061', '1063', '1065', '1066', '1067', '1068', '1069', '1072', '1073', '1075', '1076', '1077', '1078', '1081', '1083', '1084', '1085', '1086', '1091', '1093', '1095', '1097', '1102', '1107', '1108', '1112', '1113', '1114', '1115', '1117', '1120', '1121', '1122', '1124', '1125', '1128', '1129', '1132', '1133', '1140', '1144', '1147', '1149', '1150', '1155', '1157', '1160', '1163', '1164', '1166', '1167', '1168', '1172', '1176', '1179', '1180', '1188', '1190', '1192', '1194', '1195', '1198', '1199', '1201', '1203', '1204', '1208', '1209', '1211', '1215', '1218', '1220', '1222', '1223', '1226', '1230', '1232', '1233', '1234', '1235', '1236', '1237', '1239', '1241', '1242', '1245', '1246', '1248', '1249', '1250', '1252', '1253', '1254', '1255', '1259', '1265', '1267', '1268', '1271', '1272', '1274', '1277', '1281', '1284', '1285', '1286', '1289', '1291', '1294', '1295', '1296', '1297', '1298', '1299', '1301', '1303', '1305', '1306', '1308', '1309', '1312', '1313', '1314', '1320', '1321', '1325', '1330', '1333', '1339', '1343', '1344', '1345', '1346', '1347', '1350', '1353', '1357', '1359', '1364', '1366', '1369', '1370', '1373', '1378', '1380', '1384', '1385', '1387', '1389', '1390', '1391', '1392', '1393', '1394', '1395', '1396', '1398', '1400', '1401', '1406', '1408', '1410', '1411', '1413', '1415', '1417', '1429', '1431', '1432', '1433', '1434', '1435', '1436', '1437', '1438', '1439', '1442', '1445', '1446', '1447', '1448', '1449', '1453', '1455', '1459', '1462', '1464', '1466', '1469', '1470', '1471', '1472', '1474', '1480', '1486', '1490', '1492', '1493', '1494', '1495', '1496', '1497', '1499', '1500', '1504', '1505', '1514', '1518', '1519', '1528', '1529', '1530', '1532', '1533', '1535', '1536', '1539', '1541', '1546', '1547', '1548', '1550', '1552', '1553', '1555', '1557', '1561', '1572', '1573', '1575', '1582', '1583', '1585', '1590', '1591', '1592', '1593', '1594', '1597', '1602', '1604', '1605', '1606', '1608', '1609', '1615', '1616', '1618', '1621', '1623', '1625', '1627', '1628', '1630', '1632', '1634', '1635', '1638', '1639', '1640', '1645', '1646', '1648', '1649', '1651', '1653', '1655', '1657', '1659', '1660', '1663', '1664', '1669', '1671', '1674', '1676', '1678', '1679', '1683', '1684', '1685', '1690', '1691', '1692', '1694', '1696', '1698', '1699', '1700', '1701', '1708', '1712', '1716', '1717', '1721', '1723', '1726', '1729', '1730', '1731', '1732', '1734', '1740', '1742', '1744', '1747', '1749', '1752', '1756', '1760', '1761', '1762', '1763', '1764', '1765', '1766', '1769', '1770', '1772', '1773', '1777', '1780', '1783', '1785', '1786', '1787', '1790', '1791', '1792', '1793', '1794', '1796', '1798', '1799', '1805', '1810', '1811', '1812', '1813', '1814', '1819', '1821', '1823', '1824', '1825', '1827', '1830', '1832', '1834', '1839', '1840', '1841', '1842', '1844', '1846', '1848', '1849', '1850', '1853', '1856', '1860', '1861', '1862', '1864', '1868', '1870', '1872', '1875', '1876', '1878', '1879', '1880', '1881', '1882', '1883', '1884', '1885', '1888', '1889', '1890', '1891', '1892', '1898', '1902', '1908', '1911', '1913', '1914', '1916', '1917', '1918', '1919', '1920', '1922', '1929', '1932', '1935', '1937', '1939', '1940', '1942', '1944', '1945', '1946', '1947', '1951', '1953', '1955', '1959', '1962', '1963', '1965', '1966', '1968', '1969', '1971', '1972', '1973', '1974', '1978', '1980', '1982', '1983', '1984', '1986', '1988', '1992', '1996', '2000']",False,2000,True,2,5e27d94856,0.0,1.0,1.0
./expes/v2_2021-03-23_issda-30_2000-prng-1-w2-p2,30_issda-2000,2000,first-2000,800,40,rng,num-start-2400,2400,25726,classic,2298.8419682979584,True,,False,1.0,1.0,1.0,1,"['2', '4', '5', '9', '12', '16', '18', '19', '21', '22', '23', '26', '28', '30', '35', '36', '37', '38', '39', '42', '43', '44', '45', '46', '49', '50', '53', '56', '58', '59', '60', '61', '63', '64', '66', '67', '71', '73', '77', '78', '81', '82', '83', '84', '85', '90', '94', '98', '99', '100', '107', '115', '121', '128', '129', '130', '132', '134', '143', '145', '146', '147', '149', '150', '154', '157', '158', '167', '168', '171', '172', '174', '175', '178', '183', '184', '186', '188', '189', '193', '198', '203', '205', '206', '207', '210', '211', '214', '219', '221', '222', '223', '225', '229', '234', '235', '236', '237', '242', '245', '248', '250', '253', '254', '257', '258', '259', '265', '268', '273', '276', '277', '278', '280', '284', '285', '290', '291', '300', '302', '304', '307', '316', '320', '322', '324', '325', '326', '327', '329', '332', '336', '338', '339', '342', '343', '345', '346', '348', '349', '352', '353', '355', '362', '363', '364', '365', '368', '371', '376', '379', '381', '383', '385', '386', '389', '398', '408', '409', '410', '411', '412', '418', '420', '421', '422', '424', '426', '428', '429', '430', '435', '437', '441', '444', '446', '449', '450', '451', '452', '455', '458', '459', '461', '462', '463', '465', '466', '469', '471', '473', '476', '478', '479', '481', '482', '489', '491', '494', '495', '497', '498', '500', '502', '504', '505', '507', '509', '512', '513', '514', '517', '518', '519', '520', '523', '529', '530', '531', '534', '546', '547', '548', '549', '551', '552', '559', '560', '564', '568', '569', '576', '577', '582', '584', '594', '595', '596', '597', '602', '603', '604', '606', '607', '608', '611', '612', '613', '614', '621', '622', '626', '628', '629', '630', '632', '636', '638', '639', '641', '642', '645', '648', '649', '650', '651', '655', '656', '657', '658', '660', '663', '667', '671', '672', '679', '681', '682', '685', '691', '694', '695', '697', '699', '704', '705', '706', '708', '709', '711', '713', '724', '727', '729', '731', '732', '736', '739', '747', '748', '752', '754', '756', '759', '762', '766', '768', '773', '775', '776', '777', '778', '779', '781', '784', '785', '786', '787', '792', '799', '800', '802', '806', '807', '809', '811', '814', '815', '817', '822', '823', '824', '828', '829', '833', '837', '845', '847', '849', '853', '854', '861', '863', '865', '873', '874', '880', '881', '884', '885', '887', '892', '896', '897', '898', '899', '900', '912', '913', '915', '918', '921', '922', '924', '928', '929', '932', '934', '938', '939', '941', '942', '944', '952', '961', '962', '968', '971', '977', '981', '984', '986', '993', '994', '995', '996', '1000', '1002', '1003', '1006', '1009', '1011', '1014', '1015', '1016', '1017', '1023', '1024', '1025', '1026', '1027', '1029', '1031', '1033', '1034', '1035', '1037', '1040', '1042', '1043', '1045', '1048', '1050', '1053', '1054', '1055', '1058', '1063', '1067', '1073', '1074', '1081', '1083', '1091', '1094', '1095', '1101', '1102', '1103', '1106', '1107', '1109', '1110', '1111', '1112', '1115', '1116', '1117', '1118', '1122', '1123', '1124', '1125', '1127', '1128', '1129', '1132', '1133', '1136', '1140', '1146', '1148', '1149', '1150', '1154', '1156', '1157', '1160', '1166', '1167', '1168', '1169', '1170', '1173', '1175', '1177', '1180', '1184', '1185', '1186', '1188', '1197', '1200', '1202', '1204', '1207', '1210', '1211', '1212', '1215', '1216', '1218', '1221', '1222', '1229', '1230', '1231', '1232', '1233', '1237', '1241', '1242', '1245', '1248', '1252', '1253', '1254', '1255', '1257', '1260', '1264', '1266', '1275', '1276', '1277', '1280', '1286', '1288', '1289', '1292', '1293', '1302', '1305', '1309', '1316', '1318', '1322', '1324', '1326', '1328', '1329', '1330', '1331', '1335', '1336', '1339', '1345', '1351', '1352', '1353', '1356', '1360', '1362', '1363', '1364', '1368', '1373', '1374', '1377', '1379', '1381', '1382', '1383', '1387', '1388', '1389', '1395', '1396', '1397', '1400', '1406', '1407', '1408', '1410', '1413', '1417', '1419', '1424', '1426', '1435', '1437', '1439', '1440', '1441', '1442', '1444', '1453', '1457', '1458', '1460', '1464', '1465', '1469', '1473', '1474', '1478', '1480', '1483', '1484', '1486', '1487', '1488', '1492', '1494', '1495', '1496', '1498', '1501', '1509', '1510', '1511', '1512', '1517', '1522', '1524', '1529', '1531', '1536', '1538', '1543', '1545', '1548', '1552', '1554', '1555', '1559', '1562', '1564', '1565', '1569', '1572', '1573', '1576', '1578', '1579', '1589', '1590', '1593', '1594', '1595', '1597', '1598', '1602', '1603', '1605', '1608', '1609', '1611', '1612', '1615', '1616', '1618', '1621', '1623', '1624', '1625', '1629', '1631', '1633', '1634', '1636', '1643', '1644', '1646', '1647', '1648', '1650', '1652', '1654', '1655', '1656', '1657', '1658', '1661', '1662', '1666', '1673', '1674', '1676', '1679', '1680', '1681', '1682', '1683', '1692', '1696', '1697', '1698', '1700', '1705', '1710', '1711', '1712', '1713', '1716', '1721', '1722', '1723', '1724', '1725', '1731', '1732', '1734', '1735', '1736', '1738', '1739', '1742', '1743', '1744', '1748', '1752', '1753', '1754', '1756', '1757', '1759', '1760', '1762', '1764', '1766', '1767', '1773', '1774', '1777', '1778', '1782', '1786', '1794', '1797', '1800', '1801', '1805', '1808', '1809', '1813', '1815', '1818', '1825', '1826', '1829', '1830', '1831', '1835', '1837', '1843', '1845', '1847', '1850', '1851', '1852', '1858', '1862', '1863', '1864', '1865', '1866', '1870', '1871', '1873', '1877', '1879', '1880', '1883', '1885', '1886', '1887', '1888', '1889', '1893', '1895', '1896', '1897', '1898', '1905', '1907', '1910', '1911', '1918', '1921', '1922', '1924', '1926', '1927', '1928', '1929', '1933', '1934', '1936', '1945', '1946', '1950', '1951', '1955', '1956', '1959', '1961', '1965', '1966', '1967', '1971', '1974', '1976', '1977', '1978', '1980', '1981', '1983', '1985', '1987', '1988', '1990', '1992', '1993', '1994', '1995', '1997', '1998', '1999', '2000']",True,2000,True,2,9654ed2ffd,0.0,0.0,1.0
./expes/v2_2021-03-23_issda-30_2000-prng-1-w2-p2,30_issda-2000,2000,first-2000,900,45,rng,num-start-2000,2000,25726,classic,1690.4242770671844,True,,True,1.0,1.0,1.0,1,"['1', '3', '4', '5', '7', '15', '16', '17', '18', '19', '20', '21', '26', '28', '29', '30', '31', '32', '34', '39', '42', '43', '45', '47', '51', '55', '57', '58', '61', '62', '63', '65', '67', '68', '69', '73', '74', '75', '78', '79', '80', '81', '82', '83', '84', '85', '87', '92', '93', '94', '95', '96', '97', '99', '103', '114', '119', '124', '126', '128', '129', '131', '135', '136', '140', '142', '144', '145', '146', '148', '150', '152', '155', '157', '160', '161', '162', '165', '166', '167', '168', '169', '171', '172', '173', '174', '175', '178', '179', '184', '186', '187', '188', '190', '192', '195', '201', '203', '204', '206', '207', '208', '209', '211', '215', '216', '223', '224', '228', '230', '231', '233', '235', '236', '237', '238', '240', '241', '243', '244', '246', '248', '249', '253', '254', '255', '256', '257', '261', '266', '267', '268', '271', '272', '274', '276', '277', '284', '286', '287', '289', '291', '292', '294', '299', '300', '301', '304', '305', '307', '310', '311', '315', '316', '317', '319', '320', '321', '323', '325', '328', '330', '332', '335', '336', '340', '342', '347', '350', '358', '359', '365', '366', '368', '370', '373', '374', '377', '379', '380', '383', '386', '387', '388', '390', '391', '392', '394', '399', '400', '402', '406', '407', '409', '414', '417', '418', '419', '420', '422', '423', '425', '426', '427', '431', '432', '438', '441', '443', '445', '448', '449', '451', '452', '453', '455', '457', '461', '471', '473', '476', '477', '479', '483', '485', '489', '490', '491', '492', '496', '498', '500', '508', '509', '511', '514', '518', '522', '524', '526', '527', '529', '531', '532', '533', '534', '535', '537', '538', '553', '554', '556', '563', '564', '565', '568', '571', '574', '576', '578', '580', '581', '588', '590', '593', '594', '595', '597', '600', '601', '602', '603', '604', '607', '611', '612', '613', '614', '616', '617', '618', '619', '620', '621', '622', '626', '631', '636', '638', '640', '645', '647', '648', '650', '652', '656', '657', '660', '661', '664', '665', '667', '668', '670', '673', '677', '678', '682', '683', '685', '687', '688', '691', '692', '693', '697', '698', '702', '704', '706', '708', '710', '711', '713', '718', '722', '723', '725', '727', '728', '731', '732', '734', '735', '736', '740', '741', '742', '750', '752', '753', '755', '756', '757', '759', '761', '762', '763', '770', '771', '772', '775', '776', '777', '783', '786', '787', '789', '792', '794', '795', '796', '802', '803', '807', '809', '812', '813', '816', '817', '823', '824', '826', '830', '831', '832', '836', '837', '840', '843', '849', '850', '851', '852', '854', '855', '856', '857', '859', '860', '861', '862', '864', '865', '867', '869', '872', '873', '874', '883', '884', '885', '890', '892', '894', '904', '906', '907', '911', '912', '913', '914', '915', '918', '919', '920', '923', '925', '928', '929', '930', '933', '938', '939', '940', '944', '947', '948', '955', '957', '964', '965', '966', '967', '970', '971', '975', '976', '977', '980', '982', '986', '987', '988', '990', '996', '997', '998', '1000', '1001', '1003', '1005', '1008', '1009', '1011', '1013', '1015', '1018', '1019', '1020', '1021', '1022', '1029', '1032', '1034', '1035', '1039', '1041', '1042', '1048', '1058', '1061', '1063', '1065', '1066', '1067', '1068', '1069', '1072', '1073', '1075', '1076', '1077', '1078', '1081', '1083', '1084', '1085', '1086', '1091', '1093', '1095', '1097', '1102', '1107', '1108', '1112', '1113', '1114', '1115', '1117', '1120', '1121', '1122', '1124', '1125', '1128', '1129', '1132', '1133', '1140', '1144', '1147', '1149', '1150', '1155', '1157', '1160', '1163', '1164', '1166', '1167', '1168', '1172', '1176', '1179', '1180', '1188', '1190', '1192', '1194', '1195', '1198', '1199', '1201', '1203', '1204', '1208', '1209', '1211', '1215', '1218', '1220', '1222', '1223', '1226', '1230', '1232', '1233', '1234', '1235', '1236', '1237', '1239', '1241', '1242', '1245', '1246', '1248', '1249', '1250', '1252', '1253', '1254', '1255', '1259', '1265', '1267', '1268', '1271', '1272', '1274', '1277', '1281', '1284', '1285', '1286', '1289', '1291', '1294', '1295', '1296', '1297', '1298', '1299', '1301', '1303', '1305', '1306', '1308', '1309', '1312', '1313', '1314', '1320', '1321', '1325', '1330', '1333', '1339', '1343', '1344', '1345', '1346', '1347', '1350', '1353', '1357', '1359', '1364', '1366', '1369', '1370', '1373', '1378', '1380', '1384', '1385', '1387', '1389', '1390', '1391', '1392', '1393', '1394', '1395', '1396', '1398', '1400', '1401', '1406', '1408', '1410', '1411', '1413', '1415', '1417', '1429', '1431', '1432', '1433', '1434', '1435', '1436', '1437', '1438', '1439', '1442', '1445', '1446', '1447', '1448', '1449', '1453', '1455', '1459', '1462', '1464', '1466', '1469', '1470', '1471', '1472', '1474', '1480', '1486', '1490', '1492', '1493', '1494', '1495', '1496', '1497', '1499', '1500', '1504', '1505', '1514', '1518', '1519', '1528', '1529', '1530', '1532', '1533', '1535', '1536', '1539', '1541', '1546', '1547', '1548', '1550', '1552', '1553', '1555', '1557', '1561', '1572', '1573', '1575', '1582', '1583', '1585', '1590', '1591', '1592', '1593', '1594', '1597', '1602', '1604', '1605', '1606', '1608', '1609', '1615', '1616', '1618', '1621', '1623', '1625', '1627', '1628', '1630', '1632', '1634', '1635', '1638', '1639', '1640', '1645', '1646', '1648', '1649', '1651', '1653', '1655', '1657', '1659', '1660', '1663', '1664', '1669', '1671', '1674', '1676', '1678', '1679', '1683', '1684', '1685', '1690', '1691', '1692', '1694', '1696', '1698', '1699', '1700', '1701', '1708', '1712', '1716', '1717', '1721', '1723', '1726', '1729', '1730', '1731', '1732', '1734', '1740', '1742', '1744', '1747', '1749', '1752', '1756', '1760', '1761', '1762', '1763', '1764', '1765', '1766', '1769', '1770', '1772', '1773', '1777', '1780', '1783', '1785', '1786', '1787', '1790', '1791', '1792', '1793', '1794', '1796', '1798', '1799', '1805', '1810', '1811', '1812', '1813', '1814', '1819', '1821', '1823', '1824', '1825', '1827', '1830', '1832', '1834', '1839', '1840', '1841', '1842', '1844', '1846', '1848', '1849', '1850', '1853', '1856', '1860', '1861', '1862', '1864', '1868', '1870', '1872', '1875', '1876', '1878', '1879', '1880', '1881', '1882', '1883', '1884', '1885', '1888', '1889', '1890', '1891', '1892', '1898', '1902', '1908', '1911', '1913', '1914', '1916', '1917', '1918', '1919', '1920', '1922', '1929', '1932', '1935', '1937', '1939', '1940', '1942', '1944', '1945', '1946', '1947', '1951', '1953', '1955', '1959', '1962', '1963', '1965', '1966', '1968', '1969', '1971', '1972', '1973', '1974', '1978', '1980', '1982', '1983', '1984', '1986', '1988', '1992', '1996', '2000']",False,2000,True,2,16ebe38ad5,0.0,1.0,1.0
./expes/v2_2021-03-23_issda-30_2000-prng-1-w2-p2,30_issda-2000,2000,first-2000,300,15,rng,num-start-3400,3400,25726,classic,2065.5971381664276,True,,True,1.0,1.0,1.0,1,"['2', '8', '11', '14', '17', '25', '27', '31', '36', '38', '49', '53', '61', '71', '84', '85', '89', '100', '104', '106', '111', '113', '125', '130', '135', '136', '137', '141', '166', '171', '172', '173', '174', '178', '180', '182', '192', '197', '204', '209', '212', '226', '228', '229', '230', '242', '247', '249', '263', '272', '273', '282', '284', '285', '289', '292', '298', '304', '306', '322', '332', '333', '337', '345', '347', '351', '354', '355', '361', '382', '394', '405', '406', '408', '409', '416', '420', '428', '430', '431', '438', '455', '456', '460', '473', '485', '488', '509', '531', '538', '539', '547', '548', '550', '553', '562', '567', '569', '576', '584', '595', '597', '603', '607', '630', '666', '674', '677', '685', '693', '700', '709', '712', '715', '727', '749', '750', '757', '764', '765', '776', '777', '782', '785', '786', '796', '797', '813', '816', '822', '824', '825', '843', '861', '864', '866', '870', '871', '878', '888', '910', '923', '925', '926', '936', '949', '950', '971', '985', '988', '1008', '1013', '1018', '1019', '1026', '1030', '1035', '1037', '1045', '1060', '1070', '1084', '1097', '1101', '1106', '1118', '1124', '1136', '1137', '1139', '1146', '1148', '1151', '1158', '1160', '1174', '1177', '1179', '1186', '1188', '1197', '1205', '1209', '1210', '1212', '1215', '1223', '1224', '1239', '1242', '1243', '1245', '1247', '1248', '1252', '1253', '1256', '1263', '1290', '1309', '1327', '1334', '1359', '1368', '1381', '1386', '1400', '1409', '1410', '1419', '1426', '1434', '1436', '1441', '1442', '1445', '1452', '1453', '1466', '1474', '1485', '1487', '1492', '1508', '1510', '1511', '1527', '1528', '1529', '1531', '1558', '1566', '1567', '1581', '1583', '1586', '1587', '1593', '1598', '1599', '1606', '1611', '1618', '1625', '1628', '1636', '1638', '1645', '1654', '1658', '1659', '1669', '1681', '1728', '1732', '1733', '1743', '1745', '1746', '1760', '1762', '1770', '1775', '1777', '1780', '1786', '1794', '1801', '1803', '1806', '1816', '1817', '1818', '1822', '1828', '1834', '1835', '1840', '1856', '1857', '1867', '1880', '1883', '1887', '1891', '1893', '1918', '1925', '1928', '1938', '1939', '1940', '1948', '1949', '1958', '1963', '1970', '1975', '1980', '1998']",False,2000,True,2,1b9c95dde9,0.0,1.0,1.0
./expes/v2_2021-03-23_issda-30_2000-prng-1-w2-p2,30_issda-2000,2000,first-2000,200,10,rng,num-start-3800,3800,25726,classic,2032.4695217609406,True,,True,1.0,1.0,1.0,1,"['4', '14', '18', '23', '39', '49', '53', '58', '63', '67', '76', '82', '90', '106', '107', '121', '125', '153', '160', '170', '172', '179', '187', '211', '231', '234', '238', '242', '277', '293', '298', '318', '333', '335', '344', '351', '365', '368', '373', '388', '393', '409', '419', '428', '431', '451', '452', '455', '458', '467', '471', '482', '492', '495', '507', '517', '536', '550', '551', '561', '562', '567', '573', '578', '635', '641', '661', '687', '691', '696', '700', '705', '717', '730', '740', '744', '745', '746', '753', '755', '761', '768', '781', '782', '788', '790', '796', '821', '829', '858', '867', '868', '875', '881', '888', '902', '909', '934', '941', '943', '952', '962', '972', '976', '977', '986', '989', '1021', '1025', '1027', '1032', '1039', '1043', '1048', '1052', '1053', '1063', '1080', '1084', '1105', '1109', '1120', '1125', '1127', '1137', '1144', '1174', '1181', '1221', '1232', '1234', '1243', '1244', '1245', '1248', '1268', '1273', '1279', '1305', '1310', '1313', '1318', '1347', '1354', '1355', '1356', '1360', '1365', '1369', '1370', '1380', '1384', '1396', '1407', '1414', '1415', '1426', '1428', '1487', '1488', '1533', '1543', '1567', '1570', '1579', '1581', '1606', '1613', '1629', '1635', '1642', '1660', '1671', '1677', '1678', '1679', '1685', '1704', '1726', '1753', '1760', '1771', '1774', '1807', '1814', '1856', '1868', '1874', '1875', '1882', '1893', '1900', '1928', '1939', '1941', '1958', '1964', '1982', '1990', '2000']",False,2000,True,2,22c92006b5,0.0,1.0,1.0
./expes/v2_2021-03-23_issda-30_2000-prng-1-w2-p2,30_issda-2000,2000,first-2000,1000,50,rng,num-start-2000,2000,25726,classic,1649.0091156959534,True,,True,1.0,1.0,1.0,1,"['2', '3', '7', '8', '11', '12', '13', '14', '15', '16', '17', '18', '19', '20', '21', '23', '24', '25', '26', '27', '29', '31', '32', '35', '36', '38', '40', '42', '43', '44', '46', '49', '53', '54', '55', '56', '58', '59', '60', '61', '62', '68', '70', '71', '74', '77', '80', '84', '85', '86', '87', '89', '97', '100', '102', '104', '105', '106', '107', '108', '109', '110', '111', '113', '116', '117', '119', '120', '121', '122', '123', '124', '125', '129', '130', '131', '132', '133', '134', '135', '136', '137', '141', '142', '143', '147', '148', '149', '152', '153', '155', '156', '157', '161', '162', '164', '166', '167', '168', '170', '171', '172', '173', '174', '176', '178', '179', '180', '181', '182', '183', '188', '189', '191', '192', '193', '194', '197', '198', '201', '202', '203', '204', '205', '209', '210', '212', '213', '217', '218', '221', '223', '226', '227', '228', '229', '230', '239', '242', '243', '244', '246', '247', '249', '251', '253', '263', '264', '266', '269', '271', '272', '273', '275', '276', '277', '282', '283', '284', '285', '288', '289', '292', '295', '296', '298', '301', '304', '305', '306', '307', '309', '311', '312', '319', '322', '323', '326', '329', '330', '331', '332', '333', '334', '335', '337', '339', '341', '345', '346', '347', '348', '350', '351', '352', '354', '355', '360', '361', '362', '364', '365', '367', '371', '372', '373', '374', '375', '377', '379', '382', '383', '387', '388', '390', '391', '393', '394', '397', '398', '400', '402', '405', '406', '408', '409', '410', '411', '412', '414', '416', '420', '421', '423', '424', '428', '429', '430', '431', '432', '433', '438', '442', '444', '452', '453', '455', '456', '457', '459', '460', '462', '466', '471', '473', '474', '476', '477', '482', '484', '485', '487', '488', '496', '497', '498', '499', '503', '507', '509', '514', '515', '519', '520', '522', '523', '524', '526', '527', '530', '531', '532', '533', '535', '538', '539', '540', '543', '546', '547', '548', '550', '552', '553', '557', '559', '562', '564', '565', '567', '569', '571', '576', '578', '581', '583', '584', '585', '589', '590', '595', '596', '597', '599', '601', '603', '605', '607', '610', '615', '616', '617', '620', '623', '625', '626', '627', '630', '631', '633', '636', '638', '642', '644', '645', '646', '650', '651', '653', '654', '657', '659', '661', '662', '663', '664', '666', '667', '673', '674', '675', '676', '677', '678', '681', '684', '685', '687', '688', '689', '691', '692', '693', '694', '697', '698', '700', '706', '709', '711', '712', '714', '715', '723', '724', '727', '732', '734', '735', '736', '744', '746', '747', '748', '749', '750', '753', '754', '757', '758', '761', '763', '764', '765', '766', '767', '771', '776', '777', '780', '782', '785', '786', '789', '791', '795', '796', '797', '798', '799', '806', '808', '810', '811', '813', '816', '817', '818', '819', '822', '824', '825', '826', '827', '830', '832', '833', '835', '836', '837', '838', '840', '843', '846', '850', '852', '853', '854', '855', '859', '861', '863', '864', '866', '867', '868', '870', '871', '873', '875', '878', '881', '888', '892', '893', '894', '896', '897', '899', '900', '901', '903', '906', '910', '916', '918', '920', '923', '925', '926', '928', '929', '930', '933', '934', '936', '937', '940', '942', '946', '947', '949', '950', '951', '952', '956', '958', '962', '964', '965', '969', '971', '973', '974', '977', '978', '980', '981', '984', '985', '987', '988', '1001', '1004', '1007', '1008', '1010', '1013', '1016', '1017', '1018', '1019', '1021', '1024', '1026', '1028', '1029', '1030', '1035', '1036', '1037', '1041', '1042', '1044', '1045', '1046', '1047', '1050', '1051', '1053', '1056', '1057', '1059', '1060', '1061', '1062', '1063', '1064', '1066', '1070', '1071', '1072', '1073', '1075', '1077', '1079', '1080', '1083', '1084', '1088', '1089', '1091', '1092', '1093', '1097', '1098', '1100', '1101', '1102', '1106', '1110', '1111', '1113', '1114', '1115', '1118', '1119', '1120', '1121', '1124', '1126', '1128', '1132', '1133', '1136', '1137', '1139', '1141', '1142', '1146', '1148', '1151', '1153', '1154', '1156', '1157', '1158', '1159', '1160', '1162', '1165', '1168', '1169', '1173', '1174', '1176', '1177', '1179', '1183', '1185', '1186', '1187', '1188', '1190', '1191', '1193', '1195', '1197', '1198', '1199', '1202', '1204', '1205', '1206', '1209', '1210', '1212', '1213', '1215', '1223', '1224', '1225', '1228', '1230', '1231', '1235', '1238', '1239', '1240', '1241', '1242', '1243', '1245', '1246', '1247', '1248', '1249', '1251', '1252', '1253', '1254', '1255', '1256', '1262', '1263', '1264', '1275', '1280', '1281', '1282', '1283', '1284', '1289', '1290', '1295', '1300', '1303', '1305', '1308', '1309', '1312', '1315', '1317', '1319', '1320', '1322', '1323', '1325', '1326', '1327', '1328', '1330', '1334', '1338', '1344', '1347', '1349', '1350', '1352', '1357', '1358', '1359', '1360', '1361', '1362', '1363', '1364', '1367', '1368', '1370', '1371', '1372', '1373', '1375', '1377', '1381', '1385', '1386', '1387', '1389', '1390', '1391', '1393', '1394', '1395', '1396', '1399', '1400', '1402', '1403', '1405', '1406', '1409', '1410', '1414', '1415', '1418', '1419', '1421', '1423', '1424', '1426', '1427', '1428', '1429', '1432', '1433', '1434', '1435', '1436', '1438', '1439', '1441', '1442', '1445', '1446', '1449', '1450', '1451', '1452', '1453', '1454', '1455', '1457', '1458', '1461', '1464', '1466', '1468', '1469', '1470', '1472', '1474', '1476', '1481', '1483', '1485', '1487', '1489', '1490', '1491', '1492', '1493', '1495', '1501', '1503', '1508', '1510', '1511', '1513', '1518', '1520', '1522', '1523', '1524', '1526', '1527', '1528', '1529', '1531', '1532', '1533', '1540', '1541', '1542', '1545', '1546', '1551', '1556', '1558', '1559', '1560', '1561', '1564', '1565', '1566', '1567', '1568', '1572', '1573', '1574', '1580', '1581', '1582', '1583', '1584', '1585', '1586', '1587', '1589', '1592', '1593', '1594', '1595', '1597', '1598', '1599', '1604', '1606', '1610', '1611', '1618', '1625', '1628', '1629', '1630', '1631', '1634', '1636', '1637', '1638', '1639', '1642', '1645', '1649', '1651', '1653', '1654', '1656', '1657', '1658', '1659', '1669', '1670', '1679', '1681', '1682', '1684', '1686', '1688', '1702', '1703', '1704', '1705', '1706', '1708', '1709', '1710', '1713', '1715', '1719', '1720', '1721', '1724', '1728', '1730', '1731', '1732', '1733', '1734', '1738', '1739', '1741', '1743', '1744', '1745', '1746', '1749', '1755', '1757', '1760', '1762', '1763', '1770', '1774', '1775', '1776', '1777', '1779', '1780', '1786', '1789', '1791', '1792', '1794', '1796', '1797', '1800', '1801', '1803', '1804', '1806', '1808', '1809', '1810', '1811', '1813', '1816', '1817', '1818', '1820', '1821', '1822', '1825', '1828', '1829', '1831', '1832', '1834', '1835', '1837', '1838', '1840', '1841', '1847', '1849', '1853', '1854', '1856', '1857', '1858', '1861', '1863', '1867', '1874', '1875', '1880', '1883', '1885', '1887', '1889', '1891', '1893', '1894', '1897', '1903', '1906', '1907', '1908', '1911', '1914', '1918', '1921', '1922', '1925', '1927', '1928', '1930', '1932', '1933', '1934', '1936', '1938', '1939', '1940', '1941', '1945', '1947', '1948', '1949', '1951', '1952', '1953', '1954', '1957', '1958', '1960', '1963', '1967', '1968', '1970', '1971', '1972', '1975', '1976', '1977', '1979', '1980', '1982', '1984', '1985', '1986', '1988', '1991', '1992', '1994', '1995', '1997', '1998', '2000']",False,2000,True,2,cb840f49e7,0.0,1.0,1.0
./expes/v2_2021-03-23_issda-30_2000-prng-1-w2-p2,30_issda-2000,2000,first-2000,200,10,rng,num-start-2800,2800,25726,classic,1469.9576478004456,True,,True,1.0,1.0,1.0,1,"['1', '4', '22', '40', '43', '52', '57', '58', '65', '72', '88', '137', '144', '149', '171', '184', '191', '194', '195', '196', '201', '210', '219', '229', '234', '243', '249', '252', '294', '300', '307', '330', '332', '338', '345', '372', '374', '387', '395', '397', '408', '419', '426', '447', '458', '472', '484', '506', '510', '513', '516', '522', '524', '525', '526', '534', '540', '542', '547', '555', '556', '562', '564', '571', '575', '577', '579', '597', '620', '621', '634', '640', '647', '680', '691', '712', '729', '734', '739', '746', '754', '756', '783', '792', '795', '807', '808', '813', '827', '831', '844', '856', '867', '871', '896', '899', '904', '921', '922', '927', '933', '942', '956', '962', '965', '972', '984', '993', '994', '997', '1002', '1025', '1026', '1038', '1053', '1058', '1069', '1077', '1080', '1086', '1096', '1130', '1147', '1150', '1166', '1167', '1171', '1186', '1195', '1201', '1207', '1219', '1220', '1221', '1237', '1245', '1261', '1262', '1279', '1287', '1294', '1296', '1298', '1306', '1313', '1335', '1336', '1349', '1360', '1363', '1377', '1393', '1402', '1404', '1406', '1407', '1439', '1441', '1444', '1454', '1478', '1504', '1506', '1517', '1519', '1530', '1547', '1551', '1560', '1588', '1593', '1613', '1634', '1635', '1648', '1655', '1676', '1691', '1694', '1750', '1772', '1773', '1784', '1788', '1792', '1815', '1835', '1836', '1847', '1862', '1879', '1888', '1914', '1918', '1924', '1926', '1930', '1934', '1959', '1995']",False,2000,True,2,c533efafa5,0.0,1.0,1.0
./expes/v2_2021-03-23_issda-30_2000-prng-1-w2-p2,30_issda-2000,2000,first-2000,500,25,rng,num-start-600,600,25726,classic,2070.5546531677246,False,,False,0,,,0,"['1', '10', '13', '20', '26', '27', '31', '35', '38', '42', '45', '59', '62', '63', '64', '66', '67', '68', '70', '76', '78', '82', '93', '94', '103', '107', '111', '117', '121', '122', '123', '126', '128', '131', '142', '152', '153', '154', '156', '157', '159', '166', '172', '176', '181', '183', '184', '190', '191', '192', '193', '197', '200', '206', '216', '230', '234', '235', '240', '245', '246', '253', '258', '260', '261', '263', '276', '278', '280', '281', '283', '292', '296', '297', '299', '306', '308', '310', '317', '323', '324', '330', '334', '335', '337', '346', '347', '353', '355', '365', '374', '377', '380', '381', '385', '386', '387', '394', '395', '396', '397', '402', '404', '406', '408', '412', '414', '429', '430', '439', '454', '457', '461', '462', '464', '476', '479', '489', '493', '499', '502', '503', '512', '513', '515', '522', '523', '524', '525', '536', '544', '545', '549', '552', '557', '559', '562', '565', '567', '569', '574', '577', '586', '588', '593', '596', '597', '598', '602', '622', '624', '627', '640', '649', '652', '655', '656', '663', '667', '675', '678', '682', '688', '689', '704', '718', '732', '738', '739', '740', '741', '742', '745', '751', '752', '753', '759', '760', '761', '763', '765', '768', '771', '773', '774', '778', '779', '781', '788', '792', '796', '798', '815', '816', '819', '834', '838', '840', '841', '848', '859', '864', '865', '867', '870', '872', '874', '881', '883', '887', '897', '901', '903', '904', '909', '910', '912', '914', '916', '921', '925', '926', '948', '951', '957', '961', '964', '965', '968', '969', '973', '978', '979', '981', '982', '991', '994', '995', '997', '999', '1000', '1001', '1002', '1007', '1008', '1013', '1018', '1019', '1024', '1025', '1029', '1030', '1032', '1039', '1055', '1059', '1060', '1066', '1070', '1075', '1076', '1077', '1078', '1080', '1081', '1088', '1097', '1102', '1103', '1105', '1107', '1112', '1114', '1121', '1129', '1130', '1134', '1143', '1144', '1147', '1149', '1154', '1156', '1158', '1165', '1166', '1167', '1173', '1175', '1176', '1180', '1187', '1198', '1202', '1206', '1207', '1208', '1213', '1217', '1220', '1224', '1233', '1234', '1236', '1239', '1243', '1246', '1250', '1254', '1257', '1263', '1266', '1267', '1269', '1271', '1278', '1281', '1282', '1287', '1289', '1293', '1298', '1300', '1301', '1306', '1308', '1310', '1321', '1322', '1323', '1324', '1328', '1333', '1334', '1340', '1343', '1345', '1351', '1355', '1356', '1358', '1366', '1369', '1373', '1375', '1380', '1385', '1390', '1391', '1394', '1395', '1397', '1401', '1405', '1409', '1414', '1415', '1416', '1421', '1423', '1425', '1430', '1433', '1436', '1437', '1438', '1446', '1451', '1457', '1460', '1462', '1463', '1465', '1468', '1472', '1473', '1478', '1480', '1483', '1484', '1493', '1494', '1495', '1499', '1505', '1514', '1516', '1522', '1526', '1527', '1529', '1537', '1539', '1548', '1551', '1555', '1556', '1557', '1562', '1564', '1568', '1578', '1585', '1592', '1594', '1595', '1596', '1603', '1606', '1611', '1613', '1620', '1621', '1625', '1631', '1632', '1639', '1643', '1646', '1649', '1650', '1651', '1652', '1667', '1671', '1672', '1673', '1676', '1684', '1696', '1703', '1706', '1709', '1718', '1722', '1730', '1731', '1741', '1748', '1751', '1758', '1760', '1770', '1773', '1783', '1785', '1787', '1795', '1801', '1803', '1813', '1822', '1828', '1830', '1831', '1843', '1849', '1853', '1860', '1862', '1863', '1865', '1867', '1870', '1871', '1877', '1883', '1884', '1889', '1891', '1893', '1899', '1900', '1911', '1914', '1919', '1922', '1925', '1927', '1933', '1936', '1941', '1943', '1946', '1948', '1949', '1950', '1963', '1971', '1976', '1977', '1978', '1979', '1985', '1987', '1989', '1992', '1995', '1997', '2000']",True,2000,True,2,3640cbd7e5,0.0,0.0,0.0
./expes/v2_2021-03-23_issda-30_2000-prng-1-w2-p2,30_issda-2000,2000,first-2000,400,20,rng,num-start-2400,2400,25726,classic,1112.9282500743866,True,,True,1.0,1.0,1.0,1,"['1', '4', '9', '25', '47', '48', '53', '56', '57', '58', '60', '77', '81', '96', '99', '102', '108', '111', '119', '121', '122', '123', '125', '127', '128', '129', '134', '138', '141', '144', '145', '149', '150', '159', '165', '166', '168', '170', '174', '176', '177', '178', '186', '187', '192', '193', '200', '208', '210', '212', '213', '226', '237', '240', '242', '246', '252', '254', '258', '261', '265', '273', '281', '296', '299', '300', '301', '305', '309', '310', '312', '320', '326', '331', '333', '338', '341', '343', '345', '349', '361', '366', '369', '371', '374', '385', '391', '397', '400', '403', '409', '410', '419', '421', '422', '426', '428', '440', '447', '452', '453', '457', '458', '465', '473', '476', '478', '491', '493', '500', '508', '509', '517', '531', '535', '539', '543', '553', '570', '571', '573', '578', '583', '589', '590', '594', '611', '614', '615', '632', '635', '639', '643', '644', '653', '664', '676', '681', '692', '697', '701', '702', '704', '705', '706', '711', '712', '716', '718', '728', '729', '735', '741', '745', '746', '747', '749', '752', '757', '763', '771', '780', '791', '796', '801', '804', '808', '809', '811', '813', '815', '816', '818', '821', '823', '851', '857', '859', '864', '870', '876', '882', '889', '903', '913', '916', '920', '929', '935', '936', '946', '949', '954', '955', '963', '968', '971', '972', '980', '981', '982', '984', '987', '989', '991', '994', '1000', '1002', '1010', '1012', '1014', '1017', '1018', '1030', '1040', '1049', '1056', '1058', '1061', '1062', '1076', '1082', '1089', '1091', '1095', '1098', '1099', '1108', '1110', '1113', '1122', '1123', '1124', '1126', '1127', '1129', '1141', '1143', '1146', '1148', '1156', '1159', '1160', '1161', '1170', '1174', '1177', '1182', '1184', '1188', '1192', '1194', '1200', '1207', '1210', '1218', '1221', '1231', '1234', '1240', '1248', '1249', '1250', '1252', '1253', '1256', '1257', '1258', '1265', '1268', '1279', '1285', '1292', '1300', '1303', '1304', '1309', '1317', '1318', '1326', '1334', '1338', '1342', '1344', '1347', '1349', '1353', '1361', '1369', '1370', '1385', '1394', '1396', '1397', '1399', '1414', '1415', '1418', '1419', '1424', '1426', '1428', '1432', '1437', '1447', '1458', '1459', '1468', '1479', '1481', '1485', '1494', '1498', '1513', '1516', '1517', '1523', '1536', '1537', '1551', '1553', '1554', '1566', '1574', '1581', '1592', '1596', '1598', '1603', '1615', '1617', '1619', '1627', '1633', '1635', '1638', '1641', '1646', '1651', '1652', '1656', '1662', '1672', '1676', '1678', '1682', '1684', '1693', '1694', '1698', '1703', '1710', '1721', '1722', '1732', '1739', '1747', '1759', '1760', '1769', '1770', '1784', '1785', '1791', '1792', '1793', '1810', '1811', '1817', '1821', '1843', '1844', '1854', '1861', '1863', '1864', '1873', '1878', '1892', '1912', '1920', '1927', '1935', '1938', '1940', '1941', '1942', '1944', '1947', '1948', '1950', '1952', '1956', '1957', '1959', '1962', '1971', '1990', '1996', '2000']",False,2000,True,2,1f848d1d46,0.0,1.0,1.0
./expes/v2_2021-03-23_issda-30_2000-prng-1-w2-p2,30_issda-2000,2000,first-2000,900,45,rng,num-start-4000,4000,25726,classic,2487.6938536167145,True,,False,1.0,1.0,1.0,1,"['1', '2', '3', '7', '8', '9', '12', '13', '16', '17', '19', '21', '23', '27', '29', '30', '32', '35', '40', '41', '42', '44', '45', '46', '47', '48', '51', '54', '57', '58', '63', '67', '68', '69', '73', '75', '78', '80', '81', '84', '88', '89', '90', '91', '96', '99', '106', '108', '111', '113', '114', '115', '116', '119', '120', '122', '123', '125', '133', '134', '135', '137', '146', '150', '152', '153', '157', '161', '162', '163', '164', '165', '169', '172', '177', '178', '179', '182', '183', '184', '186', '187', '189', '190', '191', '196', '198', '199', '202', '205', '207', '211', '212', '213', '214', '215', '219', '220', '221', '222', '223', '231', '233', '236', '238', '241', '242', '245', '247', '249', '252', '254', '255', '257', '258', '261', '268', '269', '271', '274', '280', '285', '290', '291', '292', '294', '295', '296', '301', '302', '303', '304', '309', '311', '313', '314', '315', '316', '317', '319', '321', '323', '324', '325', '326', '327', '328', '330', '337', '338', '342', '344', '348', '349', '352', '353', '354', '355', '357', '360', '365', '368', '369', '373', '374', '379', '381', '387', '389', '391', '392', '395', '397', '400', '401', '402', '406', '410', '413', '416', '417', '418', '419', '420', '421', '424', '427', '428', '429', '430', '434', '435', '436', '437', '440', '443', '447', '448', '449', '452', '454', '456', '457', '459', '460', '461', '465', '467', '471', '476', '479', '481', '482', '483', '485', '486', '487', '488', '490', '491', '495', '497', '498', '500', '501', '502', '503', '504', '505', '506', '509', '512', '519', '520', '523', '524', '527', '529', '531', '533', '535', '538', '539', '541', '545', '548', '549', '551', '552', '553', '558', '560', '561', '565', '571', '573', '577', '580', '581', '582', '583', '584', '587', '588', '591', '593', '594', '595', '596', '597', '601', '602', '603', '605', '607', '608', '610', '612', '613', '614', '616', '619', '620', '621', '624', '625', '627', '629', '631', '632', '633', '634', '635', '636', '641', '642', '643', '645', '646', '647', '649', '650', '655', '656', '658', '659', '660', '662', '664', '667', '673', '681', '683', '684', '685', '686', '687', '689', '690', '692', '693', '696', '700', '703', '704', '705', '706', '707', '711', '713', '715', '716', '717', '719', '723', '724', '725', '726', '727', '728', '731', '733', '736', '740', '741', '743', '747', '751', '756', '757', '761', '763', '764', '765', '766', '767', '769', '771', '773', '774', '778', '780', '783', '784', '785', '786', '787', '790', '792', '793', '796', '802', '805', '808', '810', '811', '815', '817', '819', '820', '823', '825', '826', '827', '829', '830', '832', '833', '834', '836', '837', '838', '839', '840', '843', '844', '845', '846', '848', '852', '854', '855', '856', '857', '858', '859', '860', '861', '863', '865', '867', '869', '874', '875', '876', '877', '878', '879', '880', '885', '887', '889', '891', '892', '893', '894', '896', '899', '901', '904', '906', '910', '911', '912', '915', '916', '917', '922', '929', '931', '934', '936', '941', '942', '943', '944', '946', '947', '952', '954', '956', '961', '966', '968', '971', '972', '973', '978', '985', '986', '988', '991', '995', '999', '1000', '1001', '1004', '1005', '1007', '1009', '1012', '1013', '1015', '1016', '1017', '1019', '1020', '1022', '1023', '1027', '1028', '1030', '1032', '1041', '1044', '1045', '1046', '1047', '1049', '1052', '1053', '1058', '1059', '1060', '1062', '1067', '1072', '1073', '1077', '1078', '1081', '1083', '1087', '1089', '1090', '1092', '1095', '1097', '1099', '1101', '1102', '1103', '1105', '1110', '1111', '1112', '1125', '1129', '1132', '1133', '1134', '1142', '1144', '1146', '1149', '1152', '1153', '1157', '1162', '1168', '1169', '1171', '1173', '1176', '1177', '1184', '1186', '1189', '1193', '1202', '1203', '1207', '1208', '1209', '1211', '1213', '1215', '1216', '1217', '1219', '1220', '1222', '1223', '1224', '1225', '1227', '1234', '1235', '1237', '1238', '1242', '1243', '1245', '1248', '1250', '1251', '1252', '1253', '1255', '1256', '1257', '1258', '1260', '1263', '1264', '1267', '1269', '1273', '1277', '1280', '1281', '1282', '1284', '1285', '1287', '1288', '1293', '1295', '1296', '1297', '1301', '1302', '1305', '1307', '1308', '1311', '1312', '1313', '1314', '1317', '1318', '1319', '1320', '1321', '1329', '1332', '1334', '1335', '1337', '1339', '1341', '1342', '1343', '1347', '1349', '1351', '1352', '1353', '1355', '1356', '1357', '1358', '1364', '1365', '1366', '1367', '1369', '1370', '1371', '1374', '1380', '1381', '1391', '1392', '1394', '1395', '1397', '1402', '1407', '1408', '1411', '1413', '1415', '1417', '1421', '1425', '1426', '1429', '1430', '1432', '1433', '1434', '1435', '1441', '1448', '1449', '1450', '1452', '1457', '1460', '1463', '1469', '1472', '1474', '1475', '1477', '1478', '1480', '1483', '1485', '1487', '1491', '1496', '1497', '1499', '1500', '1502', '1506', '1508', '1510', '1511', '1512', '1513', '1516', '1521', '1522', '1523', '1525', '1528', '1533', '1536', '1540', '1542', '1547', '1548', '1551', '1553', '1554', '1556', '1558', '1559', '1562', '1564', '1565', '1566', '1567', '1568', '1574', '1576', '1583', '1584', '1586', '1589', '1595', '1598', '1599', '1600', '1602', '1603', '1604', '1605', '1607', '1609', '1610', '1612', '1614', '1616', '1617', '1618', '1619', '1624', '1628', '1630', '1631', '1635', '1636', '1637', '1638', '1645', '1646', '1647', '1648', '1650', '1651', '1652', '1654', '1655', '1658', '1659', '1660', '1664', '1667', '1669', '1671', '1674', '1677', '1678', '1683', '1686', '1688', '1689', '1692', '1693', '1694', '1696', '1697', '1700', '1704', '1706', '1707', '1709', '1710', '1711', '1712', '1714', '1717', '1721', '1722', '1724', '1725', '1726', '1727', '1729', '1731', '1732', '1735', '1736', '1738', '1741', '1750', '1754', '1763', '1764', '1765', '1770', '1771', '1772', '1773', '1776', '1777', '1778', '1784', '1785', '1786', '1787', '1788', '1789', '1791', '1795', '1801', '1803', '1806', '1809', '1810', '1811', '1812', '1813', '1814', '1820', '1825', '1830', '1831', '1833', '1836', '1837', '1842', '1843', '1847', '1848', '1849', '1852', '1855', '1857', '1865', '1872', '1873', '1874', '1875', '1877', '1879', '1880', '1882', '1883', '1884', '1886', '1888', '1892', '1895', '1896', '1897', '1900', '1901', '1902', '1905', '1908', '1909', '1913', '1915', '1921', '1925', '1927', '1930', '1932', '1933', '1934', '1940', '1941', '1942', '1943', '1947', '1948', '1949', '1950', '1952', '1953', '1954', '1955', '1957', '1959', '1961', '1962', '1965', '1970', '1971', '1973', '1976', '1978', '1979', '1981', '1983', '1984', '1985', '1986', '1987', '1988', '1989', '1991', '1993', '1995', '1996']",True,2000,True,2,b3a0211f9f,0.0,0.0,1.0
./expes/v2_2021-03-23_issda-30_2000-prng-1-w2-p2,30_issda-2000,2000,first-2000,1000,50,rng,num-start-2800,2800,25726,classic,2306.8867638111115,True,,True,1.0,1.0,1.0,1,"['1', '2', '3', '5', '7', '8', '9', '10', '12', '13', '16', '17', '19', '21', '23', '27', '28', '29', '30', '32', '35', '37', '40', '41', '42', '44', '45', '46', '47', '48', '50', '51', '54', '57', '58', '63', '66', '67', '68', '69', '73', '75', '77', '78', '80', '81', '84', '88', '89', '90', '91', '96', '98', '99', '106', '108', '110', '111', '113', '114', '115', '116', '119', '120', '122', '123', '125', '127', '131', '133', '134', '135', '137', '146', '147', '148', '150', '152', '153', '157', '161', '162', '163', '164', '165', '169', '172', '177', '178', '179', '182', '183', '184', '186', '187', '189', '190', '191', '192', '196', '198', '199', '202', '205', '207', '208', '211', '212', '213', '214', '215', '218', '219', '220', '221', '222', '223', '231', '233', '236', '238', '239', '241', '242', '245', '247', '249', '252', '253', '254', '255', '256', '257', '258', '261', '268', '269', '271', '274', '276', '280', '285', '290', '291', '292', '294', '295', '296', '301', '302', '303', '304', '309', '311', '313', '314', '315', '316', '317', '318', '319', '321', '322', '323', '324', '325', '326', '327', '328', '330', '337', '338', '342', '344', '347', '348', '349', '352', '353', '354', '355', '357', '360', '365', '368', '369', '373', '374', '379', '381', '384', '387', '389', '391', '392', '393', '395', '397', '400', '401', '402', '405', '406', '407', '408', '410', '413', '416', '417', '418', '419', '420', '421', '424', '427', '428', '429', '430', '432', '434', '435', '436', '437', '440', '443', '445', '446', '447', '448', '449', '452', '454', '456', '457', '459', '460', '461', '465', '467', '471', '476', '479', '481', '482', '483', '485', '486', '487', '488', '490', '491', '494', '495', '497', '498', '500', '501', '502', '503', '504', '505', '506', '509', '512', '513', '519', '520', '523', '524', '527', '529', '531', '533', '535', '538', '539', '540', '541', '545', '548', '549', '551', '552', '553', '554', '556', '558', '560', '561', '565', '567', '571', '573', '577', '579', '580', '581', '582', '583', '584', '587', '588', '591', '593', '594', '595', '596', '597', '601', '602', '603', '605', '607', '608', '609', '610', '612', '613', '614', '616', '619', '620', '621', '624', '625', '626', '627', '629', '631', '632', '633', '634', '635', '636', '641', '642', '643', '645', '646', '647', '649', '650', '655', '656', '658', '659', '660', '662', '664', '667', '673', '681', '683', '684', '685', '686', '687', '689', '690', '692', '693', '696', '700', '703', '704', '705', '706', '707', '711', '713', '715', '716', '717', '719', '723', '724', '725', '726', '727', '728', '731', '733', '736', '738', '740', '741', '743', '747', '751', '756', '757', '761', '763', '764', '765', '766', '767', '769', '771', '773', '774', '778', '779', '780', '783', '784', '785', '786', '787', '790', '792', '793', '795', '796', '802', '805', '808', '810', '811', '815', '817', '819', '820', '823', '825', '826', '827', '829', '830', '832', '833', '834', '836', '837', '838', '839', '840', '843', '844', '845', '846', '848', '850', '852', '854', '855', '856', '857', '858', '859', '860', '861', '863', '865', '867', '869', '874', '875', '876', '877', '878', '879', '880', '884', '885', '887', '889', '891', '892', '893', '894', '896', '899', '901', '902', '904', '906', '910', '911', '912', '914', '915', '916', '917', '922', '926', '929', '931', '934', '936', '941', '942', '943', '944', '946', '947', '952', '954', '956', '960', '961', '966', '968', '971', '972', '973', '978', '985', '986', '988', '991', '994', '995', '999', '1000', '1001', '1003', '1004', '1005', '1007', '1009', '1012', '1013', '1015', '1016', '1017', '1019', '1020', '1022', '1023', '1024', '1027', '1028', '1030', '1032', '1041', '1044', '1045', '1046', '1047', '1049', '1052', '1053', '1058', '1059', '1060', '1061', '1062', '1067', '1072', '1073', '1077', '1078', '1081', '1083', '1087', '1089', '1090', '1092', '1094', '1095', '1097', '1099', '1101', '1102', '1103', '1105', '1106', '1110', '1111', '1112', '1125', '1127', '1129', '1132', '1133', '1134', '1136', '1142', '1144', '1146', '1149', '1150', '1152', '1153', '1157', '1162', '1163', '1166', '1168', '1169', '1171', '1173', '1176', '1177', '1184', '1186', '1189', '1193', '1202', '1203', '1207', '1208', '1209', '1211', '1212', '1213', '1215', '1216', '1217', '1218', '1219', '1220', '1222', '1223', '1224', '1225', '1227', '1234', '1235', '1237', '1238', '1241', '1242', '1243', '1245', '1248', '1250', '1251', '1252', '1253', '1255', '1256', '1257', '1258', '1260', '1263', '1264', '1267', '1269', '1271', '1273', '1275', '1276', '1277', '1280', '1281', '1282', '1284', '1285', '1287', '1288', '1293', '1295', '1296', '1297', '1301', '1302', '1304', '1305', '1307', '1308', '1311', '1312', '1313', '1314', '1317', '1318', '1319', '1320', '1321', '1329', '1332', '1334', '1335', '1337', '1339', '1341', '1342', '1343', '1344', '1347', '1349', '1351', '1352', '1353', '1355', '1356', '1357', '1358', '1364', '1365', '1366', '1367', '1369', '1370', '1371', '1374', '1380', '1381', '1391', '1392', '1394', '1395', '1397', '1402', '1407', '1408', '1411', '1413', '1415', '1417', '1421', '1425', '1426', '1429', '1430', '1432', '1433', '1434', '1435', '1441', '1442', '1443', '1448', '1449', '1450', '1452', '1457', '1460', '1463', '1469', '1471', '1472', '1473', '1474', '1475', '1477', '1478', '1480', '1483', '1485', '1487', '1491', '1496', '1497', '1499', '1500', '1502', '1506', '1508', '1509', '1510', '1511', '1512', '1513', '1516', '1521', '1522', '1523', '1525', '1528', '1533', '1535', '1536', '1540', '1542', '1547', '1548', '1549', '1551', '1553', '1554', '1556', '1558', '1559', '1560', '1562', '1564', '1565', '1566', '1567', '1568', '1574', '1576', '1580', '1583', '1584', '1586', '1589', '1591', '1595', '1596', '1597', '1598', '1599', '1600', '1602', '1603', '1604', '1605', '1607', '1609', '1610', '1611', '1612', '1614', '1616', '1617', '1618', '1619', '1624', '1628', '1629', '1630', '1631', '1635', '1636', '1637', '1638', '1645', '1646', '1647', '1648', '1650', '1651', '1652', '1653', '1654', '1655', '1656', '1658', '1659', '1660', '1664', '1667', '1669', '1671', '1674', '1677', '1678', '1680', '1683', '1686', '1688', '1689', '1692', '1693', '1694', '1696', '1697', '1700', '1703', '1704', '1706', '1707', '1709', '1710', '1711', '1712', '1714', '1717', '1721', '1722', '1724', '1725', '1726', '1727', '1729', '1731', '1732', '1735', '1736', '1738', '1741', '1745', '1746', '1748', '1750', '1752', '1754', '1760', '1762', '1763', '1764', '1765', '1770', '1771', '1772', '1773', '1776', '1777', '1778', '1784', '1785', '1786', '1787', '1788', '1789', '1791', '1795', '1801', '1803', '1806', '1809', '1810', '1811', '1812', '1813', '1814', '1816', '1820', '1825', '1830', '1831', '1833', '1836', '1837', '1839', '1842', '1843', '1847', '1848', '1849', '1852', '1855', '1857', '1858', '1865', '1872', '1873', '1874', '1875', '1877', '1879', '1880', '1882', '1883', '1884', '1885', '1886', '1888', '1892', '1895', '1896', '1897', '1900', '1901', '1902', '1905', '1908', '1909', '1913', '1915', '1921', '1925', '1927', '1930', '1931', '1932', '1933', '1934', '1940', '1941', '1942', '1943', '1947', '1948', '1949', '1950', '1952', '1953', '1954', '1955', '1956', '1957', '1959', '1961', '1962', '1965', '1970', '1971', '1973', '1976', '1978', '1979', '1981', '1982', '1983', '1984', '1985', '1986', '1987', '1988', '1989', '1990', '1991', '1993', '1995', '1996']",False,2000,True,2,9ad0592a59,0.0,1.0,1.0
./expes/v2_2021-03-23_issda-30_2000-prng-1-w2-p2,30_issda-2000,2000,first-2000,1000,50,rng,num-start-1600,1600,25726,classic,1224.631682395935,True,,True,1.0,1.0,1.0,1,"['1', '3', '4', '6', '7', '10', '11', '13', '14', '15', '20', '21', '22', '24', '25', '26', '27', '29', '31', '33', '35', '38', '40', '42', '45', '49', '50', '54', '56', '58', '59', '60', '61', '62', '63', '64', '66', '67', '68', '70', '71', '73', '76', '78', '82', '85', '92', '93', '94', '96', '98', '102', '103', '104', '105', '106', '107', '111', '112', '114', '116', '117', '118', '120', '121', '122', '123', '125', '126', '128', '130', '131', '133', '137', '140', '142', '143', '145', '147', '152', '153', '154', '156', '157', '159', '160', '161', '166', '168', '170', '172', '176', '178', '180', '181', '183', '184', '185', '186', '190', '191', '192', '193', '194', '197', '200', '203', '206', '208', '209', '211', '213', '214', '215', '216', '220', '223', '225', '226', '227', '229', '230', '232', '233', '234', '235', '236', '240', '244', '245', '246', '248', '252', '253', '256', '258', '260', '261', '262', '263', '270', '272', '273', '276', '277', '278', '280', '281', '283', '286', '291', '292', '295', '296', '297', '299', '302', '303', '306', '308', '309', '310', '312', '315', '316', '317', '318', '323', '324', '325', '329', '330', '333', '334', '335', '337', '346', '347', '349', '350', '352', '353', '355', '359', '360', '361', '362', '364', '365', '368', '369', '373', '374', '376', '377', '379', '380', '381', '382', '385', '386', '387', '390', '391', '394', '395', '396', '397', '398', '402', '403', '404', '406', '407', '408', '409', '412', '414', '415', '418', '420', '422', '426', '429', '430', '432', '434', '436', '439', '441', '442', '443', '446', '449', '450', '452', '453', '454', '457', '458', '461', '462', '463', '464', '472', '475', '476', '477', '479', '489', '493', '498', '499', '500', '501', '502', '503', '512', '513', '515', '516', '517', '519', '522', '523', '524', '525', '527', '536', '539', '540', '541', '542', '544', '545', '549', '552', '554', '557', '559', '560', '562', '563', '565', '567', '569', '570', '573', '574', '577', '580', '586', '588', '593', '594', '596', '597', '598', '599', '602', '603', '604', '607', '610', '613', '615', '616', '620', '622', '623', '624', '625', '627', '634', '636', '640', '645', '646', '649', '652', '655', '656', '657', '662', '663', '667', '669', '671', '672', '674', '675', '677', '678', '681', '682', '688', '689', '692', '693', '698', '704', '705', '709', '711', '717', '718', '719', '720', '721', '723', '731', '732', '733', '736', '738', '739', '740', '741', '742', '743', '744', '745', '746', '747', '751', '752', '753', '757', '759', '760', '761', '763', '765', '767', '768', '771', '772', '773', '774', '778', '779', '780', '781', '787', '788', '791', '792', '796', '798', '799', '802', '806', '813', '815', '816', '817', '818', '819', '821', '822', '827', '829', '830', '832', '834', '835', '838', '840', '841', '843', '844', '846', '848', '849', '851', '856', '857', '859', '860', '863', '864', '865', '867', '870', '871', '872', '873', '874', '878', '879', '881', '882', '883', '884', '887', '888', '889', '893', '894', '897', '898', '899', '900', '901', '903', '904', '909', '910', '912', '913', '914', '916', '919', '921', '925', '926', '928', '930', '933', '934', '938', '939', '944', '948', '950', '951', '954', '957', '960', '961', '964', '965', '968', '969', '971', '973', '974', '975', '978', '979', '980', '981', '982', '983', '984', '986', '988', '989', '991', '994', '995', '996', '997', '999', '1000', '1001', '1002', '1007', '1008', '1012', '1013', '1015', '1018', '1019', '1021', '1022', '1024', '1025', '1026', '1028', '1029', '1030', '1032', '1033', '1035', '1036', '1038', '1039', '1040', '1049', '1052', '1055', '1056', '1059', '1060', '1062', '1065', '1066', '1068', '1069', '1070', '1075', '1076', '1077', '1078', '1080', '1081', '1083', '1088', '1089', '1090', '1093', '1097', '1099', '1100', '1102', '1103', '1105', '1107', '1109', '1110', '1111', '1112', '1113', '1114', '1116', '1117', '1118', '1121', '1129', '1130', '1134', '1139', '1141', '1143', '1144', '1145', '1147', '1149', '1151', '1152', '1154', '1155', '1156', '1158', '1162', '1165', '1166', '1167', '1169', '1172', '1173', '1174', '1175', '1176', '1180', '1182', '1187', '1196', '1198', '1202', '1204', '1205', '1206', '1207', '1208', '1210', '1212', '1213', '1214', '1215', '1217', '1218', '1219', '1220', '1221', '1224', '1226', '1228', '1230', '1233', '1234', '1236', '1239', '1243', '1244', '1246', '1247', '1248', '1250', '1253', '1254', '1255', '1257', '1258', '1259', '1262', '1263', '1266', '1267', '1268', '1269', '1271', '1274', '1275', '1278', '1281', '1282', '1283', '1284', '1287', '1288', '1289', '1292', '1293', '1298', '1300', '1301', '1306', '1307', '1308', '1309', '1310', '1311', '1312', '1313', '1315', '1317', '1319', '1320', '1321', '1322', '1323', '1324', '1327', '1328', '1331', '1333', '1334', '1335', '1336', '1340', '1341', '1343', '1344', '1345', '1350', '1351', '1355', '1356', '1357', '1358', '1359', '1360', '1361', '1362', '1366', '1367', '1368', '1369', '1370', '1371', '1373', '1375', '1376', '1380', '1381', '1383', '1385', '1387', '1390', '1391', '1394', '1395', '1397', '1401', '1405', '1406', '1409', '1411', '1414', '1415', '1416', '1418', '1421', '1422', '1423', '1425', '1428', '1430', '1433', '1436', '1437', '1438', '1439', '1442', '1444', '1446', '1449', '1451', '1456', '1457', '1459', '1460', '1462', '1463', '1465', '1468', '1470', '1472', '1473', '1474', '1478', '1480', '1481', '1483', '1484', '1485', '1488', '1489', '1490', '1491', '1492', '1493', '1494', '1495', '1499', '1500', '1503', '1504', '1505', '1506', '1510', '1511', '1512', '1514', '1516', '1518', '1522', '1524', '1526', '1527', '1529', '1530', '1534', '1537', '1539', '1542', '1543', '1547', '1548', '1551', '1553', '1555', '1556', '1557', '1561', '1562', '1563', '1564', '1565', '1567', '1568', '1571', '1572', '1574', '1576', '1577', '1578', '1579', '1585', '1587', '1588', '1591', '1592', '1594', '1595', '1596', '1598', '1601', '1603', '1606', '1609', '1611', '1613', '1620', '1621', '1625', '1626', '1628', '1629', '1631', '1632', '1634', '1639', '1640', '1642', '1643', '1645', '1646', '1647', '1649', '1650', '1651', '1652', '1656', '1658', '1662', '1663', '1667', '1670', '1671', '1672', '1673', '1675', '1676', '1677', '1680', '1684', '1692', '1696', '1697', '1699', '1701', '1703', '1704', '1705', '1706', '1709', '1712', '1715', '1717', '1718', '1722', '1724', '1725', '1729', '1730', '1731', '1737', '1740', '1741', '1747', '1748', '1751', '1752', '1753', '1758', '1760', '1761', '1765', '1769', '1770', '1773', '1776', '1777', '1781', '1782', '1783', '1785', '1787', '1793', '1795', '1800', '1801', '1803', '1807', '1808', '1809', '1810', '1811', '1812', '1813', '1819', '1820', '1821', '1822', '1823', '1824', '1825', '1828', '1829', '1830', '1831', '1836', '1840', '1841', '1842', '1843', '1846', '1849', '1850', '1853', '1854', '1860', '1862', '1863', '1865', '1867', '1868', '1870', '1871', '1873', '1875', '1877', '1878', '1879', '1881', '1883', '1884', '1886', '1887', '1889', '1891', '1893', '1894', '1898', '1899', '1900', '1902', '1903', '1909', '1911', '1913', '1914', '1915', '1919', '1921', '1922', '1925', '1927', '1931', '1932', '1933', '1936', '1937', '1941', '1942', '1943', '1946', '1948', '1949', '1950', '1954', '1963', '1964', '1969', '1971', '1972', '1975', '1976', '1977', '1978', '1979', '1981', '1982', '1983', '1984', '1985', '1986', '1987', '1988', '1989', '1990', '1992', '1994', '1995', '1997', '1998', '2000']",False,2000,True,2,a571a2214e,0.0,1.0,1.0
./expes/v2_2021-03-23_issda-30_2000-prng-1-w2-p2,30_issda-2000,2000,first-2000,700,35,rng,num-start-800,800,25726,classic,2095.6878032684326,False,,False,0,,,0,"['12', '13', '14', '18', '19', '23', '27', '30', '34', '36', '38', '42', '43', '45', '47', '55', '59', '60', '64', '73', '74', '76', '84', '87', '93', '94', '98', '102', '106', '113', '115', '117', '120', '125', '129', '130', '133', '136', '137', '141', '142', '144', '147', '156', '157', '159', '161', '162', '164', '168', '171', '172', '178', '179', '181', '182', '184', '185', '190', '192', '208', '218', '220', '221', '223', '227', '229', '235', '236', '239', '242', '244', '250', '252', '256', '258', '259', '263', '265', '267', '270', '272', '273', '277', '280', '281', '285', '287', '294', '297', '298', '300', '301', '303', '308', '309', '310', '312', '314', '321', '329', '331', '333', '334', '335', '337', '342', '344', '347', '350', '353', '358', '361', '362', '366', '372', '374', '375', '377', '378', '385', '386', '387', '389', '390', '392', '396', '402', '406', '409', '411', '413', '414', '415', '418', '419', '423', '424', '428', '429', '430', '433', '436', '438', '440', '442', '443', '449', '450', '452', '456', '459', '461', '462', '472', '473', '478', '479', '481', '484', '487', '491', '495', '497', '505', '507', '511', '512', '516', '520', '525', '528', '529', '530', '531', '532', '533', '535', '538', '540', '542', '543', '547', '550', '553', '554', '555', '556', '558', '560', '561', '562', '564', '565', '575', '577', '579', '582', '583', '588', '592', '593', '599', '603', '606', '609', '612', '613', '615', '618', '619', '621', '623', '629', '632', '633', '641', '644', '646', '647', '651', '655', '659', '660', '661', '664', '665', '671', '672', '673', '675', '681', '683', '685', '686', '688', '690', '693', '694', '696', '698', '702', '706', '707', '709', '712', '716', '718', '722', '726', '730', '731', '733', '736', '738', '739', '740', '745', '748', '749', '750', '754', '755', '764', '766', '767', '775', '778', '780', '786', '790', '793', '798', '799', '802', '806', '808', '813', '814', '820', '824', '826', '828', '829', '831', '832', '833', '834', '836', '837', '838', '839', '844', '848', '849', '850', '851', '853', '855', '856', '860', '865', '866', '867', '868', '870', '874', '876', '878', '882', '883', '888', '889', '890', '895', '897', '911', '913', '915', '920', '930', '931', '932', '933', '936', '939', '940', '942', '950', '953', '955', '958', '959', '962', '963', '967', '973', '978', '979', '980', '983', '984', '985', '994', '997', '1003', '1005', '1006', '1007', '1008', '1010', '1012', '1014', '1016', '1023', '1026', '1038', '1039', '1040', '1043', '1046', '1047', '1049', '1051', '1052', '1054', '1062', '1064', '1066', '1067', '1069', '1070', '1073', '1075', '1078', '1079', '1083', '1085', '1086', '1087', '1091', '1095', '1102', '1104', '1107', '1109', '1111', '1114', '1116', '1117', '1119', '1124', '1127', '1130', '1131', '1133', '1137', '1140', '1143', '1144', '1145', '1149', '1152', '1158', '1159', '1164', '1166', '1170', '1171', '1173', '1174', '1176', '1179', '1183', '1186', '1192', '1194', '1195', '1198', '1203', '1206', '1207', '1216', '1218', '1224', '1225', '1229', '1235', '1242', '1244', '1251', '1252', '1254', '1255', '1258', '1260', '1261', '1264', '1266', '1267', '1275', '1281', '1287', '1289', '1290', '1291', '1292', '1293', '1300', '1304', '1306', '1308', '1309', '1322', '1325', '1326', '1327', '1328', '1336', '1339', '1344', '1345', '1346', '1347', '1353', '1354', '1355', '1359', '1370', '1372', '1375', '1378', '1381', '1383', '1384', '1385', '1386', '1388', '1389', '1391', '1393', '1395', '1396', '1400', '1401', '1402', '1406', '1407', '1408', '1412', '1414', '1415', '1417', '1419', '1422', '1427', '1431', '1432', '1433', '1438', '1440', '1444', '1446', '1447', '1449', '1451', '1452', '1453', '1454', '1458', '1461', '1462', '1464', '1467', '1469', '1471', '1472', '1474', '1480', '1482', '1489', '1490', '1496', '1505', '1506', '1507', '1508', '1513', '1519', '1522', '1525', '1526', '1527', '1529', '1533', '1538', '1544', '1545', '1548', '1549', '1550', '1551', '1552', '1553', '1554', '1556', '1557', '1562', '1573', '1574', '1575', '1578', '1579', '1581', '1584', '1587', '1589', '1593', '1594', '1595', '1598', '1599', '1600', '1605', '1607', '1609', '1613', '1615', '1620', '1622', '1623', '1625', '1626', '1627', '1632', '1639', '1642', '1644', '1652', '1654', '1657', '1660', '1662', '1663', '1664', '1666', '1668', '1669', '1674', '1676', '1688', '1691', '1692', '1693', '1695', '1697', '1700', '1703', '1705', '1706', '1708', '1711', '1712', '1713', '1715', '1719', '1720', '1722', '1724', '1726', '1728', '1729', '1733', '1736', '1738', '1746', '1749', '1750', '1756', '1758', '1760', '1762', '1766', '1769', '1774', '1777', '1780', '1783', '1789', '1790', '1791', '1792', '1795', '1804', '1805', '1807', '1811', '1814', '1817', '1818', '1823', '1825', '1826', '1827', '1829', '1834', '1837', '1841', '1842', '1844', '1847', '1854', '1857', '1858', '1859', '1865', '1867', '1869', '1871', '1880', '1888', '1889', '1891', '1895', '1896', '1899', '1900', '1904', '1905', '1909', '1910', '1912', '1916', '1919', '1931', '1934', '1935', '1936', '1938', '1939', '1941', '1946', '1950', '1951', '1955', '1960', '1961', '1962', '1964', '1968', '1979', '1980', '1981', '1985', '1986', '1987', '1993', '1994', '1998', '1999']",True,2000,True,2,ea772c51cc,0.0,0.0,0.0
./expes/v2_2021-03-23_issda-30_2000-prng-1-w2-p2,30_issda-2000,2000,first-2000,500,25,rng,num-start-2000,2000,25726,classic,1368.0394780635834,True,,True,1.0,1.0,1.0,1,"['1', '3', '9', '12', '13', '19', '21', '23', '27', '29', '30', '35', '42', '44', '45', '46', '47', '54', '57', '58', '63', '67', '68', '75', '78', '80', '88', '89', '90', '91', '96', '99', '106', '108', '113', '114', '116', '119', '120', '122', '133', '135', '146', '153', '157', '161', '162', '163', '164', '165', '169', '172', '177', '184', '186', '189', '191', '199', '205', '207', '212', '214', '220', '222', '223', '233', '236', '238', '241', '249', '252', '254', '255', '257', '258', '269', '274', '280', '290', '291', '294', '295', '301', '302', '304', '309', '313', '314', '316', '317', '319', '324', '337', '342', '344', '352', '353', '354', '357', '365', '373', '379', '381', '389', '391', '395', '397', '400', '406', '417', '421', '424', '428', '429', '430', '434', '436', '443', '448', '452', '454', '456', '457', '459', '460', '461', '465', '467', '471', '476', '481', '483', '487', '488', '490', '491', '495', '498', '501', '520', '523', '524', '529', '531', '533', '535', '538', '548', '549', '552', '558', '560', '580', '582', '584', '588', '594', '601', '603', '605', '607', '608', '610', '619', '620', '621', '624', '625', '629', '633', '635', '636', '642', '643', '647', '649', '655', '656', '660', '683', '686', '687', '689', '700', '705', '706', '713', '715', '716', '725', '726', '741', '743', '747', '757', '765', '766', '767', '771', '773', '785', '786', '787', '792', '796', '802', '805', '808', '810', '811', '819', '820', '823', '825', '826', '827', '829', '830', '832', '834', '836', '837', '838', '839', '840', '843', '844', '845', '852', '854', '856', '858', '861', '867', '874', '876', '880', '887', '889', '894', '904', '906', '910', '912', '915', '916', '917', '922', '929', '931', '934', '936', '944', '946', '947', '952', '956', '961', '966', '968', '972', '973', '978', '985', '986', '988', '1000', '1004', '1005', '1007', '1013', '1016', '1017', '1022', '1023', '1027', '1030', '1032', '1046', '1047', '1052', '1053', '1058', '1059', '1062', '1072', '1077', '1089', '1095', '1097', '1101', '1105', '1110', '1133', '1134', '1153', '1157', '1162', '1171', '1173', '1176', '1186', '1189', '1193', '1202', '1208', '1209', '1215', '1216', '1219', '1224', '1227', '1234', '1235', '1237', '1242', '1243', '1250', '1252', '1255', '1256', '1258', '1260', '1264', '1277', '1281', '1282', '1284', '1287', '1288', '1293', '1296', '1301', '1307', '1308', '1312', '1313', '1317', '1320', '1332', '1335', '1337', '1339', '1341', '1343', '1347', '1349', '1351', '1353', '1358', '1364', '1365', '1366', '1367', '1369', '1370', '1392', '1395', '1397', '1407', '1411', '1413', '1415', '1417', '1421', '1429', '1432', '1433', '1434', '1441', '1449', '1450', '1457', '1463', '1472', '1474', '1477', '1483', '1485', '1487', '1491', '1496', '1500', '1508', '1510', '1512', '1521', '1522', '1523', '1533', '1536', '1540', '1542', '1547', '1553', '1559', '1564', '1568', '1576', '1583', '1584', '1586', '1598', '1603', '1604', '1605', '1610', '1612', '1614', '1616', '1617', '1619', '1630', '1635', '1636', '1647', '1651', '1652', '1655', '1664', '1667', '1669', '1671', '1674', '1677', '1686', '1692', '1693', '1694', '1700', '1704', '1706', '1711', '1721', '1722', '1725', '1726', '1727', '1732', '1735', '1736', '1738', '1741', '1750', '1763', '1771', '1772', '1773', '1777', '1778', '1788', '1795', '1809', '1810', '1811', '1814', '1820', '1830', '1836', '1837', '1842', '1843', '1849', '1855', '1857', '1875', '1882', '1883', '1884', '1886', '1892', '1895', '1901', '1905', '1908', '1915', '1927', '1932', '1933', '1942', '1943', '1949', '1950', '1952', '1953', '1959', '1961', '1962', '1965', '1971', '1976', '1979', '1981', '1983', '1985', '1988', '1989', '1991', '1995', '1996']",False,2000,True,2,5b32c1fa83,0.0,1.0,1.0
./expes/v2_2021-03-23_issda-30_2000-prng-1-w2-p2,30_issda-2000,2000,first-2000,700,35,rng,num-start-1800,1800,25726,classic,1729.7374377250671,True,,True,1.0,1.0,1.0,1,"['4', '7', '9', '10', '11', '18', '22', '24', '33', '36', '37', '40', '41', '44', '49', '50', '51', '52', '57', '61', '64', '65', '66', '69', '70', '73', '74', '75', '77', '84', '89', '94', '101', '105', '110', '111', '116', '117', '121', '123', '124', '126', '135', '137', '139', '146', '149', '150', '151', '152', '155', '157', '158', '159', '164', '165', '167', '170', '173', '174', '177', '180', '183', '188', '191', '192', '193', '194', '197', '204', '205', '206', '208', '209', '216', '218', '228', '230', '232', '236', '238', '243', '250', '252', '262', '264', '270', '274', '275', '277', '278', '280', '283', '287', '288', '290', '295', '297', '301', '307', '310', '311', '315', '320', '321', '322', '323', '325', '326', '329', '331', '333', '337', '341', '347', '348', '350', '353', '354', '356', '361', '362', '364', '370', '372', '373', '377', '380', '385', '389', '392', '393', '394', '407', '409', '419', '420', '426', '427', '431', '432', '435', '436', '438', '442', '443', '444', '446', '449', '455', '461', '462', '465', '468', '473', '475', '476', '477', '478', '481', '484', '488', '494', '502', '506', '508', '510', '511', '512', '514', '516', '519', '520', '521', '523', '524', '526', '527', '529', '531', '532', '537', '541', '545', '547', '550', '551', '560', '562', '569', '571', '572', '575', '579', '583', '586', '588', '594', '596', '598', '604', '607', '608', '620', '622', '623', '627', '631', '632', '634', '635', '639', '640', '641', '642', '648', '653', '657', '665', '666', '669', '672', '674', '675', '678', '684', '686', '691', '699', '700', '701', '705', '707', '712', '718', '719', '725', '730', '733', '735', '737', '738', '740', '742', '743', '746', '747', '750', '751', '762', '763', '764', '765', '766', '768', '775', '777', '779', '782', '784', '785', '788', '790', '791', '799', '800', '801', '802', '803', '805', '806', '809', '810', '819', '820', '823', '825', '826', '828', '829', '830', '833', '838', '842', '845', '850', '854', '857', '859', '860', '867', '868', '872', '876', '883', '889', '890', '899', '904', '906', '907', '911', '912', '913', '918', '919', '925', '929', '930', '932', '936', '937', '938', '941', '943', '945', '949', '952', '953', '955', '956', '957', '958', '961', '964', '968', '969', '979', '983', '988', '989', '991', '992', '994', '995', '996', '997', '998', '1001', '1002', '1004', '1005', '1008', '1020', '1021', '1023', '1026', '1029', '1030', '1033', '1034', '1040', '1041', '1042', '1043', '1045', '1048', '1049', '1052', '1053', '1054', '1055', '1056', '1058', '1061', '1062', '1064', '1067', '1070', '1071', '1072', '1073', '1074', '1076', '1077', '1078', '1087', '1090', '1092', '1097', '1102', '1103', '1108', '1115', '1117', '1122', '1124', '1128', '1130', '1142', '1143', '1147', '1148', '1150', '1152', '1156', '1160', '1163', '1166', '1171', '1175', '1177', '1180', '1189', '1190', '1191', '1198', '1200', '1201', '1205', '1206', '1208', '1211', '1212', '1216', '1219', '1222', '1240', '1241', '1242', '1243', '1251', '1254', '1255', '1257', '1261', '1262', '1263', '1267', '1273', '1274', '1275', '1277', '1278', '1279', '1281', '1286', '1288', '1295', '1297', '1298', '1301', '1305', '1306', '1308', '1310', '1313', '1315', '1317', '1324', '1327', '1328', '1330', '1332', '1335', '1338', '1339', '1342', '1349', '1350', '1354', '1356', '1359', '1366', '1371', '1372', '1374', '1378', '1382', '1383', '1384', '1386', '1390', '1391', '1394', '1395', '1396', '1398', '1402', '1403', '1404', '1408', '1413', '1414', '1417', '1419', '1425', '1432', '1433', '1441', '1443', '1445', '1446', '1447', '1451', '1454', '1456', '1457', '1458', '1460', '1461', '1462', '1463', '1465', '1466', '1467', '1468', '1469', '1472', '1473', '1474', '1475', '1481', '1482', '1483', '1487', '1491', '1493', '1494', '1497', '1498', '1500', '1505', '1508', '1509', '1513', '1516', '1521', '1525', '1526', '1528', '1532', '1535', '1537', '1538', '1539', '1541', '1544', '1545', '1546', '1547', '1548', '1556', '1557', '1558', '1560', '1563', '1566', '1569', '1571', '1584', '1588', '1592', '1600', '1604', '1607', '1613', '1615', '1618', '1622', '1627', '1629', '1630', '1631', '1632', '1635', '1636', '1637', '1639', '1642', '1644', '1646', '1647', '1648', '1651', '1652', '1656', '1657', '1659', '1664', '1666', '1669', '1670', '1671', '1672', '1675', '1677', '1679', '1681', '1687', '1689', '1690', '1691', '1703', '1707', '1711', '1712', '1713', '1715', '1718', '1722', '1734', '1738', '1739', '1741', '1743', '1746', '1749', '1755', '1760', '1762', '1767', '1768', '1770', '1774', '1781', '1783', '1784', '1791', '1792', '1794', '1796', '1798', '1800', '1804', '1805', '1806', '1807', '1809', '1811', '1812', '1813', '1818', '1819', '1822', '1827', '1831', '1833', '1834', '1840', '1843', '1846', '1848', '1850', '1855', '1857', '1859', '1860', '1861', '1867', '1868', '1874', '1876', '1877', '1882', '1885', '1886', '1888', '1889', '1895', '1897', '1903', '1904', '1909', '1910', '1914', '1916', '1917', '1919', '1922', '1923', '1927', '1932', '1933', '1941', '1942', '1943', '1944', '1945', '1946', '1955', '1956', '1958', '1961', '1962', '1964', '1965', '1966', '1968', '1970', '1971', '1973', '1980', '1981', '1985', '1986', '1988', '1989', '1992', '1995']",False,2000,True,2,26f2de7e90,0.0,1.0,1.0
./expes/v2_2021-03-23_issda-30_2000-prng-1-w2-p2,30_issda-2000,2000,first-2000,400,20,rng,num-start-3400,3400,25726,classic,2452.9791417121887,True,,False,1.0,1.0,1.0,1,"['5', '6', '15', '18', '34', '35', '39', '45', '47', '51', '54', '55', '66', '69', '75', '81', '84', '89', '93', '96', '100', '102', '123', '127', '128', '131', '132', '137', '140', '145', '148', '149', '151', '155', '159', '172', '175', '177', '181', '187', '188', '192', '194', '195', '202', '204', '207', '208', '211', '212', '215', '219', '221', '230', '233', '234', '238', '246', '248', '249', '253', '258', '259', '263', '276', '279', '280', '282', '284', '286', '287', '304', '314', '317', '320', '325', '336', '340', '349', '351', '354', '359', '370', '376', '382', '384', '390', '392', '393', '404', '409', '413', '415', '416', '425', '429', '432', '453', '459', '461', '462', '464', '472', '477', '494', '496', '500', '502', '503', '509', '511', '512', '519', '530', '534', '535', '537', '539', '542', '549', '551', '556', '562', '563', '568', '572', '576', '582', '585', '586', '593', '594', '601', '602', '606', '613', '617', '623', '624', '627', '632', '633', '634', '637', '638', '650', '651', '663', '665', '667', '671', '676', '680', '682', '710', '712', '718', '725', '731', '742', '752', '756', '757', '772', '777', '788', '792', '796', '800', '803', '806', '812', '813', '819', '823', '827', '831', '833', '844', '847', '849', '855', '862', '867', '872', '875', '878', '879', '880', '881', '893', '895', '898', '899', '902', '910', '912', '917', '921', '922', '925', '926', '928', '931', '934', '938', '939', '943', '945', '949', '952', '955', '957', '960', '962', '963', '975', '978', '980', '983', '984', '996', '1002', '1004', '1011', '1012', '1025', '1029', '1030', '1034', '1036', '1043', '1048', '1051', '1054', '1066', '1067', '1073', '1077', '1083', '1084', '1094', '1110', '1111', '1115', '1117', '1118', '1121', '1136', '1137', '1141', '1145', '1152', '1166', '1167', '1169', '1181', '1184', '1186', '1195', '1198', '1204', '1206', '1208', '1211', '1216', '1217', '1219', '1222', '1226', '1246', '1249', '1256', '1259', '1265', '1271', '1272', '1283', '1299', '1303', '1305', '1313', '1323', '1329', '1330', '1337', '1339', '1345', '1349', '1351', '1355', '1360', '1367', '1368', '1381', '1385', '1387', '1388', '1396', '1398', '1401', '1406', '1408', '1410', '1423', '1426', '1445', '1454', '1465', '1467', '1468', '1470', '1475', '1485', '1491', '1497', '1498', '1503', '1507', '1512', '1513', '1514', '1519', '1528', '1540', '1541', '1548', '1550', '1568', '1584', '1586', '1587', '1588', '1607', '1608', '1609', '1614', '1622', '1629', '1642', '1645', '1646', '1647', '1648', '1655', '1661', '1689', '1692', '1704', '1708', '1710', '1712', '1724', '1729', '1740', '1741', '1747', '1748', '1753', '1762', '1774', '1779', '1786', '1790', '1799', '1800', '1801', '1809', '1812', '1824', '1834', '1836', '1838', '1856', '1874', '1885', '1896', '1903', '1905', '1907', '1911', '1916', '1917', '1924', '1937', '1938', '1946', '1954', '1957', '1959', '1960', '1963', '1970', '1973', '1977', '1981', '1983', '1987', '1989', '1993']",True,2000,True,2,f64fa28df4,0.0,0.0,1.0
