expe,clients,clients_size,clients_subset,agg_size,agg_size_pc,method,days,days_size,days_total,noise_method,time,valid,valid_sum,success,score_avg,score_min,score_max,nsols,oracle,wall_hit,wall_time,pooled,pool_size,uuid,infeasible,optimal,valid_sums
./expes/v4_2021-03-18_issda_1000-prng-1-w1-p100-ukn95_99,30_issda-1000,997,first-1000,300,30,rng,num-start-700,700,25726,ukn-95-99,86.67878198623657,False,,False,0.36953947045656177,0.22579228216101732,0.9451178700051548,100,"['5', '8', '12', '14', '16', '21', '22', '23', '28', '30', '32', '33', '35', '37', '44', '46', '47', '62', '63', '65', '66', '68', '69', '79', '82', '88', '91', '100', '105', '106', '107', '108', '111', '122', '124', '128', '133', '134', '135', '137', '138', '140', '142', '155', '156', '160', '164', '168', '174', '182', '188', '190', '192', '196', '197', '203', '205', '217', '223', '224', '228', '230', '231', '238', '240', '242', '244', '245', '258', '265', '266', '270', '271', '274', '276', '278', '286', '287', '292', '298', '299', '301', '306', '308', '309', '311', '318', '321', '322', '323', '328', '330', '335', '336', '339', '341', '342', '345', '348', '349', '353', '354', '355', '360', '362', '369', '373', '375', '379', '386', '387', '396', '397', '400', '405', '407', '418', '420', '421', '424', '426', '427', '430', '432', '438', '442', '445', '446', '447', '448', '449', '456', '462', '468', '472', '476', '478', '481', '482', '485', '486', '488', '489', '494', '496', '502', '507', '513', '518', '520', '523', '531', '533', '534', '536', '543', '547', '549', '554', '555', '558', '562', '563', '565', '573', '582', '583', '586', '588', '589', '591', '594', '595', '599', '600', '601', '604', '606', '607', '610', '615', '616', '619', '620', '621', '624', '626', '630', '631', '635', '636', '638', '641', '642', '643', '644', '648', '649', '650', '651', '655', '658', '660', '666', '670', '672', '688', '689', '692', '693', '695', '696', '698', '699', '701', '707', '713', '715', '716', '724', '731', '732', '733', '735', '736', '737', '738', '746', '753', '756', '760', '777', '780', '788', '791', '796', '798', '799', '806', '807', '808', '813', '820', '821', '824', '826', '827', '830', '831', '833', '844', '848', '852', '853', '854', '857', '858', '859', '865', '871', '875', '876', '877', '882', '883', '885', '887', '888', '889', '891', '894', '900', '902', '903', '907', '919', '926', '927', '931', '938', '940', '943', '944', '945', '949', '952', '959', '964', '966', '972', '973', '978', '981', '982', '984', '987', '988', '989', '995', '997']",False,1000,True,100,2d5fb05053,0.0,1.0,0.0
./expes/v4_2021-03-18_issda_1000-prng-1-w1-p100-ukn95_99,30_issda-1000,997,first-1000,350,35,rng,num-start-900,900,25726,ukn-95-99,98.45401692390442,False,,False,0.34823276689799654,0.16345998494564018,0.9451178700051548,100,"['5', '8', '12', '14', '16', '21', '22', '23', '28', '30', '32', '33', '34', '35', '36', '37', '44', '46', '47', '51', '55', '62', '63', '65', '66', '68', '69', '70', '79', '82', '88', '91', '100', '105', '106', '107', '108', '111', '117', '122', '123', '124', '126', '128', '129', '133', '134', '135', '137', '138', '140', '142', '155', '156', '160', '164', '168', '174', '176', '182', '188', '190', '192', '196', '197', '203', '204', '205', '217', '223', '224', '227', '228', '230', '231', '233', '238', '240', '242', '244', '245', '246', '251', '258', '259', '265', '266', '270', '271', '274', '276', '278', '286', '287', '292', '294', '296', '298', '299', '301', '306', '308', '309', '311', '318', '321', '322', '323', '328', '330', '335', '336', '339', '341', '342', '345', '348', '349', '350', '353', '354', '355', '360', '361', '362', '369', '373', '375', '379', '386', '387', '396', '397', '400', '405', '407', '418', '420', '421', '424', '426', '427', '430', '432', '438', '441', '442', '445', '446', '447', '448', '449', '456', '462', '468', '472', '476', '478', '481', '482', '485', '486', '488', '489', '493', '494', '496', '502', '507', '513', '516', '518', '520', '523', '525', '531', '532', '533', '534', '536', '538', '543', '547', '548', '549', '550', '554', '555', '557', '558', '562', '563', '565', '573', '582', '583', '586', '588', '589', '591', '594', '595', '599', '600', '601', '603', '604', '606', '607', '610', '615', '616', '619', '620', '621', '624', '626', '627', '630', '631', '635', '636', '638', '641', '642', '643', '644', '648', '649', '650', '651', '655', '658', '660', '666', '670', '672', '679', '688', '689', '692', '693', '695', '696', '698', '699', '701', '707', '711', '713', '715', '716', '724', '731', '732', '733', '735', '736', '737', '738', '746', '753', '756', '760', '764', '766', '772', '777', '780', '788', '791', '796', '798', '799', '802', '806', '807', '808', '813', '820', '821', '823', '824', '826', '827', '830', '831', '832', '833', '837', '844', '848', '852', '853', '854', '857', '858', '859', '865', '871', '875', '876', '877', '879', '882', '883', '885', '887', '888', '889', '891', '894', '900', '902', '903', '905', '907', '909', '912', '919', '922', '926', '927', '931', '935', '938', '940', '943', '944', '945', '947', '949', '950', '952', '959', '962', '964', '966', '972', '973', '978', '981', '982', '984', '987', '988', '989', '995', '996', '997']",False,1000,True,100,febce3a3c4,0.0,1.0,0.0
./expes/v4_2021-03-18_issda_1000-prng-1-w1-p100-ukn95_99,30_issda-1000,998,first-1000,200,20,rng,num-start-700,700,25726,ukn-95-99,75.5877275466919,False,,False,0.45127009430570714,0.4388005394661266,0.9552114070977611,100,"['2', '3', '6', '10', '13', '23', '27', '30', '31', '32', '36', '45', '58', '65', '89', '97', '103', '105', '111', '121', '124', '133', '138', '168', '173', '175', '178', '191', '195', '205', '211', '215', '222', '225', '228', '233', '235', '237', '238', '239', '249', '262', '273', '276', '291', '297', '304', '311', '316', '326', '340', '341', '353', '354', '355', '362', '366', '374', '376', '380', '384', '389', '391', '393', '400', '403', '404', '414', '415', '424', '425', '427', '433', '437', '444', '449', '450', '457', '461', '470', '471', '481', '484', '492', '493', '497', '500', '502', '508', '512', '513', '515', '517', '518', '520', '521', '525', '527', '532', '534', '541', '552', '553', '554', '555', '562', '567', '568', '570', '575', '583', '584', '592', '593', '602', '604', '606', '608', '615', '623', '624', '628', '630', '639', '645', '658', '663', '666', '668', '676', '680', '681', '687', '691', '694', '703', '713', '720', '721', '729', '739', '742', '744', '747', '751', '756', '759', '761', '762', '780', '781', '783', '786', '790', '795', '797', '798', '803', '806', '808', '817', '822', '829', '833', '841', '850', '856', '858', '861', '867', '868', '869', '874', '878', '881', '891', '903', '904', '908', '915', '918', '924', '932', '933', '939', '943', '945', '949', '959', '961', '962', '964', '968', '973', '976', '978', '981', '991', '993', '997']",False,1000,True,100,0d00b3e64d,0.0,1.0,0.0
./expes/v4_2021-03-18_issda_1000-prng-1-w1-p100-ukn95_99,30_issda-1000,999,first-1000,100,10,rng,num-start-900,900,25726,ukn-95-99,148.1875307559967,False,,False,0.6412117749916273,0.6214678703910426,0.9683455531083541,100,"['2', '15', '42', '64', '65', '76', '83', '94', '96', '98', '102', '104', '143', '144', '146', '151', '196', '210', '224', '228', '245', '250', '257', '266', '267', '289', '311', '318', '324', '328', '334', '339', '342', '363', '367', '395', '409', '415', '431', '445', '454', '459', '484', '489', '498', '506', '517', '524', '534', '546', '557', '562', '566', '574', '582', '598', '617', '626', '627', '634', '641', '656', '685', '701', '721', '723', '728', '737', '748', '774', '777', '803', '804', '819', '823', '825', '830', '845', '848', '850', '861', '865', '871', '887', '889', '892', '912', '914', '921', '924', '930', '932', '935', '938', '940', '941', '989', '990', '991', '992']",False,1000,True,100,63c8ccace6,0.0,1.0,0.0
./expes/v4_2021-03-18_issda_1000-prng-1-w1-p100-ukn95_99,30_issda-1000,998,first-1000,250,25,rng,num-start-900,900,25726,ukn-95-99,116.27489900588989,False,,False,0.43165036930226564,0.3974311094958435,0.9552114070977611,100,"['4', '5', '13', '14', '18', '21', '24', '27', '32', '34', '35', '39', '45', '51', '53', '60', '63', '65', '66', '72', '74', '83', '86', '88', '89', '92', '93', '96', '98', '100', '110', '111', '112', '115', '117', '120', '124', '125', '130', '139', '141', '143', '144', '146', '152', '153', '154', '158', '159', '163', '165', '171', '175', '177', '180', '183', '195', '197', '198', '199', '203', '206', '207', '213', '215', '216', '217', '226', '230', '231', '233', '238', '240', '241', '250', '254', '261', '265', '274', '292', '293', '296', '303', '306', '307', '308', '317', '322', '334', '346', '347', '349', '351', '352', '353', '360', '365', '366', '369', '370', '373', '375', '380', '385', '386', '387', '389', '390', '391', '396', '400', '404', '406', '411', '413', '417', '418', '420', '427', '428', '434', '437', '442', '443', '447', '451', '453', '456', '457', '464', '465', '467', '468', '471', '483', '485', '486', '497', '500', '501', '507', '510', '511', '516', '518', '519', '520', '523', '527', '530', '533', '534', '540', '541', '542', '545', '553', '559', '571', '578', '583', '587', '588', '593', '594', '595', '596', '599', '603', '616', '619', '620', '622', '627', '633', '636', '639', '658', '660', '662', '664', '666', '671', '673', '674', '675', '677', '679', '680', '707', '708', '718', '719', '722', '723', '726', '733', '735', '737', '739', '743', '744', '747', '762', '767', '778', '783', '785', '810', '816', '828', '831', '834', '837', '850', '851', '855', '856', '857', '864', '873', '876', '878', '881', '890', '897', '900', '903', '905', '913', '919', '924', '925', '926', '927', '929', '930', '934', '935', '951', '955', '959', '969', '973', '986', '989', '992', '994', '997', '999']",False,1000,True,100,512e0f03e5,0.0,1.0,0.0
