expe,clients,clients_size,clients_subset,agg_size,agg_size_pc,method,days,days_size,days_total,noise_method,time,valid,valid_sum,success,score_avg,score_min,score_max,nsols,oracle,wall_hit,wall_time,pooled,pool_size,uuid,infeasible,optimal,valid_sums
./expes/v4_2021-03-18_issda_1000-prng-1-w1-p100-ukn95_99,30_issda-1000,998,first-1000,250,25,rng,num-start-900,900,25726,ukn-95-99,141.78661799430847,False,,False,0.3939182174877161,0.3745613374904898,0.9552114070977611,100,"['1', '7', '13', '16', '18', '19', '23', '30', '31', '38', '39', '47', '56', '59', '64', '78', '79', '83', '88', '91', '92', '96', '97', '99', '100', '103', '115', '120', '123', '127', '130', '142', '146', '148', '149', '150', '159', '162', '167', '174', '177', '187', '190', '193', '194', '197', '198', '199', '201', '202', '203', '204', '206', '215', '229', '238', '250', '251', '252', '257', '258', '261', '263', '268', '272', '273', '275', '276', '280', '297', '298', '299', '311', '312', '314', '320', '326', '328', '332', '338', '341', '344', '366', '370', '371', '376', '380', '383', '384', '386', '387', '389', '390', '399', '408', '419', '420', '421', '424', '432', '433', '434', '435', '437', '441', '452', '456', '457', '458', '461', '463', '479', '481', '482', '483', '487', '491', '496', '497', '498', '499', '500', '501', '504', '509', '510', '513', '515', '516', '528', '530', '535', '538', '541', '551', '552', '553', '567', '572', '574', '577', '584', '588', '590', '601', '603', '604', '609', '612', '617', '618', '622', '623', '625', '627', '629', '634', '635', '636', '639', '641', '644', '649', '650', '651', '661', '662', '664', '672', '673', '676', '679', '685', '687', '688', '695', '696', '697', '698', '699', '703', '712', '715', '717', '718', '723', '732', '736', '737', '739', '740', '747', '748', '753', '765', '774', '778', '781', '789', '793', '797', '802', '803', '813', '816', '820', '822', '823', '825', '826', '834', '837', '842', '848', '852', '853', '855', '865', '874', '887', '892', '894', '898', '901', '902', '911', '914', '925', '927', '932', '933', '935', '936', '939', '942', '946', '950', '956', '960', '961', '964', '971', '975', '986', '988', '989', '994', '995', '999', '1000']",False,1000,True,100,33cb94e9e0,0.0,1.0,0.0
./expes/v4_2021-03-18_issda_1000-prng-1-w1-p100-ukn95_99,30_issda-1000,998,first-1000,250,25,rng,num-start-800,800,25726,ukn-95-99,67.5079300403595,False,,False,0.413101743743691,0.4007694669869656,0.9552114070977611,100,"['2', '4', '6', '10', '14', '19', '23', '24', '30', '33', '34', '38', '48', '50', '54', '58', '59', '61', '65', '67', '68', '74', '81', '83', '92', '94', '95', '105', '110', '111', '116', '122', '130', '134', '136', '143', '145', '150', '151', '152', '153', '161', '164', '166', '170', '171', '173', '174', '181', '182', '184', '185', '186', '187', '190', '202', '204', '210', '213', '214', '215', '221', '222', '244', '252', '253', '256', '257', '262', '263', '271', '279', '281', '283', '287', '297', '299', '302', '303', '306', '309', '314', '317', '318', '320', '322', '324', '325', '326', '340', '343', '347', '349', '353', '364', '365', '367', '368', '370', '372', '375', '377', '381', '382', '386', '387', '390', '393', '399', '414', '416', '418', '424', '425', '429', '431', '432', '444', '445', '456', '464', '465', '467', '474', '477', '481', '482', '484', '491', '493', '496', '500', '504', '506', '512', '515', '525', '526', '528', '535', '538', '543', '545', '547', '553', '557', '559', '562', '563', '578', '588', '593', '601', '604', '609', '611', '616', '618', '626', '633', '636', '638', '639', '641', '642', '643', '646', '654', '665', '667', '668', '695', '703', '706', '708', '712', '714', '720', '722', '725', '738', '739', '748', '749', '750', '758', '759', '760', '767', '768', '774', '781', '785', '793', '794', '795', '800', '801', '805', '807', '815', '817', '818', '821', '838', '839', '840', '842', '847', '859', '861', '862', '866', '873', '881', '889', '890', '893', '894', '898', '915', '916', '919', '923', '924', '939', '941', '945', '946', '947', '952', '959', '960', '962', '964', '965', '966', '969', '973', '978', '979', '983', '984', '985', '989', '990', '992', '996', '999', '1000']",False,1000,True,100,929bffb560,0.0,1.0,0.0
./expes/v4_2021-03-18_issda_1000-prng-1-w1-p100-ukn95_99,30_issda-1000,999,first-1000,100,10,rng,num-start-300,300,25726,ukn-95-99,70.49771189689636,False,,False,0.6077041614865775,0.588492190408603,0.9683455531083541,100,"['8', '21', '27', '45', '48', '61', '69', '84', '89', '92', '93', '106', '109', '159', '166', '169', '177', '183', '199', '200', '220', '228', '239', '242', '254', '255', '266', '267', '269', '279', '284', '287', '288', '296', '297', '299', '308', '311', '313', '318', '320', '346', '369', '382', '398', '406', '412', '424', '434', '442', '463', '474', '483', '485', '491', '519', '521', '532', '533', '548', '550', '561', '563', '587', '614', '621', '642', '643', '657', '664', '688', '718', '722', '739', '750', '784', '799', '817', '820', '827', '833', '838', '847', '849', '861', '866', '869', '876', '887', '889', '902', '904', '931', '940', '950', '958', '965', '966', '968', '984']",False,1000,True,100,6b717898c4,0.0,1.0,0.0
./expes/v4_2021-03-18_issda_1000-prng-1-w1-p100-ukn95_99,30_issda-1000,997,first-1000,350,35,rng,num-start-100,100,25726,ukn-95-99,9.724363803863525,False,,False,0.35564069338281057,0.3285811941482383,0.9451178700051548,100,"['5', '8', '12', '14', '16', '21', '22', '23', '28', '30', '32', '33', '34', '35', '36', '37', '44', '46', '47', '51', '55', '62', '63', '65', '66', '68', '69', '70', '79', '82', '88', '91', '100', '105', '106', '107', '108', '111', '117', '122', '123', '124', '126', '128', '129', '133', '134', '135', '137', '138', '140', '142', '155', '156', '160', '164', '168', '174', '176', '182', '188', '190', '192', '196', '197', '203', '204', '205', '217', '223', '224', '227', '228', '230', '231', '233', '238', '240', '242', '244', '245', '246', '251', '258', '259', '265', '266', '270', '271', '274', '276', '278', '286', '287', '292', '294', '296', '298', '299', '301', '306', '308', '309', '311', '318', '321', '322', '323', '328', '330', '335', '336', '339', '341', '342', '345', '348', '349', '350', '353', '354', '355', '360', '361', '362', '369', '373', '375', '379', '386', '387', '396', '397', '400', '405', '407', '418', '420', '421', '424', '426', '427', '430', '432', '438', '441', '442', '445', '446', '447', '448', '449', '456', '462', '468', '472', '476', '478', '481', '482', '485', '486', '488', '489', '493', '494', '496', '502', '507', '513', '516', '518', '520', '523', '525', '531', '532', '533', '534', '536', '538', '543', '547', '548', '549', '550', '554', '555', '557', '558', '562', '563', '565', '573', '582', '583', '586', '588', '589', '591', '594', '595', '599', '600', '601', '603', '604', '606', '607', '610', '615', '616', '619', '620', '621', '624', '626', '627', '630', '631', '635', '636', '638', '641', '642', '643', '644', '648', '649', '650', '651', '655', '658', '660', '666', '670', '672', '679', '688', '689', '692', '693', '695', '696', '698', '699', '701', '707', '711', '713', '715', '716', '724', '731', '732', '733', '735', '736', '737', '738', '746', '753', '756', '760', '764', '766', '772', '777', '780', '788', '791', '796', '798', '799', '802', '806', '807', '808', '813', '820', '821', '823', '824', '826', '827', '830', '831', '832', '833', '837', '844', '848', '852', '853', '854', '857', '858', '859', '865', '871', '875', '876', '877', '879', '882', '883', '885', '887', '888', '889', '891', '894', '900', '902', '903', '905', '907', '909', '912', '919', '922', '926', '927', '931', '935', '938', '940', '943', '944', '945', '947', '949', '950', '952', '959', '962', '964', '966', '972', '973', '978', '981', '982', '984', '987', '988', '989', '995', '996', '997']",False,1000,True,100,5f02cfb497,0.0,1.0,0.0
./expes/v4_2021-03-18_issda_1000-prng-1-w1-p100-ukn95_99,30_issda-1000,996,first-1000,450,45,rng,num-start-900,900,25726,ukn-95-99,82.75087308883667,False,,False,0.3337633288664778,0.060632095342028736,0.9223459546850981,100,"['1', '5', '7', '10', '13', '14', '16', '18', '19', '21', '23', '29', '30', '31', '32', '33', '34', '35', '38', '39', '41', '47', '52', '53', '54', '56', '59', '61', '62', '63', '64', '66', '71', '76', '77', '78', '79', '80', '83', '86', '88', '91', '92', '95', '96', '97', '99', '100', '103', '108', '115', '117', '118', '120', '123', '127', '129', '130', '131', '132', '138', '139', '140', '141', '142', '143', '146', '148', '149', '150', '153', '154', '155', '159', '162', '165', '167', '168', '169', '173', '174', '177', '178', '183', '187', '189', '190', '191', '193', '194', '197', '198', '199', '201', '202', '203', '204', '206', '207', '215', '220', '227', '229', '231', '232', '238', '240', '245', '247', '250', '251', '252', '256', '257', '258', '261', '262', '263', '268', '272', '273', '275', '276', '279', '280', '281', '283', '284', '285', '287', '289', '293', '294', '297', '298', '299', '301', '311', '312', '314', '320', '325', '326', '328', '332', '334', '338', '339', '341', '344', '345', '349', '352', '353', '359', '366', '369', '370', '371', '373', '376', '377', '380', '381', '382', '383', '384', '386', '387', '389', '390', '391', '394', '396', '398', '399', '408', '410', '417', '419', '420', '421', '424', '430', '432', '433', '434', '435', '436', '437', '441', '442', '444', '447', '449', '451', '452', '455', '456', '457', '458', '461', '463', '474', '476', '479', '481', '482', '483', '484', '485', '487', '489', '490', '491', '496', '497', '498', '499', '500', '501', '504', '507', '509', '510', '512', '513', '515', '516', '520', '528', '530', '533', '535', '538', '539', '540', '541', '544', '549', '551', '552', '553', '554', '556', '557', '561', '565', '567', '572', '574', '575', '577', '578', '579', '583', '584', '587', '588', '590', '594', '599', '601', '603', '604', '607', '609', '610', '612', '617', '618', '620', '622', '623', '625', '627', '629', '632', '633', '634', '635', '636', '639', '641', '644', '645', '647', '649', '650', '651', '653', '654', '655', '661', '662', '664', '667', '670', '672', '673', '676', '678', '679', '683', '685', '687', '688', '690', '693', '695', '696', '697', '698', '699', '701', '703', '705', '707', '708', '709', '711', '712', '713', '715', '717', '718', '719', '723', '726', '729', '730', '731', '732', '733', '734', '736', '737', '739', '740', '742', '747', '748', '750', '753', '757', '758', '761', '763', '764', '765', '769', '770', '774', '776', '778', '779', '781', '782', '784', '789', '793', '796', '797', '798', '802', '803', '806', '807', '810', '811', '813', '816', '820', '822', '823', '825', '826', '834', '836', '837', '838', '842', '848', '852', '853', '855', '859', '861', '865', '866', '871', '874', '876', '879', '880', '885', '887', '892', '893', '894', '898', '901', '902', '907', '911', '914', '915', '916', '922', '925', '927', '930', '931', '932', '933', '934', '935', '936', '939', '942', '944', '945', '946', '947', '950', '956', '957', '960', '961', '963', '964', '967', '968', '971', '972', '973', '974', '975', '982', '986', '988', '989', '990', '993', '994', '995', '996', '998', '999', '1000']",False,1000,True,100,a21c7102d1,0.0,1.0,0.0
./expes/v4_2021-03-18_issda_1000-prng-1-w1-p100-ukn95_99,30_issda-1000,996,first-1000,450,45,rng,num-start-800,800,25726,ukn-95-99,65.49493932723999,False,,False,0.3155952574226094,0.05105189153314926,0.9365957375051759,100,"['4', '5', '7', '13', '14', '18', '21', '23', '24', '27', '32', '34', '35', '38', '39', '40', '45', '47', '51', '53', '59', '60', '63', '65', '66', '67', '68', '71', '72', '74', '77', '82', '83', '84', '85', '86', '87', '88', '89', '90', '92', '93', '95', '96', '98', '100', '103', '109', '110', '111', '112', '114', '115', '117', '120', '124', '125', '130', '131', '136', '139', '141', '143', '144', '146', '152', '153', '154', '158', '159', '161', '163', '164', '165', '168', '171', '174', '175', '177', '179', '180', '181', '182', '183', '192', '195', '196', '197', '198', '199', '201', '203', '204', '206', '207', '211', '213', '215', '216', '217', '223', '224', '226', '228', '230', '231', '233', '235', '237', '238', '240', '241', '249', '250', '251', '252', '254', '256', '261', '262', '265', '271', '273', '274', '276', '278', '281', '284', '290', '292', '293', '295', '296', '297', '298', '299', '301', '303', '304', '306', '307', '308', '310', '317', '320', '322', '327', '328', '329', '332', '334', '335', '346', '347', '349', '351', '352', '353', '357', '360', '365', '366', '367', '369', '370', '371', '373', '375', '376', '377', '379', '380', '381', '385', '386', '387', '388', '389', '390', '391', '393', '394', '396', '398', '399', '400', '401', '404', '406', '407', '411', '413', '417', '418', '420', '422', '425', '427', '428', '430', '434', '437', '438', '442', '443', '445', '447', '448', '451', '453', '456', '457', '460', '464', '465', '467', '468', '469', '471', '474', '483', '485', '486', '488', '491', '497', '500', '501', '502', '507', '509', '510', '511', '512', '513', '514', '515', '516', '517', '518', '519', '520', '523', '525', '527', '529', '530', '533', '534', '537', '538', '539', '540', '541', '542', '545', '547', '548', '553', '559', '561', '570', '571', '573', '577', '578', '580', '581', '583', '587', '588', '593', '594', '595', '596', '599', '600', '603', '611', '615', '616', '619', '620', '622', '625', '627', '628', '629', '633', '636', '639', '640', '641', '648', '651', '655', '658', '660', '662', '663', '664', '666', '668', '669', '670', '671', '673', '674', '675', '677', '679', '680', '684', '686', '690', '693', '697', '701', '702', '704', '707', '708', '709', '712', '718', '719', '722', '723', '726', '728', '733', '735', '736', '737', '739', '743', '744', '746', '747', '751', '753', '754', '755', '759', '762', '763', '766', '767', '768', '774', '778', '781', '783', '785', '786', '799', '800', '801', '803', '806', '808', '810', '813', '816', '824', '827', '828', '831', '833', '834', '835', '837', '839', '841', '843', '845', '846', '849', '850', '851', '852', '854', '855', '856', '857', '858', '859', '860', '863', '864', '865', '867', '868', '871', '873', '876', '878', '880', '881', '886', '888', '890', '897', '900', '903', '904', '905', '909', '910', '913', '915', '917', '919', '922', '924', '925', '926', '927', '928', '929', '930', '931', '932', '934', '935', '939', '941', '942', '943', '945', '948', '950', '951', '954', '955', '959', '960', '965', '969', '973', '981', '982', '986', '989', '991', '992', '994', '995', '997', '999']",False,1000,True,100,157ea5b658,0.0,1.0,0.0
