expe,clients,clients_size,clients_subset,agg_size,agg_size_pc,method,days,days_size,days_total,noise_method,time,valid,valid_sum,success,score_avg,score_min,score_max,nsols,oracle,wall_hit,wall_time,pooled,pool_size,uuid,infeasible,optimal,valid_sums
./expes/v4_2021-03-18_issda_1000-prng-1-w1-p100-ukn95_99,30_issda-1000,996,first-1000,450,45,rng,num-start-500,500,25726,ukn-95-99,57.3435697555542,False,,False,0.312434404446321,0.29967703071616114,0.9223459546850981,100,"['1', '5', '7', '10', '13', '14', '16', '18', '19', '21', '23', '29', '30', '31', '32', '33', '34', '35', '38', '39', '41', '47', '52', '53', '54', '56', '59', '61', '62', '63', '64', '66', '71', '76', '77', '78', '79', '80', '83', '86', '88', '91', '92', '95', '96', '97', '99', '100', '103', '108', '115', '117', '118', '120', '123', '127', '129', '130', '131', '132', '138', '139', '140', '141', '142', '143', '146', '148', '149', '150', '153', '154', '155', '159', '162', '165', '167', '168', '169', '173', '174', '177', '178', '183', '187', '189', '190', '191', '193', '194', '197', '198', '199', '201', '202', '203', '204', '206', '207', '215', '220', '227', '229', '231', '232', '238', '240', '245', '247', '250', '251', '252', '256', '257', '258', '261', '262', '263', '268', '272', '273', '275', '276', '279', '280', '281', '283', '284', '285', '287', '289', '293', '294', '297', '298', '299', '301', '311', '312', '314', '320', '325', '326', '328', '332', '334', '338', '339', '341', '344', '345', '349', '352', '353', '359', '366', '369', '370', '371', '373', '376', '377', '380', '381', '382', '383', '384', '386', '387', '389', '390', '391', '394', '396', '398', '399', '408', '410', '417', '419', '420', '421', '424', '430', '432', '433', '434', '435', '436', '437', '441', '442', '444', '447', '449', '451', '452', '455', '456', '457', '458', '461', '463', '474', '476', '479', '481', '482', '483', '484', '485', '487', '489', '490', '491', '496', '497', '498', '499', '500', '501', '504', '507', '509', '510', '512', '513', '515', '516', '520', '528', '530', '533', '535', '538', '539', '540', '541', '544', '549', '551', '552', '553', '554', '556', '557', '561', '565', '567', '572', '574', '575', '577', '578', '579', '583', '584', '587', '588', '590', '594', '599', '601', '603', '604', '607', '609', '610', '612', '617', '618', '620', '622', '623', '625', '627', '629', '632', '633', '634', '635', '636', '639', '641', '644', '645', '647', '649', '650', '651', '653', '654', '655', '661', '662', '664', '667', '670', '672', '673', '676', '678', '679', '683', '685', '687', '688', '690', '693', '695', '696', '697', '698', '699', '701', '703', '705', '707', '708', '709', '711', '712', '713', '715', '717', '718', '719', '723', '726', '729', '730', '731', '732', '733', '734', '736', '737', '739', '740', '742', '747', '748', '750', '753', '757', '758', '761', '763', '764', '765', '769', '770', '774', '776', '778', '779', '781', '782', '784', '789', '793', '796', '797', '798', '802', '803', '806', '807', '810', '811', '813', '816', '820', '822', '823', '825', '826', '834', '836', '837', '838', '842', '848', '852', '853', '855', '859', '861', '865', '866', '871', '874', '876', '879', '880', '885', '887', '892', '893', '894', '898', '901', '902', '907', '911', '914', '915', '916', '922', '925', '927', '930', '931', '932', '933', '934', '935', '936', '939', '942', '944', '945', '946', '947', '950', '956', '957', '960', '961', '963', '964', '967', '968', '971', '972', '973', '974', '975', '982', '986', '988', '989', '990', '993', '994', '995', '996', '998', '999', '1000']",False,1000,True,100,f951f6d690,0.0,1.0,0.0
./expes/v4_2021-03-18_issda_1000-prng-1-w1-p100-ukn95_99,30_issda-1000,997,first-1000,350,35,rng,num-start-100,100,25726,ukn-95-99,11.250470876693726,False,,False,0.33722028769349544,0.1646610480417936,0.929147474841858,100,"['1', '4', '6', '7', '9', '13', '14', '16', '18', '19', '25', '27', '30', '31', '35', '36', '37', '42', '43', '45', '49', '50', '52', '53', '54', '55', '56', '57', '62', '63', '65', '66', '67', '68', '69', '71', '78', '83', '86', '87', '89', '90', '91', '96', '99', '102', '103', '105', '106', '109', '112', '113', '114', '115', '121', '124', '125', '132', '133', '136', '137', '141', '142', '143', '145', '146', '149', '152', '153', '161', '166', '167', '169', '173', '174', '176', '177', '178', '181', '186', '191', '194', '197', '203', '204', '205', '208', '210', '214', '215', '216', '219', '227', '228', '230', '237', '243', '244', '249', '250', '255', '266', '269', '270', '274', '275', '277', '281', '284', '285', '288', '292', '298', '299', '302', '304', '308', '315', '317', '330', '333', '337', '339', '342', '343', '347', '350', '355', '356', '358', '364', '375', '379', '381', '382', '383', '388', '389', '391', '393', '396', '398', '399', '407', '408', '411', '412', '413', '417', '420', '422', '431', '432', '433', '435', '436', '439', '444', '447', '455', '460', '462', '463', '465', '468', '470', '475', '482', '486', '487', '490', '493', '494', '502', '504', '507', '508', '509', '510', '513', '515', '518', '519', '523', '530', '535', '537', '540', '542', '549', '551', '553', '556', '558', '559', '561', '562', '568', '569', '570', '573', '574', '576', '579', '580', '587', '588', '589', '590', '593', '594', '595', '599', '600', '603', '605', '606', '608', '612', '618', '620', '621', '622', '623', '624', '626', '627', '628', '632', '638', '640', '645', '653', '655', '658', '659', '664', '667', '680', '684', '688', '691', '693', '695', '696', '700', '705', '710', '713', '717', '718', '721', '723', '726', '727', '733', '737', '738', '743', '744', '745', '746', '748', '754', '755', '756', '764', '765', '766', '771', '779', '783', '784', '791', '792', '793', '794', '795', '797', '799', '800', '802', '803', '806', '809', '813', '814', '816', '818', '819', '823', '827', '829', '830', '835', '841', '843', '853', '864', '866', '867', '872', '873', '880', '881', '885', '888', '889', '890', '893', '897', '899', '900', '901', '902', '903', '908', '909', '911', '914', '915', '917', '918', '920', '928', '929', '932', '934', '940', '942', '944', '946', '947', '959', '963', '964', '969', '970', '974', '975', '977', '979', '982', '985', '986', '988', '990', '992', '999', '1000']",False,1000,True,100,eda8ee7110,0.0,1.0,0.0
./expes/v4_2021-03-18_issda_1000-prng-1-w1-p100-ukn95_99,30_issda-1000,995,first-1000,500,50,rng,num-start-200,200,25726,ukn-95-99,14.536576747894287,False,,False,0.28788470474009203,0.2718646509617083,0.9160818641703311,100,"['1', '3', '5', '6', '7', '10', '11', '13', '14', '16', '18', '19', '21', '23', '29', '30', '31', '32', '33', '34', '35', '38', '39', '41', '47', '52', '53', '54', '56', '59', '61', '62', '63', '64', '66', '70', '71', '76', '77', '78', '79', '80', '83', '86', '88', '90', '91', '92', '95', '96', '97', '99', '100', '103', '108', '112', '115', '117', '118', '120', '123', '127', '129', '130', '131', '132', '136', '137', '138', '139', '140', '141', '142', '143', '146', '148', '149', '150', '153', '154', '155', '156', '159', '162', '165', '167', '168', '169', '173', '174', '177', '178', '181', '183', '187', '189', '190', '191', '193', '194', '197', '198', '199', '201', '202', '203', '204', '206', '207', '215', '220', '221', '227', '229', '231', '232', '236', '238', '240', '245', '247', '249', '250', '251', '252', '256', '257', '258', '260', '261', '262', '263', '268', '271', '272', '273', '275', '276', '277', '279', '280', '281', '283', '284', '285', '287', '289', '293', '294', '297', '298', '299', '301', '307', '311', '312', '314', '320', '325', '326', '328', '332', '334', '338', '339', '341', '344', '345', '346', '349', '352', '353', '359', '366', '369', '370', '371', '372', '373', '376', '377', '380', '381', '382', '383', '384', '386', '387', '389', '390', '391', '394', '396', '398', '399', '403', '408', '410', '417', '419', '420', '421', '424', '428', '430', '432', '433', '434', '435', '436', '437', '440', '441', '442', '444', '447', '449', '451', '452', '455', '456', '457', '458', '460', '461', '463', '470', '474', '475', '476', '479', '481', '482', '483', '484', '485', '486', '487', '489', '490', '491', '492', '496', '497', '498', '499', '500', '501', '504', '507', '509', '510', '512', '513', '515', '516', '520', '526', '528', '530', '533', '535', '538', '539', '540', '541', '544', '549', '551', '552', '553', '554', '555', '556', '557', '559', '561', '565', '567', '572', '574', '575', '577', '578', '579', '583', '584', '587', '588', '590', '594', '599', '601', '603', '604', '605', '607', '609', '610', '612', '617', '618', '620', '622', '623', '625', '627', '629', '631', '632', '633', '634', '635', '636', '639', '641', '642', '644', '645', '647', '649', '650', '651', '653', '654', '655', '660', '661', '662', '664', '667', '670', '672', '673', '676', '678', '679', '683', '685', '687', '688', '690', '693', '694', '695', '696', '697', '698', '699', '701', '703', '705', '707', '708', '709', '711', '712', '713', '715', '717', '718', '719', '723', '726', '729', '730', '731', '732', '733', '734', '736', '737', '739', '740', '742', '747', '748', '750', '753', '757', '758', '761', '763', '764', '765', '769', '770', '774', '776', '777', '778', '779', '781', '782', '784', '786', '789', '793', '796', '797', '798', '799', '802', '803', '806', '807', '810', '811', '813', '815', '816', '820', '822', '823', '825', '826', '828', '829', '832', '834', '836', '837', '838', '842', '848', '849', '851', '852', '853', '855', '859', '861', '863', '865', '866', '871', '874', '876', '879', '880', '883', '885', '887', '891', '892', '893', '894', '898', '901', '902', '907', '910', '911', '914', '915', '916', '921', '922', '925', '927', '930', '931', '932', '933', '934', '935', '936', '939', '942', '944', '945', '946', '947', '950', '951', '956', '957', '960', '961', '963', '964', '967', '968', '971', '972', '973', '974', '975', '982', '986', '988', '989', '990', '993', '994', '995', '996', '998', '999', '1000']",False,1000,True,100,41883acfd0,0.0,1.0,0.0
./expes/v4_2021-03-18_issda_1000-prng-1-w1-p100-ukn95_99,30_issda-1000,999,first-1000,150,15,rng,num-start-600,600,25726,ukn-95-99,73.86815690994263,False,,False,0.5267202810479391,0.5065560072836068,0.9683455531083541,100,"['13', '14', '21', '27', '32', '35', '39', '45', '60', '65', '66', '74', '88', '89', '92', '100', '111', '117', '120', '130', '139', '141', '146', '152', '154', '163', '165', '171', '180', '197', '198', '199', '203', '207', '213', '215', '226', '233', '240', '241', '250', '254', '261', '265', '274', '292', '293', '303', '306', '308', '317', '322', '347', '351', '352', '353', '365', '366', '380', '385', '386', '387', '389', '390', '396', '400', '406', '411', '413', '418', '427', '434', '437', '456', '465', '468', '471', '486', '497', '500', '501', '507', '510', '516', '519', '520', '523', '530', '533', '542', '545', '553', '559', '571', '587', '593', '596', '599', '616', '622', '636', '639', '658', '660', '666', '673', '674', '677', '679', '680', '707', '708', '718', '719', '722', '723', '744', '747', '778', '783', '785', '816', '828', '831', '834', '850', '851', '855', '857', '864', '873', '876', '878', '881', '900', '903', '913', '919', '924', '925', '926', '930', '934', '935', '955', '969', '973', '986', '997', '999']",False,1000,True,100,b991f11c9c,0.0,1.0,0.0
./expes/v4_2021-03-18_issda_1000-prng-1-w1-p100-ukn95_99,30_issda-1000,995,first-1000,500,50,rng,num-start-800,800,25726,ukn-95-99,57.194544076919556,False,,False,0.2840242041676682,-0.0005028916586418131,0.9160818641703311,100,"['1', '2', '5', '13', '15', '18', '19', '20', '22', '24', '27', '28', '29', '30', '39', '41', '44', '48', '50', '51', '54', '56', '59', '60', '61', '62', '63', '64', '65', '66', '67', '69', '71', '72', '73', '75', '80', '83', '84', '85', '86', '87', '88', '89', '91', '92', '93', '94', '95', '96', '97', '100', '101', '104', '105', '106', '107', '108', '109', '113', '116', '119', '120', '121', '123', '124', '125', '126', '127', '129', '131', '133', '134', '135', '137', '141', '143', '145', '147', '148', '150', '151', '153', '154', '155', '156', '159', '160', '163', '166', '167', '169', '171', '172', '173', '175', '177', '181', '183', '185', '186', '187', '188', '193', '196', '199', '200', '201', '202', '205', '208', '210', '211', '213', '214', '217', '218', '220', '224', '225', '226', '227', '228', '229', '230', '233', '235', '237', '238', '239', '246', '247', '250', '254', '255', '258', '259', '260', '265', '266', '267', '268', '270', '271', '272', '276', '277', '279', '284', '285', '286', '287', '289', '292', '295', '297', '300', '303', '306', '307', '308', '311', '316', '318', '320', '322', '324', '327', '332', '334', '335', '338', '340', '341', '346', '347', '348', '349', '351', '352', '353', '356', '358', '359', '363', '364', '365', '366', '368', '371', '373', '374', '375', '376', '379', '382', '386', '390', '394', '396', '398', '401', '402', '404', '405', '406', '407', '408', '409', '411', '412', '414', '416', '426', '427', '429', '430', '431', '432', '433', '435', '436', '438', '439', '441', '442', '445', '451', '452', '453', '454', '457', '458', '459', '460', '464', '465', '468', '470', '473', '475', '477', '478', '479', '482', '484', '485', '486', '490', '491', '492', '494', '495', '496', '497', '499', '500', '501', '505', '506', '507', '509', '514', '515', '518', '520', '521', '523', '525', '528', '529', '530', '531', '536', '537', '538', '540', '541', '544', '545', '546', '547', '548', '549', '550', '554', '555', '557', '558', '561', '562', '563', '564', '565', '568', '569', '570', '571', '572', '573', '574', '576', '578', '580', '581', '585', '587', '589', '591', '592', '594', '596', '597', '598', '600', '601', '604', '605', '609', '611', '616', '617', '620', '621', '623', '624', '625', '626', '627', '628', '629', '633', '634', '639', '640', '643', '646', '650', '652', '655', '659', '663', '666', '667', '669', '671', '672', '674', '675', '677', '679', '681', '684', '685', '686', '688', '693', '697', '698', '699', '700', '705', '707', '708', '709', '710', '712', '713', '714', '716', '718', '719', '721', '724', '729', '730', '734', '740', '741', '743', '744', '747', '749', '757', '758', '759', '762', '765', '768', '769', '774', '776', '777', '779', '783', '787', '791', '795', '796', '798', '799', '802', '803', '804', '808', '809', '810', '814', '817', '818', '819', '821', '823', '826', '827', '828', '831', '835', '836', '838', '839', '840', '841', '842', '846', '847', '849', '852', '853', '855', '861', '866', '870', '874', '877', '880', '884', '885', '892', '893', '894', '895', '896', '897', '898', '900', '905', '906', '907', '909', '911', '915', '916', '917', '919', '920', '922', '926', '927', '928', '931', '932', '934', '935', '937', '939', '940', '941', '942', '945', '946', '951', '956', '957', '960', '961', '963', '964', '965', '966', '968', '969', '970', '971', '972', '974', '975', '976', '978', '979', '980', '981', '984', '986', '991', '995', '996', '997', '998', '1000']",False,1000,True,100,b3a349d6c3,0.0,1.0,0.0
./expes/v4_2021-03-18_issda_1000-prng-1-w1-p100-ukn95_99,30_issda-1000,1000,first-1000,50,5,rng,num-start-1000,1000,25726,ukn-95-99,1062.0554180145264,True,,False,0.8412605962758484,0.7901332707548812,1.0,20,"['39', '48', '50', '51', '60', '61', '64', '72', '75', '89', '93', '97', '121', '127', '137', '148', '155', '220', '227', '229', '247', '297', '316', '332', '375', '405', '407', '429', '430', '435', '445', '520', '549', '554', '565', '571', '580', '585', '591', '597', '600', '643', '646', '667', '841', '847', '880', '932', '971', '1000']",True,1000,True,100,cf4828e1a9,0.0,0.0,1.0
