expe,clients,clients_size,clients_subset,agg_size,agg_size_pc,method,days,days_size,days_total,noise_method,time,valid,valid_sum,success,score_avg,score_min,score_max,nsols,oracle,wall_hit,wall_time,pooled,pool_size,uuid,infeasible,optimal,valid_sums
./expes/v4_2021-03-18_issda_1000-prng-1-w1-p100-ukn95_99,30_issda-1000,999,first-1000,100,10,rng,num-start-500,500,25726,ukn-95-99,123.29340410232544,False,,False,0.593174836941344,0.578864974837241,0.9683455531083541,100,"['21', '32', '39', '45', '60', '65', '66', '88', '89', '92', '100', '111', '117', '130', '139', '141', '146', '152', '163', '197', '198', '199', '213', '215', '233', '240', '241', '254', '265', '274', '293', '322', '347', '366', '380', '385', '387', '389', '396', '400', '411', '413', '418', '437', '456', '465', '468', '471', '486', '497', '500', '501', '507', '510', '516', '519', '530', '533', '545', '553', '571', '587', '593', '596', '599', '616', '622', '636', '639', '658', '660', '666', '677', '679', '707', '708', '718', '719', '722', '744', '747', '778', '783', '828', '831', '834', '850', '851', '864', '876', '881', '900', '903', '919', '924', '926', '934', '969', '973', '986']",False,1000,True,100,90dec9aa47,0.0,1.0,0.0
./expes/v4_2021-03-18_issda_1000-prng-1-w1-p100-ukn95_99,30_issda-1000,997,first-1000,300,30,rng,num-start-100,100,25726,ukn-95-99,7.714767694473267,False,,False,0.35525820878827313,0.3391316409814983,0.9451178700051548,100,"['4', '5', '7', '13', '14', '18', '21', '24', '27', '32', '34', '35', '39', '45', '51', '53', '60', '63', '65', '66', '72', '74', '82', '83', '86', '88', '89', '92', '93', '96', '98', '100', '110', '111', '112', '115', '117', '120', '124', '125', '130', '139', '141', '143', '144', '146', '152', '153', '154', '158', '159', '163', '165', '171', '175', '177', '180', '183', '195', '197', '198', '199', '201', '203', '206', '207', '211', '213', '215', '216', '217', '226', '230', '231', '233', '235', '238', '240', '241', '250', '254', '261', '265', '274', '292', '293', '296', '297', '298', '303', '304', '306', '307', '308', '310', '317', '320', '322', '329', '332', '334', '346', '347', '349', '351', '352', '353', '360', '365', '366', '369', '370', '373', '375', '379', '380', '385', '386', '387', '388', '389', '390', '391', '393', '394', '396', '400', '404', '406', '407', '411', '413', '417', '418', '420', '427', '428', '430', '434', '437', '442', '443', '447', '451', '453', '456', '457', '464', '465', '467', '468', '471', '483', '485', '486', '497', '500', '501', '507', '510', '511', '514', '515', '516', '518', '519', '520', '523', '527', '529', '530', '533', '534', '539', '540', '541', '542', '545', '553', '559', '561', '571', '578', '583', '587', '588', '593', '594', '595', '596', '599', '600', '603', '615', '616', '619', '620', '622', '627', '628', '633', '636', '639', '641', '648', '658', '660', '662', '663', '664', '666', '668', '671', '673', '674', '675', '677', '679', '680', '701', '707', '708', '718', '719', '722', '723', '726', '733', '735', '737', '739', '743', '744', '747', '759', '762', '763', '767', '774', '778', '783', '785', '803', '810', '816', '827', '828', '831', '834', '837', '839', '850', '851', '852', '855', '856', '857', '863', '864', '867', '868', '871', '873', '876', '878', '881', '890', '897', '900', '903', '905', '913', '917', '919', '924', '925', '926', '927', '929', '930', '931', '934', '935', '941', '942', '950', '951', '955', '959', '965', '969', '973', '981', '982', '986', '989', '992', '994', '997', '999']",False,1000,True,100,73a61d1f77,0.0,1.0,0.0
./expes/v4_2021-03-18_issda_1000-prng-1-w1-p100-ukn95_99,30_issda-1000,999,first-1000,100,10,rng,num-start-700,700,25726,ukn-95-99,1043.352867603302,False,,False,0.7254022975838775,0.6756384411776214,0.9683455531083541,18,"['25', '29', '37', '58', '87', '94', '140', '163', '166', '169', '174', '178', '181', '182', '187', '218', '237', '242', '256', '258', '275', '286', '316', '327', '333', '363', '369', '370', '371', '373', '381', '390', '403', '410', '425', '434', '442', '456', '457', '466', '473', '477', '502', '511', '513', '515', '522', '523', '527', '528', '538', '539', '544', '558', '574', '596', '608', '621', '622', '654', '671', '678', '686', '691', '698', '733', '741', '753', '754', '757', '773', '782', '809', '816', '823', '829', '852', '856', '870', '875', '880', '881', '884', '892', '905', '906', '914', '916', '923', '929', '930', '931', '948', '955', '959', '971', '973', '978', '979', '985']",True,1000,True,100,529a7f6d5b,0.0,0.0,0.0
