expe,clients,clients_size,clients_subset,agg_size,agg_size_pc,method,days,days_size,days_total,noise_method,time,valid,valid_sum,success,score_avg,score_min,score_max,nsols,oracle,wall_hit,wall_time,pooled,pool_size,uuid,infeasible,optimal,valid_sums
./expes/v4_2021-03-18_issda_1000-prng-1-w1-p100-ukn95_99,30_issda-1000,997,first-1000,350,35,rng,num-start-1000,1000,25726,ukn-95-99,118.12506985664368,False,,False,0.36742099208470386,0.16345998494564018,0.9451178700051548,100,"['4', '8', '10', '11', '14', '19', '21', '27', '28', '33', '36', '37', '38', '42', '43', '44', '45', '46', '48', '53', '55', '57', '61', '62', '64', '69', '77', '80', '81', '82', '84', '85', '88', '89', '92', '93', '96', '100', '104', '106', '109', '116', '117', '119', '120', '126', '131', '140', '143', '146', '149', '154', '157', '159', '161', '163', '166', '169', '170', '172', '173', '174', '177', '182', '183', '189', '193', '196', '197', '199', '200', '201', '204', '206', '207', '208', '211', '213', '214', '216', '217', '220', '221', '224', '225', '228', '235', '238', '239', '242', '244', '248', '249', '254', '255', '256', '257', '260', '261', '264', '266', '267', '268', '269', '275', '276', '279', '283', '284', '285', '287', '288', '293', '296', '297', '298', '299', '300', '301', '304', '305', '308', '311', '313', '318', '320', '323', '329', '330', '331', '332', '333', '335', '339', '340', '345', '346', '347', '352', '356', '365', '366', '369', '372', '373', '374', '382', '391', '397', '398', '400', '402', '405', '406', '412', '413', '414', '420', '421', '423', '424', '428', '431', '432', '434', '435', '439', '441', '442', '447', '450', '451', '452', '455', '463', '465', '466', '471', '474', '476', '483', '484', '485', '490', '491', '501', '503', '504', '507', '509', '511', '519', '521', '532', '533', '536', '539', '540', '541', '542', '548', '550', '557', '560', '561', '563', '564', '572', '575', '576', '579', '583', '584', '586', '587', '597', '603', '609', '610', '614', '621', '622', '623', '625', '631', '633', '635', '636', '642', '643', '648', '650', '651', '657', '658', '663', '664', '668', '669', '670', '671', '673', '684', '685', '688', '690', '692', '694', '697', '703', '705', '713', '715', '718', '722', '726', '735', '739', '750', '753', '755', '763', '765', '784', '786', '787', '789', '791', '793', '794', '799', '802', '803', '804', '807', '810', '817', '818', '819', '820', '821', '824', '827', '830', '833', '835', '838', '839', '847', '848', '849', '851', '855', '858', '860', '861', '866', '869', '876', '877', '880', '883', '886', '887', '889', '891', '892', '895', '898', '899', '900', '901', '902', '904', '911', '913', '914', '916', '918', '921', '922', '923', '927', '931', '936', '938', '939', '940', '945', '947', '950', '951', '953', '958', '965', '966', '967', '968', '974', '978', '980', '983', '984', '985', '986', '988', '990', '992', '994', '995']",False,1000,True,100,6c3ef4b745,0.0,1.0,0.0
./expes/v4_2021-03-18_issda_1000-prng-1-w1-p100-ukn95_99,30_issda-1000,996,first-1000,400,40,rng,num-start-500,500,25726,ukn-95-99,40.077956199645996,False,,False,0.30534456457133097,0.10557280900008414,0.9365957375051759,100,"['4', '5', '6', '8', '10', '11', '14', '19', '21', '27', '28', '33', '36', '37', '38', '42', '43', '44', '45', '46', '48', '53', '55', '57', '61', '62', '64', '69', '77', '78', '80', '81', '82', '84', '85', '88', '89', '92', '93', '96', '98', '100', '104', '106', '109', '114', '116', '117', '118', '119', '120', '122', '124', '126', '131', '140', '143', '146', '149', '153', '154', '157', '159', '161', '163', '166', '167', '169', '170', '172', '173', '174', '177', '181', '182', '183', '185', '189', '193', '196', '197', '199', '200', '201', '204', '206', '207', '208', '211', '213', '214', '216', '217', '220', '221', '224', '225', '228', '235', '238', '239', '240', '242', '244', '248', '249', '252', '254', '255', '256', '257', '260', '261', '264', '265', '266', '267', '268', '269', '275', '276', '279', '283', '284', '285', '287', '288', '293', '296', '297', '298', '299', '300', '301', '304', '305', '308', '310', '311', '313', '318', '319', '320', '323', '329', '330', '331', '332', '333', '335', '339', '340', '345', '346', '347', '352', '356', '365', '366', '369', '372', '373', '374', '375', '381', '382', '391', '397', '398', '400', '402', '405', '406', '410', '412', '413', '414', '420', '421', '422', '423', '424', '426', '428', '431', '432', '433', '434', '435', '439', '441', '442', '445', '447', '450', '451', '452', '455', '463', '465', '466', '471', '474', '476', '483', '484', '485', '490', '491', '496', '499', '501', '503', '504', '507', '509', '511', '519', '521', '525', '532', '533', '534', '536', '539', '540', '541', '542', '548', '550', '555', '557', '559', '560', '561', '563', '564', '572', '575', '576', '579', '583', '584', '586', '587', '597', '603', '609', '610', '614', '616', '621', '622', '623', '625', '631', '633', '635', '636', '642', '643', '644', '648', '650', '651', '653', '657', '658', '663', '664', '668', '669', '670', '671', '673', '684', '685', '688', '690', '692', '694', '697', '703', '705', '713', '715', '718', '722', '724', '726', '728', '729', '733', '735', '739', '750', '753', '755', '763', '765', '777', '784', '786', '787', '789', '791', '793', '794', '796', '799', '802', '803', '804', '806', '807', '810', '817', '818', '819', '820', '821', '824', '827', '830', '833', '835', '838', '839', '847', '848', '849', '851', '855', '857', '858', '860', '861', '866', '868', '869', '876', '877', '879', '880', '881', '883', '886', '887', '889', '891', '892', '895', '896', '898', '899', '900', '901', '902', '903', '904', '907', '911', '913', '914', '916', '918', '921', '922', '923', '926', '927', '931', '936', '938', '939', '940', '945', '947', '950', '951', '953', '958', '964', '965', '966', '967', '968', '974', '978', '980', '983', '984', '985', '986', '988', '990', '992', '994', '995', '998']",False,1000,True,100,ac890c9862,0.0,1.0,0.0
./expes/v4_2021-03-18_issda_1000-prng-1-w1-p100-ukn95_99,30_issda-1000,999,first-1000,100,10,rng,num-start-400,400,25726,ukn-95-99,60.01587438583374,False,,False,0.612520084693669,0.588492190408603,0.9683455531083541,100,"['8', '21', '27', '45', '48', '61', '69', '84', '89', '92', '93', '106', '109', '159', '166', '169', '177', '183', '199', '200', '220', '228', '239', '242', '254', '255', '266', '267', '269', '279', '284', '287', '288', '296', '297', '299', '308', '311', '313', '318', '320', '346', '369', '382', '398', '406', '412', '424', '434', '442', '463', '474', '483', '485', '491', '519', '521', '532', '533', '548', '550', '561', '563', '587', '614', '621', '642', '643', '657', '664', '688', '718', '722', '739', '750', '784', '799', '817', '820', '827', '833', '838', '847', '849', '861', '866', '869', '876', '887', '889', '902', '904', '931', '940', '950', '958', '965', '966', '968', '984']",False,1000,True,100,2873897617,0.0,1.0,0.0
./expes/v4_2021-03-18_issda_1000-prng-1-w1-p100-ukn95_99,30_issda-1000,996,first-1000,450,45,rng,num-start-600,600,25726,ukn-95-99,44.727856159210205,False,,False,0.3079660883786519,0.05105189153314926,0.9223459546850981,100,"['1', '2', '5', '13', '15', '20', '22', '24', '27', '28', '29', '30', '39', '41', '44', '48', '50', '51', '54', '56', '59', '60', '61', '62', '63', '64', '65', '67', '69', '71', '72', '73', '75', '80', '83', '84', '85', '87', '88', '89', '93', '94', '96', '97', '100', '101', '104', '105', '106', '107', '109', '113', '119', '120', '121', '123', '124', '125', '126', '127', '129', '131', '133', '134', '135', '137', '141', '143', '145', '147', '148', '150', '151', '153', '154', '155', '156', '159', '160', '163', '166', '167', '169', '171', '172', '173', '175', '177', '181', '183', '185', '186', '187', '188', '193', '196', '199', '200', '202', '205', '208', '210', '211', '213', '214', '217', '218', '220', '224', '225', '226', '227', '229', '233', '237', '238', '239', '246', '247', '250', '254', '255', '258', '259', '260', '266', '268', '270', '272', '277', '284', '285', '286', '287', '289', '292', '295', '297', '300', '306', '307', '308', '311', '316', '318', '320', '322', '324', '327', '332', '334', '338', '341', '346', '349', '351', '352', '353', '356', '358', '359', '363', '364', '365', '368', '371', '373', '374', '375', '376', '379', '382', '386', '390', '396', '398', '401', '402', '404', '405', '406', '407', '408', '409', '411', '412', '426', '427', '429', '430', '431', '432', '435', '438', '439', '441', '445', '451', '452', '453', '454', '457', '458', '459', '460', '464', '465', '468', '470', '473', '475', '477', '478', '479', '482', '484', '485', '486', '490', '491', '492', '494', '495', '496', '497', '499', '500', '501', '505', '506', '507', '509', '514', '515', '518', '520', '521', '523', '525', '528', '529', '530', '531', '536', '537', '538', '540', '541', '544', '545', '546', '547', '548', '549', '550', '554', '555', '557', '558', '561', '562', '563', '564', '565', '569', '570', '571', '572', '573', '574', '576', '578', '580', '581', '585', '587', '589', '591', '592', '594', '596', '597', '598', '600', '601', '604', '605', '609', '611', '616', '617', '620', '621', '624', '625', '626', '627', '628', '629', '633', '634', '640', '643', '646', '650', '652', '655', '659', '663', '666', '667', '669', '671', '672', '674', '675', '677', '679', '681', '685', '686', '688', '693', '697', '698', '699', '700', '707', '708', '709', '710', '712', '713', '714', '716', '719', '724', '729', '730', '734', '740', '741', '743', '744', '747', '749', '757', '758', '759', '762', '765', '768', '769', '776', '777', '779', '783', '787', '791', '795', '796', '798', '799', '802', '803', '804', '808', '809', '810', '814', '817', '818', '819', '821', '823', '826', '827', '828', '831', '835', '836', '838', '839', '841', '842', '846', '847', '849', '852', '855', '861', '866', '870', '874', '880', '885', '892', '893', '894', '895', '896', '897', '898', '900', '905', '906', '907', '909', '911', '915', '916', '919', '920', '922', '926', '927', '931', '932', '935', '937', '939', '940', '945', '946', '951', '956', '957', '960', '963', '964', '965', '966', '968', '969', '970', '971', '972', '974', '975', '976', '978', '979', '980', '981', '986', '991', '995', '997', '998', '1000']",False,1000,True,100,ba8e330236,0.0,1.0,0.0
./expes/v4_2021-03-18_issda_1000-prng-1-w1-p100-ukn95_99,30_issda-1000,997,first-1000,300,30,rng,num-start-500,500,25726,ukn-95-99,36.68776345252991,False,,False,0.3671584835770794,0.35139940570201844,0.9451178700051548,100,"['2', '3', '6', '10', '13', '15', '18', '19', '22', '23', '25', '27', '29', '30', '31', '32', '34', '36', '37', '45', '49', '58', '61', '65', '72', '73', '86', '89', '94', '97', '103', '105', '111', '112', '113', '117', '121', '124', '129', '133', '138', '150', '164', '165', '168', '172', '173', '175', '178', '182', '186', '190', '191', '193', '195', '205', '211', '215', '218', '222', '225', '226', '228', '229', '231', '233', '235', '236', '237', '238', '239', '249', '256', '260', '262', '265', '273', '276', '280', '288', '291', '297', '298', '302', '304', '306', '311', '314', '316', '320', '326', '329', '330', '340', '341', '352', '353', '354', '355', '362', '366', '374', '376', '380', '384', '389', '391', '393', '396', '400', '403', '404', '405', '407', '414', '415', '424', '425', '427', '432', '433', '437', '443', '444', '449', '450', '457', '461', '462', '464', '466', '470', '471', '481', '484', '486', '492', '493', '497', '500', '502', '508', '509', '512', '513', '515', '517', '518', '519', '520', '521', '523', '525', '527', '529', '532', '534', '537', '541', '552', '553', '554', '555', '558', '562', '564', '565', '567', '568', '570', '575', '583', '584', '590', '592', '593', '599', '602', '604', '606', '608', '615', '621', '623', '624', '628', '630', '639', '640', '645', '646', '647', '651', '658', '663', '664', '665', '666', '668', '673', '676', '680', '681', '687', '690', '691', '692', '694', '695', '703', '712', '713', '720', '721', '722', '729', '737', '739', '742', '744', '747', '748', '751', '756', '759', '761', '762', '773', '774', '780', '781', '783', '786', '790', '795', '797', '798', '803', '806', '808', '816', '817', '818', '822', '823', '824', '829', '833', '837', '841', '850', '853', '856', '858', '861', '862', '867', '868', '869', '872', '874', '878', '881', '882', '889', '891', '897', '903', '904', '908', '915', '918', '922', '924', '932', '933', '939', '943', '945', '949', '954', '959', '961', '962', '964', '967', '968', '973', '975', '976', '978', '981', '983', '989', '991', '992', '993', '997', '999', '1000']",False,1000,True,100,f90868d8c0,0.0,1.0,0.0
./expes/v4_2021-03-18_issda_1000-prng-1-w1-p100-ukn95_99,30_issda-1000,1000,first-1000,50,5,rng,num-start-200,200,25726,ukn-95-99,1013.3292927742004,False,,False,0.7346305006233115,0.7135002930506174,1.0,72,"['42', '76', '98', '102', '104', '143', '144', '151', '224', '257', '266', '289', '311', '318', '339', '363', '367', '395', '415', '431', '484', '489', '498', '517', '524', '546', '574', '598', '617', '634', '701', '723', '748', '774', '777', '803', '819', '830', '850', '865', '871', '912', '914', '921', '924', '930', '932', '941', '989', '992']",True,1000,True,100,3d18cfbdaa,0.0,0.0,0.0
