expe,clients,clients_size,clients_subset,agg_size,agg_size_pc,method,days,days_size,days_total,noise_method,time,valid,valid_sum,success,score_avg,score_min,score_max,nsols,oracle,wall_hit,wall_time,pooled,pool_size,uuid,infeasible,optimal,valid_sums
./expes/v4_2021-03-18_issda_1000-prng-1-w1-p100-ukn95_99,30_issda-1000,999,first-1000,150,15,rng,num-start-900,900,25726,ukn-95-99,168.82868194580078,False,,False,0.5333532694510399,0.4965051996017674,0.9683455531083541,100,"['1', '13', '18', '23', '30', '38', '47', '56', '83', '91', '92', '96', '97', '99', '100', '120', '123', '130', '142', '150', '174', '190', '194', '198', '199', '201', '202', '203', '204', '206', '215', '229', '251', '252', '257', '268', '272', '275', '280', '297', '299', '312', '314', '320', '328', '341', '344', '366', '370', '371', '383', '384', '387', '389', '399', '408', '420', '424', '434', '435', '441', '452', '456', '457', '458', '482', '496', '497', '499', '501', '513', '516', '528', '535', '538', '541', '552', '553', '567', '572', '577', '588', '590', '601', '603', '604', '609', '612', '617', '618', '623', '625', '634', '636', '649', '651', '661', '664', '672', '679', '687', '688', '695', '696', '699', '703', '715', '717', '718', '737', '747', '748', '753', '765', '774', '778', '781', '789', '797', '803', '813', '816', '820', '822', '823', '825', '826', '842', '848', '853', '855', '865', '887', '892', '894', '898', '902', '911', '914', '925', '927', '932', '933', '935', '939', '956', '975', '989', '994', '1000']",False,1000,True,100,b28911b3c7,0.0,1.0,0.0
./expes/v4_2021-03-18_issda_1000-prng-1-w1-p100-ukn95_99,30_issda-1000,996,first-1000,400,40,rng,num-start-300,300,25726,ukn-95-99,25.688879251480103,False,,False,0.3160432114197065,0.3011135921658826,0.9223459546850981,100,"['1', '4', '6', '7', '8', '9', '13', '14', '16', '18', '19', '23', '25', '27', '30', '31', '35', '36', '37', '40', '42', '43', '45', '49', '50', '52', '53', '54', '55', '56', '57', '60', '61', '62', '63', '65', '66', '67', '68', '69', '71', '77', '78', '83', '84', '85', '86', '87', '89', '90', '91', '96', '97', '99', '102', '103', '105', '106', '107', '109', '112', '113', '114', '115', '121', '123', '124', '125', '132', '133', '136', '137', '141', '142', '143', '145', '146', '149', '152', '153', '161', '166', '167', '169', '173', '174', '176', '177', '178', '181', '186', '191', '192', '194', '197', '203', '204', '205', '206', '208', '210', '214', '215', '216', '219', '226', '227', '228', '230', '237', '242', '243', '244', '249', '250', '254', '255', '258', '260', '263', '266', '269', '270', '274', '275', '277', '281', '282', '284', '285', '288', '292', '298', '299', '302', '304', '308', '310', '315', '317', '323', '326', '330', '333', '337', '339', '342', '343', '347', '350', '355', '356', '358', '362', '364', '375', '379', '381', '382', '383', '388', '389', '391', '393', '396', '398', '399', '407', '408', '411', '412', '413', '417', '420', '422', '427', '428', '431', '432', '433', '435', '436', '439', '444', '447', '450', '455', '460', '462', '463', '465', '468', '470', '475', '479', '482', '486', '487', '490', '493', '494', '502', '504', '507', '508', '509', '510', '513', '515', '518', '519', '523', '530', '531', '532', '535', '537', '540', '542', '549', '551', '553', '556', '558', '559', '561', '562', '568', '569', '570', '573', '574', '576', '577', '579', '580', '587', '588', '589', '590', '593', '594', '595', '599', '600', '603', '605', '606', '608', '612', '618', '619', '620', '621', '622', '623', '624', '626', '627', '628', '632', '638', '640', '642', '645', '650', '653', '655', '658', '659', '661', '664', '667', '680', '684', '688', '691', '693', '695', '696', '698', '700', '705', '710', '713', '717', '718', '721', '723', '726', '727', '733', '737', '738', '743', '744', '745', '746', '748', '754', '755', '756', '759', '764', '765', '766', '771', '779', '782', '783', '784', '791', '792', '793', '794', '795', '797', '799', '800', '802', '803', '806', '809', '813', '814', '816', '818', '819', '820', '823', '827', '829', '830', '835', '841', '843', '853', '858', '864', '866', '867', '872', '873', '880', '881', '885', '888', '889', '890', '893', '896', '897', '898', '899', '900', '901', '902', '903', '908', '909', '911', '914', '915', '917', '918', '920', '921', '924', '928', '929', '932', '934', '940', '942', '943', '944', '946', '947', '954', '959', '961', '963', '964', '967', '969', '970', '974', '975', '977', '979', '982', '984', '985', '986', '988', '990', '991', '992', '999', '1000']",False,1000,True,100,6791ccac7a,0.0,1.0,0.0
./expes/v4_2021-03-18_issda_1000-prng-1-w1-p100-ukn95_99,30_issda-1000,996,first-1000,450,45,rng,num-start-800,800,25726,ukn-95-99,58.16362929344177,False,,False,0.3246724285594062,0.05105189153314926,0.9223459546850981,100,"['2', '4', '5', '6', '8', '12', '14', '16', '19', '21', '22', '23', '25', '27', '28', '29', '30', '32', '33', '34', '35', '36', '37', '44', '45', '46', '47', '48', '51', '52', '53', '55', '57', '62', '63', '65', '66', '68', '69', '70', '71', '74', '79', '82', '88', '89', '91', '95', '100', '102', '105', '106', '107', '108', '111', '112', '117', '118', '122', '123', '124', '125', '126', '127', '128', '129', '130', '131', '132', '133', '134', '135', '137', '138', '140', '142', '147', '155', '156', '160', '161', '164', '168', '174', '176', '182', '183', '184', '188', '190', '192', '196', '197', '203', '204', '205', '217', '223', '224', '227', '228', '230', '231', '233', '238', '240', '242', '244', '245', '246', '251', '255', '258', '259', '265', '266', '269', '270', '271', '272', '274', '276', '277', '278', '281', '286', '287', '292', '294', '296', '298', '299', '301', '306', '308', '309', '311', '312', '318', '321', '322', '323', '324', '327', '328', '330', '331', '334', '335', '336', '337', '339', '341', '342', '345', '348', '349', '350', '353', '354', '355', '360', '361', '362', '369', '370', '373', '375', '379', '382', '383', '384', '385', '386', '387', '390', '396', '397', '399', '400', '405', '407', '410', '418', '420', '421', '424', '426', '427', '429', '430', '431', '432', '434', '436', '437', '438', '439', '441', '442', '445', '446', '447', '448', '449', '456', '462', '468', '472', '476', '478', '481', '482', '485', '486', '488', '489', '493', '494', '495', '496', '500', '502', '507', '509', '513', '515', '516', '518', '520', '523', '525', '528', '531', '532', '533', '534', '536', '538', '540', '543', '545', '547', '548', '549', '550', '554', '555', '557', '558', '562', '563', '565', '569', '573', '578', '581', '582', '583', '585', '586', '588', '589', '591', '594', '595', '599', '600', '601', '602', '603', '604', '605', '606', '607', '610', '615', '616', '619', '620', '621', '624', '626', '627', '630', '631', '633', '635', '636', '638', '641', '642', '643', '644', '648', '649', '650', '651', '652', '655', '658', '660', '663', '666', '670', '672', '676', '679', '684', '688', '689', '692', '693', '695', '696', '698', '699', '701', '707', '708', '711', '712', '713', '715', '716', '720', '724', '730', '731', '732', '733', '734', '735', '736', '737', '738', '741', '746', '750', '752', '753', '756', '760', '764', '766', '772', '775', '777', '779', '780', '788', '791', '793', '794', '796', '798', '799', '802', '806', '807', '808', '810', '811', '812', '813', '815', '820', '821', '823', '824', '826', '827', '830', '831', '832', '833', '837', '840', '844', '848', '852', '853', '854', '857', '858', '859', '862', '865', '871', '873', '875', '876', '877', '878', '879', '882', '883', '884', '885', '887', '888', '889', '891', '892', '894', '900', '901', '902', '903', '905', '907', '908', '909', '911', '912', '919', '920', '922', '926', '927', '931', '935', '938', '940', '943', '944', '945', '947', '949', '950', '952', '959', '962', '964', '966', '972', '973', '974', '978', '981', '982', '984', '987', '988', '989', '993', '995', '996', '997', '999']",False,1000,True,100,e35a31f38d,0.0,1.0,0.0
./expes/v4_2021-03-18_issda_1000-prng-1-w1-p100-ukn95_99,30_issda-1000,996,first-1000,400,40,rng,num-start-800,800,25726,ukn-95-99,57.12465286254883,False,,False,0.3305108697819781,0.3171151939811099,0.9365957375051759,100,"['1', '2', '4', '6', '10', '12', '14', '19', '21', '23', '24', '25', '29', '30', '33', '34', '36', '37', '38', '41', '43', '48', '50', '54', '56', '58', '59', '61', '65', '67', '68', '74', '81', '83', '92', '94', '95', '98', '105', '110', '111', '114', '116', '118', '122', '125', '130', '133', '134', '136', '137', '140', '143', '145', '146', '147', '150', '151', '152', '153', '161', '163', '164', '166', '170', '171', '173', '174', '176', '177', '181', '182', '183', '184', '185', '186', '187', '190', '199', '201', '202', '204', '210', '213', '214', '215', '221', '222', '225', '232', '244', '250', '252', '253', '256', '257', '258', '262', '263', '267', '271', '272', '278', '279', '281', '283', '286', '287', '288', '290', '294', '296', '297', '299', '301', '302', '303', '306', '309', '310', '314', '315', '317', '318', '320', '322', '324', '325', '326', '327', '334', '340', '343', '347', '348', '349', '353', '354', '357', '359', '360', '361', '364', '365', '366', '367', '368', '370', '371', '372', '373', '374', '375', '377', '379', '381', '382', '383', '385', '386', '387', '389', '390', '392', '393', '394', '399', '402', '414', '416', '418', '419', '420', '424', '425', '426', '427', '429', '430', '431', '432', '440', '443', '444', '445', '452', '455', '456', '461', '464', '465', '467', '474', '475', '477', '479', '481', '482', '483', '484', '486', '489', '491', '492', '493', '495', '496', '498', '500', '504', '506', '509', '512', '513', '515', '525', '526', '528', '529', '531', '535', '538', '543', '545', '546', '547', '552', '553', '557', '559', '561', '562', '563', '564', '567', '573', '574', '578', '580', '588', '593', '595', '601', '602', '604', '605', '609', '611', '616', '618', '624', '626', '627', '629', '630', '632', '633', '636', '637', '638', '639', '640', '641', '642', '643', '645', '646', '647', '653', '654', '658', '660', '663', '665', '666', '667', '668', '676', '678', '679', '680', '682', '685', '687', '688', '690', '695', '703', '705', '706', '708', '709', '712', '714', '720', '722', '725', '726', '734', '736', '737', '738', '739', '748', '749', '750', '756', '758', '759', '760', '767', '768', '774', '778', '781', '785', '789', '793', '794', '795', '800', '801', '805', '807', '815', '817', '818', '821', '833', '837', '838', '839', '840', '841', '842', '847', '849', '852', '856', '857', '859', '861', '862', '864', '866', '873', '875', '876', '877', '881', '888', '889', '890', '891', '893', '894', '898', '913', '914', '915', '916', '919', '923', '924', '925', '936', '939', '941', '945', '946', '947', '952', '958', '959', '960', '961', '962', '964', '965', '966', '968', '969', '973', '974', '975', '978', '979', '980', '981', '982', '983', '984', '985', '988', '989', '990', '992', '996', '999', '1000']",False,1000,True,100,df5d0777cd,0.0,1.0,0.0
./expes/v4_2021-03-18_issda_1000-prng-1-w1-p100-ukn95_99,30_issda-1000,997,first-1000,350,35,rng,num-start-400,400,25726,ukn-95-99,29.437063455581665,False,,False,0.32748409232898906,0.31087040522585707,0.9451178700051548,100,"['4', '5', '7', '13', '14', '18', '21', '23', '24', '27', '32', '34', '35', '39', '45', '47', '51', '53', '60', '63', '65', '66', '71', '72', '74', '82', '83', '84', '86', '87', '88', '89', '92', '93', '96', '98', '100', '109', '110', '111', '112', '115', '117', '120', '124', '125', '130', '139', '141', '143', '144', '146', '152', '153', '154', '158', '159', '163', '165', '168', '171', '175', '177', '180', '183', '195', '197', '198', '199', '201', '203', '206', '207', '211', '213', '215', '216', '217', '226', '230', '231', '233', '235', '238', '240', '241', '250', '251', '252', '254', '256', '261', '265', '274', '276', '278', '281', '284', '292', '293', '296', '297', '298', '299', '303', '304', '306', '307', '308', '310', '317', '320', '322', '329', '332', '334', '346', '347', '349', '351', '352', '353', '360', '365', '366', '369', '370', '371', '373', '375', '377', '379', '380', '385', '386', '387', '388', '389', '390', '391', '393', '394', '396', '398', '400', '404', '406', '407', '411', '413', '417', '418', '420', '422', '427', '428', '430', '434', '437', '438', '442', '443', '447', '451', '453', '456', '457', '464', '465', '467', '468', '469', '471', '483', '485', '486', '497', '500', '501', '502', '507', '509', '510', '511', '514', '515', '516', '517', '518', '519', '520', '523', '527', '529', '530', '533', '534', '537', '538', '539', '540', '541', '542', '545', '553', '559', '561', '571', '578', '581', '583', '587', '588', '593', '594', '595', '596', '599', '600', '603', '611', '615', '616', '619', '620', '622', '625', '627', '628', '633', '636', '639', '640', '641', '648', '658', '660', '662', '663', '664', '666', '668', '671', '673', '674', '675', '677', '679', '680', '690', '693', '701', '707', '708', '718', '719', '722', '723', '726', '733', '735', '737', '739', '743', '744', '746', '747', '751', '759', '762', '763', '766', '767', '774', '778', '783', '785', '799', '800', '803', '806', '810', '813', '816', '824', '827', '828', '831', '833', '834', '837', '839', '841', '843', '845', '846', '850', '851', '852', '855', '856', '857', '859', '863', '864', '867', '868', '871', '873', '876', '878', '881', '888', '890', '897', '900', '903', '905', '910', '913', '917', '919', '924', '925', '926', '927', '929', '930', '931', '932', '934', '935', '941', '942', '943', '950', '951', '955', '959', '965', '969', '973', '981', '982', '986', '989', '992', '994', '997', '999']",False,1000,True,100,e41004fc2d,0.0,1.0,0.0
./expes/v4_2021-03-18_issda_1000-prng-1-w1-p100-ukn95_99,30_issda-1000,998,first-1000,250,25,rng,num-start-800,800,25726,ukn-95-99,65.06657576560974,False,,False,0.407020981437551,0.3924579669143067,0.9366593644780463,100,"['1', '4', '6', '7', '9', '13', '16', '18', '19', '25', '27', '31', '36', '42', '43', '45', '50', '52', '53', '56', '57', '63', '65', '68', '71', '83', '86', '87', '89', '90', '91', '96', '99', '105', '106', '113', '114', '115', '121', '124', '125', '136', '137', '141', '142', '143', '145', '146', '149', '152', '153', '161', '166', '169', '173', '174', '176', '177', '191', '197', '203', '204', '205', '208', '210', '214', '215', '216', '219', '228', '230', '237', '243', '244', '255', '266', '270', '274', '275', '277', '281', '285', '288', '292', '298', '299', '302', '304', '315', '333', '337', '339', '343', '347', '350', '355', '356', '364', '375', '379', '382', '383', '388', '389', '391', '393', '399', '407', '408', '411', '412', '413', '422', '431', '432', '433', '435', '436', '439', '444', '455', '462', '463', '475', '493', '504', '509', '510', '513', '515', '518', '519', '523', '530', '535', '551', '553', '568', '569', '570', '574', '576', '579', '580', '587', '589', '590', '593', '594', '599', '603', '605', '612', '620', '621', '622', '623', '624', '626', '627', '628', '632', '645', '655', '664', '680', '684', '691', '693', '700', '705', '710', '713', '717', '718', '721', '723', '726', '727', '733', '737', '743', '744', '746', '754', '755', '756', '764', '765', '766', '779', '783', '784', '792', '793', '794', '797', '800', '803', '806', '809', '813', '814', '818', '819', '823', '827', '829', '830', '835', '864', '866', '867', '872', '873', '881', '885', '888', '889', '890', '893', '897', '901', '903', '908', '909', '911', '914', '917', '918', '920', '928', '929', '934', '940', '942', '944', '947', '959', '963', '969', '970', '974', '975', '979', '982', '985', '988', '990', '999']",False,1000,True,100,f7da3999f0,0.0,1.0,0.0
./expes/v4_2021-03-18_issda_1000-prng-1-w1-p100-ukn95_99,30_issda-1000,998,first-1000,200,20,rng,num-start-800,800,25726,ukn-95-99,95.35743808746338,False,,False,0.4536747793455277,0.4352373324910406,0.9552114070977611,100,"['2', '15', '17', '34', '40', '42', '47', '64', '65', '71', '76', '83', '85', '92', '94', '96', '98', '102', '104', '112', '119', '120', '128', '134', '143', '144', '146', '150', '151', '154', '175', '189', '192', '194', '195', '196', '209', '210', '221', '224', '225', '226', '228', '242', '245', '248', '249', '250', '257', '266', '267', '278', '282', '283', '289', '295', '298', '299', '309', '311', '318', '324', '325', '328', '333', '334', '339', '341', '342', '344', '363', '366', '367', '381', '395', '401', '409', '415', '430', '431', '437', '445', '454', '456', '459', '462', '484', '488', '489', '498', '499', '502', '505', '506', '517', '521', '524', '534', '535', '538', '546', '554', '557', '561', '562', '565', '566', '574', '582', '588', '590', '594', '598', '602', '604', '611', '617', '618', '626', '627', '628', '634', '641', '646', '650', '656', '657', '673', '677', '685', '696', '700', '701', '715', '717', '718', '721', '723', '724', '728', '737', '748', '750', '774', '776', '777', '802', '803', '804', '813', '814', '818', '819', '823', '825', '830', '832', '835', '836', '837', '842', '845', '846', '848', '850', '858', '861', '863', '865', '866', '870', '871', '876', '887', '889', '892', '897', '898', '912', '914', '917', '920', '921', '924', '930', '932', '935', '938', '939', '940', '941', '945', '946', '956', '973', '987', '989', '990', '991', '992']",False,1000,True,100,e483d3abb9,0.0,1.0,0.0
