expe,clients,clients_size,clients_subset,agg_size,agg_size_pc,method,days,days_size,days_total,noise_method,time,valid,valid_sum,success,score_avg,score_min,score_max,nsols,oracle,wall_hit,wall_time,pooled,pool_size,uuid,infeasible,optimal,valid_sums
./expes/v4_2021-03-18_issda_1000-prng-1-w1-p100-ukn95_99,30_issda-1000,998,first-1000,200,20,rng,num-start-500,500,25726,ukn-95-99,69.31878924369812,False,,False,0.4466109648662073,0.4264261504543221,0.9552114070977611,100,"['1', '13', '18', '19', '23', '30', '38', '47', '56', '79', '83', '88', '91', '92', '96', '97', '99', '100', '120', '123', '127', '130', '142', '146', '150', '167', '174', '177', '190', '193', '194', '197', '198', '199', '201', '202', '203', '204', '206', '215', '229', '251', '252', '257', '258', '261', '263', '268', '272', '273', '275', '280', '297', '299', '311', '312', '314', '320', '328', '332', '338', '341', '344', '366', '370', '371', '376', '383', '384', '387', '389', '390', '399', '408', '419', '420', '421', '424', '432', '434', '435', '437', '441', '452', '456', '457', '458', '463', '479', '482', '483', '487', '491', '496', '497', '498', '499', '500', '501', '504', '509', '513', '515', '516', '528', '530', '535', '538', '541', '551', '552', '553', '567', '572', '577', '588', '590', '601', '603', '604', '609', '612', '617', '618', '623', '625', '627', '634', '636', '649', '650', '651', '661', '664', '672', '673', '676', '679', '687', '688', '695', '696', '697', '699', '703', '715', '717', '718', '723', '737', '739', '740', '747', '748', '753', '765', '774', '778', '781', '789', '797', '803', '813', '816', '820', '822', '823', '825', '826', '837', '842', '848', '852', '853', '855', '865', '887', '892', '894', '898', '901', '902', '911', '914', '925', '927', '932', '933', '935', '936', '939', '946', '950', '956', '964', '975', '989', '994', '995', '1000']",False,1000,True,100,b9079b5a7b,0.0,1.0,0.0
./expes/v4_2021-03-18_issda_1000-prng-1-w1-p100-ukn95_99,30_issda-1000,995,first-1000,500,50,rng,num-start-300,300,25726,ukn-95-99,18.64621615409851,False,,False,0.2989114468896696,-0.0005028916586418131,0.9160818641703311,100,"['1', '2', '5', '13', '15', '18', '19', '20', '22', '24', '27', '28', '29', '30', '39', '41', '44', '48', '50', '51', '54', '56', '59', '60', '61', '62', '63', '64', '65', '66', '67', '69', '71', '72', '73', '75', '80', '83', '84', '85', '86', '87', '88', '89', '91', '92', '93', '94', '95', '96', '97', '100', '101', '104', '105', '106', '107', '108', '109', '113', '116', '119', '120', '121', '123', '124', '125', '126', '127', '129', '131', '133', '134', '135', '137', '141', '143', '145', '147', '148', '150', '151', '153', '154', '155', '156', '159', '160', '163', '166', '167', '169', '171', '172', '173', '175', '177', '181', '183', '185', '186', '187', '188', '193', '196', '199', '200', '201', '202', '205', '208', '210', '211', '213', '214', '217', '218', '220', '224', '225', '226', '227', '228', '229', '230', '233', '235', '237', '238', '239', '246', '247', '250', '254', '255', '258', '259', '260', '265', '266', '267', '268', '270', '271', '272', '276', '277', '279', '284', '285', '286', '287', '289', '292', '295', '297', '300', '303', '306', '307', '308', '311', '316', '318', '320', '322', '324', '327', '332', '334', '335', '338', '340', '341', '346', '347', '348', '349', '351', '352', '353', '356', '358', '359', '363', '364', '365', '366', '368', '371', '373', '374', '375', '376', '379', '382', '386', '390', '394', '396', '398', '401', '402', '404', '405', '406', '407', '408', '409', '411', '412', '414', '416', '426', '427', '429', '430', '431', '432', '433', '435', '436', '438', '439', '441', '442', '445', '451', '452', '453', '454', '457', '458', '459', '460', '464', '465', '468', '470', '473', '475', '477', '478', '479', '482', '484', '485', '486', '490', '491', '492', '494', '495', '496', '497', '499', '500', '501', '505', '506', '507', '509', '514', '515', '518', '520', '521', '523', '525', '528', '529', '530', '531', '536', '537', '538', '540', '541', '544', '545', '546', '547', '548', '549', '550', '554', '555', '557', '558', '561', '562', '563', '564', '565', '568', '569', '570', '571', '572', '573', '574', '576', '578', '580', '581', '585', '587', '589', '591', '592', '594', '596', '597', '598', '600', '601', '604', '605', '609', '611', '616', '617', '620', '621', '623', '624', '625', '626', '627', '628', '629', '633', '634', '639', '640', '643', '646', '650', '652', '655', '659', '663', '666', '667', '669', '671', '672', '674', '675', '677', '679', '681', '684', '685', '686', '688', '693', '697', '698', '699', '700', '705', '707', '708', '709', '710', '712', '713', '714', '716', '718', '719', '721', '724', '729', '730', '734', '740', '741', '743', '744', '747', '749', '757', '758', '759', '762', '765', '768', '769', '774', '776', '777', '779', '783', '787', '791', '795', '796', '798', '799', '802', '803', '804', '808', '809', '810', '814', '817', '818', '819', '821', '823', '826', '827', '828', '831', '835', '836', '838', '839', '840', '841', '842', '846', '847', '849', '852', '853', '855', '861', '866', '870', '874', '877', '880', '884', '885', '892', '893', '894', '895', '896', '897', '898', '900', '905', '906', '907', '909', '911', '915', '916', '917', '919', '920', '922', '926', '927', '928', '931', '932', '934', '935', '937', '939', '940', '941', '942', '945', '946', '951', '956', '957', '960', '961', '963', '964', '965', '966', '968', '969', '970', '971', '972', '974', '975', '976', '978', '979', '980', '981', '984', '986', '991', '995', '996', '997', '998', '1000']",False,1000,True,100,e10bc3a825,0.0,1.0,0.0
./expes/v4_2021-03-18_issda_1000-prng-1-w1-p100-ukn95_99,30_issda-1000,996,first-1000,450,45,rng,num-start-700,700,25726,ukn-95-99,48.34330868721008,False,,False,0.2963374432293606,0.05105189153314926,0.9365957375051759,100,"['2', '4', '5', '6', '8', '10', '11', '14', '19', '21', '24', '27', '28', '33', '36', '37', '38', '42', '43', '44', '45', '46', '48', '53', '55', '57', '61', '62', '64', '69', '77', '78', '79', '80', '81', '82', '84', '85', '88', '89', '91', '92', '93', '96', '98', '100', '101', '104', '106', '109', '114', '116', '117', '118', '119', '120', '122', '124', '126', '131', '137', '140', '143', '145', '146', '148', '149', '153', '154', '157', '159', '161', '163', '166', '167', '169', '170', '172', '173', '174', '177', '179', '181', '182', '183', '184', '185', '187', '189', '193', '196', '197', '199', '200', '201', '203', '204', '206', '207', '208', '211', '213', '214', '216', '217', '220', '221', '224', '225', '228', '235', '238', '239', '240', '242', '244', '248', '249', '252', '254', '255', '256', '257', '258', '260', '261', '264', '265', '266', '267', '268', '269', '275', '276', '279', '283', '284', '285', '287', '288', '293', '296', '297', '298', '299', '300', '301', '304', '305', '308', '310', '311', '313', '318', '319', '320', '321', '323', '329', '330', '331', '332', '333', '335', '338', '339', '340', '345', '346', '347', '349', '352', '356', '359', '365', '366', '368', '369', '371', '372', '373', '374', '375', '381', '382', '391', '397', '398', '400', '402', '405', '406', '410', '412', '413', '414', '420', '421', '422', '423', '424', '426', '428', '431', '432', '433', '434', '435', '439', '441', '442', '444', '445', '447', '450', '451', '452', '453', '455', '463', '465', '466', '471', '474', '476', '479', '483', '484', '485', '490', '491', '496', '499', '501', '503', '504', '507', '509', '511', '519', '521', '525', '532', '533', '534', '536', '537', '539', '540', '541', '542', '548', '550', '555', '557', '558', '559', '560', '561', '563', '564', '572', '575', '576', '579', '582', '583', '584', '586', '587', '590', '597', '599', '603', '609', '610', '612', '614', '616', '619', '621', '622', '623', '625', '628', '631', '633', '635', '636', '638', '642', '643', '644', '648', '650', '651', '653', '657', '658', '662', '663', '664', '668', '669', '670', '671', '673', '678', '684', '685', '688', '690', '692', '693', '694', '697', '703', '705', '713', '715', '718', '722', '724', '726', '728', '729', '733', '735', '739', '750', '753', '755', '763', '765', '773', '777', '784', '786', '787', '789', '790', '791', '793', '794', '796', '799', '802', '803', '804', '806', '807', '810', '813', '817', '818', '819', '820', '821', '824', '827', '829', '830', '833', '835', '838', '839', '847', '848', '849', '850', '851', '855', '857', '858', '860', '861', '866', '868', '869', '876', '877', '879', '880', '881', '883', '885', '886', '887', '889', '891', '892', '895', '896', '898', '899', '900', '901', '902', '903', '904', '905', '907', '911', '913', '914', '916', '918', '921', '922', '923', '924', '926', '927', '930', '931', '934', '935', '936', '938', '939', '940', '945', '947', '950', '951', '953', '958', '959', '960', '963', '964', '965', '966', '967', '968', '973', '974', '977', '978', '980', '983', '984', '985', '986', '988', '990', '992', '994', '995', '998']",False,1000,True,100,f4063a581a,0.0,1.0,0.0
./expes/v4_2021-03-18_issda_1000-prng-1-w1-p100-ukn95_99,30_issda-1000,995,first-1000,500,50,rng,num-start-100,100,25726,ukn-95-99,7.087639570236206,False,,False,0.30338103088708446,-0.0005028916586418131,0.9160818641703311,100,"['2', '4', '5', '6', '9', '12', '17', '18', '19', '20', '21', '22', '25', '26', '29', '31', '32', '33', '35', '37', '38', '39', '42', '45', '47', '51', '53', '55', '58', '59', '61', '62', '68', '69', '70', '73', '75', '76', '78', '79', '82', '83', '84', '85', '87', '89', '90', '94', '96', '97', '99', '103', '104', '105', '108', '109', '114', '115', '116', '118', '119', '122', '125', '126', '131', '132', '135', '139', '140', '142', '144', '145', '148', '149', '151', '155', '156', '158', '160', '161', '162', '163', '165', '166', '169', '171', '174', '175', '177', '178', '181', '182', '185', '186', '187', '189', '193', '196', '197', '204', '205', '210', '213', '214', '216', '218', '221', '222', '223', '225', '228', '231', '233', '234', '237', '238', '239', '241', '242', '247', '251', '253', '254', '255', '256', '257', '258', '260', '261', '262', '263', '264', '266', '269', '271', '273', '274', '275', '276', '280', '281', '286', '292', '293', '294', '297', '298', '304', '311', '314', '316', '317', '318', '320', '321', '324', '327', '333', '336', '337', '338', '339', '343', '346', '350', '353', '354', '356', '359', '360', '363', '365', '367', '368', '369', '370', '371', '372', '373', '375', '376', '381', '382', '383', '384', '390', '392', '393', '394', '395', '396', '400', '401', '402', '403', '405', '410', '412', '413', '414', '415', '417', '419', '421', '423', '425', '427', '429', '430', '434', '436', '438', '442', '445', '450', '452', '456', '457', '459', '460', '463', '465', '466', '468', '469', '471', '472', '473', '475', '476', '477', '478', '479', '482', '484', '485', '490', '492', '494', '495', '496', '497', '498', '499', '501', '502', '503', '504', '510', '511', '513', '515', '517', '520', '521', '522', '523', '524', '525', '526', '527', '528', '529', '531', '532', '534', '535', '536', '537', '538', '539', '544', '546', '549', '554', '558', '559', '561', '562', '565', '571', '572', '574', '576', '580', '582', '583', '586', '588', '589', '590', '595', '596', '599', '600', '601', '603', '604', '606', '608', '610', '611', '620', '621', '622', '626', '627', '628', '629', '631', '632', '634', '637', '639', '640', '641', '643', '651', '653', '654', '657', '658', '664', '666', '668', '669', '671', '675', '677', '678', '680', '683', '686', '687', '689', '691', '692', '695', '696', '697', '698', '699', '701', '702', '704', '707', '709', '710', '713', '716', '717', '721', '723', '724', '726', '727', '728', '729', '730', '731', '732', '733', '734', '735', '737', '741', '742', '744', '746', '747', '749', '753', '754', '755', '757', '758', '761', '763', '764', '766', '769', '772', '773', '774', '778', '779', '780', '782', '783', '785', '786', '792', '794', '796', '800', '802', '804', '807', '808', '809', '811', '814', '816', '818', '819', '820', '821', '822', '823', '824', '826', '829', '830', '832', '833', '835', '836', '838', '840', '841', '845', '846', '852', '854', '856', '857', '858', '859', '861', '870', '871', '873', '875', '880', '881', '884', '885', '887', '892', '896', '897', '898', '899', '902', '903', '904', '905', '906', '907', '909', '911', '914', '916', '917', '920', '922', '923', '924', '925', '928', '929', '930', '931', '934', '937', '938', '939', '941', '943', '944', '945', '948', '952', '955', '957', '958', '959', '960', '961', '962', '964', '966', '967', '971', '973', '978', '979', '981', '982', '983', '984', '985', '986', '987', '990', '993', '994', '995', '996', '998']",False,1000,True,100,6740ff50ab,0.0,1.0,0.0
./expes/v4_2021-03-18_issda_1000-prng-1-w1-p100-ukn95_99,30_issda-1000,998,first-1000,250,25,rng,num-start-1000,1000,25726,ukn-95-99,103.10271215438843,False,,False,0.4220855257613414,0.2932479250214688,0.9552114070977611,100,"['8', '12', '14', '16', '21', '22', '23', '28', '30', '32', '33', '37', '44', '46', '47', '62', '63', '65', '66', '68', '69', '79', '91', '100', '105', '106', '107', '108', '111', '122', '128', '134', '135', '137', '138', '140', '142', '155', '156', '160', '164', '168', '182', '190', '192', '197', '203', '217', '223', '228', '238', '240', '242', '244', '245', '258', '265', '266', '270', '271', '274', '276', '278', '286', '287', '292', '299', '301', '306', '308', '309', '311', '318', '321', '322', '323', '328', '330', '335', '336', '339', '341', '342', '345', '348', '353', '360', '362', '369', '373', '375', '379', '386', '387', '396', '397', '400', '405', '407', '418', '421', '426', '432', '438', '442', '446', '447', '448', '456', '468', '472', '478', '481', '482', '485', '486', '488', '494', '496', '502', '507', '513', '518', '520', '533', '534', '536', '547', '549', '554', '555', '558', '562', '563', '565', '573', '583', '586', '588', '591', '594', '595', '599', '600', '601', '604', '606', '607', '610', '615', '616', '619', '620', '621', '624', '626', '630', '631', '636', '641', '642', '643', '644', '648', '649', '650', '651', '655', '660', '666', '670', '672', '688', '689', '693', '695', '696', '698', '699', '701', '707', '713', '715', '716', '724', '731', '732', '733', '735', '736', '737', '738', '746', '753', '756', '760', '777', '780', '788', '791', '796', '798', '799', '807', '808', '820', '821', '824', '831', '833', '844', '852', '854', '857', '858', '865', '875', '876', '877', '882', '883', '887', '888', '889', '891', '894', '900', '903', '919', '926', '927', '931', '938', '940', '943', '944', '945', '949', '952', '959', '964', '972', '978', '981', '982', '987', '988', '989', '995', '997']",False,1000,True,100,52c472e487,0.0,1.0,0.0
./expes/v4_2021-03-18_issda_1000-prng-1-w1-p100-ukn95_99,30_issda-1000,998,first-1000,250,25,rng,num-start-900,900,25726,ukn-95-99,73.94705200195312,False,,False,0.41032796872812743,0.2932479250214688,0.9552114070977611,100,"['8', '12', '14', '16', '21', '22', '23', '28', '30', '32', '33', '37', '44', '46', '47', '62', '63', '65', '66', '68', '69', '79', '91', '100', '105', '106', '107', '108', '111', '122', '128', '134', '135', '137', '138', '140', '142', '155', '156', '160', '164', '168', '182', '190', '192', '197', '203', '217', '223', '228', '238', '240', '242', '244', '245', '258', '265', '266', '270', '271', '274', '276', '278', '286', '287', '292', '299', '301', '306', '308', '309', '311', '318', '321', '322', '323', '328', '330', '335', '336', '339', '341', '342', '345', '348', '353', '360', '362', '369', '373', '375', '379', '386', '387', '396', '397', '400', '405', '407', '418', '421', '426', '432', '438', '442', '446', '447', '448', '456', '468', '472', '478', '481', '482', '485', '486', '488', '494', '496', '502', '507', '513', '518', '520', '533', '534', '536', '547', '549', '554', '555', '558', '562', '563', '565', '573', '583', '586', '588', '591', '594', '595', '599', '600', '601', '604', '606', '607', '610', '615', '616', '619', '620', '621', '624', '626', '630', '631', '636', '641', '642', '643', '644', '648', '649', '650', '651', '655', '660', '666', '670', '672', '688', '689', '693', '695', '696', '698', '699', '701', '707', '713', '715', '716', '724', '731', '732', '733', '735', '736', '737', '738', '746', '753', '756', '760', '777', '780', '788', '791', '796', '798', '799', '807', '808', '820', '821', '824', '831', '833', '844', '852', '854', '857', '858', '865', '875', '876', '877', '882', '883', '887', '888', '889', '891', '894', '900', '903', '919', '926', '927', '931', '938', '940', '943', '944', '945', '949', '952', '959', '964', '972', '978', '981', '982', '987', '988', '989', '995', '997']",False,1000,True,100,ba88689cb1,0.0,1.0,0.0
./expes/v4_2021-03-18_issda_1000-prng-1-w1-p100-ukn95_99,30_issda-1000,996,first-1000,450,45,rng,num-start-1000,1000,25726,ukn-95-99,86.9935953617096,False,,False,0.3178097872260653,0.05105189153314926,0.9223459546850981,100,"['2', '5', '6', '9', '17', '19', '20', '21', '22', '25', '26', '29', '31', '32', '33', '35', '37', '38', '39', '42', '45', '47', '51', '53', '55', '58', '59', '61', '62', '69', '70', '73', '76', '78', '79', '83', '84', '85', '87', '89', '90', '94', '96', '97', '99', '103', '104', '105', '108', '109', '114', '115', '116', '118', '119', '122', '125', '126', '131', '132', '135', '140', '144', '145', '148', '149', '151', '155', '156', '158', '160', '161', '162', '163', '165', '166', '169', '171', '174', '175', '177', '178', '181', '182', '185', '186', '187', '189', '193', '196', '197', '204', '213', '214', '216', '218', '223', '225', '228', '231', '233', '234', '237', '238', '239', '241', '242', '247', '251', '253', '254', '255', '256', '257', '258', '260', '261', '262', '263', '264', '266', '269', '271', '273', '275', '276', '280', '281', '286', '292', '293', '294', '297', '298', '304', '311', '314', '316', '317', '318', '320', '324', '327', '333', '336', '337', '338', '339', '343', '346', '350', '353', '354', '360', '363', '365', '367', '368', '369', '370', '371', '372', '373', '375', '376', '381', '382', '383', '384', '390', '393', '394', '395', '400', '401', '402', '403', '405', '410', '412', '413', '414', '415', '417', '419', '421', '423', '425', '427', '429', '430', '434', '436', '438', '442', '445', '450', '452', '456', '457', '459', '460', '463', '465', '466', '468', '469', '473', '475', '476', '477', '478', '482', '484', '485', '490', '492', '495', '496', '498', '499', '501', '502', '503', '504', '510', '511', '513', '515', '517', '520', '521', '522', '523', '524', '525', '527', '528', '529', '531', '532', '534', '535', '536', '537', '538', '539', '544', '546', '549', '554', '558', '559', '561', '562', '565', '571', '572', '574', '576', '582', '586', '588', '589', '590', '596', '599', '600', '603', '604', '606', '608', '610', '611', '620', '621', '622', '626', '629', '631', '632', '634', '637', '639', '640', '643', '651', '653', '654', '657', '658', '664', '668', '669', '671', '675', '677', '678', '680', '683', '686', '687', '689', '691', '696', '697', '698', '699', '701', '702', '704', '707', '709', '710', '713', '716', '717', '721', '723', '724', '726', '727', '728', '731', '732', '733', '734', '735', '737', '741', '742', '744', '746', '747', '749', '753', '754', '755', '757', '758', '761', '763', '764', '766', '769', '772', '773', '774', '778', '779', '780', '782', '783', '785', '792', '794', '796', '800', '802', '804', '808', '809', '811', '814', '816', '818', '819', '820', '822', '823', '824', '826', '829', '830', '832', '833', '835', '836', '838', '840', '841', '845', '846', '852', '856', '857', '859', '861', '870', '871', '873', '875', '880', '881', '884', '887', '892', '896', '897', '898', '902', '903', '904', '905', '906', '907', '909', '911', '914', '916', '917', '920', '922', '923', '924', '925', '929', '930', '931', '934', '938', '939', '941', '943', '944', '948', '952', '955', '957', '958', '959', '960', '961', '964', '967', '971', '973', '978', '979', '981', '982', '983', '984', '985', '986', '987', '993', '994', '995', '998']",False,1000,True,100,c6ed459211,0.0,1.0,0.0
