expe,clients,clients_size,clients_subset,agg_size,agg_size_pc,method,days,days_size,days_total,noise_method,time,valid,valid_sum,success,score_avg,score_min,score_max,nsols,oracle,wall_hit,wall_time,pooled,pool_size,uuid,infeasible,optimal,valid_sums
./expes/v2_2021-03-23_issda-30_2000-prng-1-w4-p2,30_issda-2000,2000,first-2000,500,25,rng,num-start-2200,2200,25726,classic,1580.6398458480835,True,,True,1.0,1.0,1.0,1,"['1', '3', '9', '12', '13', '19', '21', '23', '27', '29', '30', '35', '42', '44', '45', '46', '47', '54', '57', '58', '63', '67', '68', '75', '78', '80', '88', '89', '90', '91', '96', '99', '106', '108', '113', '114', '116', '119', '120', '122', '133', '135', '146', '153', '157', '161', '162', '163', '164', '165', '169', '172', '177', '184', '186', '189', '191', '199', '205', '207', '212', '214', '220', '222', '223', '233', '236', '238', '241', '249', '252', '254', '255', '257', '258', '269', '274', '280', '290', '291', '294', '295', '301', '302', '304', '309', '313', '314', '316', '317', '319', '324', '337', '342', '344', '352', '353', '354', '357', '365', '373', '379', '381', '389', '391', '395', '397', '400', '406', '417', '421', '424', '428', '429', '430', '434', '436', '443', '448', '452', '454', '456', '457', '459', '460', '461', '465', '467', '471', '476', '481', '483', '487', '488', '490', '491', '495', '498', '501', '520', '523', '524', '529', '531', '533', '535', '538', '548', '549', '552', '558', '560', '580', '582', '584', '588', '594', '601', '603', '605', '607', '608', '610', '619', '620', '621', '624', '625', '629', '633', '635', '636', '642', '643', '647', '649', '655', '656', '660', '683', '686', '687', '689', '700', '705', '706', '713', '715', '716', '725', '726', '741', '743', '747', '757', '765', '766', '767', '771', '773', '785', '786', '787', '792', '796', '802', '805', '808', '810', '811', '819', '820', '823', '825', '826', '827', '829', '830', '832', '834', '836', '837', '838', '839', '840', '843', '844', '845', '852', '854', '856', '858', '861', '867', '874', '876', '880', '887', '889', '894', '904', '906', '910', '912', '915', '916', '917', '922', '929', '931', '934', '936', '944', '946', '947', '952', '956', '961', '966', '968', '972', '973', '978', '985', '986', '988', '1000', '1004', '1005', '1007', '1013', '1016', '1017', '1022', '1023', '1027', '1030', '1032', '1046', '1047', '1052', '1053', '1058', '1059', '1062', '1072', '1077', '1089', '1095', '1097', '1101', '1105', '1110', '1133', '1134', '1153', '1157', '1162', '1171', '1173', '1176', '1186', '1189', '1193', '1202', '1208', '1209', '1215', '1216', '1219', '1224', '1227', '1234', '1235', '1237', '1242', '1243', '1250', '1252', '1255', '1256', '1258', '1260', '1264', '1277', '1281', '1282', '1284', '1287', '1288', '1293', '1296', '1301', '1307', '1308', '1312', '1313', '1317', '1320', '1332', '1335', '1337', '1339', '1341', '1343', '1347', '1349', '1351', '1353', '1358', '1364', '1365', '1366', '1367', '1369', '1370', '1392', '1395', '1397', '1407', '1411', '1413', '1415', '1417', '1421', '1429', '1432', '1433', '1434', '1441', '1449', '1450', '1457', '1463', '1472', '1474', '1477', '1483', '1485', '1487', '1491', '1496', '1500', '1508', '1510', '1512', '1521', '1522', '1523', '1533', '1536', '1540', '1542', '1547', '1553', '1559', '1564', '1568', '1576', '1583', '1584', '1586', '1598', '1603', '1604', '1605', '1610', '1612', '1614', '1616', '1617', '1619', '1630', '1635', '1636', '1647', '1651', '1652', '1655', '1664', '1667', '1669', '1671', '1674', '1677', '1686', '1692', '1693', '1694', '1700', '1704', '1706', '1711', '1721', '1722', '1725', '1726', '1727', '1732', '1735', '1736', '1738', '1741', '1750', '1763', '1771', '1772', '1773', '1777', '1778', '1788', '1795', '1809', '1810', '1811', '1814', '1820', '1830', '1836', '1837', '1842', '1843', '1849', '1855', '1857', '1875', '1882', '1883', '1884', '1886', '1892', '1895', '1901', '1905', '1908', '1915', '1927', '1932', '1933', '1942', '1943', '1949', '1950', '1952', '1953', '1959', '1961', '1962', '1965', '1971', '1976', '1979', '1981', '1983', '1985', '1988', '1989', '1991', '1995', '1996']",False,8000,True,2,76961baf14,0.0,1.0,1.0
./expes/v2_2021-03-23_issda-30_2000-prng-1-w4-p2,30_issda-2000,2000,first-2000,300,15,rng,num-start-3800,3800,25726,classic,2596.4633688926697,True,,True,1.0,1.0,1.0,1,"['6', '15', '18', '34', '35', '47', '51', '54', '66', '69', '75', '81', '84', '89', '93', '96', '127', '128', '132', '137', '140', '145', '148', '151', '155', '159', '175', '181', '187', '188', '192', '194', '202', '204', '207', '208', '215', '219', '221', '230', '233', '234', '238', '246', '248', '249', '259', '263', '276', '279', '284', '287', '304', '314', '317', '325', '340', '349', '351', '359', '376', '384', '392', '393', '404', '409', '413', '415', '416', '425', '429', '432', '459', '461', '464', '477', '502', '503', '512', '519', '534', '535', '537', '539', '542', '549', '562', '563', '568', '576', '582', '585', '586', '593', '594', '601', '602', '606', '613', '617', '627', '632', '637', '638', '650', '651', '663', '665', '667', '671', '676', '680', '712', '731', '742', '752', '756', '757', '772', '777', '788', '796', '800', '803', '806', '812', '827', '831', '833', '844', '847', '849', '862', '867', '878', '879', '880', '881', '893', '895', '899', '902', '910', '912', '921', '922', '925', '926', '931', '934', '938', '939', '945', '949', '955', '957', '960', '962', '963', '975', '980', '983', '984', '1011', '1012', '1025', '1029', '1030', '1034', '1036', '1043', '1048', '1051', '1054', '1066', '1073', '1083', '1084', '1110', '1111', '1117', '1118', '1121', '1136', '1152', '1166', '1167', '1169', '1181', '1186', '1198', '1204', '1206', '1208', '1211', '1216', '1217', '1219', '1222', '1256', '1265', '1271', '1272', '1283', '1299', '1303', '1305', '1313', '1323', '1329', '1330', '1337', '1339', '1345', '1349', '1351', '1360', '1368', '1385', '1387', '1388', '1396', '1398', '1401', '1406', '1408', '1423', '1426', '1445', '1454', '1465', '1467', '1468', '1470', '1475', '1485', '1491', '1497', '1498', '1503', '1507', '1512', '1528', '1540', '1541', '1548', '1568', '1584', '1587', '1608', '1622', '1642', '1645', '1646', '1647', '1661', '1689', '1692', '1704', '1708', '1710', '1712', '1724', '1729', '1741', '1747', '1748', '1753', '1762', '1774', '1779', '1786', '1790', '1799', '1800', '1801', '1809', '1812', '1824', '1834', '1836', '1838', '1856', '1874', '1885', '1903', '1905', '1916', '1917', '1938', '1946', '1954', '1957', '1959', '1960', '1963', '1977', '1983', '1989', '1993']",False,8000,True,2,fc2f69f05e,0.0,1.0,1.0
