expe,clients,clients_size,clients_subset,agg_size,agg_size_pc,method,days,days_size,days_total,noise_method,time,valid,valid_sum,success,score_avg,score_min,score_max,nsols,oracle,wall_hit,wall_time,pooled,pool_size,uuid,infeasible,optimal,valid_sums
./expes/v2_2021-03-23_issda-30_2000-prng-1-w4-p2,30_issda-2000,2000,first-2000,500,25,rng,num-start-800,800,25726,classic,2867.5305273532867,True,,True,1.0,1.0,1.0,1,"['12', '13', '14', '18', '23', '27', '30', '36', '38', '43', '47', '60', '73', '76', '94', '113', '115', '120', '125', '130', '133', '136', '137', '141', '147', '156', '157', '162', '171', '172', '179', '181', '182', '184', '185', '190', '192', '208', '218', '220', '236', '239', '242', '252', '258', '259', '265', '267', '270', '273', '280', '281', '287', '294', '297', '298', '300', '303', '308', '309', '310', '312', '314', '329', '331', '333', '334', '335', '342', '344', '347', '350', '353', '358', '361', '362', '366', '372', '374', '375', '386', '387', '389', '390', '402', '406', '409', '411', '413', '414', '415', '418', '424', '428', '430', '433', '436', '438', '440', '442', '443', '449', '452', '461', '472', '473', '479', '481', '484', '487', '491', '495', '497', '505', '511', '512', '520', '525', '528', '530', '531', '532', '533', '538', '540', '542', '543', '547', '550', '553', '555', '558', '560', '561', '562', '564', '565', '575', '577', '582', '583', '588', '592', '599', '606', '609', '612', '613', '615', '618', '621', '623', '632', '644', '646', '659', '660', '661', '664', '665', '671', '673', '675', '681', '685', '686', '688', '694', '696', '698', '702', '707', '709', '712', '716', '718', '722', '730', '733', '738', '739', '745', '748', '749', '754', '755', '764', '766', '767', '775', '780', '790', '802', '806', '813', '814', '820', '824', '826', '828', '829', '831', '832', '834', '836', '839', '844', '850', '851', '853', '855', '856', '865', '868', '870', '874', '883', '888', '889', '890', '895', '897', '911', '915', '920', '930', '931', '933', '939', '940', '942', '953', '955', '958', '962', '967', '973', '978', '979', '980', '983', '984', '997', '1003', '1006', '1007', '1010', '1012', '1016', '1023', '1026', '1038', '1039', '1040', '1043', '1049', '1051', '1052', '1054', '1064', '1066', '1069', '1070', '1073', '1078', '1079', '1085', '1086', '1091', '1095', '1102', '1104', '1107', '1109', '1114', '1116', '1117', '1124', '1130', '1131', '1133', '1140', '1143', '1144', '1145', '1149', '1158', '1164', '1166', '1171', '1173', '1174', '1176', '1179', '1183', '1186', '1194', '1198', '1203', '1206', '1207', '1216', '1229', '1235', '1242', '1244', '1251', '1252', '1254', '1255', '1258', '1260', '1261', '1267', '1281', '1287', '1289', '1290', '1293', '1304', '1308', '1309', '1322', '1325', '1326', '1327', '1328', '1336', '1344', '1346', '1347', '1354', '1355', '1372', '1378', '1381', '1383', '1385', '1386', '1388', '1393', '1396', '1401', '1402', '1406', '1408', '1412', '1414', '1417', '1419', '1422', '1431', '1432', '1438', '1444', '1446', '1449', '1451', '1452', '1453', '1454', '1461', '1462', '1467', '1469', '1474', '1480', '1489', '1490', '1496', '1505', '1506', '1507', '1508', '1513', '1519', '1522', '1526', '1529', '1533', '1538', '1549', '1550', '1552', '1553', '1554', '1556', '1557', '1562', '1574', '1575', '1578', '1579', '1581', '1584', '1587', '1589', '1593', '1594', '1595', '1598', '1605', '1607', '1613', '1620', '1622', '1623', '1625', '1626', '1627', '1632', '1639', '1644', '1652', '1654', '1657', '1660', '1662', '1663', '1666', '1668', '1674', '1676', '1688', '1691', '1692', '1695', '1697', '1700', '1705', '1706', '1708', '1711', '1712', '1713', '1719', '1720', '1726', '1728', '1729', '1733', '1736', '1746', '1749', '1758', '1760', '1762', '1766', '1769', '1774', '1777', '1780', '1783', '1789', '1791', '1792', '1795', '1811', '1814', '1817', '1818', '1825', '1826', '1827', '1834', '1841', '1842', '1854', '1858', '1865', '1869', '1871', '1880', '1891', '1895', '1896', '1899', '1900', '1904', '1905', '1910', '1916', '1919', '1931', '1934', '1935', '1936', '1938', '1946', '1950', '1951', '1961', '1962', '1980', '1981', '1985', '1987', '1993', '1994', '1999']",False,8000,True,2,c307440c2c,0.0,1.0,1.0
./expes/v2_2021-03-23_issda-30_2000-prng-1-w4-p2,30_issda-2000,2000,first-2000,900,45,rng,num-start-600,600,25726,classic,8115.9788229465485,False,,False,0,,,0,"['4', '5', '6', '8', '10', '11', '15', '16', '24', '27', '32', '37', '39', '41', '42', '44', '46', '48', '49', '53', '55', '56', '57', '58', '59', '61', '62', '64', '65', '67', '68', '70', '72', '73', '74', '75', '76', '77', '81', '87', '88', '89', '91', '93', '94', '95', '102', '103', '104', '105', '109', '110', '113', '122', '123', '124', '125', '126', '130', '132', '135', '137', '140', '141', '142', '147', '149', '157', '158', '159', '160', '164', '165', '171', '176', '177', '182', '187', '189', '190', '194', '197', '199', '200', '204', '205', '209', '211', '212', '214', '215', '219', '220', '221', '222', '223', '224', '226', '229', '230', '231', '233', '236', '238', '242', '244', '245', '246', '248', '249', '251', '253', '254', '255', '256', '257', '260', '262', '264', '266', '267', '268', '270', '273', '275', '276', '278', '279', '280', '282', '284', '286', '290', '294', '295', '300', '301', '306', '307', '309', '311', '313', '320', '322', '326', '327', '329', '330', '333', '335', '338', '345', '347', '348', '349', '350', '351', '352', '353', '355', '362', '364', '366', '367', '369', '370', '372', '373', '376', '379', '380', '382', '383', '384', '388', '389', '391', '392', '393', '397', '400', '405', '407', '408', '409', '410', '411', '414', '421', '422', '427', '429', '431', '433', '434', '445', '446', '447', '448', '449', '453', '455', '456', '459', '460', '461', '466', '471', '475', '476', '479', '480', '481', '482', '484', '487', '488', '489', '490', '491', '495', '496', '501', '502', '507', '509', '512', '513', '514', '515', '518', '521', '523', '526', '529', '530', '532', '537', '540', '541', '542', '543', '544', '545', '547', '548', '550', '551', '552', '554', '555', '556', '561', '563', '571', '572', '573', '581', '583', '584', '588', '592', '595', '598', '601', '602', '603', '606', '612', '614', '615', '616', '617', '621', '623', '624', '630', '635', '640', '641', '642', '643', '645', '646', '647', '648', '651', '653', '656', '660', '662', '665', '667', '669', '672', '673', '674', '678', '679', '681', '682', '684', '686', '690', '694', '695', '696', '697', '699', '700', '704', '705', '708', '710', '718', '719', '720', '721', '722', '723', '726', '731', '736', '738', '739', '741', '746', '749', '752', '753', '755', '757', '758', '760', '763', '765', '767', '769', '770', '771', '772', '773', '774', '778', '779', '784', '785', '786', '791', '794', '797', '798', '799', '801', '802', '803', '807', '809', '813', '814', '816', '820', '822', '823', '826', '827', '835', '836', '837', '839', '841', '846', '847', '848', '851', '854', '857', '860', '861', '862', '863', '865', '867', '871', '873', '875', '878', '881', '884', '886', '890', '892', '894', '896', '898', '907', '908', '910', '911', '912', '917', '918', '923', '924', '927', '931', '933', '935', '936', '938', '943', '944', '951', '952', '955', '957', '958', '959', '961', '964', '969', '970', '971', '972', '976', '978', '981', '982', '983', '986', '987', '988', '989', '991', '992', '994', '996', '999', '1002', '1003', '1004', '1005', '1008', '1011', '1012', '1014', '1017', '1019', '1020', '1022', '1025', '1029', '1031', '1032', '1034', '1036', '1037', '1039', '1042', '1045', '1048', '1050', '1055', '1056', '1060', '1062', '1063', '1065', '1066', '1068', '1072', '1073', '1076', '1077', '1080', '1081', '1084', '1085', '1086', '1090', '1094', '1095', '1097', '1098', '1099', '1100', '1101', '1102', '1104', '1108', '1109', '1110', '1113', '1114', '1115', '1116', '1124', '1126', '1127', '1129', '1132', '1134', '1135', '1136', '1137', '1138', '1140', '1141', '1145', '1146', '1147', '1155', '1156', '1160', '1161', '1162', '1164', '1165', '1166', '1168', '1170', '1172', '1175', '1176', '1178', '1180', '1182', '1186', '1188', '1189', '1190', '1195', '1197', '1198', '1199', '1200', '1201', '1202', '1204', '1206', '1207', '1208', '1209', '1211', '1213', '1214', '1218', '1219', '1220', '1222', '1224', '1227', '1228', '1229', '1231', '1232', '1237', '1238', '1240', '1241', '1245', '1247', '1251', '1254', '1259', '1262', '1266', '1267', '1269', '1271', '1274', '1275', '1276', '1277', '1281', '1282', '1284', '1285', '1286', '1287', '1288', '1293', '1295', '1297', '1298', '1299', '1300', '1301', '1304', '1309', '1315', '1317', '1319', '1320', '1321', '1323', '1325', '1327', '1328', '1330', '1331', '1332', '1337', '1339', '1340', '1343', '1347', '1351', '1356', '1357', '1358', '1363', '1366', '1368', '1373', '1375', '1376', '1377', '1378', '1380', '1381', '1383', '1384', '1385', '1389', '1390', '1392', '1395', '1396', '1397', '1401', '1405', '1407', '1413', '1415', '1416', '1421', '1422', '1423', '1424', '1425', '1427', '1429', '1430', '1431', '1432', '1433', '1434', '1436', '1437', '1440', '1441', '1444', '1445', '1446', '1448', '1460', '1462', '1463', '1465', '1466', '1467', '1468', '1469', '1470', '1471', '1472', '1473', '1474', '1476', '1477', '1481', '1489', '1490', '1491', '1492', '1493', '1496', '1499', '1503', '1504', '1506', '1512', '1515', '1519', '1520', '1521', '1523', '1527', '1531', '1532', '1533', '1534', '1541', '1543', '1544', '1545', '1546', '1549', '1550', '1551', '1553', '1557', '1560', '1572', '1575', '1578', '1581', '1582', '1586', '1588', '1589', '1591', '1592', '1596', '1597', '1598', '1601', '1602', '1603', '1604', '1612', '1613', '1615', '1620', '1622', '1623', '1626', '1629', '1635', '1636', '1637', '1640', '1641', '1645', '1647', '1651', '1652', '1653', '1654', '1658', '1659', '1660', '1662', '1663', '1665', '1666', '1669', '1671', '1673', '1674', '1679', '1683', '1687', '1696', '1704', '1706', '1707', '1708', '1710', '1713', '1714', '1716', '1718', '1719', '1724', '1726', '1728', '1729', '1732', '1735', '1739', '1741', '1744', '1745', '1746', '1749', '1750', '1752', '1753', '1754', '1755', '1756', '1758', '1759', '1761', '1762', '1763', '1764', '1765', '1767', '1769', '1770', '1772', '1773', '1776', '1778', '1779', '1781', '1782', '1783', '1787', '1788', '1793', '1800', '1802', '1803', '1804', '1805', '1807', '1809', '1810', '1813', '1816', '1817', '1818', '1822', '1823', '1824', '1825', '1826', '1827', '1835', '1837', '1838', '1839', '1842', '1843', '1847', '1851', '1852', '1853', '1856', '1862', '1864', '1866', '1870', '1872', '1876', '1878', '1879', '1885', '1886', '1887', '1888', '1889', '1892', '1893', '1897', '1899', '1900', '1903', '1904', '1905', '1909', '1913', '1914', '1915', '1917', '1918', '1923', '1924', '1927', '1928', '1931', '1932', '1934', '1935', '1936', '1939', '1941', '1944', '1945', '1946', '1947', '1948', '1951', '1953', '1956', '1957', '1961', '1962', '1964', '1965', '1967', '1968', '1969', '1973', '1975', '1976', '1978', '1980', '1981', '1985', '1987', '1989', '1990', '1991', '1993', '1997']",True,8000,True,2,a58650a9d8,0.0,0.0,0.0
