expe,clients,clients_size,clients_subset,agg_size,method,days,days_size,days_total,time,valid,valid_sum,success,nsols,wall_hit,wall_time,pooled,valid_sums
./expes/v2_2020-11-23_di_50-prng-1,daily_issda_50,50,rng-50,41,rng,num-start-221,221,536,1.1918296813964844,True,,True,1,False,1000,True,1.0
./expes/v2_2020-11-23_di_50-prng-1,daily_issda_50,50,rng-50,21,rng,num-start-271,271,536,1.3829572200775146,True,,True,1,False,1000,True,1.0
./expes/v2_2020-11-23_di_50-prng-1,daily_issda_50,50,rng-50,1,rng,num-start-81,81,536,0.40711140632629395,True,,True,1,False,1000,True,1.0
./expes/v2_2020-11-23_di_50-prng-1,daily_issda_50,50,rng-50,21,rng,num-start-181,181,536,1.084585428237915,True,,True,1,False,1000,True,1.0
./expes/v2_2020-11-23_di_50-prng-1,daily_issda_50,50,rng-50,31,rng,num-start-51,51,536,0.3554544448852539,True,,True,1,False,1000,True,1.0
./expes/v2_2020-11-23_di_50-prng-1,daily_issda_50,50,rng-50,1,rng,num-start-31,31,536,0.15862512588500977,True,,True,1,False,1000,True,1.0
./expes/v2_2020-11-23_di_50-prng-1,daily_issda_50,50,rng-50,31,rng,num-start-251,251,536,1.3157985210418701,True,,True,1,False,1000,True,1.0
./expes/v2_2020-11-23_di_50-prng-1,daily_issda_50,50,rng-50,1,rng,num-start-251,251,536,1.2413311004638672,True,,True,1,False,1000,True,1.0
./expes/v2_2020-11-23_di_50-prng-1,daily_issda_50,50,rng-50,41,rng,num-start-111,111,536,0.6494326591491699,True,,True,1,False,1000,True,1.0
./expes/v2_2020-11-23_di_50-prng-1,daily_issda_50,50,rng-50,31,rng,num-start-231,231,536,1.3105955123901367,True,,True,1,False,1000,True,1.0
./expes/v2_2020-11-23_di_50-prng-1,daily_issda_50,50,rng-50,11,rng,num-start-251,251,536,1.2508080005645752,True,,True,1,False,1000,True,1.0
./expes/v2_2020-11-23_di_50-prng-1,daily_issda_50,50,rng-50,31,rng,num-start-171,171,536,1.0281453132629395,True,,True,1,False,1000,True,1.0
./expes/v2_2020-11-23_di_50-prng-1,daily_issda_50,50,rng-50,21,rng,num-start-231,231,536,1.1501867771148682,True,,True,1,False,1000,True,1.0
./expes/v2_2020-11-23_di_50-prng-1,daily_issda_50,50,rng-50,21,rng,num-start-231,231,536,1.1482365131378174,True,,True,1,False,1000,True,1.0
./expes/v2_2020-11-23_di_50-prng-1,daily_issda_50,50,rng-50,11,rng,num-start-121,121,536,0.7380356788635254,True,,True,1,False,1000,True,1.0
./expes/v2_2020-11-23_di_50-prng-1,daily_issda_50,50,rng-50,31,rng,num-start-171,171,536,0.9669308662414551,True,,True,1,False,1000,True,1.0
./expes/v2_2020-11-23_di_50-prng-1,daily_issda_50,50,rng-50,11,rng,num-start-281,281,536,1.4111192226409912,True,,True,1,False,1000,True,1.0
./expes/v2_2020-11-23_di_50-prng-1,daily_issda_50,50,rng-50,41,rng,num-start-181,181,536,1.0534000396728516,True,,True,1,False,1000,True,1.0
./expes/v2_2020-11-23_di_50-prng-1,daily_issda_50,50,rng-50,11,rng,num-start-21,21,536,0.20167303085327148,True,,True,1,False,1000,True,1.0
./expes/v2_2020-11-23_di_50-prng-1,daily_issda_50,50,rng-50,11,rng,num-start-121,121,536,0.7203028202056885,True,,True,1,False,1000,True,1.0
./expes/v2_2020-11-23_di_50-prng-1,daily_issda_50,50,rng-50,11,rng,num-start-141,141,536,0.8160266876220703,True,,True,1,False,1000,True,1.0
./expes/v2_2020-11-23_di_50-prng-1,daily_issda_50,50,rng-50,31,rng,num-start-151,151,536,0.9227311611175537,True,,True,1,False,1000,True,1.0
./expes/v2_2020-11-23_di_50-prng-1,daily_issda_50,50,rng-50,21,rng,num-start-191,191,536,1.1515438556671143,True,,True,1,False,1000,True,1.0
./expes/v2_2020-11-23_di_50-prng-1,daily_issda_50,50,rng-50,11,rng,num-start-121,121,536,0.7645585536956787,True,,True,1,False,1000,True,1.0
./expes/v2_2020-11-23_di_50-prng-1,daily_issda_50,50,rng-50,1,rng,num-start-51,51,536,0.25168418884277344,True,,True,1,False,1000,True,1.0
./expes/v2_2020-11-23_di_50-prng-1,daily_issda_50,50,rng-50,11,rng,num-start-241,241,536,1.1924259662628174,True,,True,1,False,1000,True,1.0
./expes/v2_2020-11-23_di_50-prng-1,daily_issda_50,50,rng-50,21,rng,num-start-121,121,536,0.7172918319702148,True,,True,1,False,1000,True,1.0
./expes/v2_2020-11-23_di_50-prng-1,daily_issda_50,50,rng-50,11,rng,num-start-171,171,536,1.0122861862182617,True,,True,1,False,1000,True,1.0
./expes/v2_2020-11-23_di_50-prng-1,daily_issda_50,50,rng-50,31,rng,num-start-171,171,536,0.9792513847351074,True,,True,1,False,1000,True,1.0
./expes/v2_2020-11-23_di_50-prng-1,daily_issda_50,50,rng-50,21,rng,num-start-121,121,536,0.7215919494628906,True,,True,1,False,1000,True,1.0
./expes/v2_2020-11-23_di_50-prng-1,daily_issda_50,50,rng-50,31,rng,num-start-241,241,536,1.1961710453033447,True,,True,1,False,1000,True,1.0
./expes/v2_2020-11-23_di_50-prng-1,daily_issda_50,50,rng-50,41,rng,num-start-211,211,536,1.1722311973571777,True,,True,1,False,1000,True,1.0
./expes/v2_2020-11-23_di_50-prng-1,daily_issda_50,50,rng-50,11,rng,num-start-181,181,536,1.0115432739257812,True,,True,1,False,1000,True,1.0
./expes/v2_2020-11-23_di_50-prng-1,daily_issda_50,50,rng-50,11,rng,num-start-71,71,536,0.4150257110595703,True,,True,1,False,1000,True,1.0
./expes/v2_2020-11-23_di_50-prng-1,daily_issda_50,50,rng-50,41,rng,num-start-131,131,536,0.7481846809387207,True,,True,1,False,1000,True,1.0
./expes/v2_2020-11-23_di_50-prng-1,daily_issda_50,50,rng-50,21,rng,num-start-61,61,536,0.3871593475341797,True,,True,1,False,1000,True,1.0
./expes/v2_2020-11-23_di_50-prng-1,daily_issda_50,50,rng-50,11,rng,num-start-81,81,536,0.5013427734375,True,,True,1,False,1000,True,1.0
./expes/v2_2020-11-23_di_50-prng-1,daily_issda_50,50,rng-50,1,rng,num-start-31,31,536,0.15368294715881348,True,,True,1,False,1000,True,1.0
