expe,clients,clients_size,clients_subset,agg_size,method,days,days_size,days_total,time,valid,valid_sum,success,nsols,wall_hit,wall_time,pooled,valid_sums
./expes/v2_2020-11-23_di_50-prng-1,daily_issda_50,50,rng-50,11,rng,num-start-91,91,536,0.6738672256469727,True,,True,1,False,1000,True,1.0
./expes/v2_2020-11-23_di_50-prng-1,daily_issda_50,50,rng-50,31,rng,num-start-81,81,536,0.5163531303405762,True,,True,1,False,1000,True,1.0
./expes/v2_2020-11-23_di_50-prng-1,daily_issda_50,50,rng-50,31,rng,num-start-231,231,536,1.1907036304473877,True,,True,1,False,1000,True,1.0
./expes/v2_2020-11-23_di_50-prng-1,daily_issda_50,50,rng-50,11,rng,num-start-21,21,536,0.21394801139831543,True,,True,1,False,1000,True,1.0
./expes/v2_2020-11-23_di_50-prng-1,daily_issda_50,50,rng-50,41,rng,num-start-251,251,536,1.4448578357696533,True,,True,1,False,1000,True,1.0
./expes/v2_2020-11-23_di_50-prng-1,daily_issda_50,50,rng-50,31,rng,num-start-211,211,536,1.0812971591949463,True,,True,1,False,1000,True,1.0
./expes/v2_2020-11-23_di_50-prng-1,daily_issda_50,50,rng-50,41,rng,num-start-291,291,536,1.4664790630340576,True,,True,1,False,1000,True,1.0
./expes/v2_2020-11-23_di_50-prng-1,daily_issda_50,50,rng-50,11,rng,num-start-11,11,536,0.30025362968444824,True,,True,1,False,1000,True,1.0
./expes/v2_2020-11-23_di_50-prng-1,daily_issda_50,50,rng-50,41,rng,num-start-201,201,536,0.9876141548156738,True,,True,1,False,1000,True,1.0
./expes/v2_2020-11-23_di_50-prng-1,daily_issda_50,50,rng-50,21,rng,num-start-71,71,536,0.42886900901794434,True,,True,1,False,1000,True,1.0
./expes/v2_2020-11-23_di_50-prng-1,daily_issda_50,50,rng-50,21,rng,num-start-51,51,536,0.36032867431640625,True,,True,1,False,1000,True,1.0
./expes/v2_2020-11-23_di_50-prng-1,daily_issda_50,50,rng-50,1,rng,num-start-101,101,536,0.48955392837524414,True,,True,1,False,1000,True,1.0
./expes/v2_2020-11-23_di_50-prng-1,daily_issda_50,50,rng-50,1,rng,num-start-111,111,536,0.5446009635925293,True,,True,1,False,1000,True,1.0
./expes/v2_2020-11-23_di_50-prng-1,daily_issda_50,50,rng-50,31,rng,num-start-141,141,536,0.7728111743927002,True,,True,1,False,1000,True,1.0
./expes/v2_2020-11-23_di_50-prng-1,daily_issda_50,50,rng-50,21,rng,num-start-61,61,536,0.387070894241333,True,,True,1,False,1000,True,1.0
./expes/v2_2020-11-23_di_50-prng-1,daily_issda_50,50,rng-50,11,rng,num-start-241,241,536,1.3848061561584473,True,,True,1,False,1000,True,1.0
./expes/v2_2020-11-23_di_50-prng-1,daily_issda_50,50,rng-50,31,rng,num-start-131,131,536,0.7696924209594727,True,,True,1,False,1000,True,1.0
./expes/v2_2020-11-23_di_50-prng-1,daily_issda_50,50,rng-50,11,rng,num-start-61,61,536,0.3766970634460449,True,,True,1,False,1000,True,1.0
./expes/v2_2020-11-23_di_50-prng-1,daily_issda_50,50,rng-50,41,rng,num-start-231,231,536,1.1367301940917969,True,,True,1,False,1000,True,1.0
./expes/v2_2020-11-23_di_50-prng-1,daily_issda_50,50,rng-50,1,rng,num-start-151,151,536,0.7283689975738525,True,,True,1,False,1000,True,1.0
./expes/v2_2020-11-23_di_50-prng-1,daily_issda_50,50,rng-50,1,rng,num-start-201,201,536,0.9922122955322266,True,,True,1,False,1000,True,1.0
./expes/v2_2020-11-23_di_50-prng-1,daily_issda_50,50,rng-50,21,rng,num-start-291,291,536,1.4365882873535156,True,,True,1,False,1000,True,1.0
./expes/v2_2020-11-23_di_50-prng-1,daily_issda_50,50,rng-50,41,rng,num-start-81,81,536,0.5019481182098389,True,,True,1,False,1000,True,1.0
./expes/v2_2020-11-23_di_50-prng-1,daily_issda_50,50,rng-50,1,rng,num-start-251,251,536,1.2392711639404297,True,,True,1,False,1000,True,1.0
./expes/v2_2020-11-23_di_50-prng-1,daily_issda_50,50,rng-50,21,rng,num-start-11,11,536,0.2236180305480957,True,,True,1,False,1000,True,1.0
./expes/v2_2020-11-23_di_50-prng-1,daily_issda_50,50,rng-50,31,rng,num-start-21,21,536,0.19110488891601562,True,,True,1,False,1000,True,1.0
./expes/v2_2020-11-23_di_50-prng-1,daily_issda_50,50,rng-50,31,rng,num-start-31,31,536,0.24509024620056152,True,,True,1,False,1000,True,1.0
./expes/v2_2020-11-23_di_50-prng-1,daily_issda_50,50,rng-50,1,rng,num-start-101,101,536,0.49080467224121094,True,,True,1,False,1000,True,1.0
./expes/v2_2020-11-23_di_50-prng-1,daily_issda_50,50,rng-50,31,rng,num-start-111,111,536,0.6907033920288086,True,,True,1,False,1000,True,1.0
./expes/v2_2020-11-23_di_50-prng-1,daily_issda_50,50,rng-50,21,rng,num-start-271,271,536,1.3542685508728027,True,,True,1,False,1000,True,1.0
./expes/v2_2020-11-23_di_50-prng-1,daily_issda_50,50,rng-50,21,rng,num-start-271,271,536,1.3647255897521973,True,,True,1,False,1000,True,1.0
./expes/v2_2020-11-23_di_50-prng-1,daily_issda_50,50,rng-50,21,rng,num-start-101,101,536,0.5973057746887207,True,,True,1,False,1000,True,1.0
./expes/v2_2020-11-23_di_50-prng-1,daily_issda_50,50,rng-50,41,rng,num-start-11,11,536,0.18694734573364258,True,,True,1,False,1000,True,1.0
./expes/v2_2020-11-23_di_50-prng-1,daily_issda_50,50,rng-50,31,rng,num-start-191,191,536,1.1147043704986572,True,,True,1,False,1000,True,1.0
./expes/v2_2020-11-23_di_50-prng-1,daily_issda_50,50,rng-50,31,rng,num-start-111,111,536,0.7141127586364746,True,,True,1,False,1000,True,1.0
./expes/v2_2020-11-23_di_50-prng-1,daily_issda_50,50,rng-50,1,rng,num-start-21,21,536,0.10567045211791992,True,,True,1,False,1000,True,1.0
./expes/v2_2020-11-23_di_50-prng-1,daily_issda_50,50,rng-50,21,rng,num-start-51,51,536,0.33933448791503906,True,,True,1,False,1000,True,1.0
./expes/v2_2020-11-23_di_50-prng-1,daily_issda_50,50,rng-50,21,rng,num-start-121,121,536,0.6991503238677979,True,,True,1,False,1000,True,1.0
./expes/v2_2020-11-23_di_50-prng-1,daily_issda_50,50,rng-50,11,rng,num-start-71,71,536,0.450423002243042,True,,True,1,False,1000,True,1.0
./expes/v2_2020-11-23_di_50-prng-1,daily_issda_50,50,rng-50,11,rng,num-start-1,1,536,0.5128664970397949,False,,False,2,False,1000,True,1.0
./expes/v2_2020-11-23_di_50-prng-1,daily_issda_50,50,rng-50,31,rng,num-start-261,261,536,1.28175687789917,True,,True,1,False,1000,True,1.0
./expes/v2_2020-11-23_di_50-prng-1,daily_issda_50,50,rng-50,31,rng,num-start-151,151,536,0.8857991695404053,True,,True,1,False,1000,True,1.0
./expes/v2_2020-11-23_di_50-prng-1,daily_issda_50,50,rng-50,21,rng,num-start-101,101,536,0.6034488677978516,True,,True,1,False,1000,True,1.0
./expes/v2_2020-11-23_di_50-prng-1,daily_issda_50,50,rng-50,31,rng,num-start-61,61,536,0.4078800678253174,True,,True,1,False,1000,True,1.0
./expes/v2_2020-11-23_di_50-prng-1,daily_issda_50,50,rng-50,41,rng,num-start-221,221,536,1.113468885421753,True,,True,1,False,1000,True,1.0
./expes/v2_2020-11-23_di_50-prng-1,daily_issda_50,50,rng-50,11,rng,num-start-151,151,536,0.8951206207275391,True,,True,1,False,1000,True,1.0
./expes/v2_2020-11-23_di_50-prng-1,daily_issda_50,50,rng-50,1,rng,num-start-61,61,536,0.31827497482299805,True,,True,1,False,1000,True,1.0
./expes/v2_2020-11-23_di_50-prng-1,daily_issda_50,50,rng-50,21,rng,num-start-111,111,536,0.7126326560974121,True,,True,1,False,1000,True,1.0
./expes/v2_2020-11-23_di_50-prng-1,daily_issda_50,50,rng-50,21,rng,num-start-1,1,536,0.5409882068634033,False,,False,2,False,1000,True,1.0
./expes/v2_2020-11-23_di_50-prng-1,daily_issda_50,50,rng-50,31,rng,num-start-111,111,536,0.6723220348358154,True,,True,1,False,1000,True,1.0
./expes/v2_2020-11-23_di_50-prng-1,daily_issda_50,50,rng-50,21,rng,num-start-161,161,536,0.9383242130279541,True,,True,1,False,1000,True,1.0
./expes/v2_2020-11-23_di_50-prng-1,daily_issda_50,50,rng-50,11,rng,num-start-181,181,536,1.0579559803009033,True,,True,1,False,1000,True,1.0
./expes/v2_2020-11-23_di_50-prng-1,daily_issda_50,50,rng-50,11,rng,num-start-131,131,536,1.1164896488189697,True,,True,1,False,1000,True,1.0
./expes/v2_2020-11-23_di_50-prng-1,daily_issda_50,50,rng-50,21,rng,num-start-201,201,536,1.361375093460083,True,,True,1,False,1000,True,1.0
./expes/v2_2020-11-23_di_50-prng-1,daily_issda_50,50,rng-50,21,rng,num-start-141,141,536,0.8335659503936768,True,,True,1,False,1000,True,1.0
./expes/v2_2020-11-23_di_50-prng-1,daily_issda_50,50,rng-50,1,rng,num-start-111,111,536,0.5683629512786865,True,,True,1,False,1000,True,1.0
./expes/v2_2020-11-23_di_50-prng-1,daily_issda_50,50,rng-50,11,rng,num-start-261,261,536,1.4871633052825928,True,,True,1,False,1000,True,1.0
./expes/v2_2020-11-23_di_50-prng-1,daily_issda_50,50,rng-50,1,rng,num-start-41,41,536,0.20073270797729492,True,,True,1,False,1000,True,1.0
./expes/v2_2020-11-23_di_50-prng-1,daily_issda_50,50,rng-50,41,rng,num-start-61,61,536,0.5270304679870605,True,,True,1,False,1000,True,1.0
./expes/v2_2020-11-23_di_50-prng-1,daily_issda_50,50,rng-50,31,rng,num-start-231,231,536,1.1597425937652588,True,,True,1,False,1000,True,1.0
./expes/v2_2020-11-23_di_50-prng-1,daily_issda_50,50,rng-50,31,rng,num-start-11,11,536,0.44715118408203125,True,,True,1,False,1000,True,1.0
./expes/v2_2020-11-23_di_50-prng-1,daily_issda_50,50,rng-50,21,rng,num-start-281,281,536,1.3900597095489502,True,,True,1,False,1000,True,1.0
./expes/v2_2020-11-23_di_50-prng-1,daily_issda_50,50,rng-50,11,rng,num-start-161,161,536,1.1790134906768799,True,,True,1,False,1000,True,1.0
./expes/v2_2020-11-23_di_50-prng-1,daily_issda_50,50,rng-50,21,rng,num-start-201,201,536,1.0130870342254639,True,,True,1,False,1000,True,1.0
./expes/v2_2020-11-23_di_50-prng-1,daily_issda_50,50,rng-50,11,rng,num-start-191,191,536,1.136444330215454,True,,True,1,False,1000,True,1.0
./expes/v2_2020-11-23_di_50-prng-1,daily_issda_50,50,rng-50,41,rng,num-start-21,21,536,0.17929935455322266,True,,True,1,False,1000,True,1.0
