expe,clients,clients_size,clients_subset,agg_size,method,days,days_size,days_total,time,valid,valid_sum,success,nsols,wall_hit,wall_time,pooled,valid_sums
./expes/v2_2020-11-23_di_50-prng-1,daily_issda_50,50,rng-50,1,rng,num-start-201,201,536,1.088932991027832,True,,True,1,False,1000,True,1.0
./expes/v2_2020-11-23_di_50-prng-1,daily_issda_50,50,rng-50,11,rng,num-start-111,111,536,0.6465225219726562,True,,True,1,False,1000,True,1.0
./expes/v2_2020-11-23_di_50-prng-1,daily_issda_50,50,rng-50,11,rng,num-start-141,141,536,0.8186333179473877,True,,True,1,False,1000,True,1.0
./expes/v2_2020-11-23_di_50-prng-1,daily_issda_50,50,rng-50,41,rng,num-start-91,91,536,0.5553936958312988,True,,True,1,False,1000,True,1.0
./expes/v2_2020-11-23_di_50-prng-1,daily_issda_50,50,rng-50,1,rng,num-start-151,151,536,0.7311134338378906,True,,True,1,False,1000,True,1.0
./expes/v2_2020-11-23_di_50-prng-1,daily_issda_50,50,rng-50,1,rng,num-start-251,251,536,1.293278694152832,True,,True,1,False,1000,True,1.0
./expes/v2_2020-11-23_di_50-prng-1,daily_issda_50,50,rng-50,11,rng,num-start-21,21,536,0.24353528022766113,True,,True,1,False,1000,True,1.0
./expes/v2_2020-11-23_di_50-prng-1,daily_issda_50,50,rng-50,1,rng,num-start-271,271,536,1.3151168823242188,True,,True,1,False,1000,True,1.0
./expes/v2_2020-11-23_di_50-prng-1,daily_issda_50,50,rng-50,11,rng,num-start-221,221,536,1.099776268005371,True,,True,1,False,1000,True,1.0
./expes/v2_2020-11-23_di_50-prng-1,daily_issda_50,50,rng-50,41,rng,num-start-241,241,536,1.3450250625610352,True,,True,1,False,1000,True,1.0
./expes/v2_2020-11-23_di_50-prng-1,daily_issda_50,50,rng-50,31,rng,num-start-141,141,536,0.8557643890380859,True,,True,1,False,1000,True,1.0
./expes/v2_2020-11-23_di_50-prng-1,daily_issda_50,50,rng-50,21,rng,num-start-31,31,536,0.24872398376464844,True,,True,1,False,1000,True,1.0
./expes/v2_2020-11-23_di_50-prng-1,daily_issda_50,50,rng-50,1,rng,num-start-141,141,536,0.6902163028717041,True,,True,1,False,1000,True,1.0
./expes/v2_2020-11-23_di_50-prng-1,daily_issda_50,50,rng-50,1,rng,num-start-161,161,536,0.8176617622375488,True,,True,1,False,1000,True,1.0
./expes/v2_2020-11-23_di_50-prng-1,daily_issda_50,50,rng-50,41,rng,num-start-61,61,536,0.38738298416137695,True,,True,1,False,1000,True,1.0
./expes/v2_2020-11-23_di_50-prng-1,daily_issda_50,50,rng-50,41,rng,num-start-41,41,536,0.30216193199157715,True,,True,1,False,1000,True,1.0
./expes/v2_2020-11-23_di_50-prng-1,daily_issda_50,50,rng-50,11,rng,num-start-31,31,536,0.248368501663208,True,,True,1,False,1000,True,1.0
./expes/v2_2020-11-23_di_50-prng-1,daily_issda_50,50,rng-50,11,rng,num-start-221,221,536,1.0983169078826904,True,,True,1,False,1000,True,1.0
./expes/v2_2020-11-23_di_50-prng-1,daily_issda_50,50,rng-50,31,rng,num-start-111,111,536,0.675626277923584,True,,True,1,False,1000,True,1.0
./expes/v2_2020-11-23_di_50-prng-1,daily_issda_50,50,rng-50,31,rng,num-start-71,71,536,0.4403235912322998,True,,True,1,False,1000,True,1.0
./expes/v2_2020-11-23_di_50-prng-1,daily_issda_50,50,rng-50,11,rng,num-start-181,181,536,1.0430355072021484,True,,True,1,False,1000,True,1.0
./expes/v2_2020-11-23_di_50-prng-1,daily_issda_50,50,rng-50,11,rng,num-start-251,251,536,1.249302625656128,True,,True,1,False,1000,True,1.0
./expes/v2_2020-11-23_di_50-prng-1,daily_issda_50,50,rng-50,11,rng,num-start-261,261,536,1.2948391437530518,True,,True,1,False,1000,True,1.0
./expes/v2_2020-11-23_di_50-prng-1,daily_issda_50,50,rng-50,31,rng,num-start-61,61,536,0.41982412338256836,True,,True,1,False,1000,True,1.0
./expes/v2_2020-11-23_di_50-prng-1,daily_issda_50,50,rng-50,11,rng,num-start-171,171,536,0.978614330291748,True,,True,1,False,1000,True,1.0
./expes/v2_2020-11-23_di_50-prng-1,daily_issda_50,50,rng-50,41,rng,num-start-171,171,536,0.9837822914123535,True,,True,1,False,1000,True,1.0
./expes/v2_2020-11-23_di_50-prng-1,daily_issda_50,50,rng-50,11,rng,num-start-151,151,536,0.8773419857025146,True,,True,1,False,1000,True,1.0
./expes/v2_2020-11-23_di_50-prng-1,daily_issda_50,50,rng-50,41,rng,num-start-151,151,536,0.8856616020202637,True,,True,1,False,1000,True,1.0
./expes/v2_2020-11-23_di_50-prng-1,daily_issda_50,50,rng-50,21,rng,num-start-291,291,536,1.4540634155273438,True,,True,1,False,1000,True,1.0
./expes/v2_2020-11-23_di_50-prng-1,daily_issda_50,50,rng-50,11,rng,num-start-271,271,536,1.3608124256134033,True,,True,1,False,1000,True,1.0
./expes/v2_2020-11-23_di_50-prng-1,daily_issda_50,50,rng-50,21,rng,num-start-91,91,536,0.5932106971740723,True,,True,1,False,1000,True,1.0
./expes/v2_2020-11-23_di_50-prng-1,daily_issda_50,50,rng-50,31,rng,num-start-261,261,536,1.3029372692108154,True,,True,1,False,1000,True,1.0
