expe,clients,clients_size,clients_subset,agg_size,method,days,days_size,days_total,time,valid,valid_sum,success,nsols,wall_hit,wall_time,pooled,valid_sums
./expes/v2_2020-11-09_3bh_150-prng-1,30_base_hphc_150,150,first-150,51,rng,num-start-451,451,17520,4.683192491531372,True,,True,1,False,1000,True,1.0
./expes/v2_2020-11-09_3bh_150-prng-1,30_base_hphc_150,150,first-150,141,rng,num-start-441,441,17520,3.624495506286621,True,,True,1,False,1000,True,1.0
./expes/v2_2020-11-09_3bh_150-prng-1,30_base_hphc_150,150,first-150,121,rng,num-start-81,81,17520,0.971930742263794,True,,True,1,False,1000,True,1.0
./expes/v2_2020-11-09_3bh_150-prng-1,30_base_hphc_150,150,first-150,1,rng,num-start-201,201,17520,1.4898216724395752,True,,True,1,False,1000,True,1.0
./expes/v2_2020-11-09_3bh_150-prng-1,30_base_hphc_150,150,first-150,101,rng,num-start-571,571,17520,5.521000146865845,True,,True,1,False,1000,True,1.0
./expes/v2_2020-11-09_3bh_150-prng-1,30_base_hphc_150,150,first-150,111,rng,num-start-921,921,17520,9.21299409866333,True,,True,1,False,1000,True,1.0
./expes/v2_2020-11-09_3bh_150-prng-1,30_base_hphc_150,150,first-150,91,rng,num-start-741,741,17520,7.797995567321777,True,,True,1,False,1000,True,1.0
./expes/v2_2020-11-09_3bh_150-prng-1,30_base_hphc_150,150,first-150,51,rng,num-start-991,991,17520,10.62079644203186,True,,True,1,False,1000,True,1.0
./expes/v2_2020-11-09_3bh_150-prng-1,30_base_hphc_150,150,first-150,61,rng,num-start-91,91,17520,0.9788122177124023,True,,True,1,False,1000,True,1.0
./expes/v2_2020-11-09_3bh_150-prng-1,30_base_hphc_150,150,first-150,31,rng,num-start-921,921,17520,9.63098430633545,True,,True,1,False,1000,True,1.0
./expes/v2_2020-11-09_3bh_150-prng-1,30_base_hphc_150,150,first-150,101,rng,num-start-381,381,17520,3.9469170570373535,True,,True,1,False,1000,True,1.0
./expes/v2_2020-11-09_3bh_150-prng-1,30_base_hphc_150,150,first-150,31,rng,num-start-451,451,17520,4.715357065200806,True,,True,1,False,1000,True,1.0
./expes/v2_2020-11-09_3bh_150-prng-1,30_base_hphc_150,150,first-150,101,rng,num-start-431,431,17520,4.048625707626343,True,,True,1,False,1000,True,1.0
./expes/v2_2020-11-09_3bh_150-prng-1,30_base_hphc_150,150,first-150,71,rng,num-start-221,221,17520,2.431126356124878,True,,True,1,False,1000,True,1.0
./expes/v2_2020-11-09_3bh_150-prng-1,30_base_hphc_150,150,first-150,31,rng,num-start-701,701,17520,7.524749279022217,True,,True,1,False,1000,True,1.0
./expes/v2_2020-11-09_3bh_150-prng-1,30_base_hphc_150,150,first-150,31,rng,num-start-811,811,17520,9.094952583312988,True,,True,1,False,1000,True,1.0
./expes/v2_2020-11-09_3bh_150-prng-1,30_base_hphc_150,150,first-150,81,rng,num-start-951,951,17520,10.06667709350586,True,,True,1,False,1000,True,1.0
./expes/v2_2020-11-09_3bh_150-prng-1,30_base_hphc_150,150,first-150,51,rng,num-start-421,421,17520,4.386779069900513,True,,True,1,False,1000,True,1.0
./expes/v2_2020-11-09_3bh_150-prng-1,30_base_hphc_150,150,first-150,41,rng,num-start-161,161,17520,1.85386323928833,True,,True,1,False,1000,True,1.0
./expes/v2_2020-11-09_3bh_150-prng-1,30_base_hphc_150,150,first-150,121,rng,num-start-591,591,17520,6.714390277862549,True,,True,1,False,1000,True,1.0
./expes/v2_2020-11-09_3bh_150-prng-1,30_base_hphc_150,150,first-150,41,rng,num-start-281,281,17520,3.8308703899383545,True,,True,1,False,1000,True,1.0
./expes/v2_2020-11-09_3bh_150-prng-1,30_base_hphc_150,150,first-150,61,rng,num-start-251,251,17520,2.9937450885772705,True,,True,1,False,1000,True,1.0
./expes/v2_2020-11-09_3bh_150-prng-1,30_base_hphc_150,150,first-150,131,rng,num-start-911,911,17520,10.491997718811035,True,,True,1,False,1000,True,1.0
./expes/v2_2020-11-09_3bh_150-prng-1,30_base_hphc_150,150,first-150,71,rng,num-start-951,951,17520,10.76629114151001,True,,True,1,False,1000,True,1.0
./expes/v2_2020-11-09_3bh_150-prng-1,30_base_hphc_150,150,first-150,11,rng,num-start-901,901,17520,8.059651374816895,True,,True,1,False,1000,True,1.0
./expes/v2_2020-11-09_3bh_150-prng-1,30_base_hphc_150,150,first-150,131,rng,num-start-431,431,17520,4.737881183624268,True,,True,1,False,1000,True,1.0
./expes/v2_2020-11-09_3bh_150-prng-1,30_base_hphc_150,150,first-150,11,rng,num-start-561,561,17520,5.6653361320495605,True,,True,1,False,1000,True,1.0
./expes/v2_2020-11-09_3bh_150-prng-1,30_base_hphc_150,150,first-150,111,rng,num-start-581,581,17520,6.3164756298065186,True,,True,1,False,1000,True,1.0
./expes/v2_2020-11-09_3bh_150-prng-1,30_base_hphc_150,150,first-150,61,rng,num-start-201,201,17520,2.3456478118896484,True,,True,1,False,1000,True,1.0
./expes/v2_2020-11-09_3bh_150-prng-1,30_base_hphc_150,150,first-150,61,rng,num-start-651,651,17520,6.837467193603516,True,,True,1,False,1000,True,1.0
./expes/v2_2020-11-09_3bh_150-prng-1,30_base_hphc_150,150,first-150,81,rng,num-start-421,421,17520,4.6446921825408936,True,,True,1,False,1000,True,1.0
./expes/v2_2020-11-09_3bh_150-prng-1,30_base_hphc_150,150,first-150,121,rng,num-start-301,301,17520,3.569049596786499,True,,True,1,False,1000,True,1.0
./expes/v2_2020-11-09_3bh_150-prng-1,30_base_hphc_150,150,first-150,111,rng,num-start-501,501,17520,5.135004043579102,True,,True,1,False,1000,True,1.0
./expes/v2_2020-11-09_3bh_150-prng-1,30_base_hphc_150,150,first-150,61,rng,num-start-491,491,17520,5.1843812465667725,True,,True,1,False,1000,True,1.0
./expes/v2_2020-11-09_3bh_150-prng-1,30_base_hphc_150,150,first-150,141,rng,num-start-51,51,17520,0.7170889377593994,True,,True,1,False,1000,True,1.0
./expes/v2_2020-11-09_3bh_150-prng-1,30_base_hphc_150,150,first-150,141,rng,num-start-291,291,17520,3.0903894901275635,True,,True,1,False,1000,True,1.0
./expes/v2_2020-11-09_3bh_150-prng-1,30_base_hphc_150,150,first-150,41,rng,num-start-911,911,17520,11.103678464889526,True,,True,1,False,1000,True,1.0
./expes/v2_2020-11-09_3bh_150-prng-1,30_base_hphc_150,150,first-150,21,rng,num-start-421,421,17520,5.1299889087677,True,,True,1,False,1000,True,1.0
./expes/v2_2020-11-09_3bh_150-prng-1,30_base_hphc_150,150,first-150,61,rng,num-start-591,591,17520,6.791597843170166,True,,True,1,False,1000,True,1.0
./expes/v2_2020-11-09_3bh_150-prng-1,30_base_hphc_150,150,first-150,131,rng,num-start-221,221,17520,2.494166374206543,True,,True,1,False,1000,True,1.0
./expes/v2_2020-11-09_3bh_150-prng-1,30_base_hphc_150,150,first-150,131,rng,num-start-341,341,17520,4.003919363021851,True,,True,1,False,1000,True,1.0
./expes/v2_2020-11-09_3bh_150-prng-1,30_base_hphc_150,150,first-150,61,rng,num-start-411,411,17520,4.9965903759002686,True,,True,1,False,1000,True,1.0
./expes/v2_2020-11-09_3bh_150-prng-1,30_base_hphc_150,150,first-150,121,rng,num-start-521,521,17520,5.90608549118042,True,,True,1,False,1000,True,1.0
./expes/v2_2020-11-09_3bh_150-prng-1,30_base_hphc_150,150,first-150,41,rng,num-start-421,421,17520,5.3153769969940186,True,,True,1,False,1000,True,1.0
./expes/v2_2020-11-09_3bh_150-prng-1,30_base_hphc_150,150,first-150,41,rng,num-start-391,391,17520,5.325930595397949,True,,True,1,False,1000,True,1.0
./expes/v2_2020-11-09_3bh_150-prng-1,30_base_hphc_150,150,first-150,31,rng,num-start-561,561,17520,6.750523328781128,True,,True,1,False,1000,True,1.0
./expes/v2_2020-11-09_3bh_150-prng-1,30_base_hphc_150,150,first-150,81,rng,num-start-31,31,17520,1000.3900771141052,False,,False,0,True,1000,True,0.0
./expes/v2_2020-11-09_3bh_150-prng-1,30_base_hphc_150,150,first-150,91,rng,num-start-831,831,17520,10.02347445487976,True,,True,1,False,1000,True,1.0
./expes/v2_2020-11-09_3bh_150-prng-1,30_base_hphc_150,150,first-150,11,rng,num-start-441,441,17520,5.834422588348389,True,,True,1,False,1000,True,1.0
./expes/v2_2020-11-09_3bh_150-prng-1,30_base_hphc_150,150,first-150,61,rng,num-start-131,131,17520,1.845151662826538,True,,True,1,False,1000,True,1.0
./expes/v2_2020-11-09_3bh_150-prng-1,30_base_hphc_150,150,first-150,11,rng,num-start-131,131,17520,1.8886077404022217,True,,True,1,False,1000,True,1.0
./expes/v2_2020-11-09_3bh_150-prng-1,30_base_hphc_150,150,first-150,141,rng,num-start-761,761,17520,7.966001749038696,True,,True,1,False,1000,True,1.0
./expes/v2_2020-11-09_3bh_150-prng-1,30_base_hphc_150,150,first-150,41,rng,num-start-111,111,17520,1.7285261154174805,True,,True,1,False,1000,True,1.0
./expes/v2_2020-11-09_3bh_150-prng-1,30_base_hphc_150,150,first-150,111,rng,num-start-171,171,17520,2.2566161155700684,True,,True,1,False,1000,True,1.0
./expes/v2_2020-11-09_3bh_150-prng-1,30_base_hphc_150,150,first-150,1,rng,num-start-251,251,17520,2.341925621032715,True,,True,1,False,1000,True,1.0
./expes/v2_2020-11-09_3bh_150-prng-1,30_base_hphc_150,150,first-150,31,rng,num-start-511,511,17520,6.373234033584595,True,,True,1,False,1000,True,1.0
./expes/v2_2020-11-09_3bh_150-prng-1,30_base_hphc_150,150,first-150,141,rng,num-start-271,271,17520,3.2156875133514404,True,,True,1,False,1000,True,1.0
./expes/v2_2020-11-09_3bh_150-prng-1,30_base_hphc_150,150,first-150,51,rng,num-start-651,651,17520,7.809822082519531,True,,True,1,False,1000,True,1.0
./expes/v2_2020-11-09_3bh_150-prng-1,30_base_hphc_150,150,first-150,141,rng,num-start-341,341,17520,3.716587543487549,True,,True,1,False,1000,True,1.0
./expes/v2_2020-11-09_3bh_150-prng-1,30_base_hphc_150,150,first-150,81,rng,num-start-1,1,17520,0.016558170318603516,False,,False,2,False,1000,True,1.0
./expes/v2_2020-11-09_3bh_150-prng-1,30_base_hphc_150,150,first-150,51,rng,num-start-771,771,17520,9.538155794143677,True,,True,1,False,1000,True,1.0
./expes/v2_2020-11-09_3bh_150-prng-1,30_base_hphc_150,150,first-150,101,rng,num-start-731,731,17520,8.801061868667603,True,,True,1,False,1000,True,1.0
./expes/v2_2020-11-09_3bh_150-prng-1,30_base_hphc_150,150,first-150,21,rng,num-start-411,411,17520,4.695106744766235,True,,True,1,False,1000,True,1.0
./expes/v2_2020-11-09_3bh_150-prng-1,30_base_hphc_150,150,first-150,81,rng,num-start-461,461,17520,5.714014768600464,True,,True,1,False,1000,True,1.0
./expes/v2_2020-11-09_3bh_150-prng-1,30_base_hphc_150,150,first-150,21,rng,num-start-531,531,17520,6.053258895874023,True,,True,1,False,1000,True,1.0
./expes/v2_2020-11-09_3bh_150-prng-1,30_base_hphc_150,150,first-150,81,rng,num-start-371,371,17520,4.6689300537109375,True,,True,1,False,1000,True,1.0
./expes/v2_2020-11-09_3bh_150-prng-1,30_base_hphc_150,150,first-150,11,rng,num-start-171,171,17520,2.7925660610198975,True,,True,1,False,1000,True,1.0
./expes/v2_2020-11-09_3bh_150-prng-1,30_base_hphc_150,150,first-150,81,rng,num-start-871,871,17520,10.791273832321167,True,,True,1,False,1000,True,1.0
./expes/v2_2020-11-09_3bh_150-prng-1,30_base_hphc_150,150,first-150,111,rng,num-start-341,341,17520,3.970324754714966,True,,True,1,False,1000,True,1.0
./expes/v2_2020-11-09_3bh_150-prng-1,30_base_hphc_150,150,first-150,21,rng,num-start-51,51,17520,0.6914396286010742,True,,True,1,False,1000,True,1.0
./expes/v2_2020-11-09_3bh_150-prng-1,30_base_hphc_150,150,first-150,21,rng,num-start-911,911,17520,12.374825239181519,True,,True,1,False,1000,True,1.0
./expes/v2_2020-11-09_3bh_150-prng-1,30_base_hphc_150,150,first-150,71,rng,num-start-251,251,17520,3.306922435760498,True,,True,1,False,1000,True,1.0
./expes/v2_2020-11-09_3bh_150-prng-1,30_base_hphc_150,150,first-150,61,rng,num-start-161,161,17520,2.0419280529022217,True,,True,1,False,1000,True,1.0
./expes/v2_2020-11-09_3bh_150-prng-1,30_base_hphc_150,150,first-150,61,rng,num-start-751,751,17520,8.367350339889526,True,,True,1,False,1000,True,1.0
./expes/v2_2020-11-09_3bh_150-prng-1,30_base_hphc_150,150,first-150,101,rng,num-start-621,621,17520,6.972156286239624,True,,True,1,False,1000,True,1.0
./expes/v2_2020-11-09_3bh_150-prng-1,30_base_hphc_150,150,first-150,101,rng,num-start-571,571,17520,8.001809120178223,True,,True,1,False,1000,True,1.0
./expes/v2_2020-11-09_3bh_150-prng-1,30_base_hphc_150,150,first-150,61,rng,num-start-601,601,17520,7.464285850524902,True,,True,1,False,1000,True,1.0
./expes/v2_2020-11-09_3bh_150-prng-1,30_base_hphc_150,150,first-150,111,rng,num-start-911,911,17520,10.566027402877808,True,,True,1,False,1000,True,1.0
./expes/v2_2020-11-09_3bh_150-prng-1,30_base_hphc_150,150,first-150,111,rng,num-start-1,1,17520,0.01713252067565918,False,,False,2,False,1000,True,1.0
./expes/v2_2020-11-09_3bh_150-prng-1,30_base_hphc_150,150,first-150,31,rng,num-start-251,251,17520,2.9328207969665527,True,,True,1,False,1000,True,1.0
./expes/v2_2020-11-09_3bh_150-prng-1,30_base_hphc_150,150,first-150,141,rng,num-start-551,551,17520,5.855116128921509,True,,True,1,False,1000,True,1.0
./expes/v2_2020-11-09_3bh_150-prng-1,30_base_hphc_150,150,first-150,111,rng,num-start-591,591,17520,6.967790126800537,True,,True,1,False,1000,True,1.0
./expes/v2_2020-11-09_3bh_150-prng-1,30_base_hphc_150,150,first-150,41,rng,num-start-621,621,17520,6.980010509490967,True,,True,1,False,1000,True,1.0
./expes/v2_2020-11-09_3bh_150-prng-1,30_base_hphc_150,150,first-150,71,rng,num-start-771,771,17520,10.484358787536621,True,,True,1,False,1000,True,1.0
./expes/v2_2020-11-09_3bh_150-prng-1,30_base_hphc_150,150,first-150,11,rng,num-start-411,411,17520,5.13833475112915,True,,True,1,False,1000,True,1.0
./expes/v2_2020-11-09_3bh_150-prng-1,30_base_hphc_150,150,first-150,141,rng,num-start-981,981,17520,10.272572040557861,True,,True,1,False,1000,True,1.0
./expes/v2_2020-11-09_3bh_150-prng-1,30_base_hphc_150,150,first-150,121,rng,num-start-841,841,17520,11.07950758934021,True,,True,1,False,1000,True,1.0
./expes/v2_2020-11-09_3bh_150-prng-1,30_base_hphc_150,150,first-150,111,rng,num-start-931,931,17520,13.785773992538452,True,,True,1,False,1000,True,1.0
./expes/v2_2020-11-09_3bh_150-prng-1,30_base_hphc_150,150,first-150,141,rng,num-start-71,71,17520,0.9153933525085449,True,,True,1,False,1000,True,1.0
./expes/v2_2020-11-09_3bh_150-prng-1,30_base_hphc_150,150,first-150,41,rng,num-start-791,791,17520,9.60533618927002,True,,True,1,False,1000,True,1.0
./expes/v2_2020-11-09_3bh_150-prng-1,30_base_hphc_150,150,first-150,91,rng,num-start-821,821,17520,10.95735216140747,True,,True,1,False,1000,True,1.0
./expes/v2_2020-11-09_3bh_150-prng-1,30_base_hphc_150,150,first-150,91,rng,num-start-91,91,17520,1.382969856262207,True,,True,1,False,1000,True,1.0
./expes/v2_2020-11-09_3bh_150-prng-1,30_base_hphc_150,150,first-150,71,rng,num-start-111,111,17520,1.6684770584106445,True,,True,1,False,1000,True,1.0
./expes/v2_2020-11-09_3bh_150-prng-1,30_base_hphc_150,150,first-150,21,rng,num-start-831,831,17520,12.003623247146606,True,,True,1,False,1000,True,1.0
./expes/v2_2020-11-09_3bh_150-prng-1,30_base_hphc_150,150,first-150,111,rng,num-start-521,521,17520,6.186485528945923,True,,True,1,False,1000,True,1.0
./expes/v2_2020-11-09_3bh_150-prng-1,30_base_hphc_150,150,first-150,71,rng,num-start-471,471,17520,5.896684885025024,True,,True,1,False,1000,True,1.0
./expes/v2_2020-11-09_3bh_150-prng-1,30_base_hphc_150,150,first-150,111,rng,num-start-981,981,17520,10.750994443893433,True,,True,1,False,1000,True,1.0
./expes/v2_2020-11-09_3bh_150-prng-1,30_base_hphc_150,150,first-150,91,rng,num-start-261,261,17520,3.1737282276153564,True,,True,1,False,1000,True,1.0
./expes/v2_2020-11-09_3bh_150-prng-1,30_base_hphc_150,150,first-150,41,rng,num-start-441,441,17520,5.524461507797241,True,,True,1,False,1000,True,1.0
./expes/v2_2020-11-09_3bh_150-prng-1,30_base_hphc_150,150,first-150,101,rng,num-start-191,191,17520,2.66450572013855,True,,True,1,False,1000,True,1.0
./expes/v2_2020-11-09_3bh_150-prng-1,30_base_hphc_150,150,first-150,31,rng,num-start-631,631,17520,7.590022802352905,True,,True,1,False,1000,True,1.0
./expes/v2_2020-11-09_3bh_150-prng-1,30_base_hphc_150,150,first-150,61,rng,num-start-851,851,17520,10.413754224777222,True,,True,1,False,1000,True,1.0
./expes/v2_2020-11-09_3bh_150-prng-1,30_base_hphc_150,150,first-150,101,rng,num-start-91,91,17520,1.2480578422546387,True,,True,1,False,1000,True,1.0
./expes/v2_2020-11-09_3bh_150-prng-1,30_base_hphc_150,150,first-150,121,rng,num-start-101,101,17520,1.3258869647979736,True,,True,1,False,1000,True,1.0
./expes/v2_2020-11-09_3bh_150-prng-1,30_base_hphc_150,150,first-150,121,rng,num-start-551,551,17520,7.075401306152344,True,,True,1,False,1000,True,1.0
./expes/v2_2020-11-09_3bh_150-prng-1,30_base_hphc_150,150,first-150,91,rng,num-start-691,691,17520,8.221177101135254,True,,True,1,False,1000,True,1.0
./expes/v2_2020-11-09_3bh_150-prng-1,30_base_hphc_150,150,first-150,101,rng,num-start-911,911,17520,12.327723264694214,True,,True,1,False,1000,True,1.0
./expes/v2_2020-11-09_3bh_150-prng-1,30_base_hphc_150,150,first-150,101,rng,num-start-881,881,17520,11.974760293960571,True,,True,1,False,1000,True,1.0
./expes/v2_2020-11-09_3bh_150-prng-1,30_base_hphc_150,150,first-150,91,rng,num-start-451,451,17520,5.8006885051727295,True,,True,1,False,1000,True,1.0
./expes/v2_2020-11-09_3bh_150-prng-1,30_base_hphc_150,150,first-150,101,rng,num-start-671,671,17520,7.642890930175781,True,,True,1,False,1000,True,1.0
./expes/v2_2020-11-09_3bh_150-prng-1,30_base_hphc_150,150,first-150,31,rng,num-start-471,471,17520,5.430435657501221,True,,True,1,False,1000,True,1.0
./expes/v2_2020-11-09_3bh_150-prng-1,30_base_hphc_150,150,first-150,131,rng,num-start-531,531,17520,6.632966756820679,True,,True,1,False,1000,True,1.0
./expes/v2_2020-11-09_3bh_150-prng-1,30_base_hphc_150,150,first-150,51,rng,num-start-351,351,17520,4.658371448516846,True,,True,1,False,1000,True,1.0
./expes/v2_2020-11-09_3bh_150-prng-1,30_base_hphc_150,150,first-150,11,rng,num-start-301,301,17520,3.7557215690612793,True,,True,1,False,1000,True,1.0
./expes/v2_2020-11-09_3bh_150-prng-1,30_base_hphc_150,150,first-150,31,rng,num-start-711,711,17520,9.096994638442993,True,,True,1,False,1000,True,1.0
./expes/v2_2020-11-09_3bh_150-prng-1,30_base_hphc_150,150,first-150,71,rng,num-start-441,441,17520,5.697403192520142,True,,True,1,False,1000,True,1.0
./expes/v2_2020-11-09_3bh_150-prng-1,30_base_hphc_150,150,first-150,31,rng,num-start-221,221,17520,2.9546587467193604,True,,True,1,False,1000,True,1.0
./expes/v2_2020-11-09_3bh_150-prng-1,30_base_hphc_150,150,first-150,101,rng,num-start-531,531,17520,5.940858840942383,True,,True,1,False,1000,True,1.0
./expes/v2_2020-11-09_3bh_150-prng-1,30_base_hphc_150,150,first-150,111,rng,num-start-601,601,17520,6.885537147521973,True,,True,1,False,1000,True,1.0
./expes/v2_2020-11-09_3bh_150-prng-1,30_base_hphc_150,150,first-150,1,rng,num-start-711,711,17520,6.729084491729736,True,,True,1,False,1000,True,1.0
./expes/v2_2020-11-09_3bh_150-prng-1,30_base_hphc_150,150,first-150,51,rng,num-start-201,201,17520,2.5861616134643555,True,,True,1,False,1000,True,1.0
./expes/v2_2020-11-09_3bh_150-prng-1,30_base_hphc_150,150,first-150,11,rng,num-start-1,1,17520,0.017637014389038086,False,,False,2,False,1000,True,1.0
./expes/v2_2020-11-09_3bh_150-prng-1,30_base_hphc_150,150,first-150,1,rng,num-start-171,171,17520,1.7236521244049072,True,,True,1,False,1000,True,1.0
./expes/v2_2020-11-09_3bh_150-prng-1,30_base_hphc_150,150,first-150,41,rng,num-start-381,381,17520,5.353620529174805,True,,True,1,False,1000,True,1.0
./expes/v2_2020-11-09_3bh_150-prng-1,30_base_hphc_150,150,first-150,141,rng,num-start-681,681,17520,7.128593921661377,True,,True,1,False,1000,True,1.0
./expes/v2_2020-11-09_3bh_150-prng-1,30_base_hphc_150,150,first-150,81,rng,num-start-971,971,17520,12.463215589523315,True,,True,1,False,1000,True,1.0
./expes/v2_2020-11-09_3bh_150-prng-1,30_base_hphc_150,150,first-150,1,rng,num-start-31,31,17520,0.309765100479126,True,,True,1,False,1000,True,1.0
./expes/v2_2020-11-09_3bh_150-prng-1,30_base_hphc_150,150,first-150,1,rng,num-start-861,861,17520,8.606596231460571,True,,True,1,False,1000,True,1.0
./expes/v2_2020-11-09_3bh_150-prng-1,30_base_hphc_150,150,first-150,91,rng,num-start-651,651,17520,8.398572206497192,True,,True,1,False,1000,True,1.0
./expes/v2_2020-11-09_3bh_150-prng-1,30_base_hphc_150,150,first-150,131,rng,num-start-671,671,17520,8.30530834197998,True,,True,1,False,1000,True,1.0
./expes/v2_2020-11-09_3bh_150-prng-1,30_base_hphc_150,150,first-150,101,rng,num-start-991,991,17520,12.510929107666016,True,,True,1,False,1000,True,1.0
./expes/v2_2020-11-09_3bh_150-prng-1,30_base_hphc_150,150,first-150,41,rng,num-start-141,141,17520,1.860203742980957,True,,True,1,False,1000,True,1.0
./expes/v2_2020-11-09_3bh_150-prng-1,30_base_hphc_150,150,first-150,21,rng,num-start-391,391,17520,4.800725936889648,True,,True,1,False,1000,True,1.0
./expes/v2_2020-11-09_3bh_150-prng-1,30_base_hphc_150,150,first-150,1,rng,num-start-601,601,17520,5.63782262802124,True,,True,1,False,1000,True,1.0
./expes/v2_2020-11-09_3bh_150-prng-1,30_base_hphc_150,150,first-150,41,rng,num-start-471,471,17520,5.999195575714111,True,,True,1,False,1000,True,1.0
./expes/v2_2020-11-09_3bh_150-prng-1,30_base_hphc_150,150,first-150,21,rng,num-start-191,191,17520,2.3570027351379395,True,,True,1,False,1000,True,1.0
./expes/v2_2020-11-09_3bh_150-prng-1,30_base_hphc_150,150,first-150,141,rng,num-start-851,851,17520,7.915623188018799,True,,True,1,False,1000,True,1.0
./expes/v2_2020-11-09_3bh_150-prng-1,30_base_hphc_150,150,first-150,41,rng,num-start-711,711,17520,9.589373350143433,True,,True,1,False,1000,True,1.0
./expes/v2_2020-11-09_3bh_150-prng-1,30_base_hphc_150,150,first-150,51,rng,num-start-201,201,17520,2.3991942405700684,True,,True,1,False,1000,True,1.0
./expes/v2_2020-11-09_3bh_150-prng-1,30_base_hphc_150,150,first-150,11,rng,num-start-361,361,17520,4.290440797805786,True,,True,1,False,1000,True,1.0
./expes/v2_2020-11-09_3bh_150-prng-1,30_base_hphc_150,150,first-150,71,rng,num-start-961,961,17520,11.363008975982666,True,,True,1,False,1000,True,1.0
./expes/v2_2020-11-09_3bh_150-prng-1,30_base_hphc_150,150,first-150,131,rng,num-start-241,241,17520,3.182990789413452,True,,True,1,False,1000,True,1.0
./expes/v2_2020-11-09_3bh_150-prng-1,30_base_hphc_150,150,first-150,41,rng,num-start-131,131,17520,1.6471443176269531,True,,True,1,False,1000,True,1.0
./expes/v2_2020-11-09_3bh_150-prng-1,30_base_hphc_150,150,first-150,91,rng,num-start-671,671,17520,7.652819871902466,True,,True,1,False,1000,True,1.0
./expes/v2_2020-11-09_3bh_150-prng-1,30_base_hphc_150,150,first-150,61,rng,num-start-861,861,17520,11.441915035247803,True,,True,1,False,1000,True,1.0
./expes/v2_2020-11-09_3bh_150-prng-1,30_base_hphc_150,150,first-150,101,rng,num-start-561,561,17520,7.385331153869629,True,,True,1,False,1000,True,1.0
./expes/v2_2020-11-09_3bh_150-prng-1,30_base_hphc_150,150,first-150,41,rng,num-start-531,531,17520,6.6560752391815186,True,,True,1,False,1000,True,1.0
./expes/v2_2020-11-09_3bh_150-prng-1,30_base_hphc_150,150,first-150,31,rng,num-start-11,11,17520,1001.1614108085632,False,,False,0,True,1000,True,0.0
./expes/v2_2020-11-09_3bh_150-prng-1,30_base_hphc_150,150,first-150,111,rng,num-start-431,431,17520,4.886996507644653,True,,True,1,False,1000,True,1.0
./expes/v2_2020-11-09_3bh_150-prng-1,30_base_hphc_150,150,first-150,81,rng,num-start-721,721,17520,8.955683708190918,True,,True,1,False,1000,True,1.0
./expes/v2_2020-11-09_3bh_150-prng-1,30_base_hphc_150,150,first-150,41,rng,num-start-551,551,17520,6.845371723175049,True,,True,1,False,1000,True,1.0
./expes/v2_2020-11-09_3bh_150-prng-1,30_base_hphc_150,150,first-150,111,rng,num-start-461,461,17520,5.873579978942871,True,,True,1,False,1000,True,1.0
./expes/v2_2020-11-09_3bh_150-prng-1,30_base_hphc_150,150,first-150,101,rng,num-start-941,941,17520,12.269830465316772,True,,True,1,False,1000,True,1.0
./expes/v2_2020-11-09_3bh_150-prng-1,30_base_hphc_150,150,first-150,141,rng,num-start-81,81,17520,1.2764651775360107,True,,True,1,False,1000,True,1.0
./expes/v2_2020-11-09_3bh_150-prng-1,30_base_hphc_150,150,first-150,31,rng,num-start-311,311,17520,3.745162010192871,True,,True,1,False,1000,True,1.0
./expes/v2_2020-11-09_3bh_150-prng-1,30_base_hphc_150,150,first-150,51,rng,num-start-111,111,17520,1.458829641342163,True,,True,1,False,1000,True,1.0
./expes/v2_2020-11-09_3bh_150-prng-1,30_base_hphc_150,150,first-150,71,rng,num-start-271,271,17520,3.722379684448242,True,,True,1,False,1000,True,1.0
./expes/v2_2020-11-09_3bh_150-prng-1,30_base_hphc_150,150,first-150,121,rng,num-start-601,601,17520,6.412919044494629,True,,True,1,False,1000,True,1.0
./expes/v2_2020-11-09_3bh_150-prng-1,30_base_hphc_150,150,first-150,111,rng,num-start-311,311,17520,4.0038063526153564,True,,True,1,False,1000,True,1.0
./expes/v2_2020-11-09_3bh_150-prng-1,30_base_hphc_150,150,first-150,141,rng,num-start-381,381,17520,4.00574254989624,True,,True,1,False,1000,True,1.0
./expes/v2_2020-11-09_3bh_150-prng-1,30_base_hphc_150,150,first-150,31,rng,num-start-571,571,17520,6.502395868301392,True,,True,1,False,1000,True,1.0
./expes/v2_2020-11-09_3bh_150-prng-1,30_base_hphc_150,150,first-150,51,rng,num-start-881,881,17520,10.088465452194214,True,,True,1,False,1000,True,1.0
./expes/v2_2020-11-09_3bh_150-prng-1,30_base_hphc_150,150,first-150,101,rng,num-start-861,861,17520,9.426182985305786,True,,True,1,False,1000,True,1.0
./expes/v2_2020-11-09_3bh_150-prng-1,30_base_hphc_150,150,first-150,101,rng,num-start-91,91,17520,1.3081505298614502,True,,True,1,False,1000,True,1.0
./expes/v2_2020-11-09_3bh_150-prng-1,30_base_hphc_150,150,first-150,11,rng,num-start-701,701,17520,7.145287990570068,True,,True,1,False,1000,True,1.0
./expes/v2_2020-11-09_3bh_150-prng-1,30_base_hphc_150,150,first-150,11,rng,num-start-401,401,17520,4.497435569763184,True,,True,1,False,1000,True,1.0
./expes/v2_2020-11-09_3bh_150-prng-1,30_base_hphc_150,150,first-150,131,rng,num-start-151,151,17520,1.6842527389526367,True,,True,1,False,1000,True,1.0
./expes/v2_2020-11-09_3bh_150-prng-1,30_base_hphc_150,150,first-150,121,rng,num-start-591,591,17520,6.5040199756622314,True,,True,1,False,1000,True,1.0
./expes/v2_2020-11-09_3bh_150-prng-1,30_base_hphc_150,150,first-150,21,rng,num-start-151,151,17520,1.8801639080047607,True,,True,1,False,1000,True,1.0
./expes/v2_2020-11-09_3bh_150-prng-1,30_base_hphc_150,150,first-150,131,rng,num-start-831,831,17520,9.353244304656982,True,,True,1,False,1000,True,1.0
./expes/v2_2020-11-09_3bh_150-prng-1,30_base_hphc_150,150,first-150,31,rng,num-start-401,401,17520,4.728398323059082,True,,True,1,False,1000,True,1.0
./expes/v2_2020-11-09_3bh_150-prng-1,30_base_hphc_150,150,first-150,71,rng,num-start-371,371,17520,4.301965713500977,True,,True,1,False,1000,True,1.0
./expes/v2_2020-11-09_3bh_150-prng-1,30_base_hphc_150,150,first-150,101,rng,num-start-301,301,17520,3.6094603538513184,True,,True,1,False,1000,True,1.0
./expes/v2_2020-11-09_3bh_150-prng-1,30_base_hphc_150,150,first-150,51,rng,num-start-531,531,17520,5.86141562461853,True,,True,1,False,1000,True,1.0
./expes/v2_2020-11-09_3bh_150-prng-1,30_base_hphc_150,150,first-150,41,rng,num-start-721,721,17520,8.01786470413208,True,,True,1,False,1000,True,1.0
./expes/v2_2020-11-09_3bh_150-prng-1,30_base_hphc_150,150,first-150,111,rng,num-start-481,481,17520,5.052432060241699,True,,True,1,False,1000,True,1.0
./expes/v2_2020-11-09_3bh_150-prng-1,30_base_hphc_150,150,first-150,41,rng,num-start-361,361,17520,4.551172494888306,True,,True,1,False,1000,True,1.0
./expes/v2_2020-11-09_3bh_150-prng-1,30_base_hphc_150,150,first-150,101,rng,num-start-321,321,17520,3.749906301498413,True,,True,1,False,1000,True,1.0
./expes/v2_2020-11-09_3bh_150-prng-1,30_base_hphc_150,150,first-150,81,rng,num-start-591,591,17520,6.9666876792907715,True,,True,1,False,1000,True,1.0
./expes/v2_2020-11-09_3bh_150-prng-1,30_base_hphc_150,150,first-150,1,rng,num-start-891,891,17520,7.913654088973999,True,,True,1,False,1000,True,1.0
./expes/v2_2020-11-09_3bh_150-prng-1,30_base_hphc_150,150,first-150,131,rng,num-start-191,191,17520,2.1435537338256836,True,,True,1,False,1000,True,1.0
./expes/v2_2020-11-09_3bh_150-prng-1,30_base_hphc_150,150,first-150,91,rng,num-start-231,231,17520,3.0758938789367676,True,,True,1,False,1000,True,1.0
./expes/v2_2020-11-09_3bh_150-prng-1,30_base_hphc_150,150,first-150,1,rng,num-start-161,161,17520,1.4532544612884521,True,,True,1,False,1000,True,1.0
./expes/v2_2020-11-09_3bh_150-prng-1,30_base_hphc_150,150,first-150,91,rng,num-start-821,821,17520,9.193060636520386,True,,True,1,False,1000,True,1.0
./expes/v2_2020-11-09_3bh_150-prng-1,30_base_hphc_150,150,first-150,91,rng,num-start-471,471,17520,5.390310049057007,True,,True,1,False,1000,True,1.0
./expes/v2_2020-11-09_3bh_150-prng-1,30_base_hphc_150,150,first-150,31,rng,num-start-751,751,17520,8.724166631698608,True,,True,1,False,1000,True,1.0
./expes/v2_2020-11-09_3bh_150-prng-1,30_base_hphc_150,150,first-150,71,rng,num-start-591,591,17520,6.640510559082031,True,,True,1,False,1000,True,1.0
./expes/v2_2020-11-09_3bh_150-prng-1,30_base_hphc_150,150,first-150,51,rng,num-start-951,951,17520,12.217452764511108,True,,True,1,False,1000,True,1.0
./expes/v2_2020-11-09_3bh_150-prng-1,30_base_hphc_150,150,first-150,91,rng,num-start-221,221,17520,2.7248480319976807,True,,True,1,False,1000,True,1.0
./expes/v2_2020-11-09_3bh_150-prng-1,30_base_hphc_150,150,first-150,11,rng,num-start-561,561,17520,6.166971206665039,True,,True,1,False,1000,True,1.0
./expes/v2_2020-11-09_3bh_150-prng-1,30_base_hphc_150,150,first-150,71,rng,num-start-421,421,17520,4.860772132873535,True,,True,1,False,1000,True,1.0
./expes/v2_2020-11-09_3bh_150-prng-1,30_base_hphc_150,150,first-150,51,rng,num-start-411,411,17520,5.382789373397827,True,,True,1,False,1000,True,1.0
./expes/v2_2020-11-09_3bh_150-prng-1,30_base_hphc_150,150,first-150,131,rng,num-start-331,331,17520,3.7442896366119385,True,,True,1,False,1000,True,1.0
./expes/v2_2020-11-09_3bh_150-prng-1,30_base_hphc_150,150,first-150,21,rng,num-start-841,841,17520,9.928357601165771,True,,True,1,False,1000,True,1.0
./expes/v2_2020-11-09_3bh_150-prng-1,30_base_hphc_150,150,first-150,111,rng,num-start-811,811,17520,10.44159460067749,True,,True,1,False,1000,True,1.0
./expes/v2_2020-11-09_3bh_150-prng-1,30_base_hphc_150,150,first-150,121,rng,num-start-681,681,17520,8.089890241622925,True,,True,1,False,1000,True,1.0
./expes/v2_2020-11-09_3bh_150-prng-1,30_base_hphc_150,150,first-150,1,rng,num-start-871,871,17520,8.20792007446289,True,,True,1,False,1000,True,1.0
