expe,clients,clients_size,clients_subset,agg_size,method,days,days_size,days_total,time,valid,valid_sum,success,nsols,wall_hit,wall_time,pooled,valid_sums
./expes/v2_2020-11-09_3bh_150-prng-1,30_base_hphc_150,150,first-150,111,rng,num-start-451,451,17520,4.611272096633911,True,,True,1,False,1000,True,1.0
./expes/v2_2020-11-09_3bh_150-prng-1,30_base_hphc_150,150,first-150,31,rng,num-start-861,861,17520,8.15676736831665,True,,True,1,False,1000,True,1.0
./expes/v2_2020-11-09_3bh_150-prng-1,30_base_hphc_150,150,first-150,141,rng,num-start-801,801,17520,5.8494226932525635,True,,True,1,False,1000,True,1.0
./expes/v2_2020-11-09_3bh_150-prng-1,30_base_hphc_150,150,first-150,71,rng,num-start-481,481,17520,4.502878189086914,True,,True,1,False,1000,True,1.0
./expes/v2_2020-11-09_3bh_150-prng-1,30_base_hphc_150,150,first-150,141,rng,num-start-801,801,17520,5.973550319671631,True,,True,1,False,1000,True,1.0
./expes/v2_2020-11-09_3bh_150-prng-1,30_base_hphc_150,150,first-150,11,rng,num-start-101,101,17520,1.0299065113067627,True,,True,1,False,1000,True,1.0
./expes/v2_2020-11-09_3bh_150-prng-1,30_base_hphc_150,150,first-150,31,rng,num-start-541,541,17520,4.9575934410095215,True,,True,1,False,1000,True,1.0
./expes/v2_2020-11-09_3bh_150-prng-1,30_base_hphc_150,150,first-150,81,rng,num-start-231,231,17520,2.2976760864257812,True,,True,1,False,1000,True,1.0
./expes/v2_2020-11-09_3bh_150-prng-1,30_base_hphc_150,150,first-150,1,rng,num-start-251,251,17520,1.7070777416229248,True,,True,1,False,1000,True,1.0
./expes/v2_2020-11-09_3bh_150-prng-1,30_base_hphc_150,150,first-150,141,rng,num-start-891,891,17520,6.8376688957214355,True,,True,1,False,1000,True,1.0
./expes/v2_2020-11-09_3bh_150-prng-1,30_base_hphc_150,150,first-150,71,rng,num-start-581,581,17520,5.441760301589966,True,,True,1,False,1000,True,1.0
./expes/v2_2020-11-09_3bh_150-prng-1,30_base_hphc_150,150,first-150,81,rng,num-start-1,1,17520,0.017009496688842773,False,,False,2,False,1000,True,1.0
./expes/v2_2020-11-09_3bh_150-prng-1,30_base_hphc_150,150,first-150,91,rng,num-start-21,21,17520,1000.4317698478699,False,,False,0,True,1000,True,0.0
./expes/v2_2020-11-09_3bh_150-prng-1,30_base_hphc_150,150,first-150,91,rng,num-start-801,801,17520,9.96669888496399,True,,True,1,False,1000,True,1.0
./expes/v2_2020-11-09_3bh_150-prng-1,30_base_hphc_150,150,first-150,11,rng,num-start-381,381,17520,4.282959222793579,True,,True,1,False,1000,True,1.0
./expes/v2_2020-11-09_3bh_150-prng-1,30_base_hphc_150,150,first-150,41,rng,num-start-151,151,17520,1.9350507259368896,True,,True,1,False,1000,True,1.0
./expes/v2_2020-11-09_3bh_150-prng-1,30_base_hphc_150,150,first-150,31,rng,num-start-661,661,17520,7.667833089828491,True,,True,1,False,1000,True,1.0
./expes/v2_2020-11-09_3bh_150-prng-1,30_base_hphc_150,150,first-150,91,rng,num-start-341,341,17520,4.172411203384399,True,,True,1,False,1000,True,1.0
./expes/v2_2020-11-09_3bh_150-prng-1,30_base_hphc_150,150,first-150,71,rng,num-start-751,751,17520,9.734441757202148,True,,True,1,False,1000,True,1.0
./expes/v2_2020-11-09_3bh_150-prng-1,30_base_hphc_150,150,first-150,141,rng,num-start-461,461,17520,4.779285907745361,True,,True,1,False,1000,True,1.0
./expes/v2_2020-11-09_3bh_150-prng-1,30_base_hphc_150,150,first-150,51,rng,num-start-711,711,17520,8.825067520141602,True,,True,1,False,1000,True,1.0
./expes/v2_2020-11-09_3bh_150-prng-1,30_base_hphc_150,150,first-150,1,rng,num-start-991,991,17520,9.18744421005249,True,,True,1,False,1000,True,1.0
./expes/v2_2020-11-09_3bh_150-prng-1,30_base_hphc_150,150,first-150,101,rng,num-start-881,881,17520,11.01423692703247,True,,True,1,False,1000,True,1.0
./expes/v2_2020-11-09_3bh_150-prng-1,30_base_hphc_150,150,first-150,121,rng,num-start-1,1,17520,0.015526771545410156,False,,False,2,False,1000,True,1.0
./expes/v2_2020-11-09_3bh_150-prng-1,30_base_hphc_150,150,first-150,111,rng,num-start-521,521,17520,6.141510486602783,True,,True,1,False,1000,True,1.0
./expes/v2_2020-11-09_3bh_150-prng-1,30_base_hphc_150,150,first-150,131,rng,num-start-51,51,17520,0.9651226997375488,True,,True,1,False,1000,True,1.0
./expes/v2_2020-11-09_3bh_150-prng-1,30_base_hphc_150,150,first-150,71,rng,num-start-571,571,17520,7.177270412445068,True,,True,1,False,1000,True,1.0
./expes/v2_2020-11-09_3bh_150-prng-1,30_base_hphc_150,150,first-150,81,rng,num-start-771,771,17520,10.537009477615356,True,,True,1,False,1000,True,1.0
./expes/v2_2020-11-09_3bh_150-prng-1,30_base_hphc_150,150,first-150,131,rng,num-start-291,291,17520,3.485093116760254,True,,True,1,False,1000,True,1.0
./expes/v2_2020-11-09_3bh_150-prng-1,30_base_hphc_150,150,first-150,41,rng,num-start-531,531,17520,6.396395444869995,True,,True,1,False,1000,True,1.0
./expes/v2_2020-11-09_3bh_150-prng-1,30_base_hphc_150,150,first-150,91,rng,num-start-151,151,17520,1.9709088802337646,True,,True,1,False,1000,True,1.0
./expes/v2_2020-11-09_3bh_150-prng-1,30_base_hphc_150,150,first-150,1,rng,num-start-941,941,17520,8.69582223892212,True,,True,1,False,1000,True,1.0
./expes/v2_2020-11-09_3bh_150-prng-1,30_base_hphc_150,150,first-150,21,rng,num-start-171,171,17520,2.117532730102539,True,,True,1,False,1000,True,1.0
./expes/v2_2020-11-09_3bh_150-prng-1,30_base_hphc_150,150,first-150,21,rng,num-start-441,441,17520,5.374044418334961,True,,True,1,False,1000,True,1.0
./expes/v2_2020-11-09_3bh_150-prng-1,30_base_hphc_150,150,first-150,51,rng,num-start-601,601,17520,7.280797481536865,True,,True,1,False,1000,True,1.0
./expes/v2_2020-11-09_3bh_150-prng-1,30_base_hphc_150,150,first-150,111,rng,num-start-261,261,17520,3.329770803451538,True,,True,1,False,1000,True,1.0
./expes/v2_2020-11-09_3bh_150-prng-1,30_base_hphc_150,150,first-150,11,rng,num-start-421,421,17520,4.835994243621826,True,,True,1,False,1000,True,1.0
./expes/v2_2020-11-09_3bh_150-prng-1,30_base_hphc_150,150,first-150,21,rng,num-start-131,131,17520,1.5629963874816895,True,,True,1,False,1000,True,1.0
./expes/v2_2020-11-09_3bh_150-prng-1,30_base_hphc_150,150,first-150,21,rng,num-start-51,51,17520,0.8508124351501465,True,,True,1,False,1000,True,1.0
./expes/v2_2020-11-09_3bh_150-prng-1,30_base_hphc_150,150,first-150,51,rng,num-start-81,81,17520,1.0261509418487549,True,,True,1,False,1000,True,1.0
./expes/v2_2020-11-09_3bh_150-prng-1,30_base_hphc_150,150,first-150,51,rng,num-start-151,151,17520,1.9756901264190674,True,,True,1,False,1000,True,1.0
./expes/v2_2020-11-09_3bh_150-prng-1,30_base_hphc_150,150,first-150,1,rng,num-start-851,851,17520,7.844290733337402,True,,True,1,False,1000,True,1.0
./expes/v2_2020-11-09_3bh_150-prng-1,30_base_hphc_150,150,first-150,91,rng,num-start-981,981,17520,13.36249327659607,True,,True,1,False,1000,True,1.0
./expes/v2_2020-11-09_3bh_150-prng-1,30_base_hphc_150,150,first-150,21,rng,num-start-931,931,17520,10.742199420928955,True,,True,1,False,1000,True,1.0
./expes/v2_2020-11-09_3bh_150-prng-1,30_base_hphc_150,150,first-150,61,rng,num-start-601,601,17520,6.804979562759399,True,,True,1,False,1000,True,1.0
./expes/v2_2020-11-09_3bh_150-prng-1,30_base_hphc_150,150,first-150,11,rng,num-start-131,131,17520,1.6038134098052979,True,,True,1,False,1000,True,1.0
./expes/v2_2020-11-09_3bh_150-prng-1,30_base_hphc_150,150,first-150,21,rng,num-start-341,341,17520,4.050434589385986,True,,True,1,False,1000,True,1.0
./expes/v2_2020-11-09_3bh_150-prng-1,30_base_hphc_150,150,first-150,131,rng,num-start-871,871,17520,9.610672950744629,True,,True,1,False,1000,True,1.0
./expes/v2_2020-11-09_3bh_150-prng-1,30_base_hphc_150,150,first-150,121,rng,num-start-871,871,17520,10.176771640777588,True,,True,1,False,1000,True,1.0
./expes/v2_2020-11-09_3bh_150-prng-1,30_base_hphc_150,150,first-150,21,rng,num-start-711,711,17520,9.023003101348877,True,,True,1,False,1000,True,1.0
./expes/v2_2020-11-09_3bh_150-prng-1,30_base_hphc_150,150,first-150,71,rng,num-start-61,61,17520,5.022317409515381,True,,True,1,False,1000,True,1.0
./expes/v2_2020-11-09_3bh_150-prng-1,30_base_hphc_150,150,first-150,81,rng,num-start-531,531,17520,6.487201452255249,True,,True,1,False,1000,True,1.0
./expes/v2_2020-11-09_3bh_150-prng-1,30_base_hphc_150,150,first-150,61,rng,num-start-221,221,17520,3.0710880756378174,True,,True,1,False,1000,True,1.0
./expes/v2_2020-11-09_3bh_150-prng-1,30_base_hphc_150,150,first-150,61,rng,num-start-621,621,17520,8.350949048995972,True,,True,1,False,1000,True,1.0
./expes/v2_2020-11-09_3bh_150-prng-1,30_base_hphc_150,150,first-150,61,rng,num-start-131,131,17520,1.767857551574707,True,,True,1,False,1000,True,1.0
./expes/v2_2020-11-09_3bh_150-prng-1,30_base_hphc_150,150,first-150,141,rng,num-start-861,861,17520,8.936339378356934,True,,True,1,False,1000,True,1.0
./expes/v2_2020-11-09_3bh_150-prng-1,30_base_hphc_150,150,first-150,41,rng,num-start-671,671,17520,8.672495365142822,True,,True,1,False,1000,True,1.0
./expes/v2_2020-11-09_3bh_150-prng-1,30_base_hphc_150,150,first-150,101,rng,num-start-331,331,17520,3.830594062805176,True,,True,1,False,1000,True,1.0
./expes/v2_2020-11-09_3bh_150-prng-1,30_base_hphc_150,150,first-150,111,rng,num-start-571,571,17520,6.648382663726807,True,,True,1,False,1000,True,1.0
./expes/v2_2020-11-09_3bh_150-prng-1,30_base_hphc_150,150,first-150,91,rng,num-start-411,411,17520,5.042666912078857,True,,True,1,False,1000,True,1.0
./expes/v2_2020-11-09_3bh_150-prng-1,30_base_hphc_150,150,first-150,11,rng,num-start-251,251,17520,3.337218761444092,True,,True,1,False,1000,True,1.0
./expes/v2_2020-11-09_3bh_150-prng-1,30_base_hphc_150,150,first-150,111,rng,num-start-911,911,17520,12.586530923843384,True,,True,1,False,1000,True,1.0
./expes/v2_2020-11-09_3bh_150-prng-1,30_base_hphc_150,150,first-150,71,rng,num-start-851,851,17520,11.480401754379272,True,,True,1,False,1000,True,1.0
./expes/v2_2020-11-09_3bh_150-prng-1,30_base_hphc_150,150,first-150,91,rng,num-start-151,151,17520,1.8011503219604492,True,,True,1,False,1000,True,1.0
./expes/v2_2020-11-09_3bh_150-prng-1,30_base_hphc_150,150,first-150,81,rng,num-start-871,871,17520,11.458675384521484,True,,True,1,False,1000,True,1.0
./expes/v2_2020-11-09_3bh_150-prng-1,30_base_hphc_150,150,first-150,1,rng,num-start-51,51,17520,0.47252941131591797,True,,True,1,False,1000,True,1.0
./expes/v2_2020-11-09_3bh_150-prng-1,30_base_hphc_150,150,first-150,141,rng,num-start-911,911,17520,8.779348850250244,True,,True,1,False,1000,True,1.0
./expes/v2_2020-11-09_3bh_150-prng-1,30_base_hphc_150,150,first-150,131,rng,num-start-211,211,17520,2.392728567123413,True,,True,1,False,1000,True,1.0
./expes/v2_2020-11-09_3bh_150-prng-1,30_base_hphc_150,150,first-150,31,rng,num-start-701,701,17520,7.868136167526245,True,,True,1,False,1000,True,1.0
./expes/v2_2020-11-09_3bh_150-prng-1,30_base_hphc_150,150,first-150,111,rng,num-start-51,51,17520,1.0565531253814697,True,,True,1,False,1000,True,1.0
./expes/v2_2020-11-09_3bh_150-prng-1,30_base_hphc_150,150,first-150,41,rng,num-start-611,611,17520,7.942248821258545,True,,True,1,False,1000,True,1.0
./expes/v2_2020-11-09_3bh_150-prng-1,30_base_hphc_150,150,first-150,41,rng,num-start-721,721,17520,9.436824560165405,True,,True,1,False,1000,True,1.0
./expes/v2_2020-11-09_3bh_150-prng-1,30_base_hphc_150,150,first-150,31,rng,num-start-501,501,17520,5.797250270843506,True,,True,1,False,1000,True,1.0
./expes/v2_2020-11-09_3bh_150-prng-1,30_base_hphc_150,150,first-150,101,rng,num-start-411,411,17520,5.037468910217285,True,,True,1,False,1000,True,1.0
./expes/v2_2020-11-09_3bh_150-prng-1,30_base_hphc_150,150,first-150,101,rng,num-start-871,871,17520,11.21376371383667,True,,True,1,False,1000,True,1.0
./expes/v2_2020-11-09_3bh_150-prng-1,30_base_hphc_150,150,first-150,41,rng,num-start-501,501,17520,5.7667505741119385,True,,True,1,False,1000,True,1.0
./expes/v2_2020-11-09_3bh_150-prng-1,30_base_hphc_150,150,first-150,51,rng,num-start-171,171,17520,2.304849863052368,True,,True,1,False,1000,True,1.0
./expes/v2_2020-11-09_3bh_150-prng-1,30_base_hphc_150,150,first-150,21,rng,num-start-621,621,17520,7.424176454544067,True,,True,1,False,1000,True,1.0
./expes/v2_2020-11-09_3bh_150-prng-1,30_base_hphc_150,150,first-150,131,rng,num-start-381,381,17520,4.49158787727356,True,,True,1,False,1000,True,1.0
./expes/v2_2020-11-09_3bh_150-prng-1,30_base_hphc_150,150,first-150,71,rng,num-start-871,871,17520,10.549026489257812,True,,True,1,False,1000,True,1.0
./expes/v2_2020-11-09_3bh_150-prng-1,30_base_hphc_150,150,first-150,1,rng,num-start-331,331,17520,3.1629254817962646,True,,True,1,False,1000,True,1.0
./expes/v2_2020-11-09_3bh_150-prng-1,30_base_hphc_150,150,first-150,51,rng,num-start-761,761,17520,9.96963906288147,True,,True,1,False,1000,True,1.0
./expes/v2_2020-11-09_3bh_150-prng-1,30_base_hphc_150,150,first-150,31,rng,num-start-981,981,17520,13.176160335540771,True,,True,1,False,1000,True,1.0
./expes/v2_2020-11-09_3bh_150-prng-1,30_base_hphc_150,150,first-150,121,rng,num-start-281,281,17520,3.6878440380096436,True,,True,1,False,1000,True,1.0
./expes/v2_2020-11-09_3bh_150-prng-1,30_base_hphc_150,150,first-150,91,rng,num-start-431,431,17520,5.526748895645142,True,,True,1,False,1000,True,1.0
./expes/v2_2020-11-09_3bh_150-prng-1,30_base_hphc_150,150,first-150,121,rng,num-start-201,201,17520,2.6335461139678955,True,,True,1,False,1000,True,1.0
./expes/v2_2020-11-09_3bh_150-prng-1,30_base_hphc_150,150,first-150,41,rng,num-start-371,371,17520,5.14470362663269,True,,True,1,False,1000,True,1.0
./expes/v2_2020-11-09_3bh_150-prng-1,30_base_hphc_150,150,first-150,111,rng,num-start-261,261,17520,3.5486440658569336,True,,True,1,False,1000,True,1.0
./expes/v2_2020-11-09_3bh_150-prng-1,30_base_hphc_150,150,first-150,51,rng,num-start-941,941,17520,10.73720669746399,True,,True,1,False,1000,True,1.0
./expes/v2_2020-11-09_3bh_150-prng-1,30_base_hphc_150,150,first-150,21,rng,num-start-21,21,17520,1004.4123909473419,False,,False,1,True,1000,True,0.0
./expes/v2_2020-11-09_3bh_150-prng-1,30_base_hphc_150,150,first-150,31,rng,num-start-101,101,17520,1.3102259635925293,True,,True,1,False,1000,True,1.0
./expes/v2_2020-11-09_3bh_150-prng-1,30_base_hphc_150,150,first-150,21,rng,num-start-561,561,17520,6.886837482452393,True,,True,1,False,1000,True,1.0
./expes/v2_2020-11-09_3bh_150-prng-1,30_base_hphc_150,150,first-150,41,rng,num-start-321,321,17520,4.193140506744385,True,,True,1,False,1000,True,1.0
./expes/v2_2020-11-09_3bh_150-prng-1,30_base_hphc_150,150,first-150,81,rng,num-start-211,211,17520,2.7279093265533447,True,,True,1,False,1000,True,1.0
./expes/v2_2020-11-09_3bh_150-prng-1,30_base_hphc_150,150,first-150,31,rng,num-start-821,821,17520,11.201041221618652,True,,True,1,False,1000,True,1.0
./expes/v2_2020-11-09_3bh_150-prng-1,30_base_hphc_150,150,first-150,51,rng,num-start-31,31,17520,1000.39901304245,False,,False,0,True,1000,True,0.0
./expes/v2_2020-11-09_3bh_150-prng-1,30_base_hphc_150,150,first-150,121,rng,num-start-61,61,17520,0.879927396774292,True,,True,1,False,1000,True,1.0
./expes/v2_2020-11-09_3bh_150-prng-1,30_base_hphc_150,150,first-150,71,rng,num-start-521,521,17520,6.315773010253906,True,,True,1,False,1000,True,1.0
./expes/v2_2020-11-09_3bh_150-prng-1,30_base_hphc_150,150,first-150,91,rng,num-start-801,801,17520,9.785510778427124,True,,True,1,False,1000,True,1.0
./expes/v2_2020-11-09_3bh_150-prng-1,30_base_hphc_150,150,first-150,1,rng,num-start-721,721,17520,6.5297815799713135,True,,True,1,False,1000,True,1.0
./expes/v2_2020-11-09_3bh_150-prng-1,30_base_hphc_150,150,first-150,1,rng,num-start-161,161,17520,1.3906934261322021,True,,True,1,False,1000,True,1.0
./expes/v2_2020-11-09_3bh_150-prng-1,30_base_hphc_150,150,first-150,61,rng,num-start-1,1,17520,0.015069961547851562,False,,False,2,False,1000,True,1.0
./expes/v2_2020-11-09_3bh_150-prng-1,30_base_hphc_150,150,first-150,91,rng,num-start-261,261,17520,2.9379725456237793,True,,True,1,False,1000,True,1.0
./expes/v2_2020-11-09_3bh_150-prng-1,30_base_hphc_150,150,first-150,71,rng,num-start-341,341,17520,4.19912052154541,True,,True,1,False,1000,True,1.0
./expes/v2_2020-11-09_3bh_150-prng-1,30_base_hphc_150,150,first-150,101,rng,num-start-641,641,17520,7.870044231414795,True,,True,1,False,1000,True,1.0
./expes/v2_2020-11-09_3bh_150-prng-1,30_base_hphc_150,150,first-150,1,rng,num-start-671,671,17520,6.14625883102417,True,,True,1,False,1000,True,1.0
./expes/v2_2020-11-09_3bh_150-prng-1,30_base_hphc_150,150,first-150,11,rng,num-start-131,131,17520,1.846900224685669,True,,True,1,False,1000,True,1.0
./expes/v2_2020-11-09_3bh_150-prng-1,30_base_hphc_150,150,first-150,111,rng,num-start-751,751,17520,9.36712098121643,True,,True,1,False,1000,True,1.0
./expes/v2_2020-11-09_3bh_150-prng-1,30_base_hphc_150,150,first-150,141,rng,num-start-101,101,17520,1.229827880859375,True,,True,1,False,1000,True,1.0
./expes/v2_2020-11-09_3bh_150-prng-1,30_base_hphc_150,150,first-150,121,rng,num-start-931,931,17520,10.930422306060791,True,,True,1,False,1000,True,1.0
./expes/v2_2020-11-09_3bh_150-prng-1,30_base_hphc_150,150,first-150,131,rng,num-start-271,271,17520,3.3774490356445312,True,,True,1,False,1000,True,1.0
./expes/v2_2020-11-09_3bh_150-prng-1,30_base_hphc_150,150,first-150,111,rng,num-start-581,581,17520,7.2379677295684814,True,,True,1,False,1000,True,1.0
./expes/v2_2020-11-09_3bh_150-prng-1,30_base_hphc_150,150,first-150,71,rng,num-start-691,691,17520,9.384774208068848,True,,True,1,False,1000,True,1.0
./expes/v2_2020-11-09_3bh_150-prng-1,30_base_hphc_150,150,first-150,131,rng,num-start-151,151,17520,1.8725461959838867,True,,True,1,False,1000,True,1.0
./expes/v2_2020-11-09_3bh_150-prng-1,30_base_hphc_150,150,first-150,71,rng,num-start-911,911,17520,12.312283277511597,True,,True,1,False,1000,True,1.0
./expes/v2_2020-11-09_3bh_150-prng-1,30_base_hphc_150,150,first-150,141,rng,num-start-371,371,17520,4.114611625671387,True,,True,1,False,1000,True,1.0
./expes/v2_2020-11-09_3bh_150-prng-1,30_base_hphc_150,150,first-150,111,rng,num-start-31,31,17520,1001.6505086421967,False,,False,0,True,1000,True,0.0
./expes/v2_2020-11-09_3bh_150-prng-1,30_base_hphc_150,150,first-150,141,rng,num-start-411,411,17520,4.109869718551636,True,,True,1,False,1000,True,1.0
./expes/v2_2020-11-09_3bh_150-prng-1,30_base_hphc_150,150,first-150,1,rng,num-start-581,581,17520,5.221801996231079,True,,True,1,False,1000,True,1.0
./expes/v2_2020-11-09_3bh_150-prng-1,30_base_hphc_150,150,first-150,1,rng,num-start-361,361,17520,3.1793386936187744,True,,True,1,False,1000,True,1.0
./expes/v2_2020-11-09_3bh_150-prng-1,30_base_hphc_150,150,first-150,11,rng,num-start-161,161,17520,1.894200325012207,True,,True,1,False,1000,True,1.0
./expes/v2_2020-11-09_3bh_150-prng-1,30_base_hphc_150,150,first-150,21,rng,num-start-1,1,17520,0.015004396438598633,False,,False,2,False,1000,True,1.0
./expes/v2_2020-11-09_3bh_150-prng-1,30_base_hphc_150,150,first-150,31,rng,num-start-661,661,17520,7.801011323928833,True,,True,1,False,1000,True,1.0
./expes/v2_2020-11-09_3bh_150-prng-1,30_base_hphc_150,150,first-150,121,rng,num-start-841,841,17520,9.332614660263062,True,,True,1,False,1000,True,1.0
./expes/v2_2020-11-09_3bh_150-prng-1,30_base_hphc_150,150,first-150,101,rng,num-start-131,131,17520,1.5976991653442383,True,,True,1,False,1000,True,1.0
./expes/v2_2020-11-09_3bh_150-prng-1,30_base_hphc_150,150,first-150,61,rng,num-start-771,771,17520,9.769784688949585,True,,True,1,False,1000,True,1.0
./expes/v2_2020-11-09_3bh_150-prng-1,30_base_hphc_150,150,first-150,131,rng,num-start-301,301,17520,3.644195318222046,True,,True,1,False,1000,True,1.0
./expes/v2_2020-11-09_3bh_150-prng-1,30_base_hphc_150,150,first-150,131,rng,num-start-81,81,17520,0.9980437755584717,True,,True,1,False,1000,True,1.0
./expes/v2_2020-11-09_3bh_150-prng-1,30_base_hphc_150,150,first-150,91,rng,num-start-441,441,17520,5.4701454639434814,True,,True,1,False,1000,True,1.0
./expes/v2_2020-11-09_3bh_150-prng-1,30_base_hphc_150,150,first-150,111,rng,num-start-91,91,17520,1.1248359680175781,True,,True,1,False,1000,True,1.0
./expes/v2_2020-11-09_3bh_150-prng-1,30_base_hphc_150,150,first-150,111,rng,num-start-521,521,17520,5.7655463218688965,True,,True,1,False,1000,True,1.0
./expes/v2_2020-11-09_3bh_150-prng-1,30_base_hphc_150,150,first-150,91,rng,num-start-951,951,17520,11.206448793411255,True,,True,1,False,1000,True,1.0
./expes/v2_2020-11-09_3bh_150-prng-1,30_base_hphc_150,150,first-150,101,rng,num-start-341,341,17520,3.669696092605591,True,,True,1,False,1000,True,1.0
./expes/v2_2020-11-09_3bh_150-prng-1,30_base_hphc_150,150,first-150,91,rng,num-start-291,291,17520,3.70822811126709,True,,True,1,False,1000,True,1.0
./expes/v2_2020-11-09_3bh_150-prng-1,30_base_hphc_150,150,first-150,1,rng,num-start-801,801,17520,6.993184328079224,True,,True,1,False,1000,True,1.0
./expes/v2_2020-11-09_3bh_150-prng-1,30_base_hphc_150,150,first-150,121,rng,num-start-91,91,17520,1.1564459800720215,True,,True,1,False,1000,True,1.0
./expes/v2_2020-11-09_3bh_150-prng-1,30_base_hphc_150,150,first-150,81,rng,num-start-391,391,17520,4.771618127822876,True,,True,1,False,1000,True,1.0
./expes/v2_2020-11-09_3bh_150-prng-1,30_base_hphc_150,150,first-150,121,rng,num-start-161,161,17520,1.977006435394287,True,,True,1,False,1000,True,1.0
./expes/v2_2020-11-09_3bh_150-prng-1,30_base_hphc_150,150,first-150,51,rng,num-start-911,911,17520,11.086752653121948,True,,True,1,False,1000,True,1.0
./expes/v2_2020-11-09_3bh_150-prng-1,30_base_hphc_150,150,first-150,101,rng,num-start-51,51,17520,2.6557457447052,True,,True,1,False,1000,True,1.0
./expes/v2_2020-11-09_3bh_150-prng-1,30_base_hphc_150,150,first-150,41,rng,num-start-121,121,17520,1.6206753253936768,True,,True,1,False,1000,True,1.0
./expes/v2_2020-11-09_3bh_150-prng-1,30_base_hphc_150,150,first-150,21,rng,num-start-721,721,17520,10.033476114273071,True,,True,1,False,1000,True,1.0
./expes/v2_2020-11-09_3bh_150-prng-1,30_base_hphc_150,150,first-150,41,rng,num-start-691,691,17520,8.446892976760864,True,,True,1,False,1000,True,1.0
./expes/v2_2020-11-09_3bh_150-prng-1,30_base_hphc_150,150,first-150,51,rng,num-start-901,901,17520,11.670714139938354,True,,True,1,False,1000,True,1.0
./expes/v2_2020-11-09_3bh_150-prng-1,30_base_hphc_150,150,first-150,41,rng,num-start-51,51,17520,1.859407663345337,True,,True,1,False,1000,True,1.0
./expes/v2_2020-11-09_3bh_150-prng-1,30_base_hphc_150,150,first-150,111,rng,num-start-421,421,17520,4.53548526763916,True,,True,1,False,1000,True,1.0
./expes/v2_2020-11-09_3bh_150-prng-1,30_base_hphc_150,150,first-150,81,rng,num-start-511,511,17520,5.8446667194366455,True,,True,1,False,1000,True,1.0
./expes/v2_2020-11-09_3bh_150-prng-1,30_base_hphc_150,150,first-150,101,rng,num-start-681,681,17520,7.645963668823242,True,,True,1,False,1000,True,1.0
./expes/v2_2020-11-09_3bh_150-prng-1,30_base_hphc_150,150,first-150,71,rng,num-start-51,51,17520,18.551897764205933,True,,True,1,False,1000,True,1.0
./expes/v2_2020-11-09_3bh_150-prng-1,30_base_hphc_150,150,first-150,61,rng,num-start-741,741,17520,8.118021249771118,True,,True,1,False,1000,True,1.0
./expes/v2_2020-11-09_3bh_150-prng-1,30_base_hphc_150,150,first-150,81,rng,num-start-771,771,17520,9.857676029205322,True,,True,1,False,1000,True,1.0
./expes/v2_2020-11-09_3bh_150-prng-1,30_base_hphc_150,150,first-150,71,rng,num-start-221,221,17520,2.592038869857788,True,,True,1,False,1000,True,1.0
./expes/v2_2020-11-09_3bh_150-prng-1,30_base_hphc_150,150,first-150,11,rng,num-start-431,431,17520,4.732255935668945,True,,True,1,False,1000,True,1.0
./expes/v2_2020-11-09_3bh_150-prng-1,30_base_hphc_150,150,first-150,71,rng,num-start-941,941,17520,10.52413558959961,True,,True,1,False,1000,True,1.0
./expes/v2_2020-11-09_3bh_150-prng-1,30_base_hphc_150,150,first-150,71,rng,num-start-681,681,17520,8.129525184631348,True,,True,1,False,1000,True,1.0
./expes/v2_2020-11-09_3bh_150-prng-1,30_base_hphc_150,150,first-150,11,rng,num-start-781,781,17520,7.870702028274536,True,,True,1,False,1000,True,1.0
./expes/v2_2020-11-09_3bh_150-prng-1,30_base_hphc_150,150,first-150,61,rng,num-start-101,101,17520,1.5936448574066162,True,,True,1,False,1000,True,1.0
./expes/v2_2020-11-09_3bh_150-prng-1,30_base_hphc_150,150,first-150,131,rng,num-start-81,81,17520,0.9985108375549316,True,,True,1,False,1000,True,1.0
./expes/v2_2020-11-09_3bh_150-prng-1,30_base_hphc_150,150,first-150,141,rng,num-start-231,231,17520,2.669787645339966,True,,True,1,False,1000,True,1.0
./expes/v2_2020-11-09_3bh_150-prng-1,30_base_hphc_150,150,first-150,71,rng,num-start-611,611,17520,7.517376899719238,True,,True,1,False,1000,True,1.0
./expes/v2_2020-11-09_3bh_150-prng-1,30_base_hphc_150,150,first-150,141,rng,num-start-641,641,17520,6.515480279922485,True,,True,1,False,1000,True,1.0
./expes/v2_2020-11-09_3bh_150-prng-1,30_base_hphc_150,150,first-150,101,rng,num-start-731,731,17520,8.156710863113403,True,,True,1,False,1000,True,1.0
./expes/v2_2020-11-09_3bh_150-prng-1,30_base_hphc_150,150,first-150,121,rng,num-start-541,541,17520,6.57443380355835,True,,True,1,False,1000,True,1.0
./expes/v2_2020-11-09_3bh_150-prng-1,30_base_hphc_150,150,first-150,21,rng,num-start-251,251,17520,3.091193675994873,True,,True,1,False,1000,True,1.0
./expes/v2_2020-11-09_3bh_150-prng-1,30_base_hphc_150,150,first-150,111,rng,num-start-251,251,17520,2.843346118927002,True,,True,1,False,1000,True,1.0
./expes/v2_2020-11-09_3bh_150-prng-1,30_base_hphc_150,150,first-150,51,rng,num-start-821,821,17520,10.01751708984375,True,,True,1,False,1000,True,1.0
./expes/v2_2020-11-09_3bh_150-prng-1,30_base_hphc_150,150,first-150,21,rng,num-start-931,931,17520,11.28811240196228,True,,True,1,False,1000,True,1.0
./expes/v2_2020-11-09_3bh_150-prng-1,30_base_hphc_150,150,first-150,51,rng,num-start-401,401,17520,4.378842115402222,True,,True,1,False,1000,True,1.0
./expes/v2_2020-11-09_3bh_150-prng-1,30_base_hphc_150,150,first-150,131,rng,num-start-931,931,17520,11.03264307975769,True,,True,1,False,1000,True,1.0
./expes/v2_2020-11-09_3bh_150-prng-1,30_base_hphc_150,150,first-150,41,rng,num-start-781,781,17520,11.805423259735107,True,,True,1,False,1000,True,1.0
./expes/v2_2020-11-09_3bh_150-prng-1,30_base_hphc_150,150,first-150,1,rng,num-start-851,851,17520,7.20714545249939,True,,True,1,False,1000,True,1.0
./expes/v2_2020-11-09_3bh_150-prng-1,30_base_hphc_150,150,first-150,81,rng,num-start-801,801,17520,11.287025451660156,True,,True,1,False,1000,True,1.0
./expes/v2_2020-11-09_3bh_150-prng-1,30_base_hphc_150,150,first-150,91,rng,num-start-221,221,17520,2.7375943660736084,True,,True,1,False,1000,True,1.0
./expes/v2_2020-11-09_3bh_150-prng-1,30_base_hphc_150,150,first-150,121,rng,num-start-141,141,17520,3.207280158996582,True,,True,1,False,1000,True,1.0
./expes/v2_2020-11-09_3bh_150-prng-1,30_base_hphc_150,150,first-150,71,rng,num-start-271,271,17520,3.3007724285125732,True,,True,1,False,1000,True,1.0
./expes/v2_2020-11-09_3bh_150-prng-1,30_base_hphc_150,150,first-150,121,rng,num-start-351,351,17520,4.202962398529053,True,,True,1,False,1000,True,1.0
./expes/v2_2020-11-09_3bh_150-prng-1,30_base_hphc_150,150,first-150,121,rng,num-start-31,31,17520,303.3150792121887,True,,True,1,False,1000,True,1.0
./expes/v2_2020-11-09_3bh_150-prng-1,30_base_hphc_150,150,first-150,1,rng,num-start-471,471,17520,4.341146230697632,True,,True,1,False,1000,True,1.0
./expes/v2_2020-11-09_3bh_150-prng-1,30_base_hphc_150,150,first-150,71,rng,num-start-881,881,17520,11.769681453704834,True,,True,1,False,1000,True,1.0
./expes/v2_2020-11-09_3bh_150-prng-1,30_base_hphc_150,150,first-150,71,rng,num-start-551,551,17520,7.524851322174072,True,,True,1,False,1000,True,1.0
./expes/v2_2020-11-09_3bh_150-prng-1,30_base_hphc_150,150,first-150,1,rng,num-start-941,941,17520,8.728058815002441,True,,True,1,False,1000,True,1.0
./expes/v2_2020-11-09_3bh_150-prng-1,30_base_hphc_150,150,first-150,131,rng,num-start-731,731,17520,8.593642473220825,True,,True,1,False,1000,True,1.0
./expes/v2_2020-11-09_3bh_150-prng-1,30_base_hphc_150,150,first-150,121,rng,num-start-891,891,17520,9.945031881332397,True,,True,1,False,1000,True,1.0
./expes/v2_2020-11-09_3bh_150-prng-1,30_base_hphc_150,150,first-150,21,rng,num-start-661,661,17520,8.187728643417358,True,,True,1,False,1000,True,1.0
./expes/v2_2020-11-09_3bh_150-prng-1,30_base_hphc_150,150,first-150,71,rng,num-start-631,631,17520,7.953977584838867,True,,True,1,False,1000,True,1.0
./expes/v2_2020-11-09_3bh_150-prng-1,30_base_hphc_150,150,first-150,41,rng,num-start-51,51,17520,1.9840409755706787,True,,True,1,False,1000,True,1.0
./expes/v2_2020-11-09_3bh_150-prng-1,30_base_hphc_150,150,first-150,111,rng,num-start-151,151,17520,1.9745721817016602,True,,True,1,False,1000,True,1.0
./expes/v2_2020-11-09_3bh_150-prng-1,30_base_hphc_150,150,first-150,61,rng,num-start-31,31,17520,1000.5934669971466,False,,False,0,True,1000,True,0.0
./expes/v2_2020-11-09_3bh_150-prng-1,30_base_hphc_150,150,first-150,71,rng,num-start-421,421,17520,5.213613510131836,True,,True,1,False,1000,True,1.0
./expes/v2_2020-11-09_3bh_150-prng-1,30_base_hphc_150,150,first-150,111,rng,num-start-381,381,17520,4.677932977676392,True,,True,1,False,1000,True,1.0
./expes/v2_2020-11-09_3bh_150-prng-1,30_base_hphc_150,150,first-150,11,rng,num-start-531,531,17520,5.594293594360352,True,,True,1,False,1000,True,1.0
./expes/v2_2020-11-09_3bh_150-prng-1,30_base_hphc_150,150,first-150,141,rng,num-start-271,271,17520,3.115892171859741,True,,True,1,False,1000,True,1.0
./expes/v2_2020-11-09_3bh_150-prng-1,30_base_hphc_150,150,first-150,121,rng,num-start-421,421,17520,4.769272565841675,True,,True,1,False,1000,True,1.0
./expes/v2_2020-11-09_3bh_150-prng-1,30_base_hphc_150,150,first-150,61,rng,num-start-821,821,17520,9.607408046722412,True,,True,1,False,1000,True,1.0
./expes/v2_2020-11-09_3bh_150-prng-1,30_base_hphc_150,150,first-150,11,rng,num-start-181,181,17520,2.2494335174560547,True,,True,1,False,1000,True,1.0
./expes/v2_2020-11-09_3bh_150-prng-1,30_base_hphc_150,150,first-150,131,rng,num-start-211,211,17520,2.534017562866211,True,,True,1,False,1000,True,1.0
./expes/v2_2020-11-09_3bh_150-prng-1,30_base_hphc_150,150,first-150,51,rng,num-start-271,271,17520,3.504014015197754,True,,True,1,False,1000,True,1.0
./expes/v2_2020-11-09_3bh_150-prng-1,30_base_hphc_150,150,first-150,51,rng,num-start-281,281,17520,3.6845123767852783,True,,True,1,False,1000,True,1.0
./expes/v2_2020-11-09_3bh_150-prng-1,30_base_hphc_150,150,first-150,41,rng,num-start-401,401,17520,4.713302135467529,True,,True,1,False,1000,True,1.0
./expes/v2_2020-11-09_3bh_150-prng-1,30_base_hphc_150,150,first-150,31,rng,num-start-621,621,17520,7.6662821769714355,True,,True,1,False,1000,True,1.0
./expes/v2_2020-11-09_3bh_150-prng-1,30_base_hphc_150,150,first-150,1,rng,num-start-561,561,17520,5.179453611373901,True,,True,1,False,1000,True,1.0
./expes/v2_2020-11-09_3bh_150-prng-1,30_base_hphc_150,150,first-150,81,rng,num-start-571,571,17520,6.816125869750977,True,,True,1,False,1000,True,1.0
./expes/v2_2020-11-09_3bh_150-prng-1,30_base_hphc_150,150,first-150,21,rng,num-start-581,581,17520,7.484076261520386,True,,True,1,False,1000,True,1.0
./expes/v2_2020-11-09_3bh_150-prng-1,30_base_hphc_150,150,first-150,1,rng,num-start-731,731,17520,6.7410454750061035,True,,True,1,False,1000,True,1.0
./expes/v2_2020-11-09_3bh_150-prng-1,30_base_hphc_150,150,first-150,121,rng,num-start-581,581,17520,6.28681206703186,True,,True,1,False,1000,True,1.0
./expes/v2_2020-11-09_3bh_150-prng-1,30_base_hphc_150,150,first-150,51,rng,num-start-921,921,17520,10.843630075454712,True,,True,1,False,1000,True,1.0
./expes/v2_2020-11-09_3bh_150-prng-1,30_base_hphc_150,150,first-150,31,rng,num-start-411,411,17520,5.18032169342041,True,,True,1,False,1000,True,1.0
./expes/v2_2020-11-09_3bh_150-prng-1,30_base_hphc_150,150,first-150,61,rng,num-start-81,81,17520,1.0275347232818604,True,,True,1,False,1000,True,1.0
./expes/v2_2020-11-09_3bh_150-prng-1,30_base_hphc_150,150,first-150,91,rng,num-start-821,821,17520,10.809101819992065,True,,True,1,False,1000,True,1.0
./expes/v2_2020-11-09_3bh_150-prng-1,30_base_hphc_150,150,first-150,121,rng,num-start-711,711,17520,8.826364517211914,True,,True,1,False,1000,True,1.0
./expes/v2_2020-11-09_3bh_150-prng-1,30_base_hphc_150,150,first-150,141,rng,num-start-301,301,17520,3.281959056854248,True,,True,1,False,1000,True,1.0
./expes/v2_2020-11-09_3bh_150-prng-1,30_base_hphc_150,150,first-150,101,rng,num-start-791,791,17520,9.542294979095459,True,,True,1,False,1000,True,1.0
./expes/v2_2020-11-09_3bh_150-prng-1,30_base_hphc_150,150,first-150,51,rng,num-start-941,941,17520,10.926538944244385,True,,True,1,False,1000,True,1.0
./expes/v2_2020-11-09_3bh_150-prng-1,30_base_hphc_150,150,first-150,21,rng,num-start-801,801,17520,10.1249680519104,True,,True,1,False,1000,True,1.0
./expes/v2_2020-11-09_3bh_150-prng-1,30_base_hphc_150,150,first-150,121,rng,num-start-81,81,17520,1.1559159755706787,True,,True,1,False,1000,True,1.0
./expes/v2_2020-11-09_3bh_150-prng-1,30_base_hphc_150,150,first-150,11,rng,num-start-31,31,17520,0.45340895652770996,True,,True,1,False,1000,True,1.0
./expes/v2_2020-11-09_3bh_150-prng-1,30_base_hphc_150,150,first-150,81,rng,num-start-991,991,17520,13.172605991363525,True,,True,1,False,1000,True,1.0
./expes/v2_2020-11-09_3bh_150-prng-1,30_base_hphc_150,150,first-150,41,rng,num-start-931,931,17520,10.375635862350464,True,,True,1,False,1000,True,1.0
./expes/v2_2020-11-09_3bh_150-prng-1,30_base_hphc_150,150,first-150,131,rng,num-start-631,631,17520,6.70261549949646,True,,True,1,False,1000,True,1.0
./expes/v2_2020-11-09_3bh_150-prng-1,30_base_hphc_150,150,first-150,61,rng,num-start-861,861,17520,9.917345762252808,True,,True,1,False,1000,True,1.0
./expes/v2_2020-11-09_3bh_150-prng-1,30_base_hphc_150,150,first-150,131,rng,num-start-821,821,17520,8.988233089447021,True,,True,1,False,1000,True,1.0
./expes/v2_2020-11-09_3bh_150-prng-1,30_base_hphc_150,150,first-150,21,rng,num-start-221,221,17520,3.0189404487609863,True,,True,1,False,1000,True,1.0
./expes/v2_2020-11-09_3bh_150-prng-1,30_base_hphc_150,150,first-150,61,rng,num-start-291,291,17520,3.682063102722168,True,,True,1,False,1000,True,1.0
./expes/v2_2020-11-09_3bh_150-prng-1,30_base_hphc_150,150,first-150,1,rng,num-start-701,701,17520,6.402153015136719,True,,True,1,False,1000,True,1.0
./expes/v2_2020-11-09_3bh_150-prng-1,30_base_hphc_150,150,first-150,111,rng,num-start-31,31,17520,1000.6045801639557,False,,False,0,True,1000,True,0.0
./expes/v2_2020-11-09_3bh_150-prng-1,30_base_hphc_150,150,first-150,101,rng,num-start-771,771,17520,9.3851318359375,True,,True,1,False,1000,True,1.0
./expes/v2_2020-11-09_3bh_150-prng-1,30_base_hphc_150,150,first-150,61,rng,num-start-761,761,17520,8.799001693725586,True,,True,1,False,1000,True,1.0
./expes/v2_2020-11-09_3bh_150-prng-1,30_base_hphc_150,150,first-150,101,rng,num-start-321,321,17520,3.644404172897339,True,,True,1,False,1000,True,1.0
./expes/v2_2020-11-09_3bh_150-prng-1,30_base_hphc_150,150,first-150,91,rng,num-start-851,851,17520,10.496323585510254,True,,True,1,False,1000,True,1.0
./expes/v2_2020-11-09_3bh_150-prng-1,30_base_hphc_150,150,first-150,21,rng,num-start-101,101,17520,1.320807695388794,True,,True,1,False,1000,True,1.0
./expes/v2_2020-11-09_3bh_150-prng-1,30_base_hphc_150,150,first-150,141,rng,num-start-801,801,17520,7.768617391586304,True,,True,1,False,1000,True,1.0
./expes/v2_2020-11-09_3bh_150-prng-1,30_base_hphc_150,150,first-150,71,rng,num-start-971,971,17520,11.354553699493408,True,,True,1,False,1000,True,1.0
./expes/v2_2020-11-09_3bh_150-prng-1,30_base_hphc_150,150,first-150,141,rng,num-start-371,371,17520,3.8518664836883545,True,,True,1,False,1000,True,1.0
./expes/v2_2020-11-09_3bh_150-prng-1,30_base_hphc_150,150,first-150,61,rng,num-start-351,351,17520,3.8701441287994385,True,,True,1,False,1000,True,1.0
./expes/v2_2020-11-09_3bh_150-prng-1,30_base_hphc_150,150,first-150,131,rng,num-start-801,801,17520,8.269015312194824,True,,True,1,False,1000,True,1.0
./expes/v2_2020-11-09_3bh_150-prng-1,30_base_hphc_150,150,first-150,21,rng,num-start-511,511,17520,6.009466648101807,True,,True,1,False,1000,True,1.0
./expes/v2_2020-11-09_3bh_150-prng-1,30_base_hphc_150,150,first-150,51,rng,num-start-971,971,17520,11.093673467636108,True,,True,1,False,1000,True,1.0
./expes/v2_2020-11-09_3bh_150-prng-1,30_base_hphc_150,150,first-150,51,rng,num-start-841,841,17520,11.783282041549683,True,,True,1,False,1000,True,1.0
./expes/v2_2020-11-09_3bh_150-prng-1,30_base_hphc_150,150,first-150,111,rng,num-start-761,761,17520,9.745775699615479,True,,True,1,False,1000,True,1.0
./expes/v2_2020-11-09_3bh_150-prng-1,30_base_hphc_150,150,first-150,61,rng,num-start-141,141,17520,1.8147907257080078,True,,True,1,False,1000,True,1.0
./expes/v2_2020-11-09_3bh_150-prng-1,30_base_hphc_150,150,first-150,41,rng,num-start-231,231,17520,2.8602023124694824,True,,True,1,False,1000,True,1.0
./expes/v2_2020-11-09_3bh_150-prng-1,30_base_hphc_150,150,first-150,121,rng,num-start-811,811,17520,10.93009352684021,True,,True,1,False,1000,True,1.0
./expes/v2_2020-11-09_3bh_150-prng-1,30_base_hphc_150,150,first-150,111,rng,num-start-611,611,17520,7.273034572601318,True,,True,1,False,1000,True,1.0
./expes/v2_2020-11-09_3bh_150-prng-1,30_base_hphc_150,150,first-150,61,rng,num-start-541,541,17520,5.972906589508057,True,,True,1,False,1000,True,1.0
./expes/v2_2020-11-09_3bh_150-prng-1,30_base_hphc_150,150,first-150,91,rng,num-start-151,151,17520,1.9592936038970947,True,,True,1,False,1000,True,1.0
./expes/v2_2020-11-09_3bh_150-prng-1,30_base_hphc_150,150,first-150,121,rng,num-start-861,861,17520,9.407140016555786,True,,True,1,False,1000,True,1.0
./expes/v2_2020-11-09_3bh_150-prng-1,30_base_hphc_150,150,first-150,11,rng,num-start-321,321,17520,3.529731273651123,True,,True,1,False,1000,True,1.0
./expes/v2_2020-11-09_3bh_150-prng-1,30_base_hphc_150,150,first-150,41,rng,num-start-741,741,17520,8.420663833618164,True,,True,1,False,1000,True,1.0
./expes/v2_2020-11-09_3bh_150-prng-1,30_base_hphc_150,150,first-150,11,rng,num-start-601,601,17520,6.386680364608765,True,,True,1,False,1000,True,1.0
./expes/v2_2020-11-09_3bh_150-prng-1,30_base_hphc_150,150,first-150,61,rng,num-start-821,821,17520,10.660986423492432,True,,True,1,False,1000,True,1.0
./expes/v2_2020-11-09_3bh_150-prng-1,30_base_hphc_150,150,first-150,1,rng,num-start-971,971,17520,8.79343318939209,True,,True,1,False,1000,True,1.0
./expes/v2_2020-11-09_3bh_150-prng-1,30_base_hphc_150,150,first-150,91,rng,num-start-241,241,17520,3.028648853302002,True,,True,1,False,1000,True,1.0
./expes/v2_2020-11-09_3bh_150-prng-1,30_base_hphc_150,150,first-150,21,rng,num-start-311,311,17520,3.6755499839782715,True,,True,1,False,1000,True,1.0
./expes/v2_2020-11-09_3bh_150-prng-1,30_base_hphc_150,150,first-150,121,rng,num-start-401,401,17520,4.472729921340942,True,,True,1,False,1000,True,1.0
./expes/v2_2020-11-09_3bh_150-prng-1,30_base_hphc_150,150,first-150,71,rng,num-start-211,211,17520,2.495279312133789,True,,True,1,False,1000,True,1.0
./expes/v2_2020-11-09_3bh_150-prng-1,30_base_hphc_150,150,first-150,11,rng,num-start-901,901,17520,9.54142165184021,True,,True,1,False,1000,True,1.0
./expes/v2_2020-11-09_3bh_150-prng-1,30_base_hphc_150,150,first-150,11,rng,num-start-611,611,17520,6.813492774963379,True,,True,1,False,1000,True,1.0
./expes/v2_2020-11-09_3bh_150-prng-1,30_base_hphc_150,150,first-150,101,rng,num-start-701,701,17520,8.103418350219727,True,,True,1,False,1000,True,1.0
./expes/v2_2020-11-09_3bh_150-prng-1,30_base_hphc_150,150,first-150,121,rng,num-start-861,861,17520,9.483912944793701,True,,True,1,False,1000,True,1.0
./expes/v2_2020-11-09_3bh_150-prng-1,30_base_hphc_150,150,first-150,121,rng,num-start-801,801,17520,11.41335129737854,True,,True,1,False,1000,True,1.0
./expes/v2_2020-11-09_3bh_150-prng-1,30_base_hphc_150,150,first-150,71,rng,num-start-401,401,17520,4.5654990673065186,True,,True,1,False,1000,True,1.0
./expes/v2_2020-11-09_3bh_150-prng-1,30_base_hphc_150,150,first-150,51,rng,num-start-231,231,17520,2.836594581604004,True,,True,1,False,1000,True,1.0
./expes/v2_2020-11-09_3bh_150-prng-1,30_base_hphc_150,150,first-150,21,rng,num-start-981,981,17520,10.998881340026855,True,,True,1,False,1000,True,1.0
./expes/v2_2020-11-09_3bh_150-prng-1,30_base_hphc_150,150,first-150,81,rng,num-start-991,991,17520,12.60354495048523,True,,True,1,False,1000,True,1.0
./expes/v2_2020-11-09_3bh_150-prng-1,30_base_hphc_150,150,first-150,11,rng,num-start-191,191,17520,2.278542995452881,True,,True,1,False,1000,True,1.0
./expes/v2_2020-11-09_3bh_150-prng-1,30_base_hphc_150,150,first-150,41,rng,num-start-261,261,17520,3.1399593353271484,True,,True,1,False,1000,True,1.0
./expes/v2_2020-11-09_3bh_150-prng-1,30_base_hphc_150,150,first-150,131,rng,num-start-221,221,17520,2.4999051094055176,True,,True,1,False,1000,True,1.0
./expes/v2_2020-11-09_3bh_150-prng-1,30_base_hphc_150,150,first-150,11,rng,num-start-871,871,17520,10.24002742767334,True,,True,1,False,1000,True,1.0
./expes/v2_2020-11-09_3bh_150-prng-1,30_base_hphc_150,150,first-150,81,rng,num-start-161,161,17520,2.124629497528076,True,,True,1,False,1000,True,1.0
./expes/v2_2020-11-09_3bh_150-prng-1,30_base_hphc_150,150,first-150,101,rng,num-start-661,661,17520,7.4050867557525635,True,,True,1,False,1000,True,1.0
./expes/v2_2020-11-09_3bh_150-prng-1,30_base_hphc_150,150,first-150,51,rng,num-start-781,781,17520,10.52937650680542,True,,True,1,False,1000,True,1.0
./expes/v2_2020-11-09_3bh_150-prng-1,30_base_hphc_150,150,first-150,51,rng,num-start-101,101,17520,1.2383170127868652,True,,True,1,False,1000,True,1.0
./expes/v2_2020-11-09_3bh_150-prng-1,30_base_hphc_150,150,first-150,51,rng,num-start-581,581,17520,7.368815898895264,True,,True,1,False,1000,True,1.0
./expes/v2_2020-11-09_3bh_150-prng-1,30_base_hphc_150,150,first-150,1,rng,num-start-991,991,17520,8.471319437026978,True,,True,1,False,1000,True,1.0
./expes/v2_2020-11-09_3bh_150-prng-1,30_base_hphc_150,150,first-150,21,rng,num-start-501,501,17520,5.964821100234985,True,,True,1,False,1000,True,1.0
./expes/v2_2020-11-09_3bh_150-prng-1,30_base_hphc_150,150,first-150,11,rng,num-start-731,731,17520,7.959691047668457,True,,True,1,False,1000,True,1.0
./expes/v2_2020-11-09_3bh_150-prng-1,30_base_hphc_150,150,first-150,81,rng,num-start-711,711,17520,9.099703550338745,True,,True,1,False,1000,True,1.0
./expes/v2_2020-11-09_3bh_150-prng-1,30_base_hphc_150,150,first-150,91,rng,num-start-981,981,17520,11.866811990737915,True,,True,1,False,1000,True,1.0
./expes/v2_2020-11-09_3bh_150-prng-1,30_base_hphc_150,150,first-150,131,rng,num-start-771,771,17520,9.26449179649353,True,,True,1,False,1000,True,1.0
./expes/v2_2020-11-09_3bh_150-prng-1,30_base_hphc_150,150,first-150,101,rng,num-start-591,591,17520,7.161560535430908,True,,True,1,False,1000,True,1.0
./expes/v2_2020-11-09_3bh_150-prng-1,30_base_hphc_150,150,first-150,121,rng,num-start-31,31,17520,2.834930419921875,True,,True,1,False,1000,True,1.0
./expes/v2_2020-11-09_3bh_150-prng-1,30_base_hphc_150,150,first-150,71,rng,num-start-231,231,17520,2.8169727325439453,True,,True,1,False,1000,True,1.0
./expes/v2_2020-11-09_3bh_150-prng-1,30_base_hphc_150,150,first-150,121,rng,num-start-331,331,17520,4.158145189285278,True,,True,1,False,1000,True,1.0
./expes/v2_2020-11-09_3bh_150-prng-1,30_base_hphc_150,150,first-150,121,rng,num-start-91,91,17520,1.2439851760864258,True,,True,1,False,1000,True,1.0
./expes/v2_2020-11-09_3bh_150-prng-1,30_base_hphc_150,150,first-150,31,rng,num-start-201,201,17520,2.8893892765045166,True,,True,1,False,1000,True,1.0
./expes/v2_2020-11-09_3bh_150-prng-1,30_base_hphc_150,150,first-150,51,rng,num-start-491,491,17520,5.335806608200073,True,,True,1,False,1000,True,1.0
./expes/v2_2020-11-09_3bh_150-prng-1,30_base_hphc_150,150,first-150,91,rng,num-start-781,781,17520,9.43596863746643,True,,True,1,False,1000,True,1.0
./expes/v2_2020-11-09_3bh_150-prng-1,30_base_hphc_150,150,first-150,51,rng,num-start-21,21,17520,1000.3491988182068,False,,False,0,True,1000,True,0.0
./expes/v2_2020-11-09_3bh_150-prng-1,30_base_hphc_150,150,first-150,11,rng,num-start-701,701,17520,7.729790210723877,True,,True,1,False,1000,True,1.0
./expes/v2_2020-11-09_3bh_150-prng-1,30_base_hphc_150,150,first-150,91,rng,num-start-151,151,17520,2.3594820499420166,True,,True,1,False,1000,True,1.0
./expes/v2_2020-11-09_3bh_150-prng-1,30_base_hphc_150,150,first-150,21,rng,num-start-211,211,17520,2.7574334144592285,True,,True,1,False,1000,True,1.0
./expes/v2_2020-11-09_3bh_150-prng-1,30_base_hphc_150,150,first-150,31,rng,num-start-571,571,17520,6.893393278121948,True,,True,1,False,1000,True,1.0
./expes/v2_2020-11-09_3bh_150-prng-1,30_base_hphc_150,150,first-150,61,rng,num-start-891,891,17520,10.034806966781616,True,,True,1,False,1000,True,1.0
./expes/v2_2020-11-09_3bh_150-prng-1,30_base_hphc_150,150,first-150,111,rng,num-start-501,501,17520,5.838989734649658,True,,True,1,False,1000,True,1.0
./expes/v2_2020-11-09_3bh_150-prng-1,30_base_hphc_150,150,first-150,111,rng,num-start-501,501,17520,5.413038492202759,True,,True,1,False,1000,True,1.0
./expes/v2_2020-11-09_3bh_150-prng-1,30_base_hphc_150,150,first-150,61,rng,num-start-151,151,17520,1.8687653541564941,True,,True,1,False,1000,True,1.0
./expes/v2_2020-11-09_3bh_150-prng-1,30_base_hphc_150,150,first-150,101,rng,num-start-981,981,17520,11.275053977966309,True,,True,1,False,1000,True,1.0
./expes/v2_2020-11-09_3bh_150-prng-1,30_base_hphc_150,150,first-150,41,rng,num-start-131,131,17520,1.384775161743164,True,,True,1,False,1000,True,1.0
./expes/v2_2020-11-09_3bh_150-prng-1,30_base_hphc_150,150,first-150,61,rng,num-start-461,461,17520,5.855625629425049,True,,True,1,False,1000,True,1.0
./expes/v2_2020-11-09_3bh_150-prng-1,30_base_hphc_150,150,first-150,71,rng,num-start-271,271,17520,2.9019007682800293,True,,True,1,False,1000,True,1.0
./expes/v2_2020-11-09_3bh_150-prng-1,30_base_hphc_150,150,first-150,31,rng,num-start-371,371,17520,4.32037615776062,True,,True,1,False,1000,True,1.0
./expes/v2_2020-11-09_3bh_150-prng-1,30_base_hphc_150,150,first-150,111,rng,num-start-541,541,17520,6.119011878967285,True,,True,1,False,1000,True,1.0
./expes/v2_2020-11-09_3bh_150-prng-1,30_base_hphc_150,150,first-150,71,rng,num-start-11,11,17520,1000.1727292537689,False,,False,0,True,1000,True,0.0
./expes/v2_2020-11-09_3bh_150-prng-1,30_base_hphc_150,150,first-150,121,rng,num-start-171,171,17520,2.15681791305542,True,,True,1,False,1000,True,1.0
./expes/v2_2020-11-09_3bh_150-prng-1,30_base_hphc_150,150,first-150,31,rng,num-start-161,161,17520,2.310516119003296,True,,True,1,False,1000,True,1.0
./expes/v2_2020-11-09_3bh_150-prng-1,30_base_hphc_150,150,first-150,81,rng,num-start-101,101,17520,1.550201416015625,True,,True,1,False,1000,True,1.0
./expes/v2_2020-11-09_3bh_150-prng-1,30_base_hphc_150,150,first-150,31,rng,num-start-121,121,17520,1.5417826175689697,True,,True,1,False,1000,True,1.0
./expes/v2_2020-11-09_3bh_150-prng-1,30_base_hphc_150,150,first-150,41,rng,num-start-511,511,17520,6.295744180679321,True,,True,1,False,1000,True,1.0
./expes/v2_2020-11-09_3bh_150-prng-1,30_base_hphc_150,150,first-150,91,rng,num-start-871,871,17520,10.692871332168579,True,,True,1,False,1000,True,1.0
./expes/v2_2020-11-09_3bh_150-prng-1,30_base_hphc_150,150,first-150,31,rng,num-start-421,421,17520,5.283555269241333,True,,True,1,False,1000,True,1.0
./expes/v2_2020-11-09_3bh_150-prng-1,30_base_hphc_150,150,first-150,121,rng,num-start-271,271,17520,3.2688260078430176,True,,True,1,False,1000,True,1.0
./expes/v2_2020-11-09_3bh_150-prng-1,30_base_hphc_150,150,first-150,71,rng,num-start-251,251,17520,3.035602569580078,True,,True,1,False,1000,True,1.0
./expes/v2_2020-11-09_3bh_150-prng-1,30_base_hphc_150,150,first-150,81,rng,num-start-751,751,17520,10.494422197341919,True,,True,1,False,1000,True,1.0
./expes/v2_2020-11-09_3bh_150-prng-1,30_base_hphc_150,150,first-150,11,rng,num-start-701,701,17520,8.384685516357422,True,,True,1,False,1000,True,1.0
./expes/v2_2020-11-09_3bh_150-prng-1,30_base_hphc_150,150,first-150,71,rng,num-start-291,291,17520,3.917252779006958,True,,True,1,False,1000,True,1.0
./expes/v2_2020-11-09_3bh_150-prng-1,30_base_hphc_150,150,first-150,51,rng,num-start-501,501,17520,5.832139015197754,True,,True,1,False,1000,True,1.0
./expes/v2_2020-11-09_3bh_150-prng-1,30_base_hphc_150,150,first-150,51,rng,num-start-421,421,17520,4.797115802764893,True,,True,1,False,1000,True,1.0
./expes/v2_2020-11-09_3bh_150-prng-1,30_base_hphc_150,150,first-150,21,rng,num-start-931,931,17520,11.15944766998291,True,,True,1,False,1000,True,1.0
./expes/v2_2020-11-09_3bh_150-prng-1,30_base_hphc_150,150,first-150,101,rng,num-start-801,801,17520,10.042555332183838,True,,True,1,False,1000,True,1.0
./expes/v2_2020-11-09_3bh_150-prng-1,30_base_hphc_150,150,first-150,111,rng,num-start-161,161,17520,2.1922130584716797,True,,True,1,False,1000,True,1.0
./expes/v2_2020-11-09_3bh_150-prng-1,30_base_hphc_150,150,first-150,61,rng,num-start-821,821,17520,10.160099029541016,True,,True,1,False,1000,True,1.0
./expes/v2_2020-11-09_3bh_150-prng-1,30_base_hphc_150,150,first-150,121,rng,num-start-41,41,17520,3.0427181720733643,True,,True,1,False,1000,True,1.0
./expes/v2_2020-11-09_3bh_150-prng-1,30_base_hphc_150,150,first-150,31,rng,num-start-941,941,17520,11.335062026977539,True,,True,1,False,1000,True,1.0
./expes/v2_2020-11-09_3bh_150-prng-1,30_base_hphc_150,150,first-150,141,rng,num-start-811,811,17520,7.973653793334961,True,,True,1,False,1000,True,1.0
./expes/v2_2020-11-09_3bh_150-prng-1,30_base_hphc_150,150,first-150,101,rng,num-start-161,161,17520,1.9146575927734375,True,,True,1,False,1000,True,1.0
./expes/v2_2020-11-09_3bh_150-prng-1,30_base_hphc_150,150,first-150,71,rng,num-start-361,361,17520,4.326694488525391,True,,True,1,False,1000,True,1.0
./expes/v2_2020-11-09_3bh_150-prng-1,30_base_hphc_150,150,first-150,11,rng,num-start-291,291,17520,3.650381088256836,True,,True,1,False,1000,True,1.0
./expes/v2_2020-11-09_3bh_150-prng-1,30_base_hphc_150,150,first-150,91,rng,num-start-861,861,17520,10.267786741256714,True,,True,1,False,1000,True,1.0
./expes/v2_2020-11-09_3bh_150-prng-1,30_base_hphc_150,150,first-150,141,rng,num-start-191,191,17520,2.0675976276397705,True,,True,1,False,1000,True,1.0
./expes/v2_2020-11-09_3bh_150-prng-1,30_base_hphc_150,150,first-150,61,rng,num-start-591,591,17520,7.29920768737793,True,,True,1,False,1000,True,1.0
./expes/v2_2020-11-09_3bh_150-prng-1,30_base_hphc_150,150,first-150,131,rng,num-start-841,841,17520,9.34088683128357,True,,True,1,False,1000,True,1.0
./expes/v2_2020-11-09_3bh_150-prng-1,30_base_hphc_150,150,first-150,21,rng,num-start-211,211,17520,2.4751174449920654,True,,True,1,False,1000,True,1.0
./expes/v2_2020-11-09_3bh_150-prng-1,30_base_hphc_150,150,first-150,61,rng,num-start-301,301,17520,3.464487075805664,True,,True,1,False,1000,True,1.0
./expes/v2_2020-11-09_3bh_150-prng-1,30_base_hphc_150,150,first-150,111,rng,num-start-591,591,17520,7.19317364692688,True,,True,1,False,1000,True,1.0
./expes/v2_2020-11-09_3bh_150-prng-1,30_base_hphc_150,150,first-150,91,rng,num-start-371,371,17520,4.737969636917114,True,,True,1,False,1000,True,1.0
./expes/v2_2020-11-09_3bh_150-prng-1,30_base_hphc_150,150,first-150,131,rng,num-start-261,261,17520,3.3628556728363037,True,,True,1,False,1000,True,1.0
./expes/v2_2020-11-09_3bh_150-prng-1,30_base_hphc_150,150,first-150,61,rng,num-start-41,41,17520,1000.8645367622375,False,,False,1,True,1000,True,0.0
./expes/v2_2020-11-09_3bh_150-prng-1,30_base_hphc_150,150,first-150,141,rng,num-start-821,821,17520,8.09645700454712,True,,True,1,False,1000,True,1.0
./expes/v2_2020-11-09_3bh_150-prng-1,30_base_hphc_150,150,first-150,21,rng,num-start-331,331,17520,3.708091974258423,True,,True,1,False,1000,True,1.0
./expes/v2_2020-11-09_3bh_150-prng-1,30_base_hphc_150,150,first-150,111,rng,num-start-401,401,17520,5.081439018249512,True,,True,1,False,1000,True,1.0
./expes/v2_2020-11-09_3bh_150-prng-1,30_base_hphc_150,150,first-150,71,rng,num-start-81,81,17520,1.1090834140777588,True,,True,1,False,1000,True,1.0
./expes/v2_2020-11-09_3bh_150-prng-1,30_base_hphc_150,150,first-150,31,rng,num-start-221,221,17520,3.0648410320281982,True,,True,1,False,1000,True,1.0
./expes/v2_2020-11-09_3bh_150-prng-1,30_base_hphc_150,150,first-150,71,rng,num-start-991,991,17520,11.021258354187012,True,,True,1,False,1000,True,1.0
./expes/v2_2020-11-09_3bh_150-prng-1,30_base_hphc_150,150,first-150,91,rng,num-start-401,401,17520,4.481246471405029,True,,True,1,False,1000,True,1.0
./expes/v2_2020-11-09_3bh_150-prng-1,30_base_hphc_150,150,first-150,141,rng,num-start-141,141,17520,1.4795737266540527,True,,True,1,False,1000,True,1.0
./expes/v2_2020-11-09_3bh_150-prng-1,30_base_hphc_150,150,first-150,61,rng,num-start-611,611,17520,7.703938961029053,True,,True,1,False,1000,True,1.0
./expes/v2_2020-11-09_3bh_150-prng-1,30_base_hphc_150,150,first-150,41,rng,num-start-741,741,17520,9.901002168655396,True,,True,1,False,1000,True,1.0
./expes/v2_2020-11-09_3bh_150-prng-1,30_base_hphc_150,150,first-150,11,rng,num-start-601,601,17520,6.279586553573608,True,,True,1,False,1000,True,1.0
./expes/v2_2020-11-09_3bh_150-prng-1,30_base_hphc_150,150,first-150,111,rng,num-start-641,641,17520,7.381270408630371,True,,True,1,False,1000,True,1.0
./expes/v2_2020-11-09_3bh_150-prng-1,30_base_hphc_150,150,first-150,131,rng,num-start-511,511,17520,5.734877347946167,True,,True,1,False,1000,True,1.0
./expes/v2_2020-11-09_3bh_150-prng-1,30_base_hphc_150,150,first-150,11,rng,num-start-971,971,17520,9.574679136276245,True,,True,1,False,1000,True,1.0
./expes/v2_2020-11-09_3bh_150-prng-1,30_base_hphc_150,150,first-150,41,rng,num-start-131,131,17520,1.5475854873657227,True,,True,1,False,1000,True,1.0
./expes/v2_2020-11-09_3bh_150-prng-1,30_base_hphc_150,150,first-150,141,rng,num-start-171,171,17520,1.8298718929290771,True,,True,1,False,1000,True,1.0
./expes/v2_2020-11-09_3bh_150-prng-1,30_base_hphc_150,150,first-150,131,rng,num-start-821,821,17520,9.523555994033813,True,,True,1,False,1000,True,1.0
./expes/v2_2020-11-09_3bh_150-prng-1,30_base_hphc_150,150,first-150,141,rng,num-start-751,751,17520,7.4546709060668945,True,,True,1,False,1000,True,1.0
./expes/v2_2020-11-09_3bh_150-prng-1,30_base_hphc_150,150,first-150,121,rng,num-start-781,781,17520,10.323229551315308,True,,True,1,False,1000,True,1.0
./expes/v2_2020-11-09_3bh_150-prng-1,30_base_hphc_150,150,first-150,101,rng,num-start-871,871,17520,11.039342164993286,True,,True,1,False,1000,True,1.0
./expes/v2_2020-11-09_3bh_150-prng-1,30_base_hphc_150,150,first-150,111,rng,num-start-221,221,17520,2.7319600582122803,True,,True,1,False,1000,True,1.0
./expes/v2_2020-11-09_3bh_150-prng-1,30_base_hphc_150,150,first-150,71,rng,num-start-681,681,17520,8.373520851135254,True,,True,1,False,1000,True,1.0
./expes/v2_2020-11-09_3bh_150-prng-1,30_base_hphc_150,150,first-150,1,rng,num-start-571,571,17520,5.100138425827026,True,,True,1,False,1000,True,1.0
./expes/v2_2020-11-09_3bh_150-prng-1,30_base_hphc_150,150,first-150,91,rng,num-start-261,261,17520,3.3027899265289307,True,,True,1,False,1000,True,1.0
./expes/v2_2020-11-09_3bh_150-prng-1,30_base_hphc_150,150,first-150,61,rng,num-start-701,701,17520,7.801134347915649,True,,True,1,False,1000,True,1.0
./expes/v2_2020-11-09_3bh_150-prng-1,30_base_hphc_150,150,first-150,51,rng,num-start-841,841,17520,10.175188064575195,True,,True,1,False,1000,True,1.0
./expes/v2_2020-11-09_3bh_150-prng-1,30_base_hphc_150,150,first-150,61,rng,num-start-721,721,17520,8.404191255569458,True,,True,1,False,1000,True,1.0
./expes/v2_2020-11-09_3bh_150-prng-1,30_base_hphc_150,150,first-150,121,rng,num-start-741,741,17520,9.387410402297974,True,,True,1,False,1000,True,1.0
./expes/v2_2020-11-09_3bh_150-prng-1,30_base_hphc_150,150,first-150,101,rng,num-start-151,151,17520,1.7563934326171875,True,,True,1,False,1000,True,1.0
./expes/v2_2020-11-09_3bh_150-prng-1,30_base_hphc_150,150,first-150,41,rng,num-start-131,131,17520,1.513056993484497,True,,True,1,False,1000,True,1.0
./expes/v2_2020-11-09_3bh_150-prng-1,30_base_hphc_150,150,first-150,71,rng,num-start-141,141,17520,1.693453073501587,True,,True,1,False,1000,True,1.0
./expes/v2_2020-11-09_3bh_150-prng-1,30_base_hphc_150,150,first-150,131,rng,num-start-971,971,17520,10.709890604019165,True,,True,1,False,1000,True,1.0
./expes/v2_2020-11-09_3bh_150-prng-1,30_base_hphc_150,150,first-150,81,rng,num-start-651,651,17520,8.07726001739502,True,,True,1,False,1000,True,1.0
./expes/v2_2020-11-09_3bh_150-prng-1,30_base_hphc_150,150,first-150,11,rng,num-start-881,881,17520,12.050537586212158,True,,True,1,False,1000,True,1.0
./expes/v2_2020-11-09_3bh_150-prng-1,30_base_hphc_150,150,first-150,11,rng,num-start-431,431,17520,4.868459463119507,True,,True,1,False,1000,True,1.0
./expes/v2_2020-11-09_3bh_150-prng-1,30_base_hphc_150,150,first-150,141,rng,num-start-201,201,17520,2.0955421924591064,True,,True,1,False,1000,True,1.0
./expes/v2_2020-11-09_3bh_150-prng-1,30_base_hphc_150,150,first-150,111,rng,num-start-481,481,17520,5.477363348007202,True,,True,1,False,1000,True,1.0
./expes/v2_2020-11-09_3bh_150-prng-1,30_base_hphc_150,150,first-150,11,rng,num-start-811,811,17520,9.447705745697021,True,,True,1,False,1000,True,1.0
./expes/v2_2020-11-09_3bh_150-prng-1,30_base_hphc_150,150,first-150,141,rng,num-start-231,231,17520,2.4070723056793213,True,,True,1,False,1000,True,1.0
./expes/v2_2020-11-09_3bh_150-prng-1,30_base_hphc_150,150,first-150,71,rng,num-start-801,801,17520,10.323183298110962,True,,True,1,False,1000,True,1.0
./expes/v2_2020-11-09_3bh_150-prng-1,30_base_hphc_150,150,first-150,91,rng,num-start-521,521,17520,5.659477949142456,True,,True,1,False,1000,True,1.0
./expes/v2_2020-11-09_3bh_150-prng-1,30_base_hphc_150,150,first-150,131,rng,num-start-871,871,17520,9.289665222167969,True,,True,1,False,1000,True,1.0
./expes/v2_2020-11-09_3bh_150-prng-1,30_base_hphc_150,150,first-150,31,rng,num-start-151,151,17520,1.7333323955535889,True,,True,1,False,1000,True,1.0
./expes/v2_2020-11-09_3bh_150-prng-1,30_base_hphc_150,150,first-150,91,rng,num-start-131,131,17520,1.73077392578125,True,,True,1,False,1000,True,1.0
./expes/v2_2020-11-09_3bh_150-prng-1,30_base_hphc_150,150,first-150,71,rng,num-start-581,581,17520,6.187754392623901,True,,True,1,False,1000,True,1.0
./expes/v2_2020-11-09_3bh_150-prng-1,30_base_hphc_150,150,first-150,61,rng,num-start-141,141,17520,2.065706491470337,True,,True,1,False,1000,True,1.0
./expes/v2_2020-11-09_3bh_150-prng-1,30_base_hphc_150,150,first-150,21,rng,num-start-31,31,17520,31.25303030014038,True,,True,1,False,1000,True,1.0
./expes/v2_2020-11-09_3bh_150-prng-1,30_base_hphc_150,150,first-150,21,rng,num-start-801,801,17520,10.3091139793396,True,,True,1,False,1000,True,1.0
./expes/v2_2020-11-09_3bh_150-prng-1,30_base_hphc_150,150,first-150,71,rng,num-start-441,441,17520,5.248063087463379,True,,True,1,False,1000,True,1.0
./expes/v2_2020-11-09_3bh_150-prng-1,30_base_hphc_150,150,first-150,71,rng,num-start-1,1,17520,0.016737937927246094,False,,False,2,False,1000,True,1.0
./expes/v2_2020-11-09_3bh_150-prng-1,30_base_hphc_150,150,first-150,41,rng,num-start-181,181,17520,2.163015604019165,True,,True,1,False,1000,True,1.0
./expes/v2_2020-11-09_3bh_150-prng-1,30_base_hphc_150,150,first-150,111,rng,num-start-201,201,17520,2.542494058609009,True,,True,1,False,1000,True,1.0
./expes/v2_2020-11-09_3bh_150-prng-1,30_base_hphc_150,150,first-150,111,rng,num-start-141,141,17520,1.6622817516326904,True,,True,1,False,1000,True,1.0
./expes/v2_2020-11-09_3bh_150-prng-1,30_base_hphc_150,150,first-150,131,rng,num-start-491,491,17520,5.6291186809539795,True,,True,1,False,1000,True,1.0
./expes/v2_2020-11-09_3bh_150-prng-1,30_base_hphc_150,150,first-150,121,rng,num-start-21,21,17520,1001.8559997081757,False,,False,0,True,1000,True,0.0
./expes/v2_2020-11-09_3bh_150-prng-1,30_base_hphc_150,150,first-150,41,rng,num-start-701,701,17520,8.075287342071533,True,,True,1,False,1000,True,1.0
./expes/v2_2020-11-09_3bh_150-prng-1,30_base_hphc_150,150,first-150,131,rng,num-start-681,681,17520,8.515162467956543,True,,True,1,False,1000,True,1.0
./expes/v2_2020-11-09_3bh_150-prng-1,30_base_hphc_150,150,first-150,81,rng,num-start-291,291,17520,3.796903133392334,True,,True,1,False,1000,True,1.0
./expes/v2_2020-11-09_3bh_150-prng-1,30_base_hphc_150,150,first-150,21,rng,num-start-191,191,17520,2.6442692279815674,True,,True,1,False,1000,True,1.0
./expes/v2_2020-11-09_3bh_150-prng-1,30_base_hphc_150,150,first-150,21,rng,num-start-171,171,17520,2.080888032913208,True,,True,1,False,1000,True,1.0
./expes/v2_2020-11-09_3bh_150-prng-1,30_base_hphc_150,150,first-150,31,rng,num-start-731,731,17520,8.814576148986816,True,,True,1,False,1000,True,1.0
./expes/v2_2020-11-09_3bh_150-prng-1,30_base_hphc_150,150,first-150,1,rng,num-start-791,791,17520,7.207245349884033,True,,True,1,False,1000,True,1.0
./expes/v2_2020-11-09_3bh_150-prng-1,30_base_hphc_150,150,first-150,121,rng,num-start-551,551,17520,6.362684965133667,True,,True,1,False,1000,True,1.0
./expes/v2_2020-11-09_3bh_150-prng-1,30_base_hphc_150,150,first-150,11,rng,num-start-271,271,17520,3.376925468444824,True,,True,1,False,1000,True,1.0
./expes/v2_2020-11-09_3bh_150-prng-1,30_base_hphc_150,150,first-150,41,rng,num-start-311,311,17520,4.0382256507873535,True,,True,1,False,1000,True,1.0
./expes/v2_2020-11-09_3bh_150-prng-1,30_base_hphc_150,150,first-150,91,rng,num-start-501,501,17520,5.542207956314087,True,,True,1,False,1000,True,1.0
./expes/v2_2020-11-09_3bh_150-prng-1,30_base_hphc_150,150,first-150,81,rng,num-start-941,941,17520,10.939354181289673,True,,True,1,False,1000,True,1.0
./expes/v2_2020-11-09_3bh_150-prng-1,30_base_hphc_150,150,first-150,31,rng,num-start-981,981,17520,14.333537578582764,True,,True,1,False,1000,True,1.0
./expes/v2_2020-11-09_3bh_150-prng-1,30_base_hphc_150,150,first-150,81,rng,num-start-491,491,17520,6.096978425979614,True,,True,1,False,1000,True,1.0
./expes/v2_2020-11-09_3bh_150-prng-1,30_base_hphc_150,150,first-150,41,rng,num-start-211,211,17520,2.4988601207733154,True,,True,1,False,1000,True,1.0
./expes/v2_2020-11-09_3bh_150-prng-1,30_base_hphc_150,150,first-150,111,rng,num-start-341,341,17520,4.509424448013306,True,,True,1,False,1000,True,1.0
./expes/v2_2020-11-09_3bh_150-prng-1,30_base_hphc_150,150,first-150,11,rng,num-start-421,421,17520,4.973287343978882,True,,True,1,False,1000,True,1.0
./expes/v2_2020-11-09_3bh_150-prng-1,30_base_hphc_150,150,first-150,121,rng,num-start-251,251,17520,3.3561418056488037,True,,True,1,False,1000,True,1.0
./expes/v2_2020-11-09_3bh_150-prng-1,30_base_hphc_150,150,first-150,31,rng,num-start-931,931,17520,11.385370254516602,True,,True,1,False,1000,True,1.0
./expes/v2_2020-11-09_3bh_150-prng-1,30_base_hphc_150,150,first-150,81,rng,num-start-971,971,17520,12.585532188415527,True,,True,1,False,1000,True,1.0
./expes/v2_2020-11-09_3bh_150-prng-1,30_base_hphc_150,150,first-150,101,rng,num-start-171,171,17520,1.9528732299804688,True,,True,1,False,1000,True,1.0
./expes/v2_2020-11-09_3bh_150-prng-1,30_base_hphc_150,150,first-150,61,rng,num-start-361,361,17520,3.884683847427368,True,,True,1,False,1000,True,1.0
./expes/v2_2020-11-09_3bh_150-prng-1,30_base_hphc_150,150,first-150,81,rng,num-start-671,671,17520,7.976886987686157,True,,True,1,False,1000,True,1.0
./expes/v2_2020-11-09_3bh_150-prng-1,30_base_hphc_150,150,first-150,81,rng,num-start-971,971,17520,11.530335187911987,True,,True,1,False,1000,True,1.0
./expes/v2_2020-11-09_3bh_150-prng-1,30_base_hphc_150,150,first-150,21,rng,num-start-861,861,17520,9.753233909606934,True,,True,1,False,1000,True,1.0
./expes/v2_2020-11-09_3bh_150-prng-1,30_base_hphc_150,150,first-150,121,rng,num-start-631,631,17520,7.145516633987427,True,,True,1,False,1000,True,1.0
./expes/v2_2020-11-09_3bh_150-prng-1,30_base_hphc_150,150,first-150,101,rng,num-start-791,791,17520,9.30947494506836,True,,True,1,False,1000,True,1.0
./expes/v2_2020-11-09_3bh_150-prng-1,30_base_hphc_150,150,first-150,11,rng,num-start-731,731,17520,7.970465898513794,True,,True,1,False,1000,True,1.0
./expes/v2_2020-11-09_3bh_150-prng-1,30_base_hphc_150,150,first-150,41,rng,num-start-981,981,17520,11.689072608947754,True,,True,1,False,1000,True,1.0
./expes/v2_2020-11-09_3bh_150-prng-1,30_base_hphc_150,150,first-150,101,rng,num-start-681,681,17520,7.206734895706177,True,,True,1,False,1000,True,1.0
./expes/v2_2020-11-09_3bh_150-prng-1,30_base_hphc_150,150,first-150,91,rng,num-start-311,311,17520,4.290526390075684,True,,True,1,False,1000,True,1.0
./expes/v2_2020-11-09_3bh_150-prng-1,30_base_hphc_150,150,first-150,41,rng,num-start-551,551,17520,6.318267583847046,True,,True,1,False,1000,True,1.0
./expes/v2_2020-11-09_3bh_150-prng-1,30_base_hphc_150,150,first-150,131,rng,num-start-801,801,17520,8.39724612236023,True,,True,1,False,1000,True,1.0
./expes/v2_2020-11-09_3bh_150-prng-1,30_base_hphc_150,150,first-150,51,rng,num-start-701,701,17520,7.576546669006348,True,,True,1,False,1000,True,1.0
./expes/v2_2020-11-09_3bh_150-prng-1,30_base_hphc_150,150,first-150,111,rng,num-start-511,511,17520,5.622758150100708,True,,True,1,False,1000,True,1.0
./expes/v2_2020-11-09_3bh_150-prng-1,30_base_hphc_150,150,first-150,121,rng,num-start-31,31,17520,212.59048008918762,True,,True,1,False,1000,True,1.0
./expes/v2_2020-11-09_3bh_150-prng-1,30_base_hphc_150,150,first-150,101,rng,num-start-591,591,17520,7.182542085647583,True,,True,1,False,1000,True,1.0
./expes/v2_2020-11-09_3bh_150-prng-1,30_base_hphc_150,150,first-150,121,rng,num-start-341,341,17520,4.034842491149902,True,,True,1,False,1000,True,1.0
./expes/v2_2020-11-09_3bh_150-prng-1,30_base_hphc_150,150,first-150,121,rng,num-start-921,921,17520,12.345709085464478,True,,True,1,False,1000,True,1.0
./expes/v2_2020-11-09_3bh_150-prng-1,30_base_hphc_150,150,first-150,131,rng,num-start-61,61,17520,0.965325117111206,True,,True,1,False,1000,True,1.0
./expes/v2_2020-11-09_3bh_150-prng-1,30_base_hphc_150,150,first-150,71,rng,num-start-441,441,17520,5.2387919425964355,True,,True,1,False,1000,True,1.0
./expes/v2_2020-11-09_3bh_150-prng-1,30_base_hphc_150,150,first-150,11,rng,num-start-231,231,17520,2.947847604751587,True,,True,1,False,1000,True,1.0
./expes/v2_2020-11-09_3bh_150-prng-1,30_base_hphc_150,150,first-150,71,rng,num-start-951,951,17520,10.588320255279541,True,,True,1,False,1000,True,1.0
./expes/v2_2020-11-09_3bh_150-prng-1,30_base_hphc_150,150,first-150,111,rng,num-start-851,851,17520,10.260711193084717,True,,True,1,False,1000,True,1.0
./expes/v2_2020-11-09_3bh_150-prng-1,30_base_hphc_150,150,first-150,71,rng,num-start-221,221,17520,2.6795029640197754,True,,True,1,False,1000,True,1.0
./expes/v2_2020-11-09_3bh_150-prng-1,30_base_hphc_150,150,first-150,141,rng,num-start-531,531,17520,5.570876121520996,True,,True,1,False,1000,True,1.0
./expes/v2_2020-11-09_3bh_150-prng-1,30_base_hphc_150,150,first-150,31,rng,num-start-121,121,17520,1.7503421306610107,True,,True,1,False,1000,True,1.0
./expes/v2_2020-11-09_3bh_150-prng-1,30_base_hphc_150,150,first-150,61,rng,num-start-521,521,17520,6.680000305175781,True,,True,1,False,1000,True,1.0
./expes/v2_2020-11-09_3bh_150-prng-1,30_base_hphc_150,150,first-150,91,rng,num-start-61,61,17520,1.6383044719696045,True,,True,1,False,1000,True,1.0
./expes/v2_2020-11-09_3bh_150-prng-1,30_base_hphc_150,150,first-150,141,rng,num-start-171,171,17520,1.9992656707763672,True,,True,1,False,1000,True,1.0
./expes/v2_2020-11-09_3bh_150-prng-1,30_base_hphc_150,150,first-150,1,rng,num-start-661,661,17520,6.016575813293457,True,,True,1,False,1000,True,1.0
./expes/v2_2020-11-09_3bh_150-prng-1,30_base_hphc_150,150,first-150,21,rng,num-start-231,231,17520,2.7457311153411865,True,,True,1,False,1000,True,1.0
./expes/v2_2020-11-09_3bh_150-prng-1,30_base_hphc_150,150,first-150,11,rng,num-start-101,101,17520,1.2781703472137451,True,,True,1,False,1000,True,1.0
./expes/v2_2020-11-09_3bh_150-prng-1,30_base_hphc_150,150,first-150,101,rng,num-start-471,471,17520,5.562945604324341,True,,True,1,False,1000,True,1.0
./expes/v2_2020-11-09_3bh_150-prng-1,30_base_hphc_150,150,first-150,91,rng,num-start-451,451,17520,5.087381362915039,True,,True,1,False,1000,True,1.0
./expes/v2_2020-11-09_3bh_150-prng-1,30_base_hphc_150,150,first-150,41,rng,num-start-401,401,17520,4.310351371765137,True,,True,1,False,1000,True,1.0
./expes/v2_2020-11-09_3bh_150-prng-1,30_base_hphc_150,150,first-150,131,rng,num-start-41,41,17520,1.265139102935791,True,,True,1,False,1000,True,1.0
./expes/v2_2020-11-09_3bh_150-prng-1,30_base_hphc_150,150,first-150,11,rng,num-start-581,581,17520,6.370651960372925,True,,True,1,False,1000,True,1.0
