expe,clients,clients_size,clients_subset,agg_size,method,days,days_size,days_total,time,valid,valid_sum,success,nsols,wall_hit,wall_time,pooled,valid_sums
./expes/v2_2020-11-09_3bh_150-prng-1,30_base_hphc_150,150,first-150,51,rng,num-start-171,171,17520,4.057550430297852,True,,True,1,False,1000,True,1.0
./expes/v2_2020-11-09_3bh_150-prng-1,30_base_hphc_150,150,first-150,31,rng,num-start-671,671,17520,13.10636281967163,True,,True,1,False,1000,True,1.0
./expes/v2_2020-11-09_3bh_150-prng-1,30_base_hphc_150,150,first-150,131,rng,num-start-651,651,17520,12.235552072525024,True,,True,1,False,1000,True,1.0
./expes/v2_2020-11-09_3bh_150-prng-1,30_base_hphc_150,150,first-150,101,rng,num-start-281,281,17520,5.657090425491333,True,,True,1,False,1000,True,1.0
./expes/v2_2020-11-09_3bh_150-prng-1,30_base_hphc_150,150,first-150,41,rng,num-start-681,681,17520,13.052966594696045,True,,True,1,False,1000,True,1.0
./expes/v2_2020-11-09_3bh_150-prng-1,30_base_hphc_150,150,first-150,11,rng,num-start-881,881,17520,16.434534549713135,True,,True,1,False,1000,True,1.0
./expes/v2_2020-11-09_3bh_150-prng-1,30_base_hphc_150,150,first-150,71,rng,num-start-911,911,17520,17.776110410690308,True,,True,1,False,1000,True,1.0
./expes/v2_2020-11-09_3bh_150-prng-1,30_base_hphc_150,150,first-150,141,rng,num-start-251,251,17520,5.122880935668945,True,,True,1,False,1000,True,1.0
./expes/v2_2020-11-09_3bh_150-prng-1,30_base_hphc_150,150,first-150,81,rng,num-start-191,191,17520,3.9490950107574463,True,,True,1,False,1000,True,1.0
./expes/v2_2020-11-09_3bh_150-prng-1,30_base_hphc_150,150,first-150,91,rng,num-start-221,221,17520,4.663980007171631,True,,True,1,False,1000,True,1.0
./expes/v2_2020-11-09_3bh_150-prng-1,30_base_hphc_150,150,first-150,71,rng,num-start-371,371,17520,7.213844060897827,True,,True,1,False,1000,True,1.0
./expes/v2_2020-11-09_3bh_150-prng-1,30_base_hphc_150,150,first-150,141,rng,num-start-621,621,17520,11.539082050323486,True,,True,1,False,1000,True,1.0
./expes/v2_2020-11-09_3bh_150-prng-1,30_base_hphc_150,150,first-150,121,rng,num-start-161,161,17520,3.4679062366485596,True,,True,1,False,1000,True,1.0
./expes/v2_2020-11-09_3bh_150-prng-1,30_base_hphc_150,150,first-150,131,rng,num-start-761,761,17520,14.673128366470337,True,,True,1,False,1000,True,1.0
./expes/v2_2020-11-09_3bh_150-prng-1,30_base_hphc_150,150,first-150,111,rng,num-start-741,741,17520,14.408202648162842,True,,True,1,False,1000,True,1.0
./expes/v2_2020-11-09_3bh_150-prng-1,30_base_hphc_150,150,first-150,31,rng,num-start-351,351,17520,6.784555673599243,True,,True,1,False,1000,True,1.0
./expes/v2_2020-11-09_3bh_150-prng-1,30_base_hphc_150,150,first-150,71,rng,num-start-671,671,17520,12.829416036605835,True,,True,1,False,1000,True,1.0
./expes/v2_2020-11-09_3bh_150-prng-1,30_base_hphc_150,150,first-150,71,rng,num-start-861,861,17520,16.891517400741577,True,,True,1,False,1000,True,1.0
./expes/v2_2020-11-09_3bh_150-prng-1,30_base_hphc_150,150,first-150,61,rng,num-start-21,21,17520,1000.4664142131805,False,,False,0,True,1000,True,0.0
./expes/v2_2020-11-09_3bh_150-prng-1,30_base_hphc_150,150,first-150,121,rng,num-start-211,211,17520,4.646291494369507,True,,True,1,False,1000,True,1.0
./expes/v2_2020-11-09_3bh_150-prng-1,30_base_hphc_150,150,first-150,11,rng,num-start-151,151,17520,3.271803379058838,True,,True,1,False,1000,True,1.0
./expes/v2_2020-11-09_3bh_150-prng-1,30_base_hphc_150,150,first-150,1,rng,num-start-231,231,17520,4.018584966659546,True,,True,1,False,1000,True,1.0
./expes/v2_2020-11-09_3bh_150-prng-1,30_base_hphc_150,150,first-150,61,rng,num-start-281,281,17520,6.093340158462524,True,,True,1,False,1000,True,1.0
./expes/v2_2020-11-09_3bh_150-prng-1,30_base_hphc_150,150,first-150,101,rng,num-start-1,1,17520,0.035500288009643555,False,,False,2,False,1000,True,1.0
./expes/v2_2020-11-09_3bh_150-prng-1,30_base_hphc_150,150,first-150,121,rng,num-start-461,461,17520,9.216236591339111,True,,True,1,False,1000,True,1.0
./expes/v2_2020-11-09_3bh_150-prng-1,30_base_hphc_150,150,first-150,111,rng,num-start-341,341,17520,7.054713487625122,True,,True,1,False,1000,True,1.0
./expes/v2_2020-11-09_3bh_150-prng-1,30_base_hphc_150,150,first-150,21,rng,num-start-441,441,17520,9.004014492034912,True,,True,1,False,1000,True,1.0
./expes/v2_2020-11-09_3bh_150-prng-1,30_base_hphc_150,150,first-150,141,rng,num-start-951,951,17520,17.645371913909912,True,,True,1,False,1000,True,1.0
./expes/v2_2020-11-09_3bh_150-prng-1,30_base_hphc_150,150,first-150,31,rng,num-start-211,211,17520,4.714431047439575,True,,True,1,False,1000,True,1.0
./expes/v2_2020-11-09_3bh_150-prng-1,30_base_hphc_150,150,first-150,41,rng,num-start-541,541,17520,10.325478315353394,True,,True,1,False,1000,True,1.0
./expes/v2_2020-11-09_3bh_150-prng-1,30_base_hphc_150,150,first-150,71,rng,num-start-451,451,17520,8.87530779838562,True,,True,1,False,1000,True,1.0
./expes/v2_2020-11-09_3bh_150-prng-1,30_base_hphc_150,150,first-150,21,rng,num-start-861,861,17520,18.347651481628418,True,,True,1,False,1000,True,1.0
./expes/v2_2020-11-09_3bh_150-prng-1,30_base_hphc_150,150,first-150,71,rng,num-start-561,561,17520,11.131076574325562,True,,True,1,False,1000,True,1.0
./expes/v2_2020-11-09_3bh_150-prng-1,30_base_hphc_150,150,first-150,61,rng,num-start-121,121,17520,2.7494451999664307,True,,True,1,False,1000,True,1.0
./expes/v2_2020-11-09_3bh_150-prng-1,30_base_hphc_150,150,first-150,51,rng,num-start-161,161,17520,3.378913402557373,True,,True,1,False,1000,True,1.0
./expes/v2_2020-11-09_3bh_150-prng-1,30_base_hphc_150,150,first-150,121,rng,num-start-331,331,17520,6.50689697265625,True,,True,1,False,1000,True,1.0
./expes/v2_2020-11-09_3bh_150-prng-1,30_base_hphc_150,150,first-150,41,rng,num-start-891,891,17520,19.436203956604004,True,,True,1,False,1000,True,1.0
./expes/v2_2020-11-09_3bh_150-prng-1,30_base_hphc_150,150,first-150,11,rng,num-start-381,381,17520,7.498481512069702,True,,True,1,False,1000,True,1.0
./expes/v2_2020-11-09_3bh_150-prng-1,30_base_hphc_150,150,first-150,111,rng,num-start-341,341,17520,6.848989486694336,True,,True,1,False,1000,True,1.0
./expes/v2_2020-11-09_3bh_150-prng-1,30_base_hphc_150,150,first-150,21,rng,num-start-181,181,17520,3.8315253257751465,True,,True,1,False,1000,True,1.0
./expes/v2_2020-11-09_3bh_150-prng-1,30_base_hphc_150,150,first-150,61,rng,num-start-271,271,17520,6.04844331741333,True,,True,1,False,1000,True,1.0
./expes/v2_2020-11-09_3bh_150-prng-1,30_base_hphc_150,150,first-150,91,rng,num-start-351,351,17520,7.287441253662109,True,,True,1,False,1000,True,1.0
./expes/v2_2020-11-09_3bh_150-prng-1,30_base_hphc_150,150,first-150,131,rng,num-start-11,11,17520,1008.0623178482056,False,,False,0,True,1000,True,0.0
./expes/v2_2020-11-09_3bh_150-prng-1,30_base_hphc_150,150,first-150,61,rng,num-start-971,971,17520,19.028010606765747,True,,True,1,False,1000,True,1.0
./expes/v2_2020-11-09_3bh_150-prng-1,30_base_hphc_150,150,first-150,31,rng,num-start-681,681,17520,13.84467363357544,True,,True,1,False,1000,True,1.0
./expes/v2_2020-11-09_3bh_150-prng-1,30_base_hphc_150,150,first-150,11,rng,num-start-881,881,17520,17.267122507095337,True,,True,1,False,1000,True,1.0
./expes/v2_2020-11-09_3bh_150-prng-1,30_base_hphc_150,150,first-150,31,rng,num-start-101,101,17520,2.312978506088257,True,,True,1,False,1000,True,1.0
./expes/v2_2020-11-09_3bh_150-prng-1,30_base_hphc_150,150,first-150,1,rng,num-start-991,991,17520,17.227081775665283,True,,True,1,False,1000,True,1.0
./expes/v2_2020-11-09_3bh_150-prng-1,30_base_hphc_150,150,first-150,31,rng,num-start-61,61,17520,1.3557941913604736,True,,True,1,False,1000,True,1.0
./expes/v2_2020-11-09_3bh_150-prng-1,30_base_hphc_150,150,first-150,71,rng,num-start-371,371,17520,7.6316845417022705,True,,True,1,False,1000,True,1.0
./expes/v2_2020-11-09_3bh_150-prng-1,30_base_hphc_150,150,first-150,111,rng,num-start-411,411,17520,7.923012733459473,True,,True,1,False,1000,True,1.0
./expes/v2_2020-11-09_3bh_150-prng-1,30_base_hphc_150,150,first-150,51,rng,num-start-371,371,17520,7.2746522426605225,True,,True,1,False,1000,True,1.0
./expes/v2_2020-11-09_3bh_150-prng-1,30_base_hphc_150,150,first-150,1,rng,num-start-201,201,17520,3.5483460426330566,True,,True,1,False,1000,True,1.0
./expes/v2_2020-11-09_3bh_150-prng-1,30_base_hphc_150,150,first-150,51,rng,num-start-451,451,17520,8.82642388343811,True,,True,1,False,1000,True,1.0
./expes/v2_2020-11-09_3bh_150-prng-1,30_base_hphc_150,150,first-150,111,rng,num-start-171,171,17520,3.7046916484832764,True,,True,1,False,1000,True,1.0
./expes/v2_2020-11-09_3bh_150-prng-1,30_base_hphc_150,150,first-150,101,rng,num-start-581,581,17520,11.403707027435303,True,,True,1,False,1000,True,1.0
./expes/v2_2020-11-09_3bh_150-prng-1,30_base_hphc_150,150,first-150,81,rng,num-start-91,91,17520,2.0986857414245605,True,,True,1,False,1000,True,1.0
./expes/v2_2020-11-09_3bh_150-prng-1,30_base_hphc_150,150,first-150,121,rng,num-start-501,501,17520,9.839115858078003,True,,True,1,False,1000,True,1.0
./expes/v2_2020-11-09_3bh_150-prng-1,30_base_hphc_150,150,first-150,71,rng,num-start-151,151,17520,3.391580820083618,True,,True,1,False,1000,True,1.0
./expes/v2_2020-11-09_3bh_150-prng-1,30_base_hphc_150,150,first-150,81,rng,num-start-711,711,17520,14.219572305679321,True,,True,1,False,1000,True,1.0
./expes/v2_2020-11-09_3bh_150-prng-1,30_base_hphc_150,150,first-150,1,rng,num-start-271,271,17520,4.683088064193726,True,,True,1,False,1000,True,1.0
./expes/v2_2020-11-09_3bh_150-prng-1,30_base_hphc_150,150,first-150,41,rng,num-start-681,681,17520,14.237354516983032,True,,True,1,False,1000,True,1.0
./expes/v2_2020-11-09_3bh_150-prng-1,30_base_hphc_150,150,first-150,21,rng,num-start-101,101,17520,2.222386360168457,True,,True,1,False,1000,True,1.0
./expes/v2_2020-11-09_3bh_150-prng-1,30_base_hphc_150,150,first-150,21,rng,num-start-641,641,17520,12.43966007232666,True,,True,1,False,1000,True,1.0
./expes/v2_2020-11-09_3bh_150-prng-1,30_base_hphc_150,150,first-150,121,rng,num-start-311,311,17520,6.597021579742432,True,,True,1,False,1000,True,1.0
./expes/v2_2020-11-09_3bh_150-prng-1,30_base_hphc_150,150,first-150,61,rng,num-start-41,41,17520,1000.784410238266,False,,False,1,True,1000,True,0.0
./expes/v2_2020-11-09_3bh_150-prng-1,30_base_hphc_150,150,first-150,21,rng,num-start-481,481,17520,9.565305233001709,True,,True,1,False,1000,True,1.0
./expes/v2_2020-11-09_3bh_150-prng-1,30_base_hphc_150,150,first-150,91,rng,num-start-691,691,17520,13.99378228187561,True,,True,1,False,1000,True,1.0
./expes/v2_2020-11-09_3bh_150-prng-1,30_base_hphc_150,150,first-150,101,rng,num-start-521,521,17520,10.510228395462036,True,,True,1,False,1000,True,1.0
./expes/v2_2020-11-09_3bh_150-prng-1,30_base_hphc_150,150,first-150,21,rng,num-start-191,191,17520,4.0429368019104,True,,True,1,False,1000,True,1.0
./expes/v2_2020-11-09_3bh_150-prng-1,30_base_hphc_150,150,first-150,31,rng,num-start-971,971,17520,18.576336145401,True,,True,1,False,1000,True,1.0
./expes/v2_2020-11-09_3bh_150-prng-1,30_base_hphc_150,150,first-150,81,rng,num-start-351,351,17520,7.158195734024048,True,,True,1,False,1000,True,1.0
./expes/v2_2020-11-09_3bh_150-prng-1,30_base_hphc_150,150,first-150,71,rng,num-start-871,871,17520,17.3503839969635,True,,True,1,False,1000,True,1.0
./expes/v2_2020-11-09_3bh_150-prng-1,30_base_hphc_150,150,first-150,1,rng,num-start-941,941,17520,16.357499599456787,True,,True,1,False,1000,True,1.0
./expes/v2_2020-11-09_3bh_150-prng-1,30_base_hphc_150,150,first-150,11,rng,num-start-881,881,17520,17.172024488449097,True,,True,1,False,1000,True,1.0
./expes/v2_2020-11-09_3bh_150-prng-1,30_base_hphc_150,150,first-150,111,rng,num-start-721,721,17520,14.01536250114441,True,,True,1,False,1000,True,1.0
./expes/v2_2020-11-09_3bh_150-prng-1,30_base_hphc_150,150,first-150,81,rng,num-start-421,421,17520,8.531099796295166,True,,True,1,False,1000,True,1.0
./expes/v2_2020-11-09_3bh_150-prng-1,30_base_hphc_150,150,first-150,81,rng,num-start-161,161,17520,3.4054532051086426,True,,True,1,False,1000,True,1.0
./expes/v2_2020-11-09_3bh_150-prng-1,30_base_hphc_150,150,first-150,41,rng,num-start-631,631,17520,13.353674173355103,True,,True,1,False,1000,True,1.0
./expes/v2_2020-11-09_3bh_150-prng-1,30_base_hphc_150,150,first-150,41,rng,num-start-81,81,17520,1.8070149421691895,True,,True,1,False,1000,True,1.0
./expes/v2_2020-11-09_3bh_150-prng-1,30_base_hphc_150,150,first-150,81,rng,num-start-961,961,17520,18.954594135284424,True,,True,1,False,1000,True,1.0
./expes/v2_2020-11-09_3bh_150-prng-1,30_base_hphc_150,150,first-150,91,rng,num-start-401,401,17520,7.759849548339844,True,,True,1,False,1000,True,1.0
./expes/v2_2020-11-09_3bh_150-prng-1,30_base_hphc_150,150,first-150,61,rng,num-start-891,891,17520,17.350468158721924,True,,True,1,False,1000,True,1.0
./expes/v2_2020-11-09_3bh_150-prng-1,30_base_hphc_150,150,first-150,101,rng,num-start-691,691,17520,13.234739542007446,True,,True,1,False,1000,True,1.0
./expes/v2_2020-11-09_3bh_150-prng-1,30_base_hphc_150,150,first-150,1,rng,num-start-701,701,17520,12.2182035446167,True,,True,1,False,1000,True,1.0
./expes/v2_2020-11-09_3bh_150-prng-1,30_base_hphc_150,150,first-150,121,rng,num-start-891,891,17520,17.539260149002075,True,,True,1,False,1000,True,1.0
./expes/v2_2020-11-09_3bh_150-prng-1,30_base_hphc_150,150,first-150,31,rng,num-start-631,631,17520,12.333194494247437,True,,True,1,False,1000,True,1.0
./expes/v2_2020-11-09_3bh_150-prng-1,30_base_hphc_150,150,first-150,91,rng,num-start-101,101,17520,2.2782812118530273,True,,True,1,False,1000,True,1.0
./expes/v2_2020-11-09_3bh_150-prng-1,30_base_hphc_150,150,first-150,1,rng,num-start-661,661,17520,11.520404577255249,True,,True,1,False,1000,True,1.0
./expes/v2_2020-11-09_3bh_150-prng-1,30_base_hphc_150,150,first-150,1,rng,num-start-171,171,17520,2.9586808681488037,True,,True,1,False,1000,True,1.0
./expes/v2_2020-11-09_3bh_150-prng-1,30_base_hphc_150,150,first-150,21,rng,num-start-691,691,17520,13.869946002960205,True,,True,1,False,1000,True,1.0
./expes/v2_2020-11-09_3bh_150-prng-1,30_base_hphc_150,150,first-150,141,rng,num-start-521,521,17520,9.690203666687012,True,,True,1,False,1000,True,1.0
./expes/v2_2020-11-09_3bh_150-prng-1,30_base_hphc_150,150,first-150,121,rng,num-start-151,151,17520,3.317362070083618,True,,True,1,False,1000,True,1.0
./expes/v2_2020-11-09_3bh_150-prng-1,30_base_hphc_150,150,first-150,41,rng,num-start-791,791,17520,15.500566720962524,True,,True,1,False,1000,True,1.0
./expes/v2_2020-11-09_3bh_150-prng-1,30_base_hphc_150,150,first-150,61,rng,num-start-221,221,17520,4.862510919570923,True,,True,1,False,1000,True,1.0
./expes/v2_2020-11-09_3bh_150-prng-1,30_base_hphc_150,150,first-150,21,rng,num-start-981,981,17520,19.04634928703308,True,,True,1,False,1000,True,1.0
./expes/v2_2020-11-09_3bh_150-prng-1,30_base_hphc_150,150,first-150,1,rng,num-start-921,921,17520,16.064650297164917,True,,True,1,False,1000,True,1.0
./expes/v2_2020-11-09_3bh_150-prng-1,30_base_hphc_150,150,first-150,21,rng,num-start-121,121,17520,2.6188488006591797,True,,True,1,False,1000,True,1.0
./expes/v2_2020-11-09_3bh_150-prng-1,30_base_hphc_150,150,first-150,21,rng,num-start-791,791,17520,16.017877340316772,True,,True,1,False,1000,True,1.0
./expes/v2_2020-11-09_3bh_150-prng-1,30_base_hphc_150,150,first-150,121,rng,num-start-71,71,17520,1.837630033493042,True,,True,1,False,1000,True,1.0
./expes/v2_2020-11-09_3bh_150-prng-1,30_base_hphc_150,150,first-150,121,rng,num-start-781,781,17520,15.116639137268066,True,,True,1,False,1000,True,1.0
./expes/v2_2020-11-09_3bh_150-prng-1,30_base_hphc_150,150,first-150,51,rng,num-start-891,891,17520,17.47618007659912,True,,True,1,False,1000,True,1.0
./expes/v2_2020-11-09_3bh_150-prng-1,30_base_hphc_150,150,first-150,41,rng,num-start-81,81,17520,1.8792695999145508,True,,True,1,False,1000,True,1.0
./expes/v2_2020-11-09_3bh_150-prng-1,30_base_hphc_150,150,first-150,31,rng,num-start-851,851,17520,16.263986110687256,True,,True,1,False,1000,True,1.0
./expes/v2_2020-11-09_3bh_150-prng-1,30_base_hphc_150,150,first-150,121,rng,num-start-991,991,17520,19.124805212020874,True,,True,1,False,1000,True,1.0
./expes/v2_2020-11-09_3bh_150-prng-1,30_base_hphc_150,150,first-150,121,rng,num-start-81,81,17520,1.7997186183929443,True,,True,1,False,1000,True,1.0
./expes/v2_2020-11-09_3bh_150-prng-1,30_base_hphc_150,150,first-150,51,rng,num-start-121,121,17520,2.7334868907928467,True,,True,1,False,1000,True,1.0
./expes/v2_2020-11-09_3bh_150-prng-1,30_base_hphc_150,150,first-150,71,rng,num-start-271,271,17520,5.788738489151001,True,,True,1,False,1000,True,1.0
./expes/v2_2020-11-09_3bh_150-prng-1,30_base_hphc_150,150,first-150,81,rng,num-start-541,541,17520,10.746649503707886,True,,True,1,False,1000,True,1.0
./expes/v2_2020-11-09_3bh_150-prng-1,30_base_hphc_150,150,first-150,21,rng,num-start-21,21,17520,1010.9127864837646,False,,False,1,True,1000,True,0.0
./expes/v2_2020-11-09_3bh_150-prng-1,30_base_hphc_150,150,first-150,131,rng,num-start-51,51,17520,1.1131134033203125,True,,True,1,False,1000,True,1.0
./expes/v2_2020-11-09_3bh_150-prng-1,30_base_hphc_150,150,first-150,41,rng,num-start-641,641,17520,12.362207174301147,True,,True,1,False,1000,True,1.0
./expes/v2_2020-11-09_3bh_150-prng-1,30_base_hphc_150,150,first-150,81,rng,num-start-621,621,17520,12.147642850875854,True,,True,1,False,1000,True,1.0
./expes/v2_2020-11-09_3bh_150-prng-1,30_base_hphc_150,150,first-150,141,rng,num-start-871,871,17520,15.782803535461426,True,,True,1,False,1000,True,1.0
./expes/v2_2020-11-09_3bh_150-prng-1,30_base_hphc_150,150,first-150,1,rng,num-start-171,171,17520,3.027082681655884,True,,True,1,False,1000,True,1.0
./expes/v2_2020-11-09_3bh_150-prng-1,30_base_hphc_150,150,first-150,31,rng,num-start-491,491,17520,9.838717699050903,True,,True,1,False,1000,True,1.0
./expes/v2_2020-11-09_3bh_150-prng-1,30_base_hphc_150,150,first-150,111,rng,num-start-361,361,17520,7.479321241378784,True,,True,1,False,1000,True,1.0
./expes/v2_2020-11-09_3bh_150-prng-1,30_base_hphc_150,150,first-150,111,rng,num-start-771,771,17520,14.767256021499634,True,,True,1,False,1000,True,1.0
./expes/v2_2020-11-09_3bh_150-prng-1,30_base_hphc_150,150,first-150,31,rng,num-start-461,461,17520,8.921658515930176,True,,True,1,False,1000,True,1.0
./expes/v2_2020-11-09_3bh_150-prng-1,30_base_hphc_150,150,first-150,41,rng,num-start-431,431,17520,8.828411102294922,True,,True,1,False,1000,True,1.0
./expes/v2_2020-11-09_3bh_150-prng-1,30_base_hphc_150,150,first-150,131,rng,num-start-11,11,17520,1001.8724520206451,False,,False,0,True,1000,True,0.0
./expes/v2_2020-11-09_3bh_150-prng-1,30_base_hphc_150,150,first-150,121,rng,num-start-501,501,17520,9.974688529968262,True,,True,1,False,1000,True,1.0
./expes/v2_2020-11-09_3bh_150-prng-1,30_base_hphc_150,150,first-150,1,rng,num-start-751,751,17520,13.066806316375732,True,,True,1,False,1000,True,1.0
./expes/v2_2020-11-09_3bh_150-prng-1,30_base_hphc_150,150,first-150,11,rng,num-start-61,61,17520,1.4442722797393799,True,,True,1,False,1000,True,1.0
./expes/v2_2020-11-09_3bh_150-prng-1,30_base_hphc_150,150,first-150,81,rng,num-start-41,41,17520,1000.7634992599487,False,,False,0,True,1000,True,0.0
./expes/v2_2020-11-09_3bh_150-prng-1,30_base_hphc_150,150,first-150,11,rng,num-start-761,761,17520,14.236488342285156,True,,True,1,False,1000,True,1.0
./expes/v2_2020-11-09_3bh_150-prng-1,30_base_hphc_150,150,first-150,131,rng,num-start-241,241,17520,4.713291168212891,True,,True,1,False,1000,True,1.0
./expes/v2_2020-11-09_3bh_150-prng-1,30_base_hphc_150,150,first-150,61,rng,num-start-831,831,17520,15.418600082397461,True,,True,1,False,1000,True,1.0
./expes/v2_2020-11-09_3bh_150-prng-1,30_base_hphc_150,150,first-150,21,rng,num-start-281,281,17520,5.584180593490601,True,,True,1,False,1000,True,1.0
./expes/v2_2020-11-09_3bh_150-prng-1,30_base_hphc_150,150,first-150,111,rng,num-start-851,851,17520,15.74609899520874,True,,True,1,False,1000,True,1.0
./expes/v2_2020-11-09_3bh_150-prng-1,30_base_hphc_150,150,first-150,51,rng,num-start-601,601,17520,11.130440950393677,True,,True,1,False,1000,True,1.0
./expes/v2_2020-11-09_3bh_150-prng-1,30_base_hphc_150,150,first-150,91,rng,num-start-741,741,17520,13.911938667297363,True,,True,1,False,1000,True,1.0
./expes/v2_2020-11-09_3bh_150-prng-1,30_base_hphc_150,150,first-150,141,rng,num-start-571,571,17520,10.252827167510986,True,,True,1,False,1000,True,1.0
./expes/v2_2020-11-09_3bh_150-prng-1,30_base_hphc_150,150,first-150,61,rng,num-start-691,691,17520,12.854514837265015,True,,True,1,False,1000,True,1.0
./expes/v2_2020-11-09_3bh_150-prng-1,30_base_hphc_150,150,first-150,31,rng,num-start-851,851,17520,16.128299951553345,True,,True,1,False,1000,True,1.0
./expes/v2_2020-11-09_3bh_150-prng-1,30_base_hphc_150,150,first-150,101,rng,num-start-921,921,17520,17.043914318084717,True,,True,1,False,1000,True,1.0
./expes/v2_2020-11-09_3bh_150-prng-1,30_base_hphc_150,150,first-150,21,rng,num-start-621,621,17520,12.182724475860596,True,,True,1,False,1000,True,1.0
./expes/v2_2020-11-09_3bh_150-prng-1,30_base_hphc_150,150,first-150,51,rng,num-start-481,481,17520,8.885501623153687,True,,True,1,False,1000,True,1.0
./expes/v2_2020-11-09_3bh_150-prng-1,30_base_hphc_150,150,first-150,121,rng,num-start-191,191,17520,3.734036445617676,True,,True,1,False,1000,True,1.0
./expes/v2_2020-11-09_3bh_150-prng-1,30_base_hphc_150,150,first-150,1,rng,num-start-421,421,17520,7.010711193084717,True,,True,1,False,1000,True,1.0
./expes/v2_2020-11-09_3bh_150-prng-1,30_base_hphc_150,150,first-150,41,rng,num-start-151,151,17520,3.1427817344665527,True,,True,1,False,1000,True,1.0
./expes/v2_2020-11-09_3bh_150-prng-1,30_base_hphc_150,150,first-150,61,rng,num-start-631,631,17520,12.18254017829895,True,,True,1,False,1000,True,1.0
./expes/v2_2020-11-09_3bh_150-prng-1,30_base_hphc_150,150,first-150,21,rng,num-start-441,441,17520,8.306928873062134,True,,True,1,False,1000,True,1.0
./expes/v2_2020-11-09_3bh_150-prng-1,30_base_hphc_150,150,first-150,31,rng,num-start-741,741,17520,14.2009756565094,True,,True,1,False,1000,True,1.0
./expes/v2_2020-11-09_3bh_150-prng-1,30_base_hphc_150,150,first-150,101,rng,num-start-771,771,17520,14.541315793991089,True,,True,1,False,1000,True,1.0
./expes/v2_2020-11-09_3bh_150-prng-1,30_base_hphc_150,150,first-150,81,rng,num-start-771,771,17520,15.357646465301514,True,,True,1,False,1000,True,1.0
./expes/v2_2020-11-09_3bh_150-prng-1,30_base_hphc_150,150,first-150,61,rng,num-start-281,281,17520,5.570176362991333,True,,True,1,False,1000,True,1.0
./expes/v2_2020-11-09_3bh_150-prng-1,30_base_hphc_150,150,first-150,101,rng,num-start-101,101,17520,2.2648723125457764,True,,True,1,False,1000,True,1.0
./expes/v2_2020-11-09_3bh_150-prng-1,30_base_hphc_150,150,first-150,1,rng,num-start-921,921,17520,15.618870735168457,True,,True,1,False,1000,True,1.0
./expes/v2_2020-11-09_3bh_150-prng-1,30_base_hphc_150,150,first-150,91,rng,num-start-591,591,17520,11.425410509109497,True,,True,1,False,1000,True,1.0
./expes/v2_2020-11-09_3bh_150-prng-1,30_base_hphc_150,150,first-150,141,rng,num-start-871,871,17520,15.614660739898682,True,,True,1,False,1000,True,1.0
./expes/v2_2020-11-09_3bh_150-prng-1,30_base_hphc_150,150,first-150,11,rng,num-start-761,761,17520,14.581477880477905,True,,True,1,False,1000,True,1.0
./expes/v2_2020-11-09_3bh_150-prng-1,30_base_hphc_150,150,first-150,61,rng,num-start-101,101,17520,2.0711920261383057,True,,True,1,False,1000,True,1.0
./expes/v2_2020-11-09_3bh_150-prng-1,30_base_hphc_150,150,first-150,1,rng,num-start-631,631,17520,10.984459638595581,True,,True,1,False,1000,True,1.0
./expes/v2_2020-11-09_3bh_150-prng-1,30_base_hphc_150,150,first-150,61,rng,num-start-511,511,17520,9.889346599578857,True,,True,1,False,1000,True,1.0
./expes/v2_2020-11-09_3bh_150-prng-1,30_base_hphc_150,150,first-150,91,rng,num-start-551,551,17520,10.80434513092041,True,,True,1,False,1000,True,1.0
./expes/v2_2020-11-09_3bh_150-prng-1,30_base_hphc_150,150,first-150,141,rng,num-start-881,881,17520,15.98236346244812,True,,True,1,False,1000,True,1.0
./expes/v2_2020-11-09_3bh_150-prng-1,30_base_hphc_150,150,first-150,91,rng,num-start-871,871,17520,17.341994762420654,True,,True,1,False,1000,True,1.0
./expes/v2_2020-11-09_3bh_150-prng-1,30_base_hphc_150,150,first-150,21,rng,num-start-471,471,17520,8.927223920822144,True,,True,1,False,1000,True,1.0
./expes/v2_2020-11-09_3bh_150-prng-1,30_base_hphc_150,150,first-150,61,rng,num-start-621,621,17520,12.543781518936157,True,,True,1,False,1000,True,1.0
./expes/v2_2020-11-09_3bh_150-prng-1,30_base_hphc_150,150,first-150,91,rng,num-start-561,561,17520,11.010602474212646,True,,True,1,False,1000,True,1.0
./expes/v2_2020-11-09_3bh_150-prng-1,30_base_hphc_150,150,first-150,141,rng,num-start-831,831,17520,15.120911121368408,True,,True,1,False,1000,True,1.0
./expes/v2_2020-11-09_3bh_150-prng-1,30_base_hphc_150,150,first-150,91,rng,num-start-911,911,17520,18.299245357513428,True,,True,1,False,1000,True,1.0
./expes/v2_2020-11-09_3bh_150-prng-1,30_base_hphc_150,150,first-150,111,rng,num-start-531,531,17520,10.127904653549194,True,,True,1,False,1000,True,1.0
./expes/v2_2020-11-09_3bh_150-prng-1,30_base_hphc_150,150,first-150,61,rng,num-start-171,171,17520,3.584336042404175,True,,True,1,False,1000,True,1.0
./expes/v2_2020-11-09_3bh_150-prng-1,30_base_hphc_150,150,first-150,141,rng,num-start-711,711,17520,12.971185684204102,True,,True,1,False,1000,True,1.0
./expes/v2_2020-11-09_3bh_150-prng-1,30_base_hphc_150,150,first-150,51,rng,num-start-551,551,17520,10.662964344024658,True,,True,1,False,1000,True,1.0
./expes/v2_2020-11-09_3bh_150-prng-1,30_base_hphc_150,150,first-150,71,rng,num-start-681,681,17520,13.666992902755737,True,,True,1,False,1000,True,1.0
./expes/v2_2020-11-09_3bh_150-prng-1,30_base_hphc_150,150,first-150,91,rng,num-start-851,851,17520,16.663833618164062,True,,True,1,False,1000,True,1.0
./expes/v2_2020-11-09_3bh_150-prng-1,30_base_hphc_150,150,first-150,111,rng,num-start-751,751,17520,14.682304620742798,True,,True,1,False,1000,True,1.0
./expes/v2_2020-11-09_3bh_150-prng-1,30_base_hphc_150,150,first-150,11,rng,num-start-761,761,17520,14.056068658828735,True,,True,1,False,1000,True,1.0
./expes/v2_2020-11-09_3bh_150-prng-1,30_base_hphc_150,150,first-150,41,rng,num-start-761,761,17520,14.47173810005188,True,,True,1,False,1000,True,1.0
./expes/v2_2020-11-09_3bh_150-prng-1,30_base_hphc_150,150,first-150,81,rng,num-start-551,551,17520,10.933467864990234,True,,True,1,False,1000,True,1.0
./expes/v2_2020-11-09_3bh_150-prng-1,30_base_hphc_150,150,first-150,71,rng,num-start-171,171,17520,3.92303729057312,True,,True,1,False,1000,True,1.0
./expes/v2_2020-11-09_3bh_150-prng-1,30_base_hphc_150,150,first-150,1,rng,num-start-911,911,17520,15.795314311981201,True,,True,1,False,1000,True,1.0
./expes/v2_2020-11-09_3bh_150-prng-1,30_base_hphc_150,150,first-150,31,rng,num-start-281,281,17520,6.044424057006836,True,,True,1,False,1000,True,1.0
./expes/v2_2020-11-09_3bh_150-prng-1,30_base_hphc_150,150,first-150,81,rng,num-start-921,921,17520,17.63981294631958,True,,True,1,False,1000,True,1.0
./expes/v2_2020-11-09_3bh_150-prng-1,30_base_hphc_150,150,first-150,131,rng,num-start-121,121,17520,2.6618106365203857,True,,True,1,False,1000,True,1.0
./expes/v2_2020-11-09_3bh_150-prng-1,30_base_hphc_150,150,first-150,111,rng,num-start-851,851,17520,17.017194271087646,True,,True,1,False,1000,True,1.0
./expes/v2_2020-11-09_3bh_150-prng-1,30_base_hphc_150,150,first-150,91,rng,num-start-471,471,17520,9.261438846588135,True,,True,1,False,1000,True,1.0
./expes/v2_2020-11-09_3bh_150-prng-1,30_base_hphc_150,150,first-150,121,rng,num-start-621,621,17520,12.13301944732666,True,,True,1,False,1000,True,1.0
./expes/v2_2020-11-09_3bh_150-prng-1,30_base_hphc_150,150,first-150,51,rng,num-start-471,471,17520,8.894789934158325,True,,True,1,False,1000,True,1.0
./expes/v2_2020-11-09_3bh_150-prng-1,30_base_hphc_150,150,first-150,41,rng,num-start-961,961,17520,19.199604034423828,True,,True,1,False,1000,True,1.0
./expes/v2_2020-11-09_3bh_150-prng-1,30_base_hphc_150,150,first-150,91,rng,num-start-951,951,17520,18.327560424804688,True,,True,1,False,1000,True,1.0
./expes/v2_2020-11-09_3bh_150-prng-1,30_base_hphc_150,150,first-150,61,rng,num-start-861,861,17520,16.987718105316162,True,,True,1,False,1000,True,1.0
./expes/v2_2020-11-09_3bh_150-prng-1,30_base_hphc_150,150,first-150,61,rng,num-start-321,321,17520,6.46785831451416,True,,True,1,False,1000,True,1.0
./expes/v2_2020-11-09_3bh_150-prng-1,30_base_hphc_150,150,first-150,131,rng,num-start-351,351,17520,6.788020610809326,True,,True,1,False,1000,True,1.0
./expes/v2_2020-11-09_3bh_150-prng-1,30_base_hphc_150,150,first-150,11,rng,num-start-961,961,17520,18.379762411117554,True,,True,1,False,1000,True,1.0
./expes/v2_2020-11-09_3bh_150-prng-1,30_base_hphc_150,150,first-150,141,rng,num-start-981,981,17520,17.51788091659546,True,,True,1,False,1000,True,1.0
./expes/v2_2020-11-09_3bh_150-prng-1,30_base_hphc_150,150,first-150,101,rng,num-start-431,431,17520,8.877751111984253,True,,True,1,False,1000,True,1.0
./expes/v2_2020-11-09_3bh_150-prng-1,30_base_hphc_150,150,first-150,31,rng,num-start-861,861,17520,17.37614679336548,True,,True,1,False,1000,True,1.0
./expes/v2_2020-11-09_3bh_150-prng-1,30_base_hphc_150,150,first-150,21,rng,num-start-561,561,17520,11.189308166503906,True,,True,1,False,1000,True,1.0
./expes/v2_2020-11-09_3bh_150-prng-1,30_base_hphc_150,150,first-150,121,rng,num-start-451,451,17520,8.872005701065063,True,,True,1,False,1000,True,1.0
./expes/v2_2020-11-09_3bh_150-prng-1,30_base_hphc_150,150,first-150,1,rng,num-start-291,291,17520,5.034902334213257,True,,True,1,False,1000,True,1.0
./expes/v2_2020-11-09_3bh_150-prng-1,30_base_hphc_150,150,first-150,11,rng,num-start-991,991,17520,19.606778144836426,True,,True,1,False,1000,True,1.0
./expes/v2_2020-11-09_3bh_150-prng-1,30_base_hphc_150,150,first-150,101,rng,num-start-61,61,17520,2.716252565383911,True,,True,1,False,1000,True,1.0
./expes/v2_2020-11-09_3bh_150-prng-1,30_base_hphc_150,150,first-150,21,rng,num-start-261,261,17520,5.3094494342803955,True,,True,1,False,1000,True,1.0
./expes/v2_2020-11-09_3bh_150-prng-1,30_base_hphc_150,150,first-150,51,rng,num-start-171,171,17520,3.852651596069336,True,,True,1,False,1000,True,1.0
./expes/v2_2020-11-09_3bh_150-prng-1,30_base_hphc_150,150,first-150,41,rng,num-start-811,811,17520,16.076420545578003,True,,True,1,False,1000,True,1.0
./expes/v2_2020-11-09_3bh_150-prng-1,30_base_hphc_150,150,first-150,101,rng,num-start-471,471,17520,9.774479150772095,True,,True,1,False,1000,True,1.0
./expes/v2_2020-11-09_3bh_150-prng-1,30_base_hphc_150,150,first-150,41,rng,num-start-511,511,17520,10.102499723434448,True,,True,1,False,1000,True,1.0
./expes/v2_2020-11-09_3bh_150-prng-1,30_base_hphc_150,150,first-150,61,rng,num-start-391,391,17520,7.617342710494995,True,,True,1,False,1000,True,1.0
./expes/v2_2020-11-09_3bh_150-prng-1,30_base_hphc_150,150,first-150,91,rng,num-start-881,881,17520,18.285318851470947,True,,True,1,False,1000,True,1.0
./expes/v2_2020-11-09_3bh_150-prng-1,30_base_hphc_150,150,first-150,31,rng,num-start-611,611,17520,11.721121788024902,True,,True,1,False,1000,True,1.0
./expes/v2_2020-11-09_3bh_150-prng-1,30_base_hphc_150,150,first-150,121,rng,num-start-761,761,17520,14.683722972869873,True,,True,1,False,1000,True,1.0
./expes/v2_2020-11-09_3bh_150-prng-1,30_base_hphc_150,150,first-150,41,rng,num-start-531,531,17520,10.122324228286743,True,,True,1,False,1000,True,1.0
./expes/v2_2020-11-09_3bh_150-prng-1,30_base_hphc_150,150,first-150,91,rng,num-start-471,471,17520,9.730615615844727,True,,True,1,False,1000,True,1.0
./expes/v2_2020-11-09_3bh_150-prng-1,30_base_hphc_150,150,first-150,111,rng,num-start-771,771,17520,14.804279088973999,True,,True,1,False,1000,True,1.0
./expes/v2_2020-11-09_3bh_150-prng-1,30_base_hphc_150,150,first-150,31,rng,num-start-851,851,17520,16.273884296417236,True,,True,1,False,1000,True,1.0
./expes/v2_2020-11-09_3bh_150-prng-1,30_base_hphc_150,150,first-150,111,rng,num-start-181,181,17520,3.763782501220703,True,,True,1,False,1000,True,1.0
./expes/v2_2020-11-09_3bh_150-prng-1,30_base_hphc_150,150,first-150,61,rng,num-start-511,511,17520,9.79447340965271,True,,True,1,False,1000,True,1.0
./expes/v2_2020-11-09_3bh_150-prng-1,30_base_hphc_150,150,first-150,91,rng,num-start-191,191,17520,3.8086817264556885,True,,True,1,False,1000,True,1.0
./expes/v2_2020-11-09_3bh_150-prng-1,30_base_hphc_150,150,first-150,11,rng,num-start-591,591,17520,10.968592643737793,True,,True,1,False,1000,True,1.0
./expes/v2_2020-11-09_3bh_150-prng-1,30_base_hphc_150,150,first-150,21,rng,num-start-621,621,17520,11.829278707504272,True,,True,1,False,1000,True,1.0
./expes/v2_2020-11-09_3bh_150-prng-1,30_base_hphc_150,150,first-150,91,rng,num-start-691,691,17520,13.271955966949463,True,,True,1,False,1000,True,1.0
./expes/v2_2020-11-09_3bh_150-prng-1,30_base_hphc_150,150,first-150,101,rng,num-start-381,381,17520,7.848212718963623,True,,True,1,False,1000,True,1.0
./expes/v2_2020-11-09_3bh_150-prng-1,30_base_hphc_150,150,first-150,101,rng,num-start-391,391,17520,7.5969154834747314,True,,True,1,False,1000,True,1.0
./expes/v2_2020-11-09_3bh_150-prng-1,30_base_hphc_150,150,first-150,101,rng,num-start-881,881,17520,17.09832000732422,True,,True,1,False,1000,True,1.0
./expes/v2_2020-11-09_3bh_150-prng-1,30_base_hphc_150,150,first-150,131,rng,num-start-851,851,17520,16.313693523406982,True,,True,1,False,1000,True,1.0
./expes/v2_2020-11-09_3bh_150-prng-1,30_base_hphc_150,150,first-150,81,rng,num-start-981,981,17520,18.94869327545166,True,,True,1,False,1000,True,1.0
./expes/v2_2020-11-09_3bh_150-prng-1,30_base_hphc_150,150,first-150,61,rng,num-start-111,111,17520,2.517674684524536,True,,True,1,False,1000,True,1.0
./expes/v2_2020-11-09_3bh_150-prng-1,30_base_hphc_150,150,first-150,131,rng,num-start-11,11,17520,1002.8472254276276,False,,False,0,True,1000,True,0.0
