expe,clients,clients_size,clients_subset,agg_size,method,days,days_size,days_total,time,valid,valid_sum,success,nsols,wall_hit,wall_time,pooled,valid_sums
./expes/v2_2020-11-04_dbh_200-prng-1,daily_base_hphc_200,200,first-200,91,rng,num-start-141,141,365,2.5904836654663086,True,,True,1,False,1000,True,1.0
./expes/v2_2020-11-04_dbh_200-prng-1,daily_base_hphc_200,200,first-200,101,rng,num-start-81,81,365,750.5815916061401,True,,True,1,False,1000,True,1.0
./expes/v2_2020-11-04_dbh_200-prng-1,daily_base_hphc_200,200,first-200,141,rng,num-start-11,11,365,1000.2103073596954,False,,False,0,True,1000,True,0.0
