expe,clients,clients_size,clients_subset,agg_size,method,days,days_size,days_total,time,valid,valid_sum,success,nsols,wall_hit,wall_time,pooled,valid_sums
./expes/v2_2020-11-04_dbh_200-prng-1,daily_base_hphc_200,200,first-200,81,rng,num-start-281,281,365,3.9001824855804443,True,,True,1,False,1000,True,1.0
./expes/v2_2020-11-04_dbh_200-prng-1,daily_base_hphc_200,200,first-200,51,rng,num-start-181,181,365,2.4680678844451904,True,,True,1,False,1000,True,1.0
./expes/v2_2020-11-04_dbh_200-prng-1,daily_base_hphc_200,200,first-200,151,rng,num-start-51,51,365,736.2959830760956,True,,True,1,False,1000,True,1.0
./expes/v2_2020-11-04_dbh_200-prng-1,daily_base_hphc_200,200,first-200,91,rng,num-start-221,221,365,3.6709980964660645,True,,True,1,False,1000,True,1.0
./expes/v2_2020-11-04_dbh_200-prng-1,daily_base_hphc_200,200,first-200,101,rng,num-start-181,181,365,3.229543924331665,True,,True,1,False,1000,True,1.0
./expes/v2_2020-11-04_dbh_200-prng-1,daily_base_hphc_200,200,first-200,41,rng,num-start-151,151,365,2.445202589035034,True,,True,1,False,1000,True,1.0
./expes/v2_2020-11-04_dbh_200-prng-1,daily_base_hphc_200,200,first-200,141,rng,num-start-91,91,365,1.9363067150115967,True,,True,1,False,1000,True,1.0
./expes/v2_2020-11-04_dbh_200-prng-1,daily_base_hphc_200,200,first-200,51,rng,num-start-171,171,365,2.6416962146759033,True,,True,1,False,1000,True,1.0
./expes/v2_2020-11-04_dbh_200-prng-1,daily_base_hphc_200,200,first-200,101,rng,num-start-141,141,365,2.3337607383728027,True,,True,1,False,1000,True,1.0
./expes/v2_2020-11-04_dbh_200-prng-1,daily_base_hphc_200,200,first-200,181,rng,num-start-41,41,365,1.3667349815368652,True,,True,1,False,1000,True,1.0
./expes/v2_2020-11-04_dbh_200-prng-1,daily_base_hphc_200,200,first-200,41,rng,num-start-181,181,365,2.8992388248443604,True,,True,1,False,1000,True,1.0
./expes/v2_2020-11-04_dbh_200-prng-1,daily_base_hphc_200,200,first-200,161,rng,num-start-111,111,365,1.719193458557129,True,,True,1,False,1000,True,1.0
./expes/v2_2020-11-04_dbh_200-prng-1,daily_base_hphc_200,200,first-200,151,rng,num-start-181,181,365,2.907926082611084,True,,True,1,False,1000,True,1.0
./expes/v2_2020-11-04_dbh_200-prng-1,daily_base_hphc_200,200,first-200,11,rng,num-start-41,41,365,0.9052045345306396,True,,True,1,False,1000,True,1.0
./expes/v2_2020-11-04_dbh_200-prng-1,daily_base_hphc_200,200,first-200,121,rng,num-start-241,241,365,4.065143346786499,True,,True,1,False,1000,True,1.0
./expes/v2_2020-11-04_dbh_200-prng-1,daily_base_hphc_200,200,first-200,131,rng,num-start-121,121,365,2.0270164012908936,True,,True,1,False,1000,True,1.0
./expes/v2_2020-11-04_dbh_200-prng-1,daily_base_hphc_200,200,first-200,171,rng,num-start-231,231,365,3.585310935974121,True,,True,1,False,1000,True,1.0
./expes/v2_2020-11-04_dbh_200-prng-1,daily_base_hphc_200,200,first-200,31,rng,num-start-221,221,365,3.2604570388793945,True,,True,1,False,1000,True,1.0
./expes/v2_2020-11-04_dbh_200-prng-1,daily_base_hphc_200,200,first-200,21,rng,num-start-121,121,365,1.9232134819030762,True,,True,1,False,1000,True,1.0
./expes/v2_2020-11-04_dbh_200-prng-1,daily_base_hphc_200,200,first-200,101,rng,num-start-131,131,365,2.3119208812713623,True,,True,1,False,1000,True,1.0
./expes/v2_2020-11-04_dbh_200-prng-1,daily_base_hphc_200,200,first-200,71,rng,num-start-21,21,365,1000.2631175518036,False,,False,0,True,1000,True,0.0
