expe,clients,clients_size,clients_subset,agg_size,method,days,days_size,days_total,time,valid,valid_sum,success,nsols,wall_hit,wall_time,pooled,valid_sums
./expes/v2_2020-11-05_dbh_200-prng-1,daily_base_hphc_200,200,first-200,111,rng,num-start-61,61,365,1000.873095035553,False,,False,0,True,1000,True,0.0
./expes/v2_2020-11-05_dbh_200-prng-1,daily_base_hphc_200,200,first-200,171,rng,num-start-1,1,365,0.05299997329711914,False,,False,2,False,1000,True,1.0
./expes/v2_2020-11-05_dbh_200-prng-1,daily_base_hphc_200,200,first-200,101,rng,num-start-271,271,365,4.366684436798096,True,,True,1,False,1000,True,1.0
./expes/v2_2020-11-05_dbh_200-prng-1,daily_base_hphc_200,200,first-200,41,rng,num-start-21,21,365,1000.3713166713715,False,,False,0,True,1000,True,0.0
./expes/v2_2020-11-05_dbh_200-prng-1,daily_base_hphc_200,200,first-200,1,rng,num-start-61,61,365,0.7122776508331299,True,,True,1,False,1000,True,1.0
./expes/v2_2020-11-05_dbh_200-prng-1,daily_base_hphc_200,200,first-200,171,rng,num-start-211,211,365,3.2574377059936523,True,,True,1,False,1000,True,1.0
./expes/v2_2020-11-05_dbh_200-prng-1,daily_base_hphc_200,200,first-200,51,rng,num-start-181,181,365,2.7755861282348633,True,,True,1,False,1000,True,1.0
./expes/v2_2020-11-05_dbh_200-prng-1,daily_base_hphc_200,200,first-200,61,rng,num-start-11,11,365,1000.1690356731415,False,,False,0,True,1000,True,0.0
./expes/v2_2020-11-05_dbh_200-prng-1,daily_base_hphc_200,200,first-200,141,rng,num-start-21,21,365,1000.3392241001129,False,,False,0,True,1000,True,0.0
./expes/v2_2020-11-05_dbh_200-prng-1,daily_base_hphc_200,200,first-200,71,rng,num-start-161,161,365,2.8374838829040527,True,,True,1,False,1000,True,1.0
./expes/v2_2020-11-05_dbh_200-prng-1,daily_base_hphc_200,200,first-200,131,rng,num-start-101,101,365,1.8233861923217773,True,,True,1,False,1000,True,1.0
./expes/v2_2020-11-05_dbh_200-prng-1,daily_base_hphc_200,200,first-200,41,rng,num-start-211,211,365,3.203888177871704,True,,True,1,False,1000,True,1.0
./expes/v2_2020-11-05_dbh_200-prng-1,daily_base_hphc_200,200,first-200,21,rng,num-start-71,71,365,1.1213252544403076,True,,True,1,False,1000,True,1.0
./expes/v2_2020-11-05_dbh_200-prng-1,daily_base_hphc_200,200,first-200,131,rng,num-start-131,131,365,2.118706226348877,True,,True,1,False,1000,True,1.0
./expes/v2_2020-11-05_dbh_200-prng-1,daily_base_hphc_200,200,first-200,151,rng,num-start-221,221,365,3.7917137145996094,True,,True,1,False,1000,True,1.0
./expes/v2_2020-11-05_dbh_200-prng-1,daily_base_hphc_200,200,first-200,11,rng,num-start-191,191,365,2.9738948345184326,True,,True,1,False,1000,True,1.0
./expes/v2_2020-11-05_dbh_200-prng-1,daily_base_hphc_200,200,first-200,191,rng,num-start-91,91,365,1.3680689334869385,True,,True,1,False,1000,True,1.0
./expes/v2_2020-11-05_dbh_200-prng-1,daily_base_hphc_200,200,first-200,171,rng,num-start-111,111,365,1.7666995525360107,True,,True,1,False,1000,True,1.0
./expes/v2_2020-11-05_dbh_200-prng-1,daily_base_hphc_200,200,first-200,31,rng,num-start-201,201,365,3.116075277328491,True,,True,1,False,1000,True,1.0
./expes/v2_2020-11-05_dbh_200-prng-1,daily_base_hphc_200,200,first-200,191,rng,num-start-281,281,365,3.772908926010132,True,,True,1,False,1000,True,1.0
./expes/v2_2020-11-05_dbh_200-prng-1,daily_base_hphc_200,200,first-200,101,rng,num-start-241,241,365,3.9775869846343994,True,,True,1,False,1000,True,1.0
./expes/v2_2020-11-05_dbh_200-prng-1,daily_base_hphc_200,200,first-200,161,rng,num-start-191,191,365,3.143329620361328,True,,True,1,False,1000,True,1.0
./expes/v2_2020-11-05_dbh_200-prng-1,daily_base_hphc_200,200,first-200,1,rng,num-start-161,161,365,1.9567532539367676,True,,True,1,False,1000,True,1.0
./expes/v2_2020-11-05_dbh_200-prng-1,daily_base_hphc_200,200,first-200,191,rng,num-start-231,231,365,3.402608633041382,True,,True,1,False,1000,True,1.0
./expes/v2_2020-11-05_dbh_200-prng-1,daily_base_hphc_200,200,first-200,131,rng,num-start-21,21,365,1000.316490650177,False,,False,0,True,1000,True,0.0
./expes/v2_2020-11-05_dbh_200-prng-1,daily_base_hphc_200,200,first-200,11,rng,num-start-221,221,365,3.5171337127685547,True,,True,1,False,1000,True,1.0
./expes/v2_2020-11-05_dbh_200-prng-1,daily_base_hphc_200,200,first-200,71,rng,num-start-71,71,365,320.67375779151917,True,,True,1,False,1000,True,1.0
./expes/v2_2020-11-05_dbh_200-prng-1,daily_base_hphc_200,200,first-200,91,rng,num-start-51,51,365,1000.7042284011841,False,,False,0,True,1000,True,0.0
./expes/v2_2020-11-05_dbh_200-prng-1,daily_base_hphc_200,200,first-200,11,rng,num-start-251,251,365,3.461191415786743,True,,True,1,False,1000,True,1.0
./expes/v2_2020-11-05_dbh_200-prng-1,daily_base_hphc_200,200,first-200,111,rng,num-start-21,21,365,1000.3265907764435,False,,False,0,True,1000,True,0.0
./expes/v2_2020-11-05_dbh_200-prng-1,daily_base_hphc_200,200,first-200,171,rng,num-start-171,171,365,2.583385705947876,True,,True,1,False,1000,True,1.0
./expes/v2_2020-11-05_dbh_200-prng-1,daily_base_hphc_200,200,first-200,181,rng,num-start-81,81,365,1.3708608150482178,True,,True,1,False,1000,True,1.0
./expes/v2_2020-11-05_dbh_200-prng-1,daily_base_hphc_200,200,first-200,151,rng,num-start-281,281,365,4.029538154602051,True,,True,1,False,1000,True,1.0
./expes/v2_2020-11-05_dbh_200-prng-1,daily_base_hphc_200,200,first-200,41,rng,num-start-71,71,365,1.2246050834655762,True,,True,1,False,1000,True,1.0
./expes/v2_2020-11-05_dbh_200-prng-1,daily_base_hphc_200,200,first-200,131,rng,num-start-161,161,365,2.6701138019561768,True,,True,1,False,1000,True,1.0
./expes/v2_2020-11-05_dbh_200-prng-1,daily_base_hphc_200,200,first-200,91,rng,num-start-1,1,365,0.05245018005371094,False,,False,2,False,1000,True,1.0
./expes/v2_2020-11-05_dbh_200-prng-1,daily_base_hphc_200,200,first-200,61,rng,num-start-81,81,365,2.836735486984253,True,,True,1,False,1000,True,1.0
./expes/v2_2020-11-05_dbh_200-prng-1,daily_base_hphc_200,200,first-200,11,rng,num-start-51,51,365,0.8514933586120605,True,,True,1,False,1000,True,1.0
./expes/v2_2020-11-05_dbh_200-prng-1,daily_base_hphc_200,200,first-200,21,rng,num-start-211,211,365,3.242859125137329,True,,True,1,False,1000,True,1.0
./expes/v2_2020-11-05_dbh_200-prng-1,daily_base_hphc_200,200,first-200,191,rng,num-start-141,141,365,2.158388614654541,True,,True,1,False,1000,True,1.0
./expes/v2_2020-11-05_dbh_200-prng-1,daily_base_hphc_200,200,first-200,181,rng,num-start-251,251,365,3.4585254192352295,True,,True,1,False,1000,True,1.0
./expes/v2_2020-11-05_dbh_200-prng-1,daily_base_hphc_200,200,first-200,91,rng,num-start-61,61,365,1000.7665519714355,False,,False,0,True,1000,True,0.0
./expes/v2_2020-11-05_dbh_200-prng-1,daily_base_hphc_200,200,first-200,101,rng,num-start-71,71,365,254.63282561302185,True,,True,1,False,1000,True,1.0
./expes/v2_2020-11-05_dbh_200-prng-1,daily_base_hphc_200,200,first-200,41,rng,num-start-121,121,365,1.9055967330932617,True,,True,1,False,1000,True,1.0
./expes/v2_2020-11-05_dbh_200-prng-1,daily_base_hphc_200,200,first-200,11,rng,num-start-231,231,365,3.413750171661377,True,,True,1,False,1000,True,1.0
./expes/v2_2020-11-05_dbh_200-prng-1,daily_base_hphc_200,200,first-200,171,rng,num-start-221,221,365,3.572446823120117,True,,True,1,False,1000,True,1.0
./expes/v2_2020-11-05_dbh_200-prng-1,daily_base_hphc_200,200,first-200,91,rng,num-start-291,291,365,4.43950891494751,True,,True,1,False,1000,True,1.0
./expes/v2_2020-11-05_dbh_200-prng-1,daily_base_hphc_200,200,first-200,71,rng,num-start-41,41,365,1000.5262241363525,False,,False,0,True,1000,True,0.0
./expes/v2_2020-11-05_dbh_200-prng-1,daily_base_hphc_200,200,first-200,31,rng,num-start-21,21,365,1000.4180905818939,False,,False,0,True,1000,True,0.0
./expes/v2_2020-11-05_dbh_200-prng-1,daily_base_hphc_200,200,first-200,61,rng,num-start-61,61,365,636.6634078025818,True,,True,1,False,1000,True,1.0
./expes/v2_2020-11-05_dbh_200-prng-1,daily_base_hphc_200,200,first-200,71,rng,num-start-21,21,365,1000.3635535240173,False,,False,0,True,1000,True,0.0
./expes/v2_2020-11-05_dbh_200-prng-1,daily_base_hphc_200,200,first-200,141,rng,num-start-261,261,365,4.15242075920105,True,,True,1,False,1000,True,1.0
./expes/v2_2020-11-05_dbh_200-prng-1,daily_base_hphc_200,200,first-200,151,rng,num-start-191,191,365,2.992818832397461,True,,True,1,False,1000,True,1.0
./expes/v2_2020-11-05_dbh_200-prng-1,daily_base_hphc_200,200,first-200,111,rng,num-start-111,111,365,1.949110507965088,True,,True,1,False,1000,True,1.0
