expe,clients,clients_size,clients_subset,agg_size,method,days,days_size,days_total,time,valid,valid_sum,success,nsols,wall_hit,wall_time,pooled,valid_sums
./expes/v2_2020-11-05_dbh_200-prng-1,daily_base_hphc_200,200,first-200,161,rng,num-start-241,241,365,2.9622557163238525,True,,True,1,False,1000,True,1.0
./expes/v2_2020-11-05_dbh_200-prng-1,daily_base_hphc_200,200,first-200,21,rng,num-start-281,281,365,3.0825283527374268,True,,True,1,False,1000,True,1.0
./expes/v2_2020-11-05_dbh_200-prng-1,daily_base_hphc_200,200,first-200,41,rng,num-start-111,111,365,1.608665943145752,True,,True,1,False,1000,True,1.0
./expes/v2_2020-11-05_dbh_200-prng-1,daily_base_hphc_200,200,first-200,1,rng,num-start-141,141,365,1.050992488861084,True,,True,1,False,1000,True,1.0
./expes/v2_2020-11-05_dbh_200-prng-1,daily_base_hphc_200,200,first-200,1,rng,num-start-131,131,365,0.9645242691040039,True,,True,1,False,1000,True,1.0
./expes/v2_2020-11-05_dbh_200-prng-1,daily_base_hphc_200,200,first-200,161,rng,num-start-141,141,365,1.5444810390472412,True,,True,1,False,1000,True,1.0
./expes/v2_2020-11-05_dbh_200-prng-1,daily_base_hphc_200,200,first-200,111,rng,num-start-91,91,365,1.4129695892333984,True,,True,1,False,1000,True,1.0
./expes/v2_2020-11-05_dbh_200-prng-1,daily_base_hphc_200,200,first-200,41,rng,num-start-131,131,365,1.5242412090301514,True,,True,1,False,1000,True,1.0
./expes/v2_2020-11-05_dbh_200-prng-1,daily_base_hphc_200,200,first-200,41,rng,num-start-61,61,365,1.8900854587554932,True,,True,1,False,1000,True,1.0
./expes/v2_2020-11-05_dbh_200-prng-1,daily_base_hphc_200,200,first-200,171,rng,num-start-11,11,365,1000.1724162101746,False,,False,0,True,1000,True,0.0
./expes/v2_2020-11-05_dbh_200-prng-1,daily_base_hphc_200,200,first-200,151,rng,num-start-71,71,365,2.0097973346710205,True,,True,1,False,1000,True,1.0
./expes/v2_2020-11-05_dbh_200-prng-1,daily_base_hphc_200,200,first-200,1,rng,num-start-101,101,365,0.7845871448516846,True,,True,1,False,1000,True,1.0
./expes/v2_2020-11-05_dbh_200-prng-1,daily_base_hphc_200,200,first-200,121,rng,num-start-251,251,365,3.052095651626587,True,,True,1,False,1000,True,1.0
./expes/v2_2020-11-05_dbh_200-prng-1,daily_base_hphc_200,200,first-200,71,rng,num-start-1,1,365,0.06448507308959961,False,,False,2,False,1000,True,1.0
./expes/v2_2020-11-05_dbh_200-prng-1,daily_base_hphc_200,200,first-200,1,rng,num-start-111,111,365,0.8862504959106445,True,,True,1,False,1000,True,1.0
./expes/v2_2020-11-05_dbh_200-prng-1,daily_base_hphc_200,200,first-200,101,rng,num-start-51,51,365,1000.5442535877228,False,,False,0,True,1000,True,0.0
./expes/v2_2020-11-05_dbh_200-prng-1,daily_base_hphc_200,200,first-200,131,rng,num-start-251,251,365,3.1368284225463867,True,,True,1,False,1000,True,1.0
./expes/v2_2020-11-05_dbh_200-prng-1,daily_base_hphc_200,200,first-200,81,rng,num-start-141,141,365,1.7000501155853271,True,,True,1,False,1000,True,1.0
./expes/v2_2020-11-05_dbh_200-prng-1,daily_base_hphc_200,200,first-200,111,rng,num-start-61,61,365,1000.6401813030243,False,,False,0,True,1000,True,0.0
./expes/v2_2020-11-05_dbh_200-prng-1,daily_base_hphc_200,200,first-200,151,rng,num-start-11,11,365,1000.2144675254822,False,,False,0,True,1000,True,0.0
./expes/v2_2020-11-05_dbh_200-prng-1,daily_base_hphc_200,200,first-200,101,rng,num-start-11,11,365,1000.2696993350983,False,,False,0,True,1000,True,0.0
./expes/v2_2020-11-05_dbh_200-prng-1,daily_base_hphc_200,200,first-200,81,rng,num-start-281,281,365,3.56137752532959,True,,True,1,False,1000,True,1.0
./expes/v2_2020-11-05_dbh_200-prng-1,daily_base_hphc_200,200,first-200,131,rng,num-start-91,91,365,2.2230565547943115,True,,True,1,False,1000,True,1.0
./expes/v2_2020-11-05_dbh_200-prng-1,daily_base_hphc_200,200,first-200,111,rng,num-start-101,101,365,1.3993220329284668,True,,True,1,False,1000,True,1.0
./expes/v2_2020-11-05_dbh_200-prng-1,daily_base_hphc_200,200,first-200,51,rng,num-start-291,291,365,3.9436287879943848,True,,True,1,False,1000,True,1.0
./expes/v2_2020-11-05_dbh_200-prng-1,daily_base_hphc_200,200,first-200,31,rng,num-start-131,131,365,1.6259732246398926,True,,True,1,False,1000,True,1.0
./expes/v2_2020-11-05_dbh_200-prng-1,daily_base_hphc_200,200,first-200,161,rng,num-start-261,261,365,3.0407021045684814,True,,True,1,False,1000,True,1.0
./expes/v2_2020-11-05_dbh_200-prng-1,daily_base_hphc_200,200,first-200,81,rng,num-start-121,121,365,1.5198543071746826,True,,True,1,False,1000,True,1.0
./expes/v2_2020-11-05_dbh_200-prng-1,daily_base_hphc_200,200,first-200,31,rng,num-start-81,81,365,1.0099458694458008,True,,True,1,False,1000,True,1.0
./expes/v2_2020-11-05_dbh_200-prng-1,daily_base_hphc_200,200,first-200,121,rng,num-start-231,231,365,3.3870327472686768,True,,True,1,False,1000,True,1.0
./expes/v2_2020-11-05_dbh_200-prng-1,daily_base_hphc_200,200,first-200,71,rng,num-start-221,221,365,3.23892879486084,True,,True,1,False,1000,True,1.0
./expes/v2_2020-11-05_dbh_200-prng-1,daily_base_hphc_200,200,first-200,51,rng,num-start-41,41,365,1000.3834362030029,False,,False,0,True,1000,True,0.0
./expes/v2_2020-11-05_dbh_200-prng-1,daily_base_hphc_200,200,first-200,191,rng,num-start-121,121,365,1.490743637084961,True,,True,1,False,1000,True,1.0
./expes/v2_2020-11-05_dbh_200-prng-1,daily_base_hphc_200,200,first-200,61,rng,num-start-191,191,365,2.5141751766204834,True,,True,1,False,1000,True,1.0
./expes/v2_2020-11-05_dbh_200-prng-1,daily_base_hphc_200,200,first-200,11,rng,num-start-61,61,365,1.0541388988494873,True,,True,1,False,1000,True,1.0
./expes/v2_2020-11-05_dbh_200-prng-1,daily_base_hphc_200,200,first-200,81,rng,num-start-221,221,365,3.0454797744750977,True,,True,1,False,1000,True,1.0
./expes/v2_2020-11-05_dbh_200-prng-1,daily_base_hphc_200,200,first-200,31,rng,num-start-281,281,365,3.6715750694274902,True,,True,1,False,1000,True,1.0
./expes/v2_2020-11-05_dbh_200-prng-1,daily_base_hphc_200,200,first-200,161,rng,num-start-1,1,365,0.028175830841064453,False,,False,2,False,1000,True,1.0
./expes/v2_2020-11-05_dbh_200-prng-1,daily_base_hphc_200,200,first-200,31,rng,num-start-71,71,365,1.577190637588501,True,,True,1,False,1000,True,1.0
./expes/v2_2020-11-05_dbh_200-prng-1,daily_base_hphc_200,200,first-200,131,rng,num-start-281,281,365,4.178311347961426,True,,True,1,False,1000,True,1.0
./expes/v2_2020-11-05_dbh_200-prng-1,daily_base_hphc_200,200,first-200,21,rng,num-start-141,141,365,1.8853704929351807,True,,True,1,False,1000,True,1.0
./expes/v2_2020-11-05_dbh_200-prng-1,daily_base_hphc_200,200,first-200,41,rng,num-start-11,11,365,1000.229564666748,False,,False,0,True,1000,True,0.0
./expes/v2_2020-11-05_dbh_200-prng-1,daily_base_hphc_200,200,first-200,71,rng,num-start-261,261,365,3.3398969173431396,True,,True,1,False,1000,True,1.0
./expes/v2_2020-11-05_dbh_200-prng-1,daily_base_hphc_200,200,first-200,151,rng,num-start-11,11,365,1000.2407538890839,False,,False,0,True,1000,True,0.0
./expes/v2_2020-11-05_dbh_200-prng-1,daily_base_hphc_200,200,first-200,11,rng,num-start-21,21,365,1.0251293182373047,True,,True,1,False,1000,True,1.0
./expes/v2_2020-11-05_dbh_200-prng-1,daily_base_hphc_200,200,first-200,111,rng,num-start-41,41,365,1000.6025440692902,False,,False,0,True,1000,True,0.0
./expes/v2_2020-11-05_dbh_200-prng-1,daily_base_hphc_200,200,first-200,81,rng,num-start-281,281,365,4.024435043334961,True,,True,1,False,1000,True,1.0
./expes/v2_2020-11-05_dbh_200-prng-1,daily_base_hphc_200,200,first-200,11,rng,num-start-221,221,365,2.9128971099853516,True,,True,1,False,1000,True,1.0
./expes/v2_2020-11-05_dbh_200-prng-1,daily_base_hphc_200,200,first-200,121,rng,num-start-151,151,365,1.838752269744873,True,,True,1,False,1000,True,1.0
./expes/v2_2020-11-05_dbh_200-prng-1,daily_base_hphc_200,200,first-200,161,rng,num-start-101,101,365,1.3487112522125244,True,,True,1,False,1000,True,1.0
./expes/v2_2020-11-05_dbh_200-prng-1,daily_base_hphc_200,200,first-200,141,rng,num-start-1,1,365,0.08030915260314941,False,,False,2,False,1000,True,1.0
./expes/v2_2020-11-05_dbh_200-prng-1,daily_base_hphc_200,200,first-200,91,rng,num-start-261,261,365,3.5779433250427246,True,,True,1,False,1000,True,1.0
./expes/v2_2020-11-05_dbh_200-prng-1,daily_base_hphc_200,200,first-200,41,rng,num-start-201,201,365,2.8816030025482178,True,,True,1,False,1000,True,1.0
./expes/v2_2020-11-05_dbh_200-prng-1,daily_base_hphc_200,200,first-200,31,rng,num-start-161,161,365,2.192396879196167,True,,True,1,False,1000,True,1.0
./expes/v2_2020-11-05_dbh_200-prng-1,daily_base_hphc_200,200,first-200,191,rng,num-start-111,111,365,1.436452865600586,True,,True,1,False,1000,True,1.0
./expes/v2_2020-11-05_dbh_200-prng-1,daily_base_hphc_200,200,first-200,21,rng,num-start-11,11,365,1003.5532333850861,False,,False,0,True,1000,True,0.0
./expes/v2_2020-11-05_dbh_200-prng-1,daily_base_hphc_200,200,first-200,131,rng,num-start-191,191,365,2.772322416305542,True,,True,1,False,1000,True,1.0
./expes/v2_2020-11-05_dbh_200-prng-1,daily_base_hphc_200,200,first-200,131,rng,num-start-91,91,365,2.412169933319092,True,,True,1,False,1000,True,1.0
./expes/v2_2020-11-05_dbh_200-prng-1,daily_base_hphc_200,200,first-200,181,rng,num-start-221,221,365,2.6035125255584717,True,,True,1,False,1000,True,1.0
./expes/v2_2020-11-05_dbh_200-prng-1,daily_base_hphc_200,200,first-200,81,rng,num-start-81,81,365,1.8760693073272705,True,,True,1,False,1000,True,1.0
./expes/v2_2020-11-05_dbh_200-prng-1,daily_base_hphc_200,200,first-200,41,rng,num-start-231,231,365,3.2524755001068115,True,,True,1,False,1000,True,1.0
./expes/v2_2020-11-05_dbh_200-prng-1,daily_base_hphc_200,200,first-200,51,rng,num-start-211,211,365,2.9413180351257324,True,,True,1,False,1000,True,1.0
./expes/v2_2020-11-05_dbh_200-prng-1,daily_base_hphc_200,200,first-200,71,rng,num-start-121,121,365,1.9485478401184082,True,,True,1,False,1000,True,1.0
./expes/v2_2020-11-05_dbh_200-prng-1,daily_base_hphc_200,200,first-200,191,rng,num-start-201,201,365,2.2423267364501953,True,,True,1,False,1000,True,1.0
./expes/v2_2020-11-05_dbh_200-prng-1,daily_base_hphc_200,200,first-200,171,rng,num-start-171,171,365,1.9408166408538818,True,,True,1,False,1000,True,1.0
./expes/v2_2020-11-05_dbh_200-prng-1,daily_base_hphc_200,200,first-200,111,rng,num-start-281,281,365,3.717804193496704,True,,True,1,False,1000,True,1.0
./expes/v2_2020-11-05_dbh_200-prng-1,daily_base_hphc_200,200,first-200,11,rng,num-start-21,21,365,0.9640138149261475,True,,True,1,False,1000,True,1.0
./expes/v2_2020-11-05_dbh_200-prng-1,daily_base_hphc_200,200,first-200,71,rng,num-start-111,111,365,1.81272292137146,True,,True,1,False,1000,True,1.0
./expes/v2_2020-11-05_dbh_200-prng-1,daily_base_hphc_200,200,first-200,21,rng,num-start-231,231,365,2.993605613708496,True,,True,1,False,1000,True,1.0
./expes/v2_2020-11-05_dbh_200-prng-1,daily_base_hphc_200,200,first-200,91,rng,num-start-271,271,365,3.518860340118408,True,,True,1,False,1000,True,1.0
./expes/v2_2020-11-05_dbh_200-prng-1,daily_base_hphc_200,200,first-200,71,rng,num-start-121,121,365,1.4496562480926514,True,,True,1,False,1000,True,1.0
./expes/v2_2020-11-05_dbh_200-prng-1,daily_base_hphc_200,200,first-200,131,rng,num-start-131,131,365,2.030083656311035,True,,True,1,False,1000,True,1.0
./expes/v2_2020-11-05_dbh_200-prng-1,daily_base_hphc_200,200,first-200,71,rng,num-start-261,261,365,3.3616421222686768,True,,True,1,False,1000,True,1.0
./expes/v2_2020-11-05_dbh_200-prng-1,daily_base_hphc_200,200,first-200,121,rng,num-start-151,151,365,1.9801902770996094,True,,True,1,False,1000,True,1.0
./expes/v2_2020-11-05_dbh_200-prng-1,daily_base_hphc_200,200,first-200,61,rng,num-start-61,61,365,188.47328352928162,True,,True,1,False,1000,True,1.0
./expes/v2_2020-11-05_dbh_200-prng-1,daily_base_hphc_200,200,first-200,81,rng,num-start-261,261,365,3.4239962100982666,True,,True,1,False,1000,True,1.0
./expes/v2_2020-11-05_dbh_200-prng-1,daily_base_hphc_200,200,first-200,101,rng,num-start-251,251,365,3.519735813140869,True,,True,1,False,1000,True,1.0
./expes/v2_2020-11-05_dbh_200-prng-1,daily_base_hphc_200,200,first-200,171,rng,num-start-291,291,365,3.070629596710205,True,,True,1,False,1000,True,1.0
./expes/v2_2020-11-05_dbh_200-prng-1,daily_base_hphc_200,200,first-200,51,rng,num-start-21,21,365,1000.260799407959,False,,False,0,True,1000,True,0.0
./expes/v2_2020-11-05_dbh_200-prng-1,daily_base_hphc_200,200,first-200,61,rng,num-start-171,171,365,2.3171463012695312,True,,True,1,False,1000,True,1.0
./expes/v2_2020-11-05_dbh_200-prng-1,daily_base_hphc_200,200,first-200,141,rng,num-start-41,41,365,1000.5922565460205,False,,False,0,True,1000,True,0.0
./expes/v2_2020-11-05_dbh_200-prng-1,daily_base_hphc_200,200,first-200,71,rng,num-start-161,161,365,2.6557230949401855,True,,True,1,False,1000,True,1.0
./expes/v2_2020-11-05_dbh_200-prng-1,daily_base_hphc_200,200,first-200,191,rng,num-start-211,211,365,2.356463670730591,True,,True,1,False,1000,True,1.0
./expes/v2_2020-11-05_dbh_200-prng-1,daily_base_hphc_200,200,first-200,181,rng,num-start-221,221,365,2.6089985370635986,True,,True,1,False,1000,True,1.0
./expes/v2_2020-11-05_dbh_200-prng-1,daily_base_hphc_200,200,first-200,151,rng,num-start-91,91,365,1.137634515762329,True,,True,1,False,1000,True,1.0
./expes/v2_2020-11-05_dbh_200-prng-1,daily_base_hphc_200,200,first-200,81,rng,num-start-91,91,365,4.463167190551758,True,,True,1,False,1000,True,1.0
./expes/v2_2020-11-05_dbh_200-prng-1,daily_base_hphc_200,200,first-200,121,rng,num-start-81,81,365,3.7188560962677,True,,True,1,False,1000,True,1.0
./expes/v2_2020-11-05_dbh_200-prng-1,daily_base_hphc_200,200,first-200,191,rng,num-start-201,201,365,2.590390920639038,True,,True,1,False,1000,True,1.0
