expe,clients,clients_size,clients_subset,agg_size,method,days,days_size,days_total,time,valid,valid_sum,success,nsols,wall_hit,wall_time,pooled,valid_sums
./expes/v2_2020-11-05_dbh_250-prng-1,daily_base_hphc_300,300,first-300,111,rng,num-start-51,51,365,1000.9763023853302,False,,False,0,True,1000,True,0.0
./expes/v2_2020-11-05_dbh_250-prng-1,daily_base_hphc_300,300,first-300,241,rng,num-start-1,1,365,0.9676077365875244,False,,False,2,False,1000,True,1.0
./expes/v2_2020-11-05_dbh_250-prng-1,daily_base_hphc_300,300,first-300,251,rng,num-start-71,71,365,1001.0734968185425,False,,False,0,True,1000,True,0.0
./expes/v2_2020-11-05_dbh_250-prng-1,daily_base_hphc_300,300,first-300,201,rng,num-start-111,111,365,13.891869068145752,True,,True,1,False,1000,True,1.0
./expes/v2_2020-11-05_dbh_250-prng-1,daily_base_hphc_300,300,first-300,111,rng,num-start-171,171,365,4.685142993927002,True,,True,1,False,1000,True,1.0
./expes/v2_2020-11-05_dbh_250-prng-1,daily_base_hphc_300,300,first-300,91,rng,num-start-131,131,365,8.910291194915771,True,,True,1,False,1000,True,1.0
./expes/v2_2020-11-05_dbh_250-prng-1,daily_base_hphc_300,300,first-300,271,rng,num-start-81,81,365,1.6550204753875732,True,,True,1,False,1000,True,1.0
./expes/v2_2020-11-05_dbh_250-prng-1,daily_base_hphc_300,300,first-300,241,rng,num-start-31,31,365,1000.504825592041,False,,False,0,True,1000,True,0.0
./expes/v2_2020-11-05_dbh_250-prng-1,daily_base_hphc_300,300,first-300,151,rng,num-start-201,201,365,6.544834136962891,True,,True,1,False,1000,True,1.0
./expes/v2_2020-11-05_dbh_250-prng-1,daily_base_hphc_300,300,first-300,81,rng,num-start-121,121,365,6.315553903579712,True,,True,1,False,1000,True,1.0
./expes/v2_2020-11-05_dbh_250-prng-1,daily_base_hphc_300,300,first-300,21,rng,num-start-11,11,365,1004.4181635379791,False,,False,0,True,1000,True,0.0
./expes/v2_2020-11-05_dbh_250-prng-1,daily_base_hphc_300,300,first-300,91,rng,num-start-141,141,365,4.304731130599976,True,,True,1,False,1000,True,1.0
./expes/v2_2020-11-05_dbh_250-prng-1,daily_base_hphc_300,300,first-300,271,rng,num-start-71,71,365,2.932480812072754,True,,True,1,False,1000,True,1.0
./expes/v2_2020-11-05_dbh_250-prng-1,daily_base_hphc_300,300,first-300,131,rng,num-start-211,211,365,5.899250268936157,True,,True,1,False,1000,True,1.0
./expes/v2_2020-11-05_dbh_250-prng-1,daily_base_hphc_300,300,first-300,131,rng,num-start-131,131,365,11.599946022033691,True,,True,1,False,1000,True,1.0
./expes/v2_2020-11-05_dbh_250-prng-1,daily_base_hphc_300,300,first-300,251,rng,num-start-151,151,365,3.783219575881958,True,,True,1,False,1000,True,1.0
./expes/v2_2020-11-05_dbh_250-prng-1,daily_base_hphc_300,300,first-300,81,rng,num-start-41,41,365,1001.0063483715057,False,,False,0,True,1000,True,0.0
./expes/v2_2020-11-05_dbh_250-prng-1,daily_base_hphc_300,300,first-300,251,rng,num-start-261,261,365,6.9500720500946045,True,,True,1,False,1000,True,1.0
./expes/v2_2020-11-05_dbh_250-prng-1,daily_base_hphc_300,300,first-300,251,rng,num-start-271,271,365,6.643712520599365,True,,True,1,False,1000,True,1.0
./expes/v2_2020-11-05_dbh_250-prng-1,daily_base_hphc_300,300,first-300,261,rng,num-start-91,91,365,2.5781784057617188,True,,True,1,False,1000,True,1.0
./expes/v2_2020-11-05_dbh_250-prng-1,daily_base_hphc_300,300,first-300,71,rng,num-start-171,171,365,5.513668060302734,True,,True,1,False,1000,True,1.0
./expes/v2_2020-11-05_dbh_250-prng-1,daily_base_hphc_300,300,first-300,111,rng,num-start-31,31,365,1000.5477046966553,False,,False,0,True,1000,True,0.0
./expes/v2_2020-11-05_dbh_250-prng-1,daily_base_hphc_300,300,first-300,101,rng,num-start-11,11,365,1000.2728433609009,False,,False,0,True,1000,True,0.0
./expes/v2_2020-11-05_dbh_250-prng-1,daily_base_hphc_300,300,first-300,11,rng,num-start-141,141,365,3.776270866394043,True,,True,1,False,1000,True,1.0
./expes/v2_2020-11-05_dbh_250-prng-1,daily_base_hphc_300,300,first-300,241,rng,num-start-81,81,365,1001.2270164489746,False,,False,0,True,1000,True,0.0
./expes/v2_2020-11-05_dbh_250-prng-1,daily_base_hphc_300,300,first-300,91,rng,num-start-221,221,365,6.398932933807373,True,,True,1,False,1000,True,1.0
./expes/v2_2020-11-05_dbh_250-prng-1,daily_base_hphc_300,300,first-300,221,rng,num-start-81,81,365,1001.3011417388916,False,,False,0,True,1000,True,0.0
./expes/v2_2020-11-05_dbh_250-prng-1,daily_base_hphc_300,300,first-300,291,rng,num-start-121,121,365,2.514707326889038,True,,True,1,False,1000,True,1.0
./expes/v2_2020-11-05_dbh_250-prng-1,daily_base_hphc_300,300,first-300,11,rng,num-start-61,61,365,1.3247966766357422,True,,True,1,False,1000,True,1.0
./expes/v2_2020-11-05_dbh_250-prng-1,daily_base_hphc_300,300,first-300,261,rng,num-start-231,231,365,5.341407299041748,True,,True,1,False,1000,True,1.0
./expes/v2_2020-11-05_dbh_250-prng-1,daily_base_hphc_300,300,first-300,291,rng,num-start-281,281,365,5.646917104721069,True,,True,1,False,1000,True,1.0
./expes/v2_2020-11-05_dbh_250-prng-1,daily_base_hphc_300,300,first-300,131,rng,num-start-71,71,365,1001.2740550041199,False,,False,0,True,1000,True,0.0
./expes/v2_2020-11-05_dbh_250-prng-1,daily_base_hphc_300,300,first-300,61,rng,num-start-251,251,365,6.219432353973389,True,,True,1,False,1000,True,1.0
./expes/v2_2020-11-05_dbh_250-prng-1,daily_base_hphc_300,300,first-300,261,rng,num-start-141,141,365,3.118098497390747,True,,True,1,False,1000,True,1.0
./expes/v2_2020-11-05_dbh_250-prng-1,daily_base_hphc_300,300,first-300,261,rng,num-start-291,291,365,6.772615671157837,True,,True,1,False,1000,True,1.0
./expes/v2_2020-11-05_dbh_250-prng-1,daily_base_hphc_300,300,first-300,151,rng,num-start-81,81,365,1001.2576334476471,False,,False,0,True,1000,True,0.0
./expes/v2_2020-11-05_dbh_250-prng-1,daily_base_hphc_300,300,first-300,41,rng,num-start-171,171,365,4.381951332092285,True,,True,1,False,1000,True,1.0
./expes/v2_2020-11-05_dbh_250-prng-1,daily_base_hphc_300,300,first-300,131,rng,num-start-191,191,365,5.669243574142456,True,,True,1,False,1000,True,1.0
./expes/v2_2020-11-05_dbh_250-prng-1,daily_base_hphc_300,300,first-300,161,rng,num-start-251,251,365,7.455043315887451,True,,True,1,False,1000,True,1.0
./expes/v2_2020-11-05_dbh_250-prng-1,daily_base_hphc_300,300,first-300,161,rng,num-start-131,131,365,17.368241786956787,True,,True,1,False,1000,True,1.0
./expes/v2_2020-11-05_dbh_250-prng-1,daily_base_hphc_300,300,first-300,201,rng,num-start-171,171,365,4.879272699356079,True,,True,1,False,1000,True,1.0
./expes/v2_2020-11-05_dbh_250-prng-1,daily_base_hphc_300,300,first-300,81,rng,num-start-21,21,365,1000.5712332725525,False,,False,0,True,1000,True,0.0
