expe,clients,clients_size,clients_subset,agg_size,method,days,days_size,days_total,time,valid,valid_sum,success,nsols,wall_hit,wall_time,pooled,valid_sums
./expes/v2_2020-11-05_dbh_250-prng-1,daily_base_hphc_300,300,first-300,111,rng,num-start-121,121,365,14.722457885742188,True,,True,1,False,1000,True,1.0
./expes/v2_2020-11-05_dbh_250-prng-1,daily_base_hphc_300,300,first-300,81,rng,num-start-1,1,365,0.592414379119873,False,,False,2,False,1000,True,1.0
./expes/v2_2020-11-05_dbh_250-prng-1,daily_base_hphc_300,300,first-300,241,rng,num-start-141,141,365,6.215742588043213,True,,True,1,False,1000,True,1.0
./expes/v2_2020-11-05_dbh_250-prng-1,daily_base_hphc_300,300,first-300,121,rng,num-start-181,181,365,8.364952087402344,True,,True,1,False,1000,True,1.0
./expes/v2_2020-11-05_dbh_250-prng-1,daily_base_hphc_300,300,first-300,291,rng,num-start-131,131,365,4.839626312255859,True,,True,1,False,1000,True,1.0
./expes/v2_2020-11-05_dbh_250-prng-1,daily_base_hphc_300,300,first-300,21,rng,num-start-281,281,365,10.51545000076294,True,,True,1,False,1000,True,1.0
./expes/v2_2020-11-05_dbh_250-prng-1,daily_base_hphc_300,300,first-300,251,rng,num-start-281,281,365,12.557409524917603,True,,True,1,False,1000,True,1.0
./expes/v2_2020-11-05_dbh_250-prng-1,daily_base_hphc_300,300,first-300,241,rng,num-start-241,241,365,10.739064931869507,True,,True,1,False,1000,True,1.0
./expes/v2_2020-11-05_dbh_250-prng-1,daily_base_hphc_300,300,first-300,281,rng,num-start-271,271,365,10.840847969055176,True,,True,1,False,1000,True,1.0
./expes/v2_2020-11-05_dbh_250-prng-1,daily_base_hphc_300,300,first-300,291,rng,num-start-51,51,365,2.0774550437927246,True,,True,1,False,1000,True,1.0
./expes/v2_2020-11-05_dbh_250-prng-1,daily_base_hphc_300,300,first-300,11,rng,num-start-131,131,365,5.082399845123291,True,,True,1,False,1000,True,1.0
./expes/v2_2020-11-05_dbh_250-prng-1,daily_base_hphc_300,300,first-300,91,rng,num-start-181,181,365,8.411224126815796,True,,True,1,False,1000,True,1.0
./expes/v2_2020-11-05_dbh_250-prng-1,daily_base_hphc_300,300,first-300,231,rng,num-start-91,91,365,1003.0205800533295,False,,False,0,True,1000,True,0.0
./expes/v2_2020-11-05_dbh_250-prng-1,daily_base_hphc_300,300,first-300,261,rng,num-start-141,141,365,5.65662693977356,True,,True,1,False,1000,True,1.0
./expes/v2_2020-11-05_dbh_250-prng-1,daily_base_hphc_300,300,first-300,161,rng,num-start-111,111,365,1003.7390520572662,False,,False,0,True,1000,True,0.0
./expes/v2_2020-11-05_dbh_250-prng-1,daily_base_hphc_300,300,first-300,21,rng,num-start-91,91,365,3.5623247623443604,True,,True,1,False,1000,True,1.0
./expes/v2_2020-11-05_dbh_250-prng-1,daily_base_hphc_300,300,first-300,181,rng,num-start-161,161,365,7.5078184604644775,True,,True,1,False,1000,True,1.0
./expes/v2_2020-11-05_dbh_250-prng-1,daily_base_hphc_300,300,first-300,51,rng,num-start-31,31,365,1001.0450727939606,False,,False,0,True,1000,True,0.0
./expes/v2_2020-11-05_dbh_250-prng-1,daily_base_hphc_300,300,first-300,91,rng,num-start-71,71,365,1002.4880728721619,False,,False,0,True,1000,True,0.0
./expes/v2_2020-11-05_dbh_250-prng-1,daily_base_hphc_300,300,first-300,61,rng,num-start-131,131,365,5.413985252380371,True,,True,1,False,1000,True,1.0
./expes/v2_2020-11-05_dbh_250-prng-1,daily_base_hphc_300,300,first-300,1,rng,num-start-121,121,365,4.016510248184204,True,,True,1,False,1000,True,1.0
./expes/v2_2020-11-05_dbh_250-prng-1,daily_base_hphc_300,300,first-300,61,rng,num-start-141,141,365,5.907616853713989,True,,True,1,False,1000,True,1.0
./expes/v2_2020-11-05_dbh_250-prng-1,daily_base_hphc_300,300,first-300,221,rng,num-start-181,181,365,8.05778956413269,True,,True,1,False,1000,True,1.0
./expes/v2_2020-11-05_dbh_250-prng-1,daily_base_hphc_300,300,first-300,51,rng,num-start-141,141,365,6.412463665008545,True,,True,1,False,1000,True,1.0
./expes/v2_2020-11-05_dbh_250-prng-1,daily_base_hphc_300,300,first-300,171,rng,num-start-131,131,365,47.253695249557495,True,,True,1,False,1000,True,1.0
./expes/v2_2020-11-05_dbh_250-prng-1,daily_base_hphc_300,300,first-300,181,rng,num-start-61,61,365,1002.1373465061188,False,,False,0,True,1000,True,0.0
./expes/v2_2020-11-05_dbh_250-prng-1,daily_base_hphc_300,300,first-300,221,rng,num-start-171,171,365,7.525262117385864,True,,True,1,False,1000,True,1.0
./expes/v2_2020-11-05_dbh_250-prng-1,daily_base_hphc_300,300,first-300,121,rng,num-start-221,221,365,9.457897901535034,True,,True,1,False,1000,True,1.0
./expes/v2_2020-11-05_dbh_250-prng-1,daily_base_hphc_300,300,first-300,151,rng,num-start-241,241,365,11.921411275863647,True,,True,1,False,1000,True,1.0
./expes/v2_2020-11-05_dbh_250-prng-1,daily_base_hphc_300,300,first-300,141,rng,num-start-31,31,365,1001.0979251861572,False,,False,0,True,1000,True,0.0
./expes/v2_2020-11-05_dbh_250-prng-1,daily_base_hphc_300,300,first-300,161,rng,num-start-251,251,365,11.512367725372314,True,,True,1,False,1000,True,1.0
./expes/v2_2020-11-05_dbh_250-prng-1,daily_base_hphc_300,300,first-300,171,rng,num-start-61,61,365,1001.9944875240326,False,,False,0,True,1000,True,0.0
./expes/v2_2020-11-05_dbh_250-prng-1,daily_base_hphc_300,300,first-300,11,rng,num-start-1,1,365,0.28196144104003906,False,,False,2,False,1000,True,1.0
./expes/v2_2020-11-05_dbh_250-prng-1,daily_base_hphc_300,300,first-300,21,rng,num-start-121,121,365,4.731687545776367,True,,True,1,False,1000,True,1.0
./expes/v2_2020-11-05_dbh_250-prng-1,daily_base_hphc_300,300,first-300,251,rng,num-start-81,81,365,21.287187576293945,True,,True,1,False,1000,True,1.0
./expes/v2_2020-11-05_dbh_250-prng-1,daily_base_hphc_300,300,first-300,11,rng,num-start-271,271,365,10.694385766983032,True,,True,1,False,1000,True,1.0
./expes/v2_2020-11-05_dbh_250-prng-1,daily_base_hphc_300,300,first-300,241,rng,num-start-231,231,365,9.8753981590271,True,,True,1,False,1000,True,1.0
./expes/v2_2020-11-05_dbh_250-prng-1,daily_base_hphc_300,300,first-300,151,rng,num-start-31,31,365,1000.9958896636963,False,,False,0,True,1000,True,0.0
./expes/v2_2020-11-05_dbh_250-prng-1,daily_base_hphc_300,300,first-300,131,rng,num-start-41,41,365,1001.3420948982239,False,,False,0,True,1000,True,0.0
./expes/v2_2020-11-05_dbh_250-prng-1,daily_base_hphc_300,300,first-300,271,rng,num-start-1,1,365,0.14931225776672363,False,,False,2,False,1000,True,1.0
./expes/v2_2020-11-05_dbh_250-prng-1,daily_base_hphc_300,300,first-300,191,rng,num-start-121,121,365,19.949678421020508,True,,True,1,False,1000,True,1.0
./expes/v2_2020-11-05_dbh_250-prng-1,daily_base_hphc_300,300,first-300,171,rng,num-start-31,31,365,1001.1372563838959,False,,False,0,True,1000,True,0.0
./expes/v2_2020-11-05_dbh_250-prng-1,daily_base_hphc_300,300,first-300,261,rng,num-start-31,31,365,1001.084802865982,False,,False,0,True,1000,True,0.0
./expes/v2_2020-11-05_dbh_250-prng-1,daily_base_hphc_300,300,first-300,81,rng,num-start-91,91,365,1002.9904913902283,False,,False,0,True,1000,True,0.0
./expes/v2_2020-11-05_dbh_250-prng-1,daily_base_hphc_300,300,first-300,1,rng,num-start-211,211,365,6.9842047691345215,True,,True,1,False,1000,True,1.0
./expes/v2_2020-11-05_dbh_250-prng-1,daily_base_hphc_300,300,first-300,81,rng,num-start-151,151,365,6.7664806842803955,True,,True,1,False,1000,True,1.0
./expes/v2_2020-11-05_dbh_250-prng-1,daily_base_hphc_300,300,first-300,221,rng,num-start-111,111,365,4.322372198104858,True,,True,1,False,1000,True,1.0
./expes/v2_2020-11-05_dbh_250-prng-1,daily_base_hphc_300,300,first-300,1,rng,num-start-71,71,365,2.4016270637512207,True,,True,1,False,1000,True,1.0
./expes/v2_2020-11-05_dbh_250-prng-1,daily_base_hphc_300,300,first-300,21,rng,num-start-151,151,365,5.859332084655762,True,,True,1,False,1000,True,1.0
./expes/v2_2020-11-05_dbh_250-prng-1,daily_base_hphc_300,300,first-300,101,rng,num-start-191,191,365,8.352590799331665,True,,True,1,False,1000,True,1.0
./expes/v2_2020-11-05_dbh_250-prng-1,daily_base_hphc_300,300,first-300,221,rng,num-start-241,241,365,10.291069030761719,True,,True,1,False,1000,True,1.0
./expes/v2_2020-11-05_dbh_250-prng-1,daily_base_hphc_300,300,first-300,1,rng,num-start-191,191,365,6.398182392120361,True,,True,1,False,1000,True,1.0
./expes/v2_2020-11-05_dbh_250-prng-1,daily_base_hphc_300,300,first-300,121,rng,num-start-101,101,365,1003.3224513530731,False,,False,0,True,1000,True,0.0
./expes/v2_2020-11-05_dbh_250-prng-1,daily_base_hphc_300,300,first-300,121,rng,num-start-1,1,365,0.1556253433227539,False,,False,2,False,1000,True,1.0
./expes/v2_2020-11-05_dbh_250-prng-1,daily_base_hphc_300,300,first-300,111,rng,num-start-131,131,365,7.985200643539429,True,,True,1,False,1000,True,1.0
./expes/v2_2020-11-05_dbh_250-prng-1,daily_base_hphc_300,300,first-300,101,rng,num-start-211,211,365,9.52157473564148,True,,True,1,False,1000,True,1.0
./expes/v2_2020-11-05_dbh_250-prng-1,daily_base_hphc_300,300,first-300,291,rng,num-start-61,61,365,2.2913153171539307,True,,True,1,False,1000,True,1.0
./expes/v2_2020-11-05_dbh_250-prng-1,daily_base_hphc_300,300,first-300,81,rng,num-start-291,291,365,13.282164573669434,True,,True,1,False,1000,True,1.0
./expes/v2_2020-11-05_dbh_250-prng-1,daily_base_hphc_300,300,first-300,161,rng,num-start-141,141,365,18.659823179244995,True,,True,1,False,1000,True,1.0
./expes/v2_2020-11-05_dbh_250-prng-1,daily_base_hphc_300,300,first-300,281,rng,num-start-11,11,365,1000.7491853237152,False,,False,0,True,1000,True,0.0
./expes/v2_2020-11-05_dbh_250-prng-1,daily_base_hphc_300,300,first-300,151,rng,num-start-31,31,365,1001.0173733234406,False,,False,0,True,1000,True,0.0
./expes/v2_2020-11-05_dbh_250-prng-1,daily_base_hphc_300,300,first-300,251,rng,num-start-291,291,365,11.677359104156494,True,,True,1,False,1000,True,1.0
./expes/v2_2020-11-05_dbh_250-prng-1,daily_base_hphc_300,300,first-300,201,rng,num-start-11,11,365,1000.3734805583954,False,,False,0,True,1000,True,0.0
./expes/v2_2020-11-05_dbh_250-prng-1,daily_base_hphc_300,300,first-300,101,rng,num-start-221,221,365,9.423399925231934,True,,True,1,False,1000,True,1.0
./expes/v2_2020-11-05_dbh_250-prng-1,daily_base_hphc_300,300,first-300,141,rng,num-start-101,101,365,1003.4272408485413,False,,False,0,True,1000,True,0.0
./expes/v2_2020-11-05_dbh_250-prng-1,daily_base_hphc_300,300,first-300,141,rng,num-start-141,141,365,14.720733165740967,True,,True,1,False,1000,True,1.0
./expes/v2_2020-11-05_dbh_250-prng-1,daily_base_hphc_300,300,first-300,151,rng,num-start-71,71,365,1002.3100640773773,False,,False,0,True,1000,True,0.0
./expes/v2_2020-11-05_dbh_250-prng-1,daily_base_hphc_300,300,first-300,231,rng,num-start-71,71,365,1002.4103562831879,False,,False,0,True,1000,True,0.0
./expes/v2_2020-11-05_dbh_250-prng-1,daily_base_hphc_300,300,first-300,91,rng,num-start-241,241,365,10.283989667892456,True,,True,1,False,1000,True,1.0
./expes/v2_2020-11-05_dbh_250-prng-1,daily_base_hphc_300,300,first-300,231,rng,num-start-61,61,365,1002.0000813007355,False,,False,0,True,1000,True,0.0
./expes/v2_2020-11-05_dbh_250-prng-1,daily_base_hphc_300,300,first-300,291,rng,num-start-121,121,365,4.493937730789185,True,,True,1,False,1000,True,1.0
./expes/v2_2020-11-05_dbh_250-prng-1,daily_base_hphc_300,300,first-300,131,rng,num-start-181,181,365,8.454041481018066,True,,True,1,False,1000,True,1.0
./expes/v2_2020-11-05_dbh_250-prng-1,daily_base_hphc_300,300,first-300,51,rng,num-start-191,191,365,7.80016303062439,True,,True,1,False,1000,True,1.0
./expes/v2_2020-11-05_dbh_250-prng-1,daily_base_hphc_300,300,first-300,31,rng,num-start-141,141,365,5.39973783493042,True,,True,1,False,1000,True,1.0
./expes/v2_2020-11-05_dbh_250-prng-1,daily_base_hphc_300,300,first-300,71,rng,num-start-1,1,365,0.17723751068115234,False,,False,2,False,1000,True,1.0
./expes/v2_2020-11-05_dbh_250-prng-1,daily_base_hphc_300,300,first-300,71,rng,num-start-191,191,365,7.970709562301636,True,,True,1,False,1000,True,1.0
./expes/v2_2020-11-05_dbh_250-prng-1,daily_base_hphc_300,300,first-300,151,rng,num-start-41,41,365,1001.3698983192444,False,,False,0,True,1000,True,0.0
./expes/v2_2020-11-05_dbh_250-prng-1,daily_base_hphc_300,300,first-300,221,rng,num-start-111,111,365,19.671515703201294,True,,True,1,False,1000,True,1.0
./expes/v2_2020-11-05_dbh_250-prng-1,daily_base_hphc_300,300,first-300,201,rng,num-start-241,241,365,11.174723386764526,True,,True,1,False,1000,True,1.0
./expes/v2_2020-11-05_dbh_250-prng-1,daily_base_hphc_300,300,first-300,121,rng,num-start-11,11,365,1000.4371151924133,False,,False,0,True,1000,True,0.0
./expes/v2_2020-11-05_dbh_250-prng-1,daily_base_hphc_300,300,first-300,171,rng,num-start-41,41,365,1001.4126541614532,False,,False,0,True,1000,True,0.0
./expes/v2_2020-11-05_dbh_250-prng-1,daily_base_hphc_300,300,first-300,131,rng,num-start-151,151,365,10.712072134017944,True,,True,1,False,1000,True,1.0
./expes/v2_2020-11-05_dbh_250-prng-1,daily_base_hphc_300,300,first-300,221,rng,num-start-91,91,365,1003.0665762424469,False,,False,0,True,1000,True,0.0
./expes/v2_2020-11-05_dbh_250-prng-1,daily_base_hphc_300,300,first-300,1,rng,num-start-1,1,365,0.04466366767883301,True,,True,1,False,1000,True,1.0
./expes/v2_2020-11-05_dbh_250-prng-1,daily_base_hphc_300,300,first-300,111,rng,num-start-141,141,365,10.865883111953735,True,,True,1,False,1000,True,1.0
./expes/v2_2020-11-05_dbh_250-prng-1,daily_base_hphc_300,300,first-300,151,rng,num-start-191,191,365,9.336286306381226,True,,True,1,False,1000,True,1.0
./expes/v2_2020-11-05_dbh_250-prng-1,daily_base_hphc_300,300,first-300,201,rng,num-start-291,291,365,13.173884868621826,True,,True,1,False,1000,True,1.0
./expes/v2_2020-11-05_dbh_250-prng-1,daily_base_hphc_300,300,first-300,61,rng,num-start-51,51,365,1001.7895133495331,False,,False,0,True,1000,True,0.0
./expes/v2_2020-11-05_dbh_250-prng-1,daily_base_hphc_300,300,first-300,151,rng,num-start-271,271,365,12.766393423080444,True,,True,1,False,1000,True,1.0
./expes/v2_2020-11-05_dbh_250-prng-1,daily_base_hphc_300,300,first-300,251,rng,num-start-201,201,365,7.965132474899292,True,,True,1,False,1000,True,1.0
./expes/v2_2020-11-05_dbh_250-prng-1,daily_base_hphc_300,300,first-300,31,rng,num-start-191,191,365,7.456612825393677,True,,True,1,False,1000,True,1.0
./expes/v2_2020-11-05_dbh_250-prng-1,daily_base_hphc_300,300,first-300,161,rng,num-start-81,81,365,1002.6478011608124,False,,False,0,True,1000,True,0.0
./expes/v2_2020-11-05_dbh_250-prng-1,daily_base_hphc_300,300,first-300,221,rng,num-start-81,81,365,1002.8429915904999,False,,False,0,True,1000,True,0.0
./expes/v2_2020-11-05_dbh_250-prng-1,daily_base_hphc_300,300,first-300,171,rng,num-start-101,101,365,1003.2946054935455,False,,False,0,True,1000,True,0.0
./expes/v2_2020-11-05_dbh_250-prng-1,daily_base_hphc_300,300,first-300,191,rng,num-start-221,221,365,9.959650039672852,True,,True,1,False,1000,True,1.0
./expes/v2_2020-11-05_dbh_250-prng-1,daily_base_hphc_300,300,first-300,151,rng,num-start-201,201,365,9.256175518035889,True,,True,1,False,1000,True,1.0
./expes/v2_2020-11-05_dbh_250-prng-1,daily_base_hphc_300,300,first-300,221,rng,num-start-91,91,365,1003.0687911510468,False,,False,0,True,1000,True,0.0
./expes/v2_2020-11-05_dbh_250-prng-1,daily_base_hphc_300,300,first-300,131,rng,num-start-211,211,365,9.793654918670654,True,,True,1,False,1000,True,1.0
./expes/v2_2020-11-05_dbh_250-prng-1,daily_base_hphc_300,300,first-300,221,rng,num-start-71,71,365,1002.336094379425,False,,False,0,True,1000,True,0.0
./expes/v2_2020-11-05_dbh_250-prng-1,daily_base_hphc_300,300,first-300,51,rng,num-start-191,191,365,8.590152025222778,True,,True,1,False,1000,True,1.0
./expes/v2_2020-11-05_dbh_250-prng-1,daily_base_hphc_300,300,first-300,21,rng,num-start-261,261,365,10.542691469192505,True,,True,1,False,1000,True,1.0
./expes/v2_2020-11-05_dbh_250-prng-1,daily_base_hphc_300,300,first-300,181,rng,num-start-111,111,365,56.49395489692688,True,,True,1,False,1000,True,1.0
./expes/v2_2020-11-05_dbh_250-prng-1,daily_base_hphc_300,300,first-300,121,rng,num-start-41,41,365,1001.4070913791656,False,,False,0,True,1000,True,0.0
./expes/v2_2020-11-05_dbh_250-prng-1,daily_base_hphc_300,300,first-300,111,rng,num-start-241,241,365,10.953722476959229,True,,True,1,False,1000,True,1.0
./expes/v2_2020-11-05_dbh_250-prng-1,daily_base_hphc_300,300,first-300,51,rng,num-start-91,91,365,3.87446665763855,True,,True,1,False,1000,True,1.0
./expes/v2_2020-11-05_dbh_250-prng-1,daily_base_hphc_300,300,first-300,171,rng,num-start-221,221,365,10.959426641464233,True,,True,1,False,1000,True,1.0
./expes/v2_2020-11-05_dbh_250-prng-1,daily_base_hphc_300,300,first-300,41,rng,num-start-261,261,365,11.083175659179688,True,,True,1,False,1000,True,1.0
./expes/v2_2020-11-05_dbh_250-prng-1,daily_base_hphc_300,300,first-300,291,rng,num-start-131,131,365,5.021772146224976,True,,True,1,False,1000,True,1.0
./expes/v2_2020-11-05_dbh_250-prng-1,daily_base_hphc_300,300,first-300,271,rng,num-start-281,281,365,11.334989070892334,True,,True,1,False,1000,True,1.0
./expes/v2_2020-11-05_dbh_250-prng-1,daily_base_hphc_300,300,first-300,81,rng,num-start-201,201,365,8.871313571929932,True,,True,1,False,1000,True,1.0
./expes/v2_2020-11-05_dbh_250-prng-1,daily_base_hphc_300,300,first-300,121,rng,num-start-231,231,365,11.408456325531006,True,,True,1,False,1000,True,1.0
./expes/v2_2020-11-05_dbh_250-prng-1,daily_base_hphc_300,300,first-300,241,rng,num-start-61,61,365,1001.9771559238434,False,,False,0,True,1000,True,0.0
./expes/v2_2020-11-05_dbh_250-prng-1,daily_base_hphc_300,300,first-300,121,rng,num-start-171,171,365,7.477689027786255,True,,True,1,False,1000,True,1.0
./expes/v2_2020-11-05_dbh_250-prng-1,daily_base_hphc_300,300,first-300,201,rng,num-start-221,221,365,10.19658374786377,True,,True,1,False,1000,True,1.0
./expes/v2_2020-11-05_dbh_250-prng-1,daily_base_hphc_300,300,first-300,261,rng,num-start-41,41,365,1001.5200347900391,False,,False,0,True,1000,True,0.0
./expes/v2_2020-11-05_dbh_250-prng-1,daily_base_hphc_300,300,first-300,71,rng,num-start-121,121,365,8.297789335250854,True,,True,1,False,1000,True,1.0
./expes/v2_2020-11-05_dbh_250-prng-1,daily_base_hphc_300,300,first-300,241,rng,num-start-151,151,365,6.235342979431152,True,,True,1,False,1000,True,1.0
./expes/v2_2020-11-05_dbh_250-prng-1,daily_base_hphc_300,300,first-300,281,rng,num-start-111,111,365,4.375617504119873,True,,True,1,False,1000,True,1.0
./expes/v2_2020-11-05_dbh_250-prng-1,daily_base_hphc_300,300,first-300,111,rng,num-start-31,31,365,1001.0989146232605,False,,False,0,True,1000,True,0.0
./expes/v2_2020-11-05_dbh_250-prng-1,daily_base_hphc_300,300,first-300,211,rng,num-start-221,221,365,10.088416337966919,True,,True,1,False,1000,True,1.0
./expes/v2_2020-11-05_dbh_250-prng-1,daily_base_hphc_300,300,first-300,271,rng,num-start-171,171,365,6.626797199249268,True,,True,1,False,1000,True,1.0
./expes/v2_2020-11-05_dbh_250-prng-1,daily_base_hphc_300,300,first-300,201,rng,num-start-151,151,365,6.905356407165527,True,,True,1,False,1000,True,1.0
./expes/v2_2020-11-05_dbh_250-prng-1,daily_base_hphc_300,300,first-300,1,rng,num-start-41,41,365,1.4016265869140625,True,,True,1,False,1000,True,1.0
./expes/v2_2020-11-05_dbh_250-prng-1,daily_base_hphc_300,300,first-300,221,rng,num-start-61,61,365,1001.9845299720764,False,,False,0,True,1000,True,0.0
./expes/v2_2020-11-05_dbh_250-prng-1,daily_base_hphc_300,300,first-300,201,rng,num-start-21,21,365,1000.768697977066,False,,False,0,True,1000,True,0.0
./expes/v2_2020-11-05_dbh_250-prng-1,daily_base_hphc_300,300,first-300,51,rng,num-start-171,171,365,7.285407543182373,True,,True,1,False,1000,True,1.0
./expes/v2_2020-11-05_dbh_250-prng-1,daily_base_hphc_300,300,first-300,251,rng,num-start-51,51,365,1001.7651233673096,False,,False,0,True,1000,True,0.0
./expes/v2_2020-11-05_dbh_250-prng-1,daily_base_hphc_300,300,first-300,111,rng,num-start-111,111,365,41.46752619743347,True,,True,1,False,1000,True,1.0
./expes/v2_2020-11-05_dbh_250-prng-1,daily_base_hphc_300,300,first-300,241,rng,num-start-281,281,365,12.058170318603516,True,,True,1,False,1000,True,1.0
./expes/v2_2020-11-05_dbh_250-prng-1,daily_base_hphc_300,300,first-300,211,rng,num-start-101,101,365,42.46318316459656,True,,True,1,False,1000,True,1.0
./expes/v2_2020-11-05_dbh_250-prng-1,daily_base_hphc_300,300,first-300,61,rng,num-start-291,291,365,13.475624799728394,True,,True,1,False,1000,True,1.0
./expes/v2_2020-11-05_dbh_250-prng-1,daily_base_hphc_300,300,first-300,161,rng,num-start-171,171,365,8.032111644744873,True,,True,1,False,1000,True,1.0
./expes/v2_2020-11-05_dbh_250-prng-1,daily_base_hphc_300,300,first-300,261,rng,num-start-201,201,365,8.097838640213013,True,,True,1,False,1000,True,1.0
./expes/v2_2020-11-05_dbh_250-prng-1,daily_base_hphc_300,300,first-300,141,rng,num-start-291,291,365,13.213855504989624,True,,True,1,False,1000,True,1.0
./expes/v2_2020-11-05_dbh_250-prng-1,daily_base_hphc_300,300,first-300,291,rng,num-start-11,11,365,1000.3902070522308,False,,False,0,True,1000,True,0.0
./expes/v2_2020-11-05_dbh_250-prng-1,daily_base_hphc_300,300,first-300,1,rng,num-start-241,241,365,7.919203042984009,True,,True,1,False,1000,True,1.0
./expes/v2_2020-11-05_dbh_250-prng-1,daily_base_hphc_300,300,first-300,141,rng,num-start-251,251,365,10.923136711120605,True,,True,1,False,1000,True,1.0
./expes/v2_2020-11-05_dbh_250-prng-1,daily_base_hphc_300,300,first-300,121,rng,num-start-1,1,365,0.8547706604003906,False,,False,2,False,1000,True,1.0
./expes/v2_2020-11-05_dbh_250-prng-1,daily_base_hphc_300,300,first-300,131,rng,num-start-281,281,365,13.27435564994812,True,,True,1,False,1000,True,1.0
./expes/v2_2020-11-05_dbh_250-prng-1,daily_base_hphc_300,300,first-300,231,rng,num-start-11,11,365,1000.6572155952454,False,,False,0,True,1000,True,0.0
./expes/v2_2020-11-05_dbh_250-prng-1,daily_base_hphc_300,300,first-300,121,rng,num-start-131,131,365,11.82682466506958,True,,True,1,False,1000,True,1.0
./expes/v2_2020-11-05_dbh_250-prng-1,daily_base_hphc_300,300,first-300,31,rng,num-start-211,211,365,8.388813495635986,True,,True,1,False,1000,True,1.0
./expes/v2_2020-11-05_dbh_250-prng-1,daily_base_hphc_300,300,first-300,231,rng,num-start-191,191,365,7.854892730712891,True,,True,1,False,1000,True,1.0
./expes/v2_2020-11-05_dbh_250-prng-1,daily_base_hphc_300,300,first-300,201,rng,num-start-251,251,365,10.624671697616577,True,,True,1,False,1000,True,1.0
./expes/v2_2020-11-05_dbh_250-prng-1,daily_base_hphc_300,300,first-300,221,rng,num-start-291,291,365,12.711622476577759,True,,True,1,False,1000,True,1.0
./expes/v2_2020-11-05_dbh_250-prng-1,daily_base_hphc_300,300,first-300,241,rng,num-start-161,161,365,6.753951549530029,True,,True,1,False,1000,True,1.0
./expes/v2_2020-11-05_dbh_250-prng-1,daily_base_hphc_300,300,first-300,221,rng,num-start-161,161,365,6.746408224105835,True,,True,1,False,1000,True,1.0
./expes/v2_2020-11-05_dbh_250-prng-1,daily_base_hphc_300,300,first-300,241,rng,num-start-71,71,365,1002.4143092632294,False,,False,0,True,1000,True,0.0
./expes/v2_2020-11-05_dbh_250-prng-1,daily_base_hphc_300,300,first-300,251,rng,num-start-101,101,365,11.18759274482727,True,,True,1,False,1000,True,1.0
./expes/v2_2020-11-05_dbh_250-prng-1,daily_base_hphc_300,300,first-300,211,rng,num-start-261,261,365,11.681044340133667,True,,True,1,False,1000,True,1.0
./expes/v2_2020-11-05_dbh_250-prng-1,daily_base_hphc_300,300,first-300,41,rng,num-start-91,91,365,7.7861387729644775,True,,True,1,False,1000,True,1.0
./expes/v2_2020-11-05_dbh_250-prng-1,daily_base_hphc_300,300,first-300,171,rng,num-start-181,181,365,8.314996719360352,True,,True,1,False,1000,True,1.0
./expes/v2_2020-11-05_dbh_250-prng-1,daily_base_hphc_300,300,first-300,281,rng,num-start-241,241,365,9.380613565444946,True,,True,1,False,1000,True,1.0
./expes/v2_2020-11-05_dbh_250-prng-1,daily_base_hphc_300,300,first-300,1,rng,num-start-211,211,365,7.196232318878174,True,,True,1,False,1000,True,1.0
./expes/v2_2020-11-05_dbh_250-prng-1,daily_base_hphc_300,300,first-300,251,rng,num-start-281,281,365,12.162891149520874,True,,True,1,False,1000,True,1.0
./expes/v2_2020-11-05_dbh_250-prng-1,daily_base_hphc_300,300,first-300,191,rng,num-start-181,181,365,8.273028373718262,True,,True,1,False,1000,True,1.0
./expes/v2_2020-11-05_dbh_250-prng-1,daily_base_hphc_300,300,first-300,281,rng,num-start-201,201,365,7.616841077804565,True,,True,1,False,1000,True,1.0
./expes/v2_2020-11-05_dbh_250-prng-1,daily_base_hphc_300,300,first-300,41,rng,num-start-231,231,365,10.403085708618164,True,,True,1,False,1000,True,1.0
./expes/v2_2020-11-05_dbh_250-prng-1,daily_base_hphc_300,300,first-300,221,rng,num-start-81,81,365,1002.7137079238892,False,,False,0,True,1000,True,0.0
./expes/v2_2020-11-05_dbh_250-prng-1,daily_base_hphc_300,300,first-300,101,rng,num-start-31,31,365,1001.080470085144,False,,False,0,True,1000,True,0.0
./expes/v2_2020-11-05_dbh_250-prng-1,daily_base_hphc_300,300,first-300,281,rng,num-start-31,31,365,1005.5015957355499,False,,False,1,True,1000,True,0.0
./expes/v2_2020-11-05_dbh_250-prng-1,daily_base_hphc_300,300,first-300,191,rng,num-start-191,191,365,8.696966648101807,True,,True,1,False,1000,True,1.0
./expes/v2_2020-11-05_dbh_250-prng-1,daily_base_hphc_300,300,first-300,211,rng,num-start-181,181,365,7.585622072219849,True,,True,1,False,1000,True,1.0
./expes/v2_2020-11-05_dbh_250-prng-1,daily_base_hphc_300,300,first-300,211,rng,num-start-251,251,365,11.017252445220947,True,,True,1,False,1000,True,1.0
./expes/v2_2020-11-05_dbh_250-prng-1,daily_base_hphc_300,300,first-300,161,rng,num-start-51,51,365,1001.7362930774689,False,,False,0,True,1000,True,0.0
./expes/v2_2020-11-05_dbh_250-prng-1,daily_base_hphc_300,300,first-300,91,rng,num-start-151,151,365,6.843749761581421,True,,True,1,False,1000,True,1.0
./expes/v2_2020-11-05_dbh_250-prng-1,daily_base_hphc_300,300,first-300,41,rng,num-start-51,51,365,1001.7913537025452,False,,False,0,True,1000,True,0.0
./expes/v2_2020-11-05_dbh_250-prng-1,daily_base_hphc_300,300,first-300,161,rng,num-start-71,71,365,1002.3594791889191,False,,False,0,True,1000,True,0.0
./expes/v2_2020-11-05_dbh_250-prng-1,daily_base_hphc_300,300,first-300,131,rng,num-start-21,21,365,1000.7886154651642,False,,False,0,True,1000,True,0.0
./expes/v2_2020-11-05_dbh_250-prng-1,daily_base_hphc_300,300,first-300,121,rng,num-start-51,51,365,1001.7566225528717,False,,False,0,True,1000,True,0.0
./expes/v2_2020-11-05_dbh_250-prng-1,daily_base_hphc_300,300,first-300,61,rng,num-start-171,171,365,7.432914972305298,True,,True,1,False,1000,True,1.0
./expes/v2_2020-11-05_dbh_250-prng-1,daily_base_hphc_300,300,first-300,111,rng,num-start-191,191,365,8.714927434921265,True,,True,1,False,1000,True,1.0
./expes/v2_2020-11-05_dbh_250-prng-1,daily_base_hphc_300,300,first-300,181,rng,num-start-241,241,365,11.730590343475342,True,,True,1,False,1000,True,1.0
./expes/v2_2020-11-05_dbh_250-prng-1,daily_base_hphc_300,300,first-300,241,rng,num-start-71,71,365,1002.3742101192474,False,,False,0,True,1000,True,0.0
./expes/v2_2020-11-05_dbh_250-prng-1,daily_base_hphc_300,300,first-300,141,rng,num-start-201,201,365,9.004929542541504,True,,True,1,False,1000,True,1.0
./expes/v2_2020-11-05_dbh_250-prng-1,daily_base_hphc_300,300,first-300,51,rng,num-start-31,31,365,1001.0352342128754,False,,False,0,True,1000,True,0.0
./expes/v2_2020-11-05_dbh_250-prng-1,daily_base_hphc_300,300,first-300,251,rng,num-start-161,161,365,6.585064172744751,True,,True,1,False,1000,True,1.0
./expes/v2_2020-11-05_dbh_250-prng-1,daily_base_hphc_300,300,first-300,41,rng,num-start-271,271,365,10.908682584762573,True,,True,1,False,1000,True,1.0
./expes/v2_2020-11-05_dbh_250-prng-1,daily_base_hphc_300,300,first-300,291,rng,num-start-291,291,365,10.687639474868774,True,,True,1,False,1000,True,1.0
./expes/v2_2020-11-05_dbh_250-prng-1,daily_base_hphc_300,300,first-300,41,rng,num-start-201,201,365,8.030961036682129,True,,True,1,False,1000,True,1.0
./expes/v2_2020-11-05_dbh_250-prng-1,daily_base_hphc_300,300,first-300,201,rng,num-start-211,211,365,9.109204530715942,True,,True,1,False,1000,True,1.0
./expes/v2_2020-11-05_dbh_250-prng-1,daily_base_hphc_300,300,first-300,261,rng,num-start-211,211,365,8.268522500991821,True,,True,1,False,1000,True,1.0
./expes/v2_2020-11-05_dbh_250-prng-1,daily_base_hphc_300,300,first-300,61,rng,num-start-161,161,365,6.720746040344238,True,,True,1,False,1000,True,1.0
./expes/v2_2020-11-05_dbh_250-prng-1,daily_base_hphc_300,300,first-300,131,rng,num-start-101,101,365,1003.4379024505615,False,,False,0,True,1000,True,0.0
./expes/v2_2020-11-05_dbh_250-prng-1,daily_base_hphc_300,300,first-300,201,rng,num-start-91,91,365,1003.057374715805,False,,False,0,True,1000,True,0.0
./expes/v2_2020-11-05_dbh_250-prng-1,daily_base_hphc_300,300,first-300,291,rng,num-start-91,91,365,3.465420722961426,True,,True,1,False,1000,True,1.0
./expes/v2_2020-11-05_dbh_250-prng-1,daily_base_hphc_300,300,first-300,181,rng,num-start-11,11,365,1000.427143573761,False,,False,0,True,1000,True,0.0
./expes/v2_2020-11-05_dbh_250-prng-1,daily_base_hphc_300,300,first-300,71,rng,num-start-21,21,365,1000.6721630096436,False,,False,0,True,1000,True,0.0
./expes/v2_2020-11-05_dbh_250-prng-1,daily_base_hphc_300,300,first-300,41,rng,num-start-111,111,365,4.408411741256714,True,,True,1,False,1000,True,1.0
./expes/v2_2020-11-05_dbh_250-prng-1,daily_base_hphc_300,300,first-300,41,rng,num-start-121,121,365,5.3991539478302,True,,True,1,False,1000,True,1.0
./expes/v2_2020-11-05_dbh_250-prng-1,daily_base_hphc_300,300,first-300,91,rng,num-start-291,291,365,13.048538208007812,True,,True,1,False,1000,True,1.0
./expes/v2_2020-11-05_dbh_250-prng-1,daily_base_hphc_300,300,first-300,121,rng,num-start-101,101,365,1003.5574893951416,False,,False,0,True,1000,True,0.0
./expes/v2_2020-11-05_dbh_250-prng-1,daily_base_hphc_300,300,first-300,181,rng,num-start-191,191,365,9.02483081817627,True,,True,1,False,1000,True,1.0
./expes/v2_2020-11-05_dbh_250-prng-1,daily_base_hphc_300,300,first-300,151,rng,num-start-71,71,365,1002.4468924999237,False,,False,0,True,1000,True,0.0
./expes/v2_2020-11-05_dbh_250-prng-1,daily_base_hphc_300,300,first-300,221,rng,num-start-191,191,365,8.584300994873047,True,,True,1,False,1000,True,1.0
./expes/v2_2020-11-05_dbh_250-prng-1,daily_base_hphc_300,300,first-300,21,rng,num-start-261,261,365,10.257537364959717,True,,True,1,False,1000,True,1.0
./expes/v2_2020-11-05_dbh_250-prng-1,daily_base_hphc_300,300,first-300,131,rng,num-start-241,241,365,11.458974123001099,True,,True,1,False,1000,True,1.0
./expes/v2_2020-11-05_dbh_250-prng-1,daily_base_hphc_300,300,first-300,31,rng,num-start-201,201,365,8.313744068145752,True,,True,1,False,1000,True,1.0
./expes/v2_2020-11-05_dbh_250-prng-1,daily_base_hphc_300,300,first-300,41,rng,num-start-171,171,365,7.344527006149292,True,,True,1,False,1000,True,1.0
./expes/v2_2020-11-05_dbh_250-prng-1,daily_base_hphc_300,300,first-300,121,rng,num-start-251,251,365,11.735652208328247,True,,True,1,False,1000,True,1.0
./expes/v2_2020-11-05_dbh_250-prng-1,daily_base_hphc_300,300,first-300,291,rng,num-start-101,101,365,3.922109842300415,True,,True,1,False,1000,True,1.0
./expes/v2_2020-11-05_dbh_250-prng-1,daily_base_hphc_300,300,first-300,11,rng,num-start-41,41,365,2.4064319133758545,True,,True,1,False,1000,True,1.0
./expes/v2_2020-11-05_dbh_250-prng-1,daily_base_hphc_300,300,first-300,271,rng,num-start-271,271,365,11.224738359451294,True,,True,1,False,1000,True,1.0
./expes/v2_2020-11-05_dbh_250-prng-1,daily_base_hphc_300,300,first-300,51,rng,num-start-91,91,365,4.170781373977661,True,,True,1,False,1000,True,1.0
./expes/v2_2020-11-05_dbh_250-prng-1,daily_base_hphc_300,300,first-300,201,rng,num-start-131,131,365,5.9859302043914795,True,,True,1,False,1000,True,1.0
./expes/v2_2020-11-05_dbh_250-prng-1,daily_base_hphc_300,300,first-300,191,rng,num-start-81,81,365,1002.7647697925568,False,,False,0,True,1000,True,0.0
./expes/v2_2020-11-05_dbh_250-prng-1,daily_base_hphc_300,300,first-300,241,rng,num-start-231,231,365,9.493583679199219,True,,True,1,False,1000,True,1.0
./expes/v2_2020-11-05_dbh_250-prng-1,daily_base_hphc_300,300,first-300,41,rng,num-start-221,221,365,8.859951972961426,True,,True,1,False,1000,True,1.0
./expes/v2_2020-11-05_dbh_250-prng-1,daily_base_hphc_300,300,first-300,191,rng,num-start-291,291,365,12.662530660629272,True,,True,1,False,1000,True,1.0
./expes/v2_2020-11-05_dbh_250-prng-1,daily_base_hphc_300,300,first-300,21,rng,num-start-211,211,365,8.273170471191406,True,,True,1,False,1000,True,1.0
./expes/v2_2020-11-05_dbh_250-prng-1,daily_base_hphc_300,300,first-300,141,rng,num-start-221,221,365,9.929109334945679,True,,True,1,False,1000,True,1.0
./expes/v2_2020-11-05_dbh_250-prng-1,daily_base_hphc_300,300,first-300,181,rng,num-start-201,201,365,9.05925440788269,True,,True,1,False,1000,True,1.0
./expes/v2_2020-11-05_dbh_250-prng-1,daily_base_hphc_300,300,first-300,291,rng,num-start-51,51,365,2.0984323024749756,True,,True,1,False,1000,True,1.0
./expes/v2_2020-11-05_dbh_250-prng-1,daily_base_hphc_300,300,first-300,281,rng,num-start-271,271,365,10.012638330459595,True,,True,1,False,1000,True,1.0
./expes/v2_2020-11-05_dbh_250-prng-1,daily_base_hphc_300,300,first-300,31,rng,num-start-91,91,365,3.6678080558776855,True,,True,1,False,1000,True,1.0
./expes/v2_2020-11-05_dbh_250-prng-1,daily_base_hphc_300,300,first-300,201,rng,num-start-211,211,365,9.920035123825073,True,,True,1,False,1000,True,1.0
./expes/v2_2020-11-05_dbh_250-prng-1,daily_base_hphc_300,300,first-300,71,rng,num-start-181,181,365,7.7101967334747314,True,,True,1,False,1000,True,1.0
./expes/v2_2020-11-05_dbh_250-prng-1,daily_base_hphc_300,300,first-300,11,rng,num-start-1,1,365,0.15529751777648926,False,,False,2,False,1000,True,1.0
./expes/v2_2020-11-05_dbh_250-prng-1,daily_base_hphc_300,300,first-300,201,rng,num-start-61,61,365,1002.0678865909576,False,,False,0,True,1000,True,0.0
./expes/v2_2020-11-05_dbh_250-prng-1,daily_base_hphc_300,300,first-300,281,rng,num-start-81,81,365,3.2624011039733887,True,,True,1,False,1000,True,1.0
./expes/v2_2020-11-05_dbh_250-prng-1,daily_base_hphc_300,300,first-300,21,rng,num-start-141,141,365,5.777593612670898,True,,True,1,False,1000,True,1.0
./expes/v2_2020-11-05_dbh_250-prng-1,daily_base_hphc_300,300,first-300,221,rng,num-start-141,141,365,6.54460072517395,True,,True,1,False,1000,True,1.0
./expes/v2_2020-11-05_dbh_250-prng-1,daily_base_hphc_300,300,first-300,71,rng,num-start-131,131,365,6.1888227462768555,True,,True,1,False,1000,True,1.0
./expes/v2_2020-11-05_dbh_250-prng-1,daily_base_hphc_300,300,first-300,91,rng,num-start-41,41,365,1001.4206020832062,False,,False,0,True,1000,True,0.0
./expes/v2_2020-11-05_dbh_250-prng-1,daily_base_hphc_300,300,first-300,1,rng,num-start-161,161,365,5.366357326507568,True,,True,1,False,1000,True,1.0
./expes/v2_2020-11-05_dbh_250-prng-1,daily_base_hphc_300,300,first-300,291,rng,num-start-281,281,365,10.32184648513794,True,,True,1,False,1000,True,1.0
./expes/v2_2020-11-05_dbh_250-prng-1,daily_base_hphc_300,300,first-300,171,rng,num-start-261,261,365,11.607837438583374,True,,True,1,False,1000,True,1.0
./expes/v2_2020-11-05_dbh_250-prng-1,daily_base_hphc_300,300,first-300,201,rng,num-start-31,31,365,1001.0788450241089,False,,False,0,True,1000,True,0.0
./expes/v2_2020-11-05_dbh_250-prng-1,daily_base_hphc_300,300,first-300,291,rng,num-start-161,161,365,5.947697877883911,True,,True,1,False,1000,True,1.0
./expes/v2_2020-11-05_dbh_250-prng-1,daily_base_hphc_300,300,first-300,101,rng,num-start-121,121,365,22.092084884643555,True,,True,1,False,1000,True,1.0
./expes/v2_2020-11-05_dbh_250-prng-1,daily_base_hphc_300,300,first-300,101,rng,num-start-41,41,365,1001.4069244861603,False,,False,0,True,1000,True,0.0
./expes/v2_2020-11-05_dbh_250-prng-1,daily_base_hphc_300,300,first-300,131,rng,num-start-121,121,365,16.488998651504517,True,,True,1,False,1000,True,1.0
./expes/v2_2020-11-05_dbh_250-prng-1,daily_base_hphc_300,300,first-300,191,rng,num-start-81,81,365,1002.8289530277252,False,,False,0,True,1000,True,0.0
./expes/v2_2020-11-05_dbh_250-prng-1,daily_base_hphc_300,300,first-300,181,rng,num-start-71,71,365,1002.351194858551,False,,False,0,True,1000,True,0.0
./expes/v2_2020-11-05_dbh_250-prng-1,daily_base_hphc_300,300,first-300,31,rng,num-start-61,61,365,5.212043285369873,True,,True,1,False,1000,True,1.0
./expes/v2_2020-11-05_dbh_250-prng-1,daily_base_hphc_300,300,first-300,291,rng,num-start-61,61,365,2.2024621963500977,True,,True,1,False,1000,True,1.0
./expes/v2_2020-11-05_dbh_250-prng-1,daily_base_hphc_300,300,first-300,101,rng,num-start-41,41,365,1001.4566125869751,False,,False,0,True,1000,True,0.0
./expes/v2_2020-11-05_dbh_250-prng-1,daily_base_hphc_300,300,first-300,181,rng,num-start-131,131,365,12.223904609680176,True,,True,1,False,1000,True,1.0
./expes/v2_2020-11-05_dbh_250-prng-1,daily_base_hphc_300,300,first-300,221,rng,num-start-11,11,365,1000.50390791893,False,,False,0,True,1000,True,0.0
./expes/v2_2020-11-05_dbh_250-prng-1,daily_base_hphc_300,300,first-300,161,rng,num-start-21,21,365,1000.6912949085236,False,,False,0,True,1000,True,0.0
./expes/v2_2020-11-05_dbh_250-prng-1,daily_base_hphc_300,300,first-300,51,rng,num-start-91,91,365,8.255210161209106,True,,True,1,False,1000,True,1.0
./expes/v2_2020-11-05_dbh_250-prng-1,daily_base_hphc_300,300,first-300,261,rng,num-start-141,141,365,5.720958709716797,True,,True,1,False,1000,True,1.0
./expes/v2_2020-11-05_dbh_250-prng-1,daily_base_hphc_300,300,first-300,161,rng,num-start-201,201,365,9.201156854629517,True,,True,1,False,1000,True,1.0
./expes/v2_2020-11-05_dbh_250-prng-1,daily_base_hphc_300,300,first-300,121,rng,num-start-241,241,365,12.226704120635986,True,,True,1,False,1000,True,1.0
./expes/v2_2020-11-05_dbh_250-prng-1,daily_base_hphc_300,300,first-300,211,rng,num-start-291,291,365,12.34687614440918,True,,True,1,False,1000,True,1.0
./expes/v2_2020-11-05_dbh_250-prng-1,daily_base_hphc_300,300,first-300,31,rng,num-start-161,161,365,6.615668296813965,True,,True,1,False,1000,True,1.0
./expes/v2_2020-11-05_dbh_250-prng-1,daily_base_hphc_300,300,first-300,211,rng,num-start-151,151,365,6.7071027755737305,True,,True,1,False,1000,True,1.0
./expes/v2_2020-11-05_dbh_250-prng-1,daily_base_hphc_300,300,first-300,131,rng,num-start-121,121,365,16.647441864013672,True,,True,1,False,1000,True,1.0
./expes/v2_2020-11-05_dbh_250-prng-1,daily_base_hphc_300,300,first-300,191,rng,num-start-41,41,365,1001.4965481758118,False,,False,0,True,1000,True,0.0
./expes/v2_2020-11-05_dbh_250-prng-1,daily_base_hphc_300,300,first-300,11,rng,num-start-11,11,365,1001.8690750598907,False,,False,0,True,1000,True,0.0
./expes/v2_2020-11-05_dbh_250-prng-1,daily_base_hphc_300,300,first-300,171,rng,num-start-291,291,365,13.555989265441895,True,,True,1,False,1000,True,1.0
./expes/v2_2020-11-05_dbh_250-prng-1,daily_base_hphc_300,300,first-300,31,rng,num-start-141,141,365,5.528139591217041,True,,True,1,False,1000,True,1.0
./expes/v2_2020-11-05_dbh_250-prng-1,daily_base_hphc_300,300,first-300,51,rng,num-start-131,131,365,5.849394798278809,True,,True,1,False,1000,True,1.0
./expes/v2_2020-11-05_dbh_250-prng-1,daily_base_hphc_300,300,first-300,1,rng,num-start-261,261,365,8.747170686721802,True,,True,1,False,1000,True,1.0
./expes/v2_2020-11-05_dbh_250-prng-1,daily_base_hphc_300,300,first-300,141,rng,num-start-251,251,365,11.034809827804565,True,,True,1,False,1000,True,1.0
./expes/v2_2020-11-05_dbh_250-prng-1,daily_base_hphc_300,300,first-300,151,rng,num-start-261,261,365,11.469059467315674,True,,True,1,False,1000,True,1.0
./expes/v2_2020-11-05_dbh_250-prng-1,daily_base_hphc_300,300,first-300,191,rng,num-start-131,131,365,13.205870628356934,True,,True,1,False,1000,True,1.0
./expes/v2_2020-11-05_dbh_250-prng-1,daily_base_hphc_300,300,first-300,51,rng,num-start-1,1,365,0.11445379257202148,False,,False,2,False,1000,True,1.0
./expes/v2_2020-11-05_dbh_250-prng-1,daily_base_hphc_300,300,first-300,111,rng,num-start-91,91,365,1002.984459400177,False,,False,0,True,1000,True,0.0
