expe,clients,clients_size,clients_subset,agg_size,method,days,days_size,days_total,time,valid,valid_sum,success,nsols,wall_hit,wall_time,pooled,valid_sums
./expes/v2_2020-11-05_dbh_250-prng-1,daily_base_hphc_300,300,first-300,111,rng,num-start-131,131,365,9.83053183555603,True,,True,1,False,1000,True,1.0
./expes/v2_2020-11-05_dbh_250-prng-1,daily_base_hphc_300,300,first-300,21,rng,num-start-261,261,365,9.469277381896973,True,,True,1,False,1000,True,1.0
./expes/v2_2020-11-05_dbh_250-prng-1,daily_base_hphc_300,300,first-300,121,rng,num-start-221,221,365,9.026937246322632,True,,True,1,False,1000,True,1.0
./expes/v2_2020-11-05_dbh_250-prng-1,daily_base_hphc_300,300,first-300,241,rng,num-start-161,161,365,6.081989049911499,True,,True,1,False,1000,True,1.0
./expes/v2_2020-11-05_dbh_250-prng-1,daily_base_hphc_300,300,first-300,101,rng,num-start-201,201,365,8.206885814666748,True,,True,1,False,1000,True,1.0
./expes/v2_2020-11-05_dbh_250-prng-1,daily_base_hphc_300,300,first-300,161,rng,num-start-41,41,365,1001.3356781005859,False,,False,0,True,1000,True,0.0
./expes/v2_2020-11-05_dbh_250-prng-1,daily_base_hphc_300,300,first-300,291,rng,num-start-41,41,365,2.7750930786132812,True,,True,1,False,1000,True,1.0
./expes/v2_2020-11-05_dbh_250-prng-1,daily_base_hphc_300,300,first-300,91,rng,num-start-1,1,365,0.23206233978271484,False,,False,2,False,1000,True,1.0
./expes/v2_2020-11-05_dbh_250-prng-1,daily_base_hphc_300,300,first-300,241,rng,num-start-201,201,365,7.764067649841309,True,,True,1,False,1000,True,1.0
./expes/v2_2020-11-05_dbh_250-prng-1,daily_base_hphc_300,300,first-300,211,rng,num-start-231,231,365,9.202410697937012,True,,True,1,False,1000,True,1.0
./expes/v2_2020-11-05_dbh_250-prng-1,daily_base_hphc_300,300,first-300,151,rng,num-start-171,171,365,6.952538013458252,True,,True,1,False,1000,True,1.0
./expes/v2_2020-11-05_dbh_250-prng-1,daily_base_hphc_300,300,first-300,101,rng,num-start-21,21,365,1000.703771352768,False,,False,0,True,1000,True,0.0
./expes/v2_2020-11-05_dbh_250-prng-1,daily_base_hphc_300,300,first-300,81,rng,num-start-271,271,365,10.641513586044312,True,,True,1,False,1000,True,1.0
./expes/v2_2020-11-05_dbh_250-prng-1,daily_base_hphc_300,300,first-300,101,rng,num-start-151,151,365,6.270144939422607,True,,True,1,False,1000,True,1.0
./expes/v2_2020-11-05_dbh_250-prng-1,daily_base_hphc_300,300,first-300,51,rng,num-start-191,191,365,7.528367757797241,True,,True,1,False,1000,True,1.0
./expes/v2_2020-11-05_dbh_250-prng-1,daily_base_hphc_300,300,first-300,81,rng,num-start-81,81,365,1002.5791289806366,False,,False,0,True,1000,True,0.0
./expes/v2_2020-11-05_dbh_250-prng-1,daily_base_hphc_300,300,first-300,271,rng,num-start-141,141,365,5.087364435195923,True,,True,1,False,1000,True,1.0
./expes/v2_2020-11-05_dbh_250-prng-1,daily_base_hphc_300,300,first-300,111,rng,num-start-41,41,365,1001.2961366176605,False,,False,0,True,1000,True,0.0
./expes/v2_2020-11-05_dbh_250-prng-1,daily_base_hphc_300,300,first-300,81,rng,num-start-281,281,365,12.408868789672852,True,,True,1,False,1000,True,1.0
./expes/v2_2020-11-05_dbh_250-prng-1,daily_base_hphc_300,300,first-300,251,rng,num-start-271,271,365,9.717206716537476,True,,True,1,False,1000,True,1.0
./expes/v2_2020-11-05_dbh_250-prng-1,daily_base_hphc_300,300,first-300,51,rng,num-start-291,291,365,11.54221510887146,True,,True,1,False,1000,True,1.0
./expes/v2_2020-11-05_dbh_250-prng-1,daily_base_hphc_300,300,first-300,211,rng,num-start-31,31,365,1001.0548708438873,False,,False,0,True,1000,True,0.0
./expes/v2_2020-11-05_dbh_250-prng-1,daily_base_hphc_300,300,first-300,211,rng,num-start-141,141,365,6.677176475524902,True,,True,1,False,1000,True,1.0
./expes/v2_2020-11-05_dbh_250-prng-1,daily_base_hphc_300,300,first-300,211,rng,num-start-11,11,365,1000.405686378479,False,,False,0,True,1000,True,0.0
./expes/v2_2020-11-05_dbh_250-prng-1,daily_base_hphc_300,300,first-300,111,rng,num-start-261,261,365,10.468967199325562,True,,True,1,False,1000,True,1.0
./expes/v2_2020-11-05_dbh_250-prng-1,daily_base_hphc_300,300,first-300,11,rng,num-start-91,91,365,4.179511547088623,True,,True,1,False,1000,True,1.0
./expes/v2_2020-11-05_dbh_250-prng-1,daily_base_hphc_300,300,first-300,181,rng,num-start-121,121,365,15.004149675369263,True,,True,1,False,1000,True,1.0
./expes/v2_2020-11-05_dbh_250-prng-1,daily_base_hphc_300,300,first-300,51,rng,num-start-151,151,365,6.012131690979004,True,,True,1,False,1000,True,1.0
./expes/v2_2020-11-05_dbh_250-prng-1,daily_base_hphc_300,300,first-300,11,rng,num-start-91,91,365,3.6786699295043945,True,,True,1,False,1000,True,1.0
./expes/v2_2020-11-05_dbh_250-prng-1,daily_base_hphc_300,300,first-300,161,rng,num-start-51,51,365,1001.7224071025848,False,,False,0,True,1000,True,0.0
./expes/v2_2020-11-05_dbh_250-prng-1,daily_base_hphc_300,300,first-300,191,rng,num-start-151,151,365,6.759275197982788,True,,True,1,False,1000,True,1.0
./expes/v2_2020-11-05_dbh_250-prng-1,daily_base_hphc_300,300,first-300,31,rng,num-start-141,141,365,5.810908794403076,True,,True,1,False,1000,True,1.0
./expes/v2_2020-11-05_dbh_250-prng-1,daily_base_hphc_300,300,first-300,41,rng,num-start-271,271,365,9.885032176971436,True,,True,1,False,1000,True,1.0
./expes/v2_2020-11-05_dbh_250-prng-1,daily_base_hphc_300,300,first-300,21,rng,num-start-231,231,365,8.757465600967407,True,,True,1,False,1000,True,1.0
./expes/v2_2020-11-05_dbh_250-prng-1,daily_base_hphc_300,300,first-300,171,rng,num-start-31,31,365,1001.0112056732178,False,,False,0,True,1000,True,0.0
./expes/v2_2020-11-05_dbh_250-prng-1,daily_base_hphc_300,300,first-300,71,rng,num-start-111,111,365,7.034763813018799,True,,True,1,False,1000,True,1.0
./expes/v2_2020-11-05_dbh_250-prng-1,daily_base_hphc_300,300,first-300,271,rng,num-start-131,131,365,5.302823305130005,True,,True,1,False,1000,True,1.0
./expes/v2_2020-11-05_dbh_250-prng-1,daily_base_hphc_300,300,first-300,11,rng,num-start-21,21,365,832.9558260440826,True,,True,1,False,1000,True,1.0
./expes/v2_2020-11-05_dbh_250-prng-1,daily_base_hphc_300,300,first-300,121,rng,num-start-61,61,365,1002.0897033214569,False,,False,0,True,1000,True,0.0
./expes/v2_2020-11-05_dbh_250-prng-1,daily_base_hphc_300,300,first-300,201,rng,num-start-1,1,365,0.08874630928039551,False,,False,2,False,1000,True,1.0
./expes/v2_2020-11-05_dbh_250-prng-1,daily_base_hphc_300,300,first-300,231,rng,num-start-101,101,365,8.030342817306519,True,,True,1,False,1000,True,1.0
./expes/v2_2020-11-05_dbh_250-prng-1,daily_base_hphc_300,300,first-300,201,rng,num-start-151,151,365,6.501091957092285,True,,True,1,False,1000,True,1.0
./expes/v2_2020-11-05_dbh_250-prng-1,daily_base_hphc_300,300,first-300,261,rng,num-start-91,91,365,6.627169370651245,True,,True,1,False,1000,True,1.0
./expes/v2_2020-11-05_dbh_250-prng-1,daily_base_hphc_300,300,first-300,191,rng,num-start-141,141,365,12.847427606582642,True,,True,1,False,1000,True,1.0
./expes/v2_2020-11-05_dbh_250-prng-1,daily_base_hphc_300,300,first-300,1,rng,num-start-141,141,365,4.46924614906311,True,,True,1,False,1000,True,1.0
./expes/v2_2020-11-05_dbh_250-prng-1,daily_base_hphc_300,300,first-300,291,rng,num-start-41,41,365,2.1510443687438965,True,,True,1,False,1000,True,1.0
./expes/v2_2020-11-05_dbh_250-prng-1,daily_base_hphc_300,300,first-300,81,rng,num-start-251,251,365,10.249813079833984,True,,True,1,False,1000,True,1.0
./expes/v2_2020-11-05_dbh_250-prng-1,daily_base_hphc_300,300,first-300,61,rng,num-start-121,121,365,5.324314117431641,True,,True,1,False,1000,True,1.0
./expes/v2_2020-11-05_dbh_250-prng-1,daily_base_hphc_300,300,first-300,131,rng,num-start-221,221,365,8.594207763671875,True,,True,1,False,1000,True,1.0
./expes/v2_2020-11-05_dbh_250-prng-1,daily_base_hphc_300,300,first-300,231,rng,num-start-101,101,365,9.30280351638794,True,,True,1,False,1000,True,1.0
./expes/v2_2020-11-05_dbh_250-prng-1,daily_base_hphc_300,300,first-300,121,rng,num-start-241,241,365,9.993297815322876,True,,True,1,False,1000,True,1.0
./expes/v2_2020-11-05_dbh_250-prng-1,daily_base_hphc_300,300,first-300,221,rng,num-start-101,101,365,68.89654231071472,True,,True,1,False,1000,True,1.0
./expes/v2_2020-11-05_dbh_250-prng-1,daily_base_hphc_300,300,first-300,171,rng,num-start-231,231,365,9.42669677734375,True,,True,1,False,1000,True,1.0
./expes/v2_2020-11-05_dbh_250-prng-1,daily_base_hphc_300,300,first-300,201,rng,num-start-121,121,365,12.456212043762207,True,,True,1,False,1000,True,1.0
./expes/v2_2020-11-05_dbh_250-prng-1,daily_base_hphc_300,300,first-300,1,rng,num-start-161,161,365,5.17833948135376,True,,True,1,False,1000,True,1.0
./expes/v2_2020-11-05_dbh_250-prng-1,daily_base_hphc_300,300,first-300,111,rng,num-start-11,11,365,1000.4368522167206,False,,False,0,True,1000,True,0.0
./expes/v2_2020-11-05_dbh_250-prng-1,daily_base_hphc_300,300,first-300,91,rng,num-start-251,251,365,11.230246543884277,True,,True,1,False,1000,True,1.0
./expes/v2_2020-11-05_dbh_250-prng-1,daily_base_hphc_300,300,first-300,171,rng,num-start-191,191,365,8.760393381118774,True,,True,1,False,1000,True,1.0
./expes/v2_2020-11-05_dbh_250-prng-1,daily_base_hphc_300,300,first-300,211,rng,num-start-41,41,365,1001.3191618919373,False,,False,0,True,1000,True,0.0
./expes/v2_2020-11-05_dbh_250-prng-1,daily_base_hphc_300,300,first-300,91,rng,num-start-1,1,365,0.839362621307373,False,,False,2,False,1000,True,1.0
./expes/v2_2020-11-05_dbh_250-prng-1,daily_base_hphc_300,300,first-300,71,rng,num-start-271,271,365,11.928566932678223,True,,True,1,False,1000,True,1.0
./expes/v2_2020-11-05_dbh_250-prng-1,daily_base_hphc_300,300,first-300,251,rng,num-start-151,151,365,6.029737234115601,True,,True,1,False,1000,True,1.0
./expes/v2_2020-11-05_dbh_250-prng-1,daily_base_hphc_300,300,first-300,281,rng,num-start-171,171,365,6.128148555755615,True,,True,1,False,1000,True,1.0
./expes/v2_2020-11-05_dbh_250-prng-1,daily_base_hphc_300,300,first-300,271,rng,num-start-141,141,365,5.615903615951538,True,,True,1,False,1000,True,1.0
./expes/v2_2020-11-05_dbh_250-prng-1,daily_base_hphc_300,300,first-300,221,rng,num-start-251,251,365,11.243701219558716,True,,True,1,False,1000,True,1.0
./expes/v2_2020-11-05_dbh_250-prng-1,daily_base_hphc_300,300,first-300,251,rng,num-start-271,271,365,10.335921287536621,True,,True,1,False,1000,True,1.0
