expe,clients,clients_size,clients_subset,agg_size,method,days,days_size,days_total,time,valid,valid_sum,success,nsols,wall_hit,wall_time,pooled,valid_sums
./expes/v2_2020-11-05_dbh_250-prng-1,daily_base_hphc_300,300,first-300,111,rng,num-start-171,171,365,8.06112813949585,True,,True,1,False,1000,True,1.0
./expes/v2_2020-11-05_dbh_250-prng-1,daily_base_hphc_300,300,first-300,161,rng,num-start-201,201,365,8.42990231513977,True,,True,1,False,1000,True,1.0
./expes/v2_2020-11-05_dbh_250-prng-1,daily_base_hphc_300,300,first-300,81,rng,num-start-281,281,365,10.5197913646698,True,,True,1,False,1000,True,1.0
./expes/v2_2020-11-05_dbh_250-prng-1,daily_base_hphc_300,300,first-300,191,rng,num-start-241,241,365,10.492926597595215,True,,True,1,False,1000,True,1.0
./expes/v2_2020-11-05_dbh_250-prng-1,daily_base_hphc_300,300,first-300,141,rng,num-start-61,61,365,1001.9486336708069,False,,False,0,True,1000,True,0.0
./expes/v2_2020-11-05_dbh_250-prng-1,daily_base_hphc_300,300,first-300,11,rng,num-start-131,131,365,5.119827508926392,True,,True,1,False,1000,True,1.0
./expes/v2_2020-11-05_dbh_250-prng-1,daily_base_hphc_300,300,first-300,111,rng,num-start-271,271,365,11.70250153541565,True,,True,1,False,1000,True,1.0
./expes/v2_2020-11-05_dbh_250-prng-1,daily_base_hphc_300,300,first-300,1,rng,num-start-11,11,365,0.3635251522064209,True,,True,1,False,1000,True,1.0
./expes/v2_2020-11-05_dbh_250-prng-1,daily_base_hphc_300,300,first-300,131,rng,num-start-271,271,365,12.44189167022705,True,,True,1,False,1000,True,1.0
./expes/v2_2020-11-05_dbh_250-prng-1,daily_base_hphc_300,300,first-300,221,rng,num-start-91,91,365,106.57565665245056,True,,True,1,False,1000,True,1.0
./expes/v2_2020-11-05_dbh_250-prng-1,daily_base_hphc_300,300,first-300,11,rng,num-start-41,41,365,4.256432771682739,True,,True,1,False,1000,True,1.0
./expes/v2_2020-11-05_dbh_250-prng-1,daily_base_hphc_300,300,first-300,281,rng,num-start-211,211,365,7.976871013641357,True,,True,1,False,1000,True,1.0
./expes/v2_2020-11-05_dbh_250-prng-1,daily_base_hphc_300,300,first-300,251,rng,num-start-111,111,365,5.006804704666138,True,,True,1,False,1000,True,1.0
./expes/v2_2020-11-05_dbh_250-prng-1,daily_base_hphc_300,300,first-300,251,rng,num-start-141,141,365,5.50604510307312,True,,True,1,False,1000,True,1.0
./expes/v2_2020-11-05_dbh_250-prng-1,daily_base_hphc_300,300,first-300,61,rng,num-start-291,291,365,11.360857725143433,True,,True,1,False,1000,True,1.0
./expes/v2_2020-11-05_dbh_250-prng-1,daily_base_hphc_300,300,first-300,91,rng,num-start-241,241,365,10.172142267227173,True,,True,1,False,1000,True,1.0
./expes/v2_2020-11-05_dbh_250-prng-1,daily_base_hphc_300,300,first-300,41,rng,num-start-151,151,365,6.180995941162109,True,,True,1,False,1000,True,1.0
./expes/v2_2020-11-05_dbh_250-prng-1,daily_base_hphc_300,300,first-300,201,rng,num-start-241,241,365,9.635214805603027,True,,True,1,False,1000,True,1.0
./expes/v2_2020-11-05_dbh_250-prng-1,daily_base_hphc_300,300,first-300,231,rng,num-start-41,41,365,1001.4508366584778,False,,False,0,True,1000,True,0.0
./expes/v2_2020-11-05_dbh_250-prng-1,daily_base_hphc_300,300,first-300,121,rng,num-start-171,171,365,7.099417209625244,True,,True,1,False,1000,True,1.0
./expes/v2_2020-11-05_dbh_250-prng-1,daily_base_hphc_300,300,first-300,221,rng,num-start-21,21,365,1000.7406601905823,False,,False,0,True,1000,True,0.0
./expes/v2_2020-11-05_dbh_250-prng-1,daily_base_hphc_300,300,first-300,221,rng,num-start-91,91,365,1002.9511828422546,False,,False,0,True,1000,True,0.0
./expes/v2_2020-11-05_dbh_250-prng-1,daily_base_hphc_300,300,first-300,141,rng,num-start-101,101,365,1003.2516055107117,False,,False,0,True,1000,True,0.0
./expes/v2_2020-11-05_dbh_250-prng-1,daily_base_hphc_300,300,first-300,51,rng,num-start-241,241,365,9.770233869552612,True,,True,1,False,1000,True,1.0
./expes/v2_2020-11-05_dbh_250-prng-1,daily_base_hphc_300,300,first-300,61,rng,num-start-231,231,365,9.516392469406128,True,,True,1,False,1000,True,1.0
./expes/v2_2020-11-05_dbh_250-prng-1,daily_base_hphc_300,300,first-300,131,rng,num-start-51,51,365,1001.6991472244263,False,,False,0,True,1000,True,0.0
./expes/v2_2020-11-05_dbh_250-prng-1,daily_base_hphc_300,300,first-300,21,rng,num-start-241,241,365,9.33536672592163,True,,True,1,False,1000,True,1.0
./expes/v2_2020-11-05_dbh_250-prng-1,daily_base_hphc_300,300,first-300,281,rng,num-start-11,11,365,1000.7665107250214,False,,False,0,True,1000,True,0.0
./expes/v2_2020-11-05_dbh_250-prng-1,daily_base_hphc_300,300,first-300,41,rng,num-start-81,81,365,3.768742322921753,True,,True,1,False,1000,True,1.0
./expes/v2_2020-11-05_dbh_250-prng-1,daily_base_hphc_300,300,first-300,1,rng,num-start-221,221,365,6.930804967880249,True,,True,1,False,1000,True,1.0
./expes/v2_2020-11-05_dbh_250-prng-1,daily_base_hphc_300,300,first-300,71,rng,num-start-51,51,365,1001.5938942432404,False,,False,0,True,1000,True,0.0
./expes/v2_2020-11-05_dbh_250-prng-1,daily_base_hphc_300,300,first-300,61,rng,num-start-181,181,365,7.9303834438323975,True,,True,1,False,1000,True,1.0
./expes/v2_2020-11-05_dbh_250-prng-1,daily_base_hphc_300,300,first-300,91,rng,num-start-221,221,365,9.173937797546387,True,,True,1,False,1000,True,1.0
./expes/v2_2020-11-05_dbh_250-prng-1,daily_base_hphc_300,300,first-300,191,rng,num-start-21,21,365,1000.6717877388,False,,False,0,True,1000,True,0.0
./expes/v2_2020-11-05_dbh_250-prng-1,daily_base_hphc_300,300,first-300,201,rng,num-start-281,281,365,11.816782474517822,True,,True,1,False,1000,True,1.0
./expes/v2_2020-11-05_dbh_250-prng-1,daily_base_hphc_300,300,first-300,211,rng,num-start-131,131,365,7.067498207092285,True,,True,1,False,1000,True,1.0
./expes/v2_2020-11-05_dbh_250-prng-1,daily_base_hphc_300,300,first-300,61,rng,num-start-181,181,365,7.775582313537598,True,,True,1,False,1000,True,1.0
./expes/v2_2020-11-05_dbh_250-prng-1,daily_base_hphc_300,300,first-300,11,rng,num-start-201,201,365,7.687434434890747,True,,True,1,False,1000,True,1.0
./expes/v2_2020-11-05_dbh_250-prng-1,daily_base_hphc_300,300,first-300,81,rng,num-start-11,11,365,1000.3907046318054,False,,False,0,True,1000,True,0.0
./expes/v2_2020-11-05_dbh_250-prng-1,daily_base_hphc_300,300,first-300,41,rng,num-start-41,41,365,1001.4198904037476,False,,False,0,True,1000,True,0.0
./expes/v2_2020-11-05_dbh_250-prng-1,daily_base_hphc_300,300,first-300,161,rng,num-start-211,211,365,9.102834224700928,True,,True,1,False,1000,True,1.0
./expes/v2_2020-11-05_dbh_250-prng-1,daily_base_hphc_300,300,first-300,151,rng,num-start-291,291,365,11.356393337249756,True,,True,1,False,1000,True,1.0
./expes/v2_2020-11-05_dbh_250-prng-1,daily_base_hphc_300,300,first-300,181,rng,num-start-61,61,365,1001.9908013343811,False,,False,0,True,1000,True,0.0
./expes/v2_2020-11-05_dbh_250-prng-1,daily_base_hphc_300,300,first-300,291,rng,num-start-221,221,365,7.841696739196777,True,,True,1,False,1000,True,1.0
