expe,clients,clients_size,clients_subset,agg_size,method,days,days_size,days_total,time,valid,valid_sum,success,nsols,wall_hit,wall_time,pooled,valid_sums
./expes/v2_2020-11-05_dbh_250-prng-1,daily_base_hphc_300,300,first-300,101,rng,num-start-1,1,365,0.9347631931304932,False,,False,2,False,1000,True,1.0
./expes/v2_2020-11-05_dbh_250-prng-1,daily_base_hphc_300,300,first-300,21,rng,num-start-71,71,365,2.4173052310943604,True,,True,1,False,1000,True,1.0
./expes/v2_2020-11-05_dbh_250-prng-1,daily_base_hphc_300,300,first-300,131,rng,num-start-51,51,365,1001.0095100402832,False,,False,0,True,1000,True,0.0
./expes/v2_2020-11-05_dbh_250-prng-1,daily_base_hphc_300,300,first-300,151,rng,num-start-61,61,365,1001.3539628982544,False,,False,0,True,1000,True,0.0
./expes/v2_2020-11-05_dbh_250-prng-1,daily_base_hphc_300,300,first-300,291,rng,num-start-271,271,365,7.347610235214233,True,,True,1,False,1000,True,1.0
./expes/v2_2020-11-05_dbh_250-prng-1,daily_base_hphc_300,300,first-300,61,rng,num-start-41,41,365,1000.8877785205841,False,,False,0,True,1000,True,0.0
./expes/v2_2020-11-05_dbh_250-prng-1,daily_base_hphc_300,300,first-300,201,rng,num-start-171,171,365,6.473680257797241,True,,True,1,False,1000,True,1.0
./expes/v2_2020-11-05_dbh_250-prng-1,daily_base_hphc_300,300,first-300,11,rng,num-start-91,91,365,2.6185450553894043,True,,True,1,False,1000,True,1.0
./expes/v2_2020-11-05_dbh_250-prng-1,daily_base_hphc_300,300,first-300,271,rng,num-start-181,181,365,5.289334058761597,True,,True,1,False,1000,True,1.0
./expes/v2_2020-11-05_dbh_250-prng-1,daily_base_hphc_300,300,first-300,141,rng,num-start-271,271,365,9.733681917190552,True,,True,1,False,1000,True,1.0
./expes/v2_2020-11-05_dbh_250-prng-1,daily_base_hphc_300,300,first-300,1,rng,num-start-171,171,365,3.408982753753662,True,,True,1,False,1000,True,1.0
./expes/v2_2020-11-05_dbh_250-prng-1,daily_base_hphc_300,300,first-300,241,rng,num-start-61,61,365,1001.353551864624,False,,False,0,True,1000,True,0.0
./expes/v2_2020-11-05_dbh_250-prng-1,daily_base_hphc_300,300,first-300,91,rng,num-start-91,91,365,1001.9300963878632,False,,False,0,True,1000,True,0.0
./expes/v2_2020-11-05_dbh_250-prng-1,daily_base_hphc_300,300,first-300,101,rng,num-start-61,61,365,1001.2667298316956,False,,False,0,True,1000,True,0.0
./expes/v2_2020-11-05_dbh_250-prng-1,daily_base_hphc_300,300,first-300,121,rng,num-start-181,181,365,6.804900169372559,True,,True,1,False,1000,True,1.0
./expes/v2_2020-11-05_dbh_250-prng-1,daily_base_hphc_300,300,first-300,231,rng,num-start-211,211,365,5.867296934127808,True,,True,1,False,1000,True,1.0
./expes/v2_2020-11-05_dbh_250-prng-1,daily_base_hphc_300,300,first-300,1,rng,num-start-141,141,365,3.069659471511841,True,,True,1,False,1000,True,1.0
./expes/v2_2020-11-05_dbh_250-prng-1,daily_base_hphc_300,300,first-300,221,rng,num-start-291,291,365,8.948965787887573,True,,True,1,False,1000,True,1.0
./expes/v2_2020-11-05_dbh_250-prng-1,daily_base_hphc_300,300,first-300,241,rng,num-start-221,221,365,7.0539329051971436,True,,True,1,False,1000,True,1.0
./expes/v2_2020-11-05_dbh_250-prng-1,daily_base_hphc_300,300,first-300,51,rng,num-start-101,101,365,3.240255355834961,True,,True,1,False,1000,True,1.0
./expes/v2_2020-11-05_dbh_250-prng-1,daily_base_hphc_300,300,first-300,121,rng,num-start-261,261,365,8.45832347869873,True,,True,1,False,1000,True,1.0
./expes/v2_2020-11-05_dbh_250-prng-1,daily_base_hphc_300,300,first-300,181,rng,num-start-231,231,365,7.1552722454071045,True,,True,1,False,1000,True,1.0
./expes/v2_2020-11-05_dbh_250-prng-1,daily_base_hphc_300,300,first-300,141,rng,num-start-201,201,365,7.437769889831543,True,,True,1,False,1000,True,1.0
./expes/v2_2020-11-05_dbh_250-prng-1,daily_base_hphc_300,300,first-300,51,rng,num-start-31,31,365,1000.8323664665222,False,,False,0,True,1000,True,0.0
./expes/v2_2020-11-05_dbh_250-prng-1,daily_base_hphc_300,300,first-300,41,rng,num-start-31,31,365,1000.7754864692688,False,,False,0,True,1000,True,0.0
./expes/v2_2020-11-05_dbh_250-prng-1,daily_base_hphc_300,300,first-300,231,rng,num-start-211,211,365,6.280029773712158,True,,True,1,False,1000,True,1.0
./expes/v2_2020-11-05_dbh_250-prng-1,daily_base_hphc_300,300,first-300,251,rng,num-start-281,281,365,8.13652753829956,True,,True,1,False,1000,True,1.0
./expes/v2_2020-11-05_dbh_250-prng-1,daily_base_hphc_300,300,first-300,121,rng,num-start-101,101,365,1002.0626232624054,False,,False,0,True,1000,True,0.0
./expes/v2_2020-11-05_dbh_250-prng-1,daily_base_hphc_300,300,first-300,1,rng,num-start-211,211,365,4.152957201004028,True,,True,1,False,1000,True,1.0
./expes/v2_2020-11-05_dbh_250-prng-1,daily_base_hphc_300,300,first-300,121,rng,num-start-181,181,365,6.304778814315796,True,,True,1,False,1000,True,1.0
./expes/v2_2020-11-05_dbh_250-prng-1,daily_base_hphc_300,300,first-300,91,rng,num-start-11,11,365,1000.2824530601501,False,,False,0,True,1000,True,0.0
./expes/v2_2020-11-05_dbh_250-prng-1,daily_base_hphc_300,300,first-300,261,rng,num-start-181,181,365,5.1636741161346436,True,,True,1,False,1000,True,1.0
./expes/v2_2020-11-05_dbh_250-prng-1,daily_base_hphc_300,300,first-300,1,rng,num-start-181,181,365,3.4950032234191895,True,,True,1,False,1000,True,1.0
./expes/v2_2020-11-05_dbh_250-prng-1,daily_base_hphc_300,300,first-300,191,rng,num-start-291,291,365,10.738481283187866,True,,True,1,False,1000,True,1.0
./expes/v2_2020-11-05_dbh_250-prng-1,daily_base_hphc_300,300,first-300,131,rng,num-start-221,221,365,7.029687166213989,True,,True,1,False,1000,True,1.0
./expes/v2_2020-11-05_dbh_250-prng-1,daily_base_hphc_300,300,first-300,161,rng,num-start-31,31,365,1000.7037992477417,False,,False,0,True,1000,True,0.0
./expes/v2_2020-11-05_dbh_250-prng-1,daily_base_hphc_300,300,first-300,241,rng,num-start-201,201,365,5.78577733039856,True,,True,1,False,1000,True,1.0
./expes/v2_2020-11-05_dbh_250-prng-1,daily_base_hphc_300,300,first-300,281,rng,num-start-281,281,365,6.833994626998901,True,,True,1,False,1000,True,1.0
./expes/v2_2020-11-05_dbh_250-prng-1,daily_base_hphc_300,300,first-300,291,rng,num-start-231,231,365,5.85117769241333,True,,True,1,False,1000,True,1.0
./expes/v2_2020-11-05_dbh_250-prng-1,daily_base_hphc_300,300,first-300,271,rng,num-start-71,71,365,3.4825057983398438,True,,True,1,False,1000,True,1.0
./expes/v2_2020-11-05_dbh_250-prng-1,daily_base_hphc_300,300,first-300,61,rng,num-start-271,271,365,8.001441955566406,True,,True,1,False,1000,True,1.0
./expes/v2_2020-11-05_dbh_250-prng-1,daily_base_hphc_300,300,first-300,1,rng,num-start-51,51,365,0.9726080894470215,True,,True,1,False,1000,True,1.0
./expes/v2_2020-11-05_dbh_250-prng-1,daily_base_hphc_300,300,first-300,61,rng,num-start-11,11,365,1000.3710095882416,False,,False,0,True,1000,True,0.0
./expes/v2_2020-11-05_dbh_250-prng-1,daily_base_hphc_300,300,first-300,21,rng,num-start-101,101,365,2.8618481159210205,True,,True,1,False,1000,True,1.0
./expes/v2_2020-11-05_dbh_250-prng-1,daily_base_hphc_300,300,first-300,261,rng,num-start-61,61,365,12.143277645111084,True,,True,1,False,1000,True,1.0
./expes/v2_2020-11-05_dbh_250-prng-1,daily_base_hphc_300,300,first-300,191,rng,num-start-1,1,365,0.13866877555847168,False,,False,2,False,1000,True,1.0
./expes/v2_2020-11-05_dbh_250-prng-1,daily_base_hphc_300,300,first-300,221,rng,num-start-281,281,365,8.344248294830322,True,,True,1,False,1000,True,1.0
./expes/v2_2020-11-05_dbh_250-prng-1,daily_base_hphc_300,300,first-300,161,rng,num-start-161,161,365,5.573838949203491,True,,True,1,False,1000,True,1.0
./expes/v2_2020-11-05_dbh_250-prng-1,daily_base_hphc_300,300,first-300,111,rng,num-start-251,251,365,8.033402919769287,True,,True,1,False,1000,True,1.0
./expes/v2_2020-11-05_dbh_250-prng-1,daily_base_hphc_300,300,first-300,21,rng,num-start-11,11,365,1000.3189435005188,False,,False,0,True,1000,True,0.0
./expes/v2_2020-11-05_dbh_250-prng-1,daily_base_hphc_300,300,first-300,31,rng,num-start-71,71,365,3.25253963470459,True,,True,1,False,1000,True,1.0
./expes/v2_2020-11-05_dbh_250-prng-1,daily_base_hphc_300,300,first-300,251,rng,num-start-91,91,365,10.697382688522339,True,,True,1,False,1000,True,1.0
./expes/v2_2020-11-05_dbh_250-prng-1,daily_base_hphc_300,300,first-300,231,rng,num-start-111,111,365,6.454012393951416,True,,True,1,False,1000,True,1.0
./expes/v2_2020-11-05_dbh_250-prng-1,daily_base_hphc_300,300,first-300,21,rng,num-start-81,81,365,2.143343687057495,True,,True,1,False,1000,True,1.0
./expes/v2_2020-11-05_dbh_250-prng-1,daily_base_hphc_300,300,first-300,51,rng,num-start-111,111,365,3.2765278816223145,True,,True,1,False,1000,True,1.0
./expes/v2_2020-11-05_dbh_250-prng-1,daily_base_hphc_300,300,first-300,131,rng,num-start-71,71,365,1001.4665505886078,False,,False,0,True,1000,True,0.0
./expes/v2_2020-11-05_dbh_250-prng-1,daily_base_hphc_300,300,first-300,211,rng,num-start-141,141,365,4.7950005531311035,True,,True,1,False,1000,True,1.0
./expes/v2_2020-11-05_dbh_250-prng-1,daily_base_hphc_300,300,first-300,201,rng,num-start-261,261,365,7.923799514770508,True,,True,1,False,1000,True,1.0
./expes/v2_2020-11-05_dbh_250-prng-1,daily_base_hphc_300,300,first-300,41,rng,num-start-101,101,365,2.6960670948028564,True,,True,1,False,1000,True,1.0
./expes/v2_2020-11-05_dbh_250-prng-1,daily_base_hphc_300,300,first-300,211,rng,num-start-131,131,365,10.818353652954102,True,,True,1,False,1000,True,1.0
./expes/v2_2020-11-05_dbh_250-prng-1,daily_base_hphc_300,300,first-300,231,rng,num-start-171,171,365,4.814126253128052,True,,True,1,False,1000,True,1.0
./expes/v2_2020-11-05_dbh_250-prng-1,daily_base_hphc_300,300,first-300,1,rng,num-start-121,121,365,2.4454874992370605,True,,True,1,False,1000,True,1.0
./expes/v2_2020-11-05_dbh_250-prng-1,daily_base_hphc_300,300,first-300,11,rng,num-start-181,181,365,5.130814552307129,True,,True,1,False,1000,True,1.0
./expes/v2_2020-11-05_dbh_250-prng-1,daily_base_hphc_300,300,first-300,271,rng,num-start-221,221,365,5.387804269790649,True,,True,1,False,1000,True,1.0
./expes/v2_2020-11-05_dbh_250-prng-1,daily_base_hphc_300,300,first-300,141,rng,num-start-201,201,365,6.416856288909912,True,,True,1,False,1000,True,1.0
./expes/v2_2020-11-05_dbh_250-prng-1,daily_base_hphc_300,300,first-300,231,rng,num-start-271,271,365,7.599423408508301,True,,True,1,False,1000,True,1.0
./expes/v2_2020-11-05_dbh_250-prng-1,daily_base_hphc_300,300,first-300,21,rng,num-start-41,41,365,243.752197265625,True,,True,1,False,1000,True,1.0
./expes/v2_2020-11-05_dbh_250-prng-1,daily_base_hphc_300,300,first-300,1,rng,num-start-291,291,365,5.6427130699157715,True,,True,1,False,1000,True,1.0
./expes/v2_2020-11-05_dbh_250-prng-1,daily_base_hphc_300,300,first-300,281,rng,num-start-171,171,365,4.249730110168457,True,,True,1,False,1000,True,1.0
./expes/v2_2020-11-05_dbh_250-prng-1,daily_base_hphc_300,300,first-300,121,rng,num-start-131,131,365,9.917788982391357,True,,True,1,False,1000,True,1.0
./expes/v2_2020-11-05_dbh_250-prng-1,daily_base_hphc_300,300,first-300,181,rng,num-start-151,151,365,4.647627115249634,True,,True,1,False,1000,True,1.0
./expes/v2_2020-11-05_dbh_250-prng-1,daily_base_hphc_300,300,first-300,41,rng,num-start-161,161,365,5.414680242538452,True,,True,1,False,1000,True,1.0
./expes/v2_2020-11-05_dbh_250-prng-1,daily_base_hphc_300,300,first-300,261,rng,num-start-221,221,365,5.874084711074829,True,,True,1,False,1000,True,1.0
./expes/v2_2020-11-05_dbh_250-prng-1,daily_base_hphc_300,300,first-300,91,rng,num-start-261,261,365,8.71042799949646,True,,True,1,False,1000,True,1.0
./expes/v2_2020-11-05_dbh_250-prng-1,daily_base_hphc_300,300,first-300,241,rng,num-start-191,191,365,5.898133277893066,True,,True,1,False,1000,True,1.0
./expes/v2_2020-11-05_dbh_250-prng-1,daily_base_hphc_300,300,first-300,281,rng,num-start-211,211,365,5.02091121673584,True,,True,1,False,1000,True,1.0
./expes/v2_2020-11-05_dbh_250-prng-1,daily_base_hphc_300,300,first-300,71,rng,num-start-31,31,365,1000.7180590629578,False,,False,0,True,1000,True,0.0
./expes/v2_2020-11-05_dbh_250-prng-1,daily_base_hphc_300,300,first-300,261,rng,num-start-111,111,365,3.37276291847229,True,,True,1,False,1000,True,1.0
./expes/v2_2020-11-05_dbh_250-prng-1,daily_base_hphc_300,300,first-300,211,rng,num-start-271,271,365,8.813887357711792,True,,True,1,False,1000,True,1.0
./expes/v2_2020-11-05_dbh_250-prng-1,daily_base_hphc_300,300,first-300,261,rng,num-start-211,211,365,5.6237404346466064,True,,True,1,False,1000,True,1.0
./expes/v2_2020-11-05_dbh_250-prng-1,daily_base_hphc_300,300,first-300,21,rng,num-start-291,291,365,8.264477729797363,True,,True,1,False,1000,True,1.0
./expes/v2_2020-11-05_dbh_250-prng-1,daily_base_hphc_300,300,first-300,241,rng,num-start-101,101,365,6.073114633560181,True,,True,1,False,1000,True,1.0
./expes/v2_2020-11-05_dbh_250-prng-1,daily_base_hphc_300,300,first-300,21,rng,num-start-21,21,365,1000.9294247627258,False,,False,0,True,1000,True,0.0
./expes/v2_2020-11-05_dbh_250-prng-1,daily_base_hphc_300,300,first-300,221,rng,num-start-181,181,365,5.915795087814331,True,,True,1,False,1000,True,1.0
./expes/v2_2020-11-05_dbh_250-prng-1,daily_base_hphc_300,300,first-300,11,rng,num-start-271,271,365,7.116281032562256,True,,True,1,False,1000,True,1.0
./expes/v2_2020-11-05_dbh_250-prng-1,daily_base_hphc_300,300,first-300,221,rng,num-start-41,41,365,1000.9008028507233,False,,False,0,True,1000,True,0.0
./expes/v2_2020-11-05_dbh_250-prng-1,daily_base_hphc_300,300,first-300,181,rng,num-start-51,51,365,1001.0022242069244,False,,False,0,True,1000,True,0.0
./expes/v2_2020-11-05_dbh_250-prng-1,daily_base_hphc_300,300,first-300,191,rng,num-start-41,41,365,1000.8842930793762,False,,False,0,True,1000,True,0.0
./expes/v2_2020-11-05_dbh_250-prng-1,daily_base_hphc_300,300,first-300,31,rng,num-start-31,31,365,1001.2627558708191,False,,False,0,True,1000,True,0.0
./expes/v2_2020-11-05_dbh_250-prng-1,daily_base_hphc_300,300,first-300,21,rng,num-start-151,151,365,4.149297714233398,True,,True,1,False,1000,True,1.0
./expes/v2_2020-11-05_dbh_250-prng-1,daily_base_hphc_300,300,first-300,11,rng,num-start-211,211,365,5.407543897628784,True,,True,1,False,1000,True,1.0
./expes/v2_2020-11-05_dbh_250-prng-1,daily_base_hphc_300,300,first-300,51,rng,num-start-231,231,365,6.518857002258301,True,,True,1,False,1000,True,1.0
./expes/v2_2020-11-05_dbh_250-prng-1,daily_base_hphc_300,300,first-300,241,rng,num-start-71,71,365,1001.4081056118011,False,,False,0,True,1000,True,0.0
./expes/v2_2020-11-05_dbh_250-prng-1,daily_base_hphc_300,300,first-300,41,rng,num-start-251,251,365,7.2189624309539795,True,,True,1,False,1000,True,1.0
./expes/v2_2020-11-05_dbh_250-prng-1,daily_base_hphc_300,300,first-300,81,rng,num-start-61,61,365,1001.2956476211548,False,,False,0,True,1000,True,0.0
./expes/v2_2020-11-05_dbh_250-prng-1,daily_base_hphc_300,300,first-300,181,rng,num-start-201,201,365,6.301925420761108,True,,True,1,False,1000,True,1.0
./expes/v2_2020-11-05_dbh_250-prng-1,daily_base_hphc_300,300,first-300,231,rng,num-start-81,81,365,1001.4983212947845,False,,False,0,True,1000,True,0.0
./expes/v2_2020-11-05_dbh_250-prng-1,daily_base_hphc_300,300,first-300,271,rng,num-start-211,211,365,5.856754302978516,True,,True,1,False,1000,True,1.0
./expes/v2_2020-11-05_dbh_250-prng-1,daily_base_hphc_300,300,first-300,171,rng,num-start-51,51,365,1001.1540005207062,False,,False,0,True,1000,True,0.0
./expes/v2_2020-11-05_dbh_250-prng-1,daily_base_hphc_300,300,first-300,271,rng,num-start-261,261,365,6.8927788734436035,True,,True,1,False,1000,True,1.0
./expes/v2_2020-11-05_dbh_250-prng-1,daily_base_hphc_300,300,first-300,231,rng,num-start-221,221,365,6.898162126541138,True,,True,1,False,1000,True,1.0
./expes/v2_2020-11-05_dbh_250-prng-1,daily_base_hphc_300,300,first-300,71,rng,num-start-51,51,365,1001.0712778568268,False,,False,0,True,1000,True,0.0
./expes/v2_2020-11-05_dbh_250-prng-1,daily_base_hphc_300,300,first-300,1,rng,num-start-21,21,365,0.4421544075012207,True,,True,1,False,1000,True,1.0
./expes/v2_2020-11-05_dbh_250-prng-1,daily_base_hphc_300,300,first-300,11,rng,num-start-111,111,365,2.7825632095336914,True,,True,1,False,1000,True,1.0
./expes/v2_2020-11-05_dbh_250-prng-1,daily_base_hphc_300,300,first-300,261,rng,num-start-271,271,365,7.344634771347046,True,,True,1,False,1000,True,1.0
./expes/v2_2020-11-05_dbh_250-prng-1,daily_base_hphc_300,300,first-300,111,rng,num-start-131,131,365,19.075151205062866,True,,True,1,False,1000,True,1.0
./expes/v2_2020-11-05_dbh_250-prng-1,daily_base_hphc_300,300,first-300,161,rng,num-start-71,71,365,1001.4746837615967,False,,False,0,True,1000,True,0.0
./expes/v2_2020-11-05_dbh_250-prng-1,daily_base_hphc_300,300,first-300,31,rng,num-start-41,41,365,1001.0207517147064,False,,False,0,True,1000,True,0.0
./expes/v2_2020-11-05_dbh_250-prng-1,daily_base_hphc_300,300,first-300,241,rng,num-start-231,231,365,6.372766971588135,True,,True,1,False,1000,True,1.0
./expes/v2_2020-11-05_dbh_250-prng-1,daily_base_hphc_300,300,first-300,41,rng,num-start-121,121,365,3.340829849243164,True,,True,1,False,1000,True,1.0
./expes/v2_2020-11-05_dbh_250-prng-1,daily_base_hphc_300,300,first-300,211,rng,num-start-231,231,365,6.940133333206177,True,,True,1,False,1000,True,1.0
./expes/v2_2020-11-05_dbh_250-prng-1,daily_base_hphc_300,300,first-300,291,rng,num-start-151,151,365,3.6909446716308594,True,,True,1,False,1000,True,1.0
./expes/v2_2020-11-05_dbh_250-prng-1,daily_base_hphc_300,300,first-300,131,rng,num-start-291,291,365,8.905120611190796,True,,True,1,False,1000,True,1.0
./expes/v2_2020-11-05_dbh_250-prng-1,daily_base_hphc_300,300,first-300,241,rng,num-start-131,131,365,4.341190576553345,True,,True,1,False,1000,True,1.0
./expes/v2_2020-11-05_dbh_250-prng-1,daily_base_hphc_300,300,first-300,141,rng,num-start-31,31,365,1000.9989910125732,False,,False,0,True,1000,True,0.0
./expes/v2_2020-11-05_dbh_250-prng-1,daily_base_hphc_300,300,first-300,61,rng,num-start-241,241,365,7.62254786491394,True,,True,1,False,1000,True,1.0
./expes/v2_2020-11-05_dbh_250-prng-1,daily_base_hphc_300,300,first-300,251,rng,num-start-181,181,365,4.293290615081787,True,,True,1,False,1000,True,1.0
./expes/v2_2020-11-05_dbh_250-prng-1,daily_base_hphc_300,300,first-300,91,rng,num-start-271,271,365,8.472721099853516,True,,True,1,False,1000,True,1.0
./expes/v2_2020-11-05_dbh_250-prng-1,daily_base_hphc_300,300,first-300,61,rng,num-start-91,91,365,145.86171531677246,True,,True,1,False,1000,True,1.0
./expes/v2_2020-11-05_dbh_250-prng-1,daily_base_hphc_300,300,first-300,201,rng,num-start-271,271,365,8.908891916275024,True,,True,1,False,1000,True,1.0
./expes/v2_2020-11-05_dbh_250-prng-1,daily_base_hphc_300,300,first-300,191,rng,num-start-151,151,365,4.201401948928833,True,,True,1,False,1000,True,1.0
./expes/v2_2020-11-05_dbh_250-prng-1,daily_base_hphc_300,300,first-300,91,rng,num-start-211,211,365,6.360135793685913,True,,True,1,False,1000,True,1.0
./expes/v2_2020-11-05_dbh_250-prng-1,daily_base_hphc_300,300,first-300,41,rng,num-start-131,131,365,3.370540142059326,True,,True,1,False,1000,True,1.0
./expes/v2_2020-11-05_dbh_250-prng-1,daily_base_hphc_300,300,first-300,31,rng,num-start-231,231,365,6.040857315063477,True,,True,1,False,1000,True,1.0
./expes/v2_2020-11-05_dbh_250-prng-1,daily_base_hphc_300,300,first-300,161,rng,num-start-281,281,365,8.776447057723999,True,,True,1,False,1000,True,1.0
./expes/v2_2020-11-05_dbh_250-prng-1,daily_base_hphc_300,300,first-300,1,rng,num-start-201,201,365,3.879932165145874,True,,True,1,False,1000,True,1.0
./expes/v2_2020-11-05_dbh_250-prng-1,daily_base_hphc_300,300,first-300,261,rng,num-start-211,211,365,5.73780083656311,True,,True,1,False,1000,True,1.0
./expes/v2_2020-11-05_dbh_250-prng-1,daily_base_hphc_300,300,first-300,211,rng,num-start-221,221,365,7.241480112075806,True,,True,1,False,1000,True,1.0
./expes/v2_2020-11-05_dbh_250-prng-1,daily_base_hphc_300,300,first-300,231,rng,num-start-251,251,365,6.453551769256592,True,,True,1,False,1000,True,1.0
./expes/v2_2020-11-05_dbh_250-prng-1,daily_base_hphc_300,300,first-300,271,rng,num-start-91,91,365,2.767955780029297,True,,True,1,False,1000,True,1.0
./expes/v2_2020-11-05_dbh_250-prng-1,daily_base_hphc_300,300,first-300,141,rng,num-start-131,131,365,9.867961883544922,True,,True,1,False,1000,True,1.0
./expes/v2_2020-11-05_dbh_250-prng-1,daily_base_hphc_300,300,first-300,241,rng,num-start-281,281,365,7.3916709423065186,True,,True,1,False,1000,True,1.0
./expes/v2_2020-11-05_dbh_250-prng-1,daily_base_hphc_300,300,first-300,81,rng,num-start-191,191,365,5.950926065444946,True,,True,1,False,1000,True,1.0
./expes/v2_2020-11-05_dbh_250-prng-1,daily_base_hphc_300,300,first-300,101,rng,num-start-221,221,365,6.937519550323486,True,,True,1,False,1000,True,1.0
./expes/v2_2020-11-05_dbh_250-prng-1,daily_base_hphc_300,300,first-300,171,rng,num-start-141,141,365,8.754568576812744,True,,True,1,False,1000,True,1.0
./expes/v2_2020-11-05_dbh_250-prng-1,daily_base_hphc_300,300,first-300,201,rng,num-start-291,291,365,8.77783465385437,True,,True,1,False,1000,True,1.0
./expes/v2_2020-11-05_dbh_250-prng-1,daily_base_hphc_300,300,first-300,171,rng,num-start-231,231,365,7.0548882484436035,True,,True,1,False,1000,True,1.0
./expes/v2_2020-11-05_dbh_250-prng-1,daily_base_hphc_300,300,first-300,281,rng,num-start-111,111,365,2.810166120529175,True,,True,1,False,1000,True,1.0
./expes/v2_2020-11-05_dbh_250-prng-1,daily_base_hphc_300,300,first-300,221,rng,num-start-171,171,365,4.392962217330933,True,,True,1,False,1000,True,1.0
./expes/v2_2020-11-05_dbh_250-prng-1,daily_base_hphc_300,300,first-300,231,rng,num-start-21,21,365,1000.4703416824341,False,,False,0,True,1000,True,0.0
./expes/v2_2020-11-05_dbh_250-prng-1,daily_base_hphc_300,300,first-300,171,rng,num-start-171,171,365,5.893674373626709,True,,True,1,False,1000,True,1.0
./expes/v2_2020-11-05_dbh_250-prng-1,daily_base_hphc_300,300,first-300,181,rng,num-start-281,281,365,8.482078552246094,True,,True,1,False,1000,True,1.0
./expes/v2_2020-11-05_dbh_250-prng-1,daily_base_hphc_300,300,first-300,81,rng,num-start-81,81,365,1001.7518620491028,False,,False,0,True,1000,True,0.0
./expes/v2_2020-11-05_dbh_250-prng-1,daily_base_hphc_300,300,first-300,111,rng,num-start-61,61,365,1001.3204884529114,False,,False,0,True,1000,True,0.0
./expes/v2_2020-11-05_dbh_250-prng-1,daily_base_hphc_300,300,first-300,171,rng,num-start-61,61,365,1001.3001363277435,False,,False,0,True,1000,True,0.0
./expes/v2_2020-11-05_dbh_250-prng-1,daily_base_hphc_300,300,first-300,161,rng,num-start-111,111,365,1002.2132804393768,False,,False,0,True,1000,True,0.0
./expes/v2_2020-11-05_dbh_250-prng-1,daily_base_hphc_300,300,first-300,211,rng,num-start-241,241,365,6.744860887527466,True,,True,1,False,1000,True,1.0
./expes/v2_2020-11-05_dbh_250-prng-1,daily_base_hphc_300,300,first-300,11,rng,num-start-81,81,365,2.553438425064087,True,,True,1,False,1000,True,1.0
./expes/v2_2020-11-05_dbh_250-prng-1,daily_base_hphc_300,300,first-300,241,rng,num-start-141,141,365,4.1036765575408936,True,,True,1,False,1000,True,1.0
./expes/v2_2020-11-05_dbh_250-prng-1,daily_base_hphc_300,300,first-300,121,rng,num-start-231,231,365,7.66901707649231,True,,True,1,False,1000,True,1.0
./expes/v2_2020-11-05_dbh_250-prng-1,daily_base_hphc_300,300,first-300,1,rng,num-start-281,281,365,5.511778116226196,True,,True,1,False,1000,True,1.0
./expes/v2_2020-11-05_dbh_250-prng-1,daily_base_hphc_300,300,first-300,71,rng,num-start-41,41,365,1000.8789768218994,False,,False,0,True,1000,True,0.0
./expes/v2_2020-11-05_dbh_250-prng-1,daily_base_hphc_300,300,first-300,81,rng,num-start-91,91,365,1001.8503408432007,False,,False,0,True,1000,True,0.0
./expes/v2_2020-11-05_dbh_250-prng-1,daily_base_hphc_300,300,first-300,1,rng,num-start-21,21,365,0.3889744281768799,True,,True,1,False,1000,True,1.0
./expes/v2_2020-11-05_dbh_250-prng-1,daily_base_hphc_300,300,first-300,81,rng,num-start-211,211,365,6.777170896530151,True,,True,1,False,1000,True,1.0
./expes/v2_2020-11-05_dbh_250-prng-1,daily_base_hphc_300,300,first-300,191,rng,num-start-151,151,365,4.876712322235107,True,,True,1,False,1000,True,1.0
./expes/v2_2020-11-05_dbh_250-prng-1,daily_base_hphc_300,300,first-300,161,rng,num-start-11,11,365,1000.2981083393097,False,,False,0,True,1000,True,0.0
./expes/v2_2020-11-05_dbh_250-prng-1,daily_base_hphc_300,300,first-300,21,rng,num-start-61,61,365,3.1460394859313965,True,,True,1,False,1000,True,1.0
./expes/v2_2020-11-05_dbh_250-prng-1,daily_base_hphc_300,300,first-300,191,rng,num-start-221,221,365,7.03579568862915,True,,True,1,False,1000,True,1.0
./expes/v2_2020-11-05_dbh_250-prng-1,daily_base_hphc_300,300,first-300,161,rng,num-start-201,201,365,6.763262987136841,True,,True,1,False,1000,True,1.0
./expes/v2_2020-11-05_dbh_250-prng-1,daily_base_hphc_300,300,first-300,1,rng,num-start-1,1,365,0.025115966796875,True,,True,1,False,1000,True,1.0
./expes/v2_2020-11-05_dbh_250-prng-1,daily_base_hphc_300,300,first-300,271,rng,num-start-21,21,365,1000.8260354995728,False,,False,0,True,1000,True,0.0
./expes/v2_2020-11-05_dbh_250-prng-1,daily_base_hphc_300,300,first-300,191,rng,num-start-151,151,365,7.320348262786865,True,,True,1,False,1000,True,1.0
./expes/v2_2020-11-05_dbh_250-prng-1,daily_base_hphc_300,300,first-300,71,rng,num-start-221,221,365,5.831390380859375,True,,True,1,False,1000,True,1.0
./expes/v2_2020-11-05_dbh_250-prng-1,daily_base_hphc_300,300,first-300,211,rng,num-start-241,241,365,7.6294846534729,True,,True,1,False,1000,True,1.0
./expes/v2_2020-11-05_dbh_250-prng-1,daily_base_hphc_300,300,first-300,121,rng,num-start-251,251,365,7.579541444778442,True,,True,1,False,1000,True,1.0
./expes/v2_2020-11-05_dbh_250-prng-1,daily_base_hphc_300,300,first-300,241,rng,num-start-51,51,365,1001.0501871109009,False,,False,0,True,1000,True,0.0
./expes/v2_2020-11-05_dbh_250-prng-1,daily_base_hphc_300,300,first-300,271,rng,num-start-251,251,365,6.79869818687439,True,,True,1,False,1000,True,1.0
./expes/v2_2020-11-05_dbh_250-prng-1,daily_base_hphc_300,300,first-300,231,rng,num-start-131,131,365,4.321532964706421,True,,True,1,False,1000,True,1.0
./expes/v2_2020-11-05_dbh_250-prng-1,daily_base_hphc_300,300,first-300,131,rng,num-start-101,101,365,1002.1400566101074,False,,False,0,True,1000,True,0.0
./expes/v2_2020-11-05_dbh_250-prng-1,daily_base_hphc_300,300,first-300,81,rng,num-start-271,271,365,8.511593103408813,True,,True,1,False,1000,True,1.0
./expes/v2_2020-11-05_dbh_250-prng-1,daily_base_hphc_300,300,first-300,51,rng,num-start-171,171,365,5.222764015197754,True,,True,1,False,1000,True,1.0
./expes/v2_2020-11-05_dbh_250-prng-1,daily_base_hphc_300,300,first-300,111,rng,num-start-21,21,365,1000.5416495800018,False,,False,0,True,1000,True,0.0
./expes/v2_2020-11-05_dbh_250-prng-1,daily_base_hphc_300,300,first-300,141,rng,num-start-71,71,365,1001.5293247699738,False,,False,0,True,1000,True,0.0
./expes/v2_2020-11-05_dbh_250-prng-1,daily_base_hphc_300,300,first-300,231,rng,num-start-121,121,365,4.112031698226929,True,,True,1,False,1000,True,1.0
./expes/v2_2020-11-05_dbh_250-prng-1,daily_base_hphc_300,300,first-300,131,rng,num-start-131,131,365,10.78821349143982,True,,True,1,False,1000,True,1.0
./expes/v2_2020-11-05_dbh_250-prng-1,daily_base_hphc_300,300,first-300,131,rng,num-start-11,11,365,1000.2545948028564,False,,False,0,True,1000,True,0.0
./expes/v2_2020-11-05_dbh_250-prng-1,daily_base_hphc_300,300,first-300,81,rng,num-start-21,21,365,1000.445827960968,False,,False,0,True,1000,True,0.0
