expe,clients,clients_size,clients_subset,agg_size,agg_size_pc,method,days,days_size,days_total,noise_method,time,valid,valid_sum,success,score_avg,score_min,score_max,nsols,oracle,wall_hit,wall_time,pooled,pool_size,uuid,infeasible,optimal,valid_sums
./expes/v2_2021-04-10_issda-daily_500-prng-1-w1-p2,daily_issda-500,500,first-500,300,60,rng,num-start-300,300,536,classic,17.024680376052856,True,,True,1.0,1.0,1.0,1,"['1', '2', '7', '8', '9', '10', '12', '14', '17', '19', '20', '21', '22', '24', '26', '30', '32', '33', '36', '37', '38', '41', '42', '43', '46', '47', '48', '49', '51', '52', '56', '59', '60', '61', '62', '64', '67', '68', '69', '70', '72', '73', '75', '76', '77', '79', '80', '81', '82', '83', '85', '87', '88', '90', '93', '94', '95', '96', '97', '98', '99', '100', '102', '103', '105', '106', '108', '110', '111', '112', '113', '114', '115', '121', '123', '124', '125', '129', '132', '133', '134', '139', '141', '142', '143', '144', '145', '148', '149', '150', '155', '156', '159', '160', '162', '163', '164', '167', '170', '171', '172', '176', '178', '180', '181', '182', '183', '184', '188', '190', '191', '194', '198', '199', '201', '204', '205', '206', '208', '210', '213', '214', '215', '216', '218', '219', '223', '224', '227', '228', '229', '230', '231', '232', '235', '240', '241', '242', '244', '245', '246', '247', '249', '250', '251', '253', '254', '258', '259', '261', '262', '267', '268', '269', '271', '272', '273', '274', '277', '279', '281', '283', '286', '287', '288', '291', '292', '294', '295', '297', '299', '301', '302', '303', '305', '306', '309', '310', '311', '312', '313', '314', '317', '318', '321', '322', '323', '325', '326', '327', '328', '329', '331', '332', '333', '334', '335', '336', '337', '339', '340', '341', '343', '345', '346', '347', '348', '349', '350', '351', '353', '354', '358', '359', '360', '361', '362', '364', '367', '368', '369', '372', '373', '374', '375', '379', '380', '384', '387', '388', '389', '391', '393', '396', '401', '402', '404', '406', '407', '409', '410', '412', '413', '415', '416', '418', '419', '421', '422', '423', '424', '425', '426', '427', '428', '429', '430', '431', '432', '433', '434', '435', '436', '438', '442', '444', '445', '446', '447', '448', '449', '453', '454', '456', '457', '459', '460', '461', '462', '464', '465', '466', '468', '469', '470', '471', '472', '473', '478', '480', '481', '485', '487', '489', '493', '494', '495', '496', '497', '499']",False,1000,True,2,8987348f90,0.0,1.0,1.0
./expes/v2_2021-04-10_issda-daily_500-prng-1-w1-p2,daily_issda-500,500,first-500,50,10,rng,num-start-300,300,536,classic,15.522257804870605,True,,True,1.0,1.0,1.0,1,"['2', '5', '12', '14', '15', '16', '33', '49', '53', '61', '69', '108', '111', '118', '131', '137', '163', '195', '196', '200', '217', '222', '229', '231', '242', '250', '254', '278', '292', '303', '312', '333', '334', '352', '357', '370', '390', '391', '392', '393', '404', '411', '428', '434', '452', '458', '462', '481', '484', '497']",False,1000,True,2,9214c63109,0.0,1.0,1.0
./expes/v2_2021-04-10_issda-daily_500-prng-1-w1-p2,daily_issda-500,500,first-500,350,70,rng,num-start-100,100,536,classic,1002.7335202693939,False,,False,0,,,0,"['1', '2', '3', '4', '6', '7', '8', '10', '11', '12', '13', '14', '15', '16', '17', '18', '19', '22', '23', '24', '26', '27', '28', '29', '31', '32', '33', '34', '35', '36', '37', '40', '41', '44', '45', '46', '48', '50', '51', '53', '54', '55', '56', '59', '61', '62', '63', '64', '65', '66', '67', '68', '69', '70', '71', '74', '78', '80', '81', '82', '84', '87', '88', '91', '92', '94', '95', '96', '98', '99', '102', '103', '109', '112', '114', '115', '116', '117', '119', '120', '121', '122', '123', '126', '128', '129', '130', '133', '135', '136', '137', '138', '139', '141', '143', '144', '146', '147', '148', '149', '150', '151', '153', '154', '155', '156', '159', '161', '162', '164', '165', '166', '167', '168', '169', '170', '171', '173', '174', '175', '177', '178', '180', '181', '185', '187', '188', '190', '191', '192', '193', '194', '195', '198', '199', '200', '203', '204', '205', '209', '210', '211', '212', '213', '214', '215', '216', '217', '218', '219', '220', '221', '223', '224', '225', '228', '231', '234', '236', '238', '239', '241', '243', '244', '245', '247', '248', '250', '251', '254', '255', '257', '258', '259', '260', '262', '263', '264', '266', '267', '268', '269', '270', '271', '272', '273', '274', '275', '277', '278', '279', '281', '282', '283', '285', '287', '289', '291', '292', '293', '294', '295', '296', '297', '298', '300', '301', '302', '303', '304', '305', '308', '310', '311', '312', '313', '314', '315', '316', '317', '318', '319', '321', '322', '324', '325', '326', '328', '329', '330', '332', '333', '335', '336', '338', '340', '342', '344', '345', '346', '347', '348', '349', '350', '351', '354', '356', '357', '358', '360', '362', '365', '366', '367', '368', '369', '371', '373', '375', '376', '377', '378', '380', '382', '383', '386', '388', '389', '390', '393', '394', '396', '397', '398', '399', '400', '401', '403', '404', '405', '406', '407', '408', '409', '410', '411', '412', '413', '414', '415', '416', '417', '419', '420', '422', '424', '426', '427', '429', '430', '431', '433', '436', '437', '438', '439', '440', '441', '442', '443', '444', '445', '446', '447', '450', '451', '452', '453', '454', '455', '456', '460', '461', '463', '464', '466', '468', '469', '470', '472', '473', '474', '475', '476', '480', '481', '482', '483', '486', '487', '488', '489', '491', '492', '494', '495', '497', '498', '499', '500']",True,1000,True,2,6d120c807a,0.0,0.0,0.0
