expe,clients,clients_size,clients_subset,agg_size,method,days,days_size,days_total,time,valid,valid_sum,success,nsols,wall_hit,wall_time,pooled,valid_sums
./expes/v2_2020-12-03_dh_50-prng-1,30_issda_50,50,rng-50,31,rng,num-start-21,21,25726,0.477924108505249,True,,True,1,False,1000,True,1.0
./expes/v2_2020-12-03_dh_50-prng-1,30_issda_50,50,rng-50,41,rng,num-start-321,321,25726,2.2150230407714844,True,,True,1,False,1000,True,1.0
./expes/v2_2020-12-03_dh_50-prng-1,30_issda_50,50,rng-50,41,rng,num-start-111,111,25726,0.8029005527496338,True,,True,1,False,1000,True,1.0
./expes/v2_2020-12-03_dh_50-prng-1,30_issda_50,50,rng-50,1,rng,num-start-851,851,25726,5.776946783065796,True,,True,1,False,1000,True,1.0
./expes/v2_2020-12-03_dh_50-prng-1,30_issda_50,50,rng-50,1,rng,num-start-571,571,25726,3.809652328491211,True,,True,1,False,1000,True,1.0
./expes/v2_2020-12-03_dh_50-prng-1,30_issda_50,50,rng-50,1,rng,num-start-551,551,25726,3.6890804767608643,True,,True,1,False,1000,True,1.0
./expes/v2_2020-12-03_dh_50-prng-1,30_issda_50,50,rng-50,11,rng,num-start-471,471,25726,3.1888461112976074,True,,True,1,False,1000,True,1.0
./expes/v2_2020-12-03_dh_50-prng-1,30_issda_50,50,rng-50,41,rng,num-start-771,771,25726,5.1627137660980225,True,,True,1,False,1000,True,1.0
./expes/v2_2020-12-03_dh_50-prng-1,30_issda_50,50,rng-50,1,rng,num-start-201,201,25726,1.4711122512817383,True,,True,1,False,1000,True,1.0
./expes/v2_2020-12-03_dh_50-prng-1,30_issda_50,50,rng-50,41,rng,num-start-101,101,25726,0.6969554424285889,True,,True,1,False,1000,True,1.0
./expes/v2_2020-12-03_dh_50-prng-1,30_issda_50,50,rng-50,31,rng,num-start-151,151,25726,1.0537779331207275,True,,True,1,False,1000,True,1.0
./expes/v2_2020-12-03_dh_50-prng-1,30_issda_50,50,rng-50,21,rng,num-start-901,901,25726,6.175915718078613,True,,True,1,False,1000,True,1.0
./expes/v2_2020-12-03_dh_50-prng-1,30_issda_50,50,rng-50,21,rng,num-start-251,251,25726,1.70743989944458,True,,True,1,False,1000,True,1.0
./expes/v2_2020-12-03_dh_50-prng-1,30_issda_50,50,rng-50,21,rng,num-start-971,971,25726,6.6432106494903564,True,,True,1,False,1000,True,1.0
./expes/v2_2020-12-03_dh_50-prng-1,30_issda_50,50,rng-50,41,rng,num-start-91,91,25726,0.6362309455871582,True,,True,1,False,1000,True,1.0
./expes/v2_2020-12-03_dh_50-prng-1,30_issda_50,50,rng-50,31,rng,num-start-711,711,25726,4.942876577377319,True,,True,1,False,1000,True,1.0
./expes/v2_2020-12-03_dh_50-prng-1,30_issda_50,50,rng-50,21,rng,num-start-411,411,25726,3.075986862182617,True,,True,1,False,1000,True,1.0
./expes/v2_2020-12-03_dh_50-prng-1,30_issda_50,50,rng-50,21,rng,num-start-741,741,25726,5.506380558013916,True,,True,1,False,1000,True,1.0
./expes/v2_2020-12-03_dh_50-prng-1,30_issda_50,50,rng-50,21,rng,num-start-561,561,25726,3.821352958679199,True,,True,1,False,1000,True,1.0
./expes/v2_2020-12-03_dh_50-prng-1,30_issda_50,50,rng-50,21,rng,num-start-541,541,25726,3.9109058380126953,True,,True,1,False,1000,True,1.0
./expes/v2_2020-12-03_dh_50-prng-1,30_issda_50,50,rng-50,1,rng,num-start-931,931,25726,6.2567853927612305,True,,True,1,False,1000,True,1.0
./expes/v2_2020-12-03_dh_50-prng-1,30_issda_50,50,rng-50,31,rng,num-start-841,841,25726,5.770334005355835,True,,True,1,False,1000,True,1.0
./expes/v2_2020-12-03_dh_50-prng-1,30_issda_50,50,rng-50,41,rng,num-start-491,491,25726,3.3103089332580566,True,,True,1,False,1000,True,1.0
./expes/v2_2020-12-03_dh_50-prng-1,30_issda_50,50,rng-50,41,rng,num-start-261,261,25726,1.7555558681488037,True,,True,1,False,1000,True,1.0
./expes/v2_2020-12-03_dh_50-prng-1,30_issda_50,50,rng-50,21,rng,num-start-21,21,25726,0.39095091819763184,True,,True,1,False,1000,True,1.0
./expes/v2_2020-12-03_dh_50-prng-1,30_issda_50,50,rng-50,21,rng,num-start-151,151,25726,1.2395164966583252,True,,True,1,False,1000,True,1.0
./expes/v2_2020-12-03_dh_50-prng-1,30_issda_50,50,rng-50,1,rng,num-start-171,171,25726,1.1439518928527832,True,,True,1,False,1000,True,1.0
./expes/v2_2020-12-03_dh_50-prng-1,30_issda_50,50,rng-50,31,rng,num-start-811,811,25726,5.915168762207031,True,,True,1,False,1000,True,1.0
./expes/v2_2020-12-03_dh_50-prng-1,30_issda_50,50,rng-50,11,rng,num-start-671,671,25726,4.678159236907959,True,,True,1,False,1000,True,1.0
./expes/v2_2020-12-03_dh_50-prng-1,30_issda_50,50,rng-50,41,rng,num-start-371,371,25726,2.5195505619049072,True,,True,1,False,1000,True,1.0
./expes/v2_2020-12-03_dh_50-prng-1,30_issda_50,50,rng-50,31,rng,num-start-21,21,25726,0.30471062660217285,True,,True,1,False,1000,True,1.0
./expes/v2_2020-12-03_dh_50-prng-1,30_issda_50,50,rng-50,11,rng,num-start-321,321,25726,2.2077934741973877,True,,True,1,False,1000,True,1.0
./expes/v2_2020-12-03_dh_50-prng-1,30_issda_50,50,rng-50,31,rng,num-start-991,991,25726,6.832776784896851,True,,True,1,False,1000,True,1.0
./expes/v2_2020-12-03_dh_50-prng-1,30_issda_50,50,rng-50,1,rng,num-start-311,311,25726,2.1221492290496826,True,,True,1,False,1000,True,1.0
./expes/v2_2020-12-03_dh_50-prng-1,30_issda_50,50,rng-50,11,rng,num-start-881,881,25726,5.921125173568726,True,,True,1,False,1000,True,1.0
./expes/v2_2020-12-03_dh_50-prng-1,30_issda_50,50,rng-50,21,rng,num-start-571,571,25726,3.970102310180664,True,,True,1,False,1000,True,1.0
./expes/v2_2020-12-03_dh_50-prng-1,30_issda_50,50,rng-50,11,rng,num-start-91,91,25726,0.6799600124359131,True,,True,1,False,1000,True,1.0
./expes/v2_2020-12-03_dh_50-prng-1,30_issda_50,50,rng-50,1,rng,num-start-51,51,25726,0.3524610996246338,True,,True,1,False,1000,True,1.0
./expes/v2_2020-12-03_dh_50-prng-1,30_issda_50,50,rng-50,1,rng,num-start-601,601,25726,4.068128347396851,True,,True,1,False,1000,True,1.0
./expes/v2_2020-12-03_dh_50-prng-1,30_issda_50,50,rng-50,41,rng,num-start-31,31,25726,0.22963190078735352,True,,True,1,False,1000,True,1.0
./expes/v2_2020-12-03_dh_50-prng-1,30_issda_50,50,rng-50,21,rng,num-start-301,301,25726,2.2054762840270996,True,,True,1,False,1000,True,1.0
./expes/v2_2020-12-03_dh_50-prng-1,30_issda_50,50,rng-50,1,rng,num-start-541,541,25726,3.660655975341797,True,,True,1,False,1000,True,1.0
./expes/v2_2020-12-03_dh_50-prng-1,30_issda_50,50,rng-50,21,rng,num-start-201,201,25726,1.3756520748138428,True,,True,1,False,1000,True,1.0
./expes/v2_2020-12-03_dh_50-prng-1,30_issda_50,50,rng-50,21,rng,num-start-411,411,25726,2.9063949584960938,True,,True,1,False,1000,True,1.0
./expes/v2_2020-12-03_dh_50-prng-1,30_issda_50,50,rng-50,21,rng,num-start-661,661,25726,4.984585762023926,True,,True,1,False,1000,True,1.0
./expes/v2_2020-12-03_dh_50-prng-1,30_issda_50,50,rng-50,41,rng,num-start-991,991,25726,6.6978559494018555,True,,True,1,False,1000,True,1.0
./expes/v2_2020-12-03_dh_50-prng-1,30_issda_50,50,rng-50,11,rng,num-start-441,441,25726,3.006669521331787,True,,True,1,False,1000,True,1.0
./expes/v2_2020-12-03_dh_50-prng-1,30_issda_50,50,rng-50,11,rng,num-start-321,321,25726,2.197827100753784,True,,True,1,False,1000,True,1.0
./expes/v2_2020-12-03_dh_50-prng-1,30_issda_50,50,rng-50,11,rng,num-start-231,231,25726,1.6090781688690186,True,,True,1,False,1000,True,1.0
./expes/v2_2020-12-03_dh_50-prng-1,30_issda_50,50,rng-50,21,rng,num-start-51,51,25726,0.521233081817627,True,,True,1,False,1000,True,1.0
./expes/v2_2020-12-03_dh_50-prng-1,30_issda_50,50,rng-50,1,rng,num-start-71,71,25726,0.4799957275390625,True,,True,1,False,1000,True,1.0
./expes/v2_2020-12-03_dh_50-prng-1,30_issda_50,50,rng-50,21,rng,num-start-801,801,25726,5.551950216293335,True,,True,1,False,1000,True,1.0
./expes/v2_2020-12-03_dh_50-prng-1,30_issda_50,50,rng-50,21,rng,num-start-811,811,25726,5.676465272903442,True,,True,1,False,1000,True,1.0
./expes/v2_2020-12-03_dh_50-prng-1,30_issda_50,50,rng-50,11,rng,num-start-411,411,25726,2.8544018268585205,True,,True,1,False,1000,True,1.0
./expes/v2_2020-12-03_dh_50-prng-1,30_issda_50,50,rng-50,31,rng,num-start-851,851,25726,6.0550525188446045,True,,True,1,False,1000,True,1.0
./expes/v2_2020-12-03_dh_50-prng-1,30_issda_50,50,rng-50,41,rng,num-start-551,551,25726,3.71236515045166,True,,True,1,False,1000,True,1.0
./expes/v2_2020-12-03_dh_50-prng-1,30_issda_50,50,rng-50,21,rng,num-start-141,141,25726,0.9871406555175781,True,,True,1,False,1000,True,1.0
./expes/v2_2020-12-03_dh_50-prng-1,30_issda_50,50,rng-50,11,rng,num-start-811,811,25726,5.507023334503174,True,,True,1,False,1000,True,1.0
./expes/v2_2020-12-03_dh_50-prng-1,30_issda_50,50,rng-50,1,rng,num-start-231,231,25726,1.5752582550048828,True,,True,1,False,1000,True,1.0
./expes/v2_2020-12-03_dh_50-prng-1,30_issda_50,50,rng-50,41,rng,num-start-81,81,25726,0.5737884044647217,True,,True,1,False,1000,True,1.0
./expes/v2_2020-12-03_dh_50-prng-1,30_issda_50,50,rng-50,41,rng,num-start-471,471,25726,3.1876749992370605,True,,True,1,False,1000,True,1.0
./expes/v2_2020-12-03_dh_50-prng-1,30_issda_50,50,rng-50,21,rng,num-start-11,11,25726,7.863043546676636,True,,True,1,False,1000,True,1.0
./expes/v2_2020-12-03_dh_50-prng-1,30_issda_50,50,rng-50,41,rng,num-start-21,21,25726,0.1546032428741455,True,,True,1,False,1000,True,1.0
./expes/v2_2020-12-03_dh_50-prng-1,30_issda_50,50,rng-50,1,rng,num-start-311,311,25726,2.0923690795898438,True,,True,1,False,1000,True,1.0
./expes/v2_2020-12-03_dh_50-prng-1,30_issda_50,50,rng-50,41,rng,num-start-461,461,25726,3.190842628479004,True,,True,1,False,1000,True,1.0
./expes/v2_2020-12-03_dh_50-prng-1,30_issda_50,50,rng-50,31,rng,num-start-801,801,25726,5.518382549285889,True,,True,1,False,1000,True,1.0
./expes/v2_2020-12-03_dh_50-prng-1,30_issda_50,50,rng-50,31,rng,num-start-381,381,25726,2.589334487915039,True,,True,1,False,1000,True,1.0
./expes/v2_2020-12-03_dh_50-prng-1,30_issda_50,50,rng-50,21,rng,num-start-71,71,25726,0.7209465503692627,True,,True,1,False,1000,True,1.0
./expes/v2_2020-12-03_dh_50-prng-1,30_issda_50,50,rng-50,11,rng,num-start-691,691,25726,4.714179754257202,True,,True,1,False,1000,True,1.0
./expes/v2_2020-12-03_dh_50-prng-1,30_issda_50,50,rng-50,11,rng,num-start-631,631,25726,4.296951532363892,True,,True,1,False,1000,True,1.0
./expes/v2_2020-12-03_dh_50-prng-1,30_issda_50,50,rng-50,41,rng,num-start-251,251,25726,1.74733567237854,True,,True,1,False,1000,True,1.0
./expes/v2_2020-12-03_dh_50-prng-1,30_issda_50,50,rng-50,1,rng,num-start-181,181,25726,1.223567247390747,True,,True,1,False,1000,True,1.0
./expes/v2_2020-12-03_dh_50-prng-1,30_issda_50,50,rng-50,11,rng,num-start-451,451,25726,3.1035521030426025,True,,True,1,False,1000,True,1.0
./expes/v2_2020-12-03_dh_50-prng-1,30_issda_50,50,rng-50,21,rng,num-start-21,21,25726,0.3523564338684082,True,,True,1,False,1000,True,1.0
./expes/v2_2020-12-03_dh_50-prng-1,30_issda_50,50,rng-50,31,rng,num-start-331,331,25726,2.2862579822540283,True,,True,1,False,1000,True,1.0
./expes/v2_2020-12-03_dh_50-prng-1,30_issda_50,50,rng-50,11,rng,num-start-721,721,25726,4.881254196166992,True,,True,1,False,1000,True,1.0
./expes/v2_2020-12-03_dh_50-prng-1,30_issda_50,50,rng-50,21,rng,num-start-61,61,25726,0.521820068359375,True,,True,1,False,1000,True,1.0
./expes/v2_2020-12-03_dh_50-prng-1,30_issda_50,50,rng-50,41,rng,num-start-771,771,25726,5.255988121032715,True,,True,1,False,1000,True,1.0
./expes/v2_2020-12-03_dh_50-prng-1,30_issda_50,50,rng-50,1,rng,num-start-51,51,25726,0.35163331031799316,True,,True,1,False,1000,True,1.0
./expes/v2_2020-12-03_dh_50-prng-1,30_issda_50,50,rng-50,11,rng,num-start-291,291,25726,2.0429940223693848,True,,True,1,False,1000,True,1.0
./expes/v2_2020-12-03_dh_50-prng-1,30_issda_50,50,rng-50,21,rng,num-start-391,391,25726,2.698383331298828,True,,True,1,False,1000,True,1.0
./expes/v2_2020-12-03_dh_50-prng-1,30_issda_50,50,rng-50,21,rng,num-start-121,121,25726,1.0505762100219727,True,,True,1,False,1000,True,1.0
./expes/v2_2020-12-03_dh_50-prng-1,30_issda_50,50,rng-50,1,rng,num-start-971,971,25726,6.5664284229278564,True,,True,1,False,1000,True,1.0
./expes/v2_2020-12-03_dh_50-prng-1,30_issda_50,50,rng-50,41,rng,num-start-531,531,25726,3.5544822216033936,True,,True,1,False,1000,True,1.0
./expes/v2_2020-12-03_dh_50-prng-1,30_issda_50,50,rng-50,41,rng,num-start-391,391,25726,2.7354753017425537,True,,True,1,False,1000,True,1.0
./expes/v2_2020-12-03_dh_50-prng-1,30_issda_50,50,rng-50,1,rng,num-start-321,321,25726,2.1481714248657227,True,,True,1,False,1000,True,1.0
./expes/v2_2020-12-03_dh_50-prng-1,30_issda_50,50,rng-50,21,rng,num-start-301,301,25726,2.530975818634033,True,,True,1,False,1000,True,1.0
./expes/v2_2020-12-03_dh_50-prng-1,30_issda_50,50,rng-50,31,rng,num-start-711,711,25726,5.875378847122192,True,,True,1,False,1000,True,1.0
./expes/v2_2020-12-03_dh_50-prng-1,30_issda_50,50,rng-50,1,rng,num-start-811,811,25726,6.557023286819458,True,,True,1,False,1000,True,1.0
./expes/v2_2020-12-03_dh_50-prng-1,30_issda_50,50,rng-50,21,rng,num-start-871,871,25726,7.093523979187012,True,,True,1,False,1000,True,1.0
./expes/v2_2020-12-03_dh_50-prng-1,30_issda_50,50,rng-50,21,rng,num-start-591,591,25726,6.541492462158203,True,,True,1,False,1000,True,1.0
./expes/v2_2020-12-03_dh_50-prng-1,30_issda_50,50,rng-50,31,rng,num-start-981,981,25726,7.749330043792725,True,,True,1,False,1000,True,1.0
./expes/v2_2020-12-03_dh_50-prng-1,30_issda_50,50,rng-50,11,rng,num-start-761,761,25726,6.683315277099609,True,,True,1,False,1000,True,1.0
./expes/v2_2020-12-03_dh_50-prng-1,30_issda_50,50,rng-50,11,rng,num-start-991,991,25726,8.522321462631226,True,,True,1,False,1000,True,1.0
./expes/v2_2020-12-03_dh_50-prng-1,30_issda_50,50,rng-50,1,rng,num-start-571,571,25726,4.650915861129761,True,,True,1,False,1000,True,1.0
./expes/v2_2020-12-03_dh_50-prng-1,30_issda_50,50,rng-50,11,rng,num-start-441,441,25726,3.580348253250122,True,,True,1,False,1000,True,1.0
./expes/v2_2020-12-03_dh_50-prng-1,30_issda_50,50,rng-50,11,rng,num-start-551,551,25726,4.180444240570068,True,,True,1,False,1000,True,1.0
./expes/v2_2020-12-03_dh_50-prng-1,30_issda_50,50,rng-50,11,rng,num-start-741,741,25726,4.98857855796814,True,,True,1,False,1000,True,1.0
./expes/v2_2020-12-03_dh_50-prng-1,30_issda_50,50,rng-50,31,rng,num-start-451,451,25726,3.1258420944213867,True,,True,1,False,1000,True,1.0
./expes/v2_2020-12-03_dh_50-prng-1,30_issda_50,50,rng-50,31,rng,num-start-221,221,25726,1.572237253189087,True,,True,1,False,1000,True,1.0
./expes/v2_2020-12-03_dh_50-prng-1,30_issda_50,50,rng-50,41,rng,num-start-281,281,25726,1.9374713897705078,True,,True,1,False,1000,True,1.0
./expes/v2_2020-12-03_dh_50-prng-1,30_issda_50,50,rng-50,1,rng,num-start-771,771,25726,5.237390518188477,True,,True,1,False,1000,True,1.0
./expes/v2_2020-12-03_dh_50-prng-1,30_issda_50,50,rng-50,11,rng,num-start-901,901,25726,6.066486835479736,True,,True,1,False,1000,True,1.0
./expes/v2_2020-12-03_dh_50-prng-1,30_issda_50,50,rng-50,21,rng,num-start-451,451,25726,3.101984977722168,True,,True,1,False,1000,True,1.0
./expes/v2_2020-12-03_dh_50-prng-1,30_issda_50,50,rng-50,41,rng,num-start-41,41,25726,0.31775665283203125,True,,True,1,False,1000,True,1.0
./expes/v2_2020-12-03_dh_50-prng-1,30_issda_50,50,rng-50,11,rng,num-start-51,51,25726,0.55033278465271,True,,True,1,False,1000,True,1.0
./expes/v2_2020-12-03_dh_50-prng-1,30_issda_50,50,rng-50,31,rng,num-start-481,481,25726,3.5037147998809814,True,,True,1,False,1000,True,1.0
./expes/v2_2020-12-03_dh_50-prng-1,30_issda_50,50,rng-50,21,rng,num-start-531,531,25726,3.8194260597229004,True,,True,1,False,1000,True,1.0
./expes/v2_2020-12-03_dh_50-prng-1,30_issda_50,50,rng-50,21,rng,num-start-131,131,25726,0.9304511547088623,True,,True,1,False,1000,True,1.0
./expes/v2_2020-12-03_dh_50-prng-1,30_issda_50,50,rng-50,41,rng,num-start-251,251,25726,1.7513768672943115,True,,True,1,False,1000,True,1.0
./expes/v2_2020-12-03_dh_50-prng-1,30_issda_50,50,rng-50,31,rng,num-start-901,901,25726,6.203433275222778,True,,True,1,False,1000,True,1.0
./expes/v2_2020-12-03_dh_50-prng-1,30_issda_50,50,rng-50,1,rng,num-start-601,601,25726,4.05846905708313,True,,True,1,False,1000,True,1.0
./expes/v2_2020-12-03_dh_50-prng-1,30_issda_50,50,rng-50,1,rng,num-start-341,341,25726,2.330822706222534,True,,True,1,False,1000,True,1.0
./expes/v2_2020-12-03_dh_50-prng-1,30_issda_50,50,rng-50,31,rng,num-start-891,891,25726,6.226976633071899,True,,True,1,False,1000,True,1.0
./expes/v2_2020-12-03_dh_50-prng-1,30_issda_50,50,rng-50,11,rng,num-start-611,611,25726,4.194298982620239,True,,True,1,False,1000,True,1.0
./expes/v2_2020-12-03_dh_50-prng-1,30_issda_50,50,rng-50,11,rng,num-start-951,951,25726,6.465137243270874,True,,True,1,False,1000,True,1.0
./expes/v2_2020-12-03_dh_50-prng-1,30_issda_50,50,rng-50,1,rng,num-start-881,881,25726,5.9571356773376465,True,,True,1,False,1000,True,1.0
./expes/v2_2020-12-03_dh_50-prng-1,30_issda_50,50,rng-50,1,rng,num-start-641,641,25726,4.378852844238281,True,,True,1,False,1000,True,1.0
./expes/v2_2020-12-03_dh_50-prng-1,30_issda_50,50,rng-50,1,rng,num-start-991,991,25726,6.796093940734863,True,,True,1,False,1000,True,1.0
./expes/v2_2020-12-03_dh_50-prng-1,30_issda_50,50,rng-50,1,rng,num-start-461,461,25726,3.195258617401123,True,,True,1,False,1000,True,1.0
./expes/v2_2020-12-03_dh_50-prng-1,30_issda_50,50,rng-50,21,rng,num-start-821,821,25726,5.607675790786743,True,,True,1,False,1000,True,1.0
./expes/v2_2020-12-03_dh_50-prng-1,30_issda_50,50,rng-50,1,rng,num-start-841,841,25726,5.640502691268921,True,,True,1,False,1000,True,1.0
./expes/v2_2020-12-03_dh_50-prng-1,30_issda_50,50,rng-50,1,rng,num-start-711,711,25726,4.831802845001221,True,,True,1,False,1000,True,1.0
./expes/v2_2020-12-03_dh_50-prng-1,30_issda_50,50,rng-50,31,rng,num-start-871,871,25726,6.365875244140625,True,,True,1,False,1000,True,1.0
./expes/v2_2020-12-03_dh_50-prng-1,30_issda_50,50,rng-50,11,rng,num-start-151,151,25726,1.0367722511291504,True,,True,1,False,1000,True,1.0
./expes/v2_2020-12-03_dh_50-prng-1,30_issda_50,50,rng-50,21,rng,num-start-61,61,25726,0.63509202003479,True,,True,1,False,1000,True,1.0
./expes/v2_2020-12-03_dh_50-prng-1,30_issda_50,50,rng-50,31,rng,num-start-961,961,25726,6.619033098220825,True,,True,1,False,1000,True,1.0
./expes/v2_2020-12-03_dh_50-prng-1,30_issda_50,50,rng-50,41,rng,num-start-51,51,25726,0.35918593406677246,True,,True,1,False,1000,True,1.0
./expes/v2_2020-12-03_dh_50-prng-1,30_issda_50,50,rng-50,21,rng,num-start-11,11,25726,1.8568754196166992,True,,True,1,False,1000,True,1.0
./expes/v2_2020-12-03_dh_50-prng-1,30_issda_50,50,rng-50,21,rng,num-start-561,561,25726,4.1044981479644775,True,,True,1,False,1000,True,1.0
./expes/v2_2020-12-03_dh_50-prng-1,30_issda_50,50,rng-50,1,rng,num-start-891,891,25726,6.256890296936035,True,,True,1,False,1000,True,1.0
./expes/v2_2020-12-03_dh_50-prng-1,30_issda_50,50,rng-50,31,rng,num-start-261,261,25726,1.8752105236053467,True,,True,1,False,1000,True,1.0
./expes/v2_2020-12-03_dh_50-prng-1,30_issda_50,50,rng-50,11,rng,num-start-201,201,25726,1.3896329402923584,True,,True,1,False,1000,True,1.0
./expes/v2_2020-12-03_dh_50-prng-1,30_issda_50,50,rng-50,11,rng,num-start-111,111,25726,0.7793519496917725,True,,True,1,False,1000,True,1.0
./expes/v2_2020-12-03_dh_50-prng-1,30_issda_50,50,rng-50,21,rng,num-start-231,231,25726,1.6285316944122314,True,,True,1,False,1000,True,1.0
./expes/v2_2020-12-03_dh_50-prng-1,30_issda_50,50,rng-50,21,rng,num-start-831,831,25726,5.737265348434448,True,,True,1,False,1000,True,1.0
./expes/v2_2020-12-03_dh_50-prng-1,30_issda_50,50,rng-50,31,rng,num-start-91,91,25726,0.6499245166778564,True,,True,1,False,1000,True,1.0
./expes/v2_2020-12-03_dh_50-prng-1,30_issda_50,50,rng-50,31,rng,num-start-901,901,25726,7.010244607925415,True,,True,1,False,1000,True,1.0
./expes/v2_2020-12-03_dh_50-prng-1,30_issda_50,50,rng-50,41,rng,num-start-581,581,25726,3.9931485652923584,True,,True,1,False,1000,True,1.0
./expes/v2_2020-12-03_dh_50-prng-1,30_issda_50,50,rng-50,21,rng,num-start-311,311,25726,2.1464452743530273,True,,True,1,False,1000,True,1.0
./expes/v2_2020-12-03_dh_50-prng-1,30_issda_50,50,rng-50,41,rng,num-start-521,521,25726,3.67822003364563,True,,True,1,False,1000,True,1.0
./expes/v2_2020-12-03_dh_50-prng-1,30_issda_50,50,rng-50,11,rng,num-start-11,11,25726,0.29817652702331543,True,,True,1,False,1000,True,1.0
./expes/v2_2020-12-03_dh_50-prng-1,30_issda_50,50,rng-50,21,rng,num-start-391,391,25726,2.712498903274536,True,,True,1,False,1000,True,1.0
./expes/v2_2020-12-03_dh_50-prng-1,30_issda_50,50,rng-50,1,rng,num-start-251,251,25726,1.7397656440734863,True,,True,1,False,1000,True,1.0
./expes/v2_2020-12-03_dh_50-prng-1,30_issda_50,50,rng-50,1,rng,num-start-791,791,25726,5.341956377029419,True,,True,1,False,1000,True,1.0
./expes/v2_2020-12-03_dh_50-prng-1,30_issda_50,50,rng-50,21,rng,num-start-161,161,25726,1.3691110610961914,True,,True,1,False,1000,True,1.0
./expes/v2_2020-12-03_dh_50-prng-1,30_issda_50,50,rng-50,41,rng,num-start-101,101,25726,0.7099180221557617,True,,True,1,False,1000,True,1.0
./expes/v2_2020-12-03_dh_50-prng-1,30_issda_50,50,rng-50,21,rng,num-start-131,131,25726,1.1475145816802979,True,,True,1,False,1000,True,1.0
./expes/v2_2020-12-03_dh_50-prng-1,30_issda_50,50,rng-50,21,rng,num-start-811,811,25726,6.053769588470459,True,,True,1,False,1000,True,1.0
./expes/v2_2020-12-03_dh_50-prng-1,30_issda_50,50,rng-50,41,rng,num-start-451,451,25726,3.1823058128356934,True,,True,1,False,1000,True,1.0
./expes/v2_2020-12-03_dh_50-prng-1,30_issda_50,50,rng-50,41,rng,num-start-331,331,25726,2.2507221698760986,True,,True,1,False,1000,True,1.0
./expes/v2_2020-12-03_dh_50-prng-1,30_issda_50,50,rng-50,1,rng,num-start-791,791,25726,5.190185546875,True,,True,1,False,1000,True,1.0
