expe,clients,clients_size,clients_subset,agg_size,method,days,days_size,days_total,time,valid,valid_sum,success,nsols,wall_hit,wall_time,pooled,valid_sums
./expes/v2_2020-12-02_dh_50-prng-1,30_issda_50,50,rng-50,21,rng,num-start-6001,6001,25726,48.23007035255432,True,,True,1,False,1000,True,1.0
./expes/v2_2020-12-02_dh_50-prng-1,30_issda_50,50,rng-50,31,rng,num-start-5001,5001,25726,40.50938868522644,True,,True,1,False,1000,True,1.0
./expes/v2_2020-12-02_dh_50-prng-1,30_issda_50,50,rng-50,1,rng,num-start-9001,9001,25726,74.05497741699219,True,,True,1,False,1000,True,1.0
./expes/v2_2020-12-02_dh_50-prng-1,30_issda_50,50,rng-50,11,rng,num-start-5001,5001,25726,40.50043535232544,True,,True,1,False,1000,True,1.0
./expes/v2_2020-12-02_dh_50-prng-1,30_issda_50,50,rng-50,21,rng,num-start-6001,6001,25726,50.9809353351593,True,,True,1,False,1000,True,1.0
./expes/v2_2020-12-02_dh_50-prng-1,30_issda_50,50,rng-50,41,rng,num-start-4001,4001,25726,32.54272413253784,True,,True,1,False,1000,True,1.0
./expes/v2_2020-12-02_dh_50-prng-1,30_issda_50,50,rng-50,1,rng,num-start-8001,8001,25726,66.78418493270874,True,,True,1,False,1000,True,1.0
./expes/v2_2020-12-02_dh_50-prng-1,30_issda_50,50,rng-50,21,rng,num-start-8001,8001,25726,65.3591365814209,True,,True,1,False,1000,True,1.0
./expes/v2_2020-12-02_dh_50-prng-1,30_issda_50,50,rng-50,11,rng,num-start-13001,13001,25726,104.71728849411011,True,,True,1,False,1000,True,1.0
./expes/v2_2020-12-02_dh_50-prng-1,30_issda_50,50,rng-50,1,rng,num-start-9001,9001,25726,74.31385135650635,True,,True,1,False,1000,True,1.0
./expes/v2_2020-12-02_dh_50-prng-1,30_issda_50,50,rng-50,21,rng,num-start-11001,11001,25726,89.55869150161743,True,,True,1,False,1000,True,1.0
./expes/v2_2020-12-02_dh_50-prng-1,30_issda_50,50,rng-50,11,rng,num-start-8001,8001,25726,66.1523745059967,True,,True,1,False,1000,True,1.0
./expes/v2_2020-12-02_dh_50-prng-1,30_issda_50,50,rng-50,41,rng,num-start-9001,9001,25726,73.50313019752502,True,,True,1,False,1000,True,1.0
./expes/v2_2020-12-02_dh_50-prng-1,30_issda_50,50,rng-50,31,rng,num-start-3001,3001,25726,24.330329418182373,True,,True,1,False,1000,True,1.0
./expes/v2_2020-12-02_dh_50-prng-1,30_issda_50,50,rng-50,41,rng,num-start-13001,13001,25726,106.19923877716064,True,,True,1,False,1000,True,1.0
./expes/v2_2020-12-02_dh_50-prng-1,30_issda_50,50,rng-50,31,rng,num-start-14001,14001,25726,114.24789190292358,True,,True,1,False,1000,True,1.0
./expes/v2_2020-12-02_dh_50-prng-1,30_issda_50,50,rng-50,1,rng,num-start-9001,9001,25726,73.3552131652832,True,,True,1,False,1000,True,1.0
./expes/v2_2020-12-02_dh_50-prng-1,30_issda_50,50,rng-50,41,rng,num-start-8001,8001,25726,65.91860723495483,True,,True,1,False,1000,True,1.0
./expes/v2_2020-12-02_dh_50-prng-1,30_issda_50,50,rng-50,41,rng,num-start-1001,1001,25726,8.256524562835693,True,,True,1,False,1000,True,1.0
./expes/v2_2020-12-02_dh_50-prng-1,30_issda_50,50,rng-50,41,rng,num-start-15001,15001,25726,121.1424560546875,True,,True,1,False,1000,True,1.0
./expes/v2_2020-12-02_dh_50-prng-1,30_issda_50,50,rng-50,1,rng,num-start-7001,7001,25726,56.518370389938354,True,,True,1,False,1000,True,1.0
./expes/v2_2020-12-02_dh_50-prng-1,30_issda_50,50,rng-50,21,rng,num-start-14001,14001,25726,114.33722019195557,True,,True,1,False,1000,True,1.0
./expes/v2_2020-12-02_dh_50-prng-1,30_issda_50,50,rng-50,11,rng,num-start-14001,14001,25726,113.49833655357361,True,,True,1,False,1000,True,1.0
./expes/v2_2020-12-02_dh_50-prng-1,30_issda_50,50,rng-50,21,rng,num-start-1001,1001,25726,8.290195226669312,True,,True,1,False,1000,True,1.0
./expes/v2_2020-12-02_dh_50-prng-1,30_issda_50,50,rng-50,11,rng,num-start-5001,5001,25726,40.57228684425354,True,,True,1,False,1000,True,1.0
./expes/v2_2020-12-02_dh_50-prng-1,30_issda_50,50,rng-50,1,rng,num-start-4001,4001,25726,32.47981667518616,True,,True,1,False,1000,True,1.0
./expes/v2_2020-12-02_dh_50-prng-1,30_issda_50,50,rng-50,41,rng,num-start-14001,14001,25726,113.8508312702179,True,,True,1,False,1000,True,1.0
