expe,clients,clients_size,clients_subset,agg_size,method,days,days_size,days_total,time,valid,valid_sum,success,nsols,wall_hit,wall_time,pooled,valid_sums
./expes/v2_2020-12-02_dh_50-prng-1,30_issda_50,50,rng-50,31,rng,num-start-9001,9001,25726,79.76163005828857,True,,True,1,False,1000,True,1.0
./expes/v2_2020-12-02_dh_50-prng-1,30_issda_50,50,rng-50,1,rng,num-start-6001,6001,25726,53.055583238601685,True,,True,1,False,1000,True,1.0
./expes/v2_2020-12-02_dh_50-prng-1,30_issda_50,50,rng-50,1,rng,num-start-4001,4001,25726,36.18061900138855,True,,True,1,False,1000,True,1.0
./expes/v2_2020-12-02_dh_50-prng-1,30_issda_50,50,rng-50,31,rng,num-start-11001,11001,25726,97.72269892692566,True,,True,1,False,1000,True,1.0
./expes/v2_2020-12-02_dh_50-prng-1,30_issda_50,50,rng-50,41,rng,num-start-12001,12001,25726,106.58700394630432,True,,True,1,False,1000,True,1.0
./expes/v2_2020-12-02_dh_50-prng-1,30_issda_50,50,rng-50,21,rng,num-start-8001,8001,25726,71.3284547328949,True,,True,1,False,1000,True,1.0
./expes/v2_2020-12-02_dh_50-prng-1,30_issda_50,50,rng-50,31,rng,num-start-6001,6001,25726,53.61330199241638,True,,True,1,False,1000,True,1.0
./expes/v2_2020-12-02_dh_50-prng-1,30_issda_50,50,rng-50,41,rng,num-start-16001,16001,25726,141.9603316783905,True,,True,1,False,1000,True,1.0
./expes/v2_2020-12-02_dh_50-prng-1,30_issda_50,50,rng-50,31,rng,num-start-5001,5001,25726,46.513617277145386,True,,True,1,False,1000,True,1.0
./expes/v2_2020-12-02_dh_50-prng-1,30_issda_50,50,rng-50,31,rng,num-start-3001,3001,25726,27.06572127342224,True,,True,1,False,1000,True,1.0
./expes/v2_2020-12-02_dh_50-prng-1,30_issda_50,50,rng-50,41,rng,num-start-14001,14001,25726,125.57748770713806,True,,True,1,False,1000,True,1.0
./expes/v2_2020-12-02_dh_50-prng-1,30_issda_50,50,rng-50,11,rng,num-start-16001,16001,25726,141.46787214279175,True,,True,1,False,1000,True,1.0
./expes/v2_2020-12-02_dh_50-prng-1,30_issda_50,50,rng-50,11,rng,num-start-1001,1001,25726,8.853919267654419,True,,True,1,False,1000,True,1.0
./expes/v2_2020-12-02_dh_50-prng-1,30_issda_50,50,rng-50,31,rng,num-start-6001,6001,25726,54.06533122062683,True,,True,1,False,1000,True,1.0
./expes/v2_2020-12-02_dh_50-prng-1,30_issda_50,50,rng-50,31,rng,num-start-6001,6001,25726,53.13013768196106,True,,True,1,False,1000,True,1.0
./expes/v2_2020-12-02_dh_50-prng-1,30_issda_50,50,rng-50,31,rng,num-start-5001,5001,25726,46.2907440662384,True,,True,1,False,1000,True,1.0
./expes/v2_2020-12-02_dh_50-prng-1,30_issda_50,50,rng-50,41,rng,num-start-14001,14001,25726,123.74471044540405,True,,True,1,False,1000,True,1.0
./expes/v2_2020-12-02_dh_50-prng-1,30_issda_50,50,rng-50,11,rng,num-start-6001,6001,25726,53.0544228553772,True,,True,1,False,1000,True,1.0
./expes/v2_2020-12-02_dh_50-prng-1,30_issda_50,50,rng-50,31,rng,num-start-1,1,25726,0.17296242713928223,False,,False,2,False,1000,True,1.0
./expes/v2_2020-12-02_dh_50-prng-1,30_issda_50,50,rng-50,21,rng,num-start-4001,4001,25726,35.695350646972656,True,,True,1,False,1000,True,1.0
./expes/v2_2020-12-02_dh_50-prng-1,30_issda_50,50,rng-50,31,rng,num-start-2001,2001,25726,17.578076362609863,True,,True,1,False,1000,True,1.0
./expes/v2_2020-12-02_dh_50-prng-1,30_issda_50,50,rng-50,1,rng,num-start-13001,13001,25726,114.2153992652893,True,,True,1,False,1000,True,1.0
./expes/v2_2020-12-02_dh_50-prng-1,30_issda_50,50,rng-50,21,rng,num-start-10001,10001,25726,87.71017479896545,True,,True,1,False,1000,True,1.0
./expes/v2_2020-12-02_dh_50-prng-1,30_issda_50,50,rng-50,41,rng,num-start-13001,13001,25726,113.95743656158447,True,,True,1,False,1000,True,1.0
./expes/v2_2020-12-02_dh_50-prng-1,30_issda_50,50,rng-50,31,rng,num-start-12001,12001,25726,105.33929204940796,True,,True,1,False,1000,True,1.0
