expe,clients,clients_size,clients_subset,agg_size,method,days,days_size,days_total,time,valid,valid_sum,success,nsols,wall_hit,wall_time,pooled,valid_sums
./expes/v2_2020-11-09_3bh_50-prng-1,30_base_hphc_50,50,first-50,11,rng,num-start-791,791,17520,6.366413831710815,True,,True,1,False,1000,True,1.0
./expes/v2_2020-11-09_3bh_50-prng-1,30_base_hphc_50,50,first-50,31,rng,num-start-911,911,17520,7.287545680999756,True,,True,1,False,1000,True,1.0
./expes/v2_2020-11-09_3bh_50-prng-1,30_base_hphc_50,50,first-50,1,rng,num-start-831,831,17520,6.392653942108154,True,,True,1,False,1000,True,1.0
./expes/v2_2020-11-09_3bh_50-prng-1,30_base_hphc_50,50,first-50,1,rng,num-start-951,951,17520,7.306809663772583,True,,True,1,False,1000,True,1.0
./expes/v2_2020-11-09_3bh_50-prng-1,30_base_hphc_50,50,first-50,11,rng,num-start-661,661,17520,5.190969467163086,True,,True,1,False,1000,True,1.0
./expes/v2_2020-11-09_3bh_50-prng-1,30_base_hphc_50,50,first-50,21,rng,num-start-371,371,17520,2.9446587562561035,True,,True,1,False,1000,True,1.0
./expes/v2_2020-11-09_3bh_50-prng-1,30_base_hphc_50,50,first-50,31,rng,num-start-361,361,17520,2.868816375732422,True,,True,1,False,1000,True,1.0
./expes/v2_2020-11-09_3bh_50-prng-1,30_base_hphc_50,50,first-50,1,rng,num-start-801,801,17520,6.1702516078948975,True,,True,1,False,1000,True,1.0
./expes/v2_2020-11-09_3bh_50-prng-1,30_base_hphc_50,50,first-50,11,rng,num-start-531,531,17520,4.161256551742554,True,,True,1,False,1000,True,1.0
./expes/v2_2020-11-09_3bh_50-prng-1,30_base_hphc_50,50,first-50,31,rng,num-start-311,311,17520,2.4390995502471924,True,,True,1,False,1000,True,1.0
./expes/v2_2020-11-09_3bh_50-prng-1,30_base_hphc_50,50,first-50,1,rng,num-start-521,521,17520,4.074335336685181,True,,True,1,False,1000,True,1.0
./expes/v2_2020-11-09_3bh_50-prng-1,30_base_hphc_50,50,first-50,1,rng,num-start-71,71,17520,0.5505204200744629,True,,True,1,False,1000,True,1.0
./expes/v2_2020-11-09_3bh_50-prng-1,30_base_hphc_50,50,first-50,1,rng,num-start-921,921,17520,7.070257186889648,True,,True,1,False,1000,True,1.0
./expes/v2_2020-11-09_3bh_50-prng-1,30_base_hphc_50,50,first-50,41,rng,num-start-601,601,17520,4.704163074493408,True,,True,1,False,1000,True,1.0
./expes/v2_2020-11-09_3bh_50-prng-1,30_base_hphc_50,50,first-50,41,rng,num-start-501,501,17520,3.888363838195801,True,,True,1,False,1000,True,1.0
./expes/v2_2020-11-09_3bh_50-prng-1,30_base_hphc_50,50,first-50,11,rng,num-start-231,231,17520,1.829972267150879,True,,True,1,False,1000,True,1.0
./expes/v2_2020-11-09_3bh_50-prng-1,30_base_hphc_50,50,first-50,1,rng,num-start-571,571,17520,4.397049427032471,True,,True,1,False,1000,True,1.0
./expes/v2_2020-11-09_3bh_50-prng-1,30_base_hphc_50,50,first-50,41,rng,num-start-1,1,17520,0.026488065719604492,False,,False,2,False,1000,True,1.0
./expes/v2_2020-11-09_3bh_50-prng-1,30_base_hphc_50,50,first-50,11,rng,num-start-121,121,17520,1.1334125995635986,True,,True,1,False,1000,True,1.0
./expes/v2_2020-11-09_3bh_50-prng-1,30_base_hphc_50,50,first-50,21,rng,num-start-1,1,17520,0.030046701431274414,False,,False,2,False,1000,True,1.0
./expes/v2_2020-11-09_3bh_50-prng-1,30_base_hphc_50,50,first-50,31,rng,num-start-861,861,17520,7.124906539916992,True,,True,1,False,1000,True,1.0
./expes/v2_2020-11-09_3bh_50-prng-1,30_base_hphc_50,50,first-50,31,rng,num-start-991,991,17520,8.090746879577637,True,,True,1,False,1000,True,1.0
./expes/v2_2020-11-09_3bh_50-prng-1,30_base_hphc_50,50,first-50,1,rng,num-start-651,651,17520,5.031581878662109,True,,True,1,False,1000,True,1.0
./expes/v2_2020-11-09_3bh_50-prng-1,30_base_hphc_50,50,first-50,11,rng,num-start-431,431,17520,3.3906760215759277,True,,True,1,False,1000,True,1.0
./expes/v2_2020-11-09_3bh_50-prng-1,30_base_hphc_50,50,first-50,1,rng,num-start-161,161,17520,1.287855863571167,True,,True,1,False,1000,True,1.0
./expes/v2_2020-11-09_3bh_50-prng-1,30_base_hphc_50,50,first-50,1,rng,num-start-781,781,17520,6.056727886199951,True,,True,1,False,1000,True,1.0
./expes/v2_2020-11-09_3bh_50-prng-1,30_base_hphc_50,50,first-50,41,rng,num-start-531,531,17520,4.129231214523315,True,,True,1,False,1000,True,1.0
./expes/v2_2020-11-09_3bh_50-prng-1,30_base_hphc_50,50,first-50,31,rng,num-start-681,681,17520,5.527470827102661,True,,True,1,False,1000,True,1.0
./expes/v2_2020-11-09_3bh_50-prng-1,30_base_hphc_50,50,first-50,31,rng,num-start-641,641,17520,5.366940259933472,True,,True,1,False,1000,True,1.0
./expes/v2_2020-11-09_3bh_50-prng-1,30_base_hphc_50,50,first-50,1,rng,num-start-561,561,17520,4.326864957809448,True,,True,1,False,1000,True,1.0
./expes/v2_2020-11-09_3bh_50-prng-1,30_base_hphc_50,50,first-50,11,rng,num-start-721,721,17520,5.720234632492065,True,,True,1,False,1000,True,1.0
./expes/v2_2020-11-09_3bh_50-prng-1,30_base_hphc_50,50,first-50,21,rng,num-start-571,571,17520,4.677140474319458,True,,True,1,False,1000,True,1.0
./expes/v2_2020-11-09_3bh_50-prng-1,30_base_hphc_50,50,first-50,1,rng,num-start-271,271,17520,2.117196559906006,True,,True,1,False,1000,True,1.0
./expes/v2_2020-11-09_3bh_50-prng-1,30_base_hphc_50,50,first-50,11,rng,num-start-1,1,17520,0.012912511825561523,False,,False,2,False,1000,True,1.0
./expes/v2_2020-11-09_3bh_50-prng-1,30_base_hphc_50,50,first-50,31,rng,num-start-601,601,17520,4.935137748718262,True,,True,1,False,1000,True,1.0
./expes/v2_2020-11-09_3bh_50-prng-1,30_base_hphc_50,50,first-50,11,rng,num-start-721,721,17520,5.6824281215667725,True,,True,1,False,1000,True,1.0
./expes/v2_2020-11-09_3bh_50-prng-1,30_base_hphc_50,50,first-50,11,rng,num-start-451,451,17520,3.58270263671875,True,,True,1,False,1000,True,1.0
./expes/v2_2020-11-09_3bh_50-prng-1,30_base_hphc_50,50,first-50,1,rng,num-start-201,201,17520,1.5746071338653564,True,,True,1,False,1000,True,1.0
./expes/v2_2020-11-09_3bh_50-prng-1,30_base_hphc_50,50,first-50,1,rng,num-start-61,61,17520,0.48143720626831055,True,,True,1,False,1000,True,1.0
./expes/v2_2020-11-09_3bh_50-prng-1,30_base_hphc_50,50,first-50,1,rng,num-start-81,81,17520,0.6472311019897461,True,,True,1,False,1000,True,1.0
./expes/v2_2020-11-09_3bh_50-prng-1,30_base_hphc_50,50,first-50,41,rng,num-start-671,671,17520,5.281018495559692,True,,True,1,False,1000,True,1.0
./expes/v2_2020-11-09_3bh_50-prng-1,30_base_hphc_50,50,first-50,1,rng,num-start-901,901,17520,6.949206590652466,True,,True,1,False,1000,True,1.0
./expes/v2_2020-11-09_3bh_50-prng-1,30_base_hphc_50,50,first-50,41,rng,num-start-971,971,17520,7.645472526550293,True,,True,1,False,1000,True,1.0
./expes/v2_2020-11-09_3bh_50-prng-1,30_base_hphc_50,50,first-50,21,rng,num-start-921,921,17520,7.452235460281372,True,,True,1,False,1000,True,1.0
./expes/v2_2020-11-09_3bh_50-prng-1,30_base_hphc_50,50,first-50,41,rng,num-start-231,231,17520,1.7950129508972168,True,,True,1,False,1000,True,1.0
./expes/v2_2020-11-09_3bh_50-prng-1,30_base_hphc_50,50,first-50,21,rng,num-start-981,981,17520,7.914788007736206,True,,True,1,False,1000,True,1.0
./expes/v2_2020-11-09_3bh_50-prng-1,30_base_hphc_50,50,first-50,31,rng,num-start-841,841,17520,6.831963300704956,True,,True,1,False,1000,True,1.0
./expes/v2_2020-11-09_3bh_50-prng-1,30_base_hphc_50,50,first-50,11,rng,num-start-781,781,17520,6.090090751647949,True,,True,1,False,1000,True,1.0
./expes/v2_2020-11-09_3bh_50-prng-1,30_base_hphc_50,50,first-50,11,rng,num-start-391,391,17520,3.063253879547119,True,,True,1,False,1000,True,1.0
./expes/v2_2020-11-09_3bh_50-prng-1,30_base_hphc_50,50,first-50,41,rng,num-start-771,771,17520,6.007756233215332,True,,True,1,False,1000,True,1.0
./expes/v2_2020-11-09_3bh_50-prng-1,30_base_hphc_50,50,first-50,21,rng,num-start-991,991,17520,8.142817258834839,True,,True,1,False,1000,True,1.0
./expes/v2_2020-11-09_3bh_50-prng-1,30_base_hphc_50,50,first-50,41,rng,num-start-341,341,17520,2.6784701347351074,True,,True,1,False,1000,True,1.0
./expes/v2_2020-11-09_3bh_50-prng-1,30_base_hphc_50,50,first-50,1,rng,num-start-371,371,17520,2.883373498916626,True,,True,1,False,1000,True,1.0
./expes/v2_2020-11-09_3bh_50-prng-1,30_base_hphc_50,50,first-50,11,rng,num-start-631,631,17520,4.997905969619751,True,,True,1,False,1000,True,1.0
./expes/v2_2020-11-09_3bh_50-prng-1,30_base_hphc_50,50,first-50,41,rng,num-start-651,651,17520,5.019909143447876,True,,True,1,False,1000,True,1.0
./expes/v2_2020-11-09_3bh_50-prng-1,30_base_hphc_50,50,first-50,11,rng,num-start-751,751,17520,6.146312713623047,True,,True,1,False,1000,True,1.0
./expes/v2_2020-11-09_3bh_50-prng-1,30_base_hphc_50,50,first-50,1,rng,num-start-251,251,17520,1.9330205917358398,True,,True,1,False,1000,True,1.0
./expes/v2_2020-11-09_3bh_50-prng-1,30_base_hphc_50,50,first-50,31,rng,num-start-11,11,17520,0.33494997024536133,True,,True,1,False,1000,True,1.0
./expes/v2_2020-11-09_3bh_50-prng-1,30_base_hphc_50,50,first-50,11,rng,num-start-341,341,17520,2.6189565658569336,True,,True,1,False,1000,True,1.0
./expes/v2_2020-11-09_3bh_50-prng-1,30_base_hphc_50,50,first-50,41,rng,num-start-311,311,17520,2.398991823196411,True,,True,1,False,1000,True,1.0
./expes/v2_2020-11-09_3bh_50-prng-1,30_base_hphc_50,50,first-50,21,rng,num-start-871,871,17520,6.966721534729004,True,,True,1,False,1000,True,1.0
./expes/v2_2020-11-09_3bh_50-prng-1,30_base_hphc_50,50,first-50,41,rng,num-start-621,621,17520,4.748060464859009,True,,True,1,False,1000,True,1.0
./expes/v2_2020-11-09_3bh_50-prng-1,30_base_hphc_50,50,first-50,31,rng,num-start-901,901,17520,7.133630275726318,True,,True,1,False,1000,True,1.0
./expes/v2_2020-11-09_3bh_50-prng-1,30_base_hphc_50,50,first-50,1,rng,num-start-551,551,17520,4.181426525115967,True,,True,1,False,1000,True,1.0
./expes/v2_2020-11-09_3bh_50-prng-1,30_base_hphc_50,50,first-50,1,rng,num-start-641,641,17520,4.844160556793213,True,,True,1,False,1000,True,1.0
./expes/v2_2020-11-09_3bh_50-prng-1,30_base_hphc_50,50,first-50,1,rng,num-start-821,821,17520,6.286035776138306,True,,True,1,False,1000,True,1.0
./expes/v2_2020-11-09_3bh_50-prng-1,30_base_hphc_50,50,first-50,11,rng,num-start-221,221,17520,1.69234299659729,True,,True,1,False,1000,True,1.0
./expes/v2_2020-11-09_3bh_50-prng-1,30_base_hphc_50,50,first-50,41,rng,num-start-941,941,17520,7.2209532260894775,True,,True,1,False,1000,True,1.0
./expes/v2_2020-11-09_3bh_50-prng-1,30_base_hphc_50,50,first-50,31,rng,num-start-821,821,17520,6.549220323562622,True,,True,1,False,1000,True,1.0
./expes/v2_2020-11-09_3bh_50-prng-1,30_base_hphc_50,50,first-50,11,rng,num-start-821,821,17520,6.283340215682983,True,,True,1,False,1000,True,1.0
./expes/v2_2020-11-09_3bh_50-prng-1,30_base_hphc_50,50,first-50,41,rng,num-start-51,51,17520,0.43939685821533203,True,,True,1,False,1000,True,1.0
./expes/v2_2020-11-09_3bh_50-prng-1,30_base_hphc_50,50,first-50,1,rng,num-start-501,501,17520,3.8401846885681152,True,,True,1,False,1000,True,1.0
./expes/v2_2020-11-09_3bh_50-prng-1,30_base_hphc_50,50,first-50,41,rng,num-start-51,51,17520,0.509040117263794,True,,True,1,False,1000,True,1.0
./expes/v2_2020-11-09_3bh_50-prng-1,30_base_hphc_50,50,first-50,1,rng,num-start-61,61,17520,0.46736741065979004,True,,True,1,False,1000,True,1.0
./expes/v2_2020-11-09_3bh_50-prng-1,30_base_hphc_50,50,first-50,41,rng,num-start-301,301,17520,2.3013200759887695,True,,True,1,False,1000,True,1.0
./expes/v2_2020-11-09_3bh_50-prng-1,30_base_hphc_50,50,first-50,31,rng,num-start-331,331,17520,2.581458806991577,True,,True,1,False,1000,True,1.0
./expes/v2_2020-11-09_3bh_50-prng-1,30_base_hphc_50,50,first-50,11,rng,num-start-861,861,17520,6.73659086227417,True,,True,1,False,1000,True,1.0
./expes/v2_2020-11-09_3bh_50-prng-1,30_base_hphc_50,50,first-50,1,rng,num-start-581,581,17520,4.436896085739136,True,,True,1,False,1000,True,1.0
./expes/v2_2020-11-09_3bh_50-prng-1,30_base_hphc_50,50,first-50,11,rng,num-start-781,781,17520,6.31684136390686,True,,True,1,False,1000,True,1.0
./expes/v2_2020-11-09_3bh_50-prng-1,30_base_hphc_50,50,first-50,1,rng,num-start-771,771,17520,5.886888265609741,True,,True,1,False,1000,True,1.0
./expes/v2_2020-11-09_3bh_50-prng-1,30_base_hphc_50,50,first-50,1,rng,num-start-501,501,17520,3.8397414684295654,True,,True,1,False,1000,True,1.0
./expes/v2_2020-11-09_3bh_50-prng-1,30_base_hphc_50,50,first-50,1,rng,num-start-401,401,17520,3.074596881866455,True,,True,1,False,1000,True,1.0
./expes/v2_2020-11-09_3bh_50-prng-1,30_base_hphc_50,50,first-50,1,rng,num-start-941,941,17520,7.190093040466309,True,,True,1,False,1000,True,1.0
./expes/v2_2020-11-09_3bh_50-prng-1,30_base_hphc_50,50,first-50,21,rng,num-start-931,931,17520,7.414865493774414,True,,True,1,False,1000,True,1.0
./expes/v2_2020-11-09_3bh_50-prng-1,30_base_hphc_50,50,first-50,21,rng,num-start-161,161,17520,1.362602710723877,True,,True,1,False,1000,True,1.0
./expes/v2_2020-11-09_3bh_50-prng-1,30_base_hphc_50,50,first-50,11,rng,num-start-71,71,17520,0.6614055633544922,True,,True,1,False,1000,True,1.0
./expes/v2_2020-11-09_3bh_50-prng-1,30_base_hphc_50,50,first-50,1,rng,num-start-501,501,17520,3.797976016998291,True,,True,1,False,1000,True,1.0
./expes/v2_2020-11-09_3bh_50-prng-1,30_base_hphc_50,50,first-50,21,rng,num-start-131,131,17520,1.1352195739746094,True,,True,1,False,1000,True,1.0
./expes/v2_2020-11-09_3bh_50-prng-1,30_base_hphc_50,50,first-50,21,rng,num-start-51,51,17520,0.5677764415740967,True,,True,1,False,1000,True,1.0
./expes/v2_2020-11-09_3bh_50-prng-1,30_base_hphc_50,50,first-50,21,rng,num-start-81,81,17520,0.7107319831848145,True,,True,1,False,1000,True,1.0
./expes/v2_2020-11-09_3bh_50-prng-1,30_base_hphc_50,50,first-50,21,rng,num-start-551,551,17520,4.413513660430908,True,,True,1,False,1000,True,1.0
./expes/v2_2020-11-09_3bh_50-prng-1,30_base_hphc_50,50,first-50,31,rng,num-start-161,161,17520,1.3955769538879395,True,,True,1,False,1000,True,1.0
./expes/v2_2020-11-09_3bh_50-prng-1,30_base_hphc_50,50,first-50,31,rng,num-start-861,861,17520,6.802116632461548,True,,True,1,False,1000,True,1.0
./expes/v2_2020-11-09_3bh_50-prng-1,30_base_hphc_50,50,first-50,11,rng,num-start-121,121,17520,0.9475457668304443,True,,True,1,False,1000,True,1.0
./expes/v2_2020-11-09_3bh_50-prng-1,30_base_hphc_50,50,first-50,41,rng,num-start-601,601,17520,4.602367401123047,True,,True,1,False,1000,True,1.0
./expes/v2_2020-11-09_3bh_50-prng-1,30_base_hphc_50,50,first-50,41,rng,num-start-131,131,17520,1.0196256637573242,True,,True,1,False,1000,True,1.0
./expes/v2_2020-11-09_3bh_50-prng-1,30_base_hphc_50,50,first-50,21,rng,num-start-61,61,17520,0.6094319820404053,True,,True,1,False,1000,True,1.0
./expes/v2_2020-11-09_3bh_50-prng-1,30_base_hphc_50,50,first-50,1,rng,num-start-311,311,17520,2.3707375526428223,True,,True,1,False,1000,True,1.0
./expes/v2_2020-11-09_3bh_50-prng-1,30_base_hphc_50,50,first-50,41,rng,num-start-161,161,17520,1.2719104290008545,True,,True,1,False,1000,True,1.0
./expes/v2_2020-11-09_3bh_50-prng-1,30_base_hphc_50,50,first-50,1,rng,num-start-101,101,17520,0.7722899913787842,True,,True,1,False,1000,True,1.0
./expes/v2_2020-11-09_3bh_50-prng-1,30_base_hphc_50,50,first-50,31,rng,num-start-901,901,17520,7.160943984985352,True,,True,1,False,1000,True,1.0
./expes/v2_2020-11-09_3bh_50-prng-1,30_base_hphc_50,50,first-50,1,rng,num-start-691,691,17520,5.247390508651733,True,,True,1,False,1000,True,1.0
./expes/v2_2020-11-09_3bh_50-prng-1,30_base_hphc_50,50,first-50,31,rng,num-start-691,691,17520,5.500946044921875,True,,True,1,False,1000,True,1.0
./expes/v2_2020-11-09_3bh_50-prng-1,30_base_hphc_50,50,first-50,31,rng,num-start-341,341,17520,2.6606764793395996,True,,True,1,False,1000,True,1.0
./expes/v2_2020-11-09_3bh_50-prng-1,30_base_hphc_50,50,first-50,21,rng,num-start-431,431,17520,3.5387675762176514,True,,True,1,False,1000,True,1.0
./expes/v2_2020-11-09_3bh_50-prng-1,30_base_hphc_50,50,first-50,11,rng,num-start-21,21,17520,0.25972986221313477,True,,True,1,False,1000,True,1.0
./expes/v2_2020-11-09_3bh_50-prng-1,30_base_hphc_50,50,first-50,11,rng,num-start-721,721,17520,5.513980150222778,True,,True,1,False,1000,True,1.0
./expes/v2_2020-11-09_3bh_50-prng-1,30_base_hphc_50,50,first-50,21,rng,num-start-271,271,17520,2.10601806640625,True,,True,1,False,1000,True,1.0
./expes/v2_2020-11-09_3bh_50-prng-1,30_base_hphc_50,50,first-50,11,rng,num-start-221,221,17520,1.695417881011963,True,,True,1,False,1000,True,1.0
./expes/v2_2020-11-09_3bh_50-prng-1,30_base_hphc_50,50,first-50,11,rng,num-start-531,531,17520,4.2479166984558105,True,,True,1,False,1000,True,1.0
./expes/v2_2020-11-09_3bh_50-prng-1,30_base_hphc_50,50,first-50,41,rng,num-start-571,571,17520,4.414679765701294,True,,True,1,False,1000,True,1.0
./expes/v2_2020-11-09_3bh_50-prng-1,30_base_hphc_50,50,first-50,41,rng,num-start-121,121,17520,0.9571263790130615,True,,True,1,False,1000,True,1.0
./expes/v2_2020-11-09_3bh_50-prng-1,30_base_hphc_50,50,first-50,31,rng,num-start-761,761,17520,6.018308639526367,True,,True,1,False,1000,True,1.0
./expes/v2_2020-11-09_3bh_50-prng-1,30_base_hphc_50,50,first-50,41,rng,num-start-701,701,17520,5.366061210632324,True,,True,1,False,1000,True,1.0
./expes/v2_2020-11-09_3bh_50-prng-1,30_base_hphc_50,50,first-50,41,rng,num-start-631,631,17520,4.8304150104522705,True,,True,1,False,1000,True,1.0
./expes/v2_2020-11-09_3bh_50-prng-1,30_base_hphc_50,50,first-50,21,rng,num-start-61,61,17520,0.5731806755065918,True,,True,1,False,1000,True,1.0
./expes/v2_2020-11-09_3bh_50-prng-1,30_base_hphc_50,50,first-50,11,rng,num-start-461,461,17520,3.5646121501922607,True,,True,1,False,1000,True,1.0
./expes/v2_2020-11-09_3bh_50-prng-1,30_base_hphc_50,50,first-50,41,rng,num-start-921,921,17520,7.097791433334351,True,,True,1,False,1000,True,1.0
./expes/v2_2020-11-09_3bh_50-prng-1,30_base_hphc_50,50,first-50,21,rng,num-start-21,21,17520,0.30035948753356934,True,,True,1,False,1000,True,1.0
./expes/v2_2020-11-09_3bh_50-prng-1,30_base_hphc_50,50,first-50,31,rng,num-start-761,761,17520,6.055362701416016,True,,True,1,False,1000,True,1.0
./expes/v2_2020-11-09_3bh_50-prng-1,30_base_hphc_50,50,first-50,11,rng,num-start-591,591,17520,4.6181395053863525,True,,True,1,False,1000,True,1.0
./expes/v2_2020-11-09_3bh_50-prng-1,30_base_hphc_50,50,first-50,1,rng,num-start-191,191,17520,1.4603173732757568,True,,True,1,False,1000,True,1.0
./expes/v2_2020-11-09_3bh_50-prng-1,30_base_hphc_50,50,first-50,41,rng,num-start-981,981,17520,7.576322317123413,True,,True,1,False,1000,True,1.0
./expes/v2_2020-11-09_3bh_50-prng-1,30_base_hphc_50,50,first-50,1,rng,num-start-11,11,17520,0.08812975883483887,True,,True,1,False,1000,True,1.0
./expes/v2_2020-11-09_3bh_50-prng-1,30_base_hphc_50,50,first-50,11,rng,num-start-11,11,17520,0.24491405487060547,True,,True,1,False,1000,True,1.0
./expes/v2_2020-11-09_3bh_50-prng-1,30_base_hphc_50,50,first-50,31,rng,num-start-741,741,17520,5.858370542526245,True,,True,1,False,1000,True,1.0
./expes/v2_2020-11-09_3bh_50-prng-1,30_base_hphc_50,50,first-50,11,rng,num-start-181,181,17520,1.5267119407653809,True,,True,1,False,1000,True,1.0
./expes/v2_2020-11-09_3bh_50-prng-1,30_base_hphc_50,50,first-50,1,rng,num-start-201,201,17520,1.5380194187164307,True,,True,1,False,1000,True,1.0
./expes/v2_2020-11-09_3bh_50-prng-1,30_base_hphc_50,50,first-50,11,rng,num-start-591,591,17520,4.572300910949707,True,,True,1,False,1000,True,1.0
./expes/v2_2020-11-09_3bh_50-prng-1,30_base_hphc_50,50,first-50,41,rng,num-start-841,841,17520,6.519270420074463,True,,True,1,False,1000,True,1.0
./expes/v2_2020-11-09_3bh_50-prng-1,30_base_hphc_50,50,first-50,41,rng,num-start-911,911,17520,7.093228578567505,True,,True,1,False,1000,True,1.0
./expes/v2_2020-11-09_3bh_50-prng-1,30_base_hphc_50,50,first-50,11,rng,num-start-321,321,17520,2.4572839736938477,True,,True,1,False,1000,True,1.0
./expes/v2_2020-11-09_3bh_50-prng-1,30_base_hphc_50,50,first-50,31,rng,num-start-391,391,17520,3.230862617492676,True,,True,1,False,1000,True,1.0
./expes/v2_2020-11-09_3bh_50-prng-1,30_base_hphc_50,50,first-50,21,rng,num-start-631,631,17520,5.008468389511108,True,,True,1,False,1000,True,1.0
./expes/v2_2020-11-09_3bh_50-prng-1,30_base_hphc_50,50,first-50,41,rng,num-start-291,291,17520,2.2270803451538086,True,,True,1,False,1000,True,1.0
./expes/v2_2020-11-09_3bh_50-prng-1,30_base_hphc_50,50,first-50,31,rng,num-start-721,721,17520,5.715172529220581,True,,True,1,False,1000,True,1.0
./expes/v2_2020-11-09_3bh_50-prng-1,30_base_hphc_50,50,first-50,1,rng,num-start-221,221,17520,1.6901345252990723,True,,True,1,False,1000,True,1.0
./expes/v2_2020-11-09_3bh_50-prng-1,30_base_hphc_50,50,first-50,41,rng,num-start-721,721,17520,5.567269802093506,True,,True,1,False,1000,True,1.0
./expes/v2_2020-11-09_3bh_50-prng-1,30_base_hphc_50,50,first-50,11,rng,num-start-741,741,17520,5.749375343322754,True,,True,1,False,1000,True,1.0
./expes/v2_2020-11-09_3bh_50-prng-1,30_base_hphc_50,50,first-50,11,rng,num-start-451,451,17520,3.4646263122558594,True,,True,1,False,1000,True,1.0
./expes/v2_2020-11-09_3bh_50-prng-1,30_base_hphc_50,50,first-50,31,rng,num-start-271,271,17520,2.1359336376190186,True,,True,1,False,1000,True,1.0
./expes/v2_2020-11-09_3bh_50-prng-1,30_base_hphc_50,50,first-50,41,rng,num-start-111,111,17520,1.0004823207855225,True,,True,1,False,1000,True,1.0
./expes/v2_2020-11-09_3bh_50-prng-1,30_base_hphc_50,50,first-50,1,rng,num-start-541,541,17520,4.101297378540039,True,,True,1,False,1000,True,1.0
./expes/v2_2020-11-09_3bh_50-prng-1,30_base_hphc_50,50,first-50,21,rng,num-start-691,691,17520,5.550465106964111,True,,True,1,False,1000,True,1.0
./expes/v2_2020-11-09_3bh_50-prng-1,30_base_hphc_50,50,first-50,1,rng,num-start-291,291,17520,2.204096555709839,True,,True,1,False,1000,True,1.0
./expes/v2_2020-11-09_3bh_50-prng-1,30_base_hphc_50,50,first-50,1,rng,num-start-591,591,17520,4.482930898666382,True,,True,1,False,1000,True,1.0
./expes/v2_2020-11-09_3bh_50-prng-1,30_base_hphc_50,50,first-50,21,rng,num-start-321,321,17520,2.4904417991638184,True,,True,1,False,1000,True,1.0
./expes/v2_2020-11-09_3bh_50-prng-1,30_base_hphc_50,50,first-50,21,rng,num-start-781,781,17520,6.241060018539429,True,,True,1,False,1000,True,1.0
./expes/v2_2020-11-09_3bh_50-prng-1,30_base_hphc_50,50,first-50,21,rng,num-start-281,281,17520,2.1641225814819336,True,,True,1,False,1000,True,1.0
./expes/v2_2020-11-09_3bh_50-prng-1,30_base_hphc_50,50,first-50,1,rng,num-start-951,951,17520,7.226248502731323,True,,True,1,False,1000,True,1.0
./expes/v2_2020-11-09_3bh_50-prng-1,30_base_hphc_50,50,first-50,31,rng,num-start-791,791,17520,6.314633131027222,True,,True,1,False,1000,True,1.0
./expes/v2_2020-11-09_3bh_50-prng-1,30_base_hphc_50,50,first-50,41,rng,num-start-611,611,17520,4.676074504852295,True,,True,1,False,1000,True,1.0
./expes/v2_2020-11-09_3bh_50-prng-1,30_base_hphc_50,50,first-50,21,rng,num-start-741,741,17520,5.933511257171631,True,,True,1,False,1000,True,1.0
./expes/v2_2020-11-09_3bh_50-prng-1,30_base_hphc_50,50,first-50,21,rng,num-start-521,521,17520,4.183894872665405,True,,True,1,False,1000,True,1.0
./expes/v2_2020-11-09_3bh_50-prng-1,30_base_hphc_50,50,first-50,41,rng,num-start-621,621,17520,4.773820638656616,True,,True,1,False,1000,True,1.0
./expes/v2_2020-11-09_3bh_50-prng-1,30_base_hphc_50,50,first-50,41,rng,num-start-861,861,17520,6.650329113006592,True,,True,1,False,1000,True,1.0
./expes/v2_2020-11-09_3bh_50-prng-1,30_base_hphc_50,50,first-50,41,rng,num-start-511,511,17520,3.95163631439209,True,,True,1,False,1000,True,1.0
./expes/v2_2020-11-09_3bh_50-prng-1,30_base_hphc_50,50,first-50,21,rng,num-start-951,951,17520,7.5867719650268555,True,,True,1,False,1000,True,1.0
./expes/v2_2020-11-09_3bh_50-prng-1,30_base_hphc_50,50,first-50,21,rng,num-start-151,151,17520,1.3109326362609863,True,,True,1,False,1000,True,1.0
./expes/v2_2020-11-09_3bh_50-prng-1,30_base_hphc_50,50,first-50,41,rng,num-start-911,911,17520,7.055254220962524,True,,True,1,False,1000,True,1.0
./expes/v2_2020-11-09_3bh_50-prng-1,30_base_hphc_50,50,first-50,31,rng,num-start-641,641,17520,5.127180814743042,True,,True,1,False,1000,True,1.0
./expes/v2_2020-11-09_3bh_50-prng-1,30_base_hphc_50,50,first-50,41,rng,num-start-731,731,17520,5.637177228927612,True,,True,1,False,1000,True,1.0
./expes/v2_2020-11-09_3bh_50-prng-1,30_base_hphc_50,50,first-50,1,rng,num-start-461,461,17520,3.5171430110931396,True,,True,1,False,1000,True,1.0
./expes/v2_2020-11-09_3bh_50-prng-1,30_base_hphc_50,50,first-50,11,rng,num-start-371,371,17520,2.8687949180603027,True,,True,1,False,1000,True,1.0
./expes/v2_2020-11-09_3bh_50-prng-1,30_base_hphc_50,50,first-50,11,rng,num-start-971,971,17520,7.63688588142395,True,,True,1,False,1000,True,1.0
./expes/v2_2020-11-09_3bh_50-prng-1,30_base_hphc_50,50,first-50,21,rng,num-start-201,201,17520,1.7314929962158203,True,,True,1,False,1000,True,1.0
./expes/v2_2020-11-09_3bh_50-prng-1,30_base_hphc_50,50,first-50,11,rng,num-start-511,511,17520,3.9412217140197754,True,,True,1,False,1000,True,1.0
./expes/v2_2020-11-09_3bh_50-prng-1,30_base_hphc_50,50,first-50,41,rng,num-start-481,481,17520,3.6770975589752197,True,,True,1,False,1000,True,1.0
