expe,clients,clients_size,clients_subset,agg_size,agg_size_pc,method,days,days_size,days_total,noise_method,time,valid,valid_sum,success,score_avg,score_min,score_max,nsols,oracle,wall_hit,wall_time,pooled,pool_size,uuid,infeasible,optimal,valid_sums
./expes/v2_2021-04-05_issda-30_1000-prng-1-w86-p2_3d,30_issda-1000,1000,first-1000,400,40,rng,num-start-800,800,25726,classic,311.74747371673584,True,,True,1.0,1.0,1.0,1,"['2', '3', '6', '9', '10', '13', '15', '18', '19', '22', '23', '25', '27', '29', '30', '31', '32', '34', '36', '37', '39', '41', '42', '45', '47', '49', '58', '61', '65', '67', '72', '73', '75', '79', '84', '86', '87', '89', '94', '97', '99', '102', '103', '105', '107', '111', '112', '113', '117', '118', '121', '124', '129', '133', '134', '137', '138', '139', '150', '151', '161', '163', '164', '165', '168', '171', '172', '173', '174', '175', '176', '178', '182', '186', '190', '191', '193', '195', '199', '205', '206', '211', '215', '218', '219', '222', '223', '225', '226', '228', '229', '230', '231', '233', '235', '236', '237', '238', '239', '241', '249', '256', '259', '260', '262', '265', '273', '274', '275', '276', '280', '284', '288', '289', '291', '297', '298', '299', '302', '303', '304', '306', '311', '314', '316', '318', '320', '326', '329', '330', '334', '336', '340', '341', '347', '348', '349', '350', '352', '353', '354', '355', '356', '362', '366', '374', '376', '377', '380', '384', '388', '389', '390', '391', '393', '396', '400', '403', '404', '405', '407', '412', '414', '415', '417', '424', '425', '427', '432', '433', '437', '440', '443', '444', '449', '450', '457', '461', '462', '464', '466', '469', '470', '471', '472', '481', '484', '486', '492', '493', '497', '500', '501', '502', '505', '508', '509', '512', '513', '515', '517', '518', '519', '520', '521', '522', '523', '525', '527', '529', '532', '534', '537', '541', '546', '548', '552', '553', '554', '555', '558', '561', '562', '564', '565', '567', '568', '570', '575', '577', '578', '579', '580', '583', '584', '585', '588', '590', '592', '593', '594', '599', '602', '604', '605', '606', '608', '615', '619', '621', '623', '624', '627', '628', '629', '630', '638', '639', '640', '645', '646', '647', '651', '658', '663', '664', '665', '666', '668', '673', '676', '680', '681', '682', '687', '690', '691', '692', '694', '695', '703', '704', '712', '713', '720', '721', '722', '729', '733', '737', '739', '742', '743', '744', '747', '748', '751', '756', '759', '761', '762', '773', '774', '778', '780', '781', '783', '786', '787', '789', '790', '795', '797', '798', '799', '801', '802', '803', '806', '808', '816', '817', '818', '822', '823', '824', '829', '831', '833', '837', '840', '841', '848', '849', '850', '853', '856', '858', '861', '862', '867', '868', '869', '871', '872', '874', '878', '879', '880', '881', '882', '887', '889', '891', '893', '897', '900', '903', '904', '908', '909', '913', '915', '918', '919', '922', '923', '924', '932', '933', '937', '939', '940', '943', '945', '948', '949', '954', '955', '959', '961', '962', '964', '967', '968', '973', '975', '976', '978', '981', '983', '986', '989', '991', '992', '993', '997', '998', '999', '1000']",False,86400,True,2,0a09982894,0.0,1.0,1.0
./expes/v2_2021-04-05_issda-30_1000-prng-1-w86-p2_3d,30_issda-1000,1000,first-1000,50,5,rng,num-start-400,400,25726,classic,58.948811531066895,True,,True,1.0,1.0,1.0,1,"['3', '10', '23', '27', '30', '32', '65', '97', '105', '121', '138', '215', '222', '235', '262', '273', '326', '389', '391', '400', '433', '444', '457', '461', '484', '500', '508', '555', '583', '606', '623', '666', '668', '703', '713', '739', '780', '781', '783', '786', '808', '822', '856', '868', '903', '915', '924', '962', '968', '993']",False,86400,True,2,68fb9bbcb0,0.0,1.0,1.0
./expes/v2_2021-04-05_issda-30_1000-prng-1-w86-p2_3d,30_issda-1000,1000,first-1000,50,5,rng,num-start-1000,1000,25726,classic,107.16381859779358,True,,True,1.0,1.0,1.0,1,"['3', '10', '23', '27', '30', '32', '65', '97', '105', '121', '138', '215', '222', '235', '262', '273', '326', '389', '391', '400', '433', '444', '457', '461', '484', '500', '508', '555', '583', '606', '623', '666', '668', '703', '713', '739', '780', '781', '783', '786', '808', '822', '856', '868', '903', '915', '924', '962', '968', '993']",False,86400,True,2,bf36604f0f,0.0,1.0,1.0
./expes/v2_2021-04-05_issda-30_1000-prng-1-w86-p2_3d,30_issda-1000,1000,first-1000,500,50,rng,num-start-700,700,25726,classic,219.5093457698822,True,,True,1.0,1.0,1.0,1,"['2', '4', '5', '6', '8', '10', '11', '14', '19', '21', '24', '27', '28', '29', '33', '36', '37', '38', '42', '43', '44', '45', '46', '48', '53', '55', '57', '61', '62', '64', '68', '69', '70', '71', '77', '78', '79', '80', '81', '82', '84', '85', '88', '89', '91', '92', '93', '94', '96', '98', '100', '101', '104', '106', '109', '114', '116', '117', '118', '119', '120', '122', '124', '126', '131', '136', '137', '140', '143', '145', '146', '148', '149', '153', '154', '157', '159', '160', '161', '163', '166', '167', '169', '170', '172', '173', '174', '177', '179', '181', '182', '183', '184', '185', '187', '189', '193', '196', '197', '199', '200', '201', '203', '204', '206', '207', '208', '211', '213', '214', '216', '217', '220', '221', '224', '225', '227', '228', '235', '236', '238', '239', '240', '242', '244', '245', '248', '249', '252', '254', '255', '256', '257', '258', '260', '261', '264', '265', '266', '267', '268', '269', '275', '276', '279', '283', '284', '285', '287', '288', '291', '293', '296', '297', '298', '299', '300', '301', '304', '305', '307', '308', '310', '311', '313', '318', '319', '320', '321', '323', '329', '330', '331', '332', '333', '335', '338', '339', '340', '345', '346', '347', '349', '352', '356', '359', '365', '366', '368', '369', '371', '372', '373', '374', '375', '377', '381', '382', '391', '397', '398', '400', '402', '405', '406', '410', '411', '412', '413', '414', '416', '420', '421', '422', '423', '424', '426', '428', '431', '432', '433', '434', '435', '439', '441', '442', '444', '445', '447', '449', '450', '451', '452', '453', '455', '463', '465', '466', '470', '471', '474', '476', '479', '483', '484', '485', '489', '490', '491', '496', '499', '501', '502', '503', '504', '507', '508', '509', '511', '519', '521', '524', '525', '532', '533', '534', '536', '537', '539', '540', '541', '542', '543', '548', '550', '551', '554', '555', '557', '558', '559', '560', '561', '563', '564', '572', '575', '576', '579', '582', '583', '584', '586', '587', '588', '590', '597', '599', '603', '609', '610', '612', '614', '616', '619', '621', '622', '623', '625', '628', '630', '631', '633', '635', '636', '638', '639', '642', '643', '644', '646', '648', '650', '651', '653', '656', '657', '658', '662', '663', '664', '668', '669', '670', '671', '673', '677', '678', '684', '685', '688', '690', '692', '693', '694', '697', '703', '705', '710', '713', '715', '718', '721', '722', '724', '726', '728', '729', '733', '735', '739', '750', '753', '755', '763', '764', '765', '773', '774', '777', '779', '784', '786', '787', '789', '790', '791', '793', '794', '796', '797', '799', '802', '803', '804', '806', '807', '810', '813', '816', '817', '818', '819', '820', '821', '823', '824', '827', '829', '830', '833', '835', '838', '839', '846', '847', '848', '849', '850', '851', '852', '855', '857', '858', '860', '861', '866', '868', '869', '874', '876', '877', '879', '880', '881', '883', '885', '886', '887', '889', '891', '892', '895', '896', '898', '899', '900', '901', '902', '903', '904', '905', '907', '908', '911', '913', '914', '916', '918', '919', '921', '922', '923', '924', '926', '927', '930', '931', '933', '934', '935', '936', '938', '939', '940', '943', '945', '947', '948', '950', '951', '953', '958', '959', '960', '961', '963', '964', '965', '966', '967', '968', '971', '973', '974', '977', '978', '980', '983', '984', '985', '986', '988', '989', '990', '992', '993', '994', '995', '998']",False,86400,True,2,b51e169339,0.0,1.0,1.0
./expes/v2_2021-04-05_issda-30_1000-prng-1-w86-p2_3d,30_issda-1000,1000,first-1000,200,20,rng,num-start-400,400,25726,classic,194.26982474327087,True,,True,1.0,1.0,1.0,1,"['2', '9', '22', '25', '26', '29', '33', '37', '42', '45', '51', '58', '59', '61', '62', '70', '78', '85', '87', '94', '109', '118', '131', '140', '161', '163', '166', '169', '171', '174', '177', '178', '181', '182', '187', '189', '196', '213', '216', '218', '228', '233', '237', '242', '251', '254', '256', '258', '262', '273', '275', '280', '286', '311', '316', '317', '320', '327', '333', '350', '360', '363', '369', '370', '371', '372', '373', '376', '381', '383', '390', '395', '403', '410', '417', '425', '434', '442', '456', '457', '466', '468', '473', '477', '492', '499', '501', '502', '511', '513', '515', '517', '520', '522', '523', '525', '527', '528', '531', '535', '536', '538', '539', '544', '558', '571', '574', '576', '582', '589', '596', '603', '604', '606', '608', '621', '622', '631', '632', '639', '654', '668', '669', '671', '675', '678', '686', '689', '691', '698', '699', '701', '709', '717', '724', '733', '735', '741', '742', '744', '747', '749', '753', '754', '757', '763', '773', '778', '782', '792', '804', '809', '814', '816', '819', '823', '829', '833', '835', '841', '845', '852', '856', '870', '875', '880', '881', '884', '892', '897', '898', '902', '904', '905', '906', '914', '916', '920', '922', '923', '925', '929', '930', '931', '934', '938', '941', '943', '948', '955', '957', '959', '964', '967', '971', '973', '978', '979', '981', '985']",False,86400,True,2,45c82b4aec,0.0,1.0,1.0
./expes/v2_2021-04-05_issda-30_1000-prng-1-w86-p2_3d,30_issda-1000,1000,first-1000,250,25,rng,num-start-400,400,25726,classic,604.8330590724945,True,,True,1.0,1.0,1.0,1,"['8', '12', '14', '16', '21', '22', '23', '28', '30', '32', '33', '37', '44', '46', '47', '62', '63', '65', '66', '68', '69', '79', '91', '100', '105', '106', '107', '108', '111', '122', '128', '134', '135', '137', '138', '140', '142', '155', '156', '160', '164', '168', '182', '190', '192', '197', '203', '217', '223', '228', '238', '240', '242', '244', '245', '258', '265', '266', '270', '271', '274', '276', '278', '286', '287', '292', '299', '301', '306', '308', '309', '311', '318', '321', '322', '323', '328', '330', '335', '336', '339', '341', '342', '345', '348', '353', '360', '362', '369', '373', '375', '379', '386', '387', '396', '397', '400', '405', '407', '418', '421', '426', '432', '438', '442', '446', '447', '448', '456', '468', '472', '478', '481', '482', '485', '486', '488', '494', '496', '502', '507', '513', '518', '520', '533', '534', '536', '547', '549', '554', '555', '558', '562', '563', '565', '573', '583', '586', '588', '591', '594', '595', '599', '600', '601', '604', '606', '607', '610', '615', '616', '619', '620', '621', '624', '626', '630', '631', '636', '641', '642', '643', '644', '648', '649', '650', '651', '655', '660', '666', '670', '672', '688', '689', '693', '695', '696', '698', '699', '701', '707', '713', '715', '716', '724', '731', '732', '733', '735', '736', '737', '738', '746', '753', '756', '760', '777', '780', '788', '791', '796', '798', '799', '807', '808', '820', '821', '824', '831', '833', '844', '852', '854', '857', '858', '865', '875', '876', '877', '882', '883', '887', '888', '889', '891', '894', '900', '903', '919', '926', '927', '931', '938', '940', '943', '944', '945', '949', '952', '959', '964', '972', '978', '981', '982', '987', '988', '989', '995', '997']",False,86400,True,2,d286e788aa,0.0,1.0,1.0
