expe,clients,clients_size,clients_subset,agg_size,method,days,days_size,days_total,time,valid,valid_sum,success,nsols,wall_hit,wall_time,pooled,valid_sums
./expes/v2_2020-12-14_dh_1000-prng-1-holes,30_issda_1000,1000,rng-1000,1,rng,num-start-301,301,25726,21.052169799804688,True,,True,1,False,1000,True,1.0
./expes/v2_2020-12-14_dh_1000-prng-1-holes,30_issda_1000,1000,rng-1000,601,rng,num-start-1101,1101,25726,416.3426401615143,True,,True,1,False,1000,True,1.0
./expes/v2_2020-12-14_dh_1000-prng-1-holes,30_issda_1000,1000,rng-1000,301,rng,num-start-401,401,25726,1027.5552887916565,False,,False,0,True,1000,True,0.0
./expes/v2_2020-12-14_dh_1000-prng-1-holes,30_issda_1000,1000,rng-1000,201,rng,num-start-1701,1701,25726,559.6521060466766,True,,True,1,False,1000,True,1.0
./expes/v2_2020-12-14_dh_1000-prng-1-holes,30_issda_1000,1000,rng-1000,601,rng,num-start-101,101,25726,1007.4914448261261,False,,False,0,True,1000,True,0.0
./expes/v2_2020-12-14_dh_1000-prng-1-holes,30_issda_1000,1000,rng-1000,401,rng,num-start-1401,1401,25726,361.58360481262207,True,,True,1,False,1000,True,1.0
./expes/v2_2020-12-14_dh_1000-prng-1-holes,30_issda_1000,1000,rng-1000,801,rng,num-start-801,801,25726,196.03366351127625,True,,True,1,False,1000,True,1.0
./expes/v2_2020-12-14_dh_1000-prng-1-holes,30_issda_1000,1000,rng-1000,201,rng,num-start-501,501,25726,123.42243194580078,True,,True,1,False,1000,True,1.0
./expes/v2_2020-12-14_dh_1000-prng-1-holes,30_issda_1000,1000,rng-1000,901,rng,num-start-1801,1801,25726,320.300498008728,True,,True,1,False,1000,True,1.0
./expes/v2_2020-12-14_dh_1000-prng-1-holes,30_issda_1000,1000,rng-1000,301,rng,num-start-1401,1401,25726,332.69790863990784,True,,True,1,False,1000,True,1.0
./expes/v2_2020-12-14_dh_1000-prng-1-holes,30_issda_1000,1000,rng-1000,101,rng,num-start-1301,1301,25726,206.8446786403656,True,,True,1,False,1000,True,1.0
./expes/v2_2020-12-14_dh_1000-prng-1-holes,30_issda_1000,1000,rng-1000,201,rng,num-start-601,601,25726,157.14885067939758,False,,False,2,False,1000,True,1.0
./expes/v2_2020-12-14_dh_1000-prng-1-holes,30_issda_1000,1000,rng-1000,101,rng,num-start-701,701,25726,127.97524523735046,True,,True,1,False,1000,True,1.0
./expes/v2_2020-12-14_dh_1000-prng-1-holes,30_issda_1000,1000,rng-1000,101,rng,num-start-1201,1201,25726,187.8693356513977,True,,True,1,False,1000,True,1.0
./expes/v2_2020-12-14_dh_1000-prng-1-holes,30_issda_1000,1000,rng-1000,801,rng,num-start-1401,1401,25726,318.76718306541443,True,,True,1,False,1000,True,1.0
./expes/v2_2020-12-14_dh_1000-prng-1-holes,30_issda_1000,1000,rng-1000,701,rng,num-start-201,201,25726,1014.0616178512573,False,,False,0,True,1000,True,0.0
./expes/v2_2020-12-14_dh_1000-prng-1-holes,30_issda_1000,1000,rng-1000,101,rng,num-start-1601,1601,25726,390.4252300262451,True,,True,1,False,1000,True,1.0
./expes/v2_2020-12-14_dh_1000-prng-1-holes,30_issda_1000,1000,rng-1000,801,rng,num-start-601,601,25726,149.38496375083923,True,,True,1,False,1000,True,1.0
./expes/v2_2020-12-14_dh_1000-prng-1-holes,30_issda_1000,1000,rng-1000,301,rng,num-start-701,701,25726,246.90401673316956,True,,True,1,False,1000,True,1.0
./expes/v2_2020-12-14_dh_1000-prng-1-holes,30_issda_1000,1000,rng-1000,1,rng,num-start-1301,1301,25726,90.95566153526306,True,,True,1,False,1000,True,1.0
./expes/v2_2020-12-14_dh_1000-prng-1-holes,30_issda_1000,1000,rng-1000,1,rng,num-start-1601,1601,25726,111.79861330986023,True,,True,1,False,1000,True,1.0
./expes/v2_2020-12-14_dh_1000-prng-1-holes,30_issda_1000,1000,rng-1000,101,rng,num-start-1901,1901,25726,381.2868673801422,True,,True,1,False,1000,True,1.0
./expes/v2_2020-12-14_dh_1000-prng-1-holes,30_issda_1000,1000,rng-1000,401,rng,num-start-1801,1801,25726,555.1176884174347,True,,True,1,False,1000,True,1.0
./expes/v2_2020-12-14_dh_1000-prng-1-holes,30_issda_1000,1000,rng-1000,301,rng,num-start-1601,1601,25726,359.9358286857605,True,,True,1,False,1000,True,1.0
./expes/v2_2020-12-14_dh_1000-prng-1-holes,30_issda_1000,1000,rng-1000,301,rng,num-start-1701,1701,25726,543.8872227668762,True,,True,1,False,1000,True,1.0
./expes/v2_2020-12-14_dh_1000-prng-1-holes,30_issda_1000,1000,rng-1000,101,rng,num-start-801,801,25726,117.59107637405396,True,,True,1,False,1000,True,1.0
./expes/v2_2020-12-14_dh_1000-prng-1-holes,30_issda_1000,1000,rng-1000,301,rng,num-start-1801,1801,25726,468.2944939136505,True,,True,1,False,1000,True,1.0
./expes/v2_2020-12-14_dh_1000-prng-1-holes,30_issda_1000,1000,rng-1000,101,rng,num-start-401,401,25726,78.68466281890869,True,,True,1,False,1000,True,1.0
./expes/v2_2020-12-14_dh_1000-prng-1-holes,30_issda_1000,1000,rng-1000,101,rng,num-start-1201,1201,25726,185.66422414779663,True,,True,1,False,1000,True,1.0
./expes/v2_2020-12-14_dh_1000-prng-1-holes,30_issda_1000,1000,rng-1000,401,rng,num-start-1201,1201,25726,376.7733554840088,True,,True,1,False,1000,True,1.0
./expes/v2_2020-12-14_dh_1000-prng-1-holes,30_issda_1000,1000,rng-1000,1,rng,num-start-1301,1301,25726,91.76347351074219,True,,True,1,False,1000,True,1.0
./expes/v2_2020-12-14_dh_1000-prng-1-holes,30_issda_1000,1000,rng-1000,901,rng,num-start-901,901,25726,180.79482698440552,True,,True,1,False,1000,True,1.0
./expes/v2_2020-12-14_dh_1000-prng-1-holes,30_issda_1000,1000,rng-1000,801,rng,num-start-1501,1501,25726,350.70569586753845,True,,True,1,False,1000,True,1.0
./expes/v2_2020-12-14_dh_1000-prng-1-holes,30_issda_1000,1000,rng-1000,201,rng,num-start-201,201,25726,1013.9721298217773,False,,False,0,True,1000,True,0.0
./expes/v2_2020-12-14_dh_1000-prng-1-holes,30_issda_1000,1000,rng-1000,201,rng,num-start-1701,1701,25726,416.73761105537415,True,,True,1,False,1000,True,1.0
./expes/v2_2020-12-14_dh_1000-prng-1-holes,30_issda_1000,1000,rng-1000,801,rng,num-start-701,701,25726,164.7386929988861,True,,True,1,False,1000,True,1.0
./expes/v2_2020-12-14_dh_1000-prng-1-holes,30_issda_1000,1000,rng-1000,101,rng,num-start-1401,1401,25726,258.7544810771942,True,,True,1,False,1000,True,1.0
./expes/v2_2020-12-14_dh_1000-prng-1-holes,30_issda_1000,1000,rng-1000,801,rng,num-start-401,401,25726,73.72252106666565,True,,True,1,False,1000,True,1.0
./expes/v2_2020-12-14_dh_1000-prng-1-holes,30_issda_1000,1000,rng-1000,701,rng,num-start-1001,1001,25726,202.9885334968567,True,,True,1,False,1000,True,1.0
./expes/v2_2020-12-14_dh_1000-prng-1-holes,30_issda_1000,1000,rng-1000,101,rng,num-start-601,601,25726,138.56625747680664,True,,True,1,False,1000,True,1.0
./expes/v2_2020-12-14_dh_1000-prng-1-holes,30_issda_1000,1000,rng-1000,201,rng,num-start-401,401,25726,345.3626458644867,True,,True,1,False,1000,True,1.0
./expes/v2_2020-12-14_dh_1000-prng-1-holes,30_issda_1000,1000,rng-1000,801,rng,num-start-1001,1001,25726,194.3251702785492,True,,True,1,False,1000,True,1.0
./expes/v2_2020-12-14_dh_1000-prng-1-holes,30_issda_1000,1000,rng-1000,701,rng,num-start-1601,1601,25726,405.96492075920105,True,,True,1,False,1000,True,1.0
./expes/v2_2020-12-14_dh_1000-prng-1-holes,30_issda_1000,1000,rng-1000,701,rng,num-start-1101,1101,25726,294.047532081604,True,,True,1,False,1000,True,1.0
./expes/v2_2020-12-14_dh_1000-prng-1-holes,30_issda_1000,1000,rng-1000,801,rng,num-start-1,1,25726,0.10685014724731445,False,,False,2,False,1000,True,1.0
./expes/v2_2020-12-14_dh_1000-prng-1-holes,30_issda_1000,1000,rng-1000,601,rng,num-start-901,901,25726,268.3545467853546,True,,True,1,False,1000,True,1.0
./expes/v2_2020-12-14_dh_1000-prng-1-holes,30_issda_1000,1000,rng-1000,1,rng,num-start-301,301,25726,20.797121286392212,True,,True,1,False,1000,True,1.0
./expes/v2_2020-12-14_dh_1000-prng-1-holes,30_issda_1000,1000,rng-1000,801,rng,num-start-1301,1301,25726,251.80461978912354,True,,True,1,False,1000,True,1.0
./expes/v2_2020-12-14_dh_1000-prng-1-holes,30_issda_1000,1000,rng-1000,601,rng,num-start-301,301,25726,1021.1607432365417,False,,False,0,True,1000,True,0.0
./expes/v2_2020-12-14_dh_1000-prng-1-holes,30_issda_1000,1000,rng-1000,1,rng,num-start-1101,1101,25726,77.69099044799805,True,,True,1,False,1000,True,1.0
./expes/v2_2020-12-14_dh_1000-prng-1-holes,30_issda_1000,1000,rng-1000,401,rng,num-start-201,201,25726,1014.8108422756195,False,,False,0,True,1000,True,0.0
./expes/v2_2020-12-14_dh_1000-prng-1-holes,30_issda_1000,1000,rng-1000,301,rng,num-start-1801,1801,25726,408.1043713092804,True,,True,1,False,1000,True,1.0
./expes/v2_2020-12-14_dh_1000-prng-1-holes,30_issda_1000,1000,rng-1000,401,rng,num-start-1001,1001,25726,283.91356444358826,True,,True,1,False,1000,True,1.0
./expes/v2_2020-12-14_dh_1000-prng-1-holes,30_issda_1000,1000,rng-1000,301,rng,num-start-1501,1501,25726,388.98931908607483,True,,True,1,False,1000,True,1.0
./expes/v2_2020-12-14_dh_1000-prng-1-holes,30_issda_1000,1000,rng-1000,601,rng,num-start-401,401,25726,1029.340826034546,False,,False,0,True,1000,True,0.0
./expes/v2_2020-12-14_dh_1000-prng-1-holes,30_issda_1000,1000,rng-1000,701,rng,num-start-1701,1701,25726,420.2246825695038,True,,True,1,False,1000,True,1.0
