expe,clients,clients_size,clients_subset,agg_size,method,days,days_size,days_total,time,valid,valid_sum,success,nsols,wall_hit,wall_time,pooled,valid_sums
./expes/v2_2020-12-14_dh_1000-prng-1-holes,30_issda_1000,1000,rng-1000,301,rng,num-start-801,801,25726,290.3890414237976,True,,True,1,False,1000,True,1.0
./expes/v2_2020-12-14_dh_1000-prng-1-holes,30_issda_1000,1000,rng-1000,201,rng,num-start-1801,1801,25726,337.799058675766,True,,True,1,False,1000,True,1.0
./expes/v2_2020-12-14_dh_1000-prng-1-holes,30_issda_1000,1000,rng-1000,601,rng,num-start-901,901,25726,268.20563888549805,True,,True,1,False,1000,True,1.0
./expes/v2_2020-12-14_dh_1000-prng-1-holes,30_issda_1000,1000,rng-1000,201,rng,num-start-1,1,25726,1.3111357688903809,False,,False,2,False,1000,True,1.0
./expes/v2_2020-12-14_dh_1000-prng-1-holes,30_issda_1000,1000,rng-1000,601,rng,num-start-1601,1601,25726,360.3092882633209,False,,False,2,False,1000,True,1.0
./expes/v2_2020-12-14_dh_1000-prng-1-holes,30_issda_1000,1000,rng-1000,101,rng,num-start-301,301,25726,38.7928147315979,True,,True,1,False,1000,True,1.0
./expes/v2_2020-12-14_dh_1000-prng-1-holes,30_issda_1000,1000,rng-1000,401,rng,num-start-801,801,25726,188.16616582870483,True,,True,1,False,1000,True,1.0
./expes/v2_2020-12-14_dh_1000-prng-1-holes,30_issda_1000,1000,rng-1000,501,rng,num-start-701,701,25726,165.22091698646545,True,,True,1,False,1000,True,1.0
./expes/v2_2020-12-14_dh_1000-prng-1-holes,30_issda_1000,1000,rng-1000,101,rng,num-start-1901,1901,25726,287.8279309272766,True,,True,1,False,1000,True,1.0
./expes/v2_2020-12-14_dh_1000-prng-1-holes,30_issda_1000,1000,rng-1000,1,rng,num-start-701,701,25726,46.84811854362488,True,,True,1,False,1000,True,1.0
./expes/v2_2020-12-14_dh_1000-prng-1-holes,30_issda_1000,1000,rng-1000,1,rng,num-start-401,401,25726,26.695316314697266,True,,True,1,False,1000,True,1.0
./expes/v2_2020-12-14_dh_1000-prng-1-holes,30_issda_1000,1000,rng-1000,701,rng,num-start-1201,1201,25726,376.8842451572418,True,,True,1,False,1000,True,1.0
./expes/v2_2020-12-14_dh_1000-prng-1-holes,30_issda_1000,1000,rng-1000,501,rng,num-start-1801,1801,25726,494.885635137558,True,,True,1,False,1000,True,1.0
./expes/v2_2020-12-14_dh_1000-prng-1-holes,30_issda_1000,1000,rng-1000,701,rng,num-start-601,601,25726,619.7658612728119,True,,True,1,False,1000,True,1.0
./expes/v2_2020-12-14_dh_1000-prng-1-holes,30_issda_1000,1000,rng-1000,1,rng,num-start-701,701,25726,48.09505081176758,True,,True,1,False,1000,True,1.0
./expes/v2_2020-12-14_dh_1000-prng-1-holes,30_issda_1000,1000,rng-1000,401,rng,num-start-201,201,25726,1013.9703555107117,False,,False,0,True,1000,True,0.0
./expes/v2_2020-12-14_dh_1000-prng-1-holes,30_issda_1000,1000,rng-1000,501,rng,num-start-301,301,25726,1021.2080707550049,False,,False,0,True,1000,True,0.0
./expes/v2_2020-12-14_dh_1000-prng-1-holes,30_issda_1000,1000,rng-1000,701,rng,num-start-801,801,25726,194.41238808631897,True,,True,1,False,1000,True,1.0
./expes/v2_2020-12-14_dh_1000-prng-1-holes,30_issda_1000,1000,rng-1000,601,rng,num-start-1,1,25726,0.27343153953552246,False,,False,2,False,1000,True,1.0
./expes/v2_2020-12-14_dh_1000-prng-1-holes,30_issda_1000,1000,rng-1000,1,rng,num-start-1701,1701,25726,119.709965467453,True,,True,1,False,1000,True,1.0
./expes/v2_2020-12-14_dh_1000-prng-1-holes,30_issda_1000,1000,rng-1000,501,rng,num-start-801,801,25726,219.66309189796448,True,,True,1,False,1000,True,1.0
./expes/v2_2020-12-14_dh_1000-prng-1-holes,30_issda_1000,1000,rng-1000,501,rng,num-start-401,401,25726,1028.0710389614105,False,,False,0,True,1000,True,0.0
./expes/v2_2020-12-14_dh_1000-prng-1-holes,30_issda_1000,1000,rng-1000,1,rng,num-start-1501,1501,25726,105.58166027069092,True,,True,1,False,1000,True,1.0
./expes/v2_2020-12-14_dh_1000-prng-1-holes,30_issda_1000,1000,rng-1000,1,rng,num-start-1801,1801,25726,120.00347208976746,True,,True,1,False,1000,True,1.0
./expes/v2_2020-12-14_dh_1000-prng-1-holes,30_issda_1000,1000,rng-1000,601,rng,num-start-1,1,25726,0.17897367477416992,False,,False,2,False,1000,True,1.0
./expes/v2_2020-12-14_dh_1000-prng-1-holes,30_issda_1000,1000,rng-1000,701,rng,num-start-1401,1401,25726,297.66749143600464,True,,True,1,False,1000,True,1.0
./expes/v2_2020-12-14_dh_1000-prng-1-holes,30_issda_1000,1000,rng-1000,101,rng,num-start-1901,1901,25726,316.135751247406,True,,True,1,False,1000,True,1.0
./expes/v2_2020-12-14_dh_1000-prng-1-holes,30_issda_1000,1000,rng-1000,701,rng,num-start-1801,1801,25726,364.4160532951355,True,,True,1,False,1000,True,1.0
./expes/v2_2020-12-14_dh_1000-prng-1-holes,30_issda_1000,1000,rng-1000,801,rng,num-start-1501,1501,25726,376.19036173820496,True,,True,1,False,1000,True,1.0
./expes/v2_2020-12-14_dh_1000-prng-1-holes,30_issda_1000,1000,rng-1000,801,rng,num-start-301,301,25726,1020.6610383987427,False,,False,0,True,1000,True,0.0
./expes/v2_2020-12-14_dh_1000-prng-1-holes,30_issda_1000,1000,rng-1000,501,rng,num-start-1801,1801,25726,506.87770438194275,True,,True,1,False,1000,True,1.0
./expes/v2_2020-12-14_dh_1000-prng-1-holes,30_issda_1000,1000,rng-1000,901,rng,num-start-301,301,25726,48.28501224517822,True,,True,1,False,1000,True,1.0
./expes/v2_2020-12-14_dh_1000-prng-1-holes,30_issda_1000,1000,rng-1000,801,rng,num-start-1101,1101,25726,282.1717712879181,True,,True,1,False,1000,True,1.0
./expes/v2_2020-12-14_dh_1000-prng-1-holes,30_issda_1000,1000,rng-1000,601,rng,num-start-501,501,25726,195.5074954032898,False,,False,2,False,1000,True,1.0
./expes/v2_2020-12-14_dh_1000-prng-1-holes,30_issda_1000,1000,rng-1000,201,rng,num-start-701,701,25726,158.00768041610718,True,,True,1,False,1000,True,1.0
./expes/v2_2020-12-14_dh_1000-prng-1-holes,30_issda_1000,1000,rng-1000,601,rng,num-start-1201,1201,25726,287.58751940727234,True,,True,1,False,1000,True,1.0
./expes/v2_2020-12-14_dh_1000-prng-1-holes,30_issda_1000,1000,rng-1000,601,rng,num-start-1401,1401,25726,361.0643093585968,True,,True,1,False,1000,True,1.0
./expes/v2_2020-12-14_dh_1000-prng-1-holes,30_issda_1000,1000,rng-1000,201,rng,num-start-1601,1601,25726,370.161936044693,True,,True,1,False,1000,True,1.0
./expes/v2_2020-12-14_dh_1000-prng-1-holes,30_issda_1000,1000,rng-1000,101,rng,num-start-1401,1401,25726,536.7529048919678,True,,True,1,False,1000,True,1.0
./expes/v2_2020-12-14_dh_1000-prng-1-holes,30_issda_1000,1000,rng-1000,401,rng,num-start-301,301,25726,1021.3030476570129,False,,False,0,True,1000,True,0.0
./expes/v2_2020-12-14_dh_1000-prng-1-holes,30_issda_1000,1000,rng-1000,501,rng,num-start-1901,1901,25726,336.95957255363464,True,,True,1,False,1000,True,1.0
./expes/v2_2020-12-14_dh_1000-prng-1-holes,30_issda_1000,1000,rng-1000,1,rng,num-start-1501,1501,25726,102.27030611038208,True,,True,1,False,1000,True,1.0
./expes/v2_2020-12-14_dh_1000-prng-1-holes,30_issda_1000,1000,rng-1000,501,rng,num-start-1601,1601,25726,395.69713497161865,True,,True,1,False,1000,True,1.0
./expes/v2_2020-12-14_dh_1000-prng-1-holes,30_issda_1000,1000,rng-1000,901,rng,num-start-1901,1901,25726,349.8441421985626,True,,True,1,False,1000,True,1.0
./expes/v2_2020-12-14_dh_1000-prng-1-holes,30_issda_1000,1000,rng-1000,501,rng,num-start-601,601,25726,796.6660296916962,True,,True,1,False,1000,True,1.0
./expes/v2_2020-12-14_dh_1000-prng-1-holes,30_issda_1000,1000,rng-1000,701,rng,num-start-401,401,25726,744.6489894390106,True,,True,1,False,1000,True,1.0
./expes/v2_2020-12-14_dh_1000-prng-1-holes,30_issda_1000,1000,rng-1000,201,rng,num-start-1701,1701,25726,345.2208299636841,True,,False,2,False,1000,True,1.0
./expes/v2_2020-12-14_dh_1000-prng-1-holes,30_issda_1000,1000,rng-1000,1,rng,num-start-101,101,25726,6.402061462402344,True,,True,1,False,1000,True,1.0
./expes/v2_2020-12-14_dh_1000-prng-1-holes,30_issda_1000,1000,rng-1000,301,rng,num-start-1801,1801,25726,352.84934639930725,True,,True,1,False,1000,True,1.0
./expes/v2_2020-12-14_dh_1000-prng-1-holes,30_issda_1000,1000,rng-1000,701,rng,num-start-1601,1601,25726,349.88323950767517,True,,True,1,False,1000,True,1.0
./expes/v2_2020-12-14_dh_1000-prng-1-holes,30_issda_1000,1000,rng-1000,501,rng,num-start-1201,1201,25726,320.1662971973419,True,,True,1,False,1000,True,1.0
./expes/v2_2020-12-14_dh_1000-prng-1-holes,30_issda_1000,1000,rng-1000,701,rng,num-start-1001,1001,25726,167.6370415687561,False,,False,2,False,1000,True,1.0
./expes/v2_2020-12-14_dh_1000-prng-1-holes,30_issda_1000,1000,rng-1000,101,rng,num-start-301,301,25726,56.86023426055908,True,,True,1,False,1000,True,1.0
./expes/v2_2020-12-14_dh_1000-prng-1-holes,30_issda_1000,1000,rng-1000,601,rng,num-start-1601,1601,25726,409.4747316837311,True,,True,1,False,1000,True,1.0
./expes/v2_2020-12-14_dh_1000-prng-1-holes,30_issda_1000,1000,rng-1000,101,rng,num-start-201,201,25726,1014.0721774101257,False,,False,0,True,1000,True,0.0
./expes/v2_2020-12-14_dh_1000-prng-1-holes,30_issda_1000,1000,rng-1000,601,rng,num-start-1601,1601,25726,449.5079553127289,True,,True,1,False,1000,True,1.0
