expe,clients,clients_size,clients_subset,agg_size,method,days,days_size,days_total,time,valid,valid_sum,success,nsols,wall_hit,wall_time,pooled,valid_sums
./expes/v2_2020-12-02_dh_200-prng-1,30_issda_200,200,rng-200,91,rng,num-start-10001,10001,25726,161.13291811943054,True,,True,1,False,1000,True,1.0
./expes/v2_2020-12-02_dh_200-prng-1,30_issda_200,200,rng-200,61,rng,num-start-12001,12001,25726,169.09765100479126,True,,True,1,False,1000,True,1.0
./expes/v2_2020-12-02_dh_200-prng-1,30_issda_200,200,rng-200,21,rng,num-start-12001,12001,25726,229.48074293136597,True,,True,1,False,1000,True,1.0
./expes/v2_2020-12-02_dh_200-prng-1,30_issda_200,200,rng-200,91,rng,num-start-11001,11001,25726,201.17917203903198,True,,True,1,False,1000,True,1.0
./expes/v2_2020-12-02_dh_200-prng-1,30_issda_200,200,rng-200,91,rng,num-start-12001,12001,25726,226.23467326164246,True,,True,1,False,1000,True,1.0
./expes/v2_2020-12-02_dh_200-prng-1,30_issda_200,200,rng-200,101,rng,num-start-6001,6001,25726,81.01906967163086,True,,True,1,False,1000,True,1.0
./expes/v2_2020-12-02_dh_200-prng-1,30_issda_200,200,rng-200,111,rng,num-start-11001,11001,25726,206.8665270805359,True,,True,1,False,1000,True,1.0
./expes/v2_2020-12-02_dh_200-prng-1,30_issda_200,200,rng-200,131,rng,num-start-12001,12001,25726,199.00940203666687,True,,True,1,False,1000,True,1.0
./expes/v2_2020-12-02_dh_200-prng-1,30_issda_200,200,rng-200,41,rng,num-start-10001,10001,25726,130.6511561870575,True,,True,1,False,1000,True,1.0
./expes/v2_2020-12-02_dh_200-prng-1,30_issda_200,200,rng-200,101,rng,num-start-12001,12001,25726,185.1731653213501,True,,True,1,False,1000,True,1.0
./expes/v2_2020-12-02_dh_200-prng-1,30_issda_200,200,rng-200,191,rng,num-start-2001,2001,25726,20.18393564224243,True,,True,1,False,1000,True,1.0
./expes/v2_2020-12-02_dh_200-prng-1,30_issda_200,200,rng-200,151,rng,num-start-16001,16001,25726,286.1380569934845,True,,True,1,False,1000,True,1.0
./expes/v2_2020-12-02_dh_200-prng-1,30_issda_200,200,rng-200,61,rng,num-start-12001,12001,25726,154.6476171016693,True,,True,1,False,1000,True,1.0
./expes/v2_2020-12-02_dh_200-prng-1,30_issda_200,200,rng-200,191,rng,num-start-8001,8001,25726,79.3642373085022,True,,True,1,False,1000,True,1.0
./expes/v2_2020-12-02_dh_200-prng-1,30_issda_200,200,rng-200,71,rng,num-start-12001,12001,25726,174.36044049263,True,,True,1,False,1000,True,1.0
./expes/v2_2020-12-02_dh_200-prng-1,30_issda_200,200,rng-200,101,rng,num-start-1,1,25726,0.05087471008300781,False,,False,2,False,1000,True,1.0
./expes/v2_2020-12-02_dh_200-prng-1,30_issda_200,200,rng-200,111,rng,num-start-16001,16001,25726,267.57542610168457,True,,True,1,False,1000,True,1.0
./expes/v2_2020-12-02_dh_200-prng-1,30_issda_200,200,rng-200,11,rng,num-start-1,1,25726,0.024829864501953125,False,,False,2,False,1000,True,1.0
./expes/v2_2020-12-02_dh_200-prng-1,30_issda_200,200,rng-200,51,rng,num-start-13001,13001,25726,191.1152901649475,True,,True,1,False,1000,True,1.0
./expes/v2_2020-12-02_dh_200-prng-1,30_issda_200,200,rng-200,131,rng,num-start-14001,14001,25726,240.83735394477844,True,,True,1,False,1000,True,1.0
./expes/v2_2020-12-02_dh_200-prng-1,30_issda_200,200,rng-200,191,rng,num-start-14001,14001,25726,139.40250897407532,True,,True,1,False,1000,True,1.0
./expes/v2_2020-12-02_dh_200-prng-1,30_issda_200,200,rng-200,101,rng,num-start-16001,16001,25726,220.07260036468506,True,,True,1,False,1000,True,1.0
./expes/v2_2020-12-02_dh_200-prng-1,30_issda_200,200,rng-200,11,rng,num-start-8001,8001,25726,79.3330774307251,True,,True,1,False,1000,True,1.0
./expes/v2_2020-12-02_dh_200-prng-1,30_issda_200,200,rng-200,61,rng,num-start-8001,8001,25726,102.78019094467163,True,,True,1,False,1000,True,1.0
./expes/v2_2020-12-02_dh_200-prng-1,30_issda_200,200,rng-200,161,rng,num-start-13001,13001,25726,196.42542171478271,True,,True,1,False,1000,True,1.0
./expes/v2_2020-12-02_dh_200-prng-1,30_issda_200,200,rng-200,101,rng,num-start-8001,8001,25726,132.47209978103638,True,,True,1,False,1000,True,1.0
./expes/v2_2020-12-02_dh_200-prng-1,30_issda_200,200,rng-200,1,rng,num-start-1,1,25726,0.02762436866760254,True,,True,1,False,1000,True,1.0
./expes/v2_2020-12-02_dh_200-prng-1,30_issda_200,200,rng-200,81,rng,num-start-15001,15001,25726,257.4459054470062,True,,True,1,False,1000,True,1.0
./expes/v2_2020-12-02_dh_200-prng-1,30_issda_200,200,rng-200,1,rng,num-start-8001,8001,25726,79.3839418888092,True,,True,1,False,1000,True,1.0
./expes/v2_2020-12-02_dh_200-prng-1,30_issda_200,200,rng-200,191,rng,num-start-12001,12001,25726,118.48208594322205,True,,True,1,False,1000,True,1.0
./expes/v2_2020-12-02_dh_200-prng-1,30_issda_200,200,rng-200,51,rng,num-start-8001,8001,25726,125.77238726615906,True,,True,1,False,1000,True,1.0
./expes/v2_2020-12-02_dh_200-prng-1,30_issda_200,200,rng-200,11,rng,num-start-1,1,25726,0.050789833068847656,False,,False,2,False,1000,True,1.0
./expes/v2_2020-12-02_dh_200-prng-1,30_issda_200,200,rng-200,41,rng,num-start-10001,10001,25726,129.13379907608032,True,,True,1,False,1000,True,1.0
./expes/v2_2020-12-02_dh_200-prng-1,30_issda_200,200,rng-200,21,rng,num-start-1001,1001,25726,14.692007303237915,True,,True,1,False,1000,True,1.0
./expes/v2_2020-12-02_dh_200-prng-1,30_issda_200,200,rng-200,91,rng,num-start-5001,5001,25726,67.24989461898804,True,,True,1,False,1000,True,1.0
./expes/v2_2020-12-02_dh_200-prng-1,30_issda_200,200,rng-200,101,rng,num-start-4001,4001,25726,61.944941997528076,True,,True,1,False,1000,True,1.0
./expes/v2_2020-12-02_dh_200-prng-1,30_issda_200,200,rng-200,61,rng,num-start-15001,15001,25726,214.90623450279236,True,,True,1,False,1000,True,1.0
./expes/v2_2020-12-02_dh_200-prng-1,30_issda_200,200,rng-200,61,rng,num-start-3001,3001,25726,42.01678156852722,True,,True,1,False,1000,True,1.0
./expes/v2_2020-12-02_dh_200-prng-1,30_issda_200,200,rng-200,21,rng,num-start-15001,15001,25726,177.3740096092224,True,,True,1,False,1000,True,1.0
./expes/v2_2020-12-02_dh_200-prng-1,30_issda_200,200,rng-200,171,rng,num-start-4001,4001,25726,75.89439368247986,True,,True,1,False,1000,True,1.0
./expes/v2_2020-12-02_dh_200-prng-1,30_issda_200,200,rng-200,21,rng,num-start-7001,7001,25726,102.88697576522827,True,,True,1,False,1000,True,1.0
./expes/v2_2020-12-02_dh_200-prng-1,30_issda_200,200,rng-200,31,rng,num-start-9001,9001,25726,179.34187579154968,True,,True,1,False,1000,True,1.0
./expes/v2_2020-12-02_dh_200-prng-1,30_issda_200,200,rng-200,101,rng,num-start-15001,15001,25726,284.10471653938293,True,,True,1,False,1000,True,1.0
./expes/v2_2020-12-02_dh_200-prng-1,30_issda_200,200,rng-200,171,rng,num-start-1001,1001,25726,12.254977703094482,True,,True,1,False,1000,True,1.0
./expes/v2_2020-12-02_dh_200-prng-1,30_issda_200,200,rng-200,91,rng,num-start-16001,16001,25726,248.18586111068726,True,,True,1,False,1000,True,1.0
./expes/v2_2020-12-02_dh_200-prng-1,30_issda_200,200,rng-200,181,rng,num-start-1,1,25726,0.052710533142089844,False,,False,2,False,1000,True,1.0
./expes/v2_2020-12-02_dh_200-prng-1,30_issda_200,200,rng-200,31,rng,num-start-9001,9001,25726,122.92302083969116,True,,True,1,False,1000,True,1.0
./expes/v2_2020-12-02_dh_200-prng-1,30_issda_200,200,rng-200,131,rng,num-start-7001,7001,25726,100.20073246955872,True,,True,1,False,1000,True,1.0
./expes/v2_2020-12-02_dh_200-prng-1,30_issda_200,200,rng-200,21,rng,num-start-1001,1001,25726,13.081788539886475,True,,True,1,False,1000,True,1.0
./expes/v2_2020-12-02_dh_200-prng-1,30_issda_200,200,rng-200,181,rng,num-start-10001,10001,25726,131.80162477493286,True,,True,1,False,1000,True,1.0
./expes/v2_2020-12-02_dh_200-prng-1,30_issda_200,200,rng-200,151,rng,num-start-11001,11001,25726,161.73619723320007,True,,True,1,False,1000,True,1.0
./expes/v2_2020-12-02_dh_200-prng-1,30_issda_200,200,rng-200,21,rng,num-start-14001,14001,25726,192.1363422870636,True,,True,1,False,1000,True,1.0
./expes/v2_2020-12-02_dh_200-prng-1,30_issda_200,200,rng-200,21,rng,num-start-16001,16001,25726,176.7536907196045,True,,True,1,False,1000,True,1.0
./expes/v2_2020-12-02_dh_200-prng-1,30_issda_200,200,rng-200,21,rng,num-start-3001,3001,25726,38.114933490753174,True,,True,1,False,1000,True,1.0
./expes/v2_2020-12-02_dh_200-prng-1,30_issda_200,200,rng-200,131,rng,num-start-12001,12001,25726,197.5744366645813,True,,True,1,False,1000,True,1.0
./expes/v2_2020-12-02_dh_200-prng-1,30_issda_200,200,rng-200,41,rng,num-start-10001,10001,25726,129.64735507965088,True,,True,1,False,1000,True,1.0
./expes/v2_2020-12-02_dh_200-prng-1,30_issda_200,200,rng-200,181,rng,num-start-1,1,25726,0.05060696601867676,False,,False,2,False,1000,True,1.0
./expes/v2_2020-12-02_dh_200-prng-1,30_issda_200,200,rng-200,31,rng,num-start-11001,11001,25726,133.5601167678833,True,,True,1,False,1000,True,1.0
./expes/v2_2020-12-02_dh_200-prng-1,30_issda_200,200,rng-200,41,rng,num-start-8001,8001,25726,97.74418902397156,True,,True,1,False,1000,True,1.0
./expes/v2_2020-12-02_dh_200-prng-1,30_issda_200,200,rng-200,51,rng,num-start-15001,15001,25726,215.77001333236694,True,,True,1,False,1000,True,1.0
./expes/v2_2020-12-02_dh_200-prng-1,30_issda_200,200,rng-200,91,rng,num-start-8001,8001,25726,126.32456851005554,True,,True,1,False,1000,True,1.0
./expes/v2_2020-12-02_dh_200-prng-1,30_issda_200,200,rng-200,101,rng,num-start-15001,15001,25726,274.0644881725311,True,,True,1,False,1000,True,1.0
./expes/v2_2020-12-02_dh_200-prng-1,30_issda_200,200,rng-200,191,rng,num-start-15001,15001,25726,152.01616883277893,True,,True,1,False,1000,True,1.0
./expes/v2_2020-12-02_dh_200-prng-1,30_issda_200,200,rng-200,21,rng,num-start-15001,15001,25726,201.9514081478119,True,,True,1,False,1000,True,1.0
./expes/v2_2020-12-02_dh_200-prng-1,30_issda_200,200,rng-200,171,rng,num-start-6001,6001,25726,86.1990954875946,True,,True,1,False,1000,True,1.0
./expes/v2_2020-12-02_dh_200-prng-1,30_issda_200,200,rng-200,71,rng,num-start-7001,7001,25726,120.10782504081726,True,,True,1,False,1000,True,1.0
./expes/v2_2020-12-02_dh_200-prng-1,30_issda_200,200,rng-200,181,rng,num-start-9001,9001,25726,104.72363710403442,True,,True,1,False,1000,True,1.0
./expes/v2_2020-12-02_dh_200-prng-1,30_issda_200,200,rng-200,11,rng,num-start-12001,12001,25726,117.78461289405823,True,,True,1,False,1000,True,1.0
./expes/v2_2020-12-02_dh_200-prng-1,30_issda_200,200,rng-200,171,rng,num-start-6001,6001,25726,73.52961778640747,True,,True,1,False,1000,True,1.0
./expes/v2_2020-12-02_dh_200-prng-1,30_issda_200,200,rng-200,51,rng,num-start-9001,9001,25726,158.17983984947205,True,,True,1,False,1000,True,1.0
./expes/v2_2020-12-02_dh_200-prng-1,30_issda_200,200,rng-200,191,rng,num-start-16001,16001,25726,166.28822827339172,True,,True,1,False,1000,True,1.0
./expes/v2_2020-12-02_dh_200-prng-1,30_issda_200,200,rng-200,191,rng,num-start-2001,2001,25726,21.454832315444946,True,,True,1,False,1000,True,1.0
./expes/v2_2020-12-02_dh_200-prng-1,30_issda_200,200,rng-200,181,rng,num-start-8001,8001,25726,99.1104507446289,True,,True,1,False,1000,True,1.0
./expes/v2_2020-12-02_dh_200-prng-1,30_issda_200,200,rng-200,111,rng,num-start-2001,2001,25726,25.112478494644165,True,,True,1,False,1000,True,1.0
./expes/v2_2020-12-02_dh_200-prng-1,30_issda_200,200,rng-200,111,rng,num-start-11001,11001,25726,194.1311810016632,True,,True,1,False,1000,True,1.0
./expes/v2_2020-12-02_dh_200-prng-1,30_issda_200,200,rng-200,71,rng,num-start-15001,15001,25726,221.74903631210327,True,,True,1,False,1000,True,1.0
./expes/v2_2020-12-02_dh_200-prng-1,30_issda_200,200,rng-200,91,rng,num-start-9001,9001,25726,146.4692509174347,True,,True,1,False,1000,True,1.0
./expes/v2_2020-12-02_dh_200-prng-1,30_issda_200,200,rng-200,11,rng,num-start-7001,7001,25726,76.55065941810608,True,,True,1,False,1000,True,1.0
./expes/v2_2020-12-02_dh_200-prng-1,30_issda_200,200,rng-200,191,rng,num-start-2001,2001,25726,19.89748501777649,True,,True,1,False,1000,True,1.0
./expes/v2_2020-12-02_dh_200-prng-1,30_issda_200,200,rng-200,91,rng,num-start-6001,6001,25726,95.1017701625824,True,,True,1,False,1000,True,1.0
./expes/v2_2020-12-02_dh_200-prng-1,30_issda_200,200,rng-200,61,rng,num-start-6001,6001,25726,94.06363296508789,True,,True,1,False,1000,True,1.0
./expes/v2_2020-12-02_dh_200-prng-1,30_issda_200,200,rng-200,161,rng,num-start-10001,10001,25726,130.15583062171936,True,,True,1,False,1000,True,1.0
./expes/v2_2020-12-02_dh_200-prng-1,30_issda_200,200,rng-200,21,rng,num-start-13001,13001,25726,157.02038860321045,True,,True,1,False,1000,True,1.0
./expes/v2_2020-12-02_dh_200-prng-1,30_issda_200,200,rng-200,101,rng,num-start-4001,4001,25726,56.51374793052673,True,,True,1,False,1000,True,1.0
./expes/v2_2020-12-02_dh_200-prng-1,30_issda_200,200,rng-200,41,rng,num-start-10001,10001,25726,129.87862372398376,True,,True,1,False,1000,True,1.0
./expes/v2_2020-12-02_dh_200-prng-1,30_issda_200,200,rng-200,191,rng,num-start-2001,2001,25726,20.02312970161438,True,,True,1,False,1000,True,1.0
./expes/v2_2020-12-02_dh_200-prng-1,30_issda_200,200,rng-200,121,rng,num-start-13001,13001,25726,198.76799869537354,True,,True,1,False,1000,True,1.0
./expes/v2_2020-12-02_dh_200-prng-1,30_issda_200,200,rng-200,171,rng,num-start-3001,3001,25726,53.063271045684814,True,,True,1,False,1000,True,1.0
./expes/v2_2020-12-02_dh_200-prng-1,30_issda_200,200,rng-200,81,rng,num-start-14001,14001,25726,201.5682713985443,True,,True,1,False,1000,True,1.0
./expes/v2_2020-12-02_dh_200-prng-1,30_issda_200,200,rng-200,31,rng,num-start-16001,16001,25726,194.04018998146057,True,,True,1,False,1000,True,1.0
./expes/v2_2020-12-02_dh_200-prng-1,30_issda_200,200,rng-200,81,rng,num-start-7001,7001,25726,94.93439793586731,True,,True,1,False,1000,True,1.0
./expes/v2_2020-12-02_dh_200-prng-1,30_issda_200,200,rng-200,181,rng,num-start-5001,5001,25726,64.79348993301392,True,,True,1,False,1000,True,1.0
./expes/v2_2020-12-02_dh_200-prng-1,30_issda_200,200,rng-200,141,rng,num-start-10001,10001,25726,195.52074933052063,True,,True,1,False,1000,True,1.0
./expes/v2_2020-12-02_dh_200-prng-1,30_issda_200,200,rng-200,171,rng,num-start-5001,5001,25726,73.05293869972229,True,,True,1,False,1000,True,1.0
./expes/v2_2020-12-02_dh_200-prng-1,30_issda_200,200,rng-200,161,rng,num-start-9001,9001,25726,130.3115749359131,True,,True,1,False,1000,True,1.0
./expes/v2_2020-12-02_dh_200-prng-1,30_issda_200,200,rng-200,151,rng,num-start-11001,11001,25726,179.92963290214539,True,,True,1,False,1000,True,1.0
./expes/v2_2020-12-02_dh_200-prng-1,30_issda_200,200,rng-200,71,rng,num-start-6001,6001,25726,77.46921730041504,True,,True,1,False,1000,True,1.0
./expes/v2_2020-12-02_dh_200-prng-1,30_issda_200,200,rng-200,121,rng,num-start-3001,3001,25726,42.185885429382324,True,,True,1,False,1000,True,1.0
./expes/v2_2020-12-02_dh_200-prng-1,30_issda_200,200,rng-200,151,rng,num-start-1,1,25726,0.2965400218963623,False,,False,2,False,1000,True,1.0
./expes/v2_2020-12-02_dh_200-prng-1,30_issda_200,200,rng-200,41,rng,num-start-3001,3001,25726,45.45549392700195,True,,True,1,False,1000,True,1.0
./expes/v2_2020-12-02_dh_200-prng-1,30_issda_200,200,rng-200,191,rng,num-start-6001,6001,25726,59.42862343788147,True,,True,1,False,1000,True,1.0
./expes/v2_2020-12-02_dh_200-prng-1,30_issda_200,200,rng-200,71,rng,num-start-2001,2001,25726,24.988839626312256,True,,True,1,False,1000,True,1.0
./expes/v2_2020-12-02_dh_200-prng-1,30_issda_200,200,rng-200,171,rng,num-start-13001,13001,25726,201.76022744178772,True,,True,1,False,1000,True,1.0
./expes/v2_2020-12-02_dh_200-prng-1,30_issda_200,200,rng-200,71,rng,num-start-15001,15001,25726,198.42362141609192,True,,True,1,False,1000,True,1.0
./expes/v2_2020-12-02_dh_200-prng-1,30_issda_200,200,rng-200,121,rng,num-start-12001,12001,25726,164.94068098068237,True,,True,1,False,1000,True,1.0
./expes/v2_2020-12-02_dh_200-prng-1,30_issda_200,200,rng-200,121,rng,num-start-10001,10001,25726,203.83750557899475,True,,True,1,False,1000,True,1.0
./expes/v2_2020-12-02_dh_200-prng-1,30_issda_200,200,rng-200,1,rng,num-start-14001,14001,25726,138.58277487754822,True,,True,1,False,1000,True,1.0
./expes/v2_2020-12-02_dh_200-prng-1,30_issda_200,200,rng-200,141,rng,num-start-2001,2001,25726,27.514827013015747,True,,True,1,False,1000,True,1.0
./expes/v2_2020-12-02_dh_200-prng-1,30_issda_200,200,rng-200,141,rng,num-start-16001,16001,25726,262.0511746406555,True,,True,1,False,1000,True,1.0
./expes/v2_2020-12-02_dh_200-prng-1,30_issda_200,200,rng-200,71,rng,num-start-9001,9001,25726,160.01191401481628,True,,True,1,False,1000,True,1.0
./expes/v2_2020-12-02_dh_200-prng-1,30_issda_200,200,rng-200,141,rng,num-start-1,1,25726,0.033776283264160156,False,,False,2,False,1000,True,1.0
./expes/v2_2020-12-02_dh_200-prng-1,30_issda_200,200,rng-200,151,rng,num-start-15001,15001,25726,194.49901461601257,True,,True,1,False,1000,True,1.0
./expes/v2_2020-12-02_dh_200-prng-1,30_issda_200,200,rng-200,1,rng,num-start-4001,4001,25726,39.64927577972412,True,,True,1,False,1000,True,1.0
./expes/v2_2020-12-02_dh_200-prng-1,30_issda_200,200,rng-200,31,rng,num-start-7001,7001,25726,80.11394715309143,True,,True,1,False,1000,True,1.0
./expes/v2_2020-12-02_dh_200-prng-1,30_issda_200,200,rng-200,51,rng,num-start-15001,15001,25726,207.36713004112244,True,,True,1,False,1000,True,1.0
./expes/v2_2020-12-02_dh_200-prng-1,30_issda_200,200,rng-200,51,rng,num-start-4001,4001,25726,48.8844780921936,True,,True,1,False,1000,True,1.0
./expes/v2_2020-12-02_dh_200-prng-1,30_issda_200,200,rng-200,81,rng,num-start-2001,2001,25726,25.731616258621216,True,,True,1,False,1000,True,1.0
./expes/v2_2020-12-02_dh_200-prng-1,30_issda_200,200,rng-200,11,rng,num-start-15001,15001,25726,164.01474022865295,True,,True,1,False,1000,True,1.0
./expes/v2_2020-12-02_dh_200-prng-1,30_issda_200,200,rng-200,151,rng,num-start-5001,5001,25726,63.63544178009033,True,,True,1,False,1000,True,1.0
./expes/v2_2020-12-02_dh_200-prng-1,30_issda_200,200,rng-200,31,rng,num-start-7001,7001,25726,107.52409172058105,True,,True,1,False,1000,True,1.0
./expes/v2_2020-12-02_dh_200-prng-1,30_issda_200,200,rng-200,21,rng,num-start-16001,16001,25726,260.6561789512634,True,,True,1,False,1000,True,1.0
./expes/v2_2020-12-02_dh_200-prng-1,30_issda_200,200,rng-200,131,rng,num-start-3001,3001,25726,37.867780923843384,True,,True,1,False,1000,True,1.0
./expes/v2_2020-12-02_dh_200-prng-1,30_issda_200,200,rng-200,21,rng,num-start-12001,12001,25726,164.0765619277954,True,,True,1,False,1000,True,1.0
./expes/v2_2020-12-02_dh_200-prng-1,30_issda_200,200,rng-200,11,rng,num-start-6001,6001,25726,62.678144454956055,True,,True,1,False,1000,True,1.0
./expes/v2_2020-12-02_dh_200-prng-1,30_issda_200,200,rng-200,101,rng,num-start-13001,13001,25726,219.09936475753784,True,,True,1,False,1000,True,1.0
./expes/v2_2020-12-02_dh_200-prng-1,30_issda_200,200,rng-200,21,rng,num-start-8001,8001,25726,97.07704854011536,True,,True,1,False,1000,True,1.0
./expes/v2_2020-12-02_dh_200-prng-1,30_issda_200,200,rng-200,51,rng,num-start-10001,10001,25726,215.75904250144958,True,,True,1,False,1000,True,1.0
./expes/v2_2020-12-02_dh_200-prng-1,30_issda_200,200,rng-200,91,rng,num-start-4001,4001,25726,57.49974584579468,True,,True,1,False,1000,True,1.0
./expes/v2_2020-12-02_dh_200-prng-1,30_issda_200,200,rng-200,161,rng,num-start-2001,2001,25726,35.07943773269653,True,,True,1,False,1000,True,1.0
./expes/v2_2020-12-02_dh_200-prng-1,30_issda_200,200,rng-200,131,rng,num-start-9001,9001,25726,177.649982213974,True,,True,1,False,1000,True,1.0
./expes/v2_2020-12-02_dh_200-prng-1,30_issda_200,200,rng-200,101,rng,num-start-11001,11001,25726,212.267085313797,True,,True,1,False,1000,True,1.0
./expes/v2_2020-12-02_dh_200-prng-1,30_issda_200,200,rng-200,131,rng,num-start-11001,11001,25726,162.11953258514404,True,,True,1,False,1000,True,1.0
./expes/v2_2020-12-02_dh_200-prng-1,30_issda_200,200,rng-200,111,rng,num-start-11001,11001,25726,154.46730399131775,True,,True,1,False,1000,True,1.0
