expe,clients,clients_size,clients_subset,agg_size,method,days,days_size,days_total,time,valid,valid_sum,success,nsols,wall_hit,wall_time,pooled,valid_sums
./expes/v2_2020-12-02_dh_200-prng-1,30_issda_200,200,rng-200,151,rng,num-start-11001,11001,25726,317.0396189689636,True,,True,1,False,1000,True,1.0
./expes/v2_2020-12-02_dh_200-prng-1,30_issda_200,200,rng-200,81,rng,num-start-3001,3001,25726,87.45524907112122,True,,True,1,False,1000,True,1.0
./expes/v2_2020-12-02_dh_200-prng-1,30_issda_200,200,rng-200,161,rng,num-start-16001,16001,25726,442.8145864009857,True,,True,1,False,1000,True,1.0
./expes/v2_2020-12-02_dh_200-prng-1,30_issda_200,200,rng-200,181,rng,num-start-6001,6001,25726,146.2686321735382,True,,True,1,False,1000,True,1.0
./expes/v2_2020-12-02_dh_200-prng-1,30_issda_200,200,rng-200,161,rng,num-start-5001,5001,25726,134.4283001422882,True,,True,1,False,1000,True,1.0
./expes/v2_2020-12-02_dh_200-prng-1,30_issda_200,200,rng-200,151,rng,num-start-9001,9001,25726,225.68173503875732,True,,True,1,False,1000,True,1.0
./expes/v2_2020-12-02_dh_200-prng-1,30_issda_200,200,rng-200,91,rng,num-start-1,1,25726,0.056485891342163086,False,,False,2,False,1000,True,1.0
./expes/v2_2020-12-02_dh_200-prng-1,30_issda_200,200,rng-200,11,rng,num-start-14001,14001,25726,313.51320600509644,True,,True,1,False,1000,True,1.0
./expes/v2_2020-12-02_dh_200-prng-1,30_issda_200,200,rng-200,171,rng,num-start-9001,9001,25726,233.8153018951416,True,,True,1,False,1000,True,1.0
./expes/v2_2020-12-02_dh_200-prng-1,30_issda_200,200,rng-200,121,rng,num-start-2001,2001,25726,48.478957176208496,True,,True,1,False,1000,True,1.0
./expes/v2_2020-12-02_dh_200-prng-1,30_issda_200,200,rng-200,101,rng,num-start-3001,3001,25726,76.99841117858887,True,,True,1,False,1000,True,1.0
./expes/v2_2020-12-02_dh_200-prng-1,30_issda_200,200,rng-200,191,rng,num-start-5001,5001,25726,115.10149478912354,True,,True,1,False,1000,True,1.0
./expes/v2_2020-12-02_dh_200-prng-1,30_issda_200,200,rng-200,1,rng,num-start-1001,1001,25726,22.67493987083435,True,,True,1,False,1000,True,1.0
./expes/v2_2020-12-02_dh_200-prng-1,30_issda_200,200,rng-200,61,rng,num-start-7001,7001,25726,186.19333624839783,True,,True,1,False,1000,True,1.0
./expes/v2_2020-12-02_dh_200-prng-1,30_issda_200,200,rng-200,131,rng,num-start-16001,16001,25726,406.7564322948456,True,,True,1,False,1000,True,1.0
./expes/v2_2020-12-02_dh_200-prng-1,30_issda_200,200,rng-200,161,rng,num-start-10001,10001,25726,257.19230341911316,True,,True,1,False,1000,True,1.0
./expes/v2_2020-12-02_dh_200-prng-1,30_issda_200,200,rng-200,31,rng,num-start-5001,5001,25726,132.2416501045227,True,,True,1,False,1000,True,1.0
./expes/v2_2020-12-02_dh_200-prng-1,30_issda_200,200,rng-200,141,rng,num-start-4001,4001,25726,109.01013708114624,True,,True,1,False,1000,True,1.0
./expes/v2_2020-12-02_dh_200-prng-1,30_issda_200,200,rng-200,121,rng,num-start-14001,14001,25726,358.5560972690582,True,,True,1,False,1000,True,1.0
./expes/v2_2020-12-02_dh_200-prng-1,30_issda_200,200,rng-200,191,rng,num-start-5001,5001,25726,111.7553825378418,True,,True,1,False,1000,True,1.0
./expes/v2_2020-12-02_dh_200-prng-1,30_issda_200,200,rng-200,101,rng,num-start-3001,3001,25726,77.53781366348267,True,,True,1,False,1000,True,1.0
./expes/v2_2020-12-02_dh_200-prng-1,30_issda_200,200,rng-200,141,rng,num-start-12001,12001,25726,305.6214361190796,True,,True,1,False,1000,True,1.0
./expes/v2_2020-12-02_dh_200-prng-1,30_issda_200,200,rng-200,11,rng,num-start-5001,5001,25726,114.38433194160461,True,,True,1,False,1000,True,1.0
./expes/v2_2020-12-02_dh_200-prng-1,30_issda_200,200,rng-200,161,rng,num-start-4001,4001,25726,107.35790610313416,True,,True,1,False,1000,True,1.0
./expes/v2_2020-12-02_dh_200-prng-1,30_issda_200,200,rng-200,11,rng,num-start-10001,10001,25726,223.85046768188477,True,,True,1,False,1000,True,1.0
./expes/v2_2020-12-02_dh_200-prng-1,30_issda_200,200,rng-200,111,rng,num-start-10001,10001,25726,275.57896161079407,True,,True,1,False,1000,True,1.0
./expes/v2_2020-12-02_dh_200-prng-1,30_issda_200,200,rng-200,131,rng,num-start-16001,16001,25726,409.90712332725525,True,,True,1,False,1000,True,1.0
./expes/v2_2020-12-02_dh_200-prng-1,30_issda_200,200,rng-200,181,rng,num-start-6001,6001,25726,145.15475153923035,True,,True,1,False,1000,True,1.0
./expes/v2_2020-12-02_dh_200-prng-1,30_issda_200,200,rng-200,71,rng,num-start-5001,5001,25726,152.99915862083435,True,,True,1,False,1000,True,1.0
./expes/v2_2020-12-02_dh_200-prng-1,30_issda_200,200,rng-200,151,rng,num-start-12001,12001,25726,348.1843156814575,True,,True,1,False,1000,True,1.0
./expes/v2_2020-12-02_dh_200-prng-1,30_issda_200,200,rng-200,111,rng,num-start-8001,8001,25726,211.2782120704651,True,,True,1,False,1000,True,1.0
./expes/v2_2020-12-02_dh_200-prng-1,30_issda_200,200,rng-200,11,rng,num-start-9001,9001,25726,200.5528380870819,True,,True,1,False,1000,True,1.0
./expes/v2_2020-12-02_dh_200-prng-1,30_issda_200,200,rng-200,61,rng,num-start-9001,9001,25726,238.642498254776,True,,True,1,False,1000,True,1.0
./expes/v2_2020-12-02_dh_200-prng-1,30_issda_200,200,rng-200,111,rng,num-start-12001,12001,25726,338.5067858695984,True,,True,1,False,1000,True,1.0
./expes/v2_2020-12-02_dh_200-prng-1,30_issda_200,200,rng-200,121,rng,num-start-15001,15001,25726,383.8241698741913,True,,True,1,False,1000,True,1.0
./expes/v2_2020-12-02_dh_200-prng-1,30_issda_200,200,rng-200,71,rng,num-start-11001,11001,25726,277.3308517932892,True,,True,1,False,1000,True,1.0
./expes/v2_2020-12-02_dh_200-prng-1,30_issda_200,200,rng-200,91,rng,num-start-1001,1001,25726,26.341420650482178,True,,True,1,False,1000,True,1.0
./expes/v2_2020-12-02_dh_200-prng-1,30_issda_200,200,rng-200,151,rng,num-start-13001,13001,25726,339.69561767578125,True,,True,1,False,1000,True,1.0
./expes/v2_2020-12-02_dh_200-prng-1,30_issda_200,200,rng-200,141,rng,num-start-5001,5001,25726,122.92949843406677,True,,True,1,False,1000,True,1.0
./expes/v2_2020-12-02_dh_200-prng-1,30_issda_200,200,rng-200,191,rng,num-start-10001,10001,25726,224.91110491752625,True,,True,1,False,1000,True,1.0
./expes/v2_2020-12-02_dh_200-prng-1,30_issda_200,200,rng-200,141,rng,num-start-13001,13001,25726,366.32239627838135,True,,True,1,False,1000,True,1.0
./expes/v2_2020-12-02_dh_200-prng-1,30_issda_200,200,rng-200,21,rng,num-start-9001,9001,25726,217.13151001930237,True,,True,1,False,1000,True,1.0
./expes/v2_2020-12-02_dh_200-prng-1,30_issda_200,200,rng-200,61,rng,num-start-12001,12001,25726,318.548326253891,True,,True,1,False,1000,True,1.0
./expes/v2_2020-12-02_dh_200-prng-1,30_issda_200,200,rng-200,161,rng,num-start-2001,2001,25726,50.64552545547485,True,,True,1,False,1000,True,1.0
./expes/v2_2020-12-02_dh_200-prng-1,30_issda_200,200,rng-200,171,rng,num-start-3001,3001,25726,80.08344674110413,True,,True,1,False,1000,True,1.0
./expes/v2_2020-12-02_dh_200-prng-1,30_issda_200,200,rng-200,141,rng,num-start-13001,13001,25726,341.353773355484,True,,True,1,False,1000,True,1.0
./expes/v2_2020-12-02_dh_200-prng-1,30_issda_200,200,rng-200,111,rng,num-start-5001,5001,25726,148.913188457489,True,,True,1,False,1000,True,1.0
./expes/v2_2020-12-02_dh_200-prng-1,30_issda_200,200,rng-200,41,rng,num-start-3001,3001,25726,82.10888862609863,True,,True,1,False,1000,True,1.0
./expes/v2_2020-12-02_dh_200-prng-1,30_issda_200,200,rng-200,161,rng,num-start-5001,5001,25726,124.86110353469849,True,,True,1,False,1000,True,1.0
./expes/v2_2020-12-02_dh_200-prng-1,30_issda_200,200,rng-200,91,rng,num-start-11001,11001,25726,291.41062569618225,True,,True,1,False,1000,True,1.0
./expes/v2_2020-12-02_dh_200-prng-1,30_issda_200,200,rng-200,181,rng,num-start-4001,4001,25726,103.28627443313599,True,,True,1,False,1000,True,1.0
./expes/v2_2020-12-02_dh_200-prng-1,30_issda_200,200,rng-200,91,rng,num-start-3001,3001,25726,80.44410943984985,True,,True,1,False,1000,True,1.0
./expes/v2_2020-12-02_dh_200-prng-1,30_issda_200,200,rng-200,31,rng,num-start-6001,6001,25726,149.27449345588684,True,,True,1,False,1000,True,1.0
./expes/v2_2020-12-02_dh_200-prng-1,30_issda_200,200,rng-200,41,rng,num-start-4001,4001,25726,102.4682605266571,True,,True,1,False,1000,True,1.0
./expes/v2_2020-12-02_dh_200-prng-1,30_issda_200,200,rng-200,1,rng,num-start-6001,6001,25726,134.21630191802979,True,,True,1,False,1000,True,1.0
./expes/v2_2020-12-02_dh_200-prng-1,30_issda_200,200,rng-200,1,rng,num-start-5001,5001,25726,116.45276069641113,True,,True,1,False,1000,True,1.0
./expes/v2_2020-12-02_dh_200-prng-1,30_issda_200,200,rng-200,1,rng,num-start-15001,15001,25726,335.1766164302826,True,,True,1,False,1000,True,1.0
./expes/v2_2020-12-02_dh_200-prng-1,30_issda_200,200,rng-200,161,rng,num-start-2001,2001,25726,52.835089445114136,True,,True,1,False,1000,True,1.0
./expes/v2_2020-12-02_dh_200-prng-1,30_issda_200,200,rng-200,181,rng,num-start-6001,6001,25726,146.61416673660278,True,,True,1,False,1000,True,1.0
./expes/v2_2020-12-02_dh_200-prng-1,30_issda_200,200,rng-200,191,rng,num-start-16001,16001,25726,360.51870012283325,True,,True,1,False,1000,True,1.0
./expes/v2_2020-12-02_dh_200-prng-1,30_issda_200,200,rng-200,171,rng,num-start-1001,1001,25726,24.556538105010986,True,,True,1,False,1000,True,1.0
./expes/v2_2020-12-02_dh_200-prng-1,30_issda_200,200,rng-200,101,rng,num-start-2001,2001,25726,49.84066581726074,True,,True,1,False,1000,True,1.0
./expes/v2_2020-12-02_dh_200-prng-1,30_issda_200,200,rng-200,31,rng,num-start-13001,13001,25726,319.63488602638245,True,,True,1,False,1000,True,1.0
./expes/v2_2020-12-02_dh_200-prng-1,30_issda_200,200,rng-200,121,rng,num-start-1001,1001,25726,24.6283757686615,True,,True,1,False,1000,True,1.0
./expes/v2_2020-12-02_dh_200-prng-1,30_issda_200,200,rng-200,181,rng,num-start-2001,2001,25726,48.84309482574463,True,,True,1,False,1000,True,1.0
./expes/v2_2020-12-02_dh_200-prng-1,30_issda_200,200,rng-200,81,rng,num-start-4001,4001,25726,99.30051255226135,True,,True,1,False,1000,True,1.0
./expes/v2_2020-12-02_dh_200-prng-1,30_issda_200,200,rng-200,61,rng,num-start-15001,15001,25726,378.7190582752228,True,,True,1,False,1000,True,1.0
./expes/v2_2020-12-02_dh_200-prng-1,30_issda_200,200,rng-200,91,rng,num-start-3001,3001,25726,76.66508412361145,True,,True,1,False,1000,True,1.0
./expes/v2_2020-12-02_dh_200-prng-1,30_issda_200,200,rng-200,21,rng,num-start-13001,13001,25726,338.1706624031067,True,,True,1,False,1000,True,1.0
./expes/v2_2020-12-02_dh_200-prng-1,30_issda_200,200,rng-200,131,rng,num-start-11001,11001,25726,292.5075867176056,True,,True,1,False,1000,True,1.0
./expes/v2_2020-12-02_dh_200-prng-1,30_issda_200,200,rng-200,151,rng,num-start-5001,5001,25726,128.0027415752411,True,,True,1,False,1000,True,1.0
./expes/v2_2020-12-02_dh_200-prng-1,30_issda_200,200,rng-200,121,rng,num-start-14001,14001,25726,345.6211619377136,True,,True,1,False,1000,True,1.0
./expes/v2_2020-12-02_dh_200-prng-1,30_issda_200,200,rng-200,101,rng,num-start-1,1,25726,0.0789799690246582,False,,False,2,False,1000,True,1.0
./expes/v2_2020-12-02_dh_200-prng-1,30_issda_200,200,rng-200,71,rng,num-start-8001,8001,25726,209.21512699127197,True,,True,1,False,1000,True,1.0
./expes/v2_2020-12-02_dh_200-prng-1,30_issda_200,200,rng-200,141,rng,num-start-1001,1001,25726,24.051265478134155,False,,False,2,False,1000,True,1.0
./expes/v2_2020-12-02_dh_200-prng-1,30_issda_200,200,rng-200,171,rng,num-start-6001,6001,25726,153.37792444229126,True,,True,1,False,1000,True,1.0
./expes/v2_2020-12-02_dh_200-prng-1,30_issda_200,200,rng-200,21,rng,num-start-12001,12001,25726,297.3439314365387,True,,True,1,False,1000,True,1.0
./expes/v2_2020-12-02_dh_200-prng-1,30_issda_200,200,rng-200,1,rng,num-start-15001,15001,25726,336.81208872795105,True,,True,1,False,1000,True,1.0
./expes/v2_2020-12-02_dh_200-prng-1,30_issda_200,200,rng-200,21,rng,num-start-12001,12001,25726,277.67484188079834,True,,True,1,False,1000,True,1.0
./expes/v2_2020-12-02_dh_200-prng-1,30_issda_200,200,rng-200,21,rng,num-start-1001,1001,25726,24.664757013320923,True,,True,1,False,1000,True,1.0
./expes/v2_2020-12-02_dh_200-prng-1,30_issda_200,200,rng-200,31,rng,num-start-2001,2001,25726,49.052611112594604,True,,True,1,False,1000,True,1.0
./expes/v2_2020-12-02_dh_200-prng-1,30_issda_200,200,rng-200,181,rng,num-start-7001,7001,25726,177.32333946228027,True,,True,1,False,1000,True,1.0
./expes/v2_2020-12-02_dh_200-prng-1,30_issda_200,200,rng-200,31,rng,num-start-9001,9001,25726,232.82585787773132,True,,True,1,False,1000,True,1.0
./expes/v2_2020-12-02_dh_200-prng-1,30_issda_200,200,rng-200,91,rng,num-start-15001,15001,25726,431.4973258972168,True,,True,1,False,1000,True,1.0
./expes/v2_2020-12-02_dh_200-prng-1,30_issda_200,200,rng-200,101,rng,num-start-2001,2001,25726,53.3991379737854,True,,True,1,False,1000,True,1.0
./expes/v2_2020-12-02_dh_200-prng-1,30_issda_200,200,rng-200,111,rng,num-start-8001,8001,25726,205.45849442481995,True,,True,1,False,1000,True,1.0
