expe,clients,clients_size,clients_subset,agg_size,agg_size_pc,method,days,days_size,days_total,noise_method,time,valid,valid_sum,success,score_avg,score_min,score_max,nsols,oracle,wall_hit,wall_time,pooled,pool_size,uuid,optimal,valid_sums
./expes/v3_2021-02-09_hi_2000-prng-1-w5-p10,30_issda-2000,2000,first-2000,150,7,rng,num-start-171,171,25726,classic,5030.203132390976,False,,False,0,,,0,"Index(['49', '57', '74', '116', '155', '174', '188', '280', '325', '331',
       ...
       '1909', '1914', '1917', '1927', '1942', '1945', '1956', '1958', '1961',
       '1970'],
      dtype='object', length=150)",True,5000,True,10,d7b2a26e37,0.0,0.0
./expes/v3_2021-02-09_hi_2000-prng-1-w5-p10,30_issda-2000,2000,first-2000,800,40,rng,num-start-15300,15300,25726,classic,7976.477792739868,True,,False,1.0,1.0,1.0,1,"Index(['1', '2', '10', '11', '14', '20', '22', '23', '24', '25',
       ...
       '1972', '1974', '1975', '1976', '1981', '1984', '1986', '1989', '1993',
       '1997'],
      dtype='object', length=800)",True,5000,True,10,54b7d56092,0.0,1.0
./expes/v3_2021-02-09_hi_2000-prng-1-w5-p10,30_issda-2000,2000,first-2000,200,10,rng,num-start-10300,10300,25726,classic,6626.456821203232,True,,True,1.0,1.0,1.0,1,"Index(['11', '20', '37', '40', '43', '56', '101', '102', '103', '104',
       ...
       '1897', '1925', '1936', '1949', '1957', '1961', '1962', '1966', '1968',
       '1994'],
      dtype='object', length=200)",False,5000,True,10,24b91284f2,1.0,1.0
./expes/v3_2021-02-09_hi_2000-prng-1-w5-p10,30_issda-2000,2000,first-2000,500,25,rng,num-start-201,201,25726,classic,5039.13067317009,False,,False,0,,,0,"Index(['4', '5', '12', '18', '19', '22', '26', '30', '35', '36',
       ...
       '1978', '1981', '1983', '1985', '1987', '1988', '1994', '1995', '1998',
       '1999'],
      dtype='object', length=500)",True,5000,True,10,0555afc11b,0.0,0.0
./expes/v3_2021-02-09_hi_2000-prng-1-w5-p10,30_issda-2000,2000,first-2000,1000,50,rng,num-start-231,231,25726,classic,5043.289176464081,False,,False,0,,,0,"Index(['1', '3', '4', '9', '12', '13', '14', '16', '18', '19',
       ...
       '1981', '1982', '1983', '1985', '1986', '1987', '1993', '1994', '1998',
       '1999'],
      dtype='object', length=1000)",True,5000,True,10,d8ae467e6c,0.0,0.0
./expes/v3_2021-02-09_hi_2000-prng-1-w5-p10,30_issda-2000,2000,first-2000,1000,50,rng,num-start-10300,10300,25726,classic,6943.596969127655,True,,False,1.0,1.0,1.0,1,"Index(['2', '4', '6', '7', '8', '10', '11', '12', '15', '17',
       ...
       '1984', '1986', '1988', '1989', '1990', '1991', '1994', '1995', '1997',
       '1998'],
      dtype='object', length=1000)",True,5000,True,10,a86663151e,0.0,1.0
./expes/v3_2021-02-09_hi_2000-prng-1-w5-p10,30_issda-2000,2000,first-2000,450,22,rng,num-start-51,51,25726,classic,5009.143033504486,False,,False,0,,,0,"Index(['4', '9', '10', '11', '18', '33', '37', '40', '41', '44',
       ...
       '1958', '1961', '1964', '1965', '1966', '1968', '1970', '1973', '1988',
       '1989'],
      dtype='object', length=450)",True,5000,True,10,03d00ccd43,0.0,0.0
./expes/v3_2021-02-09_hi_2000-prng-1-w5-p10,30_issda-2000,2000,first-2000,900,45,rng,num-start-41,41,25726,classic,5007.612557649612,False,,False,0,,,0,"Index(['1', '3', '4', '12', '13', '14', '16', '18', '19', '23',
       ...
       '1981', '1982', '1983', '1985', '1986', '1987', '1993', '1994', '1998',
       '1999'],
      dtype='object', length=900)",True,5000,True,10,be181f571e,0.0,0.0
./expes/v3_2021-02-09_hi_2000-prng-1-w5-p10,30_issda-2000,2000,first-2000,150,7,rng,num-start-1300,1300,25726,classic,589.5519096851349,True,,True,1.0,1.0,1.0,1,"Index(['22', '40', '43', '57', '58', '137', '144', '149', '171', '184',
       ...
       '1792', '1815', '1836', '1847', '1862', '1914', '1924', '1926', '1934',
       '1995'],
      dtype='object', length=150)",False,5000,True,10,34c99e6b4f,1.0,1.0
./expes/v3_2021-02-09_hi_2000-prng-1-w5-p10,30_issda-2000,2000,first-2000,500,25,rng,num-start-5800,5800,25726,classic,4143.341663360596,True,,True,1.0,1.0,1.0,1,"Index(['4', '9', '10', '11', '18', '33', '37', '40', '41', '44',
       ...
       '1964', '1965', '1966', '1968', '1970', '1973', '1985', '1988', '1989',
       '1995'],
      dtype='object', length=500)",False,5000,True,10,b6ad56eb66,1.0,1.0
./expes/v3_2021-02-09_hi_2000-prng-1-w5-p10,30_issda-2000,2000,first-2000,750,37,rng,num-start-2300,2300,25726,classic,2166.8403573036194,True,,True,1.0,1.0,1.0,1,"Index(['4', '8', '10', '11', '15', '16', '24', '27', '32', '37',
       ...
       '1976', '1978', '1980', '1981', '1985', '1989', '1990', '1991', '1993',
       '1997'],
      dtype='object', length=750)",False,5000,True,10,fb4efb8e6e,1.0,1.0
./expes/v3_2021-02-09_hi_2000-prng-1-w5-p10,30_issda-2000,2000,first-2000,850,42,rng,num-start-201,201,25726,classic,5034.901497364044,False,,False,0,,,0,"Index(['1', '3', '4', '7', '8', '9', '11', '24', '25', '26',
       ...
       '1985', '1988', '1989', '1990', '1991', '1992', '1994', '1996', '1999',
       '2000'],
      dtype='object', length=850)",True,5000,True,10,5d2c739815,0.0,0.0
./expes/v3_2021-02-09_hi_2000-prng-1-w5-p10,30_issda-2000,2000,first-2000,100,5,rng,num-start-271,271,25726,classic,5049.748266458511,False,,False,0,,,0,"Index(['22', '57', '58', '144', '149', '171', '184', '194', '210', '219',
       '229', '243', '249', '252', '307', '330', '332', '338', '372', '397',
       '419', '447', '458', '506', '522', '524', '534', '540', '555', '556',
       '562', '564', '571', '575', '577', '597', '621', '647', '691', '734',
       '739', '746', '783', '807', '813', '827', '844', '899', '922', '927',
       '956', '993', '997', '1025', '1053', '1058', '1080', '1130', '1186',
       '1195', '1207', '1219', '1245', '1262', '1279', '1294', '1296', '1298',
       '1306', '1313', '1335', '1336', '1349', '1360', '1363', '1377', '1402',
       '1407', '1439', '1504', '1506', '1517', '1530', '1547', '1593', '1635',
       '1648', '1655', '1676', '1750', '1772', '1784', '1788', '1792', '1815',
       '1836', '1847', '1862', '1914', '1926'],
      dtype='object')",True,5000,True,10,eb57180b2e,0.0,0.0
./expes/v3_2021-02-09_hi_2000-prng-1-w5-p10,30_issda-2000,2000,first-2000,450,22,rng,num-start-241,241,25726,classic,5040.812035083771,False,,False,0,,,0,"Index(['5', '7', '8', '9', '11', '12', '30', '32', '46', '56',
       ...
       '1949', '1951', '1954', '1963', '1965', '1970', '1982', '1987', '1989',
       '1990'],
      dtype='object', length=450)",True,5000,True,10,e67eb2a1e5,0.0,0.0
./expes/v3_2021-02-09_hi_2000-prng-1-w5-p10,30_issda-2000,2000,first-2000,50,2,rng,num-start-61,61,25726,classic,5010.351023674011,False,,False,0,,,0,"Index(['14', '84', '106', '130', '166', '209', '228', '272', '284', '322',
       '345', '347', '382', '488', '548', '597', '685', '693', '765', '777',
       '786', '866', '926', '949', '950', '1030', '1037', '1136', '1210',
       '1239', '1256', '1263', '1386', '1410', '1434', '1441', '1485', '1492',
       '1529', '1586', '1618', '1775', '1786', '1818', '1840', '1883', '1893',
       '1918', '1938', '1949'],
      dtype='object')",True,5000,True,10,d96770457a,0.0,0.0
