expe,clients,clients_size,clients_subset,agg_size,agg_size_pc,method,days,days_size,days_total,noise_method,time,valid,valid_sum,success,score_avg,score_min,score_max,nsols,oracle,wall_hit,wall_time,pooled,pool_size,uuid,optimal,valid_sums
./expes/v3_2021-02-09_hi_2000-prng-1-w5-p10,30_issda-2000,2000,first-2000,150,7,rng,num-start-181,181,25726,classic,5022.728894472122,False,,False,0,,,0,"Index(['6', '15', '34', '35', '47', '54', '89', '93', '137', '145',
       ...
       '1838', '1856', '1874', '1885', '1916', '1954', '1959', '1960', '1977',
       '1983'],
      dtype='object', length=150)",True,5000,True,10,2fd5f8d07a,0.0,0.0
./expes/v3_2021-02-09_hi_2000-prng-1-w5-p10,30_issda-2000,2000,first-2000,100,5,rng,num-start-9800,9800,25726,classic,2673.474033355713,True,,True,1.0,1.0,1.0,1,"Index(['77', '96', '99', '102', '119', '122', '123', '127', '129', '144',
       '149', '150', '168', '177', '186', '193', '200', '212', '242', '254',
       '273', '296', '309', '338', '369', '371', '385', '422', '440', '453',
       '458', '493', '500', '509', '590', '594', '614', '615', '632', '644',
       '664', '704', '741', '749', '763', '809', '813', '857', '859', '870',
       '876', '889', '920', '929', '954', '1014', '1017', '1040', '1049',
       '1076', '1089', '1098', '1108', '1122', '1129', '1141', '1148', '1156',
       '1159', '1170', '1177', '1182', '1192', '1194', '1200', '1248', '1268',
       '1285', '1292', '1309', '1334', '1394', '1397', '1432', '1459', '1494',
       '1551', '1592', '1598', '1627', '1672', '1682', '1694', '1759', '1793',
       '1864', '1892', '1941', '1942', '2000'],
      dtype='object')",False,5000,True,10,5325cd9a81,1.0,1.0
./expes/v3_2021-02-09_hi_2000-prng-1-w5-p10,30_issda-2000,2000,first-2000,800,40,rng,num-start-111,111,25726,classic,5014.154453039169,False,,False,0,,,0,"Index(['5', '6', '11', '14', '15', '18', '26', '27', '31', '34',
       ...
       '1980', '1981', '1983', '1984', '1987', '1989', '1991', '1993', '1995',
       '1999'],
      dtype='object', length=800)",True,5000,True,10,e33856982f,0.0,0.0
./expes/v3_2021-02-09_hi_2000-prng-1-w5-p10,30_issda-2000,2000,first-2000,600,30,rng,num-start-61,61,25726,classic,5008.357262372971,False,,False,0,,,0,"Index(['1', '3', '4', '5', '7', '17', '19', '20', '26', '28',
       ...
       '1972', '1973', '1974', '1978', '1980', '1982', '1983', '1988', '1996',
       '2000'],
      dtype='object', length=600)",True,5000,True,10,61f38cb32c,0.0,0.0
./expes/v3_2021-02-09_hi_2000-prng-1-w5-p10,30_issda-2000,2000,first-2000,350,17,rng,num-start-5300,5300,25726,classic,3179.6064026355743,True,,True,1.0,1.0,1.0,1,"Index(['10', '15', '24', '27', '32', '42', '44', '46', '56', '59',
       ...
       '1961', '1962', '1964', '1968', '1973', '1975', '1976', '1978', '1990',
       '1993'],
      dtype='object', length=350)",False,5000,True,10,07a569447a,1.0,1.0
./expes/v3_2021-02-09_hi_2000-prng-1-w5-p10,30_issda-2000,2000,first-2000,50,2,rng,num-start-11300,11300,25726,classic,2293.43003988266,True,,True,1.0,1.0,1.0,1,"Index(['57', '74', '116', '174', '188', '325', '347', '435', '516', '550',
       '632', '653', '740', '746', '762', '779', '806', '868', '883', '912',
       '953', '1029', '1043', '1077', '1115', '1191', '1241', '1243', '1308',
       '1372', '1396', '1481', '1508', '1646', '1657', '1712', '1739', '1749',
       '1762', '1768', '1784', '1811', '1827', '1846', '1860', '1909', '1917',
       '1942', '1945', '1958'],
      dtype='object')",False,5000,True,10,cc77b4dc22,1.0,1.0
./expes/v3_2021-02-09_hi_2000-prng-1-w5-p10,30_issda-2000,2000,first-2000,800,40,rng,num-start-6300,6300,25726,classic,3673.598822116852,True,,True,1.0,1.0,1.0,1,"Index(['6', '8', '10', '11', '14', '16', '17', '19', '23', '24',
       ...
       '1980', '1981', '1982', '1983', '1984', '1985', '1987', '1992', '1998',
       '2000'],
      dtype='object', length=800)",False,5000,True,10,26913583b9,1.0,1.0
./expes/v3_2021-02-09_hi_2000-prng-1-w5-p10,30_issda-2000,2000,first-2000,250,12,rng,num-start-291,291,25726,classic,5037.321944475174,False,,False,0,,,0,"Index(['1', '13', '26', '31', '35', '38', '45', '59', '62', '76',
       ...
       '1927', '1941', '1949', '1976', '1977', '1978', '1987', '1989', '1997',
       '2000'],
      dtype='object', length=250)",True,5000,True,10,5e5df9adc3,0.0,0.0
./expes/v3_2021-02-09_hi_2000-prng-1-w5-p10,30_issda-2000,2000,first-2000,350,17,rng,num-start-161,161,25726,classic,5020.00169801712,False,,False,0,,,0,"Index(['6', '10', '19', '24', '31', '32', '35', '36', '39', '59',
       ...
       '1936', '1938', '1940', '1942', '1965', '1967', '1971', '1977', '1982',
       '2000'],
      dtype='object', length=350)",True,5000,True,10,d6c9e48b50,0.0,0.0
./expes/v3_2021-02-09_hi_2000-prng-1-w5-p10,30_issda-2000,2000,first-2000,950,47,rng,num-start-171,171,25726,classic,5022.090218544006,False,,False,0,,,0,"Index(['1', '3', '7', '10', '12', '14', '22', '23', '25', '26',
       ...
       '1978', '1981', '1983', '1987', '1989', '1990', '1993', '1997', '1999',
       '2000'],
      dtype='object', length=950)",True,5000,True,10,a9c9b09d0e,0.0,0.0
./expes/v3_2021-02-09_hi_2000-prng-1-w5-p10,30_issda-2000,2000,first-2000,800,40,rng,num-start-231,231,25726,classic,5026.660907030106,False,,False,0,,,0,"Index(['1', '3', '7', '8', '9', '12', '13', '16', '19', '21',
       ...
       '1984', '1985', '1986', '1987', '1988', '1989', '1991', '1993', '1995',
       '1996'],
      dtype='object', length=800)",True,5000,True,10,9e49f88867,0.0,0.0
