expe,clients,clients_size,clients_subset,agg_size,agg_size_pc,method,days,days_size,days_total,noise_method,time,valid,valid_sum,success,score_avg,score_min,score_max,nsols,oracle,wall_hit,wall_time,pooled,pool_size,uuid,optimal,valid_sums
./expes/v3_2021-02-09_hi_2000-prng-1-w5-p10,30_issda-2000,2000,first-2000,400,20,rng,num-start-161,161,25726,classic,5029.075646400452,False,,False,0,,,0,"Index(['11', '16', '17', '20', '22', '25', '32', '37', '40', '43',
       ...
       '1968', '1970', '1976', '1982', '1987', '1992', '1994', '1996', '1997',
       '1998'],
      dtype='object', length=400)",True,5000,True,10,8a1de3386e,0.0,0.0
./expes/v3_2021-02-09_hi_2000-prng-1-w5-p10,30_issda-2000,2000,first-2000,950,47,rng,num-start-51,51,25726,classic,5011.0751531124115,False,,False,0,,,0,"Index(['1', '3', '4', '7', '8', '9', '11', '22', '24', '25',
       ...
       '1985', '1988', '1989', '1990', '1991', '1992', '1994', '1996', '1999',
       '2000'],
      dtype='object', length=950)",True,5000,True,10,5c65e711cd,0.0,0.0
./expes/v3_2021-02-09_hi_2000-prng-1-w5-p10,30_issda-2000,2000,first-2000,250,12,rng,num-start-191,191,25726,classic,5034.461562633514,False,,False,0,,,0,"Index(['7', '25', '28', '35', '41', '53', '63', '68', '69', '70',
       ...
       '1902', '1910', '1918', '1938', '1946', '1971', '1977', '1987', '1993',
       '1997'],
      dtype='object', length=250)",True,5000,True,10,1e2764207c,0.0,0.0
./expes/v3_2021-02-09_hi_2000-prng-1-w5-p10,30_issda-2000,2000,first-2000,350,17,rng,num-start-7300,7300,25726,classic,5210.316060304642,True,,True,1.0,1.0,1.0,1,"Index(['1', '9', '25', '47', '48', '53', '56', '58', '60', '77',
       ...
       '1948', '1950', '1952', '1956', '1957', '1959', '1962', '1971', '1996',
       '2000'],
      dtype='object', length=350)",False,5000,True,10,66fd859eb6,1.0,1.0
./expes/v3_2021-02-09_hi_2000-prng-1-w5-p10,30_issda-2000,2000,first-2000,1000,50,rng,num-start-31,31,25726,classic,5005.47847700119,False,,False,0,,,0,"Index(['1', '3', '4', '5', '7', '8', '14', '15', '16', '17',
       ...
       '1978', '1980', '1982', '1983', '1984', '1986', '1988', '1992', '1996',
       '2000'],
      dtype='object', length=1000)",True,5000,True,10,c4702a0abb,0.0,0.0
./expes/v3_2021-02-09_hi_2000-prng-1-w5-p10,30_issda-2000,2000,first-2000,750,37,rng,num-start-101,101,25726,classic,5019.3324592113495,False,,False,0,,,0,"Index(['6', '8', '9', '11', '12', '16', '21', '25', '26', '28',
       ...
       '1973', '1974', '1976', '1984', '1985', '1986', '1987', '1988', '1995',
       '1997'],
      dtype='object', length=750)",True,5000,True,10,9557938e05,0.0,0.0
./expes/v3_2021-02-09_hi_2000-prng-1-w5-p10,30_issda-2000,2000,first-2000,900,45,rng,num-start-61,61,25726,classic,5011.129959821701,False,,False,0,,,0,"Index(['4', '5', '6', '8', '10', '11', '15', '16', '24', '27',
       ...
       '1978', '1980', '1981', '1985', '1987', '1989', '1990', '1991', '1993',
       '1997'],
      dtype='object', length=900)",True,5000,True,10,1b4c8231d3,0.0,0.0
./expes/v3_2021-02-09_hi_2000-prng-1-w5-p10,30_issda-2000,2000,first-2000,900,45,rng,num-start-5300,5300,25726,classic,4237.009118795395,True,,True,1.0,1.0,1.0,1,"Index(['1', '5', '6', '9', '11', '14', '15', '18', '26', '27',
       ...
       '1981', '1983', '1984', '1987', '1989', '1990', '1991', '1993', '1995',
       '1999'],
      dtype='object', length=900)",False,5000,True,10,97f346b549,1.0,1.0
./expes/v3_2021-02-09_hi_2000-prng-1-w5-p10,30_issda-2000,2000,first-2000,400,20,rng,num-start-6800,6800,25726,classic,4084.675127506256,True,,True,1.0,1.0,1.0,1,"Index(['1', '3', '4', '5', '7', '26', '28', '29', '30', '31',
       ...
       '1953', '1969', '1973', '1974', '1978', '1980', '1982', '1983', '1988',
       '1996'],
      dtype='object', length=400)",False,5000,True,10,0c6f2c469a,1.0,1.0
./expes/v3_2021-02-09_hi_2000-prng-1-w5-p10,30_issda-2000,2000,first-2000,400,20,rng,num-start-6800,6800,25726,classic,4707.71467256546,True,,True,1.0,1.0,1.0,1,"Index(['1', '4', '9', '25', '47', '48', '53', '56', '57', '58',
       ...
       '1950', '1952', '1956', '1957', '1959', '1962', '1971', '1990', '1996',
       '2000'],
      dtype='object', length=400)",False,5000,True,10,8a86913355,1.0,1.0
./expes/v3_2021-02-09_hi_2000-prng-1-w5-p10,30_issda-2000,2000,first-2000,350,17,rng,num-start-121,121,25726,classic,5022.550008535385,False,,False,0,,,0,"Index(['1', '13', '26', '31', '35', '38', '42', '45', '59', '62',
       ...
       '1950', '1971', '1976', '1977', '1978', '1979', '1987', '1989', '1997',
       '2000'],
      dtype='object', length=350)",True,5000,True,10,7a5f4e3743,0.0,0.0
