expe,clients,clients_size,clients_subset,agg_size,agg_size_pc,method,days,days_size,days_total,noise_method,time,valid,valid_sum,success,score_avg,score_min,score_max,nsols,oracle,wall_hit,wall_time,pooled,pool_size,uuid,optimal,valid_sums
./expes/v3_2021-02-09_hi_2000-prng-1-w5-p10,30_issda-2000,2000,first-2000,650,32,rng,num-start-111,111,25726,classic,5014.376317501068,False,,False,0,,,0,"Index(['4', '8', '10', '11', '15', '16', '24', '27', '32', '37',
       ...
       '1976', '1978', '1980', '1981', '1985', '1989', '1990', '1991', '1993',
       '1997'],
      dtype='object', length=650)",True,5000,True,10,8ee768e462,0.0,0.0
./expes/v3_2021-02-09_hi_2000-prng-1-w5-p10,30_issda-2000,2000,first-2000,500,25,rng,num-start-3300,3300,25726,classic,1940.9339487552643,True,,True,1.0,1.0,1.0,1,"Index(['1', '10', '13', '20', '26', '27', '31', '35', '38', '42',
       ...
       '1977', '1978', '1979', '1985', '1987', '1989', '1992', '1995', '1997',
       '2000'],
      dtype='object', length=500)",False,5000,True,10,d183abf20a,1.0,1.0
./expes/v3_2021-02-09_hi_2000-prng-1-w5-p10,30_issda-2000,2000,first-2000,150,7,rng,num-start-5800,5800,25726,classic,2854.4240865707397,True,,True,1.0,1.0,1.0,1,"Index(['49', '57', '74', '116', '155', '174', '188', '280', '325', '331',
       ...
       '1909', '1914', '1917', '1927', '1942', '1945', '1956', '1958', '1961',
       '1970'],
      dtype='object', length=150)",False,5000,True,10,368ac175f8,1.0,1.0
