expe,clients,clients_size,clients_subset,agg_size,agg_size_pc,method,days,days_size,days_total,noise_method,time,valid,valid_sum,success,score_avg,score_min,score_max,nsols,oracle,wall_hit,wall_time,pooled,pool_size,uuid,optimal,valid_sums
./expes/v3_2021-02-09_hi_2000-prng-1-w5-p10,30_issda-2000,2000,first-2000,950,47,rng,num-start-191,191,25726,classic,5024.044361829758,False,,False,0,,,0,"Index(['1', '3', '4', '5', '7', '8', '14', '15', '16', '17',
       ...
       '1978', '1980', '1982', '1983', '1984', '1986', '1988', '1992', '1996',
       '2000'],
      dtype='object', length=950)",True,5000,True,10,2729b93112,0.0,0.0
./expes/v3_2021-02-09_hi_2000-prng-1-w5-p10,30_issda-2000,2000,first-2000,900,45,rng,num-start-8800,8800,25726,classic,6117.214123249054,True,,False,1.0,1.0,1.0,1,"Index(['6', '8', '9', '11', '12', '15', '16', '21', '25', '26',
       ...
       '1974', '1976', '1984', '1985', '1986', '1987', '1988', '1993', '1995',
       '1997'],
      dtype='object', length=900)",True,5000,True,10,be36b6b40c,0.0,1.0
./expes/v3_2021-02-09_hi_2000-prng-1-w5-p10,30_issda-2000,2000,first-2000,850,42,rng,num-start-5300,5300,25726,classic,4427.971267938614,True,,True,1.0,1.0,1.0,1,"Index(['2', '7', '8', '11', '12', '14', '15', '17', '18', '20',
       ...
       '1985', '1986', '1988', '1991', '1992', '1994', '1995', '1997', '1998',
       '2000'],
      dtype='object', length=850)",False,5000,True,10,da16923827,1.0,1.0
./expes/v3_2021-02-09_hi_2000-prng-1-w5-p10,30_issda-2000,2000,first-2000,100,5,rng,num-start-191,191,25726,classic,5023.847171545029,False,,False,0,,,0,"Index(['9', '31', '66', '67', '71', '76', '91', '92', '134', '148', '156',
       '166', '273', '275', '285', '307', '321', '329', '358', '400', '423',
       '460', '483', '489', '491', '492', '512', '538', '569', '581', '617',
       '621', '644', '665', '672', '728', '740', '743', '750', '767', '769',
       '782', '788', '846', '861', '863', '879', '893', '901', '923', '936',
       '948', '963', '989', '1004', '1007', '1018', '1028', '1067', '1093',
       '1099', '1125', '1162', '1171', '1184', '1194', '1198', '1232', '1236',
       '1243', '1257', '1338', '1339', '1348', '1356', '1366', '1383', '1405',
       '1527', '1573', '1582', '1661', '1666', '1676', '1687', '1694', '1725',
       '1729', '1752', '1762', '1840', '1863', '1870', '1893', '1928', '1937',
       '1951', '1952', '1986', '1987'],
      dtype='object')",True,5000,True,10,ab70597dd6,0.0,0.0
./expes/v3_2021-02-09_hi_2000-prng-1-w5-p10,30_issda-2000,2000,first-2000,400,20,rng,num-start-15300,15300,25726,classic,8636.913372516632,True,,False,1.0,1.0,1.0,1,"Index(['5', '6', '15', '18', '34', '35', '39', '45', '47', '51',
       ...
       '1960', '1963', '1970', '1973', '1977', '1981', '1983', '1987', '1989',
       '1993'],
      dtype='object', length=400)",True,5000,True,10,ba91640e2d,0.0,1.0
