expe,clients,clients_size,clients_subset,agg_size,method,days,days_size,days_total,time,valid,valid_sum,success,nsols,wall_hit,wall_time,pooled,valid_sums
./expes/v2_2020-11-05_dbh_50-prng-1,daily_base_hphc_50,50,first-50,31,rng,num-start-151,151,365,1.2901568412780762,True,,True,1,False,1000,True,1.0
./expes/v2_2020-11-05_dbh_50-prng-1,daily_base_hphc_50,50,first-50,31,rng,num-start-21,21,365,0.18585705757141113,True,,True,1,False,1000,True,1.0
./expes/v2_2020-11-05_dbh_50-prng-1,daily_base_hphc_50,50,first-50,1,rng,num-start-111,111,365,0.7135493755340576,True,,True,1,False,1000,True,1.0
./expes/v2_2020-11-05_dbh_50-prng-1,daily_base_hphc_50,50,first-50,31,rng,num-start-131,131,365,0.9693009853363037,True,,True,1,False,1000,True,1.0
./expes/v2_2020-11-05_dbh_50-prng-1,daily_base_hphc_50,50,first-50,1,rng,num-start-181,181,365,1.1645946502685547,True,,True,1,False,1000,True,1.0
./expes/v2_2020-11-05_dbh_50-prng-1,daily_base_hphc_50,50,first-50,41,rng,num-start-71,71,365,0.5717504024505615,True,,True,1,False,1000,True,1.0
./expes/v2_2020-11-05_dbh_50-prng-1,daily_base_hphc_50,50,first-50,21,rng,num-start-291,291,365,1.9149870872497559,True,,True,1,False,1000,True,1.0
./expes/v2_2020-11-05_dbh_50-prng-1,daily_base_hphc_50,50,first-50,21,rng,num-start-31,31,365,0.32519054412841797,True,,True,1,False,1000,True,1.0
./expes/v2_2020-11-05_dbh_50-prng-1,daily_base_hphc_50,50,first-50,41,rng,num-start-121,121,365,0.9326789379119873,True,,True,1,False,1000,True,1.0
./expes/v2_2020-11-05_dbh_50-prng-1,daily_base_hphc_50,50,first-50,11,rng,num-start-161,161,365,1.1859667301177979,True,,True,1,False,1000,True,1.0
