expe,clients,clients_size,clients_subset,agg_size,method,days,days_size,days_total,time,valid,valid_sum,success,nsols,wall_hit,wall_time,pooled,valid_sums
./expes/v2_2020-11-04_dbh_250-prng-1,daily_base_hphc_250,250,first-250,61,rng,num-start-211,211,365,5.380187034606934,True,,True,1,False,1000,True,1.0
./expes/v2_2020-11-04_dbh_250-prng-1,daily_base_hphc_250,250,first-250,61,rng,num-start-121,121,365,3.2068209648132324,True,,True,1,False,1000,True,1.0
./expes/v2_2020-11-04_dbh_250-prng-1,daily_base_hphc_250,250,first-250,21,rng,num-start-171,171,365,3.6005091667175293,True,,True,1,False,1000,True,1.0
./expes/v2_2020-11-04_dbh_250-prng-1,daily_base_hphc_250,250,first-250,221,rng,num-start-31,31,365,1002.0828351974487,False,,False,0,True,1000,True,0.0
./expes/v2_2020-11-04_dbh_250-prng-1,daily_base_hphc_250,250,first-250,221,rng,num-start-291,291,365,6.695650577545166,True,,True,1,False,1000,True,1.0
./expes/v2_2020-11-04_dbh_250-prng-1,daily_base_hphc_250,250,first-250,101,rng,num-start-121,121,365,3.6996347904205322,True,,True,1,False,1000,True,1.0
./expes/v2_2020-11-04_dbh_250-prng-1,daily_base_hphc_250,250,first-250,1,rng,num-start-171,171,365,2.882167339324951,True,,True,1,False,1000,True,1.0
./expes/v2_2020-11-04_dbh_250-prng-1,daily_base_hphc_250,250,first-250,201,rng,num-start-151,151,365,3.5126712322235107,True,,True,1,False,1000,True,1.0
./expes/v2_2020-11-04_dbh_250-prng-1,daily_base_hphc_250,250,first-250,11,rng,num-start-11,11,365,1000.2546899318695,False,,False,0,True,1000,True,0.0
./expes/v2_2020-11-04_dbh_250-prng-1,daily_base_hphc_250,250,first-250,161,rng,num-start-51,51,365,1001.2336137294769,False,,False,0,True,1000,True,0.0
