expe,clients,clients_size,clients_subset,agg_size,method,days,days_size,days_total,time,valid,valid_sum,success,nsols,wall_hit,wall_time,pooled,valid_sums
./expes/v2_2020-11-04_dbh_250-prng-1,daily_base_hphc_250,250,first-250,121,rng,num-start-231,231,365,6.032820224761963,True,,True,1,False,1000,True,1.0
./expes/v2_2020-11-04_dbh_250-prng-1,daily_base_hphc_250,250,first-250,231,rng,num-start-71,71,365,1.690098524093628,True,,True,1,False,1000,True,1.0
./expes/v2_2020-11-04_dbh_250-prng-1,daily_base_hphc_250,250,first-250,161,rng,num-start-21,21,365,1000.5140724182129,False,,False,0,True,1000,True,0.0
./expes/v2_2020-11-04_dbh_250-prng-1,daily_base_hphc_250,250,first-250,201,rng,num-start-51,51,365,1001.0117692947388,False,,False,0,True,1000,True,0.0
./expes/v2_2020-11-04_dbh_250-prng-1,daily_base_hphc_250,250,first-250,171,rng,num-start-51,51,365,1001.059900522232,False,,False,0,True,1000,True,0.0
