expe,clients,clients_size,clients_subset,agg_size,agg_size_pc,method,days,days_size,days_total,noise_method,time,valid,valid_sum,success,score_avg,score_min,score_max,nsols,oracle,wall_hit,wall_time,pooled,pool_size,uuid,infeasible,optimal,valid_sums
./expes/v3_2021-03-17_issda_1000-prng-1-w1-p100-ukn95_95,30_issda-1000,950,first-1000,100,10,rng,num-start-900,900,25726,ukn-95-95,108.8529212474823,False,,False,0.5767516687969004,0.5467015860883755,0.9274141618575573,100,"['8', '21', '27', '45', '48', '61', '69', '84', '89', '92', '93', '106', '109', '159', '166', '169', '177', '183', '199', '200', '220', '228', '239', '242', '254', '255', '266', '267', '269', '279', '284', '287', '288', '296', '297', '299', '308', '311', '313', '318', '320', '346', '369', '382', '398', '406', '412', '424', '434', '442', '463', '474', '483', '485', '491', '519', '521', '532', '533', '548', '550', '561', '563', '587', '614', '621', '642', '643', '657', '664', '688', '718', '722', '739', '750', '784', '799', '817', '820', '827', '833', '838', '847', '849', '861', '866', '869', '876', '887', '889', '902', '904', '931', '940', '950', '958', '965', '966', '968', '984']",False,1000,True,100,d7cc3a3554,0.0,1.0,0.0
./expes/v3_2021-03-17_issda_1000-prng-1-w1-p100-ukn95_95,30_issda-1000,950,first-1000,200,21,rng,num-start-700,700,25726,ukn-95-95,67.80155181884766,False,,False,0.4342220942645136,0.35893923524396765,0.8973481232627393,100,"['8', '10', '19', '21', '27', '42', '44', '45', '46', '48', '57', '61', '64', '69', '80', '84', '85', '89', '92', '93', '100', '104', '106', '109', '117', '126', '140', '149', '154', '157', '159', '163', '166', '169', '173', '174', '177', '182', '183', '189', '197', '199', '200', '201', '204', '208', '213', '220', '228', '235', '239', '242', '244', '254', '255', '256', '257', '266', '267', '269', '279', '283', '284', '285', '287', '288', '293', '296', '297', '298', '299', '300', '301', '308', '311', '313', '318', '320', '329', '330', '331', '332', '335', '340', '346', '352', '365', '366', '369', '372', '373', '374', '382', '391', '398', '406', '412', '421', '423', '424', '434', '435', '442', '447', '450', '452', '455', '463', '466', '471', '474', '483', '485', '491', '503', '519', '521', '532', '533', '548', '550', '560', '561', '563', '572', '586', '587', '597', '603', '610', '614', '621', '622', '631', '633', '636', '642', '643', '648', '650', '651', '657', '664', '668', '688', '690', '692', '694', '697', '715', '718', '722', '726', '739', '750', '753', '755', '765', '784', '794', '799', '803', '817', '820', '824', '827', '833', '838', '847', '849', '860', '861', '866', '869', '876', '883', '887', '889', '891', '902', '904', '916', '918', '927', '931', '936', '939', '940', '950', '958', '965', '966', '968', '978', '983', '984', '985', '988', '990', '994']",False,1000,True,100,8f281261f3,0.0,1.0,0.0
./expes/v3_2021-03-17_issda_1000-prng-1-w1-p100-ukn95_95,30_issda-1000,950,first-1000,250,26,rng,num-start-1000,1000,25726,ukn-95-95,113.44071078300476,False,,False,0.3839342923643191,0.2829048176658342,0.8785406614674915,100,"['1', '4', '6', '7', '9', '13', '16', '18', '19', '25', '27', '31', '36', '42', '43', '45', '50', '52', '53', '56', '57', '63', '65', '68', '71', '83', '86', '87', '89', '90', '91', '96', '99', '105', '106', '113', '114', '115', '121', '124', '125', '136', '137', '141', '142', '143', '145', '146', '149', '152', '153', '161', '166', '169', '173', '174', '176', '177', '191', '197', '203', '204', '205', '208', '210', '214', '215', '216', '219', '228', '230', '237', '243', '244', '255', '266', '270', '274', '275', '277', '281', '285', '288', '292', '298', '299', '302', '304', '315', '333', '337', '339', '343', '347', '350', '355', '356', '364', '375', '379', '382', '383', '388', '389', '391', '393', '399', '407', '408', '411', '412', '413', '422', '431', '432', '433', '435', '436', '439', '444', '455', '462', '463', '475', '493', '504', '509', '510', '513', '515', '518', '519', '523', '530', '535', '551', '553', '568', '569', '570', '574', '576', '579', '580', '587', '589', '590', '593', '594', '599', '603', '605', '612', '620', '621', '622', '623', '624', '626', '627', '628', '632', '645', '655', '664', '680', '684', '691', '693', '700', '705', '710', '713', '717', '718', '721', '723', '726', '727', '733', '737', '743', '744', '746', '754', '755', '756', '764', '765', '766', '779', '783', '784', '792', '793', '794', '797', '800', '803', '806', '809', '813', '814', '818', '819', '823', '827', '829', '830', '835', '864', '866', '867', '872', '873', '881', '885', '888', '889', '890', '893', '897', '901', '903', '908', '909', '911', '914', '917', '918', '920', '928', '929', '934', '940', '942', '944', '947', '959', '963', '969', '970', '974', '975', '979', '982', '985', '988', '990', '999']",False,1000,True,100,43c1e3693b,0.0,1.0,0.0
