expe,clients,clients_size,clients_subset,agg_size,agg_size_pc,method,days,days_size,days_total,noise_method,time,valid,valid_sum,success,score_avg,score_min,score_max,nsols,oracle,wall_hit,wall_time,pooled,pool_size,uuid,infeasible,optimal,valid_sums
./expes/v3_2021-03-17_issda_1000-prng-1-w1-p100-ukn95_95,30_issda-1000,950,first-1000,100,10,rng,num-start-500,500,25726,ukn-95-95,49.41792297363281,False,,False,0.5849617645851279,0.5467015860883755,0.9274141618575573,100,"['4', '6', '7', '9', '25', '42', '45', '53', '57', '65', '83', '86', '90', '105', '114', '115', '125', '136', '137', '142', '143', '161', '173', '174', '191', '203', '205', '208', '210', '215', '230', '243', '244', '274', '288', '299', '339', '343', '347', '350', '383', '388', '389', '393', '407', '422', '432', '433', '435', '463', '475', '504', '515', '519', '553', '568', '593', '605', '612', '620', '628', '632', '691', '693', '705', '717', '721', '726', '743', '744', '746', '754', '765', '783', '792', '793', '809', '813', '829', '867', '872', '873', '888', '893', '901', '908', '909', '911', '914', '917', '918', '920', '929', '934', '942', '947', '959', '969', '975', '988']",False,1000,True,100,6a139fee0c,0.0,1.0,0.0
./expes/v3_2021-03-17_issda_1000-prng-1-w1-p100-ukn95_95,30_issda-1000,950,first-1000,450,47,rng,num-start-700,700,25726,ukn-95-95,66.72709202766418,False,,False,0.061133228807743564,0.03813493428835901,0.8477426614087193,100,"['4', '5', '7', '13', '14', '18', '21', '23', '24', '27', '32', '34', '35', '38', '39', '40', '45', '47', '51', '53', '59', '60', '63', '65', '66', '67', '68', '71', '72', '74', '77', '82', '83', '84', '85', '86', '87', '88', '89', '90', '92', '93', '95', '96', '98', '100', '103', '109', '110', '111', '112', '114', '115', '117', '120', '124', '125', '130', '131', '136', '139', '141', '143', '144', '146', '152', '153', '154', '158', '159', '161', '163', '164', '165', '168', '171', '174', '175', '177', '179', '180', '181', '182', '183', '192', '195', '196', '197', '198', '199', '201', '203', '204', '206', '207', '211', '213', '215', '216', '217', '223', '224', '226', '228', '230', '231', '233', '235', '237', '238', '240', '241', '249', '250', '251', '252', '254', '256', '261', '262', '265', '271', '273', '274', '276', '278', '281', '284', '290', '292', '293', '295', '296', '297', '298', '299', '301', '303', '304', '306', '307', '308', '310', '317', '320', '322', '327', '328', '329', '332', '334', '335', '346', '347', '349', '351', '352', '353', '357', '360', '365', '366', '367', '369', '370', '371', '373', '375', '376', '377', '379', '380', '381', '385', '386', '387', '388', '389', '390', '391', '393', '394', '396', '398', '399', '400', '401', '404', '406', '407', '411', '413', '417', '418', '420', '422', '425', '427', '428', '430', '434', '437', '438', '442', '443', '445', '447', '448', '451', '453', '456', '457', '460', '464', '465', '467', '468', '469', '471', '474', '483', '485', '486', '488', '491', '497', '500', '501', '502', '507', '509', '510', '511', '512', '513', '514', '515', '516', '517', '518', '519', '520', '523', '525', '527', '529', '530', '533', '534', '537', '538', '539', '540', '541', '542', '545', '547', '548', '553', '559', '561', '570', '571', '573', '577', '578', '580', '581', '583', '587', '588', '593', '594', '595', '596', '599', '600', '603', '611', '615', '616', '619', '620', '622', '625', '627', '628', '629', '633', '636', '639', '640', '641', '648', '651', '655', '658', '660', '662', '663', '664', '666', '668', '669', '670', '671', '673', '674', '675', '677', '679', '680', '684', '686', '690', '693', '697', '701', '702', '704', '707', '708', '709', '712', '718', '719', '722', '723', '726', '728', '733', '735', '736', '737', '739', '743', '744', '746', '747', '751', '753', '754', '755', '759', '762', '763', '766', '767', '768', '774', '778', '781', '783', '785', '786', '799', '800', '801', '803', '806', '808', '810', '813', '816', '824', '827', '828', '831', '833', '834', '835', '837', '839', '841', '843', '845', '846', '849', '850', '851', '852', '854', '855', '856', '857', '858', '859', '860', '863', '864', '865', '867', '868', '871', '873', '876', '878', '880', '881', '886', '888', '890', '897', '900', '903', '904', '905', '909', '910', '913', '915', '917', '919', '922', '924', '925', '926', '927', '928', '929', '930', '931', '932', '934', '935', '939', '941', '942', '943', '945', '948', '950', '951', '954', '955', '959', '960', '965', '969', '973', '981', '982', '986', '989', '991', '992', '994', '995', '997', '999']",False,1000,True,100,09c1d70257,0.0,1.0,0.0
./expes/v3_2021-03-17_issda_1000-prng-1-w1-p100-ukn95_95,30_issda-1000,950,first-1000,350,36,rng,num-start-600,600,25726,ukn-95-95,56.537333250045776,False,,False,0.3391674307896181,0.15164573874962772,0.8661583276551768,100,"['1', '2', '4', '6', '10', '12', '14', '19', '23', '24', '29', '30', '33', '34', '36', '37', '38', '43', '48', '50', '54', '56', '58', '59', '61', '65', '67', '68', '74', '81', '83', '92', '94', '95', '98', '105', '110', '111', '114', '116', '118', '122', '130', '134', '136', '137', '143', '145', '146', '150', '151', '152', '153', '161', '164', '166', '170', '171', '173', '174', '176', '177', '181', '182', '183', '184', '185', '186', '187', '190', '199', '201', '202', '204', '210', '213', '214', '215', '221', '222', '225', '232', '244', '252', '253', '256', '257', '262', '263', '271', '272', '278', '279', '281', '283', '286', '287', '288', '290', '296', '297', '299', '301', '302', '303', '306', '309', '310', '314', '317', '318', '320', '322', '324', '325', '326', '334', '340', '343', '347', '348', '349', '353', '354', '357', '359', '360', '364', '365', '366', '367', '368', '370', '371', '372', '373', '374', '375', '377', '381', '382', '383', '386', '387', '390', '393', '399', '414', '416', '418', '419', '420', '424', '425', '426', '427', '429', '431', '432', '444', '445', '452', '456', '461', '464', '465', '467', '474', '475', '477', '481', '482', '483', '484', '486', '489', '491', '493', '495', '496', '498', '500', '504', '506', '512', '513', '515', '525', '526', '528', '529', '531', '535', '538', '543', '545', '547', '553', '557', '559', '561', '562', '563', '564', '567', '573', '578', '588', '593', '595', '601', '602', '604', '605', '609', '611', '616', '618', '626', '627', '629', '632', '633', '636', '638', '639', '640', '641', '642', '643', '646', '647', '653', '654', '660', '663', '665', '666', '667', '668', '679', '680', '682', '685', '687', '688', '690', '695', '703', '705', '706', '708', '709', '712', '714', '720', '722', '725', '734', '736', '737', '738', '739', '748', '749', '750', '756', '758', '759', '760', '767', '768', '774', '778', '781', '785', '789', '793', '794', '795', '800', '801', '805', '807', '815', '817', '818', '821', '837', '838', '839', '840', '842', '847', '849', '852', '856', '857', '859', '861', '862', '864', '866', '873', '875', '877', '881', '888', '889', '890', '891', '893', '894', '898', '914', '915', '916', '919', '923', '924', '925', '939', '941', '945', '946', '947', '952', '959', '960', '961', '962', '964', '965', '966', '969', '973', '975', '978', '979', '980', '983', '984', '985', '988', '989', '990', '992', '996', '999', '1000']",False,1000,True,100,9dc72b7e36,0.0,1.0,0.0
./expes/v3_2021-03-17_issda_1000-prng-1-w1-p100-ukn95_95,30_issda-1000,950,first-1000,500,52,rng,num-start-200,200,25726,ukn-95-95,19.075886487960815,False,,False,0.03752215503288574,0.01379376410102362,0.8376931317097012,100,"['1', '2', '3', '4', '9', '10', '13', '14', '15', '16', '17', '20', '23', '24', '28', '29', '33', '34', '37', '38', '39', '40', '41', '42', '43', '44', '47', '48', '50', '52', '60', '63', '64', '65', '66', '68', '71', '72', '73', '74', '76', '81', '83', '84', '85', '86', '87', '90', '92', '94', '96', '98', '101', '102', '103', '104', '108', '112', '118', '119', '120', '121', '122', '123', '127', '128', '133', '134', '136', '137', '139', '142', '143', '144', '146', '150', '151', '152', '154', '155', '158', '159', '160', '162', '163', '164', '166', '168', '170', '171', '174', '175', '180', '183', '184', '185', '187', '189', '190', '192', '193', '194', '195', '196', '197', '200', '203', '204', '205', '207', '209', '210', '211', '213', '216', '219', '221', '222', '223', '224', '225', '226', '227', '228', '229', '242', '245', '246', '248', '249', '250', '257', '263', '264', '266', '267', '268', '277', '278', '282', '283', '286', '287', '288', '289', '295', '297', '298', '299', '301', '307', '309', '310', '311', '316', '318', '319', '320', '323', '324', '325', '326', '328', '330', '331', '333', '334', '337', '339', '341', '342', '343', '344', '346', '347', '349', '351', '352', '356', '359', '361', '363', '366', '367', '368', '370', '371', '376', '377', '378', '380', '381', '382', '385', '388', '389', '395', '398', '401', '404', '405', '407', '408', '409', '412', '413', '415', '416', '420', '425', '426', '428', '429', '430', '431', '434', '436', '437', '442', '445', '446', '447', '453', '454', '456', '457', '458', '459', '460', '462', '463', '464', '469', '470', '479', '482', '483', '484', '486', '488', '489', '490', '491', '493', '494', '498', '499', '500', '501', '502', '505', '506', '507', '508', '510', '511', '516', '517', '521', '524', '532', '534', '535', '536', '538', '539', '541', '542', '543', '546', '548', '551', '554', '556', '557', '558', '560', '561', '562', '565', '566', '570', '572', '574', '575', '578', '579', '582', '583', '584', '588', '590', '594', '597', '598', '599', '600', '602', '604', '605', '609', '611', '612', '617', '618', '619', '621', '623', '625', '626', '627', '628', '634', '636', '639', '641', '642', '643', '646', '649', '650', '651', '653', '654', '655', '656', '657', '660', '661', '663', '665', '667', '670', '672', '673', '674', '677', '679', '682', '685', '687', '689', '690', '692', '693', '694', '695', '696', '697', '698', '700', '701', '704', '706', '708', '715', '716', '717', '718', '719', '721', '723', '724', '727', '728', '730', '732', '733', '735', '736', '737', '743', '745', '747', '748', '749', '750', '753', '757', '760', '765', '767', '768', '771', '773', '774', '776', '777', '781', '786', '791', '796', '799', '802', '803', '804', '808', '809', '812', '813', '814', '817', '818', '819', '820', '823', '825', '826', '828', '829', '830', '832', '835', '836', '837', '838', '842', '843', '845', '846', '847', '848', '849', '850', '851', '854', '856', '858', '859', '861', '862', '863', '865', '866', '867', '870', '871', '872', '874', '875', '876', '878', '883', '885', '887', '889', '892', '893', '895', '896', '897', '898', '899', '906', '907', '910', '912', '914', '916', '917', '920', '921', '922', '924', '925', '927', '930', '931', '932', '935', '936', '938', '939', '940', '941', '942', '943', '944', '945', '946', '954', '956', '957', '959', '960', '961', '970', '971', '973', '977', '985', '986', '987', '989', '990', '991', '992', '994', '998', '1000']",False,1000,True,100,650113f343,0.0,1.0,0.0
