expe,clients,clients_size,clients_subset,agg_size,agg_size_pc,method,days,days_size,days_total,noise_method,time,valid,valid_sum,success,score_avg,score_min,score_max,nsols,oracle,wall_hit,wall_time,pooled,pool_size,uuid,infeasible,optimal,valid_sums
./expes/v3_2021-03-17_issda_1000-prng-1-w1-p100-ukn95_95,30_issda-1000,950,first-1000,150,15,rng,num-start-800,800,25726,ukn-95-95,71.31017351150513,False,,False,0.5084500693310532,0.4443507864919848,0.9141152780852307,100,"['8', '14', '16', '21', '30', '32', '37', '44', '46', '47', '65', '66', '68', '69', '91', '100', '107', '122', '128', '134', '138', '140', '155', '156', '164', '168', '197', '217', '223', '238', '240', '242', '244', '265', '266', '274', '276', '286', '287', '292', '301', '309', '318', '335', '339', '345', '353', '360', '375', '379', '387', '396', '397', '400', '405', '407', '418', '421', '426', '432', '438', '447', '456', '481', '482', '485', '486', '488', '494', '496', '507', '518', '520', '536', '547', '554', '555', '558', '563', '565', '583', '586', '588', '591', '595', '599', '600', '601', '606', '607', '610', '619', '620', '621', '630', '641', '642', '649', '651', '655', '672', '688', '689', '699', '713', '716', '731', '732', '735', '736', '737', '746', '760', '777', '780', '788', '796', '798', '799', '808', '820', '821', '844', '852', '854', '857', '858', '875', '876', '877', '882', '887', '889', '894', '900', '903', '919', '926', '927', '931', '938', '943', '944', '945', '949', '952', '959', '981', '988', '989']",False,1000,True,100,3cb292dc95,0.0,1.0,0.0
./expes/v3_2021-03-17_issda_1000-prng-1-w1-p100-ukn95_95,30_issda-1000,950,first-1000,300,31,rng,num-start-800,800,25726,ukn-95-95,61.81830883026123,False,,False,0.33112612026869703,0.21486411611467948,0.8742776404273184,100,"['2', '4', '6', '10', '12', '14', '19', '23', '24', '30', '33', '34', '36', '38', '48', '50', '54', '58', '59', '61', '65', '67', '68', '74', '81', '83', '92', '94', '95', '105', '110', '111', '116', '122', '130', '134', '136', '143', '145', '146', '150', '151', '152', '153', '161', '164', '166', '170', '171', '173', '174', '177', '181', '182', '183', '184', '185', '186', '187', '190', '202', '204', '210', '213', '214', '215', '221', '222', '244', '252', '253', '256', '257', '262', '263', '271', '272', '279', '281', '283', '287', '288', '296', '297', '299', '301', '302', '303', '306', '309', '314', '317', '318', '320', '322', '324', '325', '326', '334', '340', '343', '347', '349', '353', '354', '357', '359', '364', '365', '366', '367', '368', '370', '371', '372', '373', '374', '375', '377', '381', '382', '386', '387', '390', '393', '399', '414', '416', '418', '419', '424', '425', '429', '431', '432', '444', '445', '456', '461', '464', '465', '467', '474', '475', '477', '481', '482', '484', '486', '491', '493', '496', '498', '500', '504', '506', '512', '513', '515', '525', '526', '528', '531', '535', '538', '543', '545', '547', '553', '557', '559', '561', '562', '563', '573', '578', '588', '593', '595', '601', '602', '604', '609', '611', '616', '618', '626', '633', '636', '638', '639', '641', '642', '643', '646', '654', '660', '663', '665', '666', '667', '668', '680', '685', '688', '690', '695', '703', '705', '706', '708', '712', '714', '720', '722', '725', '734', '738', '739', '748', '749', '750', '756', '758', '759', '760', '767', '768', '774', '778', '781', '785', '789', '793', '794', '795', '800', '801', '805', '807', '815', '817', '818', '821', '837', '838', '839', '840', '842', '847', '849', '856', '857', '859', '861', '862', '864', '866', '873', '875', '881', '888', '889', '890', '891', '893', '894', '898', '915', '916', '919', '923', '924', '939', '941', '945', '946', '947', '952', '959', '960', '961', '962', '964', '965', '966', '969', '973', '978', '979', '980', '983', '984', '985', '989', '990', '992', '996', '999', '1000']",False,1000,True,100,930a879f33,0.0,1.0,0.0
./expes/v3_2021-03-17_issda_1000-prng-1-w1-p100-ukn95_95,30_issda-1000,950,first-1000,150,15,rng,num-start-100,100,25726,ukn-95-95,8.164781332015991,False,,False,0.49722150816908794,0.4443507864919848,0.9141152780852307,100,"['24', '39', '41', '48', '50', '51', '60', '61', '62', '63', '64', '65', '67', '71', '72', '75', '80', '84', '89', '93', '96', '97', '100', '106', '120', '121', '127', '137', '148', '155', '156', '169', '173', '185', '186', '193', '211', '220', '227', '229', '247', '250', '255', '277', '292', '295', '297', '307', '308', '316', '318', '322', '332', '349', '351', '352', '356', '359', '364', '371', '375', '382', '396', '405', '407', '429', '430', '432', '435', '438', '445', '457', '460', '465', '468', '473', '477', '486', '501', '506', '507', '509', '520', '525', '538', '545', '549', '554', '561', '565', '571', '572', '574', '578', '580', '585', '587', '589', '591', '592', '594', '596', '597', '600', '609', '624', '626', '634', '643', '646', '655', '663', '667', '681', '685', '697', '698', '699', '712', '714', '716', '719', '730', '734', '747', '749', '776', '783', '796', '799', '809', '814', '817', '836', '838', '841', '842', '847', '861', '880', '897', '909', '932', '946', '956', '964', '968', '971', '986', '1000']",False,1000,True,100,0246930334,0.0,1.0,0.0
./expes/v3_2021-03-17_issda_1000-prng-1-w1-p100-ukn95_95,30_issda-1000,950,first-1000,500,52,rng,num-start-900,900,25726,ukn-95-95,71.43073987960815,False,,False,0.03587884880422085,0.012725863153721706,0.8313257546222874,100,"['2', '4', '5', '6', '8', '12', '14', '16', '19', '21', '22', '23', '25', '27', '28', '29', '30', '32', '33', '34', '35', '36', '37', '38', '44', '45', '46', '47', '48', '51', '52', '53', '55', '57', '62', '63', '65', '66', '68', '69', '70', '71', '74', '79', '80', '82', '86', '88', '89', '91', '95', '99', '100', '102', '103', '105', '106', '107', '108', '110', '111', '112', '117', '118', '122', '123', '124', '125', '126', '127', '128', '129', '130', '131', '132', '133', '134', '135', '137', '138', '140', '142', '147', '153', '155', '156', '160', '161', '164', '165', '167', '168', '174', '176', '182', '183', '184', '185', '188', '190', '191', '192', '196', '197', '203', '204', '205', '217', '223', '224', '227', '228', '230', '231', '233', '238', '240', '241', '242', '244', '245', '246', '248', '251', '255', '256', '258', '259', '265', '266', '269', '270', '271', '272', '274', '276', '277', '278', '281', '286', '287', '292', '294', '296', '298', '299', '301', '306', '307', '308', '309', '311', '312', '318', '321', '322', '323', '324', '327', '328', '330', '331', '333', '334', '335', '336', '337', '339', '341', '342', '345', '348', '349', '350', '353', '354', '355', '359', '360', '361', '362', '369', '370', '373', '375', '377', '379', '382', '383', '384', '385', '386', '387', '390', '396', '397', '399', '400', '404', '405', '407', '410', '411', '418', '420', '421', '423', '424', '426', '427', '429', '430', '431', '432', '434', '436', '437', '438', '439', '441', '442', '445', '446', '447', '448', '449', '454', '456', '462', '466', '468', '472', '476', '478', '481', '482', '485', '486', '488', '489', '493', '494', '495', '496', '500', '502', '507', '509', '510', '513', '515', '516', '518', '520', '523', '524', '525', '528', '530', '531', '532', '533', '534', '536', '538', '540', '542', '543', '545', '547', '548', '549', '550', '554', '555', '557', '558', '562', '563', '564', '565', '567', '568', '569', '570', '573', '578', '581', '582', '583', '585', '586', '588', '589', '591', '593', '594', '595', '599', '600', '601', '602', '603', '604', '605', '606', '607', '610', '614', '615', '616', '619', '620', '621', '624', '626', '627', '630', '631', '633', '635', '636', '638', '641', '642', '643', '644', '648', '649', '650', '651', '652', '655', '658', '659', '660', '662', '663', '666', '670', '672', '676', '679', '684', '688', '689', '690', '691', '692', '693', '695', '696', '698', '699', '701', '703', '707', '708', '711', '712', '713', '714', '715', '716', '717', '720', '724', '730', '731', '732', '733', '734', '735', '736', '737', '738', '741', '746', '750', '752', '753', '756', '760', '764', '766', '767', '771', '772', '775', '777', '779', '780', '786', '788', '791', '793', '794', '796', '798', '799', '802', '806', '807', '808', '810', '811', '812', '813', '815', '818', '820', '821', '823', '824', '826', '827', '830', '831', '832', '833', '837', '840', '844', '848', '852', '853', '854', '857', '858', '859', '862', '864', '865', '871', '873', '875', '876', '877', '878', '879', '882', '883', '884', '885', '887', '888', '889', '891', '892', '894', '900', '901', '902', '903', '905', '907', '908', '909', '911', '912', '919', '920', '922', '926', '927', '931', '935', '938', '939', '940', '943', '944', '945', '947', '949', '950', '952', '957', '959', '962', '964', '966', '972', '973', '974', '976', '978', '981', '982', '984', '987', '988', '989', '990', '991', '993', '995', '996', '997', '999']",False,1000,True,100,4425125e85,0.0,1.0,0.0
