expe,clients,clients_size,clients_subset,agg_size,agg_size_pc,method,days,days_size,days_total,noise_method,time,valid,valid_sum,success,score_avg,score_min,score_max,nsols,oracle,wall_hit,wall_time,pooled,pool_size,uuid,infeasible,optimal,valid_sums
./expes/v3_2021-02-19_hi_1000-prng-1-w1-fpa10-0.6-p100,30_issda-1000,1000,first-1000,50,5,rng,num-start-1250,1250,25726,fpa-09-10-0.6-20,212.17266392707825,False,,False,0.6924167136033601,0.6836140014158336,0.7032036252106706,100,"['21', '27', '61', '69', '89', '93', '106', '109', '159', '169', '177', '199', '220', '228', '242', '267', '269', '279', '284', '297', '311', '318', '369', '382', '406', '412', '491', '533', '550', '563', '621', '643', '657', '739', '750', '784', '799', '820', '827', '847', '849', '866', '869', '876', '889', '902', '940', '950', '966', '984']",False,1000,True,100,302e8ddf5d,0.0,1.0,0.0
./expes/v3_2021-02-19_hi_1000-prng-1-w1-fpa10-0.6-p100,30_issda-1000,1000,first-1000,350,35,rng,num-start-3750,3750,25726,fpa-09-10-0.6-20,580.8917083740234,False,,False,0.3301176063586464,0.32438438705395767,0.33634313049555464,100,"['2', '5', '6', '9', '17', '19', '20', '21', '22', '25', '26', '29', '32', '33', '35', '37', '38', '42', '45', '47', '51', '53', '58', '59', '61', '62', '70', '76', '78', '79', '83', '85', '87', '90', '94', '96', '97', '99', '103', '104', '105', '108', '109', '114', '116', '118', '119', '122', '125', '131', '135', '140', '144', '148', '155', '156', '158', '161', '163', '165', '166', '169', '171', '174', '175', '177', '178', '181', '182', '186', '187', '189', '196', '197', '204', '213', '214', '216', '218', '223', '225', '228', '231', '233', '234', '237', '238', '239', '242', '247', '251', '253', '254', '256', '257', '258', '260', '261', '262', '263', '266', '269', '271', '273', '275', '280', '286', '292', '293', '297', '311', '314', '316', '317', '318', '320', '324', '327', '333', '336', '346', '350', '353', '354', '360', '363', '369', '370', '371', '372', '373', '375', '376', '381', '382', '383', '390', '394', '395', '402', '403', '405', '410', '412', '417', '419', '421', '423', '425', '429', '430', '434', '436', '442', '445', '456', '457', '459', '460', '463', '465', '466', '468', '473', '475', '476', '477', '485', '492', '498', '499', '501', '502', '503', '511', '513', '515', '517', '520', '521', '522', '523', '524', '525', '527', '528', '531', '532', '534', '535', '536', '538', '539', '544', '549', '558', '565', '571', '572', '574', '576', '582', '586', '589', '596', '599', '603', '604', '606', '608', '620', '621', '622', '626', '629', '631', '632', '637', '639', '640', '643', '651', '653', '654', '658', '668', '669', '671', '675', '677', '678', '680', '686', '687', '689', '691', '698', '699', '701', '702', '704', '707', '709', '717', '723', '724', '726', '727', '732', '733', '734', '735', '741', '742', '744', '747', '749', '753', '754', '757', '758', '761', '763', '766', '769', '772', '773', '774', '778', '779', '782', '785', '792', '794', '800', '804', '808', '809', '811', '814', '816', '819', '820', '822', '823', '826', '829', '832', '833', '835', '841', '845', '846', '852', '856', '859', '861', '870', '875', '880', '881', '884', '892', '896', '897', '898', '902', '903', '904', '905', '906', '909', '911', '914', '916', '920', '922', '923', '924', '925', '929', '930', '931', '934', '938', '939', '941', '943', '944', '948', '952', '955', '957', '958', '959', '961', '964', '967', '971', '973', '978', '979', '981', '982', '983', '984', '985', '987', '994', '995']",False,1000,True,100,97b30abf91,0.0,1.0,0.0
./expes/v3_2021-02-19_hi_1000-prng-1-w1-fpa10-0.6-p100,30_issda-1000,1000,first-1000,350,35,rng,num-start-2750,2750,25726,fpa-09-10-0.6-20,417.8363015651703,False,,False,0.3195018393874936,0.317016496197407,0.33634313049555464,100,"['1', '2', '3', '4', '13', '14', '15', '16', '17', '23', '24', '28', '33', '34', '38', '40', '41', '42', '47', '48', '52', '60', '63', '64', '65', '66', '71', '72', '74', '76', '81', '83', '85', '86', '92', '94', '96', '98', '101', '102', '104', '112', '119', '120', '121', '122', '123', '127', '128', '134', '136', '139', '143', '144', '146', '150', '151', '154', '158', '162', '163', '164', '166', '170', '174', '175', '180', '185', '189', '190', '192', '193', '194', '195', '196', '197', '200', '204', '205', '209', '210', '216', '219', '221', '224', '225', '226', '227', '228', '229', '242', '245', '246', '248', '249', '250', '257', '266', '267', '278', '282', '283', '288', '289', '295', '298', '299', '309', '311', '318', '319', '320', '324', '325', '328', '333', '334', '339', '341', '342', '343', '344', '351', '359', '361', '363', '366', '367', '368', '380', '381', '388', '395', '398', '401', '409', '412', '415', '420', '425', '426', '428', '429', '430', '431', '436', '437', '445', '447', '453', '454', '456', '457', '458', '459', '462', '469', '479', '482', '483', '484', '488', '489', '491', '494', '498', '499', '502', '505', '506', '507', '516', '517', '521', '524', '534', '535', '538', '541', '542', '543', '546', '548', '554', '557', '558', '561', '562', '565', '566', '574', '575', '582', '583', '584', '588', '590', '594', '598', '602', '604', '605', '609', '611', '612', '617', '618', '619', '621', '623', '625', '626', '627', '628', '634', '636', '641', '646', '649', '650', '651', '653', '656', '657', '663', '665', '667', '673', '674', '677', '679', '682', '685', '689', '690', '692', '693', '695', '696', '697', '698', '700', '701', '708', '715', '716', '717', '718', '719', '721', '723', '724', '727', '728', '733', '735', '736', '737', '743', '745', '748', '750', '757', '760', '767', '773', '774', '776', '777', '781', '786', '791', '802', '803', '804', '808', '813', '814', '818', '819', '820', '823', '825', '829', '830', '832', '835', '836', '837', '842', '843', '845', '846', '848', '849', '850', '851', '854', '856', '858', '859', '861', '863', '865', '866', '870', '871', '875', '876', '887', '889', '892', '893', '896', '897', '898', '906', '907', '912', '914', '917', '920', '921', '922', '924', '927', '930', '932', '935', '938', '939', '940', '941', '944', '945', '946', '956', '959', '960', '970', '973', '977', '985', '987', '989', '990', '991', '992', '994', '998']",False,1000,True,100,026649e53a,0.0,1.0,0.0
./expes/v3_2021-02-19_hi_1000-prng-1-w1-fpa10-0.6-p100,30_issda-1000,1000,first-1000,150,15,rng,num-start-1250,1250,25726,fpa-09-10-0.6-20,172.45776963233948,False,,False,0.49501267151174666,0.487884522532015,0.5017548311842369,100,"['3', '10', '13', '23', '27', '30', '31', '32', '36', '45', '65', '89', '97', '103', '105', '111', '121', '124', '138', '168', '173', '175', '178', '191', '195', '205', '215', '222', '225', '228', '233', '235', '237', '238', '239', '249', '262', '273', '291', '297', '304', '311', '316', '326', '341', '354', '376', '380', '384', '389', '391', '400', '403', '404', '414', '425', '427', '433', '444', '449', '450', '457', '461', '471', '481', '484', '492', '500', '502', '508', '512', '513', '515', '518', '520', '521', '534', '541', '553', '555', '562', '567', '570', '583', '593', '602', '604', '606', '608', '623', '630', '645', '658', '663', '666', '668', '680', '681', '687', '691', '694', '703', '713', '720', '721', '729', '739', '742', '744', '751', '756', '761', '762', '780', '781', '783', '786', '790', '795', '798', '808', '817', '822', '850', '856', '858', '861', '867', '868', '869', '874', '881', '903', '904', '915', '918', '924', '933', '939', '943', '945', '949', '959', '962', '964', '968', '976', '991', '993', '997']",False,1000,True,100,407662308d,0.0,1.0,0.0
./expes/v3_2021-02-19_hi_1000-prng-1-w1-fpa10-0.6-p100,30_issda-1000,1000,first-1000,200,20,rng,num-start-1250,1250,25726,fpa-09-10-0.6-20,183.97525882720947,False,,False,0.4519958835021886,0.4287502067166008,0.45566894604818264,100,"['2', '9', '22', '25', '26', '29', '33', '37', '42', '45', '51', '58', '59', '61', '62', '70', '78', '85', '87', '94', '109', '118', '131', '140', '161', '163', '166', '169', '171', '174', '177', '178', '181', '182', '187', '189', '196', '213', '216', '218', '228', '233', '237', '242', '251', '254', '256', '258', '262', '273', '275', '280', '286', '311', '316', '317', '320', '327', '333', '350', '360', '363', '369', '370', '371', '372', '373', '376', '381', '383', '390', '395', '403', '410', '417', '425', '434', '442', '456', '457', '466', '468', '473', '477', '492', '499', '501', '502', '511', '513', '515', '517', '520', '522', '523', '525', '527', '528', '531', '535', '536', '538', '539', '544', '558', '571', '574', '576', '582', '589', '596', '603', '604', '606', '608', '621', '622', '631', '632', '639', '654', '668', '669', '671', '675', '678', '686', '689', '691', '698', '699', '701', '709', '717', '724', '733', '735', '741', '742', '744', '747', '749', '753', '754', '757', '763', '773', '778', '782', '792', '804', '809', '814', '816', '819', '823', '829', '833', '835', '841', '845', '852', '856', '870', '875', '880', '881', '884', '892', '897', '898', '902', '904', '905', '906', '914', '916', '920', '922', '923', '925', '929', '930', '931', '934', '938', '941', '943', '948', '955', '957', '959', '964', '967', '971', '973', '978', '979', '981', '985']",False,1000,True,100,b0fc5248dc,0.0,1.0,0.0
./expes/v3_2021-02-19_hi_1000-prng-1-w1-fpa10-0.6-p100,30_issda-1000,1000,first-1000,350,35,rng,num-start-3750,3750,25726,fpa-09-10-0.6-20,786.7236890792847,False,,False,0.33577785446188374,0.3155524355595466,0.3408835956870482,100,"['2', '3', '6', '9', '10', '13', '15', '18', '19', '22', '23', '25', '27', '29', '30', '31', '32', '34', '36', '37', '39', '45', '49', '58', '61', '65', '72', '73', '79', '86', '89', '94', '97', '99', '102', '103', '105', '107', '111', '112', '113', '117', '121', '124', '129', '133', '134', '138', '139', '150', '161', '163', '164', '165', '168', '172', '173', '175', '176', '178', '182', '186', '190', '191', '193', '195', '199', '205', '206', '211', '215', '218', '219', '222', '223', '225', '226', '228', '229', '231', '233', '235', '236', '237', '238', '239', '249', '256', '259', '260', '262', '265', '273', '276', '280', '288', '289', '291', '297', '298', '302', '304', '306', '311', '314', '316', '318', '320', '326', '329', '330', '334', '336', '340', '341', '348', '352', '353', '354', '355', '356', '362', '366', '374', '376', '380', '384', '388', '389', '391', '393', '396', '400', '403', '404', '405', '407', '412', '414', '415', '424', '425', '427', '432', '433', '437', '440', '443', '444', '449', '450', '457', '461', '462', '464', '466', '470', '471', '472', '481', '484', '486', '492', '493', '497', '500', '502', '505', '508', '509', '512', '513', '515', '517', '518', '519', '520', '521', '522', '523', '525', '527', '529', '532', '534', '537', '541', '552', '553', '554', '555', '558', '562', '564', '565', '567', '568', '570', '575', '577', '579', '583', '584', '588', '590', '592', '593', '599', '602', '604', '605', '606', '608', '615', '621', '623', '624', '627', '628', '630', '638', '639', '640', '645', '646', '647', '651', '658', '663', '664', '665', '666', '668', '673', '676', '680', '681', '682', '687', '690', '691', '692', '694', '695', '703', '712', '713', '720', '721', '722', '729', '737', '739', '742', '744', '747', '748', '751', '756', '759', '761', '762', '773', '774', '780', '781', '783', '786', '790', '795', '797', '798', '799', '802', '803', '806', '808', '816', '817', '818', '822', '823', '824', '829', '831', '833', '837', '840', '841', '848', '850', '853', '856', '858', '861', '862', '867', '868', '869', '871', '872', '874', '878', '879', '880', '881', '882', '889', '891', '893', '897', '900', '903', '904', '908', '915', '918', '919', '922', '923', '924', '932', '933', '939', '940', '943', '945', '949', '954', '959', '961', '962', '964', '967', '968', '973', '975', '976', '978', '981', '983', '986', '989', '991', '992', '993', '997', '998', '999', '1000']",False,1000,True,100,0064959520,0.0,1.0,0.0
./expes/v3_2021-02-19_hi_1000-prng-1-w1-fpa10-0.6-p100,30_issda-1000,1000,first-1000,350,35,rng,num-start-2250,2250,25726,fpa-09-10-0.6-20,400.6208002567291,False,,False,0.33249990211959835,0.31409149992840113,0.33634313049555464,100,"['5', '8', '12', '14', '16', '21', '22', '23', '28', '30', '32', '33', '34', '35', '36', '37', '44', '46', '47', '51', '55', '62', '63', '65', '66', '68', '69', '70', '79', '82', '88', '91', '100', '105', '106', '107', '108', '111', '117', '122', '123', '124', '126', '128', '129', '133', '134', '135', '137', '138', '140', '142', '155', '156', '160', '164', '168', '174', '176', '182', '188', '190', '192', '196', '197', '203', '204', '205', '217', '223', '224', '227', '228', '230', '231', '233', '238', '240', '242', '244', '245', '246', '251', '258', '259', '265', '266', '270', '271', '274', '276', '278', '286', '287', '292', '294', '296', '298', '299', '301', '306', '308', '309', '311', '318', '321', '322', '323', '328', '330', '335', '336', '339', '341', '342', '345', '348', '349', '350', '353', '354', '355', '360', '361', '362', '369', '373', '375', '379', '386', '387', '396', '397', '400', '405', '407', '418', '420', '421', '424', '426', '427', '430', '432', '438', '441', '442', '445', '446', '447', '448', '449', '456', '462', '468', '472', '476', '478', '481', '482', '485', '486', '488', '489', '493', '494', '496', '502', '507', '513', '516', '518', '520', '523', '525', '531', '532', '533', '534', '536', '538', '543', '547', '548', '549', '550', '554', '555', '557', '558', '562', '563', '565', '573', '582', '583', '586', '588', '589', '591', '594', '595', '599', '600', '601', '603', '604', '606', '607', '610', '615', '616', '619', '620', '621', '624', '626', '627', '630', '631', '635', '636', '638', '641', '642', '643', '644', '648', '649', '650', '651', '655', '658', '660', '666', '670', '672', '679', '688', '689', '692', '693', '695', '696', '698', '699', '701', '707', '711', '713', '715', '716', '724', '731', '732', '733', '735', '736', '737', '738', '746', '753', '756', '760', '764', '766', '772', '777', '780', '788', '791', '796', '798', '799', '802', '806', '807', '808', '813', '820', '821', '823', '824', '826', '827', '830', '831', '832', '833', '837', '844', '848', '852', '853', '854', '857', '858', '859', '865', '871', '875', '876', '877', '879', '882', '883', '885', '887', '888', '889', '891', '894', '900', '902', '903', '905', '907', '909', '912', '919', '922', '926', '927', '931', '935', '938', '940', '943', '944', '945', '947', '949', '950', '952', '959', '962', '964', '966', '972', '973', '978', '981', '982', '984', '987', '988', '989', '995', '996', '997']",False,1000,True,100,af8e175365,0.0,1.0,0.0
./expes/v3_2021-02-19_hi_1000-prng-1-w1-fpa10-0.6-p100,30_issda-1000,1000,first-1000,450,45,rng,num-start-750,750,25726,fpa-09-10-0.6-20,80.58747816085815,False,,False,0.2936313743449536,0.2883072948901987,0.298221906517101,100,"['1', '2', '3', '4', '9', '10', '13', '14', '15', '16', '17', '20', '23', '24', '28', '33', '34', '37', '38', '39', '40', '41', '42', '43', '44', '47', '48', '50', '52', '60', '63', '64', '65', '66', '68', '71', '72', '73', '74', '76', '81', '83', '84', '85', '86', '87', '90', '92', '94', '96', '98', '101', '102', '103', '104', '112', '118', '119', '120', '121', '122', '123', '127', '128', '133', '134', '136', '137', '139', '142', '143', '144', '146', '150', '151', '154', '155', '158', '159', '160', '162', '163', '164', '166', '168', '170', '171', '174', '175', '180', '183', '184', '185', '187', '189', '190', '192', '193', '194', '195', '196', '197', '200', '203', '204', '205', '209', '210', '211', '213', '216', '219', '221', '224', '225', '226', '227', '228', '229', '242', '245', '246', '248', '249', '250', '257', '263', '266', '267', '277', '278', '282', '283', '286', '287', '288', '289', '295', '297', '298', '299', '301', '307', '309', '310', '311', '316', '318', '319', '320', '323', '324', '325', '328', '333', '334', '337', '339', '341', '342', '343', '344', '346', '347', '351', '352', '356', '359', '361', '363', '366', '367', '368', '370', '376', '377', '380', '381', '382', '385', '388', '395', '398', '401', '404', '405', '407', '409', '412', '413', '415', '420', '425', '426', '428', '429', '430', '431', '436', '437', '445', '446', '447', '453', '454', '456', '457', '458', '459', '460', '462', '464', '469', '470', '479', '482', '483', '484', '486', '488', '489', '490', '491', '493', '494', '498', '499', '502', '505', '506', '507', '510', '516', '517', '521', '524', '532', '534', '535', '536', '538', '541', '542', '543', '546', '548', '551', '554', '557', '558', '561', '562', '565', '566', '570', '572', '574', '575', '579', '582', '583', '584', '588', '590', '594', '598', '602', '604', '605', '609', '611', '612', '617', '618', '619', '621', '623', '625', '626', '627', '628', '634', '636', '641', '642', '643', '646', '649', '650', '651', '653', '655', '656', '657', '660', '661', '663', '665', '667', '670', '672', '673', '674', '677', '679', '682', '685', '689', '690', '692', '693', '695', '696', '697', '698', '700', '701', '704', '706', '708', '715', '716', '717', '718', '719', '721', '723', '724', '727', '728', '730', '733', '735', '736', '737', '743', '745', '747', '748', '749', '750', '753', '757', '760', '767', '768', '773', '774', '776', '777', '781', '786', '791', '799', '802', '803', '804', '808', '809', '812', '813', '814', '818', '819', '820', '823', '825', '826', '828', '829', '830', '832', '835', '836', '837', '842', '843', '845', '846', '848', '849', '850', '851', '854', '856', '858', '859', '861', '862', '863', '865', '866', '867', '870', '871', '872', '875', '876', '878', '883', '887', '889', '892', '893', '895', '896', '897', '898', '906', '907', '912', '914', '916', '917', '920', '921', '922', '924', '925', '927', '930', '931', '932', '935', '936', '938', '939', '940', '941', '942', '944', '945', '946', '956', '957', '959', '960', '961', '970', '973', '977', '985', '987', '989', '990', '991', '992', '994', '998', '1000']",False,1000,True,100,5bb6bb9298,0.0,1.0,0.0
./expes/v3_2021-02-19_hi_1000-prng-1-w1-fpa10-0.6-p100,30_issda-1000,1000,first-1000,300,30,rng,num-start-4000,4000,25726,fpa-09-10-0.6-20,596.5905992984772,False,,False,0.3412853644808916,0.33333333333333337,0.3751877158774882,100,"['8', '10', '19', '21', '27', '33', '37', '38', '42', '44', '45', '46', '48', '53', '57', '61', '62', '64', '69', '77', '80', '84', '85', '89', '92', '93', '96', '100', '104', '106', '109', '117', '120', '126', '131', '140', '146', '149', '154', '157', '159', '163', '166', '169', '170', '172', '173', '174', '177', '182', '183', '189', '193', '196', '197', '199', '200', '201', '204', '206', '207', '208', '213', '214', '216', '220', '221', '224', '225', '228', '235', '238', '239', '242', '244', '248', '249', '254', '255', '256', '257', '260', '261', '266', '267', '268', '269', '275', '276', '279', '283', '284', '285', '287', '288', '293', '296', '297', '298', '299', '300', '301', '304', '308', '311', '313', '318', '320', '323', '329', '330', '331', '332', '333', '335', '340', '345', '346', '347', '352', '365', '366', '369', '372', '373', '374', '382', '391', '397', '398', '400', '402', '405', '406', '412', '413', '414', '420', '421', '423', '424', '428', '431', '432', '434', '435', '439', '441', '442', '447', '450', '452', '455', '463', '466', '471', '474', '476', '483', '484', '485', '490', '491', '503', '504', '507', '509', '511', '519', '521', '532', '533', '539', '541', '542', '548', '550', '560', '561', '563', '572', '579', '583', '584', '586', '587', '597', '603', '610', '614', '621', '622', '631', '633', '635', '636', '642', '643', '648', '650', '651', '657', '658', '663', '664', '668', '669', '670', '671', '673', '684', '685', '688', '690', '692', '694', '697', '703', '705', '715', '718', '722', '726', '735', '739', '750', '753', '755', '763', '765', '784', '786', '791', '793', '794', '799', '803', '810', '817', '818', '819', '820', '821', '824', '827', '833', '835', '838', '847', '849', '851', '855', '860', '861', '866', '869', '876', '877', '880', '883', '887', '889', '891', '892', '895', '902', '904', '911', '913', '916', '918', '921', '922', '923', '927', '931', '936', '939', '940', '945', '947', '950', '951', '953', '958', '965', '966', '967', '968', '978', '980', '983', '984', '985', '986', '988', '990', '992', '994', '995']",False,1000,True,100,cbbb914ee0,0.0,1.0,0.0
./expes/v3_2021-02-19_hi_1000-prng-1-w1-fpa10-0.6-p100,30_issda-1000,1000,first-1000,250,25,rng,num-start-1000,1000,25726,fpa-09-10-0.6-20,187.98984742164612,False,,False,0.37055765755258685,0.365648045323101,0.396373986342235,100,"['8', '10', '19', '21', '27', '33', '37', '38', '42', '44', '45', '46', '48', '53', '57', '61', '64', '69', '80', '84', '85', '89', '92', '93', '100', '104', '106', '109', '117', '120', '126', '140', '146', '149', '154', '157', '159', '163', '166', '169', '173', '174', '177', '182', '183', '189', '193', '197', '199', '200', '201', '204', '206', '207', '208', '213', '214', '220', '221', '225', '228', '235', '238', '239', '242', '244', '248', '249', '254', '255', '256', '257', '260', '261', '266', '267', '268', '269', '279', '283', '284', '285', '287', '288', '293', '296', '297', '298', '299', '300', '301', '308', '311', '313', '318', '320', '323', '329', '330', '331', '332', '333', '335', '340', '346', '352', '365', '366', '369', '372', '373', '374', '382', '391', '397', '398', '406', '412', '413', '420', '421', '423', '424', '428', '432', '434', '435', '439', '442', '447', '450', '452', '455', '463', '466', '471', '474', '483', '485', '490', '491', '503', '504', '507', '511', '519', '521', '532', '533', '539', '542', '548', '550', '560', '561', '563', '572', '579', '584', '586', '587', '597', '603', '610', '614', '621', '622', '631', '633', '636', '642', '643', '648', '650', '651', '657', '663', '664', '668', '669', '670', '688', '690', '692', '694', '697', '715', '718', '722', '726', '735', '739', '750', '753', '755', '763', '765', '784', '791', '793', '794', '799', '803', '810', '817', '820', '824', '827', '833', '838', '847', '849', '851', '855', '860', '861', '866', '869', '876', '883', '887', '889', '891', '892', '902', '904', '911', '913', '916', '918', '923', '927', '931', '936', '939', '940', '950', '951', '958', '965', '966', '968', '978', '983', '984', '985', '986', '988', '990', '994']",False,1000,True,100,9b0ba86b0d,0.0,1.0,0.0
./expes/v3_2021-02-19_hi_1000-prng-1-w1-fpa10-0.6-p100,30_issda-1000,1000,first-1000,200,20,rng,num-start-3750,3750,25726,fpa-09-10-0.6-20,507.21733832359314,False,,False,0.43478200680955015,0.4148997159953327,0.43936258213145074,100,"['2', '3', '6', '10', '13', '23', '27', '30', '31', '32', '36', '45', '58', '65', '89', '97', '103', '105', '111', '121', '124', '133', '138', '168', '173', '175', '178', '191', '195', '205', '211', '215', '222', '225', '228', '233', '235', '237', '238', '239', '249', '262', '273', '276', '291', '297', '304', '311', '316', '326', '340', '341', '353', '354', '355', '362', '366', '374', '376', '380', '384', '389', '391', '393', '400', '403', '404', '414', '415', '424', '425', '427', '433', '437', '444', '449', '450', '457', '461', '470', '471', '481', '484', '492', '493', '497', '500', '502', '508', '512', '513', '515', '517', '518', '520', '521', '525', '527', '532', '534', '541', '552', '553', '554', '555', '562', '567', '568', '570', '575', '583', '584', '592', '593', '602', '604', '606', '608', '615', '623', '624', '628', '630', '639', '645', '658', '663', '666', '668', '676', '680', '681', '687', '691', '694', '703', '713', '720', '721', '729', '739', '742', '744', '747', '751', '756', '759', '761', '762', '780', '781', '783', '786', '790', '795', '797', '798', '803', '806', '808', '817', '822', '829', '833', '841', '850', '856', '858', '861', '867', '868', '869', '874', '878', '881', '891', '903', '904', '908', '915', '918', '924', '932', '933', '939', '943', '945', '949', '959', '961', '962', '964', '968', '973', '976', '978', '981', '991', '993', '997']",False,1000,True,100,4269e74a2f,0.0,1.0,0.0
./expes/v3_2021-02-19_hi_1000-prng-1-w1-fpa10-0.6-p100,30_issda-1000,1000,first-1000,350,35,rng,num-start-3500,3500,25726,fpa-09-10-0.6-20,502.7792193889618,False,,False,0.3245961867117304,0.3184837019817762,0.33483652953394794,100,"['2', '5', '6', '9', '17', '19', '20', '21', '22', '25', '26', '29', '32', '33', '35', '37', '38', '42', '45', '47', '51', '53', '58', '59', '61', '62', '70', '76', '78', '79', '83', '85', '87', '90', '94', '96', '97', '99', '103', '104', '105', '108', '109', '114', '116', '118', '119', '122', '125', '131', '135', '140', '144', '148', '155', '156', '158', '161', '163', '165', '166', '169', '171', '174', '175', '177', '178', '181', '182', '186', '187', '189', '196', '197', '204', '213', '214', '216', '218', '223', '225', '228', '231', '233', '234', '237', '238', '239', '242', '247', '251', '253', '254', '256', '257', '258', '260', '261', '262', '263', '266', '269', '271', '273', '275', '280', '286', '292', '293', '297', '311', '314', '316', '317', '318', '320', '324', '327', '333', '336', '346', '350', '353', '354', '360', '363', '369', '370', '371', '372', '373', '375', '376', '381', '382', '383', '390', '394', '395', '402', '403', '405', '410', '412', '417', '419', '421', '423', '425', '429', '430', '434', '436', '442', '445', '456', '457', '459', '460', '463', '465', '466', '468', '473', '475', '476', '477', '485', '492', '498', '499', '501', '502', '503', '511', '513', '515', '517', '520', '521', '522', '523', '524', '525', '527', '528', '531', '532', '534', '535', '536', '538', '539', '544', '549', '558', '565', '571', '572', '574', '576', '582', '586', '589', '596', '599', '603', '604', '606', '608', '620', '621', '622', '626', '629', '631', '632', '637', '639', '640', '643', '651', '653', '654', '658', '668', '669', '671', '675', '677', '678', '680', '686', '687', '689', '691', '698', '699', '701', '702', '704', '707', '709', '717', '723', '724', '726', '727', '732', '733', '734', '735', '741', '742', '744', '747', '749', '753', '754', '757', '758', '761', '763', '766', '769', '772', '773', '774', '778', '779', '782', '785', '792', '794', '800', '804', '808', '809', '811', '814', '816', '819', '820', '822', '823', '826', '829', '832', '833', '835', '841', '845', '846', '852', '856', '859', '861', '870', '875', '880', '881', '884', '892', '896', '897', '898', '902', '903', '904', '905', '906', '909', '911', '914', '916', '920', '922', '923', '924', '925', '929', '930', '931', '934', '938', '939', '941', '943', '944', '948', '952', '955', '957', '958', '959', '961', '964', '967', '971', '973', '978', '979', '981', '982', '983', '984', '985', '987', '994', '995']",False,1000,True,100,e63b2a6953,0.0,1.0,0.0
