expe,clients,clients_size,clients_subset,agg_size,agg_size_pc,method,days,days_size,days_total,noise_method,time,valid,valid_sum,success,score_avg,score_min,score_max,nsols,oracle,wall_hit,wall_time,pooled,pool_size,uuid,infeasible,optimal,valid_sums
./expes/v2_2021-03-23_issda-30_2000-prng-1-w2-p2,30_issda-2000,2000,first-2000,600,30,rng,num-start-2400,2400,25726,classic,2038.3153746128082,True,,True,1.0,1.0,1.0,1,"['12', '13', '14', '18', '23', '27', '30', '36', '38', '42', '43', '45', '47', '60', '73', '74', '76', '93', '94', '113', '115', '120', '125', '130', '133', '136', '137', '141', '142', '144', '147', '156', '157', '161', '162', '164', '171', '172', '179', '181', '182', '184', '185', '190', '192', '208', '218', '220', '221', '223', '236', '239', '242', '250', '252', '258', '259', '265', '267', '270', '273', '280', '281', '287', '294', '297', '298', '300', '301', '303', '308', '309', '310', '312', '314', '329', '331', '333', '334', '335', '342', '344', '347', '350', '353', '358', '361', '362', '366', '372', '374', '375', '377', '385', '386', '387', '389', '390', '392', '396', '402', '406', '409', '411', '413', '414', '415', '418', '423', '424', '428', '430', '433', '436', '438', '440', '442', '443', '449', '452', '456', '459', '461', '462', '472', '473', '479', '481', '484', '487', '491', '495', '497', '505', '511', '512', '520', '525', '528', '529', '530', '531', '532', '533', '535', '538', '540', '542', '543', '547', '550', '553', '554', '555', '558', '560', '561', '562', '564', '565', '575', '577', '579', '582', '583', '588', '592', '599', '603', '606', '609', '612', '613', '615', '618', '619', '621', '623', '629', '632', '633', '641', '644', '646', '659', '660', '661', '664', '665', '671', '673', '675', '681', '685', '686', '688', '694', '696', '698', '702', '706', '707', '709', '712', '716', '718', '722', '726', '730', '731', '733', '736', '738', '739', '740', '745', '748', '749', '750', '754', '755', '764', '766', '767', '775', '780', '786', '790', '798', '802', '806', '808', '813', '814', '820', '824', '826', '828', '829', '831', '832', '833', '834', '836', '837', '839', '844', '849', '850', '851', '853', '855', '856', '865', '866', '867', '868', '870', '874', '876', '878', '883', '888', '889', '890', '895', '897', '911', '915', '920', '930', '931', '933', '939', '940', '942', '953', '955', '958', '959', '962', '963', '967', '973', '978', '979', '980', '983', '984', '985', '994', '997', '1003', '1005', '1006', '1007', '1008', '1010', '1012', '1016', '1023', '1026', '1038', '1039', '1040', '1043', '1049', '1051', '1052', '1054', '1064', '1066', '1067', '1069', '1070', '1073', '1075', '1078', '1079', '1085', '1086', '1091', '1095', '1102', '1104', '1107', '1109', '1111', '1114', '1116', '1117', '1119', '1124', '1130', '1131', '1133', '1137', '1140', '1143', '1144', '1145', '1149', '1152', '1158', '1164', '1166', '1170', '1171', '1173', '1174', '1176', '1179', '1183', '1186', '1192', '1194', '1198', '1203', '1206', '1207', '1216', '1224', '1229', '1235', '1242', '1244', '1251', '1252', '1254', '1255', '1258', '1260', '1261', '1264', '1267', '1281', '1287', '1289', '1290', '1291', '1293', '1304', '1308', '1309', '1322', '1325', '1326', '1327', '1328', '1336', '1344', '1345', '1346', '1347', '1354', '1355', '1372', '1375', '1378', '1381', '1383', '1384', '1385', '1386', '1388', '1389', '1393', '1396', '1400', '1401', '1402', '1406', '1408', '1412', '1414', '1415', '1417', '1419', '1422', '1427', '1431', '1432', '1438', '1440', '1444', '1446', '1447', '1449', '1451', '1452', '1453', '1454', '1458', '1461', '1462', '1464', '1467', '1469', '1472', '1474', '1480', '1489', '1490', '1496', '1505', '1506', '1507', '1508', '1513', '1519', '1522', '1526', '1529', '1533', '1538', '1544', '1545', '1548', '1549', '1550', '1551', '1552', '1553', '1554', '1556', '1557', '1562', '1573', '1574', '1575', '1578', '1579', '1581', '1584', '1587', '1589', '1593', '1594', '1595', '1598', '1600', '1605', '1607', '1613', '1620', '1622', '1623', '1625', '1626', '1627', '1632', '1639', '1642', '1644', '1652', '1654', '1657', '1660', '1662', '1663', '1664', '1666', '1668', '1674', '1676', '1688', '1691', '1692', '1695', '1697', '1700', '1703', '1705', '1706', '1708', '1711', '1712', '1713', '1719', '1720', '1722', '1726', '1728', '1729', '1733', '1736', '1738', '1746', '1749', '1750', '1756', '1758', '1760', '1762', '1766', '1769', '1774', '1777', '1780', '1783', '1789', '1791', '1792', '1795', '1804', '1805', '1811', '1814', '1817', '1818', '1823', '1825', '1826', '1827', '1829', '1834', '1841', '1842', '1844', '1854', '1858', '1859', '1865', '1869', '1871', '1880', '1888', '1889', '1891', '1895', '1896', '1899', '1900', '1904', '1905', '1910', '1912', '1916', '1919', '1931', '1934', '1935', '1936', '1938', '1941', '1946', '1950', '1951', '1960', '1961', '1962', '1968', '1980', '1981', '1985', '1986', '1987', '1993', '1994', '1999']",False,2000,True,2,12c8196e32,0.0,1.0,1.0
./expes/v2_2021-03-23_issda-30_2000-prng-1-w2-p2,30_issda-2000,2000,first-2000,100,5,rng,num-start-200,200,25726,classic,2036.422565460205,False,,False,0,,,0,"['2', '10', '31', '35', '61', '62', '74', '86', '122', '130', '137', '144', '171', '175', '186', '193', '221', '222', '291', '323', '379', '382', '389', '390', '401', '430', '438', '471', '479', '496', '521', '570', '592', '596', '603', '622', '646', '669', '792', '812', '821', '834', '903', '915', '926', '927', '928', '937', '951', '954', '975', '1024', '1041', '1049', '1051', '1064', '1083', '1104', '1129', '1147', '1154', '1203', '1211', '1220', '1229', '1258', '1261', '1277', '1290', '1300', '1312', '1332', '1340', '1342', '1357', '1403', '1421', '1450', '1514', '1553', '1570', '1594', '1600', '1625', '1647', '1659', '1704', '1721', '1726', '1734', '1736', '1752', '1755', '1774', '1802', '1824', '1893', '1909', '1963', '1976']",True,2000,True,2,4032487f95,0.0,0.0,0.0
./expes/v2_2021-03-23_issda-30_2000-prng-1-w2-p2,30_issda-2000,2000,first-2000,400,20,rng,num-start-600,600,25726,classic,2108.11079955101,False,,False,0,,,0,"['2', '8', '11', '14', '17', '18', '25', '27', '31', '36', '38', '49', '53', '54', '59', '60', '61', '62', '70', '71', '74', '84', '85', '89', '97', '100', '104', '106', '108', '109', '111', '113', '124', '125', '130', '132', '133', '135', '136', '137', '141', '142', '153', '155', '166', '167', '170', '171', '172', '173', '174', '178', '180', '182', '192', '197', '204', '205', '209', '212', '213', '218', '223', '226', '227', '228', '229', '230', '242', '246', '247', '249', '263', '266', '272', '273', '282', '283', '284', '285', '289', '292', '298', '304', '305', '306', '322', '332', '333', '337', '345', '347', '351', '354', '355', '361', '372', '382', '388', '394', '405', '406', '408', '409', '411', '416', '420', '428', '430', '431', '438', '453', '455', '456', '460', '473', '474', '484', '485', '488', '498', '499', '509', '531', '538', '539', '547', '548', '550', '553', '562', '567', '569', '576', '584', '595', '597', '603', '607', '616', '630', '633', '659', '666', '674', '677', '684', '685', '693', '700', '709', '712', '715', '727', '749', '750', '757', '761', '763', '764', '765', '776', '777', '782', '785', '786', '791', '796', '797', '813', '816', '822', '824', '825', '833', '840', '843', '861', '864', '866', '870', '871', '878', '888', '893', '910', '920', '923', '925', '926', '929', '936', '940', '949', '950', '958', '964', '971', '973', '980', '985', '988', '1004', '1007', '1008', '1013', '1016', '1018', '1019', '1026', '1030', '1035', '1037', '1045', '1060', '1070', '1073', '1080', '1084', '1097', '1101', '1106', '1111', '1115', '1118', '1121', '1124', '1136', '1137', '1139', '1146', '1148', '1151', '1158', '1160', '1174', '1176', '1177', '1179', '1186', '1188', '1190', '1197', '1199', '1205', '1206', '1209', '1210', '1212', '1215', '1223', '1224', '1235', '1239', '1242', '1243', '1245', '1246', '1247', '1248', '1252', '1253', '1256', '1263', '1275', '1280', '1284', '1290', '1300', '1305', '1309', '1315', '1317', '1322', '1327', '1334', '1359', '1368', '1375', '1381', '1386', '1389', '1391', '1400', '1409', '1410', '1419', '1426', '1433', '1434', '1436', '1441', '1442', '1445', '1452', '1453', '1466', '1474', '1476', '1485', '1487', '1490', '1492', '1495', '1508', '1510', '1511', '1518', '1527', '1528', '1529', '1531', '1542', '1558', '1566', '1567', '1581', '1583', '1586', '1587', '1589', '1593', '1598', '1599', '1604', '1606', '1611', '1618', '1625', '1628', '1631', '1636', '1638', '1645', '1654', '1658', '1659', '1669', '1681', '1686', '1706', '1728', '1732', '1733', '1743', '1745', '1746', '1760', '1762', '1770', '1775', '1777', '1780', '1786', '1791', '1794', '1797', '1800', '1801', '1803', '1806', '1816', '1817', '1818', '1821', '1822', '1828', '1829', '1834', '1835', '1840', '1856', '1857', '1863', '1867', '1880', '1883', '1887', '1891', '1893', '1918', '1922', '1925', '1928', '1938', '1939', '1940', '1948', '1949', '1954', '1957', '1958', '1963', '1970', '1972', '1975', '1980', '1984', '1998', '2000']",True,2000,True,2,ad6dd15187,0.0,0.0,0.0
./expes/v2_2021-03-23_issda-30_2000-prng-1-w2-p2,30_issda-2000,2000,first-2000,300,15,rng,num-start-2000,2000,25726,classic,1892.1594536304474,True,,True,1.0,1.0,1.0,1,"['1', '2', '10', '20', '23', '31', '32', '34', '35', '37', '41', '44', '61', '62', '69', '72', '74', '80', '86', '87', '96', '98', '108', '122', '123', '124', '130', '137', '138', '141', '142', '144', '150', '151', '152', '153', '154', '161', '171', '175', '179', '185', '186', '189', '193', '206', '207', '213', '221', '222', '224', '239', '242', '259', '261', '269', '270', '276', '278', '280', '284', '288', '291', '300', '316', '323', '325', '360', '361', '364', '375', '379', '382', '384', '386', '389', '390', '391', '401', '403', '407', '418', '428', '430', '432', '435', '436', '437', '438', '468', '471', '479', '489', '496', '498', '505', '511', '521', '523', '527', '529', '552', '553', '570', '574', '578', '592', '596', '601', '603', '607', '622', '623', '637', '638', '639', '646', '654', '669', '674', '678', '682', '690', '733', '742', '756', '762', '769', '786', '791', '792', '796', '803', '808', '809', '812', '814', '821', '834', '840', '843', '859', '860', '862', '864', '903', '905', '913', '915', '917', '923', '926', '927', '928', '929', '937', '951', '953', '954', '963', '973', '975', '982', '988', '989', '991', '998', '1006', '1024', '1041', '1043', '1049', '1050', '1051', '1064', '1066', '1069', '1083', '1088', '1104', '1129', '1135', '1146', '1147', '1154', '1160', '1172', '1177', '1182', '1194', '1197', '1203', '1209', '1211', '1214', '1220', '1222', '1226', '1229', '1232', '1233', '1237', '1250', '1251', '1258', '1259', '1261', '1262', '1275', '1277', '1285', '1289', '1290', '1300', '1303', '1304', '1312', '1315', '1319', '1332', '1339', '1340', '1342', '1346', '1357', '1383', '1397', '1403', '1407', '1416', '1421', '1436', '1443', '1448', '1450', '1452', '1476', '1486', '1497', '1499', '1501', '1514', '1515', '1516', '1534', '1553', '1570', '1576', '1583', '1594', '1595', '1600', '1625', '1633', '1646', '1647', '1659', '1675', '1687', '1701', '1704', '1705', '1721', '1726', '1734', '1736', '1746', '1750', '1752', '1755', '1771', '1774', '1775', '1802', '1807', '1813', '1824', '1825', '1854', '1861', '1865', '1874', '1879', '1890', '1892', '1893', '1899', '1904', '1909', '1926', '1940', '1946', '1963', '1965', '1972', '1975', '1976', '1989', '1993', '1997']",False,2000,True,2,b52639906b,0.0,1.0,1.0
./expes/v2_2021-03-23_issda-30_2000-prng-1-w2-p2,30_issda-2000,2000,first-2000,800,40,rng,num-start-1600,1600,25726,classic,1367.1869208812714,True,,True,1.0,1.0,1.0,1,"['1', '3', '7', '8', '9', '12', '13', '16', '19', '21', '23', '27', '29', '30', '32', '35', '40', '41', '42', '44', '45', '46', '47', '51', '54', '57', '58', '63', '67', '68', '69', '73', '75', '78', '80', '81', '84', '88', '89', '90', '91', '96', '99', '106', '108', '113', '114', '115', '116', '119', '120', '122', '123', '125', '133', '135', '137', '146', '150', '152', '153', '157', '161', '162', '163', '164', '165', '169', '172', '177', '178', '183', '184', '186', '187', '189', '190', '191', '196', '198', '199', '202', '205', '207', '211', '212', '214', '215', '219', '220', '221', '222', '223', '231', '233', '236', '238', '241', '242', '245', '247', '249', '252', '254', '255', '257', '258', '261', '268', '269', '271', '274', '280', '290', '291', '292', '294', '295', '296', '301', '302', '303', '304', '309', '311', '313', '314', '315', '316', '317', '319', '321', '323', '324', '327', '328', '330', '337', '342', '344', '348', '349', '352', '353', '354', '355', '357', '365', '368', '369', '373', '374', '379', '381', '389', '391', '392', '395', '397', '400', '401', '402', '406', '410', '413', '416', '417', '418', '419', '420', '421', '424', '427', '428', '429', '430', '434', '436', '437', '440', '443', '447', '448', '449', '452', '454', '456', '457', '459', '460', '461', '465', '467', '471', '476', '479', '481', '482', '483', '485', '486', '487', '488', '490', '491', '495', '498', '500', '501', '502', '503', '504', '505', '506', '509', '512', '520', '523', '524', '527', '529', '531', '533', '535', '538', '539', '541', '548', '549', '551', '552', '558', '560', '561', '571', '573', '577', '580', '581', '582', '584', '587', '588', '591', '593', '594', '596', '597', '601', '602', '603', '605', '607', '608', '610', '614', '619', '620', '621', '624', '625', '627', '629', '633', '634', '635', '636', '641', '642', '643', '645', '646', '647', '649', '650', '655', '656', '658', '659', '660', '662', '664', '667', '673', '683', '684', '685', '686', '687', '689', '690', '692', '696', '700', '703', '705', '706', '711', '713', '715', '716', '717', '719', '723', '724', '725', '726', '731', '733', '736', '740', '741', '743', '747', '751', '757', '764', '765', '766', '767', '769', '771', '773', '774', '783', '784', '785', '786', '787', '792', '793', '796', '802', '805', '808', '810', '811', '815', '817', '819', '820', '823', '825', '826', '827', '829', '830', '832', '833', '834', '836', '837', '838', '839', '840', '843', '844', '845', '846', '848', '852', '854', '856', '857', '858', '859', '860', '861', '863', '867', '869', '874', '875', '876', '877', '878', '879', '880', '885', '887', '889', '891', '892', '893', '894', '896', '899', '904', '906', '910', '912', '915', '916', '917', '922', '929', '931', '934', '936', '941', '942', '943', '944', '946', '947', '952', '956', '961', '966', '968', '972', '973', '978', '985', '986', '988', '991', '995', '1000', '1004', '1005', '1007', '1012', '1013', '1016', '1017', '1019', '1020', '1022', '1023', '1027', '1030', '1032', '1041', '1044', '1045', '1046', '1047', '1049', '1052', '1053', '1058', '1059', '1062', '1067', '1072', '1073', '1077', '1083', '1087', '1089', '1090', '1092', '1095', '1097', '1099', '1101', '1102', '1103', '1105', '1110', '1111', '1112', '1125', '1129', '1132', '1133', '1134', '1144', '1146', '1152', '1153', '1157', '1162', '1169', '1171', '1173', '1176', '1177', '1184', '1186', '1189', '1193', '1202', '1203', '1208', '1209', '1211', '1213', '1215', '1216', '1219', '1220', '1222', '1223', '1224', '1225', '1227', '1234', '1235', '1237', '1238', '1242', '1243', '1245', '1248', '1250', '1252', '1253', '1255', '1256', '1257', '1258', '1260', '1263', '1264', '1269', '1273', '1277', '1280', '1281', '1282', '1284', '1285', '1287', '1288', '1293', '1295', '1296', '1297', '1301', '1302', '1305', '1307', '1308', '1312', '1313', '1317', '1318', '1319', '1320', '1321', '1329', '1332', '1335', '1337', '1339', '1341', '1342', '1343', '1347', '1349', '1351', '1352', '1353', '1355', '1356', '1357', '1358', '1364', '1365', '1366', '1367', '1369', '1370', '1374', '1391', '1392', '1394', '1395', '1397', '1407', '1408', '1411', '1413', '1415', '1417', '1421', '1425', '1426', '1429', '1430', '1432', '1433', '1434', '1435', '1441', '1448', '1449', '1450', '1452', '1457', '1460', '1463', '1469', '1472', '1474', '1477', '1480', '1483', '1485', '1487', '1491', '1496', '1497', '1499', '1500', '1502', '1506', '1508', '1510', '1511', '1512', '1513', '1516', '1521', '1522', '1523', '1525', '1533', '1536', '1540', '1542', '1547', '1553', '1554', '1558', '1559', '1564', '1565', '1566', '1567', '1568', '1576', '1583', '1584', '1586', '1589', '1595', '1598', '1599', '1602', '1603', '1604', '1605', '1607', '1610', '1612', '1614', '1616', '1617', '1618', '1619', '1624', '1630', '1631', '1635', '1636', '1638', '1645', '1646', '1647', '1650', '1651', '1652', '1654', '1655', '1659', '1660', '1664', '1667', '1669', '1671', '1674', '1677', '1678', '1683', '1686', '1688', '1689', '1692', '1693', '1694', '1696', '1697', '1700', '1704', '1706', '1710', '1711', '1712', '1714', '1717', '1721', '1722', '1724', '1725', '1726', '1727', '1729', '1732', '1735', '1736', '1738', '1741', '1750', '1763', '1770', '1771', '1772', '1773', '1777', '1778', '1784', '1785', '1786', '1788', '1791', '1795', '1801', '1806', '1809', '1810', '1811', '1812', '1813', '1814', '1820', '1830', '1831', '1833', '1836', '1837', '1842', '1843', '1848', '1849', '1852', '1855', '1857', '1865', '1872', '1875', '1877', '1879', '1880', '1882', '1883', '1884', '1886', '1892', '1895', '1896', '1900', '1901', '1902', '1905', '1908', '1913', '1915', '1921', '1925', '1927', '1932', '1933', '1934', '1940', '1941', '1942', '1943', '1947', '1948', '1949', '1950', '1952', '1953', '1954', '1955', '1957', '1959', '1961', '1962', '1965', '1971', '1973', '1976', '1978', '1979', '1981', '1983', '1984', '1985', '1986', '1987', '1988', '1989', '1991', '1993', '1995', '1996']",False,2000,True,2,44adfc8183,0.0,1.0,1.0
