expe,clients,clients_size,clients_subset,agg_size,agg_size_pc,method,days,days_size,days_total,noise_method,time,valid,valid_sum,success,score_avg,score_min,score_max,nsols,oracle,wall_hit,wall_time,pooled,pool_size,uuid,infeasible,optimal,valid_sums
./expes/v2_2021-03-23_issda-30_2000-prng-1-w2-p2,30_issda-2000,2000,first-2000,600,30,rng,num-start-1600,1600,25726,classic,2132.5987672805786,True,,False,1.0,1.0,1.0,1,"['4', '7', '9', '10', '11', '18', '22', '24', '33', '36', '37', '40', '41', '44', '49', '50', '51', '52', '57', '61', '64', '65', '66', '69', '73', '74', '75', '77', '84', '89', '94', '101', '105', '110', '111', '116', '117', '121', '123', '124', '135', '137', '139', '146', '150', '151', '152', '155', '157', '164', '165', '167', '170', '173', '174', '177', '180', '188', '192', '193', '194', '197', '205', '206', '208', '209', '216', '218', '228', '230', '232', '236', '238', '243', '250', '252', '262', '264', '270', '277', '280', '283', '287', '288', '290', '295', '297', '301', '310', '311', '315', '320', '321', '322', '323', '325', '329', '331', '333', '337', '341', '347', '348', '350', '353', '354', '356', '361', '362', '364', '370', '372', '373', '377', '385', '392', '393', '394', '407', '409', '420', '426', '427', '431', '432', '435', '436', '442', '444', '446', '449', '455', '461', '462', '465', '468', '473', '475', '477', '481', '484', '494', '502', '506', '508', '510', '511', '512', '514', '516', '519', '520', '521', '523', '524', '526', '527', '531', '532', '537', '541', '545', '547', '550', '551', '560', '562', '571', '572', '579', '583', '586', '588', '594', '596', '604', '607', '608', '622', '627', '632', '634', '635', '639', '641', '648', '653', '665', '666', '672', '674', '675', '678', '686', '691', '699', '700', '705', '707', '712', '718', '719', '725', '730', '733', '735', '737', '738', '740', '742', '743', '746', '750', '751', '762', '763', '764', '765', '768', '779', '782', '784', '785', '788', '790', '791', '799', '800', '801', '803', '805', '806', '809', '810', '819', '823', '825', '826', '828', '829', '830', '833', '838', '842', '845', '850', '854', '857', '859', '860', '867', '868', '872', '876', '883', '889', '890', '899', '904', '911', '912', '913', '918', '919', '925', '929', '930', '932', '936', '937', '941', '943', '945', '949', '952', '953', '955', '956', '957', '958', '964', '968', '969', '979', '983', '988', '989', '992', '994', '995', '996', '997', '998', '1001', '1002', '1004', '1005', '1008', '1020', '1021', '1023', '1026', '1029', '1030', '1033', '1040', '1041', '1043', '1045', '1048', '1049', '1052', '1053', '1054', '1055', '1056', '1058', '1061', '1062', '1064', '1067', '1070', '1072', '1073', '1074', '1076', '1077', '1078', '1087', '1092', '1097', '1108', '1115', '1117', '1122', '1124', '1130', '1142', '1143', '1147', '1148', '1152', '1160', '1163', '1166', '1171', '1175', '1177', '1180', '1189', '1191', '1198', '1200', '1201', '1205', '1206', '1208', '1211', '1212', '1216', '1219', '1222', '1240', '1241', '1242', '1243', '1251', '1254', '1255', '1257', '1261', '1262', '1263', '1267', '1273', '1274', '1277', '1278', '1279', '1281', '1286', '1301', '1306', '1308', '1313', '1315', '1327', '1328', '1332', '1335', '1338', '1342', '1349', '1350', '1354', '1356', '1359', '1366', '1371', '1372', '1374', '1378', '1382', '1383', '1384', '1390', '1391', '1394', '1395', '1396', '1398', '1402', '1403', '1404', '1408', '1414', '1417', '1419', '1425', '1432', '1433', '1441', '1445', '1446', '1447', '1451', '1454', '1456', '1458', '1460', '1461', '1463', '1465', '1466', '1467', '1469', '1473', '1474', '1481', '1482', '1483', '1487', '1491', '1493', '1494', '1497', '1498', '1505', '1508', '1509', '1513', '1516', '1521', '1525', '1526', '1528', '1532', '1537', '1538', '1544', '1545', '1546', '1547', '1548', '1556', '1557', '1558', '1560', '1563', '1566', '1569', '1571', '1584', '1588', '1592', '1600', '1604', '1607', '1613', '1615', '1618', '1622', '1627', '1631', '1632', '1636', '1637', '1639', '1642', '1644', '1646', '1647', '1648', '1651', '1652', '1657', '1659', '1664', '1666', '1669', '1670', '1671', '1672', '1675', '1679', '1681', '1690', '1691', '1703', '1707', '1711', '1712', '1713', '1715', '1718', '1722', '1739', '1741', '1746', '1749', '1760', '1762', '1767', '1768', '1770', '1774', '1784', '1791', '1792', '1794', '1796', '1798', '1804', '1805', '1806', '1807', '1809', '1811', '1812', '1813', '1818', '1822', '1827', '1831', '1833', '1834', '1840', '1843', '1846', '1848', '1850', '1855', '1857', '1859', '1860', '1861', '1867', '1868', '1874', '1876', '1877', '1882', '1885', '1886', '1888', '1889', '1895', '1903', '1909', '1910', '1914', '1916', '1917', '1919', '1922', '1923', '1927', '1932', '1933', '1941', '1942', '1945', '1946', '1955', '1956', '1958', '1961', '1964', '1965', '1966', '1968', '1970', '1971', '1973', '1980', '1985', '1988', '1989', '1992', '1995']",True,2000,True,2,b6c15927ee,0.0,0.0,1.0
./expes/v2_2021-03-23_issda-30_2000-prng-1-w2-p2,30_issda-2000,2000,first-2000,500,25,rng,num-start-1400,1400,25726,classic,907.2926156520844,True,,True,1.0,1.0,1.0,1,"['1', '10', '13', '20', '26', '27', '31', '35', '38', '42', '45', '59', '62', '63', '64', '66', '67', '68', '70', '76', '78', '82', '93', '94', '103', '107', '111', '117', '121', '122', '123', '126', '128', '131', '142', '152', '153', '154', '156', '157', '159', '166', '172', '176', '181', '183', '184', '190', '191', '192', '193', '197', '200', '206', '216', '230', '234', '235', '240', '245', '246', '253', '258', '260', '261', '263', '276', '278', '280', '281', '283', '292', '296', '297', '299', '306', '308', '310', '317', '323', '324', '330', '334', '335', '337', '346', '347', '353', '355', '365', '374', '377', '380', '381', '385', '386', '387', '394', '395', '396', '397', '402', '404', '406', '408', '412', '414', '429', '430', '439', '454', '457', '461', '462', '464', '476', '479', '489', '493', '499', '502', '503', '512', '513', '515', '522', '523', '524', '525', '536', '544', '545', '549', '552', '557', '559', '562', '565', '567', '569', '574', '577', '586', '588', '593', '596', '597', '598', '602', '622', '624', '627', '640', '649', '652', '655', '656', '663', '667', '675', '678', '682', '688', '689', '704', '718', '732', '738', '739', '740', '741', '742', '745', '751', '752', '753', '759', '760', '761', '763', '765', '768', '771', '773', '774', '778', '779', '781', '788', '792', '796', '798', '815', '816', '819', '834', '838', '840', '841', '848', '859', '864', '865', '867', '870', '872', '874', '881', '883', '887', '897', '901', '903', '904', '909', '910', '912', '914', '916', '921', '925', '926', '948', '951', '957', '961', '964', '965', '968', '969', '973', '978', '979', '981', '982', '991', '994', '995', '997', '999', '1000', '1001', '1002', '1007', '1008', '1013', '1018', '1019', '1024', '1025', '1029', '1030', '1032', '1039', '1055', '1059', '1060', '1066', '1070', '1075', '1076', '1077', '1078', '1080', '1081', '1088', '1097', '1102', '1103', '1105', '1107', '1112', '1114', '1121', '1129', '1130', '1134', '1143', '1144', '1147', '1149', '1154', '1156', '1158', '1165', '1166', '1167', '1173', '1175', '1176', '1180', '1187', '1198', '1202', '1206', '1207', '1208', '1213', '1217', '1220', '1224', '1233', '1234', '1236', '1239', '1243', '1246', '1250', '1254', '1257', '1263', '1266', '1267', '1269', '1271', '1278', '1281', '1282', '1287', '1289', '1293', '1298', '1300', '1301', '1306', '1308', '1310', '1321', '1322', '1323', '1324', '1328', '1333', '1334', '1340', '1343', '1345', '1351', '1355', '1356', '1358', '1366', '1369', '1373', '1375', '1380', '1385', '1390', '1391', '1394', '1395', '1397', '1401', '1405', '1409', '1414', '1415', '1416', '1421', '1423', '1425', '1430', '1433', '1436', '1437', '1438', '1446', '1451', '1457', '1460', '1462', '1463', '1465', '1468', '1472', '1473', '1478', '1480', '1483', '1484', '1493', '1494', '1495', '1499', '1505', '1514', '1516', '1522', '1526', '1527', '1529', '1537', '1539', '1548', '1551', '1555', '1556', '1557', '1562', '1564', '1568', '1578', '1585', '1592', '1594', '1595', '1596', '1603', '1606', '1611', '1613', '1620', '1621', '1625', '1631', '1632', '1639', '1643', '1646', '1649', '1650', '1651', '1652', '1667', '1671', '1672', '1673', '1676', '1684', '1696', '1703', '1706', '1709', '1718', '1722', '1730', '1731', '1741', '1748', '1751', '1758', '1760', '1770', '1773', '1783', '1785', '1787', '1795', '1801', '1803', '1813', '1822', '1828', '1830', '1831', '1843', '1849', '1853', '1860', '1862', '1863', '1865', '1867', '1870', '1871', '1877', '1883', '1884', '1889', '1891', '1893', '1899', '1900', '1911', '1914', '1919', '1922', '1925', '1927', '1933', '1936', '1941', '1943', '1946', '1948', '1949', '1950', '1963', '1971', '1976', '1977', '1978', '1979', '1985', '1987', '1989', '1992', '1995', '1997', '2000']",False,2000,True,2,7a22950a72,0.0,1.0,1.0
./expes/v2_2021-03-23_issda-30_2000-prng-1-w2-p2,30_issda-2000,2000,first-2000,600,30,rng,num-start-3000,3000,25726,classic,2249.8236503601074,True,,False,1.0,1.0,1.0,1,"['2', '7', '8', '11', '12', '14', '15', '17', '18', '20', '21', '23', '25', '27', '31', '32', '36', '38', '40', '42', '46', '49', '53', '54', '56', '59', '60', '61', '62', '70', '71', '74', '80', '84', '85', '87', '89', '97', '100', '102', '104', '105', '106', '108', '109', '111', '113', '119', '121', '124', '125', '130', '132', '133', '135', '136', '137', '141', '142', '147', '153', '155', '156', '161', '166', '167', '170', '171', '172', '173', '174', '176', '178', '180', '182', '188', '189', '192', '194', '197', '198', '203', '204', '205', '209', '212', '213', '218', '223', '226', '227', '228', '229', '230', '242', '246', '247', '249', '263', '266', '271', '272', '273', '276', '277', '282', '283', '284', '285', '289', '292', '295', '298', '301', '304', '305', '306', '322', '332', '333', '335', '337', '341', '345', '347', '350', '351', '352', '354', '355', '361', '365', '367', '372', '374', '382', '383', '387', '388', '391', '394', '405', '406', '408', '409', '411', '414', '416', '420', '421', '428', '430', '431', '432', '433', '438', '444', '452', '453', '455', '456', '459', '460', '466', '473', '474', '476', '484', '485', '488', '498', '499', '507', '509', '515', '519', '526', '531', '533', '538', '539', '547', '548', '550', '553', '559', '562', '564', '567', '569', '571', '576', '583', '584', '595', '597', '603', '607', '615', '616', '617', '620', '627', '630', '633', '645', '646', '651', '657', '659', '663', '666', '673', '674', '675', '677', '678', '684', '685', '687', '692', '693', '698', '700', '706', '709', '711', '712', '715', '724', '727', '732', '736', '747', '749', '750', '757', '761', '763', '764', '765', '776', '777', '782', '785', '786', '789', '791', '796', '797', '798', '810', '813', '816', '817', '818', '822', '824', '825', '826', '827', '833', '840', '843', '854', '855', '861', '864', '866', '867', '870', '871', '875', '878', '881', '888', '893', '896', '900', '901', '910', '916', '920', '923', '925', '926', '929', '934', '936', '940', '946', '949', '950', '956', '958', '964', '971', '973', '974', '980', '981', '985', '988', '1004', '1007', '1008', '1013', '1016', '1017', '1018', '1019', '1026', '1029', '1030', '1035', '1037', '1042', '1044', '1045', '1053', '1056', '1059', '1060', '1061', '1064', '1070', '1071', '1073', '1080', '1084', '1093', '1097', '1101', '1102', '1106', '1110', '1111', '1113', '1114', '1115', '1118', '1121', '1124', '1132', '1136', '1137', '1139', '1146', '1148', '1151', '1154', '1158', '1160', '1162', '1165', '1169', '1174', '1176', '1177', '1179', '1185', '1186', '1188', '1190', '1197', '1199', '1202', '1204', '1205', '1206', '1209', '1210', '1212', '1215', '1223', '1224', '1228', '1231', '1235', '1238', '1239', '1240', '1242', '1243', '1245', '1246', '1247', '1248', '1251', '1252', '1253', '1255', '1256', '1263', '1275', '1280', '1281', '1284', '1290', '1295', '1300', '1305', '1309', '1315', '1317', '1322', '1327', '1330', '1334', '1350', '1359', '1368', '1371', '1372', '1373', '1375', '1381', '1386', '1387', '1389', '1390', '1391', '1393', '1396', '1399', '1400', '1402', '1405', '1409', '1410', '1414', '1419', '1421', '1426', '1428', '1433', '1434', '1436', '1441', '1442', '1445', '1452', '1453', '1458', '1466', '1469', '1474', '1476', '1485', '1487', '1489', '1490', '1492', '1495', '1503', '1508', '1510', '1511', '1518', '1523', '1527', '1528', '1529', '1531', '1532', '1533', '1542', '1546', '1558', '1560', '1561', '1564', '1565', '1566', '1567', '1572', '1580', '1581', '1583', '1585', '1586', '1587', '1589', '1592', '1593', '1595', '1598', '1599', '1604', '1606', '1611', '1618', '1625', '1628', '1631', '1636', '1637', '1638', '1639', '1645', '1654', '1656', '1658', '1659', '1669', '1681', '1686', '1688', '1706', '1708', '1715', '1719', '1720', '1728', '1732', '1733', '1734', '1743', '1745', '1746', '1760', '1762', '1770', '1774', '1775', '1776', '1777', '1779', '1780', '1786', '1791', '1792', '1794', '1796', '1797', '1800', '1801', '1803', '1804', '1806', '1810', '1816', '1817', '1818', '1820', '1821', '1822', '1825', '1828', '1829', '1834', '1835', '1837', '1840', '1841', '1847', '1849', '1856', '1857', '1861', '1863', '1867', '1874', '1880', '1883', '1885', '1887', '1891', '1893', '1894', '1903', '1907', '1918', '1922', '1925', '1927', '1928', '1933', '1934', '1938', '1939', '1940', '1947', '1948', '1949', '1954', '1957', '1958', '1963', '1968', '1970', '1971', '1972', '1975', '1980', '1982', '1984', '1997', '1998', '2000']",True,2000,True,2,16dc0f278a,0.0,0.0,1.0
./expes/v2_2021-03-23_issda-30_2000-prng-1-w2-p2,30_issda-2000,2000,first-2000,800,40,rng,num-start-1200,1200,25726,classic,2117.605639696121,True,,False,1.0,1.0,1.0,1,"['2', '4', '6', '7', '10', '12', '15', '17', '18', '20', '22', '27', '32', '37', '38', '39', '41', '42', '48', '53', '55', '58', '62', '65', '66', '70', '71', '73', '76', '77', '79', '80', '83', '84', '85', '88', '89', '92', '95', '97', '106', '109', '110', '114', '121', '122', '124', '126', '127', '128', '131', '136', '137', '138', '139', '142', '147', '153', '154', '156', '158', '159', '160', '162', '164', '167', '168', '170', '171', '175', '176', '178', '182', '183', '185', '188', '189', '191', '192', '195', '199', '202', '207', '212', '213', '218', '220', '227', '232', '233', '234', '235', '238', '240', '243', '248', '250', '251', '262', '267', '272', '273', '280', '283', '285', '289', '291', '295', '297', '298', '305', '306', '307', '313', '314', '316', '318', '320', '321', '322', '323', '325', '326', '331', '332', '334', '335', '338', '339', '340', '341', '343', '345', '346', '348', '349', '353', '354', '355', '358', '359', '362', '363', '364', '365', '368', '370', '374', '377', '380', '385', '392', '393', '397', '400', '401', '402', '405', '407', '411', '412', '414', '416', '418', '421', '425', '426', '427', '431', '432', '433', '434', '435', '437', '440', '441', '442', '443', '448', '449', '453', '455', '456', '464', '469', '470', '472', '474', '475', '476', '478', '479', '484', '487', '489', '496', '497', '501', '503', '507', '510', '511', '512', '513', '515', '516', '519', '520', '521', '524', '525', '527', '528', '529', '530', '532', '534', '536', '537', '538', '540', '550', '552', '555', '557', '562', '566', '567', '569', '571', '573', '574', '575', '580', '582', '585', '586', '589', '591', '592', '593', '594', '595', '596', '598', '599', '600', '601', '607', '609', '611', '612', '613', '615', '616', '620', '621', '622', '623', '625', '626', '630', '632', '635', '638', '639', '640', '641', '642', '645', '646', '648', '649', '657', '658', '659', '660', '661', '662', '663', '666', '669', '670', '673', '676', '678', '679', '689', '690', '692', '694', '695', '697', '698', '703', '707', '711', '712', '718', '724', '729', '731', '732', '736', '737', '738', '742', '743', '745', '747', '748', '750', '753', '762', '763', '770', '778', '781', '782', '793', '794', '795', '796', '800', '802', '803', '804', '809', '811', '812', '815', '820', '821', '823', '825', '826', '827', '828', '832', '834', '839', '841', '843', '844', '845', '846', '847', '848', '850', '852', '855', '861', '863', '866', '867', '868', '869', '877', '881', '883', '888', '889', '893', '896', '898', '899', '900', '901', '903', '904', '906', '909', '910', '925', '926', '927', '930', '932', '934', '939', '940', '941', '948', '952', '957', '966', '968', '970', '973', '976', '977', '978', '979', '980', '981', '982', '991', '992', '997', '1002', '1004', '1005', '1008', '1012', '1013', '1015', '1017', '1021', '1022', '1023', '1030', '1037', '1038', '1040', '1042', '1043', '1044', '1046', '1047', '1048', '1050', '1055', '1063', '1064', '1066', '1067', '1072', '1074', '1077', '1078', '1079', '1080', '1082', '1084', '1085', '1087', '1091', '1095', '1100', '1101', '1103', '1107', '1110', '1113', '1115', '1117', '1118', '1119', '1121', '1122', '1126', '1128', '1132', '1134', '1144', '1147', '1149', '1150', '1152', '1158', '1164', '1166', '1167', '1168', '1171', '1173', '1174', '1176', '1180', '1186', '1192', '1193', '1194', '1197', '1203', '1205', '1206', '1211', '1218', '1220', '1223', '1225', '1227', '1230', '1231', '1233', '1237', '1239', '1241', '1243', '1246', '1248', '1249', '1250', '1256', '1260', '1261', '1265', '1266', '1269', '1270', '1271', '1272', '1275', '1277', '1281', '1283', '1284', '1285', '1286', '1288', '1292', '1294', '1295', '1296', '1300', '1301', '1305', '1311', '1313', '1314', '1316', '1318', '1322', '1323', '1325', '1326', '1328', '1335', '1336', '1338', '1340', '1341', '1342', '1346', '1349', '1353', '1354', '1356', '1367', '1369', '1370', '1376', '1380', '1383', '1384', '1385', '1386', '1387', '1393', '1395', '1398', '1400', '1405', '1409', '1415', '1420', '1421', '1425', '1427', '1429', '1431', '1436', '1438', '1441', '1443', '1444', '1447', '1448', '1451', '1453', '1456', '1457', '1461', '1462', '1466', '1470', '1472', '1474', '1478', '1483', '1498', '1499', '1502', '1506', '1510', '1512', '1513', '1526', '1527', '1528', '1529', '1530', '1533', '1537', '1539', '1545', '1546', '1548', '1553', '1554', '1557', '1566', '1568', '1571', '1573', '1577', '1580', '1582', '1585', '1586', '1588', '1591', '1594', '1597', '1601', '1603', '1604', '1606', '1607', '1611', '1612', '1613', '1616', '1617', '1619', '1620', '1626', '1631', '1634', '1635', '1636', '1638', '1640', '1641', '1642', '1644', '1645', '1648', '1653', '1654', '1657', '1659', '1665', '1669', '1671', '1675', '1676', '1677', '1681', '1687', '1690', '1691', '1692', '1694', '1695', '1698', '1700', '1702', '1703', '1704', '1708', '1709', '1710', '1714', '1716', '1719', '1720', '1722', '1725', '1729', '1730', '1731', '1736', '1737', '1738', '1747', '1751', '1753', '1754', '1757', '1758', '1759', '1761', '1765', '1766', '1767', '1770', '1771', '1773', '1777', '1781', '1782', '1784', '1790', '1791', '1792', '1795', '1796', '1798', '1800', '1801', '1803', '1804', '1805', '1807', '1809', '1814', '1816', '1817', '1821', '1822', '1823', '1824', '1825', '1827', '1828', '1830', '1832', '1835', '1837', '1838', '1842', '1843', '1845', '1846', '1848', '1850', '1852', '1853', '1854', '1859', '1861', '1862', '1865', '1866', '1867', '1868', '1870', '1871', '1873', '1875', '1876', '1878', '1880', '1885', '1887', '1889', '1890', '1893', '1894', '1896', '1900', '1901', '1902', '1905', '1906', '1909', '1911', '1914', '1915', '1916', '1918', '1919', '1920', '1921', '1925', '1927', '1930', '1932', '1934', '1935', '1942', '1945', '1946', '1948', '1951', '1953', '1955', '1956', '1957', '1959', '1965', '1966', '1967', '1968', '1970', '1972', '1976', '1977', '1979', '1984', '1986', '1988', '1989', '1991', '1994', '1995', '1997', '1998']",True,2000,True,2,80f34a8c17,0.0,0.0,1.0
./expes/v2_2021-03-23_issda-30_2000-prng-1-w2-p2,30_issda-2000,2000,first-2000,500,25,rng,num-start-3400,3400,25726,classic,2289.308841943741,True,,False,1.0,1.0,1.0,1,"['1', '10', '13', '20', '26', '27', '31', '35', '38', '42', '45', '59', '62', '63', '64', '66', '67', '68', '70', '76', '78', '82', '93', '94', '103', '107', '111', '117', '121', '122', '123', '126', '128', '131', '142', '152', '153', '154', '156', '157', '159', '166', '172', '176', '181', '183', '184', '190', '191', '192', '193', '197', '200', '206', '216', '230', '234', '235', '240', '245', '246', '253', '258', '260', '261', '263', '276', '278', '280', '281', '283', '292', '296', '297', '299', '306', '308', '310', '317', '323', '324', '330', '334', '335', '337', '346', '347', '353', '355', '365', '374', '377', '380', '381', '385', '386', '387', '394', '395', '396', '397', '402', '404', '406', '408', '412', '414', '429', '430', '439', '454', '457', '461', '462', '464', '476', '479', '489', '493', '499', '502', '503', '512', '513', '515', '522', '523', '524', '525', '536', '544', '545', '549', '552', '557', '559', '562', '565', '567', '569', '574', '577', '586', '588', '593', '596', '597', '598', '602', '622', '624', '627', '640', '649', '652', '655', '656', '663', '667', '675', '678', '682', '688', '689', '704', '718', '732', '738', '739', '740', '741', '742', '745', '751', '752', '753', '759', '760', '761', '763', '765', '768', '771', '773', '774', '778', '779', '781', '788', '792', '796', '798', '815', '816', '819', '834', '838', '840', '841', '848', '859', '864', '865', '867', '870', '872', '874', '881', '883', '887', '897', '901', '903', '904', '909', '910', '912', '914', '916', '921', '925', '926', '948', '951', '957', '961', '964', '965', '968', '969', '973', '978', '979', '981', '982', '991', '994', '995', '997', '999', '1000', '1001', '1002', '1007', '1008', '1013', '1018', '1019', '1024', '1025', '1029', '1030', '1032', '1039', '1055', '1059', '1060', '1066', '1070', '1075', '1076', '1077', '1078', '1080', '1081', '1088', '1097', '1102', '1103', '1105', '1107', '1112', '1114', '1121', '1129', '1130', '1134', '1143', '1144', '1147', '1149', '1154', '1156', '1158', '1165', '1166', '1167', '1173', '1175', '1176', '1180', '1187', '1198', '1202', '1206', '1207', '1208', '1213', '1217', '1220', '1224', '1233', '1234', '1236', '1239', '1243', '1246', '1250', '1254', '1257', '1263', '1266', '1267', '1269', '1271', '1278', '1281', '1282', '1287', '1289', '1293', '1298', '1300', '1301', '1306', '1308', '1310', '1321', '1322', '1323', '1324', '1328', '1333', '1334', '1340', '1343', '1345', '1351', '1355', '1356', '1358', '1366', '1369', '1373', '1375', '1380', '1385', '1390', '1391', '1394', '1395', '1397', '1401', '1405', '1409', '1414', '1415', '1416', '1421', '1423', '1425', '1430', '1433', '1436', '1437', '1438', '1446', '1451', '1457', '1460', '1462', '1463', '1465', '1468', '1472', '1473', '1478', '1480', '1483', '1484', '1493', '1494', '1495', '1499', '1505', '1514', '1516', '1522', '1526', '1527', '1529', '1537', '1539', '1548', '1551', '1555', '1556', '1557', '1562', '1564', '1568', '1578', '1585', '1592', '1594', '1595', '1596', '1603', '1606', '1611', '1613', '1620', '1621', '1625', '1631', '1632', '1639', '1643', '1646', '1649', '1650', '1651', '1652', '1667', '1671', '1672', '1673', '1676', '1684', '1696', '1703', '1706', '1709', '1718', '1722', '1730', '1731', '1741', '1748', '1751', '1758', '1760', '1770', '1773', '1783', '1785', '1787', '1795', '1801', '1803', '1813', '1822', '1828', '1830', '1831', '1843', '1849', '1853', '1860', '1862', '1863', '1865', '1867', '1870', '1871', '1877', '1883', '1884', '1889', '1891', '1893', '1899', '1900', '1911', '1914', '1919', '1922', '1925', '1927', '1933', '1936', '1941', '1943', '1946', '1948', '1949', '1950', '1963', '1971', '1976', '1977', '1978', '1979', '1985', '1987', '1989', '1992', '1995', '1997', '2000']",True,2000,True,2,15deba7df5,0.0,0.0,1.0
./expes/v2_2021-03-23_issda-30_2000-prng-1-w2-p2,30_issda-2000,2000,first-2000,400,20,rng,num-start-2400,2400,25726,classic,1880.4568982124329,True,,True,1.0,1.0,1.0,1,"['1', '10', '13', '26', '31', '35', '38', '42', '45', '59', '62', '63', '64', '66', '67', '70', '76', '78', '93', '94', '107', '111', '117', '128', '131', '142', '152', '154', '156', '157', '159', '166', '172', '176', '181', '183', '184', '191', '193', '197', '200', '206', '216', '230', '234', '240', '245', '253', '258', '260', '261', '263', '278', '281', '283', '292', '296', '297', '299', '308', '310', '317', '323', '324', '330', '334', '335', '347', '353', '355', '374', '377', '380', '381', '385', '387', '394', '395', '396', '397', '402', '404', '406', '408', '412', '429', '430', '454', '457', '476', '489', '493', '499', '502', '503', '512', '513', '515', '522', '525', '536', '544', '545', '549', '552', '559', '562', '565', '567', '574', '577', '586', '593', '596', '597', '598', '622', '624', '627', '640', '649', '652', '655', '656', '663', '675', '682', '688', '689', '704', '718', '732', '738', '739', '740', '741', '742', '745', '751', '759', '760', '761', '765', '768', '771', '773', '774', '778', '779', '796', '798', '815', '816', '819', '838', '840', '841', '848', '859', '864', '865', '867', '870', '874', '881', '883', '887', '901', '903', '904', '910', '912', '914', '916', '921', '925', '926', '948', '951', '957', '961', '964', '965', '969', '973', '978', '979', '981', '982', '991', '994', '995', '997', '999', '1000', '1001', '1002', '1007', '1008', '1013', '1018', '1019', '1024', '1025', '1029', '1030', '1032', '1039', '1055', '1059', '1066', '1070', '1075', '1076', '1077', '1081', '1097', '1102', '1103', '1105', '1121', '1130', '1134', '1143', '1144', '1147', '1149', '1154', '1156', '1165', '1167', '1173', '1176', '1180', '1187', '1202', '1206', '1207', '1208', '1217', '1224', '1233', '1234', '1236', '1239', '1243', '1246', '1250', '1254', '1257', '1263', '1266', '1267', '1269', '1271', '1278', '1282', '1287', '1289', '1293', '1298', '1300', '1301', '1306', '1308', '1310', '1321', '1323', '1324', '1328', '1340', '1343', '1345', '1351', '1358', '1369', '1373', '1375', '1385', '1390', '1391', '1394', '1395', '1397', '1405', '1415', '1421', '1423', '1425', '1430', '1433', '1436', '1437', '1446', '1451', '1460', '1462', '1463', '1465', '1472', '1473', '1478', '1480', '1483', '1493', '1494', '1495', '1499', '1505', '1514', '1516', '1522', '1527', '1529', '1539', '1548', '1551', '1556', '1562', '1568', '1578', '1585', '1594', '1595', '1603', '1606', '1611', '1621', '1625', '1631', '1632', '1639', '1643', '1646', '1649', '1650', '1651', '1652', '1667', '1672', '1673', '1676', '1684', '1696', '1703', '1706', '1709', '1718', '1730', '1741', '1748', '1758', '1773', '1783', '1787', '1795', '1801', '1803', '1813', '1822', '1828', '1830', '1843', '1849', '1853', '1860', '1862', '1863', '1865', '1867', '1870', '1871', '1877', '1883', '1889', '1891', '1893', '1899', '1900', '1911', '1914', '1919', '1922', '1925', '1927', '1933', '1936', '1941', '1946', '1949', '1950', '1971', '1976', '1977', '1978', '1979', '1987', '1989', '1997', '2000']",False,2000,True,2,9c4af6322c,0.0,1.0,1.0
./expes/v2_2021-03-23_issda-30_2000-prng-1-w2-p2,30_issda-2000,2000,first-2000,600,30,rng,num-start-2600,2600,25726,classic,2247.1220211982727,True,,False,1.0,1.0,1.0,1,"['1', '3', '8', '9', '12', '13', '19', '21', '23', '27', '29', '30', '35', '40', '41', '42', '44', '45', '46', '47', '51', '54', '57', '58', '63', '67', '68', '73', '75', '78', '80', '81', '88', '89', '90', '91', '96', '99', '106', '108', '113', '114', '116', '119', '120', '122', '133', '135', '146', '150', '153', '157', '161', '162', '163', '164', '165', '169', '172', '177', '183', '184', '186', '187', '189', '191', '199', '202', '205', '207', '212', '214', '219', '220', '222', '223', '233', '236', '238', '241', '242', '245', '249', '252', '254', '255', '257', '258', '268', '269', '274', '280', '290', '291', '294', '295', '296', '301', '302', '304', '309', '313', '314', '316', '317', '319', '323', '324', '327', '337', '342', '344', '348', '349', '352', '353', '354', '355', '357', '365', '373', '374', '379', '381', '389', '391', '395', '397', '400', '402', '406', '413', '416', '417', '418', '421', '424', '428', '429', '430', '434', '436', '440', '443', '448', '449', '452', '454', '456', '457', '459', '460', '461', '465', '467', '471', '476', '481', '483', '487', '488', '490', '491', '495', '498', '501', '504', '512', '520', '523', '524', '529', '531', '533', '535', '538', '539', '541', '548', '549', '551', '552', '558', '560', '571', '580', '582', '584', '588', '593', '594', '596', '601', '603', '605', '607', '608', '610', '619', '620', '621', '624', '625', '629', '633', '635', '636', '642', '643', '647', '649', '650', '655', '656', '660', '667', '673', '683', '686', '687', '689', '690', '700', '705', '706', '713', '715', '716', '717', '724', '725', '726', '733', '740', '741', '743', '747', '757', '765', '766', '767', '769', '771', '773', '785', '786', '787', '792', '793', '796', '802', '805', '808', '810', '811', '819', '820', '823', '825', '826', '827', '829', '830', '832', '834', '836', '837', '838', '839', '840', '843', '844', '845', '846', '852', '854', '856', '857', '858', '860', '861', '867', '874', '876', '877', '880', '887', '889', '894', '899', '904', '906', '910', '912', '915', '916', '917', '922', '929', '931', '934', '936', '942', '944', '946', '947', '952', '956', '961', '966', '968', '972', '973', '978', '985', '986', '988', '991', '995', '1000', '1004', '1005', '1007', '1012', '1013', '1016', '1017', '1019', '1020', '1022', '1023', '1027', '1030', '1032', '1045', '1046', '1047', '1052', '1053', '1058', '1059', '1062', '1072', '1073', '1077', '1083', '1089', '1090', '1092', '1095', '1097', '1101', '1103', '1105', '1110', '1129', '1133', '1134', '1153', '1157', '1162', '1171', '1173', '1176', '1186', '1189', '1193', '1202', '1203', '1208', '1209', '1215', '1216', '1219', '1222', '1224', '1227', '1234', '1235', '1237', '1242', '1243', '1248', '1250', '1252', '1255', '1256', '1258', '1260', '1264', '1277', '1281', '1282', '1284', '1287', '1288', '1293', '1296', '1297', '1301', '1307', '1308', '1312', '1313', '1317', '1320', '1321', '1332', '1335', '1337', '1339', '1341', '1342', '1343', '1347', '1349', '1351', '1353', '1357', '1358', '1364', '1365', '1366', '1367', '1369', '1370', '1392', '1395', '1397', '1407', '1408', '1411', '1413', '1415', '1417', '1421', '1425', '1429', '1430', '1432', '1433', '1434', '1441', '1448', '1449', '1450', '1457', '1463', '1472', '1474', '1477', '1483', '1485', '1487', '1491', '1496', '1497', '1500', '1508', '1510', '1512', '1513', '1516', '1521', '1522', '1523', '1533', '1536', '1540', '1542', '1547', '1553', '1554', '1559', '1564', '1565', '1566', '1568', '1576', '1583', '1584', '1586', '1598', '1602', '1603', '1604', '1605', '1610', '1612', '1614', '1616', '1617', '1619', '1630', '1631', '1635', '1636', '1646', '1647', '1650', '1651', '1652', '1655', '1664', '1667', '1669', '1671', '1674', '1677', '1686', '1688', '1692', '1693', '1694', '1700', '1704', '1706', '1711', '1721', '1722', '1724', '1725', '1726', '1727', '1729', '1732', '1735', '1736', '1738', '1741', '1750', '1763', '1771', '1772', '1773', '1777', '1778', '1784', '1788', '1795', '1809', '1810', '1811', '1812', '1813', '1814', '1820', '1830', '1836', '1837', '1842', '1843', '1849', '1855', '1857', '1865', '1875', '1877', '1882', '1883', '1884', '1886', '1892', '1895', '1896', '1901', '1902', '1905', '1908', '1915', '1921', '1925', '1927', '1932', '1933', '1942', '1943', '1947', '1949', '1950', '1952', '1953', '1954', '1959', '1961', '1962', '1965', '1971', '1976', '1979', '1981', '1983', '1984', '1985', '1988', '1989', '1991', '1993', '1995', '1996']",True,2000,True,2,585d2c2262,0.0,0.0,1.0
./expes/v2_2021-03-23_issda-30_2000-prng-1-w2-p2,30_issda-2000,2000,first-2000,600,30,rng,num-start-3200,3200,25726,classic,2324.947354078293,True,,False,1.0,1.0,1.0,1,"['6', '9', '11', '12', '16', '26', '30', '31', '33', '34', '36', '39', '52', '54', '57', '64', '65', '66', '67', '68', '71', '73', '75', '76', '77', '85', '88', '90', '91', '92', '95', '98', '102', '103', '104', '107', '109', '110', '113', '114', '123', '129', '133', '134', '135', '139', '143', '144', '148', '152', '154', '156', '160', '164', '166', '172', '181', '183', '190', '194', '196', '197', '198', '199', '203', '205', '217', '219', '223', '232', '238', '239', '241', '243', '245', '253', '256', '257', '261', '273', '275', '279', '285', '286', '290', '294', '299', '307', '312', '313', '314', '315', '321', '324', '325', '329', '334', '337', '338', '339', '340', '341', '345', '346', '348', '351', '352', '355', '357', '358', '359', '361', '362', '365', '366', '374', '375', '381', '382', '384', '387', '390', '391', '392', '393', '394', '397', '399', '400', '401', '410', '413', '422', '423', '426', '428', '430', '447', '451', '458', '459', '460', '469', '482', '483', '487', '489', '491', '492', '494', '495', '497', '501', '503', '505', '506', '512', '522', '531', '537', '538', '540', '545', '547', '557', '563', '568', '569', '579', '581', '585', '589', '593', '594', '596', '603', '607', '617', '620', '621', '628', '631', '632', '637', '644', '655', '660', '662', '665', '670', '672', '673', '680', '688', '694', '695', '700', '703', '704', '708', '712', '713', '715', '716', '717', '725', '728', '735', '738', '739', '740', '743', '747', '750', '752', '766', '767', '769', '771', '782', '783', '788', '790', '792', '795', '796', '800', '803', '804', '811', '813', '814', '817', '818', '820', '821', '822', '829', '830', '831', '837', '846', '849', '851', '852', '858', '861', '862', '863', '864', '866', '867', '868', '869', '874', '879', '882', '887', '888', '889', '891', '892', '893', '894', '899', '900', '901', '904', '905', '906', '911', '913', '915', '916', '917', '918', '923', '925', '930', '933', '934', '936', '939', '940', '941', '942', '946', '948', '950', '956', '959', '963', '965', '972', '974', '976', '977', '978', '981', '983', '984', '989', '994', '1002', '1003', '1004', '1007', '1016', '1018', '1023', '1024', '1027', '1028', '1038', '1040', '1046', '1047', '1051', '1052', '1065', '1066', '1067', '1069', '1070', '1071', '1072', '1076', '1088', '1091', '1093', '1097', '1099', '1100', '1104', '1106', '1109', '1116', '1117', '1125', '1128', '1129', '1130', '1138', '1139', '1144', '1145', '1146', '1156', '1157', '1158', '1162', '1167', '1168', '1171', '1172', '1177', '1179', '1182', '1184', '1185', '1188', '1191', '1194', '1198', '1203', '1206', '1212', '1216', '1219', '1220', '1224', '1225', '1232', '1234', '1235', '1236', '1238', '1240', '1241', '1242', '1243', '1245', '1246', '1249', '1250', '1257', '1259', '1265', '1268', '1270', '1275', '1279', '1281', '1285', '1286', '1288', '1299', '1303', '1305', '1308', '1309', '1310', '1311', '1314', '1315', '1317', '1329', '1331', '1335', '1336', '1338', '1339', '1347', '1348', '1353', '1356', '1361', '1363', '1366', '1373', '1380', '1381', '1383', '1387', '1395', '1402', '1405', '1408', '1413', '1418', '1420', '1421', '1424', '1428', '1430', '1438', '1440', '1447', '1453', '1460', '1461', '1471', '1475', '1476', '1479', '1480', '1481', '1482', '1488', '1489', '1503', '1508', '1513', '1515', '1517', '1523', '1524', '1526', '1527', '1535', '1539', '1541', '1556', '1559', '1561', '1564', '1565', '1571', '1572', '1573', '1579', '1582', '1583', '1584', '1587', '1589', '1592', '1593', '1604', '1612', '1613', '1616', '1617', '1620', '1626', '1633', '1638', '1641', '1648', '1650', '1654', '1657', '1659', '1661', '1662', '1664', '1666', '1673', '1674', '1676', '1681', '1682', '1685', '1687', '1688', '1690', '1694', '1695', '1698', '1699', '1707', '1708', '1712', '1713', '1714', '1715', '1718', '1725', '1729', '1736', '1737', '1740', '1742', '1744', '1748', '1752', '1759', '1761', '1762', '1766', '1768', '1771', '1772', '1773', '1781', '1783', '1785', '1786', '1790', '1792', '1800', '1802', '1805', '1808', '1818', '1819', '1821', '1823', '1826', '1830', '1837', '1839', '1840', '1846', '1847', '1853', '1856', '1858', '1860', '1863', '1865', '1866', '1870', '1871', '1874', '1882', '1884', '1886', '1887', '1890', '1893', '1910', '1911', '1916', '1917', '1928', '1932', '1937', '1941', '1946', '1948', '1951', '1952', '1956', '1958', '1959', '1965', '1966', '1967', '1971', '1973', '1974', '1976', '1984', '1985', '1986', '1987', '1988', '1995', '1997']",True,2000,True,2,a8952a70d2,0.0,0.0,1.0
./expes/v2_2021-03-23_issda-30_2000-prng-1-w2-p2,30_issda-2000,2000,first-2000,600,30,rng,num-start-3600,3600,25726,classic,2292.2568714618683,True,,False,1.0,1.0,1.0,1,"['1', '3', '8', '9', '12', '13', '19', '21', '23', '27', '29', '30', '35', '40', '41', '42', '44', '45', '46', '47', '51', '54', '57', '58', '63', '67', '68', '73', '75', '78', '80', '81', '88', '89', '90', '91', '96', '99', '106', '108', '113', '114', '116', '119', '120', '122', '133', '135', '146', '150', '153', '157', '161', '162', '163', '164', '165', '169', '172', '177', '183', '184', '186', '187', '189', '191', '199', '202', '205', '207', '212', '214', '219', '220', '222', '223', '233', '236', '238', '241', '242', '245', '249', '252', '254', '255', '257', '258', '268', '269', '274', '280', '290', '291', '294', '295', '296', '301', '302', '304', '309', '313', '314', '316', '317', '319', '323', '324', '327', '337', '342', '344', '348', '349', '352', '353', '354', '355', '357', '365', '373', '374', '379', '381', '389', '391', '395', '397', '400', '402', '406', '413', '416', '417', '418', '421', '424', '428', '429', '430', '434', '436', '440', '443', '448', '449', '452', '454', '456', '457', '459', '460', '461', '465', '467', '471', '476', '481', '483', '487', '488', '490', '491', '495', '498', '501', '504', '512', '520', '523', '524', '529', '531', '533', '535', '538', '539', '541', '548', '549', '551', '552', '558', '560', '571', '580', '582', '584', '588', '593', '594', '596', '601', '603', '605', '607', '608', '610', '619', '620', '621', '624', '625', '629', '633', '635', '636', '642', '643', '647', '649', '650', '655', '656', '660', '667', '673', '683', '686', '687', '689', '690', '700', '705', '706', '713', '715', '716', '717', '724', '725', '726', '733', '740', '741', '743', '747', '757', '765', '766', '767', '769', '771', '773', '785', '786', '787', '792', '793', '796', '802', '805', '808', '810', '811', '819', '820', '823', '825', '826', '827', '829', '830', '832', '834', '836', '837', '838', '839', '840', '843', '844', '845', '846', '852', '854', '856', '857', '858', '860', '861', '867', '874', '876', '877', '880', '887', '889', '894', '899', '904', '906', '910', '912', '915', '916', '917', '922', '929', '931', '934', '936', '942', '944', '946', '947', '952', '956', '961', '966', '968', '972', '973', '978', '985', '986', '988', '991', '995', '1000', '1004', '1005', '1007', '1012', '1013', '1016', '1017', '1019', '1020', '1022', '1023', '1027', '1030', '1032', '1045', '1046', '1047', '1052', '1053', '1058', '1059', '1062', '1072', '1073', '1077', '1083', '1089', '1090', '1092', '1095', '1097', '1101', '1103', '1105', '1110', '1129', '1133', '1134', '1153', '1157', '1162', '1171', '1173', '1176', '1186', '1189', '1193', '1202', '1203', '1208', '1209', '1215', '1216', '1219', '1222', '1224', '1227', '1234', '1235', '1237', '1242', '1243', '1248', '1250', '1252', '1255', '1256', '1258', '1260', '1264', '1277', '1281', '1282', '1284', '1287', '1288', '1293', '1296', '1297', '1301', '1307', '1308', '1312', '1313', '1317', '1320', '1321', '1332', '1335', '1337', '1339', '1341', '1342', '1343', '1347', '1349', '1351', '1353', '1357', '1358', '1364', '1365', '1366', '1367', '1369', '1370', '1392', '1395', '1397', '1407', '1408', '1411', '1413', '1415', '1417', '1421', '1425', '1429', '1430', '1432', '1433', '1434', '1441', '1448', '1449', '1450', '1457', '1463', '1472', '1474', '1477', '1483', '1485', '1487', '1491', '1496', '1497', '1500', '1508', '1510', '1512', '1513', '1516', '1521', '1522', '1523', '1533', '1536', '1540', '1542', '1547', '1553', '1554', '1559', '1564', '1565', '1566', '1568', '1576', '1583', '1584', '1586', '1598', '1602', '1603', '1604', '1605', '1610', '1612', '1614', '1616', '1617', '1619', '1630', '1631', '1635', '1636', '1646', '1647', '1650', '1651', '1652', '1655', '1664', '1667', '1669', '1671', '1674', '1677', '1686', '1688', '1692', '1693', '1694', '1700', '1704', '1706', '1711', '1721', '1722', '1724', '1725', '1726', '1727', '1729', '1732', '1735', '1736', '1738', '1741', '1750', '1763', '1771', '1772', '1773', '1777', '1778', '1784', '1788', '1795', '1809', '1810', '1811', '1812', '1813', '1814', '1820', '1830', '1836', '1837', '1842', '1843', '1849', '1855', '1857', '1865', '1875', '1877', '1882', '1883', '1884', '1886', '1892', '1895', '1896', '1901', '1902', '1905', '1908', '1915', '1921', '1925', '1927', '1932', '1933', '1942', '1943', '1947', '1949', '1950', '1952', '1953', '1954', '1959', '1961', '1962', '1965', '1971', '1976', '1979', '1981', '1983', '1984', '1985', '1988', '1989', '1991', '1993', '1995', '1996']",True,2000,True,2,c0f02fbd4e,0.0,0.0,1.0
./expes/v2_2021-03-23_issda-30_2000-prng-1-w2-p2,30_issda-2000,2000,first-2000,200,10,rng,num-start-1000,1000,25726,classic,977.5140643119812,True,,True,1.0,1.0,1.0,1,"['1', '2', '10', '20', '23', '31', '32', '35', '41', '61', '62', '74', '86', '87', '108', '122', '123', '130', '137', '144', '150', '151', '153', '171', '175', '179', '185', '186', '193', '206', '207', '221', '222', '239', '242', '261', '269', '276', '278', '291', '300', '316', '323', '364', '375', '379', '382', '384', '386', '389', '390', '391', '401', '407', '428', '430', '432', '436', '437', '438', '471', '479', '496', '498', '505', '521', '529', '553', '570', '592', '596', '603', '607', '622', '623', '638', '646', '669', '674', '682', '690', '756', '762', '769', '786', '791', '792', '808', '809', '812', '814', '821', '834', '840', '859', '860', '862', '903', '905', '915', '917', '926', '927', '928', '929', '937', '951', '953', '954', '963', '975', '991', '998', '1024', '1041', '1043', '1049', '1051', '1064', '1083', '1104', '1129', '1146', '1147', '1154', '1160', '1177', '1182', '1194', '1203', '1211', '1214', '1220', '1229', '1232', '1233', '1250', '1258', '1261', '1275', '1277', '1285', '1290', '1300', '1304', '1312', '1315', '1319', '1332', '1340', '1342', '1357', '1383', '1397', '1403', '1421', '1448', '1450', '1452', '1499', '1514', '1553', '1570', '1576', '1583', '1594', '1595', '1600', '1625', '1633', '1646', '1647', '1659', '1701', '1704', '1705', '1721', '1726', '1734', '1736', '1750', '1752', '1755', '1771', '1774', '1775', '1802', '1813', '1824', '1865', '1890', '1893', '1899', '1909', '1963', '1965', '1975', '1976', '1989', '1997']",False,2000,True,2,b119aeb0f0,0.0,1.0,1.0
./expes/v2_2021-03-23_issda-30_2000-prng-1-w2-p2,30_issda-2000,2000,first-2000,500,25,rng,num-start-800,800,25726,classic,2064.4482655525208,True,,False,1.0,1.0,1.0,1,"['4', '9', '10', '11', '18', '33', '37', '40', '41', '44', '49', '50', '51', '52', '57', '61', '64', '65', '66', '69', '73', '74', '75', '77', '84', '89', '94', '101', '105', '110', '116', '117', '121', '123', '124', '137', '139', '146', '151', '152', '155', '157', '165', '170', '173', '174', '177', '180', '188', '192', '193', '197', '205', '208', '209', '216', '218', '228', '230', '232', '236', '238', '243', '250', '252', '262', '264', '270', '280', '287', '288', '290', '295', '297', '301', '310', '311', '315', '320', '321', '322', '323', '325', '329', '331', '337', '341', '347', '348', '350', '353', '354', '356', '361', '362', '364', '370', '372', '373', '377', '392', '394', '407', '426', '427', '431', '432', '435', '436', '446', '449', '455', '462', '465', '468', '473', '475', '477', '481', '484', '494', '502', '506', '508', '510', '511', '512', '514', '516', '519', '520', '521', '524', '526', '527', '531', '532', '537', '541', '545', '550', '551', '560', '562', '571', '572', '583', '586', '588', '594', '596', '607', '608', '622', '627', '632', '634', '635', '639', '648', '653', '665', '666', '672', '674', '675', '686', '691', '699', '700', '705', '707', '719', '725', '730', '733', '735', '737', '738', '740', '742', '743', '746', '750', '751', '762', '763', '764', '765', '768', '779', '785', '788', '790', '800', '801', '803', '805', '806', '809', '810', '819', '823', '828', '830', '833', '838', '842', '845', '850', '854', '857', '859', '860', '867', '868', '872', '876', '883', '889', '899', '904', '911', '912', '913', '918', '919', '925', '929', '930', '932', '936', '937', '945', '949', '952', '953', '956', '964', '969', '979', '983', '989', '992', '996', '997', '998', '1001', '1002', '1004', '1005', '1008', '1020', '1021', '1026', '1029', '1033', '1040', '1041', '1043', '1045', '1048', '1049', '1053', '1054', '1055', '1056', '1058', '1061', '1062', '1064', '1067', '1070', '1072', '1074', '1076', '1077', '1078', '1087', '1097', '1108', '1115', '1117', '1124', '1130', '1142', '1143', '1147', '1148', '1152', '1163', '1171', '1175', '1177', '1180', '1191', '1198', '1200', '1205', '1206', '1208', '1211', '1212', '1216', '1219', '1222', '1240', '1241', '1242', '1243', '1251', '1257', '1261', '1262', '1263', '1267', '1274', '1277', '1278', '1279', '1286', '1301', '1306', '1308', '1313', '1315', '1328', '1335', '1338', '1342', '1350', '1354', '1356', '1359', '1372', '1374', '1378', '1382', '1391', '1394', '1395', '1396', '1398', '1402', '1403', '1404', '1408', '1414', '1417', '1419', '1425', '1432', '1433', '1441', '1445', '1446', '1447', '1451', '1454', '1456', '1463', '1465', '1466', '1467', '1469', '1473', '1474', '1481', '1482', '1483', '1487', '1491', '1493', '1494', '1497', '1498', '1505', '1508', '1509', '1513', '1516', '1521', '1526', '1532', '1538', '1544', '1545', '1547', '1548', '1556', '1558', '1563', '1566', '1569', '1584', '1588', '1592', '1600', '1604', '1607', '1615', '1618', '1622', '1627', '1631', '1632', '1636', '1637', '1639', '1644', '1646', '1648', '1651', '1652', '1657', '1659', '1664', '1666', '1669', '1670', '1675', '1681', '1690', '1691', '1703', '1711', '1712', '1713', '1718', '1722', '1739', '1741', '1749', '1760', '1762', '1767', '1768', '1774', '1784', '1791', '1792', '1794', '1796', '1804', '1806', '1807', '1809', '1811', '1813', '1818', '1822', '1827', '1831', '1833', '1834', '1840', '1843', '1846', '1848', '1850', '1857', '1859', '1860', '1861', '1867', '1876', '1877', '1882', '1885', '1886', '1888', '1895', '1903', '1909', '1910', '1914', '1916', '1917', '1919', '1922', '1927', '1933', '1941', '1942', '1945', '1946', '1955', '1956', '1958', '1961', '1964', '1965', '1966', '1968', '1970', '1973', '1985', '1988', '1989', '1995']",True,2000,True,2,6f817034da,0.0,0.0,1.0
./expes/v2_2021-03-23_issda-30_2000-prng-1-w2-p2,30_issda-2000,2000,first-2000,600,30,rng,num-start-3000,3000,25726,classic,2232.366626739502,True,,False,1.0,1.0,1.0,1,"['1', '6', '10', '11', '13', '20', '21', '22', '26', '27', '31', '35', '38', '42', '45', '58', '59', '62', '63', '64', '66', '67', '68', '70', '76', '78', '82', '93', '94', '103', '104', '106', '107', '111', '117', '121', '122', '123', '126', '128', '131', '140', '142', '152', '153', '154', '156', '157', '159', '166', '170', '172', '176', '180', '181', '183', '184', '190', '191', '192', '193', '197', '200', '206', '215', '216', '223', '230', '234', '235', '240', '245', '246', '253', '258', '260', '261', '263', '272', '273', '276', '278', '280', '281', '283', '286', '292', '296', '297', '299', '303', '306', '308', '310', '312', '317', '323', '324', '329', '330', '334', '335', '337', '346', '347', '353', '355', '361', '362', '365', '373', '374', '377', '380', '381', '385', '386', '387', '394', '395', '396', '397', '398', '402', '404', '406', '408', '412', '414', '429', '430', '439', '442', '454', '457', '458', '461', '462', '464', '472', '475', '476', '479', '489', '493', '498', '499', '502', '503', '512', '513', '515', '516', '519', '522', '523', '524', '525', '536', '541', '544', '545', '549', '552', '554', '557', '559', '560', '562', '565', '567', '569', '574', '577', '586', '588', '593', '596', '597', '598', '602', '613', '622', '624', '625', '627', '640', '649', '652', '655', '656', '663', '667', '675', '678', '682', '688', '689', '692', '698', '704', '705', '718', '732', '738', '739', '740', '741', '742', '744', '745', '747', '751', '752', '753', '759', '760', '761', '763', '765', '768', '771', '773', '774', '778', '779', '780', '781', '787', '788', '792', '796', '798', '806', '815', '816', '819', '834', '835', '838', '840', '841', '844', '848', '856', '859', '864', '865', '867', '870', '872', '874', '879', '881', '883', '887', '893', '897', '901', '903', '904', '909', '910', '912', '914', '916', '919', '921', '925', '926', '939', '948', '950', '951', '957', '961', '964', '965', '968', '969', '971', '973', '978', '979', '981', '982', '984', '991', '994', '995', '996', '997', '999', '1000', '1001', '1002', '1007', '1008', '1013', '1018', '1019', '1024', '1025', '1029', '1030', '1032', '1039', '1052', '1055', '1059', '1060', '1065', '1066', '1070', '1075', '1076', '1077', '1078', '1080', '1081', '1088', '1097', '1102', '1103', '1105', '1107', '1109', '1112', '1114', '1118', '1121', '1129', '1130', '1134', '1143', '1144', '1147', '1149', '1154', '1155', '1156', '1158', '1165', '1166', '1167', '1173', '1175', '1176', '1180', '1187', '1198', '1202', '1205', '1206', '1207', '1208', '1210', '1213', '1214', '1217', '1220', '1224', '1233', '1234', '1236', '1239', '1243', '1246', '1250', '1254', '1257', '1262', '1263', '1266', '1267', '1269', '1271', '1275', '1278', '1281', '1282', '1284', '1287', '1289', '1293', '1298', '1300', '1301', '1306', '1308', '1310', '1315', '1320', '1321', '1322', '1323', '1324', '1328', '1333', '1334', '1340', '1343', '1345', '1351', '1355', '1356', '1358', '1366', '1369', '1373', '1375', '1380', '1385', '1387', '1390', '1391', '1394', '1395', '1397', '1401', '1405', '1409', '1414', '1415', '1416', '1418', '1421', '1422', '1423', '1425', '1430', '1433', '1436', '1437', '1438', '1446', '1451', '1457', '1460', '1462', '1463', '1465', '1468', '1472', '1473', '1478', '1480', '1483', '1484', '1493', '1494', '1495', '1499', '1505', '1514', '1516', '1522', '1526', '1527', '1529', '1537', '1539', '1543', '1548', '1551', '1553', '1555', '1556', '1557', '1562', '1563', '1564', '1568', '1572', '1574', '1578', '1585', '1591', '1592', '1594', '1595', '1596', '1598', '1603', '1606', '1611', '1613', '1620', '1621', '1625', '1629', '1631', '1632', '1639', '1643', '1646', '1649', '1650', '1651', '1652', '1656', '1658', '1663', '1667', '1671', '1672', '1673', '1676', '1684', '1696', '1697', '1701', '1703', '1705', '1706', '1709', '1715', '1718', '1722', '1725', '1730', '1731', '1741', '1748', '1751', '1752', '1758', '1760', '1765', '1770', '1773', '1781', '1782', '1783', '1785', '1787', '1795', '1801', '1803', '1809', '1813', '1819', '1822', '1828', '1830', '1831', '1842', '1843', '1849', '1853', '1860', '1862', '1863', '1865', '1867', '1870', '1871', '1877', '1883', '1884', '1887', '1889', '1891', '1893', '1898', '1899', '1900', '1902', '1903', '1911', '1914', '1919', '1922', '1925', '1927', '1933', '1936', '1941', '1942', '1943', '1946', '1948', '1949', '1950', '1954', '1963', '1971', '1976', '1977', '1978', '1979', '1984', '1985', '1987', '1989', '1990', '1992', '1995', '1997', '2000']",True,2000,True,2,c7ccd99ab8,0.0,0.0,1.0
