expe,clients,clients_size,clients_subset,agg_size,method,days,days_size,days_total,time,valid,valid_sum,success,nsols,wall_hit,wall_time,pooled,valid_sums
./expes/v2_2020-12-03_dh_100-prng-1,30_issda_100,100,rng-100,11,rng,num-start-531,531,25726,5.140731573104858,True,,True,1,False,1000,True,1.0
./expes/v2_2020-12-03_dh_100-prng-1,30_issda_100,100,rng-100,81,rng,num-start-471,471,25726,4.725321054458618,True,,True,1,False,1000,True,1.0
./expes/v2_2020-12-03_dh_100-prng-1,30_issda_100,100,rng-100,81,rng,num-start-631,631,25726,6.11648964881897,True,,True,1,False,1000,True,1.0
./expes/v2_2020-12-03_dh_100-prng-1,30_issda_100,100,rng-100,71,rng,num-start-191,191,25726,2.041454553604126,True,,True,1,False,1000,True,1.0
./expes/v2_2020-12-03_dh_100-prng-1,30_issda_100,100,rng-100,71,rng,num-start-221,221,25726,2.172001838684082,True,,True,1,False,1000,True,1.0
./expes/v2_2020-12-03_dh_100-prng-1,30_issda_100,100,rng-100,21,rng,num-start-851,851,25726,8.119733572006226,True,,True,1,False,1000,True,1.0
./expes/v2_2020-12-03_dh_100-prng-1,30_issda_100,100,rng-100,31,rng,num-start-701,701,25726,7.592028379440308,True,,True,1,False,1000,True,1.0
./expes/v2_2020-12-03_dh_100-prng-1,30_issda_100,100,rng-100,91,rng,num-start-61,61,25726,0.6914536952972412,True,,True,1,False,1000,True,1.0
./expes/v2_2020-12-03_dh_100-prng-1,30_issda_100,100,rng-100,31,rng,num-start-271,271,25726,3.0058248043060303,True,,True,1,False,1000,True,1.0
./expes/v2_2020-12-03_dh_100-prng-1,30_issda_100,100,rng-100,81,rng,num-start-911,911,25726,9.1534104347229,True,,True,1,False,1000,True,1.0
./expes/v2_2020-12-03_dh_100-prng-1,30_issda_100,100,rng-100,81,rng,num-start-271,271,25726,2.6685781478881836,True,,True,1,False,1000,True,1.0
./expes/v2_2020-12-03_dh_100-prng-1,30_issda_100,100,rng-100,91,rng,num-start-661,661,25726,6.135124444961548,True,,True,1,False,1000,True,1.0
./expes/v2_2020-12-03_dh_100-prng-1,30_issda_100,100,rng-100,31,rng,num-start-661,661,25726,7.145603656768799,True,,True,1,False,1000,True,1.0
./expes/v2_2020-12-03_dh_100-prng-1,30_issda_100,100,rng-100,31,rng,num-start-81,81,25726,1.0077605247497559,True,,True,1,False,1000,True,1.0
./expes/v2_2020-12-03_dh_100-prng-1,30_issda_100,100,rng-100,81,rng,num-start-81,81,25726,0.8941347599029541,True,,True,1,False,1000,True,1.0
./expes/v2_2020-12-03_dh_100-prng-1,30_issda_100,100,rng-100,1,rng,num-start-481,481,25726,4.264525890350342,True,,True,1,False,1000,True,1.0
./expes/v2_2020-12-03_dh_100-prng-1,30_issda_100,100,rng-100,81,rng,num-start-311,311,25726,3.132153272628784,True,,True,1,False,1000,True,1.0
./expes/v2_2020-12-03_dh_100-prng-1,30_issda_100,100,rng-100,31,rng,num-start-561,561,25726,5.879216432571411,True,,True,1,False,1000,True,1.0
./expes/v2_2020-12-03_dh_100-prng-1,30_issda_100,100,rng-100,91,rng,num-start-191,191,25726,1.7548291683197021,True,,True,1,False,1000,True,1.0
./expes/v2_2020-12-03_dh_100-prng-1,30_issda_100,100,rng-100,71,rng,num-start-291,291,25726,2.9892613887786865,True,,True,1,False,1000,True,1.0
./expes/v2_2020-12-03_dh_100-prng-1,30_issda_100,100,rng-100,61,rng,num-start-11,11,25726,1002.3289105892181,False,,False,0,True,1000,True,0.0
./expes/v2_2020-12-03_dh_100-prng-1,30_issda_100,100,rng-100,1,rng,num-start-811,811,25726,7.226452350616455,True,,True,1,False,1000,True,1.0
./expes/v2_2020-12-03_dh_100-prng-1,30_issda_100,100,rng-100,71,rng,num-start-821,821,25726,8.496102333068848,True,,True,1,False,1000,True,1.0
./expes/v2_2020-12-03_dh_100-prng-1,30_issda_100,100,rng-100,81,rng,num-start-361,361,25726,3.7988195419311523,True,,True,1,False,1000,True,1.0
./expes/v2_2020-12-03_dh_100-prng-1,30_issda_100,100,rng-100,41,rng,num-start-931,931,25726,9.304969310760498,True,,True,1,False,1000,True,1.0
./expes/v2_2020-12-03_dh_100-prng-1,30_issda_100,100,rng-100,81,rng,num-start-91,91,25726,1.059567928314209,True,,True,1,False,1000,True,1.0
./expes/v2_2020-12-03_dh_100-prng-1,30_issda_100,100,rng-100,1,rng,num-start-731,731,25726,6.607511043548584,True,,True,1,False,1000,True,1.0
./expes/v2_2020-12-03_dh_100-prng-1,30_issda_100,100,rng-100,61,rng,num-start-311,311,25726,3.417447090148926,True,,True,1,False,1000,True,1.0
./expes/v2_2020-12-03_dh_100-prng-1,30_issda_100,100,rng-100,41,rng,num-start-751,751,25726,7.280984163284302,True,,True,1,False,1000,True,1.0
./expes/v2_2020-12-03_dh_100-prng-1,30_issda_100,100,rng-100,81,rng,num-start-991,991,25726,9.775062561035156,True,,True,1,False,1000,True,1.0
./expes/v2_2020-12-03_dh_100-prng-1,30_issda_100,100,rng-100,1,rng,num-start-281,281,25726,2.6090989112854004,True,,True,1,False,1000,True,1.0
./expes/v2_2020-12-03_dh_100-prng-1,30_issda_100,100,rng-100,71,rng,num-start-811,811,25726,8.715640783309937,True,,True,1,False,1000,True,1.0
./expes/v2_2020-12-03_dh_100-prng-1,30_issda_100,100,rng-100,21,rng,num-start-951,951,25726,9.358569383621216,True,,True,1,False,1000,True,1.0
./expes/v2_2020-12-03_dh_100-prng-1,30_issda_100,100,rng-100,21,rng,num-start-391,391,25726,3.9554283618927,True,,True,1,False,1000,True,1.0
./expes/v2_2020-12-03_dh_100-prng-1,30_issda_100,100,rng-100,41,rng,num-start-181,181,25726,2.0730364322662354,True,,True,1,False,1000,True,1.0
./expes/v2_2020-12-03_dh_100-prng-1,30_issda_100,100,rng-100,91,rng,num-start-641,641,25726,5.740968465805054,True,,True,1,False,1000,True,1.0
./expes/v2_2020-12-03_dh_100-prng-1,30_issda_100,100,rng-100,21,rng,num-start-751,751,25726,7.497525453567505,True,,True,1,False,1000,True,1.0
./expes/v2_2020-12-03_dh_100-prng-1,30_issda_100,100,rng-100,51,rng,num-start-281,281,25726,2.7059991359710693,True,,True,1,False,1000,True,1.0
./expes/v2_2020-12-03_dh_100-prng-1,30_issda_100,100,rng-100,31,rng,num-start-11,11,25726,1007.3835499286652,False,,False,1,True,1000,True,0.0
./expes/v2_2020-12-03_dh_100-prng-1,30_issda_100,100,rng-100,91,rng,num-start-491,491,25726,4.31768536567688,True,,True,1,False,1000,True,1.0
./expes/v2_2020-12-03_dh_100-prng-1,30_issda_100,100,rng-100,11,rng,num-start-771,771,25726,6.918494939804077,True,,True,1,False,1000,True,1.0
./expes/v2_2020-12-03_dh_100-prng-1,30_issda_100,100,rng-100,81,rng,num-start-501,501,25726,4.889817237854004,True,,True,1,False,1000,True,1.0
./expes/v2_2020-12-03_dh_100-prng-1,30_issda_100,100,rng-100,41,rng,num-start-521,521,25726,5.1530163288116455,True,,True,1,False,1000,True,1.0
./expes/v2_2020-12-03_dh_100-prng-1,30_issda_100,100,rng-100,41,rng,num-start-881,881,25726,8.97454047203064,True,,True,1,False,1000,True,1.0
./expes/v2_2020-12-03_dh_100-prng-1,30_issda_100,100,rng-100,81,rng,num-start-681,681,25726,6.566850662231445,True,,True,1,False,1000,True,1.0
./expes/v2_2020-12-03_dh_100-prng-1,30_issda_100,100,rng-100,11,rng,num-start-511,511,25726,4.6554341316223145,True,,True,1,False,1000,True,1.0
./expes/v2_2020-12-03_dh_100-prng-1,30_issda_100,100,rng-100,1,rng,num-start-201,201,25726,1.8279407024383545,True,,True,1,False,1000,True,1.0
./expes/v2_2020-12-03_dh_100-prng-1,30_issda_100,100,rng-100,1,rng,num-start-951,951,25726,8.541695356369019,True,,True,1,False,1000,True,1.0
./expes/v2_2020-12-03_dh_100-prng-1,30_issda_100,100,rng-100,1,rng,num-start-871,871,25726,7.666926383972168,True,,True,1,False,1000,True,1.0
./expes/v2_2020-12-03_dh_100-prng-1,30_issda_100,100,rng-100,31,rng,num-start-841,841,25726,8.987553834915161,True,,True,1,False,1000,True,1.0
./expes/v2_2020-12-03_dh_100-prng-1,30_issda_100,100,rng-100,21,rng,num-start-31,31,25726,0.5320932865142822,True,,True,1,False,1000,True,1.0
./expes/v2_2020-12-03_dh_100-prng-1,30_issda_100,100,rng-100,81,rng,num-start-981,981,25726,10.342887163162231,True,,True,1,False,1000,True,1.0
./expes/v2_2020-12-03_dh_100-prng-1,30_issda_100,100,rng-100,11,rng,num-start-81,81,25726,0.9642350673675537,True,,True,1,False,1000,True,1.0
./expes/v2_2020-12-03_dh_100-prng-1,30_issda_100,100,rng-100,31,rng,num-start-521,521,25726,4.99579119682312,True,,True,1,False,1000,True,1.0
./expes/v2_2020-12-03_dh_100-prng-1,30_issda_100,100,rng-100,61,rng,num-start-871,871,25726,9.09472370147705,True,,True,1,False,1000,True,1.0
./expes/v2_2020-12-03_dh_100-prng-1,30_issda_100,100,rng-100,11,rng,num-start-401,401,25726,3.6077678203582764,True,,True,1,False,1000,True,1.0
./expes/v2_2020-12-03_dh_100-prng-1,30_issda_100,100,rng-100,91,rng,num-start-971,971,25726,8.619292974472046,True,,True,1,False,1000,True,1.0
./expes/v2_2020-12-03_dh_100-prng-1,30_issda_100,100,rng-100,91,rng,num-start-951,951,25726,8.524402379989624,True,,True,1,False,1000,True,1.0
./expes/v2_2020-12-03_dh_100-prng-1,30_issda_100,100,rng-100,1,rng,num-start-461,461,25726,4.112298488616943,True,,True,1,False,1000,True,1.0
./expes/v2_2020-12-03_dh_100-prng-1,30_issda_100,100,rng-100,71,rng,num-start-671,671,25726,6.516479015350342,True,,True,1,False,1000,True,1.0
./expes/v2_2020-12-03_dh_100-prng-1,30_issda_100,100,rng-100,21,rng,num-start-961,961,25726,9.62193775177002,True,,True,1,False,1000,True,1.0
./expes/v2_2020-12-03_dh_100-prng-1,30_issda_100,100,rng-100,61,rng,num-start-271,271,25726,2.8638503551483154,True,,True,1,False,1000,True,1.0
./expes/v2_2020-12-03_dh_100-prng-1,30_issda_100,100,rng-100,71,rng,num-start-621,621,25726,5.85066556930542,True,,True,1,False,1000,True,1.0
./expes/v2_2020-12-03_dh_100-prng-1,30_issda_100,100,rng-100,41,rng,num-start-711,711,25726,6.850421905517578,True,,True,1,False,1000,True,1.0
./expes/v2_2020-12-03_dh_100-prng-1,30_issda_100,100,rng-100,1,rng,num-start-141,141,25726,1.2261996269226074,True,,True,1,False,1000,True,1.0
./expes/v2_2020-12-03_dh_100-prng-1,30_issda_100,100,rng-100,51,rng,num-start-651,651,25726,6.515947580337524,True,,True,1,False,1000,True,1.0
./expes/v2_2020-12-03_dh_100-prng-1,30_issda_100,100,rng-100,41,rng,num-start-91,91,25726,1.0353691577911377,True,,True,1,False,1000,True,1.0
./expes/v2_2020-12-03_dh_100-prng-1,30_issda_100,100,rng-100,91,rng,num-start-481,481,25726,4.287927865982056,True,,True,1,False,1000,True,1.0
./expes/v2_2020-12-03_dh_100-prng-1,30_issda_100,100,rng-100,1,rng,num-start-111,111,25726,1.0173158645629883,True,,True,1,False,1000,True,1.0
./expes/v2_2020-12-03_dh_100-prng-1,30_issda_100,100,rng-100,51,rng,num-start-651,651,25726,6.235073089599609,True,,True,1,False,1000,True,1.0
./expes/v2_2020-12-03_dh_100-prng-1,30_issda_100,100,rng-100,81,rng,num-start-381,381,25726,3.837284564971924,True,,True,1,False,1000,True,1.0
./expes/v2_2020-12-03_dh_100-prng-1,30_issda_100,100,rng-100,1,rng,num-start-311,311,25726,2.787661075592041,True,,True,1,False,1000,True,1.0
./expes/v2_2020-12-03_dh_100-prng-1,30_issda_100,100,rng-100,1,rng,num-start-471,471,25726,4.236841917037964,True,,True,1,False,1000,True,1.0
./expes/v2_2020-12-03_dh_100-prng-1,30_issda_100,100,rng-100,71,rng,num-start-321,321,25726,3.2482786178588867,True,,True,1,False,1000,True,1.0
./expes/v2_2020-12-03_dh_100-prng-1,30_issda_100,100,rng-100,81,rng,num-start-991,991,25726,9.444804906845093,True,,True,1,False,1000,True,1.0
./expes/v2_2020-12-03_dh_100-prng-1,30_issda_100,100,rng-100,31,rng,num-start-141,141,25726,1.6056783199310303,True,,True,1,False,1000,True,1.0
./expes/v2_2020-12-03_dh_100-prng-1,30_issda_100,100,rng-100,11,rng,num-start-111,111,25726,1.2033472061157227,True,,True,1,False,1000,True,1.0
./expes/v2_2020-12-03_dh_100-prng-1,30_issda_100,100,rng-100,51,rng,num-start-251,251,25726,2.751279354095459,True,,True,1,False,1000,True,1.0
./expes/v2_2020-12-03_dh_100-prng-1,30_issda_100,100,rng-100,91,rng,num-start-341,341,25726,3.1229937076568604,True,,True,1,False,1000,True,1.0
./expes/v2_2020-12-03_dh_100-prng-1,30_issda_100,100,rng-100,31,rng,num-start-811,811,25726,8.268963813781738,True,,True,1,False,1000,True,1.0
./expes/v2_2020-12-03_dh_100-prng-1,30_issda_100,100,rng-100,11,rng,num-start-921,921,25726,8.228529930114746,True,,True,1,False,1000,True,1.0
./expes/v2_2020-12-03_dh_100-prng-1,30_issda_100,100,rng-100,21,rng,num-start-191,191,25726,2.134500026702881,True,,True,1,False,1000,True,1.0
./expes/v2_2020-12-03_dh_100-prng-1,30_issda_100,100,rng-100,51,rng,num-start-261,261,25726,2.787597417831421,True,,True,1,False,1000,True,1.0
./expes/v2_2020-12-03_dh_100-prng-1,30_issda_100,100,rng-100,91,rng,num-start-571,571,25726,5.223083257675171,True,,True,1,False,1000,True,1.0
./expes/v2_2020-12-03_dh_100-prng-1,30_issda_100,100,rng-100,31,rng,num-start-841,841,25726,8.205783605575562,True,,True,1,False,1000,True,1.0
./expes/v2_2020-12-03_dh_100-prng-1,30_issda_100,100,rng-100,51,rng,num-start-821,821,25726,8.097325801849365,True,,True,1,False,1000,True,1.0
./expes/v2_2020-12-03_dh_100-prng-1,30_issda_100,100,rng-100,1,rng,num-start-791,791,25726,7.0096940994262695,True,,True,1,False,1000,True,1.0
./expes/v2_2020-12-03_dh_100-prng-1,30_issda_100,100,rng-100,41,rng,num-start-841,841,25726,8.61073899269104,True,,True,1,False,1000,True,1.0
./expes/v2_2020-12-03_dh_100-prng-1,30_issda_100,100,rng-100,41,rng,num-start-91,91,25726,1.020390272140503,True,,True,1,False,1000,True,1.0
./expes/v2_2020-12-03_dh_100-prng-1,30_issda_100,100,rng-100,41,rng,num-start-1,1,25726,0.04442906379699707,False,,False,2,False,1000,True,1.0
./expes/v2_2020-12-03_dh_100-prng-1,30_issda_100,100,rng-100,71,rng,num-start-601,601,25726,5.858469247817993,True,,True,1,False,1000,True,1.0
./expes/v2_2020-12-03_dh_100-prng-1,30_issda_100,100,rng-100,41,rng,num-start-891,891,25726,8.693918466567993,True,,True,1,False,1000,True,1.0
./expes/v2_2020-12-03_dh_100-prng-1,30_issda_100,100,rng-100,71,rng,num-start-831,831,25726,7.82784366607666,True,,True,1,False,1000,True,1.0
./expes/v2_2020-12-03_dh_100-prng-1,30_issda_100,100,rng-100,41,rng,num-start-811,811,25726,7.644924163818359,True,,True,1,False,1000,True,1.0
./expes/v2_2020-12-03_dh_100-prng-1,30_issda_100,100,rng-100,41,rng,num-start-911,911,25726,8.941660404205322,True,,True,1,False,1000,True,1.0
./expes/v2_2020-12-03_dh_100-prng-1,30_issda_100,100,rng-100,11,rng,num-start-781,781,25726,7.323522090911865,True,,True,1,False,1000,True,1.0
./expes/v2_2020-12-03_dh_100-prng-1,30_issda_100,100,rng-100,1,rng,num-start-381,381,25726,3.3377835750579834,True,,True,1,False,1000,True,1.0
./expes/v2_2020-12-03_dh_100-prng-1,30_issda_100,100,rng-100,91,rng,num-start-681,681,25726,6.053149938583374,True,,True,1,False,1000,True,1.0
./expes/v2_2020-12-03_dh_100-prng-1,30_issda_100,100,rng-100,71,rng,num-start-701,701,25726,6.69474196434021,True,,True,1,False,1000,True,1.0
./expes/v2_2020-12-03_dh_100-prng-1,30_issda_100,100,rng-100,21,rng,num-start-781,781,25726,7.343904256820679,True,,True,1,False,1000,True,1.0
./expes/v2_2020-12-03_dh_100-prng-1,30_issda_100,100,rng-100,91,rng,num-start-341,341,25726,2.9906387329101562,True,,True,1,False,1000,True,1.0
./expes/v2_2020-12-03_dh_100-prng-1,30_issda_100,100,rng-100,11,rng,num-start-501,501,25726,4.712354421615601,True,,True,1,False,1000,True,1.0
./expes/v2_2020-12-03_dh_100-prng-1,30_issda_100,100,rng-100,31,rng,num-start-21,21,25726,0.6976413726806641,True,,True,1,False,1000,True,1.0
./expes/v2_2020-12-03_dh_100-prng-1,30_issda_100,100,rng-100,41,rng,num-start-821,821,25726,8.274987697601318,True,,True,1,False,1000,True,1.0
./expes/v2_2020-12-03_dh_100-prng-1,30_issda_100,100,rng-100,31,rng,num-start-841,841,25726,8.61421513557434,True,,True,1,False,1000,True,1.0
./expes/v2_2020-12-03_dh_100-prng-1,30_issda_100,100,rng-100,31,rng,num-start-151,151,25726,1.6091902256011963,True,,True,1,False,1000,True,1.0
./expes/v2_2020-12-03_dh_100-prng-1,30_issda_100,100,rng-100,51,rng,num-start-551,551,25726,5.317236661911011,True,,True,1,False,1000,True,1.0
./expes/v2_2020-12-03_dh_100-prng-1,30_issda_100,100,rng-100,11,rng,num-start-331,331,25726,3.2461416721343994,True,,True,1,False,1000,True,1.0
./expes/v2_2020-12-03_dh_100-prng-1,30_issda_100,100,rng-100,31,rng,num-start-961,961,25726,10.315452337265015,True,,True,1,False,1000,True,1.0
./expes/v2_2020-12-03_dh_100-prng-1,30_issda_100,100,rng-100,11,rng,num-start-221,221,25726,2.400050401687622,True,,True,1,False,1000,True,1.0
./expes/v2_2020-12-03_dh_100-prng-1,30_issda_100,100,rng-100,91,rng,num-start-661,661,25726,6.152766227722168,True,,True,1,False,1000,True,1.0
./expes/v2_2020-12-03_dh_100-prng-1,30_issda_100,100,rng-100,71,rng,num-start-671,671,25726,7.018638372421265,True,,True,1,False,1000,True,1.0
./expes/v2_2020-12-03_dh_100-prng-1,30_issda_100,100,rng-100,71,rng,num-start-441,441,25726,4.364548444747925,True,,True,1,False,1000,True,1.0
./expes/v2_2020-12-03_dh_100-prng-1,30_issda_100,100,rng-100,81,rng,num-start-391,391,25726,3.897709369659424,True,,True,1,False,1000,True,1.0
./expes/v2_2020-12-03_dh_100-prng-1,30_issda_100,100,rng-100,41,rng,num-start-161,161,25726,1.8091931343078613,True,,True,1,False,1000,True,1.0
./expes/v2_2020-12-03_dh_100-prng-1,30_issda_100,100,rng-100,51,rng,num-start-511,511,25726,5.0034871101379395,True,,True,1,False,1000,True,1.0
./expes/v2_2020-12-03_dh_100-prng-1,30_issda_100,100,rng-100,71,rng,num-start-861,861,25726,8.658789157867432,True,,True,1,False,1000,True,1.0
./expes/v2_2020-12-03_dh_100-prng-1,30_issda_100,100,rng-100,11,rng,num-start-101,101,25726,1.1557812690734863,True,,True,1,False,1000,True,1.0
./expes/v2_2020-12-03_dh_100-prng-1,30_issda_100,100,rng-100,31,rng,num-start-31,31,25726,0.7114388942718506,True,,True,1,False,1000,True,1.0
./expes/v2_2020-12-03_dh_100-prng-1,30_issda_100,100,rng-100,51,rng,num-start-791,791,25726,7.7984466552734375,True,,True,1,False,1000,True,1.0
./expes/v2_2020-12-03_dh_100-prng-1,30_issda_100,100,rng-100,41,rng,num-start-801,801,25726,8.07300353050232,True,,True,1,False,1000,True,1.0
./expes/v2_2020-12-03_dh_100-prng-1,30_issda_100,100,rng-100,1,rng,num-start-911,911,25726,8.259101390838623,True,,True,1,False,1000,True,1.0
./expes/v2_2020-12-03_dh_100-prng-1,30_issda_100,100,rng-100,41,rng,num-start-821,821,25726,8.000831365585327,True,,True,1,False,1000,True,1.0
./expes/v2_2020-12-03_dh_100-prng-1,30_issda_100,100,rng-100,41,rng,num-start-421,421,25726,4.372970104217529,True,,True,1,False,1000,True,1.0
./expes/v2_2020-12-03_dh_100-prng-1,30_issda_100,100,rng-100,71,rng,num-start-361,361,25726,3.9495861530303955,True,,True,1,False,1000,True,1.0
./expes/v2_2020-12-03_dh_100-prng-1,30_issda_100,100,rng-100,51,rng,num-start-121,121,25726,1.4110512733459473,True,,True,1,False,1000,True,1.0
./expes/v2_2020-12-03_dh_100-prng-1,30_issda_100,100,rng-100,11,rng,num-start-331,331,25726,2.996917486190796,True,,True,1,False,1000,True,1.0
./expes/v2_2020-12-03_dh_100-prng-1,30_issda_100,100,rng-100,51,rng,num-start-411,411,25726,4.096415042877197,True,,True,1,False,1000,True,1.0
./expes/v2_2020-12-03_dh_100-prng-1,30_issda_100,100,rng-100,51,rng,num-start-71,71,25726,0.9430792331695557,True,,True,1,False,1000,True,1.0
./expes/v2_2020-12-03_dh_100-prng-1,30_issda_100,100,rng-100,71,rng,num-start-161,161,25726,1.7400264739990234,True,,True,1,False,1000,True,1.0
./expes/v2_2020-12-03_dh_100-prng-1,30_issda_100,100,rng-100,11,rng,num-start-71,71,25726,0.7601187229156494,True,,True,1,False,1000,True,1.0
./expes/v2_2020-12-03_dh_100-prng-1,30_issda_100,100,rng-100,81,rng,num-start-601,601,25726,6.069484710693359,True,,True,1,False,1000,True,1.0
./expes/v2_2020-12-03_dh_100-prng-1,30_issda_100,100,rng-100,91,rng,num-start-421,421,25726,3.8736891746520996,True,,True,1,False,1000,True,1.0
./expes/v2_2020-12-03_dh_100-prng-1,30_issda_100,100,rng-100,71,rng,num-start-381,381,25726,3.952352285385132,True,,True,1,False,1000,True,1.0
./expes/v2_2020-12-03_dh_100-prng-1,30_issda_100,100,rng-100,1,rng,num-start-931,931,25726,8.17637300491333,True,,True,1,False,1000,True,1.0
./expes/v2_2020-12-03_dh_100-prng-1,30_issda_100,100,rng-100,31,rng,num-start-241,241,25726,2.3507726192474365,True,,True,1,False,1000,True,1.0
./expes/v2_2020-12-03_dh_100-prng-1,30_issda_100,100,rng-100,41,rng,num-start-781,781,25726,7.5621497631073,True,,True,1,False,1000,True,1.0
./expes/v2_2020-12-03_dh_100-prng-1,30_issda_100,100,rng-100,61,rng,num-start-711,711,25726,6.859826564788818,True,,True,1,False,1000,True,1.0
./expes/v2_2020-12-03_dh_100-prng-1,30_issda_100,100,rng-100,71,rng,num-start-731,731,25726,7.1376426219940186,True,,True,1,False,1000,True,1.0
./expes/v2_2020-12-03_dh_100-prng-1,30_issda_100,100,rng-100,81,rng,num-start-551,551,25726,5.626037836074829,True,,True,1,False,1000,True,1.0
./expes/v2_2020-12-03_dh_100-prng-1,30_issda_100,100,rng-100,11,rng,num-start-381,381,25726,3.4292914867401123,True,,True,1,False,1000,True,1.0
./expes/v2_2020-12-03_dh_100-prng-1,30_issda_100,100,rng-100,11,rng,num-start-871,871,25726,8.726036787033081,True,,True,1,False,1000,True,1.0
./expes/v2_2020-12-03_dh_100-prng-1,30_issda_100,100,rng-100,81,rng,num-start-11,11,25726,1000.15576171875,False,,False,0,True,1000,True,0.0
./expes/v2_2020-12-03_dh_100-prng-1,30_issda_100,100,rng-100,91,rng,num-start-281,281,25726,2.6609177589416504,True,,True,1,False,1000,True,1.0
./expes/v2_2020-12-03_dh_100-prng-1,30_issda_100,100,rng-100,51,rng,num-start-181,181,25726,1.8582606315612793,True,,True,1,False,1000,True,1.0
./expes/v2_2020-12-03_dh_100-prng-1,30_issda_100,100,rng-100,91,rng,num-start-171,171,25726,1.5431079864501953,True,,True,1,False,1000,True,1.0
./expes/v2_2020-12-03_dh_100-prng-1,30_issda_100,100,rng-100,41,rng,num-start-491,491,25726,5.003821849822998,True,,True,1,False,1000,True,1.0
./expes/v2_2020-12-03_dh_100-prng-1,30_issda_100,100,rng-100,51,rng,num-start-441,441,25726,4.166819334030151,True,,True,1,False,1000,True,1.0
./expes/v2_2020-12-03_dh_100-prng-1,30_issda_100,100,rng-100,1,rng,num-start-881,881,25726,8.090619087219238,True,,True,1,False,1000,True,1.0
./expes/v2_2020-12-03_dh_100-prng-1,30_issda_100,100,rng-100,31,rng,num-start-811,811,25726,8.425015687942505,True,,True,1,False,1000,True,1.0
./expes/v2_2020-12-03_dh_100-prng-1,30_issda_100,100,rng-100,91,rng,num-start-191,191,25726,2.056175708770752,True,,True,1,False,1000,True,1.0
./expes/v2_2020-12-03_dh_100-prng-1,30_issda_100,100,rng-100,91,rng,num-start-481,481,25726,4.308028936386108,True,,True,1,False,1000,True,1.0
./expes/v2_2020-12-03_dh_100-prng-1,30_issda_100,100,rng-100,81,rng,num-start-731,731,25726,6.859374523162842,True,,True,1,False,1000,True,1.0
./expes/v2_2020-12-03_dh_100-prng-1,30_issda_100,100,rng-100,21,rng,num-start-701,701,25726,6.742217540740967,True,,True,1,False,1000,True,1.0
./expes/v2_2020-12-03_dh_100-prng-1,30_issda_100,100,rng-100,1,rng,num-start-121,121,25726,1.1200528144836426,True,,True,1,False,1000,True,1.0
./expes/v2_2020-12-03_dh_100-prng-1,30_issda_100,100,rng-100,71,rng,num-start-881,881,25726,9.030569314956665,True,,True,1,False,1000,True,1.0
./expes/v2_2020-12-03_dh_100-prng-1,30_issda_100,100,rng-100,11,rng,num-start-681,681,25726,6.218930721282959,True,,True,1,False,1000,True,1.0
./expes/v2_2020-12-03_dh_100-prng-1,30_issda_100,100,rng-100,1,rng,num-start-981,981,25726,8.679708480834961,True,,True,1,False,1000,True,1.0
./expes/v2_2020-12-03_dh_100-prng-1,30_issda_100,100,rng-100,81,rng,num-start-651,651,25726,6.208954095840454,True,,True,1,False,1000,True,1.0
./expes/v2_2020-12-03_dh_100-prng-1,30_issda_100,100,rng-100,11,rng,num-start-791,791,25726,7.917544603347778,True,,True,1,False,1000,True,1.0
./expes/v2_2020-12-03_dh_100-prng-1,30_issda_100,100,rng-100,51,rng,num-start-531,531,25726,5.295799255371094,True,,True,1,False,1000,True,1.0
./expes/v2_2020-12-03_dh_100-prng-1,30_issda_100,100,rng-100,11,rng,num-start-31,31,25726,0.49618077278137207,True,,True,1,False,1000,True,1.0
./expes/v2_2020-12-03_dh_100-prng-1,30_issda_100,100,rng-100,71,rng,num-start-921,921,25726,8.90104055404663,True,,True,1,False,1000,True,1.0
./expes/v2_2020-12-03_dh_100-prng-1,30_issda_100,100,rng-100,21,rng,num-start-241,241,25726,2.56166934967041,True,,True,1,False,1000,True,1.0
./expes/v2_2020-12-03_dh_100-prng-1,30_issda_100,100,rng-100,1,rng,num-start-241,241,25726,2.1342685222625732,True,,True,1,False,1000,True,1.0
./expes/v2_2020-12-03_dh_100-prng-1,30_issda_100,100,rng-100,11,rng,num-start-931,931,25726,9.039203882217407,True,,True,1,False,1000,True,1.0
./expes/v2_2020-12-03_dh_100-prng-1,30_issda_100,100,rng-100,11,rng,num-start-551,551,25726,4.995297431945801,True,,True,1,False,1000,True,1.0
./expes/v2_2020-12-03_dh_100-prng-1,30_issda_100,100,rng-100,71,rng,num-start-891,891,25726,8.91222882270813,True,,True,1,False,1000,True,1.0
./expes/v2_2020-12-03_dh_100-prng-1,30_issda_100,100,rng-100,81,rng,num-start-281,281,25726,2.924359083175659,True,,True,1,False,1000,True,1.0
./expes/v2_2020-12-03_dh_100-prng-1,30_issda_100,100,rng-100,51,rng,num-start-911,911,25726,9.592998504638672,True,,True,1,False,1000,True,1.0
./expes/v2_2020-12-03_dh_100-prng-1,30_issda_100,100,rng-100,21,rng,num-start-571,571,25726,5.830567121505737,True,,True,1,False,1000,True,1.0
./expes/v2_2020-12-03_dh_100-prng-1,30_issda_100,100,rng-100,71,rng,num-start-461,461,25726,4.465384483337402,True,,True,1,False,1000,True,1.0
./expes/v2_2020-12-03_dh_100-prng-1,30_issda_100,100,rng-100,81,rng,num-start-91,91,25726,1.1780118942260742,True,,True,1,False,1000,True,1.0
./expes/v2_2020-12-03_dh_100-prng-1,30_issda_100,100,rng-100,81,rng,num-start-841,841,25726,7.850114822387695,True,,True,1,False,1000,True,1.0
./expes/v2_2020-12-03_dh_100-prng-1,30_issda_100,100,rng-100,31,rng,num-start-91,91,25726,0.9580140113830566,True,,True,1,False,1000,True,1.0
./expes/v2_2020-12-03_dh_100-prng-1,30_issda_100,100,rng-100,81,rng,num-start-611,611,25726,5.930186033248901,True,,True,1,False,1000,True,1.0
./expes/v2_2020-12-03_dh_100-prng-1,30_issda_100,100,rng-100,31,rng,num-start-801,801,25726,8.278496026992798,True,,True,1,False,1000,True,1.0
./expes/v2_2020-12-03_dh_100-prng-1,30_issda_100,100,rng-100,81,rng,num-start-981,981,25726,9.621060132980347,True,,True,1,False,1000,True,1.0
./expes/v2_2020-12-03_dh_100-prng-1,30_issda_100,100,rng-100,31,rng,num-start-341,341,25726,3.358074426651001,True,,True,1,False,1000,True,1.0
./expes/v2_2020-12-03_dh_100-prng-1,30_issda_100,100,rng-100,21,rng,num-start-331,331,25726,3.600400686264038,True,,True,1,False,1000,True,1.0
./expes/v2_2020-12-03_dh_100-prng-1,30_issda_100,100,rng-100,81,rng,num-start-191,191,25726,1.983290672302246,True,,True,1,False,1000,True,1.0
./expes/v2_2020-12-03_dh_100-prng-1,30_issda_100,100,rng-100,61,rng,num-start-471,471,25726,4.551829099655151,True,,True,1,False,1000,True,1.0
./expes/v2_2020-12-03_dh_100-prng-1,30_issda_100,100,rng-100,71,rng,num-start-11,11,25726,1002.1123645305634,False,,False,0,True,1000,True,0.0
./expes/v2_2020-12-03_dh_100-prng-1,30_issda_100,100,rng-100,11,rng,num-start-761,761,25726,6.939964056015015,True,,True,1,False,1000,True,1.0
./expes/v2_2020-12-03_dh_100-prng-1,30_issda_100,100,rng-100,41,rng,num-start-201,201,25726,1.9338865280151367,True,,True,1,False,1000,True,1.0
./expes/v2_2020-12-03_dh_100-prng-1,30_issda_100,100,rng-100,41,rng,num-start-771,771,25726,7.915782451629639,True,,True,1,False,1000,True,1.0
./expes/v2_2020-12-03_dh_100-prng-1,30_issda_100,100,rng-100,81,rng,num-start-831,831,25726,8.005013227462769,True,,True,1,False,1000,True,1.0
./expes/v2_2020-12-03_dh_100-prng-1,30_issda_100,100,rng-100,61,rng,num-start-971,971,25726,9.511900424957275,True,,True,1,False,1000,True,1.0
./expes/v2_2020-12-03_dh_100-prng-1,30_issda_100,100,rng-100,91,rng,num-start-311,311,25726,2.7822959423065186,True,,True,1,False,1000,True,1.0
./expes/v2_2020-12-03_dh_100-prng-1,30_issda_100,100,rng-100,61,rng,num-start-161,161,25726,1.8132688999176025,True,,True,1,False,1000,True,1.0
./expes/v2_2020-12-03_dh_100-prng-1,30_issda_100,100,rng-100,11,rng,num-start-191,191,25726,1.8649024963378906,True,,True,1,False,1000,True,1.0
./expes/v2_2020-12-03_dh_100-prng-1,30_issda_100,100,rng-100,51,rng,num-start-281,281,25726,2.9045491218566895,True,,True,1,False,1000,True,1.0
./expes/v2_2020-12-03_dh_100-prng-1,30_issda_100,100,rng-100,81,rng,num-start-141,141,25726,1.5137288570404053,True,,True,1,False,1000,True,1.0
./expes/v2_2020-12-03_dh_100-prng-1,30_issda_100,100,rng-100,61,rng,num-start-1,1,25726,0.16660523414611816,False,,False,2,False,1000,True,1.0
./expes/v2_2020-12-03_dh_100-prng-1,30_issda_100,100,rng-100,51,rng,num-start-591,591,25726,7.064804315567017,True,,True,1,False,1000,True,1.0
./expes/v2_2020-12-03_dh_100-prng-1,30_issda_100,100,rng-100,31,rng,num-start-471,471,25726,4.642095565795898,True,,True,1,False,1000,True,1.0
./expes/v2_2020-12-03_dh_100-prng-1,30_issda_100,100,rng-100,61,rng,num-start-691,691,25726,7.002129077911377,True,,True,1,False,1000,True,1.0
./expes/v2_2020-12-03_dh_100-prng-1,30_issda_100,100,rng-100,81,rng,num-start-421,421,25726,4.356239318847656,True,,True,1,False,1000,True,1.0
./expes/v2_2020-12-03_dh_100-prng-1,30_issda_100,100,rng-100,81,rng,num-start-881,881,25726,8.788754224777222,True,,True,1,False,1000,True,1.0
./expes/v2_2020-12-03_dh_100-prng-1,30_issda_100,100,rng-100,1,rng,num-start-681,681,25726,6.252590179443359,True,,True,1,False,1000,True,1.0
./expes/v2_2020-12-03_dh_100-prng-1,30_issda_100,100,rng-100,11,rng,num-start-51,51,25726,0.6961779594421387,True,,True,1,False,1000,True,1.0
./expes/v2_2020-12-03_dh_100-prng-1,30_issda_100,100,rng-100,11,rng,num-start-511,511,25726,4.9494407176971436,True,,True,1,False,1000,True,1.0
./expes/v2_2020-12-03_dh_100-prng-1,30_issda_100,100,rng-100,1,rng,num-start-871,871,25726,8.1399986743927,True,,True,1,False,1000,True,1.0
./expes/v2_2020-12-03_dh_100-prng-1,30_issda_100,100,rng-100,11,rng,num-start-401,401,25726,3.9412567615509033,True,,True,1,False,1000,True,1.0
./expes/v2_2020-12-03_dh_100-prng-1,30_issda_100,100,rng-100,41,rng,num-start-941,941,25726,9.933349847793579,True,,True,1,False,1000,True,1.0
./expes/v2_2020-12-03_dh_100-prng-1,30_issda_100,100,rng-100,21,rng,num-start-391,391,25726,3.9009437561035156,True,,True,1,False,1000,True,1.0
./expes/v2_2020-12-03_dh_100-prng-1,30_issda_100,100,rng-100,41,rng,num-start-831,831,25726,8.736005067825317,True,,True,1,False,1000,True,1.0
./expes/v2_2020-12-03_dh_100-prng-1,30_issda_100,100,rng-100,91,rng,num-start-371,371,25726,3.255178451538086,True,,True,1,False,1000,True,1.0
./expes/v2_2020-12-03_dh_100-prng-1,30_issda_100,100,rng-100,81,rng,num-start-461,461,25726,4.322204828262329,True,,True,1,False,1000,True,1.0
./expes/v2_2020-12-03_dh_100-prng-1,30_issda_100,100,rng-100,11,rng,num-start-691,691,25726,6.865904331207275,True,,True,1,False,1000,True,1.0
./expes/v2_2020-12-03_dh_100-prng-1,30_issda_100,100,rng-100,21,rng,num-start-61,61,25726,0.7272324562072754,True,,True,1,False,1000,True,1.0
./expes/v2_2020-12-03_dh_100-prng-1,30_issda_100,100,rng-100,51,rng,num-start-181,181,25726,1.918726921081543,True,,True,1,False,1000,True,1.0
./expes/v2_2020-12-03_dh_100-prng-1,30_issda_100,100,rng-100,21,rng,num-start-491,491,25726,4.8704118728637695,True,,True,1,False,1000,True,1.0
./expes/v2_2020-12-03_dh_100-prng-1,30_issda_100,100,rng-100,81,rng,num-start-231,231,25726,2.3610405921936035,True,,True,1,False,1000,True,1.0
./expes/v2_2020-12-03_dh_100-prng-1,30_issda_100,100,rng-100,81,rng,num-start-501,501,25726,4.839221954345703,True,,True,1,False,1000,True,1.0
./expes/v2_2020-12-03_dh_100-prng-1,30_issda_100,100,rng-100,31,rng,num-start-451,451,25726,4.609456539154053,True,,True,1,False,1000,True,1.0
./expes/v2_2020-12-03_dh_100-prng-1,30_issda_100,100,rng-100,81,rng,num-start-621,621,25726,5.9993016719818115,True,,True,1,False,1000,True,1.0
./expes/v2_2020-12-03_dh_100-prng-1,30_issda_100,100,rng-100,41,rng,num-start-531,531,25726,5.4549641609191895,True,,True,1,False,1000,True,1.0
./expes/v2_2020-12-03_dh_100-prng-1,30_issda_100,100,rng-100,21,rng,num-start-871,871,25726,8.851489782333374,True,,True,1,False,1000,True,1.0
./expes/v2_2020-12-03_dh_100-prng-1,30_issda_100,100,rng-100,51,rng,num-start-941,941,25726,9.058795928955078,True,,True,1,False,1000,True,1.0
./expes/v2_2020-12-03_dh_100-prng-1,30_issda_100,100,rng-100,41,rng,num-start-601,601,25726,5.771836042404175,True,,True,1,False,1000,True,1.0
./expes/v2_2020-12-03_dh_100-prng-1,30_issda_100,100,rng-100,71,rng,num-start-141,141,25726,1.5951969623565674,True,,True,1,False,1000,True,1.0
./expes/v2_2020-12-03_dh_100-prng-1,30_issda_100,100,rng-100,51,rng,num-start-21,21,25726,126.56144189834595,True,,True,1,False,1000,True,1.0
./expes/v2_2020-12-03_dh_100-prng-1,30_issda_100,100,rng-100,1,rng,num-start-771,771,25726,7.123121500015259,True,,True,1,False,1000,True,1.0
./expes/v2_2020-12-03_dh_100-prng-1,30_issda_100,100,rng-100,51,rng,num-start-351,351,25726,3.2891852855682373,True,,True,1,False,1000,True,1.0
./expes/v2_2020-12-03_dh_100-prng-1,30_issda_100,100,rng-100,61,rng,num-start-581,581,25726,5.841991424560547,True,,True,1,False,1000,True,1.0
./expes/v2_2020-12-03_dh_100-prng-1,30_issda_100,100,rng-100,11,rng,num-start-991,991,25726,9.857383489608765,True,,True,1,False,1000,True,1.0
./expes/v2_2020-12-03_dh_100-prng-1,30_issda_100,100,rng-100,51,rng,num-start-371,371,25726,3.6871697902679443,True,,True,1,False,1000,True,1.0
./expes/v2_2020-12-03_dh_100-prng-1,30_issda_100,100,rng-100,41,rng,num-start-401,401,25726,4.350471019744873,True,,True,1,False,1000,True,1.0
./expes/v2_2020-12-03_dh_100-prng-1,30_issda_100,100,rng-100,11,rng,num-start-271,271,25726,2.72285532951355,True,,True,1,False,1000,True,1.0
./expes/v2_2020-12-03_dh_100-prng-1,30_issda_100,100,rng-100,51,rng,num-start-21,21,25726,30.459774494171143,True,,True,1,False,1000,True,1.0
./expes/v2_2020-12-03_dh_100-prng-1,30_issda_100,100,rng-100,31,rng,num-start-961,961,25726,8.631121635437012,True,,True,1,False,1000,True,1.0
