{
  "clients": [
    {
      "name": "30_issda-4500",
      "path": "./csv/30_issda.csv",
      "subset": "first-4500",
      "subset_size": 4500,
      "param": null
    }
  ],
  "noise": {
    "name": "classic",
    "method": "classic",
    "param": null
  },
  "agg_size": [
    50,
    100,
    150,
    200,
    250,
    300,
    350,
    400,
    450,
    500
  ],
  "methods": [
    {
      "name": "rng",
      "param": 0
    }
  ],
  "days": [
    {
      "name": "num-start-250",
      "param": 250
    },
    {
      "name": "num-start-500",
      "param": 500
    },
    {
      "name": "num-start-750",
      "param": 750
    },
    {
      "name": "num-start-1000",
      "param": 1000
    },
    {
      "name": "num-start-1250",
      "param": 1250
    },
    {
      "name": "num-start-1500",
      "param": 1500
    },
    {
      "name": "num-start-1750",
      "param": 1750
    },
    {
      "name": "num-start-2000",
      "param": 2000
    },
    {
      "name": "num-start-2250",
      "param": 2250
    },
    {
      "name": "num-start-2500",
      "param": 2500
    },
    {
      "name": "num-start-2750",
      "param": 2750
    },
    {
      "name": "num-start-3000",
      "param": 3000
    },
    {
      "name": "num-start-3250",
      "param": 3250
    },
    {
      "name": "num-start-3500",
      "param": 3500
    },
    {
      "name": "num-start-3750",
      "param": 3750
    },
    {
      "name": "num-start-4000",
      "param": 4000
    },
    {
      "name": "num-start-4250",
      "param": 4250
    },
    {
      "name": "num-start-4500",
      "param": 4500
    },
    {
      "name": "num-start-4750",
      "param": 4750
    },
    {
      "name": "num-start-5000",
      "param": 5000
    }
  ],
  "threads": null,
  "wall_time": 10000,
  "pooled": true,
  "pool_size": 100
}