expe,clients,clients_size,clients_subset,agg_size,agg_size_pc,method,days,days_size,days_total,noise_method,time,valid,valid_sum,success,score_avg,score_min,score_max,nsols,oracle,wall_hit,wall_time,pooled,pool_size,uuid,infeasible,optimal,valid_sums
./expes/v2_2021-04-05_issda-30_3000-prng-1-w86-p2_3d,30_issda-3000,3000,first-3000,300,10,rng,num-start-1200,1200,25726,classic,6866.4255566596985,True,,False,0.9870879033171636,0.9741758066343271,1.0,2,"['20', '30', '47', '54', '63', '82', '83', '88', '91', '111', '118', '128', '129', '133', '139', '144', '146', '147', '148', '174', '176', '182', '185', '203', '219', '247', '249', '260', '263', '269', '273', '279', '316', '328', '351', '363', '398', '400', '418', '421', '427', '430', '443', '466', '488', '492', '495', '496', '510', '514', '532', '535', '539', '546', '550', '557', '567', '617', '618', '622', '639', '640', '653', '669', '694', '704', '727', '752', '759', '768', '782', '786', '809', '813', '818', '865', '889', '894', '910', '912', '920', '922', '932', '950', '952', '960', '967', '974', '975', '978', '980', '1002', '1029', '1057', '1058', '1063', '1079', '1082', '1094', '1104', '1109', '1111', '1112', '1142', '1143', '1144', '1146', '1168', '1176', '1184', '1190', '1195', '1196', '1204', '1224', '1229', '1231', '1234', '1242', '1269', '1270', '1281', '1286', '1290', '1291', '1311', '1319', '1337', '1343', '1356', '1362', '1368', '1380', '1389', '1392', '1394', '1398', '1399', '1410', '1415', '1419', '1438', '1445', '1446', '1476', '1491', '1498', '1513', '1516', '1543', '1544', '1545', '1548', '1581', '1582', '1588', '1598', '1618', '1627', '1670', '1671', '1678', '1682', '1693', '1695', '1701', '1708', '1720', '1726', '1749', '1750', '1761', '1767', '1780', '1783', '1787', '1792', '1796', '1822', '1848', '1870', '1871', '1886', '1904', '1910', '1922', '1927', '1937', '1942', '1952', '1956', '1971', '1975', '1981', '2006', '2028', '2049', '2062', '2071', '2077', '2078', '2090', '2099', '2124', '2126', '2131', '2135', '2143', '2151', '2170', '2188', '2194', '2200', '2216', '2220', '2228', '2230', '2247', '2252', '2257', '2290', '2291', '2328', '2329', '2332', '2343', '2350', '2352', '2355', '2364', '2376', '2380', '2394', '2397', '2402', '2412', '2414', '2415', '2422', '2428', '2437', '2440', '2457', '2461', '2464', '2474', '2479', '2481', '2482', '2494', '2501', '2508', '2518', '2523', '2537', '2541', '2551', '2563', '2567', '2570', '2573', '2590', '2593', '2595', '2598', '2599', '2601', '2617', '2618', '2630', '2638', '2661', '2664', '2678', '2685', '2716', '2750', '2751', '2753', '2765', '2769', '2778', '2783', '2790', '2794', '2801', '2826', '2842', '2850', '2860', '2862', '2896', '2924', '2926', '2932', '2938', '2943', '2945', '2951', '2983']",False,86400,True,2,fe4aa6f92f,0.0,1.0,1.0
./expes/v2_2021-04-05_issda-30_3000-prng-1-w86-p2_3d,30_issda-3000,3000,first-3000,750,25,rng,num-start-1500,1500,25726,classic,10828.943769931793,False,,False,0.9741758066343271,0.9741758066343271,0.9741758066343271,2,"['7', '8', '13', '18', '20', '22', '26', '35', '37', '43', '48', '65', '71', '74', '79', '80', '82', '87', '88', '97', '98', '99', '100', '101', '102', '103', '104', '113', '115', '121', '125', '126', '127', '129', '131', '138', '140', '146', '147', '148', '149', '154', '161', '168', '177', '188', '190', '192', '199', '201', '204', '210', '218', '220', '222', '232', '233', '241', '246', '248', '251', '253', '259', '265', '269', '274', '277', '292', '298', '299', '302', '303', '309', '314', '315', '316', '317', '327', '330', '334', '340', '346', '348', '353', '360', '366', '371', '376', '377', '381', '383', '385', '387', '390', '393', '394', '407', '408', '409', '410', '412', '415', '418', '426', '428', '431', '432', '435', '436', '444', '456', '459', '460', '464', '472', '475', '477', '478', '486', '499', '504', '521', '523', '524', '526', '527', '535', '540', '544', '547', '549', '553', '555', '560', '564', '565', '566', '568', '572', '573', '574', '575', '576', '580', '583', '589', '590', '593', '601', '602', '613', '617', '619', '621', '629', '639', '640', '641', '644', '646', '649', '652', '657', '661', '666', '668', '674', '681', '682', '685', '693', '694', '695', '700', '705', '707', '710', '711', '712', '716', '718', '722', '724', '727', '740', '743', '745', '753', '760', '764', '769', '770', '777', '784', '785', '788', '797', '813', '818', '827', '828', '837', '838', '840', '852', '853', '861', '862', '863', '868', '869', '870', '871', '876', '882', '883', '885', '887', '891', '898', '904', '909', '922', '924', '929', '933', '935', '939', '945', '949', '950', '951', '953', '955', '956', '961', '968', '970', '975', '977', '984', '987', '990', '1003', '1010', '1011', '1016', '1019', '1022', '1024', '1025', '1028', '1029', '1031', '1037', '1040', '1042', '1046', '1048', '1052', '1054', '1057', '1062', '1063', '1073', '1076', '1082', '1089', '1094', '1099', '1101', '1102', '1114', '1116', '1119', '1123', '1124', '1137', '1142', '1144', '1147', '1150', '1158', '1165', '1166', '1172', '1176', '1187', '1191', '1195', '1196', '1208', '1214', '1216', '1219', '1226', '1240', '1243', '1246', '1253', '1254', '1262', '1263', '1264', '1268', '1269', '1278', '1279', '1282', '1283', '1285', '1290', '1296', '1298', '1305', '1313', '1315', '1330', '1332', '1337', '1344', '1347', '1350', '1355', '1358', '1367', '1371', '1372', '1377', '1379', '1380', '1382', '1383', '1385', '1396', '1397', '1399', '1402', '1404', '1410', '1413', '1424', '1435', '1437', '1450', '1459', '1465', '1469', '1472', '1474', '1475', '1476', '1477', '1479', '1483', '1485', '1486', '1492', '1494', '1500', '1502', '1506', '1522', '1524', '1525', '1527', '1528', '1529', '1530', '1532', '1536', '1546', '1549', '1553', '1554', '1557', '1564', '1567', '1570', '1576', '1580', '1581', '1582', '1598', '1600', '1602', '1603', '1604', '1605', '1607', '1609', '1610', '1612', '1614', '1617', '1619', '1631', '1637', '1638', '1640', '1644', '1646', '1650', '1651', '1656', '1657', '1659', '1666', '1675', '1683', '1687', '1689', '1699', '1708', '1713', '1717', '1720', '1722', '1724', '1733', '1736', '1744', '1751', '1752', '1761', '1765', '1777', '1780', '1788', '1798', '1806', '1808', '1811', '1814', '1817', '1822', '1823', '1826', '1835', '1838', '1849', '1850', '1855', '1858', '1860', '1862', '1863', '1871', '1873', '1874', '1875', '1882', '1886', '1889', '1890', '1898', '1903', '1904', '1905', '1907', '1910', '1911', '1912', '1914', '1915', '1921', '1927', '1936', '1937', '1941', '1945', '1947', '1953', '1957', '1966', '1973', '1975', '1977', '1982', '1983', '1984', '1987', '1989', '1991', '1994', '1995', '2002', '2003', '2007', '2008', '2009', '2016', '2031', '2039', '2040', '2041', '2042', '2046', '2049', '2052', '2057', '2059', '2060', '2066', '2068', '2078', '2079', '2082', '2083', '2086', '2090', '2091', '2093', '2096', '2097', '2098', '2104', '2105', '2107', '2109', '2112', '2116', '2121', '2123', '2127', '2133', '2140', '2141', '2142', '2143', '2145', '2147', '2149', '2150', '2151', '2152', '2154', '2156', '2161', '2165', '2173', '2179', '2183', '2184', '2194', '2204', '2206', '2207', '2211', '2213', '2216', '2217', '2221', '2223', '2229', '2231', '2234', '2238', '2241', '2243', '2247', '2256', '2259', '2260', '2284', '2285', '2286', '2289', '2294', '2296', '2300', '2303', '2304', '2312', '2319', '2326', '2332', '2342', '2349', '2353', '2359', '2363', '2375', '2377', '2380', '2381', '2382', '2396', '2400', '2402', '2409', '2412', '2415', '2422', '2423', '2424', '2431', '2436', '2438', '2443', '2444', '2448', '2466', '2479', '2482', '2483', '2484', '2486', '2501', '2502', '2505', '2507', '2509', '2513', '2514', '2521', '2523', '2524', '2525', '2526', '2533', '2538', '2545', '2546', '2547', '2550', '2551', '2553', '2556', '2557', '2561', '2562', '2566', '2569', '2572', '2576', '2590', '2593', '2595', '2601', '2602', '2610', '2611', '2613', '2616', '2620', '2626', '2629', '2633', '2643', '2648', '2653', '2654', '2655', '2656', '2659', '2660', '2663', '2669', '2670', '2675', '2676', '2677', '2683', '2697', '2698', '2699', '2700', '2707', '2711', '2717', '2723', '2732', '2739', '2741', '2743', '2744', '2747', '2748', '2755', '2756', '2763', '2764', '2765', '2767', '2768', '2771', '2780', '2782', '2785', '2787', '2790', '2791', '2793', '2796', '2803', '2804', '2805', '2808', '2816', '2825', '2827', '2828', '2833', '2838', '2850', '2864', '2866', '2879', '2880', '2881', '2886', '2890', '2891', '2893', '2898', '2901', '2902', '2907', '2911', '2913', '2915', '2920', '2922', '2924', '2925', '2930', '2931', '2933', '2935', '2937', '2940', '2943', '2945', '2948', '2950', '2957', '2962', '2964', '2965', '2973', '2974', '2982', '2983', '2986', '2988', '2994', '2996', '2999', '3000']",False,86400,True,2,576e2537a1,0.0,1.0,1.0
