expe,clients,clients_size,clients_subset,agg_size,method,days,days_size,days_total,time,valid,valid_sum,success,nsols,wall_hit,wall_time,pooled,valid_sums
./expes/v2_2020-11-27_di_500-prng-2,daily_issda_500,500,rng-500,271,rng,num-start-231,231,536,40.28702902793884,True,,True,1,False,1000,True,1.0
./expes/v2_2020-11-27_di_500-prng-2,daily_issda_500,500,rng-500,281,rng,num-start-141,141,536,1005.4648983478546,False,,False,0,True,1000,True,0.0
./expes/v2_2020-11-27_di_500-prng-2,daily_issda_500,500,rng-500,481,rng,num-start-231,231,536,10.361573934555054,True,,True,1,False,1000,True,1.0
./expes/v2_2020-11-27_di_500-prng-2,daily_issda_500,500,rng-500,411,rng,num-start-211,211,536,13.400541067123413,True,,True,1,False,1000,True,1.0
./expes/v2_2020-11-27_di_500-prng-2,daily_issda_500,500,rng-500,141,rng,num-start-291,291,536,24.072921752929688,True,,True,1,False,1000,True,1.0
./expes/v2_2020-11-27_di_500-prng-2,daily_issda_500,500,rng-500,491,rng,num-start-231,231,536,9.652941942214966,True,,True,1,False,1000,True,1.0
./expes/v2_2020-11-27_di_500-prng-2,daily_issda_500,500,rng-500,471,rng,num-start-71,71,536,9.128239870071411,True,,True,1,False,1000,True,1.0
./expes/v2_2020-11-27_di_500-prng-2,daily_issda_500,500,rng-500,361,rng,num-start-251,251,536,16.828158617019653,True,,True,1,False,1000,True,1.0
./expes/v2_2020-11-27_di_500-prng-2,daily_issda_500,500,rng-500,301,rng,num-start-41,41,536,1001.4943034648895,False,,False,0,True,1000,True,0.0
./expes/v2_2020-11-27_di_500-prng-2,daily_issda_500,500,rng-500,241,rng,num-start-171,171,536,1006.4532423019409,False,,False,0,True,1000,True,0.0
./expes/v2_2020-11-27_di_500-prng-2,daily_issda_500,500,rng-500,371,rng,num-start-201,201,536,39.28078317642212,True,,True,1,False,1000,True,1.0
./expes/v2_2020-11-27_di_500-prng-2,daily_issda_500,500,rng-500,81,rng,num-start-41,41,536,1001.5479648113251,False,,False,0,True,1000,True,0.0
./expes/v2_2020-11-27_di_500-prng-2,daily_issda_500,500,rng-500,281,rng,num-start-161,161,536,1006.085458278656,False,,False,0,True,1000,True,0.0
./expes/v2_2020-11-27_di_500-prng-2,daily_issda_500,500,rng-500,171,rng,num-start-201,201,536,85.49756264686584,True,,True,1,False,1000,True,1.0
./expes/v2_2020-11-27_di_500-prng-2,daily_issda_500,500,rng-500,401,rng,num-start-1,1,536,6.151581048965454,False,,False,2,False,1000,True,1.0
./expes/v2_2020-11-27_di_500-prng-2,daily_issda_500,500,rng-500,181,rng,num-start-61,61,536,1002.3568933010101,False,,False,0,True,1000,True,0.0
./expes/v2_2020-11-27_di_500-prng-2,daily_issda_500,500,rng-500,331,rng,num-start-71,71,536,1002.8911080360413,False,,False,0,True,1000,True,0.0
./expes/v2_2020-11-27_di_500-prng-2,daily_issda_500,500,rng-500,261,rng,num-start-71,71,536,1002.7108745574951,False,,False,0,True,1000,True,0.0
./expes/v2_2020-11-27_di_500-prng-2,daily_issda_500,500,rng-500,201,rng,num-start-41,41,536,1001.6484322547913,False,,False,0,True,1000,True,0.0
./expes/v2_2020-11-27_di_500-prng-2,daily_issda_500,500,rng-500,361,rng,num-start-131,131,536,1004.8904356956482,False,,False,0,True,1000,True,0.0
./expes/v2_2020-11-27_di_500-prng-2,daily_issda_500,500,rng-500,401,rng,num-start-211,211,536,14.295944452285767,True,,True,1,False,1000,True,1.0
./expes/v2_2020-11-27_di_500-prng-2,daily_issda_500,500,rng-500,401,rng,num-start-51,51,536,1001.9487082958221,False,,False,0,True,1000,True,0.0
./expes/v2_2020-11-27_di_500-prng-2,daily_issda_500,500,rng-500,381,rng,num-start-281,281,536,22.3308846950531,True,,True,1,False,1000,True,1.0
./expes/v2_2020-11-27_di_500-prng-2,daily_issda_500,500,rng-500,351,rng,num-start-201,201,536,34.73686671257019,True,,True,1,False,1000,True,1.0
./expes/v2_2020-11-27_di_500-prng-2,daily_issda_500,500,rng-500,381,rng,num-start-21,21,536,1000.9309728145599,False,,False,0,True,1000,True,0.0
./expes/v2_2020-11-27_di_500-prng-2,daily_issda_500,500,rng-500,111,rng,num-start-131,131,536,1004.8023223876953,False,,False,0,True,1000,True,0.0
./expes/v2_2020-11-27_di_500-prng-2,daily_issda_500,500,rng-500,471,rng,num-start-1,1,536,1.4610140323638916,False,,False,2,False,1000,True,1.0
./expes/v2_2020-11-27_di_500-prng-2,daily_issda_500,500,rng-500,431,rng,num-start-141,141,536,17.367707014083862,True,,True,1,False,1000,True,1.0
./expes/v2_2020-11-27_di_500-prng-2,daily_issda_500,500,rng-500,191,rng,num-start-51,51,536,1001.9104015827179,False,,False,0,True,1000,True,0.0
./expes/v2_2020-11-27_di_500-prng-2,daily_issda_500,500,rng-500,461,rng,num-start-251,251,536,12.428316593170166,True,,True,1,False,1000,True,1.0
./expes/v2_2020-11-27_di_500-prng-2,daily_issda_500,500,rng-500,31,rng,num-start-41,41,536,1001.6396565437317,False,,False,0,True,1000,True,0.0
./expes/v2_2020-11-27_di_500-prng-2,daily_issda_500,500,rng-500,291,rng,num-start-111,111,536,1003.9328336715698,False,,False,0,True,1000,True,0.0
./expes/v2_2020-11-27_di_500-prng-2,daily_issda_500,500,rng-500,371,rng,num-start-231,231,536,63.99252939224243,True,,True,1,False,1000,True,1.0
./expes/v2_2020-11-27_di_500-prng-2,daily_issda_500,500,rng-500,481,rng,num-start-141,141,536,7.205538988113403,True,,True,1,False,1000,True,1.0
./expes/v2_2020-11-27_di_500-prng-2,daily_issda_500,500,rng-500,411,rng,num-start-111,111,536,1003.8774707317352,False,,False,0,True,1000,True,0.0
./expes/v2_2020-11-27_di_500-prng-2,daily_issda_500,500,rng-500,341,rng,num-start-251,251,536,20.70189094543457,True,,True,1,False,1000,True,1.0
./expes/v2_2020-11-27_di_500-prng-2,daily_issda_500,500,rng-500,41,rng,num-start-61,61,536,1002.1408762931824,False,,False,0,True,1000,True,0.0
./expes/v2_2020-11-27_di_500-prng-2,daily_issda_500,500,rng-500,221,rng,num-start-81,81,536,1002.8657534122467,False,,False,0,True,1000,True,0.0
./expes/v2_2020-11-27_di_500-prng-2,daily_issda_500,500,rng-500,451,rng,num-start-131,131,536,12.621366739273071,True,,True,1,False,1000,True,1.0
./expes/v2_2020-11-27_di_500-prng-2,daily_issda_500,500,rng-500,461,rng,num-start-291,291,536,15.775048017501831,True,,True,1,False,1000,True,1.0
./expes/v2_2020-11-27_di_500-prng-2,daily_issda_500,500,rng-500,71,rng,num-start-251,251,536,15.575593709945679,True,,True,1,False,1000,True,1.0
./expes/v2_2020-11-27_di_500-prng-2,daily_issda_500,500,rng-500,271,rng,num-start-241,241,536,36.32992148399353,True,,True,1,False,1000,True,1.0
./expes/v2_2020-11-27_di_500-prng-2,daily_issda_500,500,rng-500,121,rng,num-start-91,91,536,1003.1859931945801,False,,False,0,True,1000,True,0.0
./expes/v2_2020-11-27_di_500-prng-2,daily_issda_500,500,rng-500,201,rng,num-start-111,111,536,1004.0565853118896,False,,False,0,True,1000,True,0.0
./expes/v2_2020-11-27_di_500-prng-2,daily_issda_500,500,rng-500,181,rng,num-start-161,161,536,1005.961375951767,False,,False,0,True,1000,True,0.0
./expes/v2_2020-11-27_di_500-prng-2,daily_issda_500,500,rng-500,41,rng,num-start-171,171,536,8.442800521850586,True,,True,1,False,1000,True,1.0
./expes/v2_2020-11-27_di_500-prng-2,daily_issda_500,500,rng-500,271,rng,num-start-91,91,536,1003.1619992256165,False,,False,0,True,1000,True,0.0
./expes/v2_2020-11-27_di_500-prng-2,daily_issda_500,500,rng-500,211,rng,num-start-171,171,536,1006.1873760223389,False,,False,0,True,1000,True,0.0
./expes/v2_2020-11-27_di_500-prng-2,daily_issda_500,500,rng-500,191,rng,num-start-51,51,536,1001.7212488651276,False,,False,0,True,1000,True,0.0
./expes/v2_2020-11-27_di_500-prng-2,daily_issda_500,500,rng-500,431,rng,num-start-151,151,536,14.78409457206726,True,,True,1,False,1000,True,1.0
./expes/v2_2020-11-27_di_500-prng-2,daily_issda_500,500,rng-500,311,rng,num-start-101,101,536,1003.6537344455719,False,,False,0,True,1000,True,0.0
./expes/v2_2020-11-27_di_500-prng-2,daily_issda_500,500,rng-500,371,rng,num-start-91,91,536,1003.188226222992,False,,False,0,True,1000,True,0.0
./expes/v2_2020-11-27_di_500-prng-2,daily_issda_500,500,rng-500,441,rng,num-start-241,241,536,15.977150917053223,True,,True,1,False,1000,True,1.0
./expes/v2_2020-11-27_di_500-prng-2,daily_issda_500,500,rng-500,461,rng,num-start-171,171,536,9.213180780410767,True,,True,1,False,1000,True,1.0
./expes/v2_2020-11-27_di_500-prng-2,daily_issda_500,500,rng-500,171,rng,num-start-81,81,536,1002.9704480171204,False,,False,0,True,1000,True,0.0
./expes/v2_2020-11-27_di_500-prng-2,daily_issda_500,500,rng-500,291,rng,num-start-181,181,536,1007.6753785610199,False,,False,0,True,1000,True,0.0
./expes/v2_2020-11-27_di_500-prng-2,daily_issda_500,500,rng-500,311,rng,num-start-1,1,536,5.198214530944824,False,,False,2,False,1000,True,1.0
./expes/v2_2020-11-27_di_500-prng-2,daily_issda_500,500,rng-500,341,rng,num-start-201,201,536,40.54485869407654,True,,True,1,False,1000,True,1.0
./expes/v2_2020-11-27_di_500-prng-2,daily_issda_500,500,rng-500,41,rng,num-start-111,111,536,5.711045265197754,True,,True,1,False,1000,True,1.0
./expes/v2_2020-11-27_di_500-prng-2,daily_issda_500,500,rng-500,291,rng,num-start-151,151,536,1004.9802982807159,False,,False,0,True,1000,True,0.0
./expes/v2_2020-11-27_di_500-prng-2,daily_issda_500,500,rng-500,171,rng,num-start-221,221,536,43.640552043914795,True,,True,1,False,1000,True,1.0
./expes/v2_2020-11-27_di_500-prng-2,daily_issda_500,500,rng-500,331,rng,num-start-31,31,536,1001.1359968185425,False,,False,0,True,1000,True,0.0
./expes/v2_2020-11-27_di_500-prng-2,daily_issda_500,500,rng-500,361,rng,num-start-11,11,536,1000.5235488414764,False,,False,0,True,1000,True,0.0
./expes/v2_2020-11-27_di_500-prng-2,daily_issda_500,500,rng-500,181,rng,num-start-41,41,536,1001.7037761211395,False,,False,0,True,1000,True,0.0
./expes/v2_2020-11-27_di_500-prng-2,daily_issda_500,500,rng-500,91,rng,num-start-251,251,536,17.1296546459198,True,,True,1,False,1000,True,1.0
./expes/v2_2020-11-27_di_500-prng-2,daily_issda_500,500,rng-500,1,rng,num-start-51,51,536,2.155255079269409,True,,True,1,False,1000,True,1.0
./expes/v2_2020-11-27_di_500-prng-2,daily_issda_500,500,rng-500,361,rng,num-start-131,131,536,1004.6543600559235,False,,False,0,True,1000,True,0.0
./expes/v2_2020-11-27_di_500-prng-2,daily_issda_500,500,rng-500,71,rng,num-start-111,111,536,1004.107857465744,False,,False,0,True,1000,True,0.0
./expes/v2_2020-11-27_di_500-prng-2,daily_issda_500,500,rng-500,141,rng,num-start-281,281,536,23.77928924560547,True,,True,1,False,1000,True,1.0
./expes/v2_2020-11-27_di_500-prng-2,daily_issda_500,500,rng-500,451,rng,num-start-81,81,536,1003.0277202129364,False,,False,0,True,1000,True,0.0
./expes/v2_2020-11-27_di_500-prng-2,daily_issda_500,500,rng-500,371,rng,num-start-271,271,536,19.694239139556885,True,,True,1,False,1000,True,1.0
./expes/v2_2020-11-27_di_500-prng-2,daily_issda_500,500,rng-500,431,rng,num-start-31,31,536,1001.0592260360718,False,,False,0,True,1000,True,0.0
./expes/v2_2020-11-27_di_500-prng-2,daily_issda_500,500,rng-500,401,rng,num-start-101,101,536,1004.1786062717438,False,,False,0,True,1000,True,0.0
./expes/v2_2020-11-27_di_500-prng-2,daily_issda_500,500,rng-500,131,rng,num-start-51,51,536,1001.743558883667,False,,False,0,True,1000,True,0.0
./expes/v2_2020-11-27_di_500-prng-2,daily_issda_500,500,rng-500,471,rng,num-start-171,171,536,7.538369178771973,True,,True,1,False,1000,True,1.0
./expes/v2_2020-11-27_di_500-prng-2,daily_issda_500,500,rng-500,361,rng,num-start-101,101,536,1003.4110403060913,False,,False,0,True,1000,True,0.0
./expes/v2_2020-11-27_di_500-prng-2,daily_issda_500,500,rng-500,181,rng,num-start-141,141,536,1004.9344298839569,False,,False,0,True,1000,True,0.0
./expes/v2_2020-11-27_di_500-prng-2,daily_issda_500,500,rng-500,101,rng,num-start-61,61,536,1002.1361880302429,False,,False,0,True,1000,True,0.0
./expes/v2_2020-11-27_di_500-prng-2,daily_issda_500,500,rng-500,51,rng,num-start-231,231,536,11.654014587402344,True,,True,1,False,1000,True,1.0
./expes/v2_2020-11-27_di_500-prng-2,daily_issda_500,500,rng-500,191,rng,num-start-271,271,536,20.552101850509644,True,,True,1,False,1000,True,1.0
./expes/v2_2020-11-27_di_500-prng-2,daily_issda_500,500,rng-500,321,rng,num-start-191,191,536,158.75426650047302,True,,True,1,False,1000,True,1.0
./expes/v2_2020-11-27_di_500-prng-2,daily_issda_500,500,rng-500,171,rng,num-start-11,11,536,1000.5708692073822,False,,False,0,True,1000,True,0.0
./expes/v2_2020-11-27_di_500-prng-2,daily_issda_500,500,rng-500,321,rng,num-start-271,271,536,21.70679211616516,True,,True,1,False,1000,True,1.0
./expes/v2_2020-11-27_di_500-prng-2,daily_issda_500,500,rng-500,451,rng,num-start-31,31,536,1001.2199220657349,False,,False,0,True,1000,True,0.0
./expes/v2_2020-11-27_di_500-prng-2,daily_issda_500,500,rng-500,481,rng,num-start-241,241,536,11.375898122787476,True,,True,1,False,1000,True,1.0
./expes/v2_2020-11-27_di_500-prng-2,daily_issda_500,500,rng-500,291,rng,num-start-31,31,536,1001.1514329910278,False,,False,0,True,1000,True,0.0
./expes/v2_2020-11-27_di_500-prng-2,daily_issda_500,500,rng-500,81,rng,num-start-31,31,536,1001.3986477851868,False,,False,0,True,1000,True,0.0
./expes/v2_2020-11-27_di_500-prng-2,daily_issda_500,500,rng-500,11,rng,num-start-231,231,536,12.268575429916382,True,,True,1,False,1000,True,1.0
./expes/v2_2020-11-27_di_500-prng-2,daily_issda_500,500,rng-500,401,rng,num-start-111,111,536,1003.9380221366882,False,,False,0,True,1000,True,0.0
./expes/v2_2020-11-27_di_500-prng-2,daily_issda_500,500,rng-500,181,rng,num-start-91,91,536,1003.2779870033264,False,,False,0,True,1000,True,0.0
./expes/v2_2020-11-27_di_500-prng-2,daily_issda_500,500,rng-500,231,rng,num-start-121,121,536,1004.5960593223572,False,,False,0,True,1000,True,0.0
./expes/v2_2020-11-27_di_500-prng-2,daily_issda_500,500,rng-500,101,rng,num-start-171,171,536,25.69007968902588,True,,True,1,False,1000,True,1.0
./expes/v2_2020-11-27_di_500-prng-2,daily_issda_500,500,rng-500,401,rng,num-start-61,61,536,1002.1485376358032,False,,False,0,True,1000,True,0.0
./expes/v2_2020-11-27_di_500-prng-2,daily_issda_500,500,rng-500,461,rng,num-start-1,1,536,4.287431001663208,False,,False,2,False,1000,True,0.0
./expes/v2_2020-11-27_di_500-prng-2,daily_issda_500,500,rng-500,151,rng,num-start-241,241,536,20.565574169158936,True,,True,1,False,1000,True,1.0
./expes/v2_2020-11-27_di_500-prng-2,daily_issda_500,500,rng-500,121,rng,num-start-141,141,536,1004.9959318637848,False,,False,0,True,1000,True,0.0
./expes/v2_2020-11-27_di_500-prng-2,daily_issda_500,500,rng-500,141,rng,num-start-221,221,536,15.29954743385315,True,,True,1,False,1000,True,1.0
./expes/v2_2020-11-27_di_500-prng-2,daily_issda_500,500,rng-500,211,rng,num-start-221,221,536,23.466044425964355,True,,True,1,False,1000,True,1.0
./expes/v2_2020-11-27_di_500-prng-2,daily_issda_500,500,rng-500,321,rng,num-start-51,51,536,1001.9076683521271,False,,False,0,True,1000,True,0.0
./expes/v2_2020-11-27_di_500-prng-2,daily_issda_500,500,rng-500,131,rng,num-start-141,141,536,1005.5320808887482,False,,False,0,True,1000,True,0.0
./expes/v2_2020-11-27_di_500-prng-2,daily_issda_500,500,rng-500,111,rng,num-start-211,211,536,14.357404708862305,True,,True,1,False,1000,True,1.0
./expes/v2_2020-11-27_di_500-prng-2,daily_issda_500,500,rng-500,21,rng,num-start-81,81,536,7.791600227355957,True,,True,1,False,1000,True,1.0
./expes/v2_2020-11-27_di_500-prng-2,daily_issda_500,500,rng-500,111,rng,num-start-161,161,536,70.18433213233948,True,,True,1,False,1000,True,1.0
./expes/v2_2020-11-27_di_500-prng-2,daily_issda_500,500,rng-500,41,rng,num-start-71,71,536,16.99170160293579,True,,True,1,False,1000,True,1.0
./expes/v2_2020-11-27_di_500-prng-2,daily_issda_500,500,rng-500,221,rng,num-start-261,261,536,28.36427664756775,True,,True,1,False,1000,True,1.0
./expes/v2_2020-11-27_di_500-prng-2,daily_issda_500,500,rng-500,211,rng,num-start-161,161,536,1005.9203703403473,False,,False,0,True,1000,True,0.0
./expes/v2_2020-11-27_di_500-prng-2,daily_issda_500,500,rng-500,11,rng,num-start-201,201,536,8.946653366088867,True,,True,1,False,1000,True,1.0
./expes/v2_2020-11-27_di_500-prng-2,daily_issda_500,500,rng-500,351,rng,num-start-61,61,536,1002.1274559497833,False,,False,0,True,1000,True,0.0
./expes/v2_2020-11-27_di_500-prng-2,daily_issda_500,500,rng-500,131,rng,num-start-91,91,536,1003.4145891666412,False,,False,0,True,1000,True,0.0
./expes/v2_2020-11-27_di_500-prng-2,daily_issda_500,500,rng-500,1,rng,num-start-71,71,536,2.480856418609619,True,,True,1,False,1000,True,1.0
./expes/v2_2020-11-27_di_500-prng-2,daily_issda_500,500,rng-500,261,rng,num-start-201,201,536,1006.7275574207306,False,,False,0,True,1000,True,0.0
./expes/v2_2020-11-27_di_500-prng-2,daily_issda_500,500,rng-500,401,rng,num-start-81,81,536,1003.0014176368713,False,,False,0,True,1000,True,0.0
./expes/v2_2020-11-27_di_500-prng-2,daily_issda_500,500,rng-500,241,rng,num-start-221,221,536,29.779555320739746,True,,True,1,False,1000,True,1.0
./expes/v2_2020-11-27_di_500-prng-2,daily_issda_500,500,rng-500,31,rng,num-start-61,61,536,1002.1346912384033,False,,False,0,True,1000,True,0.0
./expes/v2_2020-11-27_di_500-prng-2,daily_issda_500,500,rng-500,381,rng,num-start-11,11,536,1000.4530115127563,False,,False,0,True,1000,True,0.0
./expes/v2_2020-11-27_di_500-prng-2,daily_issda_500,500,rng-500,411,rng,num-start-131,131,536,1004.9360480308533,False,,False,0,True,1000,True,0.0
./expes/v2_2020-11-27_di_500-prng-2,daily_issda_500,500,rng-500,61,rng,num-start-231,231,536,14.224701642990112,True,,True,1,False,1000,True,1.0
./expes/v2_2020-11-27_di_500-prng-2,daily_issda_500,500,rng-500,231,rng,num-start-231,231,536,20.254669904708862,True,,True,1,False,1000,True,1.0
./expes/v2_2020-11-27_di_500-prng-2,daily_issda_500,500,rng-500,321,rng,num-start-231,231,536,42.85243630409241,True,,True,1,False,1000,True,1.0
./expes/v2_2020-11-27_di_500-prng-2,daily_issda_500,500,rng-500,491,rng,num-start-191,191,536,8.847571611404419,True,,True,1,False,1000,True,1.0
./expes/v2_2020-11-27_di_500-prng-2,daily_issda_500,500,rng-500,41,rng,num-start-41,41,536,1001.5875818729401,False,,False,0,True,1000,True,0.0
./expes/v2_2020-11-27_di_500-prng-2,daily_issda_500,500,rng-500,171,rng,num-start-211,211,536,30.36602783203125,True,,True,1,False,1000,True,1.0
./expes/v2_2020-11-27_di_500-prng-2,daily_issda_500,500,rng-500,221,rng,num-start-141,141,536,1005.7459502220154,False,,False,0,True,1000,True,0.0
./expes/v2_2020-11-27_di_500-prng-2,daily_issda_500,500,rng-500,441,rng,num-start-121,121,536,28.063913822174072,True,,True,1,False,1000,True,1.0
./expes/v2_2020-11-27_di_500-prng-2,daily_issda_500,500,rng-500,111,rng,num-start-51,51,536,1001.8539361953735,False,,False,0,True,1000,True,0.0
./expes/v2_2020-11-27_di_500-prng-2,daily_issda_500,500,rng-500,471,rng,num-start-171,171,536,8.833582878112793,True,,True,1,False,1000,True,1.0
./expes/v2_2020-11-27_di_500-prng-2,daily_issda_500,500,rng-500,291,rng,num-start-191,191,536,1006.9802598953247,False,,False,0,True,1000,True,0.0
./expes/v2_2020-11-27_di_500-prng-2,daily_issda_500,500,rng-500,461,rng,num-start-51,51,536,1001.9269556999207,False,,False,0,True,1000,True,0.0
./expes/v2_2020-11-27_di_500-prng-2,daily_issda_500,500,rng-500,351,rng,num-start-201,201,536,41.196046590805054,True,,True,1,False,1000,True,1.0
./expes/v2_2020-11-27_di_500-prng-2,daily_issda_500,500,rng-500,461,rng,num-start-81,81,536,7.576874017715454,True,,True,1,False,1000,True,1.0
./expes/v2_2020-11-27_di_500-prng-2,daily_issda_500,500,rng-500,61,rng,num-start-291,291,536,17.48669672012329,True,,True,1,False,1000,True,1.0
./expes/v2_2020-11-27_di_500-prng-2,daily_issda_500,500,rng-500,261,rng,num-start-21,21,536,1000.8429412841797,False,,False,0,True,1000,True,0.0
./expes/v2_2020-11-27_di_500-prng-2,daily_issda_500,500,rng-500,351,rng,num-start-171,171,536,1006.3253371715546,False,,False,0,True,1000,True,0.0
./expes/v2_2020-11-27_di_500-prng-2,daily_issda_500,500,rng-500,151,rng,num-start-291,291,536,23.19034457206726,True,,True,1,False,1000,True,1.0
./expes/v2_2020-11-27_di_500-prng-2,daily_issda_500,500,rng-500,481,rng,num-start-291,291,536,14.609500646591187,True,,True,1,False,1000,True,1.0
./expes/v2_2020-11-27_di_500-prng-2,daily_issda_500,500,rng-500,281,rng,num-start-201,201,536,57.900617837905884,True,,True,1,False,1000,True,1.0
./expes/v2_2020-11-27_di_500-prng-2,daily_issda_500,500,rng-500,331,rng,num-start-61,61,536,1002.3479514122009,False,,False,0,True,1000,True,0.0
./expes/v2_2020-11-27_di_500-prng-2,daily_issda_500,500,rng-500,451,rng,num-start-231,231,536,12.830014944076538,True,,True,1,False,1000,True,1.0
./expes/v2_2020-11-27_di_500-prng-2,daily_issda_500,500,rng-500,141,rng,num-start-71,71,536,1002.5304296016693,False,,False,0,True,1000,True,0.0
./expes/v2_2020-11-27_di_500-prng-2,daily_issda_500,500,rng-500,11,rng,num-start-101,101,536,8.890804052352905,True,,True,1,False,1000,True,1.0
./expes/v2_2020-11-27_di_500-prng-2,daily_issda_500,500,rng-500,351,rng,num-start-181,181,536,106.88184213638306,True,,True,1,False,1000,True,1.0
./expes/v2_2020-11-27_di_500-prng-2,daily_issda_500,500,rng-500,491,rng,num-start-291,291,536,13.398681402206421,True,,True,1,False,1000,True,1.0
./expes/v2_2020-11-27_di_500-prng-2,daily_issda_500,500,rng-500,401,rng,num-start-201,201,536,13.779617547988892,True,,True,1,False,1000,True,1.0
./expes/v2_2020-11-27_di_500-prng-2,daily_issda_500,500,rng-500,121,rng,num-start-171,171,536,22.077899932861328,True,,True,1,False,1000,True,1.0
./expes/v2_2020-11-27_di_500-prng-2,daily_issda_500,500,rng-500,201,rng,num-start-141,141,536,1005.2582743167877,False,,False,0,True,1000,True,0.0
./expes/v2_2020-11-27_di_500-prng-2,daily_issda_500,500,rng-500,221,rng,num-start-41,41,536,1001.5423736572266,False,,False,0,True,1000,True,0.0
./expes/v2_2020-11-27_di_500-prng-2,daily_issda_500,500,rng-500,81,rng,num-start-141,141,536,36.308714389801025,True,,True,1,False,1000,True,1.0
./expes/v2_2020-11-27_di_500-prng-2,daily_issda_500,500,rng-500,391,rng,num-start-291,291,536,15.069196462631226,True,,True,1,False,1000,True,1.0
./expes/v2_2020-11-27_di_500-prng-2,daily_issda_500,500,rng-500,11,rng,num-start-241,241,536,11.037811279296875,True,,True,1,False,1000,True,1.0
./expes/v2_2020-11-27_di_500-prng-2,daily_issda_500,500,rng-500,181,rng,num-start-191,191,536,1007.0193252563477,False,,False,0,True,1000,True,0.0
./expes/v2_2020-11-27_di_500-prng-2,daily_issda_500,500,rng-500,491,rng,num-start-291,291,536,12.214235544204712,True,,True,1,False,1000,True,1.0
./expes/v2_2020-11-27_di_500-prng-2,daily_issda_500,500,rng-500,441,rng,num-start-111,111,536,26.478617429733276,True,,True,1,False,1000,True,1.0
./expes/v2_2020-11-27_di_500-prng-2,daily_issda_500,500,rng-500,451,rng,num-start-281,281,536,12.494826793670654,True,,True,1,False,1000,True,1.0
./expes/v2_2020-11-27_di_500-prng-2,daily_issda_500,500,rng-500,141,rng,num-start-261,261,536,25.696661710739136,True,,True,1,False,1000,True,1.0
./expes/v2_2020-11-27_di_500-prng-2,daily_issda_500,500,rng-500,371,rng,num-start-11,11,536,1000.553234577179,False,,False,0,True,1000,True,0.0
./expes/v2_2020-11-27_di_500-prng-2,daily_issda_500,500,rng-500,21,rng,num-start-151,151,536,7.4476025104522705,True,,True,1,False,1000,True,1.0
./expes/v2_2020-11-27_di_500-prng-2,daily_issda_500,500,rng-500,391,rng,num-start-191,191,536,45.59869408607483,True,,True,1,False,1000,True,1.0
./expes/v2_2020-11-27_di_500-prng-2,daily_issda_500,500,rng-500,311,rng,num-start-281,281,536,22.61038303375244,True,,True,1,False,1000,True,1.0
./expes/v2_2020-11-27_di_500-prng-2,daily_issda_500,500,rng-500,271,rng,num-start-61,61,536,1002.2831456661224,False,,False,0,True,1000,True,0.0
./expes/v2_2020-11-27_di_500-prng-2,daily_issda_500,500,rng-500,51,rng,num-start-61,61,536,1002.4352834224701,False,,False,0,True,1000,True,0.0
./expes/v2_2020-11-27_di_500-prng-2,daily_issda_500,500,rng-500,121,rng,num-start-281,281,536,17.836531400680542,True,,True,1,False,1000,True,1.0
./expes/v2_2020-11-27_di_500-prng-2,daily_issda_500,500,rng-500,481,rng,num-start-41,41,536,1001.61257147789,False,,False,0,True,1000,True,0.0
./expes/v2_2020-11-27_di_500-prng-2,daily_issda_500,500,rng-500,421,rng,num-start-181,181,536,9.158684015274048,True,,True,1,False,1000,True,1.0
./expes/v2_2020-11-27_di_500-prng-2,daily_issda_500,500,rng-500,321,rng,num-start-261,261,536,19.992965698242188,True,,True,1,False,1000,True,1.0
./expes/v2_2020-11-27_di_500-prng-2,daily_issda_500,500,rng-500,151,rng,num-start-101,101,536,1003.8273451328278,False,,False,0,True,1000,True,0.0
./expes/v2_2020-11-27_di_500-prng-2,daily_issda_500,500,rng-500,491,rng,num-start-31,31,536,1.8450360298156738,True,,True,1,False,1000,True,1.0
./expes/v2_2020-11-27_di_500-prng-2,daily_issda_500,500,rng-500,71,rng,num-start-121,121,536,100.83790326118469,True,,True,1,False,1000,True,1.0
./expes/v2_2020-11-27_di_500-prng-2,daily_issda_500,500,rng-500,371,rng,num-start-111,111,536,1003.7899558544159,False,,False,0,True,1000,True,0.0
./expes/v2_2020-11-27_di_500-prng-2,daily_issda_500,500,rng-500,271,rng,num-start-251,251,536,38.5005145072937,True,,True,1,False,1000,True,1.0
./expes/v2_2020-11-27_di_500-prng-2,daily_issda_500,500,rng-500,271,rng,num-start-71,71,536,1002.4917373657227,False,,False,0,True,1000,True,0.0
./expes/v2_2020-11-27_di_500-prng-2,daily_issda_500,500,rng-500,331,rng,num-start-291,291,536,27.568932056427002,True,,True,1,False,1000,True,1.0
./expes/v2_2020-11-27_di_500-prng-2,daily_issda_500,500,rng-500,161,rng,num-start-61,61,536,1002.1358082294464,False,,False,0,True,1000,True,0.0
./expes/v2_2020-11-27_di_500-prng-2,daily_issda_500,500,rng-500,401,rng,num-start-291,291,536,17.92569398880005,True,,True,1,False,1000,True,1.0
./expes/v2_2020-11-27_di_500-prng-2,daily_issda_500,500,rng-500,61,rng,num-start-101,101,536,1003.5767593383789,False,,False,0,True,1000,True,0.0
./expes/v2_2020-11-27_di_500-prng-2,daily_issda_500,500,rng-500,251,rng,num-start-171,171,536,1006.1393229961395,False,,False,0,True,1000,True,0.0
