expe,clients,clients_size,clients_subset,agg_size,method,days,days_size,days_total,time,valid,valid_sum,success,nsols,wall_hit,wall_time,pooled,valid_sums
./expes/v2_2020-11-09_3bh_200-prng-1,30_base_hphc_200,200,first-200,141,rng,num-start-721,721,17520,8.159332752227783,True,,True,1,False,1000,True,1.0
./expes/v2_2020-11-09_3bh_200-prng-1,30_base_hphc_200,200,first-200,181,rng,num-start-991,991,17520,10.898200511932373,True,,True,1,False,1000,True,1.0
./expes/v2_2020-11-09_3bh_200-prng-1,30_base_hphc_200,200,first-200,91,rng,num-start-831,831,17520,8.851033926010132,True,,True,1,False,1000,True,1.0
./expes/v2_2020-11-09_3bh_200-prng-1,30_base_hphc_200,200,first-200,111,rng,num-start-331,331,17520,4.5608391761779785,True,,True,1,False,1000,True,1.0
./expes/v2_2020-11-09_3bh_200-prng-1,30_base_hphc_200,200,first-200,141,rng,num-start-391,391,17520,4.61249041557312,True,,True,1,False,1000,True,1.0
./expes/v2_2020-11-09_3bh_200-prng-1,30_base_hphc_200,200,first-200,191,rng,num-start-71,71,17520,0.7808773517608643,True,,True,1,False,1000,True,1.0
./expes/v2_2020-11-09_3bh_200-prng-1,30_base_hphc_200,200,first-200,21,rng,num-start-211,211,17520,2.4992172718048096,True,,True,1,False,1000,True,1.0
./expes/v2_2020-11-09_3bh_200-prng-1,30_base_hphc_200,200,first-200,101,rng,num-start-211,211,17520,2.986053228378296,True,,True,1,False,1000,True,1.0
./expes/v2_2020-11-09_3bh_200-prng-1,30_base_hphc_200,200,first-200,111,rng,num-start-91,91,17520,2.094245433807373,True,,True,1,False,1000,True,1.0
./expes/v2_2020-11-09_3bh_200-prng-1,30_base_hphc_200,200,first-200,1,rng,num-start-701,701,17520,6.309471607208252,True,,True,1,False,1000,True,1.0
./expes/v2_2020-11-09_3bh_200-prng-1,30_base_hphc_200,200,first-200,71,rng,num-start-201,201,17520,2.755737781524658,True,,True,1,False,1000,True,1.0
./expes/v2_2020-11-09_3bh_200-prng-1,30_base_hphc_200,200,first-200,111,rng,num-start-221,221,17520,2.772681951522827,True,,True,1,False,1000,True,1.0
./expes/v2_2020-11-09_3bh_200-prng-1,30_base_hphc_200,200,first-200,121,rng,num-start-621,621,17520,6.922455787658691,True,,True,1,False,1000,True,1.0
./expes/v2_2020-11-09_3bh_200-prng-1,30_base_hphc_200,200,first-200,81,rng,num-start-311,311,17520,3.616231918334961,True,,True,1,False,1000,True,1.0
./expes/v2_2020-11-09_3bh_200-prng-1,30_base_hphc_200,200,first-200,131,rng,num-start-281,281,17520,3.7304468154907227,True,,True,1,False,1000,True,1.0
./expes/v2_2020-11-09_3bh_200-prng-1,30_base_hphc_200,200,first-200,71,rng,num-start-911,911,17520,9.317441940307617,True,,True,1,False,1000,True,1.0
./expes/v2_2020-11-09_3bh_200-prng-1,30_base_hphc_200,200,first-200,191,rng,num-start-451,451,17520,4.650769948959351,True,,True,1,False,1000,True,1.0
./expes/v2_2020-11-09_3bh_200-prng-1,30_base_hphc_200,200,first-200,51,rng,num-start-731,731,17520,8.273120880126953,True,,True,1,False,1000,True,1.0
./expes/v2_2020-11-09_3bh_200-prng-1,30_base_hphc_200,200,first-200,1,rng,num-start-941,941,17520,8.386474132537842,True,,True,1,False,1000,True,1.0
./expes/v2_2020-11-09_3bh_200-prng-1,30_base_hphc_200,200,first-200,51,rng,num-start-261,261,17520,3.6296777725219727,True,,True,1,False,1000,True,1.0
./expes/v2_2020-11-09_3bh_200-prng-1,30_base_hphc_200,200,first-200,161,rng,num-start-631,631,17520,7.000854015350342,True,,True,1,False,1000,True,1.0
./expes/v2_2020-11-09_3bh_200-prng-1,30_base_hphc_200,200,first-200,61,rng,num-start-861,861,17520,9.966954708099365,True,,True,1,False,1000,True,1.0
./expes/v2_2020-11-09_3bh_200-prng-1,30_base_hphc_200,200,first-200,81,rng,num-start-91,91,17520,2.6399214267730713,True,,True,1,False,1000,True,1.0
./expes/v2_2020-11-09_3bh_200-prng-1,30_base_hphc_200,200,first-200,31,rng,num-start-61,61,17520,0.7430884838104248,True,,True,1,False,1000,True,1.0
./expes/v2_2020-11-09_3bh_200-prng-1,30_base_hphc_200,200,first-200,1,rng,num-start-811,811,17520,7.2292866706848145,True,,True,1,False,1000,True,1.0
./expes/v2_2020-11-09_3bh_200-prng-1,30_base_hphc_200,200,first-200,121,rng,num-start-81,81,17520,19.929094076156616,True,,True,1,False,1000,True,1.0
./expes/v2_2020-11-09_3bh_200-prng-1,30_base_hphc_200,200,first-200,171,rng,num-start-321,321,17520,3.7087461948394775,True,,True,1,False,1000,True,1.0
./expes/v2_2020-11-09_3bh_200-prng-1,30_base_hphc_200,200,first-200,161,rng,num-start-801,801,17520,8.822009801864624,True,,True,1,False,1000,True,1.0
./expes/v2_2020-11-09_3bh_200-prng-1,30_base_hphc_200,200,first-200,161,rng,num-start-71,71,17520,0.9464786052703857,True,,True,1,False,1000,True,1.0
./expes/v2_2020-11-09_3bh_200-prng-1,30_base_hphc_200,200,first-200,11,rng,num-start-671,671,17520,7.100143194198608,True,,True,1,False,1000,True,1.0
./expes/v2_2020-11-09_3bh_200-prng-1,30_base_hphc_200,200,first-200,191,rng,num-start-481,481,17520,5.349831581115723,True,,True,1,False,1000,True,1.0
./expes/v2_2020-11-09_3bh_200-prng-1,30_base_hphc_200,200,first-200,111,rng,num-start-21,21,17520,1000.2922427654266,False,,False,0,True,1000,True,0.0
./expes/v2_2020-11-09_3bh_200-prng-1,30_base_hphc_200,200,first-200,141,rng,num-start-31,31,17520,1000.3777613639832,False,,False,0,True,1000,True,0.0
./expes/v2_2020-11-09_3bh_200-prng-1,30_base_hphc_200,200,first-200,61,rng,num-start-461,461,17520,5.020468473434448,True,,True,1,False,1000,True,1.0
./expes/v2_2020-11-09_3bh_200-prng-1,30_base_hphc_200,200,first-200,91,rng,num-start-71,71,17520,7.536010980606079,True,,True,1,False,1000,True,1.0
./expes/v2_2020-11-09_3bh_200-prng-1,30_base_hphc_200,200,first-200,11,rng,num-start-861,861,17520,8.960761547088623,True,,True,1,False,1000,True,1.0
./expes/v2_2020-11-09_3bh_200-prng-1,30_base_hphc_200,200,first-200,81,rng,num-start-21,21,17520,1000.2296335697174,False,,False,0,True,1000,True,0.0
./expes/v2_2020-11-09_3bh_200-prng-1,30_base_hphc_200,200,first-200,71,rng,num-start-801,801,17520,9.013951063156128,True,,True,1,False,1000,True,1.0
./expes/v2_2020-11-09_3bh_200-prng-1,30_base_hphc_200,200,first-200,121,rng,num-start-31,31,17520,1000.401200056076,False,,False,0,True,1000,True,0.0
./expes/v2_2020-11-09_3bh_200-prng-1,30_base_hphc_200,200,first-200,81,rng,num-start-471,471,17520,4.950001955032349,True,,True,1,False,1000,True,1.0
./expes/v2_2020-11-09_3bh_200-prng-1,30_base_hphc_200,200,first-200,131,rng,num-start-731,731,17520,7.988042593002319,True,,True,1,False,1000,True,1.0
./expes/v2_2020-11-09_3bh_200-prng-1,30_base_hphc_200,200,first-200,191,rng,num-start-611,611,17520,6.269327878952026,True,,True,1,False,1000,True,1.0
./expes/v2_2020-11-09_3bh_200-prng-1,30_base_hphc_200,200,first-200,161,rng,num-start-421,421,17520,5.108719110488892,True,,True,1,False,1000,True,1.0
./expes/v2_2020-11-09_3bh_200-prng-1,30_base_hphc_200,200,first-200,91,rng,num-start-61,61,17520,1000.6500015258789,False,,False,0,True,1000,True,0.0
./expes/v2_2020-11-09_3bh_200-prng-1,30_base_hphc_200,200,first-200,51,rng,num-start-141,141,17520,2.4485971927642822,True,,True,1,False,1000,True,1.0
./expes/v2_2020-11-09_3bh_200-prng-1,30_base_hphc_200,200,first-200,131,rng,num-start-171,171,17520,2.526700258255005,True,,True,1,False,1000,True,1.0
./expes/v2_2020-11-09_3bh_200-prng-1,30_base_hphc_200,200,first-200,11,rng,num-start-421,421,17520,5.261562824249268,True,,True,1,False,1000,True,1.0
./expes/v2_2020-11-09_3bh_200-prng-1,30_base_hphc_200,200,first-200,71,rng,num-start-541,541,17520,8.030501365661621,True,,True,1,False,1000,True,1.0
./expes/v2_2020-11-09_3bh_200-prng-1,30_base_hphc_200,200,first-200,161,rng,num-start-441,441,17520,5.767805337905884,True,,True,1,False,1000,True,1.0
./expes/v2_2020-11-09_3bh_200-prng-1,30_base_hphc_200,200,first-200,51,rng,num-start-991,991,17520,13.526051044464111,True,,True,1,False,1000,True,1.0
./expes/v2_2020-11-09_3bh_200-prng-1,30_base_hphc_200,200,first-200,121,rng,num-start-461,461,17520,6.305460691452026,True,,True,1,False,1000,True,1.0
./expes/v2_2020-11-09_3bh_200-prng-1,30_base_hphc_200,200,first-200,11,rng,num-start-71,71,17520,1.1359305381774902,True,,True,1,False,1000,True,1.0
./expes/v2_2020-11-09_3bh_200-prng-1,30_base_hphc_200,200,first-200,161,rng,num-start-421,421,17520,5.6423492431640625,True,,True,1,False,1000,True,1.0
./expes/v2_2020-11-09_3bh_200-prng-1,30_base_hphc_200,200,first-200,41,rng,num-start-671,671,17520,10.074695110321045,True,,True,1,False,1000,True,1.0
./expes/v2_2020-11-09_3bh_200-prng-1,30_base_hphc_200,200,first-200,111,rng,num-start-511,511,17520,7.271633863449097,True,,True,1,False,1000,True,1.0
./expes/v2_2020-11-09_3bh_200-prng-1,30_base_hphc_200,200,first-200,121,rng,num-start-521,521,17520,7.9290854930877686,True,,True,1,False,1000,True,1.0
./expes/v2_2020-11-09_3bh_200-prng-1,30_base_hphc_200,200,first-200,111,rng,num-start-541,541,17520,7.9630656242370605,True,,True,1,False,1000,True,1.0
./expes/v2_2020-11-09_3bh_200-prng-1,30_base_hphc_200,200,first-200,41,rng,num-start-411,411,17520,5.946904182434082,True,,True,1,False,1000,True,1.0
./expes/v2_2020-11-09_3bh_200-prng-1,30_base_hphc_200,200,first-200,161,rng,num-start-211,211,17520,2.9425227642059326,True,,True,1,False,1000,True,1.0
./expes/v2_2020-11-09_3bh_200-prng-1,30_base_hphc_200,200,first-200,61,rng,num-start-81,81,17520,1.3525536060333252,True,,True,1,False,1000,True,1.0
./expes/v2_2020-11-09_3bh_200-prng-1,30_base_hphc_200,200,first-200,151,rng,num-start-691,691,17520,9.12039041519165,True,,True,1,False,1000,True,1.0
./expes/v2_2020-11-09_3bh_200-prng-1,30_base_hphc_200,200,first-200,31,rng,num-start-791,791,17520,10.277459621429443,True,,True,1,False,1000,True,1.0
./expes/v2_2020-11-09_3bh_200-prng-1,30_base_hphc_200,200,first-200,131,rng,num-start-811,811,17520,11.51158595085144,True,,True,1,False,1000,True,1.0
./expes/v2_2020-11-09_3bh_200-prng-1,30_base_hphc_200,200,first-200,181,rng,num-start-451,451,17520,6.3589701652526855,True,,True,1,False,1000,True,1.0
./expes/v2_2020-11-09_3bh_200-prng-1,30_base_hphc_200,200,first-200,111,rng,num-start-531,531,17520,8.152228832244873,True,,True,1,False,1000,True,1.0
./expes/v2_2020-11-09_3bh_200-prng-1,30_base_hphc_200,200,first-200,151,rng,num-start-421,421,17520,5.607675790786743,True,,True,1,False,1000,True,1.0
./expes/v2_2020-11-09_3bh_200-prng-1,30_base_hphc_200,200,first-200,111,rng,num-start-841,841,17520,11.608901500701904,True,,True,1,False,1000,True,1.0
./expes/v2_2020-11-09_3bh_200-prng-1,30_base_hphc_200,200,first-200,181,rng,num-start-411,411,17520,5.4929656982421875,True,,True,1,False,1000,True,1.0
./expes/v2_2020-11-09_3bh_200-prng-1,30_base_hphc_200,200,first-200,51,rng,num-start-821,821,17520,10.900956153869629,True,,True,1,False,1000,True,1.0
./expes/v2_2020-11-09_3bh_200-prng-1,30_base_hphc_200,200,first-200,51,rng,num-start-141,141,17520,2.036022901535034,True,,True,1,False,1000,True,1.0
./expes/v2_2020-11-09_3bh_200-prng-1,30_base_hphc_200,200,first-200,91,rng,num-start-31,31,17520,1000.389878988266,False,,False,0,True,1000,True,0.0
./expes/v2_2020-11-09_3bh_200-prng-1,30_base_hphc_200,200,first-200,111,rng,num-start-871,871,17520,12.348482608795166,True,,True,1,False,1000,True,1.0
./expes/v2_2020-11-09_3bh_200-prng-1,30_base_hphc_200,200,first-200,131,rng,num-start-371,371,17520,5.37853741645813,True,,True,1,False,1000,True,1.0
./expes/v2_2020-11-09_3bh_200-prng-1,30_base_hphc_200,200,first-200,151,rng,num-start-31,31,17520,1000.5594308376312,False,,False,0,True,1000,True,0.0
./expes/v2_2020-11-09_3bh_200-prng-1,30_base_hphc_200,200,first-200,131,rng,num-start-141,141,17520,2.0529887676239014,True,,True,1,False,1000,True,1.0
./expes/v2_2020-11-09_3bh_200-prng-1,30_base_hphc_200,200,first-200,141,rng,num-start-511,511,17520,6.982741594314575,True,,True,1,False,1000,True,1.0
./expes/v2_2020-11-09_3bh_200-prng-1,30_base_hphc_200,200,first-200,91,rng,num-start-391,391,17520,5.534140348434448,True,,True,1,False,1000,True,1.0
./expes/v2_2020-11-09_3bh_200-prng-1,30_base_hphc_200,200,first-200,171,rng,num-start-961,961,17520,13.961708545684814,True,,True,1,False,1000,True,1.0
./expes/v2_2020-11-09_3bh_200-prng-1,30_base_hphc_200,200,first-200,11,rng,num-start-341,341,17520,4.310115098953247,True,,True,1,False,1000,True,1.0
./expes/v2_2020-11-09_3bh_200-prng-1,30_base_hphc_200,200,first-200,21,rng,num-start-711,711,17520,9.997254371643066,True,,True,1,False,1000,True,1.0
./expes/v2_2020-11-09_3bh_200-prng-1,30_base_hphc_200,200,first-200,91,rng,num-start-951,951,17520,14.039486646652222,True,,True,1,False,1000,True,1.0
./expes/v2_2020-11-09_3bh_200-prng-1,30_base_hphc_200,200,first-200,91,rng,num-start-901,901,17520,13.136075258255005,True,,True,1,False,1000,True,1.0
./expes/v2_2020-11-09_3bh_200-prng-1,30_base_hphc_200,200,first-200,151,rng,num-start-921,921,17520,13.631757974624634,True,,True,1,False,1000,True,1.0
./expes/v2_2020-11-09_3bh_200-prng-1,30_base_hphc_200,200,first-200,141,rng,num-start-931,931,17520,12.029151439666748,True,,True,1,False,1000,True,1.0
./expes/v2_2020-11-09_3bh_200-prng-1,30_base_hphc_200,200,first-200,131,rng,num-start-871,871,17520,12.499438285827637,True,,True,1,False,1000,True,1.0
./expes/v2_2020-11-09_3bh_200-prng-1,30_base_hphc_200,200,first-200,191,rng,num-start-11,11,17520,16.56256937980652,True,,True,1,False,1000,True,1.0
./expes/v2_2020-11-09_3bh_200-prng-1,30_base_hphc_200,200,first-200,1,rng,num-start-241,241,17520,2.6339688301086426,True,,True,1,False,1000,True,1.0
./expes/v2_2020-11-09_3bh_200-prng-1,30_base_hphc_200,200,first-200,11,rng,num-start-621,621,17520,8.598309755325317,True,,True,1,False,1000,True,1.0
./expes/v2_2020-11-09_3bh_200-prng-1,30_base_hphc_200,200,first-200,191,rng,num-start-401,401,17520,4.828326940536499,True,,True,1,False,1000,True,1.0
./expes/v2_2020-11-09_3bh_200-prng-1,30_base_hphc_200,200,first-200,191,rng,num-start-741,741,17520,9.08995270729065,True,,True,1,False,1000,True,1.0
./expes/v2_2020-11-09_3bh_200-prng-1,30_base_hphc_200,200,first-200,51,rng,num-start-181,181,17520,2.6916325092315674,True,,True,1,False,1000,True,1.0
./expes/v2_2020-11-09_3bh_200-prng-1,30_base_hphc_200,200,first-200,131,rng,num-start-591,591,17520,8.89204716682434,True,,True,1,False,1000,True,1.0
./expes/v2_2020-11-09_3bh_200-prng-1,30_base_hphc_200,200,first-200,181,rng,num-start-381,381,17520,5.146144151687622,True,,True,1,False,1000,True,1.0
./expes/v2_2020-11-09_3bh_200-prng-1,30_base_hphc_200,200,first-200,191,rng,num-start-821,821,17520,10.319100141525269,True,,True,1,False,1000,True,1.0
./expes/v2_2020-11-09_3bh_200-prng-1,30_base_hphc_200,200,first-200,161,rng,num-start-541,541,17520,7.589869260787964,True,,True,1,False,1000,True,1.0
./expes/v2_2020-11-09_3bh_200-prng-1,30_base_hphc_200,200,first-200,71,rng,num-start-701,701,17520,9.851329565048218,True,,True,1,False,1000,True,1.0
./expes/v2_2020-11-09_3bh_200-prng-1,30_base_hphc_200,200,first-200,81,rng,num-start-21,21,17520,1000.3515229225159,False,,False,0,True,1000,True,0.0
./expes/v2_2020-11-09_3bh_200-prng-1,30_base_hphc_200,200,first-200,91,rng,num-start-301,301,17520,4.705217599868774,True,,True,1,False,1000,True,1.0
./expes/v2_2020-11-09_3bh_200-prng-1,30_base_hphc_200,200,first-200,81,rng,num-start-591,591,17520,8.999656915664673,True,,True,1,False,1000,True,1.0
./expes/v2_2020-11-09_3bh_200-prng-1,30_base_hphc_200,200,first-200,141,rng,num-start-581,581,17520,8.67705249786377,True,,True,1,False,1000,True,1.0
./expes/v2_2020-11-09_3bh_200-prng-1,30_base_hphc_200,200,first-200,41,rng,num-start-291,291,17520,4.340869188308716,True,,True,1,False,1000,True,1.0
./expes/v2_2020-11-09_3bh_200-prng-1,30_base_hphc_200,200,first-200,1,rng,num-start-971,971,17520,10.633564472198486,True,,True,1,False,1000,True,1.0
./expes/v2_2020-11-09_3bh_200-prng-1,30_base_hphc_200,200,first-200,81,rng,num-start-501,501,17520,6.9901018142700195,True,,True,1,False,1000,True,1.0
./expes/v2_2020-11-09_3bh_200-prng-1,30_base_hphc_200,200,first-200,171,rng,num-start-771,771,17520,11.469881057739258,True,,True,1,False,1000,True,1.0
./expes/v2_2020-11-09_3bh_200-prng-1,30_base_hphc_200,200,first-200,161,rng,num-start-261,261,17520,4.070272445678711,True,,True,1,False,1000,True,1.0
./expes/v2_2020-11-09_3bh_200-prng-1,30_base_hphc_200,200,first-200,171,rng,num-start-171,171,17520,2.3327481746673584,True,,True,1,False,1000,True,1.0
./expes/v2_2020-11-09_3bh_200-prng-1,30_base_hphc_200,200,first-200,81,rng,num-start-691,691,17520,10.230695962905884,True,,True,1,False,1000,True,1.0
./expes/v2_2020-11-09_3bh_200-prng-1,30_base_hphc_200,200,first-200,31,rng,num-start-331,331,17520,4.282329320907593,True,,True,1,False,1000,True,1.0
./expes/v2_2020-11-09_3bh_200-prng-1,30_base_hphc_200,200,first-200,51,rng,num-start-881,881,17520,14.013436317443848,True,,True,1,False,1000,True,1.0
./expes/v2_2020-11-09_3bh_200-prng-1,30_base_hphc_200,200,first-200,1,rng,num-start-171,171,17520,1.8477602005004883,True,,True,1,False,1000,True,1.0
./expes/v2_2020-11-09_3bh_200-prng-1,30_base_hphc_200,200,first-200,11,rng,num-start-251,251,17520,3.4349541664123535,True,,True,1,False,1000,True,1.0
./expes/v2_2020-11-09_3bh_200-prng-1,30_base_hphc_200,200,first-200,61,rng,num-start-71,71,17520,2.4875826835632324,True,,True,1,False,1000,True,1.0
./expes/v2_2020-11-09_3bh_200-prng-1,30_base_hphc_200,200,first-200,121,rng,num-start-771,771,17520,11.094043493270874,True,,True,1,False,1000,True,1.0
./expes/v2_2020-11-09_3bh_200-prng-1,30_base_hphc_200,200,first-200,191,rng,num-start-411,411,17520,5.1383256912231445,True,,True,1,False,1000,True,1.0
./expes/v2_2020-11-09_3bh_200-prng-1,30_base_hphc_200,200,first-200,81,rng,num-start-511,511,17520,7.415158987045288,True,,True,1,False,1000,True,1.0
./expes/v2_2020-11-09_3bh_200-prng-1,30_base_hphc_200,200,first-200,181,rng,num-start-411,411,17520,5.585373640060425,True,,True,1,False,1000,True,1.0
./expes/v2_2020-11-09_3bh_200-prng-1,30_base_hphc_200,200,first-200,1,rng,num-start-281,281,17520,3.098552942276001,True,,True,1,False,1000,True,1.0
./expes/v2_2020-11-09_3bh_200-prng-1,30_base_hphc_200,200,first-200,21,rng,num-start-911,911,17520,12.579807996749878,True,,True,1,False,1000,True,1.0
./expes/v2_2020-11-09_3bh_200-prng-1,30_base_hphc_200,200,first-200,61,rng,num-start-591,591,17520,8.858562231063843,True,,True,1,False,1000,True,1.0
./expes/v2_2020-11-09_3bh_200-prng-1,30_base_hphc_200,200,first-200,131,rng,num-start-801,801,17520,12.062180042266846,True,,True,1,False,1000,True,1.0
./expes/v2_2020-11-09_3bh_200-prng-1,30_base_hphc_200,200,first-200,1,rng,num-start-421,421,17520,4.624380588531494,True,,True,1,False,1000,True,1.0
./expes/v2_2020-11-09_3bh_200-prng-1,30_base_hphc_200,200,first-200,11,rng,num-start-781,781,17520,12.329659700393677,True,,True,1,False,1000,True,1.0
./expes/v2_2020-11-09_3bh_200-prng-1,30_base_hphc_200,200,first-200,101,rng,num-start-241,241,17520,3.8639583587646484,True,,True,1,False,1000,True,1.0
./expes/v2_2020-11-09_3bh_200-prng-1,30_base_hphc_200,200,first-200,101,rng,num-start-411,411,17520,5.861603021621704,True,,True,1,False,1000,True,1.0
./expes/v2_2020-11-09_3bh_200-prng-1,30_base_hphc_200,200,first-200,131,rng,num-start-851,851,17520,11.912251710891724,True,,True,1,False,1000,True,1.0
./expes/v2_2020-11-09_3bh_200-prng-1,30_base_hphc_200,200,first-200,71,rng,num-start-891,891,17520,14.961626291275024,True,,True,1,False,1000,True,1.0
./expes/v2_2020-11-09_3bh_200-prng-1,30_base_hphc_200,200,first-200,11,rng,num-start-491,491,17520,6.484008550643921,True,,True,1,False,1000,True,1.0
./expes/v2_2020-11-09_3bh_200-prng-1,30_base_hphc_200,200,first-200,151,rng,num-start-371,371,17520,5.414122819900513,True,,True,1,False,1000,True,1.0
./expes/v2_2020-11-09_3bh_200-prng-1,30_base_hphc_200,200,first-200,71,rng,num-start-581,581,17520,9.401004076004028,True,,True,1,False,1000,True,1.0
./expes/v2_2020-11-09_3bh_200-prng-1,30_base_hphc_200,200,first-200,1,rng,num-start-71,71,17520,0.7793478965759277,True,,True,1,False,1000,True,1.0
./expes/v2_2020-11-09_3bh_200-prng-1,30_base_hphc_200,200,first-200,81,rng,num-start-281,281,17520,4.153931617736816,True,,True,1,False,1000,True,1.0
./expes/v2_2020-11-09_3bh_200-prng-1,30_base_hphc_200,200,first-200,41,rng,num-start-261,261,17520,3.9412753582000732,True,,True,1,False,1000,True,1.0
./expes/v2_2020-11-09_3bh_200-prng-1,30_base_hphc_200,200,first-200,11,rng,num-start-381,381,17520,4.826709032058716,True,,True,1,False,1000,True,1.0
./expes/v2_2020-11-09_3bh_200-prng-1,30_base_hphc_200,200,first-200,181,rng,num-start-681,681,17520,8.984435081481934,True,,True,1,False,1000,True,1.0
./expes/v2_2020-11-09_3bh_200-prng-1,30_base_hphc_200,200,first-200,111,rng,num-start-641,641,17520,9.389405012130737,True,,True,1,False,1000,True,1.0
./expes/v2_2020-11-09_3bh_200-prng-1,30_base_hphc_200,200,first-200,81,rng,num-start-251,251,17520,3.6850178241729736,True,,True,1,False,1000,True,1.0
./expes/v2_2020-11-09_3bh_200-prng-1,30_base_hphc_200,200,first-200,51,rng,num-start-921,921,17520,11.999660730361938,True,,True,1,False,1000,True,1.0
./expes/v2_2020-11-09_3bh_200-prng-1,30_base_hphc_200,200,first-200,121,rng,num-start-321,321,17520,4.412120580673218,True,,True,1,False,1000,True,1.0
./expes/v2_2020-11-09_3bh_200-prng-1,30_base_hphc_200,200,first-200,61,rng,num-start-931,931,17520,14.120550394058228,True,,True,1,False,1000,True,1.0
./expes/v2_2020-11-09_3bh_200-prng-1,30_base_hphc_200,200,first-200,71,rng,num-start-371,371,17520,5.100436449050903,True,,True,1,False,1000,True,1.0
./expes/v2_2020-11-09_3bh_200-prng-1,30_base_hphc_200,200,first-200,141,rng,num-start-781,781,17520,10.774813890457153,True,,True,1,False,1000,True,1.0
./expes/v2_2020-11-09_3bh_200-prng-1,30_base_hphc_200,200,first-200,61,rng,num-start-411,411,17520,5.863494396209717,True,,True,1,False,1000,True,1.0
./expes/v2_2020-11-09_3bh_200-prng-1,30_base_hphc_200,200,first-200,41,rng,num-start-411,411,17520,5.914777040481567,True,,True,1,False,1000,True,1.0
./expes/v2_2020-11-09_3bh_200-prng-1,30_base_hphc_200,200,first-200,31,rng,num-start-821,821,17520,10.692094564437866,True,,True,1,False,1000,True,1.0
./expes/v2_2020-11-09_3bh_200-prng-1,30_base_hphc_200,200,first-200,11,rng,num-start-881,881,17520,10.095230102539062,True,,True,1,False,1000,True,1.0
./expes/v2_2020-11-09_3bh_200-prng-1,30_base_hphc_200,200,first-200,111,rng,num-start-851,851,17520,12.254331350326538,True,,True,1,False,1000,True,1.0
./expes/v2_2020-11-09_3bh_200-prng-1,30_base_hphc_200,200,first-200,161,rng,num-start-511,511,17520,6.490336179733276,True,,True,1,False,1000,True,1.0
./expes/v2_2020-11-09_3bh_200-prng-1,30_base_hphc_200,200,first-200,91,rng,num-start-441,441,17520,6.576948881149292,True,,True,1,False,1000,True,1.0
./expes/v2_2020-11-09_3bh_200-prng-1,30_base_hphc_200,200,first-200,171,rng,num-start-381,381,17520,5.3645851612091064,True,,True,1,False,1000,True,1.0
./expes/v2_2020-11-09_3bh_200-prng-1,30_base_hphc_200,200,first-200,131,rng,num-start-131,131,17520,1.897552728652954,True,,True,1,False,1000,True,1.0
./expes/v2_2020-11-09_3bh_200-prng-1,30_base_hphc_200,200,first-200,71,rng,num-start-11,11,17520,1000.177806854248,False,,False,0,True,1000,True,0.0
./expes/v2_2020-11-09_3bh_200-prng-1,30_base_hphc_200,200,first-200,161,rng,num-start-601,601,17520,8.869604587554932,True,,True,1,False,1000,True,1.0
./expes/v2_2020-11-09_3bh_200-prng-1,30_base_hphc_200,200,first-200,71,rng,num-start-701,701,17520,10.020961284637451,True,,True,1,False,1000,True,1.0
./expes/v2_2020-11-09_3bh_200-prng-1,30_base_hphc_200,200,first-200,131,rng,num-start-361,361,17520,5.205279111862183,True,,True,1,False,1000,True,1.0
./expes/v2_2020-11-09_3bh_200-prng-1,30_base_hphc_200,200,first-200,131,rng,num-start-291,291,17520,4.329712390899658,True,,True,1,False,1000,True,1.0
./expes/v2_2020-11-09_3bh_200-prng-1,30_base_hphc_200,200,first-200,11,rng,num-start-151,151,17520,2.1691722869873047,True,,True,1,False,1000,True,1.0
./expes/v2_2020-11-09_3bh_200-prng-1,30_base_hphc_200,200,first-200,141,rng,num-start-911,911,17520,13.676866054534912,True,,True,1,False,1000,True,1.0
./expes/v2_2020-11-09_3bh_200-prng-1,30_base_hphc_200,200,first-200,141,rng,num-start-601,601,17520,9.419085264205933,True,,True,1,False,1000,True,1.0
./expes/v2_2020-11-09_3bh_200-prng-1,30_base_hphc_200,200,first-200,91,rng,num-start-161,161,17520,2.5006508827209473,True,,True,1,False,1000,True,1.0
./expes/v2_2020-11-09_3bh_200-prng-1,30_base_hphc_200,200,first-200,171,rng,num-start-461,461,17520,6.2950663566589355,True,,True,1,False,1000,True,1.0
./expes/v2_2020-11-09_3bh_200-prng-1,30_base_hphc_200,200,first-200,11,rng,num-start-671,671,17520,8.34558367729187,True,,True,1,False,1000,True,1.0
./expes/v2_2020-11-09_3bh_200-prng-1,30_base_hphc_200,200,first-200,91,rng,num-start-221,221,17520,3.5421817302703857,True,,True,1,False,1000,True,1.0
./expes/v2_2020-11-09_3bh_200-prng-1,30_base_hphc_200,200,first-200,191,rng,num-start-681,681,17520,8.200807332992554,True,,True,1,False,1000,True,1.0
./expes/v2_2020-11-09_3bh_200-prng-1,30_base_hphc_200,200,first-200,101,rng,num-start-231,231,17520,3.4528703689575195,True,,True,1,False,1000,True,1.0
./expes/v2_2020-11-09_3bh_200-prng-1,30_base_hphc_200,200,first-200,181,rng,num-start-381,381,17520,4.9207799434661865,True,,True,1,False,1000,True,1.0
./expes/v2_2020-11-09_3bh_200-prng-1,30_base_hphc_200,200,first-200,81,rng,num-start-891,891,17520,11.788031101226807,True,,True,1,False,1000,True,1.0
./expes/v2_2020-11-09_3bh_200-prng-1,30_base_hphc_200,200,first-200,141,rng,num-start-31,31,17520,1000.5118777751923,False,,False,0,True,1000,True,0.0
./expes/v2_2020-11-09_3bh_200-prng-1,30_base_hphc_200,200,first-200,181,rng,num-start-951,951,17520,13.080556392669678,True,,True,1,False,1000,True,1.0
./expes/v2_2020-11-09_3bh_200-prng-1,30_base_hphc_200,200,first-200,21,rng,num-start-961,961,17520,15.470869302749634,True,,True,1,False,1000,True,1.0
./expes/v2_2020-11-09_3bh_200-prng-1,30_base_hphc_200,200,first-200,161,rng,num-start-301,301,17520,4.015657663345337,True,,True,1,False,1000,True,1.0
./expes/v2_2020-11-09_3bh_200-prng-1,30_base_hphc_200,200,first-200,21,rng,num-start-211,211,17520,3.200538158416748,True,,True,1,False,1000,True,1.0
./expes/v2_2020-11-09_3bh_200-prng-1,30_base_hphc_200,200,first-200,31,rng,num-start-21,21,17520,1000.9061200618744,False,,False,0,True,1000,True,0.0
./expes/v2_2020-11-09_3bh_200-prng-1,30_base_hphc_200,200,first-200,191,rng,num-start-721,721,17520,8.518814086914062,True,,True,1,False,1000,True,1.0
./expes/v2_2020-11-09_3bh_200-prng-1,30_base_hphc_200,200,first-200,31,rng,num-start-851,851,17520,11.118197202682495,True,,True,1,False,1000,True,1.0
./expes/v2_2020-11-09_3bh_200-prng-1,30_base_hphc_200,200,first-200,1,rng,num-start-611,611,17520,6.669703245162964,True,,True,1,False,1000,True,1.0
./expes/v2_2020-11-09_3bh_200-prng-1,30_base_hphc_200,200,first-200,1,rng,num-start-671,671,17520,7.3362205028533936,True,,True,1,False,1000,True,1.0
./expes/v2_2020-11-09_3bh_200-prng-1,30_base_hphc_200,200,first-200,191,rng,num-start-841,841,17520,9.763067245483398,True,,True,1,False,1000,True,1.0
./expes/v2_2020-11-09_3bh_200-prng-1,30_base_hphc_200,200,first-200,111,rng,num-start-481,481,17520,6.703859567642212,True,,True,1,False,1000,True,1.0
./expes/v2_2020-11-09_3bh_200-prng-1,30_base_hphc_200,200,first-200,11,rng,num-start-791,791,17520,10.138592004776001,True,,True,1,False,1000,True,1.0
./expes/v2_2020-11-09_3bh_200-prng-1,30_base_hphc_200,200,first-200,41,rng,num-start-781,781,17520,10.706369161605835,True,,True,1,False,1000,True,1.0
./expes/v2_2020-11-09_3bh_200-prng-1,30_base_hphc_200,200,first-200,21,rng,num-start-211,211,17520,2.974234104156494,True,,True,1,False,1000,True,1.0
./expes/v2_2020-11-09_3bh_200-prng-1,30_base_hphc_200,200,first-200,161,rng,num-start-711,711,17520,9.500781536102295,True,,True,1,False,1000,True,1.0
./expes/v2_2020-11-09_3bh_200-prng-1,30_base_hphc_200,200,first-200,141,rng,num-start-971,971,17520,14.990304231643677,True,,True,1,False,1000,True,1.0
./expes/v2_2020-11-09_3bh_200-prng-1,30_base_hphc_200,200,first-200,181,rng,num-start-411,411,17520,5.2128448486328125,True,,True,1,False,1000,True,1.0
./expes/v2_2020-11-09_3bh_200-prng-1,30_base_hphc_200,200,first-200,121,rng,num-start-591,591,17520,9.004442691802979,True,,True,1,False,1000,True,1.0
./expes/v2_2020-11-09_3bh_200-prng-1,30_base_hphc_200,200,first-200,11,rng,num-start-421,421,17520,5.882357358932495,True,,True,1,False,1000,True,1.0
./expes/v2_2020-11-09_3bh_200-prng-1,30_base_hphc_200,200,first-200,191,rng,num-start-871,871,17520,10.744633197784424,True,,True,1,False,1000,True,1.0
./expes/v2_2020-11-09_3bh_200-prng-1,30_base_hphc_200,200,first-200,71,rng,num-start-441,441,17520,6.206644296646118,True,,True,1,False,1000,True,1.0
./expes/v2_2020-11-09_3bh_200-prng-1,30_base_hphc_200,200,first-200,191,rng,num-start-391,391,17520,4.621181488037109,True,,True,1,False,1000,True,1.0
./expes/v2_2020-11-09_3bh_200-prng-1,30_base_hphc_200,200,first-200,161,rng,num-start-721,721,17520,9.605323076248169,True,,True,1,False,1000,True,1.0
./expes/v2_2020-11-09_3bh_200-prng-1,30_base_hphc_200,200,first-200,21,rng,num-start-571,571,17520,8.52743673324585,True,,True,1,False,1000,True,1.0
./expes/v2_2020-11-09_3bh_200-prng-1,30_base_hphc_200,200,first-200,191,rng,num-start-491,491,17520,6.120433568954468,True,,True,1,False,1000,True,1.0
./expes/v2_2020-11-09_3bh_200-prng-1,30_base_hphc_200,200,first-200,171,rng,num-start-541,541,17520,8.096994400024414,True,,True,1,False,1000,True,1.0
./expes/v2_2020-11-09_3bh_200-prng-1,30_base_hphc_200,200,first-200,61,rng,num-start-631,631,17520,9.089529037475586,True,,True,1,False,1000,True,1.0
./expes/v2_2020-11-09_3bh_200-prng-1,30_base_hphc_200,200,first-200,71,rng,num-start-41,41,17520,1000.5337538719177,False,,False,0,True,1000,True,0.0
./expes/v2_2020-11-09_3bh_200-prng-1,30_base_hphc_200,200,first-200,21,rng,num-start-751,751,17520,9.829826831817627,True,,True,1,False,1000,True,1.0
./expes/v2_2020-11-09_3bh_200-prng-1,30_base_hphc_200,200,first-200,31,rng,num-start-681,681,17520,9.61104416847229,True,,True,1,False,1000,True,1.0
./expes/v2_2020-11-09_3bh_200-prng-1,30_base_hphc_200,200,first-200,191,rng,num-start-101,101,17520,1.4268629550933838,True,,True,1,False,1000,True,1.0
./expes/v2_2020-11-09_3bh_200-prng-1,30_base_hphc_200,200,first-200,31,rng,num-start-651,651,17520,8.213146448135376,True,,True,1,False,1000,True,1.0
./expes/v2_2020-11-09_3bh_200-prng-1,30_base_hphc_200,200,first-200,121,rng,num-start-541,541,17520,7.795497417449951,True,,True,1,False,1000,True,1.0
./expes/v2_2020-11-09_3bh_200-prng-1,30_base_hphc_200,200,first-200,31,rng,num-start-251,251,17520,3.5967869758605957,True,,True,1,False,1000,True,1.0
./expes/v2_2020-11-09_3bh_200-prng-1,30_base_hphc_200,200,first-200,61,rng,num-start-901,901,17520,12.416227579116821,True,,True,1,False,1000,True,1.0
./expes/v2_2020-11-09_3bh_200-prng-1,30_base_hphc_200,200,first-200,191,rng,num-start-321,321,17520,4.071958303451538,True,,True,1,False,1000,True,1.0
./expes/v2_2020-11-09_3bh_200-prng-1,30_base_hphc_200,200,first-200,161,rng,num-start-511,511,17520,7.292705059051514,True,,True,1,False,1000,True,1.0
./expes/v2_2020-11-09_3bh_200-prng-1,30_base_hphc_200,200,first-200,141,rng,num-start-911,911,17520,12.653969764709473,True,,True,1,False,1000,True,1.0
./expes/v2_2020-11-09_3bh_200-prng-1,30_base_hphc_200,200,first-200,51,rng,num-start-761,761,17520,11.28465223312378,True,,True,1,False,1000,True,1.0
./expes/v2_2020-11-09_3bh_200-prng-1,30_base_hphc_200,200,first-200,161,rng,num-start-541,541,17520,7.645085334777832,True,,True,1,False,1000,True,1.0
./expes/v2_2020-11-09_3bh_200-prng-1,30_base_hphc_200,200,first-200,71,rng,num-start-801,801,17520,12.131251335144043,True,,True,1,False,1000,True,1.0
./expes/v2_2020-11-09_3bh_200-prng-1,30_base_hphc_200,200,first-200,31,rng,num-start-951,951,17520,12.361674547195435,True,,True,1,False,1000,True,1.0
./expes/v2_2020-11-09_3bh_200-prng-1,30_base_hphc_200,200,first-200,31,rng,num-start-821,821,17520,10.553322792053223,True,,True,1,False,1000,True,1.0
./expes/v2_2020-11-09_3bh_200-prng-1,30_base_hphc_200,200,first-200,131,rng,num-start-201,201,17520,2.967867136001587,True,,True,1,False,1000,True,1.0
./expes/v2_2020-11-09_3bh_200-prng-1,30_base_hphc_200,200,first-200,71,rng,num-start-991,991,17520,14.704493045806885,True,,True,1,False,1000,True,1.0
./expes/v2_2020-11-09_3bh_200-prng-1,30_base_hphc_200,200,first-200,31,rng,num-start-421,421,17520,6.4026477336883545,True,,True,1,False,1000,True,1.0
./expes/v2_2020-11-09_3bh_200-prng-1,30_base_hphc_200,200,first-200,141,rng,num-start-941,941,17520,16.03288960456848,True,,True,1,False,1000,True,1.0
./expes/v2_2020-11-09_3bh_200-prng-1,30_base_hphc_200,200,first-200,151,rng,num-start-881,881,17520,12.89667296409607,True,,True,1,False,1000,True,1.0
./expes/v2_2020-11-09_3bh_200-prng-1,30_base_hphc_200,200,first-200,1,rng,num-start-871,871,17520,9.590198755264282,True,,True,1,False,1000,True,1.0
./expes/v2_2020-11-09_3bh_200-prng-1,30_base_hphc_200,200,first-200,181,rng,num-start-991,991,17520,13.85115671157837,True,,True,1,False,1000,True,1.0
./expes/v2_2020-11-09_3bh_200-prng-1,30_base_hphc_200,200,first-200,141,rng,num-start-261,261,17520,4.031927824020386,True,,True,1,False,1000,True,1.0
./expes/v2_2020-11-09_3bh_200-prng-1,30_base_hphc_200,200,first-200,61,rng,num-start-781,781,17520,12.092034816741943,True,,True,1,False,1000,True,1.0
./expes/v2_2020-11-09_3bh_200-prng-1,30_base_hphc_200,200,first-200,31,rng,num-start-671,671,17520,8.771537780761719,True,,True,1,False,1000,True,1.0
./expes/v2_2020-11-09_3bh_200-prng-1,30_base_hphc_200,200,first-200,91,rng,num-start-731,731,17520,10.40488862991333,True,,True,1,False,1000,True,1.0
./expes/v2_2020-11-09_3bh_200-prng-1,30_base_hphc_200,200,first-200,101,rng,num-start-771,771,17520,10.029427289962769,True,,True,1,False,1000,True,1.0
./expes/v2_2020-11-09_3bh_200-prng-1,30_base_hphc_200,200,first-200,181,rng,num-start-881,881,17520,12.2488112449646,True,,True,1,False,1000,True,1.0
./expes/v2_2020-11-09_3bh_200-prng-1,30_base_hphc_200,200,first-200,181,rng,num-start-51,51,17520,0.9275970458984375,True,,True,1,False,1000,True,1.0
./expes/v2_2020-11-09_3bh_200-prng-1,30_base_hphc_200,200,first-200,1,rng,num-start-461,461,17520,5.089691877365112,True,,True,1,False,1000,True,1.0
./expes/v2_2020-11-09_3bh_200-prng-1,30_base_hphc_200,200,first-200,41,rng,num-start-371,371,17520,5.382365942001343,True,,True,1,False,1000,True,1.0
./expes/v2_2020-11-09_3bh_200-prng-1,30_base_hphc_200,200,first-200,111,rng,num-start-861,861,17520,12.749372720718384,True,,True,1,False,1000,True,1.0
./expes/v2_2020-11-09_3bh_200-prng-1,30_base_hphc_200,200,first-200,71,rng,num-start-421,421,17520,5.656979084014893,True,,True,1,False,1000,True,1.0
./expes/v2_2020-11-09_3bh_200-prng-1,30_base_hphc_200,200,first-200,71,rng,num-start-381,381,17520,5.278411626815796,True,,True,1,False,1000,True,1.0
./expes/v2_2020-11-09_3bh_200-prng-1,30_base_hphc_200,200,first-200,41,rng,num-start-331,331,17520,4.57050633430481,True,,True,1,False,1000,True,1.0
./expes/v2_2020-11-09_3bh_200-prng-1,30_base_hphc_200,200,first-200,161,rng,num-start-271,271,17520,3.8909738063812256,True,,True,1,False,1000,True,1.0
./expes/v2_2020-11-09_3bh_200-prng-1,30_base_hphc_200,200,first-200,61,rng,num-start-961,961,17520,13.51205587387085,True,,True,1,False,1000,True,1.0
./expes/v2_2020-11-09_3bh_200-prng-1,30_base_hphc_200,200,first-200,31,rng,num-start-911,911,17520,12.021151304244995,True,,True,1,False,1000,True,1.0
./expes/v2_2020-11-09_3bh_200-prng-1,30_base_hphc_200,200,first-200,141,rng,num-start-251,251,17520,3.9128596782684326,True,,True,1,False,1000,True,1.0
./expes/v2_2020-11-09_3bh_200-prng-1,30_base_hphc_200,200,first-200,101,rng,num-start-321,321,17520,4.731467962265015,True,,True,1,False,1000,True,1.0
./expes/v2_2020-11-09_3bh_200-prng-1,30_base_hphc_200,200,first-200,131,rng,num-start-181,181,17520,2.741220712661743,True,,True,1,False,1000,True,1.0
./expes/v2_2020-11-09_3bh_200-prng-1,30_base_hphc_200,200,first-200,91,rng,num-start-221,221,17520,3.2401680946350098,True,,True,1,False,1000,True,1.0
./expes/v2_2020-11-09_3bh_200-prng-1,30_base_hphc_200,200,first-200,81,rng,num-start-701,701,17520,10.490991353988647,True,,True,1,False,1000,True,1.0
./expes/v2_2020-11-09_3bh_200-prng-1,30_base_hphc_200,200,first-200,171,rng,num-start-501,501,17520,6.782061815261841,True,,True,1,False,1000,True,1.0
./expes/v2_2020-11-09_3bh_200-prng-1,30_base_hphc_200,200,first-200,61,rng,num-start-491,491,17520,6.533653974533081,True,,True,1,False,1000,True,1.0
./expes/v2_2020-11-09_3bh_200-prng-1,30_base_hphc_200,200,first-200,161,rng,num-start-701,701,17520,10.003267288208008,True,,True,1,False,1000,True,1.0
./expes/v2_2020-11-09_3bh_200-prng-1,30_base_hphc_200,200,first-200,71,rng,num-start-91,91,17520,1.628871202468872,True,,True,1,False,1000,True,1.0
./expes/v2_2020-11-09_3bh_200-prng-1,30_base_hphc_200,200,first-200,131,rng,num-start-821,821,17520,13.61870288848877,True,,True,1,False,1000,True,1.0
./expes/v2_2020-11-09_3bh_200-prng-1,30_base_hphc_200,200,first-200,191,rng,num-start-811,811,17520,10.12313985824585,True,,True,1,False,1000,True,1.0
./expes/v2_2020-11-09_3bh_200-prng-1,30_base_hphc_200,200,first-200,71,rng,num-start-111,111,17520,1.8882718086242676,True,,True,1,False,1000,True,1.0
./expes/v2_2020-11-09_3bh_200-prng-1,30_base_hphc_200,200,first-200,151,rng,num-start-731,731,17520,10.687289714813232,True,,True,1,False,1000,True,1.0
./expes/v2_2020-11-09_3bh_200-prng-1,30_base_hphc_200,200,first-200,51,rng,num-start-471,471,17520,6.972644567489624,True,,True,1,False,1000,True,1.0
./expes/v2_2020-11-09_3bh_200-prng-1,30_base_hphc_200,200,first-200,181,rng,num-start-581,581,17520,7.771061420440674,True,,True,1,False,1000,True,1.0
./expes/v2_2020-11-09_3bh_200-prng-1,30_base_hphc_200,200,first-200,51,rng,num-start-441,441,17520,6.358948230743408,True,,True,1,False,1000,True,1.0
./expes/v2_2020-11-09_3bh_200-prng-1,30_base_hphc_200,200,first-200,31,rng,num-start-851,851,17520,12.091057777404785,True,,True,1,False,1000,True,1.0
./expes/v2_2020-11-09_3bh_200-prng-1,30_base_hphc_200,200,first-200,91,rng,num-start-461,461,17520,6.714680910110474,True,,True,1,False,1000,True,1.0
./expes/v2_2020-11-09_3bh_200-prng-1,30_base_hphc_200,200,first-200,1,rng,num-start-591,591,17520,6.516125679016113,True,,True,1,False,1000,True,1.0
./expes/v2_2020-11-09_3bh_200-prng-1,30_base_hphc_200,200,first-200,41,rng,num-start-991,991,17520,12.940525531768799,True,,True,1,False,1000,True,1.0
./expes/v2_2020-11-09_3bh_200-prng-1,30_base_hphc_200,200,first-200,81,rng,num-start-961,961,17520,16.411726474761963,True,,True,1,False,1000,True,1.0
./expes/v2_2020-11-09_3bh_200-prng-1,30_base_hphc_200,200,first-200,161,rng,num-start-311,311,17520,4.496027946472168,True,,True,1,False,1000,True,1.0
./expes/v2_2020-11-09_3bh_200-prng-1,30_base_hphc_200,200,first-200,151,rng,num-start-181,181,17520,3.233269691467285,True,,True,1,False,1000,True,1.0
./expes/v2_2020-11-09_3bh_200-prng-1,30_base_hphc_200,200,first-200,141,rng,num-start-781,781,17520,10.71104645729065,True,,True,1,False,1000,True,1.0
./expes/v2_2020-11-09_3bh_200-prng-1,30_base_hphc_200,200,first-200,31,rng,num-start-231,231,17520,3.5166208744049072,True,,True,1,False,1000,True,1.0
./expes/v2_2020-11-09_3bh_200-prng-1,30_base_hphc_200,200,first-200,111,rng,num-start-301,301,17520,4.6426239013671875,True,,True,1,False,1000,True,1.0
./expes/v2_2020-11-09_3bh_200-prng-1,30_base_hphc_200,200,first-200,121,rng,num-start-481,481,17520,6.765244483947754,True,,True,1,False,1000,True,1.0
./expes/v2_2020-11-09_3bh_200-prng-1,30_base_hphc_200,200,first-200,131,rng,num-start-561,561,17520,8.333902835845947,True,,True,1,False,1000,True,1.0
./expes/v2_2020-11-09_3bh_200-prng-1,30_base_hphc_200,200,first-200,181,rng,num-start-61,61,17520,1.0871539115905762,True,,True,1,False,1000,True,1.0
./expes/v2_2020-11-09_3bh_200-prng-1,30_base_hphc_200,200,first-200,111,rng,num-start-221,221,17520,3.3411343097686768,True,,True,1,False,1000,True,1.0
./expes/v2_2020-11-09_3bh_200-prng-1,30_base_hphc_200,200,first-200,41,rng,num-start-881,881,17520,12.676509857177734,True,,True,1,False,1000,True,1.0
./expes/v2_2020-11-09_3bh_200-prng-1,30_base_hphc_200,200,first-200,171,rng,num-start-681,681,17520,9.625387907028198,True,,True,1,False,1000,True,1.0
./expes/v2_2020-11-09_3bh_200-prng-1,30_base_hphc_200,200,first-200,41,rng,num-start-81,81,17520,1.1277472972869873,True,,True,1,False,1000,True,1.0
./expes/v2_2020-11-09_3bh_200-prng-1,30_base_hphc_200,200,first-200,91,rng,num-start-551,551,17520,8.274186611175537,True,,True,1,False,1000,True,1.0
