expe,clients,clients_size,clients_subset,agg_size,method,days,days_size,days_total,time,valid,valid_sum,success,nsols,wall_hit,wall_time,pooled,valid_sums
./expes/v2_2020-11-09_3bh_200-prng-1,30_base_hphc_200,200,first-200,81,rng,num-start-991,991,17520,14.56490707397461,True,,True,1,False,1000,True,1.0
./expes/v2_2020-11-09_3bh_200-prng-1,30_base_hphc_200,200,first-200,31,rng,num-start-721,721,17520,11.237708806991577,True,,True,1,False,1000,True,1.0
./expes/v2_2020-11-09_3bh_200-prng-1,30_base_hphc_200,200,first-200,171,rng,num-start-651,651,17520,9.61371636390686,True,,True,1,False,1000,True,1.0
./expes/v2_2020-11-09_3bh_200-prng-1,30_base_hphc_200,200,first-200,191,rng,num-start-301,301,17520,3.9943430423736572,True,,True,1,False,1000,True,1.0
./expes/v2_2020-11-09_3bh_200-prng-1,30_base_hphc_200,200,first-200,131,rng,num-start-621,621,17520,10.559507608413696,True,,True,1,False,1000,True,1.0
./expes/v2_2020-11-09_3bh_200-prng-1,30_base_hphc_200,200,first-200,171,rng,num-start-361,361,17520,5.117444753646851,True,,True,1,False,1000,True,1.0
./expes/v2_2020-11-09_3bh_200-prng-1,30_base_hphc_200,200,first-200,121,rng,num-start-721,721,17520,11.77095079421997,True,,True,1,False,1000,True,1.0
./expes/v2_2020-11-09_3bh_200-prng-1,30_base_hphc_200,200,first-200,171,rng,num-start-951,951,17520,11.940492868423462,True,,True,1,False,1000,True,1.0
./expes/v2_2020-11-09_3bh_200-prng-1,30_base_hphc_200,200,first-200,71,rng,num-start-241,241,17520,3.876643180847168,True,,True,1,False,1000,True,1.0
./expes/v2_2020-11-09_3bh_200-prng-1,30_base_hphc_200,200,first-200,81,rng,num-start-811,811,17520,11.027109384536743,True,,True,1,False,1000,True,1.0
./expes/v2_2020-11-09_3bh_200-prng-1,30_base_hphc_200,200,first-200,11,rng,num-start-61,61,17520,0.9139735698699951,True,,True,1,False,1000,True,1.0
./expes/v2_2020-11-09_3bh_200-prng-1,30_base_hphc_200,200,first-200,181,rng,num-start-41,41,17520,1.1723060607910156,True,,True,1,False,1000,True,1.0
./expes/v2_2020-11-09_3bh_200-prng-1,30_base_hphc_200,200,first-200,151,rng,num-start-981,981,17520,12.639286994934082,True,,True,1,False,1000,True,1.0
./expes/v2_2020-11-09_3bh_200-prng-1,30_base_hphc_200,200,first-200,51,rng,num-start-531,531,17520,7.561967372894287,True,,True,1,False,1000,True,1.0
./expes/v2_2020-11-09_3bh_200-prng-1,30_base_hphc_200,200,first-200,21,rng,num-start-281,281,17520,4.419475555419922,True,,True,1,False,1000,True,1.0
./expes/v2_2020-11-09_3bh_200-prng-1,30_base_hphc_200,200,first-200,11,rng,num-start-111,111,17520,1.7995054721832275,True,,True,1,False,1000,True,1.0
./expes/v2_2020-11-09_3bh_200-prng-1,30_base_hphc_200,200,first-200,141,rng,num-start-391,391,17520,5.479223012924194,True,,True,1,False,1000,True,1.0
./expes/v2_2020-11-09_3bh_200-prng-1,30_base_hphc_200,200,first-200,61,rng,num-start-851,851,17520,12.505730390548706,True,,True,1,False,1000,True,1.0
./expes/v2_2020-11-09_3bh_200-prng-1,30_base_hphc_200,200,first-200,121,rng,num-start-161,161,17520,2.5433871746063232,True,,True,1,False,1000,True,1.0
./expes/v2_2020-11-09_3bh_200-prng-1,30_base_hphc_200,200,first-200,41,rng,num-start-651,651,17520,9.181825160980225,True,,True,1,False,1000,True,1.0
./expes/v2_2020-11-09_3bh_200-prng-1,30_base_hphc_200,200,first-200,41,rng,num-start-511,511,17520,7.113287687301636,True,,True,1,False,1000,True,1.0
./expes/v2_2020-11-09_3bh_200-prng-1,30_base_hphc_200,200,first-200,41,rng,num-start-841,841,17520,12.472135543823242,True,,True,1,False,1000,True,1.0
./expes/v2_2020-11-09_3bh_200-prng-1,30_base_hphc_200,200,first-200,101,rng,num-start-991,991,17520,14.12583041191101,True,,True,1,False,1000,True,1.0
./expes/v2_2020-11-09_3bh_200-prng-1,30_base_hphc_200,200,first-200,151,rng,num-start-231,231,17520,3.533755302429199,True,,True,1,False,1000,True,1.0
./expes/v2_2020-11-09_3bh_200-prng-1,30_base_hphc_200,200,first-200,21,rng,num-start-131,131,17520,1.965411901473999,True,,True,1,False,1000,True,1.0
./expes/v2_2020-11-09_3bh_200-prng-1,30_base_hphc_200,200,first-200,151,rng,num-start-591,591,17520,8.797978639602661,True,,True,1,False,1000,True,1.0
./expes/v2_2020-11-09_3bh_200-prng-1,30_base_hphc_200,200,first-200,1,rng,num-start-151,151,17520,1.642589807510376,True,,True,1,False,1000,True,1.0
./expes/v2_2020-11-09_3bh_200-prng-1,30_base_hphc_200,200,first-200,31,rng,num-start-771,771,17520,11.168471813201904,True,,True,1,False,1000,True,1.0
./expes/v2_2020-11-09_3bh_200-prng-1,30_base_hphc_200,200,first-200,51,rng,num-start-131,131,17520,1.9982757568359375,True,,True,1,False,1000,True,1.0
./expes/v2_2020-11-09_3bh_200-prng-1,30_base_hphc_200,200,first-200,21,rng,num-start-791,791,17520,11.515767335891724,True,,True,1,False,1000,True,1.0
./expes/v2_2020-11-09_3bh_200-prng-1,30_base_hphc_200,200,first-200,111,rng,num-start-961,961,17520,13.94777536392212,True,,True,1,False,1000,True,1.0
./expes/v2_2020-11-09_3bh_200-prng-1,30_base_hphc_200,200,first-200,41,rng,num-start-431,431,17520,6.257112264633179,True,,True,1,False,1000,True,1.0
./expes/v2_2020-11-09_3bh_200-prng-1,30_base_hphc_200,200,first-200,121,rng,num-start-711,711,17520,9.910058975219727,True,,True,1,False,1000,True,1.0
./expes/v2_2020-11-09_3bh_200-prng-1,30_base_hphc_200,200,first-200,1,rng,num-start-281,281,17520,3.102336883544922,True,,True,1,False,1000,True,1.0
./expes/v2_2020-11-09_3bh_200-prng-1,30_base_hphc_200,200,first-200,91,rng,num-start-881,881,17520,14.081525087356567,True,,True,1,False,1000,True,1.0
./expes/v2_2020-11-09_3bh_200-prng-1,30_base_hphc_200,200,first-200,51,rng,num-start-301,301,17520,4.800714492797852,True,,True,1,False,1000,True,1.0
./expes/v2_2020-11-09_3bh_200-prng-1,30_base_hphc_200,200,first-200,31,rng,num-start-351,351,17520,5.326267719268799,True,,True,1,False,1000,True,1.0
./expes/v2_2020-11-09_3bh_200-prng-1,30_base_hphc_200,200,first-200,81,rng,num-start-71,71,17520,18.408398866653442,True,,True,1,False,1000,True,1.0
./expes/v2_2020-11-09_3bh_200-prng-1,30_base_hphc_200,200,first-200,51,rng,num-start-551,551,17520,9.470686674118042,True,,True,1,False,1000,True,1.0
./expes/v2_2020-11-09_3bh_200-prng-1,30_base_hphc_200,200,first-200,121,rng,num-start-481,481,17520,7.721273183822632,True,,True,1,False,1000,True,1.0
./expes/v2_2020-11-09_3bh_200-prng-1,30_base_hphc_200,200,first-200,41,rng,num-start-451,451,17520,6.998482704162598,True,,True,1,False,1000,True,1.0
./expes/v2_2020-11-09_3bh_200-prng-1,30_base_hphc_200,200,first-200,41,rng,num-start-591,591,17520,11.069984674453735,True,,True,1,False,1000,True,1.0
./expes/v2_2020-11-09_3bh_200-prng-1,30_base_hphc_200,200,first-200,61,rng,num-start-921,921,17520,14.636166334152222,True,,True,1,False,1000,True,1.0
./expes/v2_2020-11-09_3bh_200-prng-1,30_base_hphc_200,200,first-200,181,rng,num-start-891,891,17520,14.460120916366577,True,,True,1,False,1000,True,1.0
./expes/v2_2020-11-09_3bh_200-prng-1,30_base_hphc_200,200,first-200,1,rng,num-start-681,681,17520,7.507370710372925,True,,True,1,False,1000,True,1.0
./expes/v2_2020-11-09_3bh_200-prng-1,30_base_hphc_200,200,first-200,81,rng,num-start-621,621,17520,10.6012601852417,True,,True,1,False,1000,True,1.0
./expes/v2_2020-11-09_3bh_200-prng-1,30_base_hphc_200,200,first-200,101,rng,num-start-401,401,17520,6.102426052093506,True,,True,1,False,1000,True,1.0
./expes/v2_2020-11-09_3bh_200-prng-1,30_base_hphc_200,200,first-200,31,rng,num-start-601,601,17520,11.565053701400757,True,,True,1,False,1000,True,1.0
./expes/v2_2020-11-09_3bh_200-prng-1,30_base_hphc_200,200,first-200,11,rng,num-start-181,181,17520,2.8300650119781494,True,,True,1,False,1000,True,1.0
./expes/v2_2020-11-09_3bh_200-prng-1,30_base_hphc_200,200,first-200,191,rng,num-start-21,21,17520,0.8278305530548096,True,,True,1,False,1000,True,1.0
./expes/v2_2020-11-09_3bh_200-prng-1,30_base_hphc_200,200,first-200,191,rng,num-start-521,521,17520,7.298352956771851,True,,True,1,False,1000,True,1.0
./expes/v2_2020-11-09_3bh_200-prng-1,30_base_hphc_200,200,first-200,111,rng,num-start-561,561,17520,8.407526016235352,True,,True,1,False,1000,True,1.0
./expes/v2_2020-11-09_3bh_200-prng-1,30_base_hphc_200,200,first-200,111,rng,num-start-441,441,17520,6.174415826797485,True,,True,1,False,1000,True,1.0
./expes/v2_2020-11-09_3bh_200-prng-1,30_base_hphc_200,200,first-200,51,rng,num-start-631,631,17520,8.114019393920898,True,,True,1,False,1000,True,1.0
./expes/v2_2020-11-09_3bh_200-prng-1,30_base_hphc_200,200,first-200,181,rng,num-start-451,451,17520,6.9334094524383545,True,,True,1,False,1000,True,1.0
./expes/v2_2020-11-09_3bh_200-prng-1,30_base_hphc_200,200,first-200,41,rng,num-start-731,731,17520,11.607722043991089,True,,True,1,False,1000,True,1.0
./expes/v2_2020-11-09_3bh_200-prng-1,30_base_hphc_200,200,first-200,141,rng,num-start-861,861,17520,13.832494974136353,True,,True,1,False,1000,True,1.0
./expes/v2_2020-11-09_3bh_200-prng-1,30_base_hphc_200,200,first-200,81,rng,num-start-851,851,17520,13.025141477584839,True,,True,1,False,1000,True,1.0
./expes/v2_2020-11-09_3bh_200-prng-1,30_base_hphc_200,200,first-200,61,rng,num-start-71,71,17520,3.8000314235687256,True,,True,1,False,1000,True,1.0
./expes/v2_2020-11-09_3bh_200-prng-1,30_base_hphc_200,200,first-200,161,rng,num-start-961,961,17520,16.520472049713135,True,,True,1,False,1000,True,1.0
./expes/v2_2020-11-09_3bh_200-prng-1,30_base_hphc_200,200,first-200,121,rng,num-start-391,391,17520,5.9278576374053955,True,,True,1,False,1000,True,1.0
./expes/v2_2020-11-09_3bh_200-prng-1,30_base_hphc_200,200,first-200,11,rng,num-start-461,461,17520,6.312386751174927,True,,True,1,False,1000,True,1.0
./expes/v2_2020-11-09_3bh_200-prng-1,30_base_hphc_200,200,first-200,131,rng,num-start-411,411,17520,6.852072477340698,True,,True,1,False,1000,True,1.0
./expes/v2_2020-11-09_3bh_200-prng-1,30_base_hphc_200,200,first-200,161,rng,num-start-91,91,17520,1.5467643737792969,True,,True,1,False,1000,True,1.0
./expes/v2_2020-11-09_3bh_200-prng-1,30_base_hphc_200,200,first-200,111,rng,num-start-161,161,17520,2.7687816619873047,True,,True,1,False,1000,True,1.0
./expes/v2_2020-11-09_3bh_200-prng-1,30_base_hphc_200,200,first-200,171,rng,num-start-121,121,17520,2.00626277923584,True,,True,1,False,1000,True,1.0
./expes/v2_2020-11-09_3bh_200-prng-1,30_base_hphc_200,200,first-200,171,rng,num-start-231,231,17520,3.6408908367156982,True,,True,1,False,1000,True,1.0
./expes/v2_2020-11-09_3bh_200-prng-1,30_base_hphc_200,200,first-200,151,rng,num-start-431,431,17520,6.560869932174683,True,,True,1,False,1000,True,1.0
./expes/v2_2020-11-09_3bh_200-prng-1,30_base_hphc_200,200,first-200,131,rng,num-start-891,891,17520,14.858064651489258,True,,True,1,False,1000,True,1.0
./expes/v2_2020-11-09_3bh_200-prng-1,30_base_hphc_200,200,first-200,41,rng,num-start-741,741,17520,12.916062593460083,True,,True,1,False,1000,True,1.0
./expes/v2_2020-11-09_3bh_200-prng-1,30_base_hphc_200,200,first-200,11,rng,num-start-891,891,17520,13.75401782989502,True,,True,1,False,1000,True,1.0
./expes/v2_2020-11-09_3bh_200-prng-1,30_base_hphc_200,200,first-200,51,rng,num-start-601,601,17520,9.029850244522095,True,,True,1,False,1000,True,1.0
./expes/v2_2020-11-09_3bh_200-prng-1,30_base_hphc_200,200,first-200,31,rng,num-start-81,81,17520,1.2274248600006104,True,,True,1,False,1000,True,1.0
./expes/v2_2020-11-09_3bh_200-prng-1,30_base_hphc_200,200,first-200,21,rng,num-start-811,811,17520,11.902897834777832,True,,True,1,False,1000,True,1.0
./expes/v2_2020-11-09_3bh_200-prng-1,30_base_hphc_200,200,first-200,191,rng,num-start-601,601,17520,7.882815361022949,True,,True,1,False,1000,True,1.0
./expes/v2_2020-11-09_3bh_200-prng-1,30_base_hphc_200,200,first-200,141,rng,num-start-271,271,17520,4.257387399673462,True,,True,1,False,1000,True,1.0
./expes/v2_2020-11-09_3bh_200-prng-1,30_base_hphc_200,200,first-200,81,rng,num-start-841,841,17520,13.106768608093262,True,,True,1,False,1000,True,1.0
./expes/v2_2020-11-09_3bh_200-prng-1,30_base_hphc_200,200,first-200,171,rng,num-start-631,631,17520,8.719871282577515,True,,True,1,False,1000,True,1.0
./expes/v2_2020-11-09_3bh_200-prng-1,30_base_hphc_200,200,first-200,171,rng,num-start-251,251,17520,3.780914783477783,True,,True,1,False,1000,True,1.0
./expes/v2_2020-11-09_3bh_200-prng-1,30_base_hphc_200,200,first-200,61,rng,num-start-561,561,17520,8.83292293548584,True,,True,1,False,1000,True,1.0
./expes/v2_2020-11-09_3bh_200-prng-1,30_base_hphc_200,200,first-200,1,rng,num-start-241,241,17520,2.686302661895752,True,,True,1,False,1000,True,1.0
./expes/v2_2020-11-09_3bh_200-prng-1,30_base_hphc_200,200,first-200,11,rng,num-start-751,751,17520,10.436348676681519,True,,True,1,False,1000,True,1.0
./expes/v2_2020-11-09_3bh_200-prng-1,30_base_hphc_200,200,first-200,81,rng,num-start-911,911,17520,12.741711378097534,True,,True,1,False,1000,True,1.0
./expes/v2_2020-11-09_3bh_200-prng-1,30_base_hphc_200,200,first-200,161,rng,num-start-891,891,17520,12.82237696647644,True,,True,1,False,1000,True,1.0
./expes/v2_2020-11-09_3bh_200-prng-1,30_base_hphc_200,200,first-200,11,rng,num-start-381,381,17520,5.0135743618011475,True,,True,1,False,1000,True,1.0
./expes/v2_2020-11-09_3bh_200-prng-1,30_base_hphc_200,200,first-200,101,rng,num-start-201,201,17520,3.2135119438171387,True,,True,1,False,1000,True,1.0
./expes/v2_2020-11-09_3bh_200-prng-1,30_base_hphc_200,200,first-200,161,rng,num-start-401,401,17520,6.593884229660034,True,,True,1,False,1000,True,1.0
./expes/v2_2020-11-09_3bh_200-prng-1,30_base_hphc_200,200,first-200,21,rng,num-start-101,101,17520,1.5553817749023438,True,,True,1,False,1000,True,1.0
./expes/v2_2020-11-09_3bh_200-prng-1,30_base_hphc_200,200,first-200,81,rng,num-start-981,981,17520,16.29845666885376,True,,True,1,False,1000,True,1.0
./expes/v2_2020-11-09_3bh_200-prng-1,30_base_hphc_200,200,first-200,61,rng,num-start-201,201,17520,3.1494014263153076,True,,True,1,False,1000,True,1.0
./expes/v2_2020-11-09_3bh_200-prng-1,30_base_hphc_200,200,first-200,31,rng,num-start-611,611,17520,8.963360071182251,True,,True,1,False,1000,True,1.0
./expes/v2_2020-11-09_3bh_200-prng-1,30_base_hphc_200,200,first-200,51,rng,num-start-921,921,17520,15.448532342910767,True,,True,1,False,1000,True,1.0
./expes/v2_2020-11-09_3bh_200-prng-1,30_base_hphc_200,200,first-200,151,rng,num-start-191,191,17520,3.0879111289978027,True,,True,1,False,1000,True,1.0
./expes/v2_2020-11-09_3bh_200-prng-1,30_base_hphc_200,200,first-200,11,rng,num-start-251,251,17520,3.722761869430542,True,,True,1,False,1000,True,1.0
./expes/v2_2020-11-09_3bh_200-prng-1,30_base_hphc_200,200,first-200,131,rng,num-start-921,921,17520,16.32483696937561,True,,True,1,False,1000,True,1.0
./expes/v2_2020-11-09_3bh_200-prng-1,30_base_hphc_200,200,first-200,161,rng,num-start-291,291,17520,4.829847097396851,True,,True,1,False,1000,True,1.0
./expes/v2_2020-11-09_3bh_200-prng-1,30_base_hphc_200,200,first-200,1,rng,num-start-991,991,17520,11.893421173095703,True,,True,1,False,1000,True,1.0
./expes/v2_2020-11-09_3bh_200-prng-1,30_base_hphc_200,200,first-200,1,rng,num-start-721,721,17520,8.724264144897461,True,,True,1,False,1000,True,1.0
./expes/v2_2020-11-09_3bh_200-prng-1,30_base_hphc_200,200,first-200,51,rng,num-start-571,571,17520,8.569789171218872,True,,True,1,False,1000,True,1.0
./expes/v2_2020-11-09_3bh_200-prng-1,30_base_hphc_200,200,first-200,191,rng,num-start-881,881,17520,11.049772024154663,True,,True,1,False,1000,True,1.0
./expes/v2_2020-11-09_3bh_200-prng-1,30_base_hphc_200,200,first-200,1,rng,num-start-791,791,17520,9.40004277229309,True,,True,1,False,1000,True,1.0
./expes/v2_2020-11-09_3bh_200-prng-1,30_base_hphc_200,200,first-200,151,rng,num-start-761,761,17520,11.446571588516235,True,,True,1,False,1000,True,1.0
./expes/v2_2020-11-09_3bh_200-prng-1,30_base_hphc_200,200,first-200,161,rng,num-start-651,651,17520,10.296855926513672,True,,True,1,False,1000,True,1.0
./expes/v2_2020-11-09_3bh_200-prng-1,30_base_hphc_200,200,first-200,161,rng,num-start-611,611,17520,9.645580291748047,True,,True,1,False,1000,True,1.0
./expes/v2_2020-11-09_3bh_200-prng-1,30_base_hphc_200,200,first-200,171,rng,num-start-351,351,17520,5.372825622558594,True,,True,1,False,1000,True,1.0
./expes/v2_2020-11-09_3bh_200-prng-1,30_base_hphc_200,200,first-200,171,rng,num-start-441,441,17520,6.191874027252197,True,,True,1,False,1000,True,1.0
./expes/v2_2020-11-09_3bh_200-prng-1,30_base_hphc_200,200,first-200,61,rng,num-start-161,161,17520,2.510593891143799,True,,True,1,False,1000,True,1.0
./expes/v2_2020-11-09_3bh_200-prng-1,30_base_hphc_200,200,first-200,171,rng,num-start-661,661,17520,10.556225299835205,True,,True,1,False,1000,True,1.0
./expes/v2_2020-11-09_3bh_200-prng-1,30_base_hphc_200,200,first-200,11,rng,num-start-861,861,17520,11.675935745239258,True,,True,1,False,1000,True,1.0
./expes/v2_2020-11-09_3bh_200-prng-1,30_base_hphc_200,200,first-200,41,rng,num-start-281,281,17520,4.110326051712036,True,,True,1,False,1000,True,1.0
./expes/v2_2020-11-09_3bh_200-prng-1,30_base_hphc_200,200,first-200,191,rng,num-start-281,281,17520,3.596639633178711,True,,True,1,False,1000,True,1.0
./expes/v2_2020-11-09_3bh_200-prng-1,30_base_hphc_200,200,first-200,151,rng,num-start-961,961,17520,13.975279808044434,True,,True,1,False,1000,True,1.0
./expes/v2_2020-11-09_3bh_200-prng-1,30_base_hphc_200,200,first-200,41,rng,num-start-671,671,17520,9.148804664611816,True,,True,1,False,1000,True,1.0
./expes/v2_2020-11-09_3bh_200-prng-1,30_base_hphc_200,200,first-200,141,rng,num-start-871,871,17520,12.744109630584717,True,,True,1,False,1000,True,1.0
./expes/v2_2020-11-09_3bh_200-prng-1,30_base_hphc_200,200,first-200,101,rng,num-start-601,601,17520,8.685211181640625,True,,True,1,False,1000,True,1.0
./expes/v2_2020-11-09_3bh_200-prng-1,30_base_hphc_200,200,first-200,191,rng,num-start-991,991,17520,12.966392517089844,True,,True,1,False,1000,True,1.0
./expes/v2_2020-11-09_3bh_200-prng-1,30_base_hphc_200,200,first-200,121,rng,num-start-1,1,17520,0.022775888442993164,False,,False,2,False,1000,True,1.0
./expes/v2_2020-11-09_3bh_200-prng-1,30_base_hphc_200,200,first-200,181,rng,num-start-631,631,17520,9.358027458190918,True,,True,1,False,1000,True,1.0
./expes/v2_2020-11-09_3bh_200-prng-1,30_base_hphc_200,200,first-200,101,rng,num-start-961,961,17520,16.33507752418518,True,,True,1,False,1000,True,1.0
./expes/v2_2020-11-09_3bh_200-prng-1,30_base_hphc_200,200,first-200,91,rng,num-start-531,531,17520,8.340291738510132,True,,True,1,False,1000,True,1.0
./expes/v2_2020-11-09_3bh_200-prng-1,30_base_hphc_200,200,first-200,131,rng,num-start-561,561,17520,9.750476360321045,True,,True,1,False,1000,True,1.0
./expes/v2_2020-11-09_3bh_200-prng-1,30_base_hphc_200,200,first-200,131,rng,num-start-181,181,17520,2.957369804382324,True,,True,1,False,1000,True,1.0
./expes/v2_2020-11-09_3bh_200-prng-1,30_base_hphc_200,200,first-200,181,rng,num-start-821,821,17520,11.912198305130005,True,,True,1,False,1000,True,1.0
./expes/v2_2020-11-09_3bh_200-prng-1,30_base_hphc_200,200,first-200,21,rng,num-start-601,601,17520,10.106945753097534,True,,True,1,False,1000,True,1.0
./expes/v2_2020-11-09_3bh_200-prng-1,30_base_hphc_200,200,first-200,141,rng,num-start-1,1,17520,0.029926300048828125,False,,False,2,False,1000,True,1.0
./expes/v2_2020-11-09_3bh_200-prng-1,30_base_hphc_200,200,first-200,1,rng,num-start-831,831,17520,9.413577795028687,True,,True,1,False,1000,True,1.0
./expes/v2_2020-11-09_3bh_200-prng-1,30_base_hphc_200,200,first-200,101,rng,num-start-651,651,17520,9.663296699523926,True,,True,1,False,1000,True,1.0
./expes/v2_2020-11-09_3bh_200-prng-1,30_base_hphc_200,200,first-200,91,rng,num-start-571,571,17520,10.082663297653198,True,,True,1,False,1000,True,1.0
./expes/v2_2020-11-09_3bh_200-prng-1,30_base_hphc_200,200,first-200,191,rng,num-start-81,81,17520,1.2547259330749512,True,,True,1,False,1000,True,1.0
./expes/v2_2020-11-09_3bh_200-prng-1,30_base_hphc_200,200,first-200,91,rng,num-start-551,551,17520,10.05022406578064,True,,True,1,False,1000,True,1.0
./expes/v2_2020-11-09_3bh_200-prng-1,30_base_hphc_200,200,first-200,31,rng,num-start-461,461,17520,7.3294665813446045,True,,True,1,False,1000,True,1.0
./expes/v2_2020-11-09_3bh_200-prng-1,30_base_hphc_200,200,first-200,91,rng,num-start-91,91,17520,7.0555031299591064,True,,True,1,False,1000,True,1.0
./expes/v2_2020-11-09_3bh_200-prng-1,30_base_hphc_200,200,first-200,181,rng,num-start-511,511,17520,7.17783522605896,True,,True,1,False,1000,True,1.0
./expes/v2_2020-11-09_3bh_200-prng-1,30_base_hphc_200,200,first-200,1,rng,num-start-641,641,17520,7.158746719360352,True,,True,1,False,1000,True,1.0
./expes/v2_2020-11-09_3bh_200-prng-1,30_base_hphc_200,200,first-200,41,rng,num-start-181,181,17520,2.6749019622802734,True,,True,1,False,1000,True,1.0
./expes/v2_2020-11-09_3bh_200-prng-1,30_base_hphc_200,200,first-200,1,rng,num-start-451,451,17520,4.786824703216553,True,,True,1,False,1000,True,1.0
./expes/v2_2020-11-09_3bh_200-prng-1,30_base_hphc_200,200,first-200,61,rng,num-start-151,151,17520,2.326540231704712,True,,True,1,False,1000,True,1.0
./expes/v2_2020-11-09_3bh_200-prng-1,30_base_hphc_200,200,first-200,191,rng,num-start-171,171,17520,2.1816632747650146,True,,True,1,False,1000,True,1.0
./expes/v2_2020-11-09_3bh_200-prng-1,30_base_hphc_200,200,first-200,71,rng,num-start-761,761,17520,9.657539367675781,True,,True,1,False,1000,True,1.0
./expes/v2_2020-11-09_3bh_200-prng-1,30_base_hphc_200,200,first-200,191,rng,num-start-171,171,17520,2.5225746631622314,True,,True,1,False,1000,True,1.0
./expes/v2_2020-11-09_3bh_200-prng-1,30_base_hphc_200,200,first-200,101,rng,num-start-421,421,17520,6.595881938934326,True,,True,1,False,1000,True,1.0
./expes/v2_2020-11-09_3bh_200-prng-1,30_base_hphc_200,200,first-200,131,rng,num-start-811,811,17520,12.067644119262695,True,,True,1,False,1000,True,1.0
./expes/v2_2020-11-09_3bh_200-prng-1,30_base_hphc_200,200,first-200,171,rng,num-start-121,121,17520,2.036417245864868,True,,True,1,False,1000,True,1.0
./expes/v2_2020-11-09_3bh_200-prng-1,30_base_hphc_200,200,first-200,131,rng,num-start-71,71,17520,3.458852529525757,True,,True,1,False,1000,True,1.0
./expes/v2_2020-11-09_3bh_200-prng-1,30_base_hphc_200,200,first-200,61,rng,num-start-791,791,17520,12.232391119003296,True,,True,1,False,1000,True,1.0
./expes/v2_2020-11-09_3bh_200-prng-1,30_base_hphc_200,200,first-200,61,rng,num-start-941,941,17520,16.415539503097534,True,,True,1,False,1000,True,1.0
./expes/v2_2020-11-09_3bh_200-prng-1,30_base_hphc_200,200,first-200,31,rng,num-start-711,711,17520,10.557905673980713,True,,True,1,False,1000,True,1.0
./expes/v2_2020-11-09_3bh_200-prng-1,30_base_hphc_200,200,first-200,161,rng,num-start-601,601,17520,10.695036888122559,True,,True,1,False,1000,True,1.0
./expes/v2_2020-11-09_3bh_200-prng-1,30_base_hphc_200,200,first-200,181,rng,num-start-541,541,17520,8.454053401947021,True,,True,1,False,1000,True,1.0
./expes/v2_2020-11-09_3bh_200-prng-1,30_base_hphc_200,200,first-200,171,rng,num-start-241,241,17520,3.658766984939575,True,,True,1,False,1000,True,1.0
./expes/v2_2020-11-09_3bh_200-prng-1,30_base_hphc_200,200,first-200,121,rng,num-start-441,441,17520,6.565840721130371,True,,True,1,False,1000,True,1.0
./expes/v2_2020-11-09_3bh_200-prng-1,30_base_hphc_200,200,first-200,101,rng,num-start-161,161,17520,2.7143571376800537,True,,True,1,False,1000,True,1.0
./expes/v2_2020-11-09_3bh_200-prng-1,30_base_hphc_200,200,first-200,141,rng,num-start-311,311,17520,4.743056535720825,True,,True,1,False,1000,True,1.0
./expes/v2_2020-11-09_3bh_200-prng-1,30_base_hphc_200,200,first-200,1,rng,num-start-261,261,17520,3.0687928199768066,True,,True,1,False,1000,True,1.0
./expes/v2_2020-11-09_3bh_200-prng-1,30_base_hphc_200,200,first-200,71,rng,num-start-191,191,17520,3.2055158615112305,True,,True,1,False,1000,True,1.0
./expes/v2_2020-11-09_3bh_200-prng-1,30_base_hphc_200,200,first-200,41,rng,num-start-201,201,17520,3.199885129928589,True,,True,1,False,1000,True,1.0
./expes/v2_2020-11-09_3bh_200-prng-1,30_base_hphc_200,200,first-200,171,rng,num-start-691,691,17520,9.902426719665527,True,,True,1,False,1000,True,1.0
./expes/v2_2020-11-09_3bh_200-prng-1,30_base_hphc_200,200,first-200,11,rng,num-start-1,1,17520,0.018201589584350586,False,,False,2,False,1000,True,1.0
./expes/v2_2020-11-09_3bh_200-prng-1,30_base_hphc_200,200,first-200,141,rng,num-start-901,901,17520,14.3222815990448,True,,True,1,False,1000,True,1.0
./expes/v2_2020-11-09_3bh_200-prng-1,30_base_hphc_200,200,first-200,151,rng,num-start-321,321,17520,4.567349672317505,True,,True,1,False,1000,True,1.0
./expes/v2_2020-11-09_3bh_200-prng-1,30_base_hphc_200,200,first-200,51,rng,num-start-511,511,17520,7.363598108291626,True,,True,1,False,1000,True,1.0
./expes/v2_2020-11-09_3bh_200-prng-1,30_base_hphc_200,200,first-200,151,rng,num-start-571,571,17520,8.077015161514282,True,,True,1,False,1000,True,1.0
./expes/v2_2020-11-09_3bh_200-prng-1,30_base_hphc_200,200,first-200,141,rng,num-start-1,1,17520,0.02147650718688965,False,,False,2,False,1000,True,1.0
./expes/v2_2020-11-09_3bh_200-prng-1,30_base_hphc_200,200,first-200,191,rng,num-start-591,591,17520,8.006901502609253,True,,True,1,False,1000,True,1.0
./expes/v2_2020-11-09_3bh_200-prng-1,30_base_hphc_200,200,first-200,121,rng,num-start-291,291,17520,4.159463167190552,True,,True,1,False,1000,True,1.0
./expes/v2_2020-11-09_3bh_200-prng-1,30_base_hphc_200,200,first-200,121,rng,num-start-31,31,17520,1000.4774644374847,False,,False,0,True,1000,True,0.0
./expes/v2_2020-11-09_3bh_200-prng-1,30_base_hphc_200,200,first-200,91,rng,num-start-371,371,17520,79.33093214035034,True,,True,1,False,1000,True,1.0
./expes/v2_2020-11-09_3bh_200-prng-1,30_base_hphc_200,200,first-200,141,rng,num-start-111,111,17520,103.20124292373657,True,,True,1,False,1000,True,1.0
./expes/v2_2020-11-09_3bh_200-prng-1,30_base_hphc_200,200,first-200,1,rng,num-start-421,421,17520,28.33539915084839,True,,True,1,False,1000,True,1.0
./expes/v2_2020-11-09_3bh_200-prng-1,30_base_hphc_200,200,first-200,71,rng,num-start-701,701,17520,41.19053840637207,True,,True,1,False,1000,True,1.0
./expes/v2_2020-11-09_3bh_200-prng-1,30_base_hphc_200,200,first-200,11,rng,num-start-11,11,17520,102.2026674747467,True,,True,1,False,1000,True,1.0
./expes/v2_2020-11-09_3bh_200-prng-1,30_base_hphc_200,200,first-200,11,rng,num-start-521,521,17520,92.5950722694397,True,,True,1,False,1000,True,1.0
./expes/v2_2020-11-09_3bh_200-prng-1,30_base_hphc_200,200,first-200,151,rng,num-start-971,971,17520,148.1868929862976,True,,True,1,False,1000,True,1.0
./expes/v2_2020-11-09_3bh_200-prng-1,30_base_hphc_200,200,first-200,101,rng,num-start-531,531,17520,101.59872555732727,True,,True,1,False,1000,True,1.0
./expes/v2_2020-11-09_3bh_200-prng-1,30_base_hphc_200,200,first-200,191,rng,num-start-471,471,17520,206.6355423927307,True,,True,1,False,1000,True,1.0
./expes/v2_2020-11-09_3bh_200-prng-1,30_base_hphc_200,200,first-200,181,rng,num-start-451,451,17520,90.4182722568512,True,,True,1,False,1000,True,1.0
./expes/v2_2020-11-09_3bh_200-prng-1,30_base_hphc_200,200,first-200,151,rng,num-start-421,421,17520,199.1097981929779,True,,True,1,False,1000,True,1.0
./expes/v2_2020-11-09_3bh_200-prng-1,30_base_hphc_200,200,first-200,141,rng,num-start-91,91,17520,134.1605191230774,True,,True,1,False,1000,True,1.0
./expes/v2_2020-11-09_3bh_200-prng-1,30_base_hphc_200,200,first-200,171,rng,num-start-61,61,17520,206.65243792533875,True,,True,1,False,1000,True,1.0
./expes/v2_2020-11-09_3bh_200-prng-1,30_base_hphc_200,200,first-200,151,rng,num-start-291,291,17520,90.22680878639221,True,,True,1,False,1000,True,1.0
./expes/v2_2020-11-09_3bh_200-prng-1,30_base_hphc_200,200,first-200,121,rng,num-start-971,971,17520,233.01215839385986,True,,True,1,False,1000,True,1.0
./expes/v2_2020-11-09_3bh_200-prng-1,30_base_hphc_200,200,first-200,171,rng,num-start-711,711,17520,304.78087735176086,True,,True,1,False,1000,True,1.0
./expes/v2_2020-11-09_3bh_200-prng-1,30_base_hphc_200,200,first-200,171,rng,num-start-801,801,17520,215.99298095703125,True,,True,1,False,1000,True,1.0
./expes/v2_2020-11-09_3bh_200-prng-1,30_base_hphc_200,200,first-200,131,rng,num-start-981,981,17520,257.06982016563416,True,,True,1,False,1000,True,1.0
./expes/v2_2020-11-09_3bh_200-prng-1,30_base_hphc_200,200,first-200,101,rng,num-start-931,931,17520,117.64893507957458,True,,True,1,False,1000,True,1.0
./expes/v2_2020-11-09_3bh_200-prng-1,30_base_hphc_200,200,first-200,181,rng,num-start-101,101,17520,155.22392082214355,True,,True,1,False,1000,True,1.0
./expes/v2_2020-11-09_3bh_200-prng-1,30_base_hphc_200,200,first-200,121,rng,num-start-221,221,17520,121.5184166431427,True,,True,1,False,1000,True,1.0
./expes/v2_2020-11-09_3bh_200-prng-1,30_base_hphc_200,200,first-200,81,rng,num-start-801,801,17520,105.46783757209778,True,,True,1,False,1000,True,1.0
./expes/v2_2020-11-09_3bh_200-prng-1,30_base_hphc_200,200,first-200,101,rng,num-start-561,561,17520,109.40564441680908,True,,True,1,False,1000,True,1.0
./expes/v2_2020-11-09_3bh_200-prng-1,30_base_hphc_200,200,first-200,81,rng,num-start-751,751,17520,148.51695132255554,True,,True,1,False,1000,True,1.0
./expes/v2_2020-11-09_3bh_200-prng-1,30_base_hphc_200,200,first-200,151,rng,num-start-31,31,17520,1138.4132244586945,False,,False,0,True,1000,True,0.0
./expes/v2_2020-11-09_3bh_200-prng-1,30_base_hphc_200,200,first-200,51,rng,num-start-441,441,17520,6.468269109725952,True,,True,1,False,1000,True,1.0
./expes/v2_2020-11-09_3bh_200-prng-1,30_base_hphc_200,200,first-200,191,rng,num-start-921,921,17520,11.41703200340271,True,,True,1,False,1000,True,1.0
./expes/v2_2020-11-09_3bh_200-prng-1,30_base_hphc_200,200,first-200,31,rng,num-start-891,891,17520,12.429988145828247,True,,True,1,False,1000,True,1.0
./expes/v2_2020-11-09_3bh_200-prng-1,30_base_hphc_200,200,first-200,51,rng,num-start-441,441,17520,5.980878591537476,True,,True,1,False,1000,True,1.0
./expes/v2_2020-11-09_3bh_200-prng-1,30_base_hphc_200,200,first-200,21,rng,num-start-591,591,17520,9.913602828979492,True,,True,1,False,1000,True,1.0
./expes/v2_2020-11-09_3bh_200-prng-1,30_base_hphc_200,200,first-200,161,rng,num-start-351,351,17520,4.68066930770874,True,,True,1,False,1000,True,1.0
./expes/v2_2020-11-09_3bh_200-prng-1,30_base_hphc_200,200,first-200,11,rng,num-start-371,371,17520,5.0277838706970215,True,,True,1,False,1000,True,1.0
./expes/v2_2020-11-09_3bh_200-prng-1,30_base_hphc_200,200,first-200,131,rng,num-start-581,581,17520,9.092174291610718,True,,True,1,False,1000,True,1.0
./expes/v2_2020-11-09_3bh_200-prng-1,30_base_hphc_200,200,first-200,181,rng,num-start-181,181,17520,2.72391676902771,True,,True,1,False,1000,True,1.0
./expes/v2_2020-11-09_3bh_200-prng-1,30_base_hphc_200,200,first-200,1,rng,num-start-201,201,17520,2.3114964962005615,True,,True,1,False,1000,True,1.0
./expes/v2_2020-11-09_3bh_200-prng-1,30_base_hphc_200,200,first-200,151,rng,num-start-431,431,17520,5.9894514083862305,True,,True,1,False,1000,True,1.0
./expes/v2_2020-11-09_3bh_200-prng-1,30_base_hphc_200,200,first-200,101,rng,num-start-831,831,17520,14.791573524475098,True,,True,1,False,1000,True,1.0
./expes/v2_2020-11-09_3bh_200-prng-1,30_base_hphc_200,200,first-200,11,rng,num-start-131,131,17520,1.9993884563446045,True,,True,1,False,1000,True,1.0
./expes/v2_2020-11-09_3bh_200-prng-1,30_base_hphc_200,200,first-200,41,rng,num-start-381,381,17520,6.129405498504639,True,,True,1,False,1000,True,1.0
./expes/v2_2020-11-09_3bh_200-prng-1,30_base_hphc_200,200,first-200,61,rng,num-start-781,781,17520,11.896376371383667,True,,True,1,False,1000,True,1.0
./expes/v2_2020-11-09_3bh_200-prng-1,30_base_hphc_200,200,first-200,151,rng,num-start-41,41,17520,1000.5459418296814,False,,False,0,True,1000,True,0.0
./expes/v2_2020-11-09_3bh_200-prng-1,30_base_hphc_200,200,first-200,11,rng,num-start-611,611,17520,108.30297136306763,True,,True,1,False,1000,True,1.0
./expes/v2_2020-11-09_3bh_200-prng-1,30_base_hphc_200,200,first-200,171,rng,num-start-21,21,17520,1118.7187373638153,False,,False,0,True,1000,True,0.0
./expes/v2_2020-11-09_3bh_200-prng-1,30_base_hphc_200,200,first-200,1,rng,num-start-231,231,17520,133.71923208236694,True,,True,1,False,1000,True,1.0
./expes/v2_2020-11-09_3bh_200-prng-1,30_base_hphc_200,200,first-200,181,rng,num-start-531,531,17520,100.70772171020508,True,,True,1,False,1000,True,1.0
./expes/v2_2020-11-09_3bh_200-prng-1,30_base_hphc_200,200,first-200,1,rng,num-start-381,381,17520,109.96954250335693,True,,True,1,False,1000,True,1.0
./expes/v2_2020-11-09_3bh_200-prng-1,30_base_hphc_200,200,first-200,101,rng,num-start-621,621,17520,352.8155415058136,True,,True,1,False,1000,True,1.0
./expes/v2_2020-11-09_3bh_200-prng-1,30_base_hphc_200,200,first-200,61,rng,num-start-631,631,17520,160.21451878547668,True,,True,1,False,1000,True,1.0
./expes/v2_2020-11-09_3bh_200-prng-1,30_base_hphc_200,200,first-200,31,rng,num-start-541,541,17520,246.63678121566772,True,,True,1,False,1000,True,1.0
./expes/v2_2020-11-09_3bh_200-prng-1,30_base_hphc_200,200,first-200,71,rng,num-start-681,681,17520,139.83050060272217,True,,True,1,False,1000,True,1.0
./expes/v2_2020-11-09_3bh_200-prng-1,30_base_hphc_200,200,first-200,91,rng,num-start-811,811,17520,128.3157958984375,True,,True,1,False,1000,True,1.0
./expes/v2_2020-11-09_3bh_200-prng-1,30_base_hphc_200,200,first-200,41,rng,num-start-831,831,17520,116.41248893737793,True,,True,1,False,1000,True,1.0
./expes/v2_2020-11-09_3bh_200-prng-1,30_base_hphc_200,200,first-200,51,rng,num-start-251,251,17520,113.68653154373169,True,,True,1,False,1000,True,1.0
./expes/v2_2020-11-09_3bh_200-prng-1,30_base_hphc_200,200,first-200,71,rng,num-start-951,951,17520,112.51902866363525,True,,True,1,False,1000,True,1.0
./expes/v2_2020-11-09_3bh_200-prng-1,30_base_hphc_200,200,first-200,61,rng,num-start-121,121,17520,91.53086400032043,True,,True,1,False,1000,True,1.0
./expes/v2_2020-11-09_3bh_200-prng-1,30_base_hphc_200,200,first-200,1,rng,num-start-201,201,17520,70.51468801498413,True,,True,1,False,1000,True,1.0
./expes/v2_2020-11-09_3bh_200-prng-1,30_base_hphc_200,200,first-200,51,rng,num-start-161,161,17520,28.078991413116455,True,,True,1,False,1000,True,1.0
./expes/v2_2020-11-09_3bh_200-prng-1,30_base_hphc_200,200,first-200,61,rng,num-start-301,301,17520,15.322440147399902,True,,True,1,False,1000,True,1.0
./expes/v2_2020-11-09_3bh_200-prng-1,30_base_hphc_200,200,first-200,171,rng,num-start-321,321,17520,16.61770987510681,True,,True,1,False,1000,True,1.0
./expes/v2_2020-11-09_3bh_200-prng-1,30_base_hphc_200,200,first-200,191,rng,num-start-281,281,17520,36.26417326927185,True,,True,1,False,1000,True,1.0
./expes/v2_2020-11-09_3bh_200-prng-1,30_base_hphc_200,200,first-200,1,rng,num-start-391,391,17520,4.449026107788086,True,,True,1,False,1000,True,1.0
./expes/v2_2020-11-09_3bh_200-prng-1,30_base_hphc_200,200,first-200,161,rng,num-start-521,521,17520,8.031480073928833,True,,True,1,False,1000,True,1.0
./expes/v2_2020-11-09_3bh_200-prng-1,30_base_hphc_200,200,first-200,111,rng,num-start-961,961,17520,14.812939405441284,True,,True,1,False,1000,True,1.0
./expes/v2_2020-11-09_3bh_200-prng-1,30_base_hphc_200,200,first-200,191,rng,num-start-71,71,17520,1.215898036956787,True,,True,1,False,1000,True,1.0
./expes/v2_2020-11-09_3bh_200-prng-1,30_base_hphc_200,200,first-200,161,rng,num-start-11,11,17520,1000.2482237815857,False,,False,0,True,1000,True,0.0
./expes/v2_2020-11-09_3bh_200-prng-1,30_base_hphc_200,200,first-200,151,rng,num-start-521,521,17520,7.251038312911987,True,,True,1,False,1000,True,1.0
./expes/v2_2020-11-09_3bh_200-prng-1,30_base_hphc_200,200,first-200,181,rng,num-start-271,271,17520,3.8198349475860596,True,,True,1,False,1000,True,1.0
./expes/v2_2020-11-09_3bh_200-prng-1,30_base_hphc_200,200,first-200,151,rng,num-start-11,11,17520,1000.1847641468048,False,,False,0,True,1000,True,0.0
./expes/v2_2020-11-09_3bh_200-prng-1,30_base_hphc_200,200,first-200,131,rng,num-start-421,421,17520,6.212655305862427,True,,True,1,False,1000,True,1.0
./expes/v2_2020-11-09_3bh_200-prng-1,30_base_hphc_200,200,first-200,71,rng,num-start-721,721,17520,11.281721830368042,True,,True,1,False,1000,True,1.0
./expes/v2_2020-11-09_3bh_200-prng-1,30_base_hphc_200,200,first-200,191,rng,num-start-191,191,17520,2.74787974357605,True,,True,1,False,1000,True,1.0
./expes/v2_2020-11-09_3bh_200-prng-1,30_base_hphc_200,200,first-200,141,rng,num-start-171,171,17520,2.7816967964172363,True,,True,1,False,1000,True,1.0
./expes/v2_2020-11-09_3bh_200-prng-1,30_base_hphc_200,200,first-200,31,rng,num-start-241,241,17520,3.599821090698242,True,,True,1,False,1000,True,1.0
./expes/v2_2020-11-09_3bh_200-prng-1,30_base_hphc_200,200,first-200,71,rng,num-start-631,631,17520,10.018276691436768,True,,True,1,False,1000,True,1.0
./expes/v2_2020-11-09_3bh_200-prng-1,30_base_hphc_200,200,first-200,11,rng,num-start-791,791,17520,10.315956354141235,True,,True,1,False,1000,True,1.0
./expes/v2_2020-11-09_3bh_200-prng-1,30_base_hphc_200,200,first-200,151,rng,num-start-891,891,17520,12.719339609146118,True,,True,1,False,1000,True,1.0
./expes/v2_2020-11-09_3bh_200-prng-1,30_base_hphc_200,200,first-200,1,rng,num-start-981,981,17520,11.009445905685425,True,,True,1,False,1000,True,1.0
./expes/v2_2020-11-09_3bh_200-prng-1,30_base_hphc_200,200,first-200,91,rng,num-start-851,851,17520,12.927411794662476,True,,True,1,False,1000,True,1.0
./expes/v2_2020-11-09_3bh_200-prng-1,30_base_hphc_200,200,first-200,11,rng,num-start-771,771,17520,9.965467929840088,True,,True,1,False,1000,True,1.0
./expes/v2_2020-11-09_3bh_200-prng-1,30_base_hphc_200,200,first-200,61,rng,num-start-401,401,17520,5.568978786468506,True,,True,1,False,1000,True,1.0
./expes/v2_2020-11-09_3bh_200-prng-1,30_base_hphc_200,200,first-200,131,rng,num-start-521,521,17520,7.7940685749053955,True,,True,1,False,1000,True,1.0
./expes/v2_2020-11-09_3bh_200-prng-1,30_base_hphc_200,200,first-200,181,rng,num-start-321,321,17520,4.3173668384552,True,,True,1,False,1000,True,1.0
./expes/v2_2020-11-09_3bh_200-prng-1,30_base_hphc_200,200,first-200,91,rng,num-start-71,71,17520,35.50277256965637,True,,True,1,False,1000,True,1.0
./expes/v2_2020-11-09_3bh_200-prng-1,30_base_hphc_200,200,first-200,101,rng,num-start-171,171,17520,2.6826491355895996,True,,True,1,False,1000,True,1.0
./expes/v2_2020-11-09_3bh_200-prng-1,30_base_hphc_200,200,first-200,141,rng,num-start-161,161,17520,2.4816131591796875,True,,True,1,False,1000,True,1.0
./expes/v2_2020-11-09_3bh_200-prng-1,30_base_hphc_200,200,first-200,121,rng,num-start-231,231,17520,3.299346446990967,True,,True,1,False,1000,True,1.0
./expes/v2_2020-11-09_3bh_200-prng-1,30_base_hphc_200,200,first-200,41,rng,num-start-181,181,17520,2.350919723510742,True,,True,1,False,1000,True,1.0
./expes/v2_2020-11-09_3bh_200-prng-1,30_base_hphc_200,200,first-200,111,rng,num-start-851,851,17520,11.86479139328003,True,,True,1,False,1000,True,1.0
./expes/v2_2020-11-09_3bh_200-prng-1,30_base_hphc_200,200,first-200,81,rng,num-start-341,341,17520,5.017228603363037,True,,True,1,False,1000,True,1.0
./expes/v2_2020-11-09_3bh_200-prng-1,30_base_hphc_200,200,first-200,51,rng,num-start-681,681,17520,10.618282794952393,True,,True,1,False,1000,True,1.0
./expes/v2_2020-11-09_3bh_200-prng-1,30_base_hphc_200,200,first-200,101,rng,num-start-701,701,17520,10.892614841461182,True,,True,1,False,1000,True,1.0
./expes/v2_2020-11-09_3bh_200-prng-1,30_base_hphc_200,200,first-200,91,rng,num-start-821,821,17520,12.081461191177368,True,,True,1,False,1000,True,1.0
./expes/v2_2020-11-09_3bh_200-prng-1,30_base_hphc_200,200,first-200,41,rng,num-start-631,631,17520,8.06343150138855,True,,True,1,False,1000,True,1.0
./expes/v2_2020-11-09_3bh_200-prng-1,30_base_hphc_200,200,first-200,111,rng,num-start-331,331,17520,4.5350987911224365,True,,True,1,False,1000,True,1.0
./expes/v2_2020-11-09_3bh_200-prng-1,30_base_hphc_200,200,first-200,1,rng,num-start-581,581,17520,6.4008612632751465,True,,True,1,False,1000,True,1.0
./expes/v2_2020-11-09_3bh_200-prng-1,30_base_hphc_200,200,first-200,131,rng,num-start-321,321,17520,5.080690622329712,True,,True,1,False,1000,True,1.0
./expes/v2_2020-11-09_3bh_200-prng-1,30_base_hphc_200,200,first-200,171,rng,num-start-991,991,17520,15.269551038742065,True,,True,1,False,1000,True,1.0
./expes/v2_2020-11-09_3bh_200-prng-1,30_base_hphc_200,200,first-200,61,rng,num-start-671,671,17520,10.177178859710693,True,,True,1,False,1000,True,1.0
./expes/v2_2020-11-09_3bh_200-prng-1,30_base_hphc_200,200,first-200,91,rng,num-start-571,571,17520,10.114556550979614,True,,True,1,False,1000,True,1.0
./expes/v2_2020-11-09_3bh_200-prng-1,30_base_hphc_200,200,first-200,141,rng,num-start-931,931,17520,13.392385721206665,True,,True,1,False,1000,True,1.0
./expes/v2_2020-11-09_3bh_200-prng-1,30_base_hphc_200,200,first-200,191,rng,num-start-701,701,17520,8.862683057785034,True,,True,1,False,1000,True,1.0
./expes/v2_2020-11-09_3bh_200-prng-1,30_base_hphc_200,200,first-200,191,rng,num-start-101,101,17520,1.5657811164855957,True,,True,1,False,1000,True,1.0
./expes/v2_2020-11-09_3bh_200-prng-1,30_base_hphc_200,200,first-200,31,rng,num-start-181,181,17520,2.7433292865753174,True,,True,1,False,1000,True,1.0
./expes/v2_2020-11-09_3bh_200-prng-1,30_base_hphc_200,200,first-200,1,rng,num-start-631,631,17520,6.7892680168151855,True,,True,1,False,1000,True,1.0
./expes/v2_2020-11-09_3bh_200-prng-1,30_base_hphc_200,200,first-200,191,rng,num-start-131,131,17520,1.7724127769470215,True,,True,1,False,1000,True,1.0
./expes/v2_2020-11-09_3bh_200-prng-1,30_base_hphc_200,200,first-200,171,rng,num-start-931,931,17520,12.19818663597107,True,,True,1,False,1000,True,1.0
./expes/v2_2020-11-09_3bh_200-prng-1,30_base_hphc_200,200,first-200,1,rng,num-start-711,711,17520,7.768986940383911,True,,True,1,False,1000,True,1.0
./expes/v2_2020-11-09_3bh_200-prng-1,30_base_hphc_200,200,first-200,21,rng,num-start-911,911,17520,11.90308952331543,True,,True,1,False,1000,True,1.0
./expes/v2_2020-11-09_3bh_200-prng-1,30_base_hphc_200,200,first-200,151,rng,num-start-21,21,17520,1000.537136554718,False,,False,0,True,1000,True,0.0
./expes/v2_2020-11-09_3bh_200-prng-1,30_base_hphc_200,200,first-200,161,rng,num-start-61,61,17520,2.565248489379883,True,,True,1,False,1000,True,1.0
./expes/v2_2020-11-09_3bh_200-prng-1,30_base_hphc_200,200,first-200,141,rng,num-start-351,351,17520,5.145869731903076,True,,True,1,False,1000,True,1.0
./expes/v2_2020-11-09_3bh_200-prng-1,30_base_hphc_200,200,first-200,11,rng,num-start-311,311,17520,4.110643625259399,True,,True,1,False,1000,True,1.0
./expes/v2_2020-11-09_3bh_200-prng-1,30_base_hphc_200,200,first-200,121,rng,num-start-841,841,17520,13.01707148551941,True,,True,1,False,1000,True,1.0
./expes/v2_2020-11-09_3bh_200-prng-1,30_base_hphc_200,200,first-200,41,rng,num-start-981,981,17520,15.095018148422241,True,,True,1,False,1000,True,1.0
./expes/v2_2020-11-09_3bh_200-prng-1,30_base_hphc_200,200,first-200,131,rng,num-start-131,131,17520,1.7877252101898193,True,,True,1,False,1000,True,1.0
./expes/v2_2020-11-09_3bh_200-prng-1,30_base_hphc_200,200,first-200,31,rng,num-start-291,291,17520,4.2325334548950195,True,,True,1,False,1000,True,1.0
./expes/v2_2020-11-09_3bh_200-prng-1,30_base_hphc_200,200,first-200,81,rng,num-start-191,191,17520,2.8843047618865967,True,,True,1,False,1000,True,1.0
./expes/v2_2020-11-09_3bh_200-prng-1,30_base_hphc_200,200,first-200,51,rng,num-start-331,331,17520,4.627820730209351,True,,True,1,False,1000,True,1.0
./expes/v2_2020-11-09_3bh_200-prng-1,30_base_hphc_200,200,first-200,71,rng,num-start-121,121,17520,1.9468088150024414,True,,True,1,False,1000,True,1.0
./expes/v2_2020-11-09_3bh_200-prng-1,30_base_hphc_200,200,first-200,51,rng,num-start-511,511,17520,7.029065132141113,True,,True,1,False,1000,True,1.0
./expes/v2_2020-11-09_3bh_200-prng-1,30_base_hphc_200,200,first-200,131,rng,num-start-631,631,17520,8.152384757995605,True,,True,1,False,1000,True,1.0
./expes/v2_2020-11-09_3bh_200-prng-1,30_base_hphc_200,200,first-200,41,rng,num-start-621,621,17520,8.412606477737427,True,,True,1,False,1000,True,1.0
./expes/v2_2020-11-09_3bh_200-prng-1,30_base_hphc_200,200,first-200,81,rng,num-start-301,301,17520,4.3334832191467285,True,,True,1,False,1000,True,1.0
./expes/v2_2020-11-09_3bh_200-prng-1,30_base_hphc_200,200,first-200,161,rng,num-start-101,101,17520,1.432607650756836,True,,True,1,False,1000,True,1.0
./expes/v2_2020-11-09_3bh_200-prng-1,30_base_hphc_200,200,first-200,101,rng,num-start-111,111,17520,1.561549186706543,True,,True,1,False,1000,True,1.0
./expes/v2_2020-11-09_3bh_200-prng-1,30_base_hphc_200,200,first-200,11,rng,num-start-621,621,17520,7.3420093059539795,True,,True,1,False,1000,True,1.0
./expes/v2_2020-11-09_3bh_200-prng-1,30_base_hphc_200,200,first-200,11,rng,num-start-391,391,17520,5.064238548278809,True,,True,1,False,1000,True,1.0
./expes/v2_2020-11-09_3bh_200-prng-1,30_base_hphc_200,200,first-200,121,rng,num-start-401,401,17520,6.013960599899292,True,,True,1,False,1000,True,1.0
./expes/v2_2020-11-09_3bh_200-prng-1,30_base_hphc_200,200,first-200,151,rng,num-start-851,851,17520,12.00762152671814,True,,True,1,False,1000,True,1.0
./expes/v2_2020-11-09_3bh_200-prng-1,30_base_hphc_200,200,first-200,131,rng,num-start-321,321,17520,4.284131050109863,True,,True,1,False,1000,True,1.0
./expes/v2_2020-11-09_3bh_200-prng-1,30_base_hphc_200,200,first-200,71,rng,num-start-941,941,17520,14.875628471374512,True,,True,1,False,1000,True,1.0
./expes/v2_2020-11-09_3bh_200-prng-1,30_base_hphc_200,200,first-200,121,rng,num-start-31,31,17520,1000.4488701820374,False,,False,0,True,1000,True,0.0
./expes/v2_2020-11-09_3bh_200-prng-1,30_base_hphc_200,200,first-200,141,rng,num-start-561,561,17520,7.855370998382568,True,,True,1,False,1000,True,1.0
./expes/v2_2020-11-09_3bh_200-prng-1,30_base_hphc_200,200,first-200,121,rng,num-start-891,891,17520,13.15116000175476,True,,True,1,False,1000,True,1.0
./expes/v2_2020-11-09_3bh_200-prng-1,30_base_hphc_200,200,first-200,101,rng,num-start-731,731,17520,10.603864908218384,True,,True,1,False,1000,True,1.0
./expes/v2_2020-11-09_3bh_200-prng-1,30_base_hphc_200,200,first-200,111,rng,num-start-131,131,17520,2.0746302604675293,True,,True,1,False,1000,True,1.0
./expes/v2_2020-11-09_3bh_200-prng-1,30_base_hphc_200,200,first-200,131,rng,num-start-671,671,17520,10.013020038604736,True,,True,1,False,1000,True,1.0
./expes/v2_2020-11-09_3bh_200-prng-1,30_base_hphc_200,200,first-200,191,rng,num-start-141,141,17520,1.9615793228149414,True,,True,1,False,1000,True,1.0
./expes/v2_2020-11-09_3bh_200-prng-1,30_base_hphc_200,200,first-200,191,rng,num-start-881,881,17520,10.660534620285034,True,,True,1,False,1000,True,1.0
./expes/v2_2020-11-09_3bh_200-prng-1,30_base_hphc_200,200,first-200,101,rng,num-start-201,201,17520,3.1858718395233154,True,,True,1,False,1000,True,1.0
./expes/v2_2020-11-09_3bh_200-prng-1,30_base_hphc_200,200,first-200,11,rng,num-start-301,301,17520,3.8362560272216797,True,,True,1,False,1000,True,1.0
./expes/v2_2020-11-09_3bh_200-prng-1,30_base_hphc_200,200,first-200,131,rng,num-start-571,571,17520,8.847170352935791,True,,True,1,False,1000,True,1.0
./expes/v2_2020-11-09_3bh_200-prng-1,30_base_hphc_200,200,first-200,141,rng,num-start-501,501,17520,7.079078674316406,True,,True,1,False,1000,True,1.0
./expes/v2_2020-11-09_3bh_200-prng-1,30_base_hphc_200,200,first-200,111,rng,num-start-961,961,17520,14.29514217376709,True,,True,1,False,1000,True,1.0
./expes/v2_2020-11-09_3bh_200-prng-1,30_base_hphc_200,200,first-200,101,rng,num-start-751,751,17520,11.774072408676147,True,,True,1,False,1000,True,1.0
./expes/v2_2020-11-09_3bh_200-prng-1,30_base_hphc_200,200,first-200,151,rng,num-start-131,131,17520,1.88541579246521,True,,True,1,False,1000,True,1.0
./expes/v2_2020-11-09_3bh_200-prng-1,30_base_hphc_200,200,first-200,151,rng,num-start-481,481,17520,6.917475461959839,True,,True,1,False,1000,True,1.0
./expes/v2_2020-11-09_3bh_200-prng-1,30_base_hphc_200,200,first-200,111,rng,num-start-171,171,17520,2.5784788131713867,True,,True,1,False,1000,True,1.0
./expes/v2_2020-11-09_3bh_200-prng-1,30_base_hphc_200,200,first-200,1,rng,num-start-951,951,17520,10.61142373085022,True,,True,1,False,1000,True,1.0
./expes/v2_2020-11-09_3bh_200-prng-1,30_base_hphc_200,200,first-200,151,rng,num-start-631,631,17520,8.598057985305786,True,,True,1,False,1000,True,1.0
./expes/v2_2020-11-09_3bh_200-prng-1,30_base_hphc_200,200,first-200,101,rng,num-start-481,481,17520,7.678181409835815,True,,True,1,False,1000,True,1.0
./expes/v2_2020-11-09_3bh_200-prng-1,30_base_hphc_200,200,first-200,161,rng,num-start-871,871,17520,11.935792684555054,True,,True,1,False,1000,True,1.0
./expes/v2_2020-11-09_3bh_200-prng-1,30_base_hphc_200,200,first-200,121,rng,num-start-1,1,17520,0.024425983428955078,False,,False,2,False,1000,True,1.0
./expes/v2_2020-11-09_3bh_200-prng-1,30_base_hphc_200,200,first-200,51,rng,num-start-851,851,17520,13.612643718719482,True,,True,1,False,1000,True,1.0
./expes/v2_2020-11-09_3bh_200-prng-1,30_base_hphc_200,200,first-200,41,rng,num-start-871,871,17520,12.891271829605103,True,,True,1,False,1000,True,1.0
./expes/v2_2020-11-09_3bh_200-prng-1,30_base_hphc_200,200,first-200,71,rng,num-start-481,481,17520,7.30883264541626,True,,True,1,False,1000,True,1.0
./expes/v2_2020-11-09_3bh_200-prng-1,30_base_hphc_200,200,first-200,171,rng,num-start-401,401,17520,5.636517763137817,True,,True,1,False,1000,True,1.0
./expes/v2_2020-11-09_3bh_200-prng-1,30_base_hphc_200,200,first-200,71,rng,num-start-921,921,17520,12.680651664733887,True,,True,1,False,1000,True,1.0
./expes/v2_2020-11-09_3bh_200-prng-1,30_base_hphc_200,200,first-200,151,rng,num-start-731,731,17520,10.288795948028564,True,,True,1,False,1000,True,1.0
./expes/v2_2020-11-09_3bh_200-prng-1,30_base_hphc_200,200,first-200,51,rng,num-start-281,281,17520,4.026086330413818,True,,True,1,False,1000,True,1.0
./expes/v2_2020-11-09_3bh_200-prng-1,30_base_hphc_200,200,first-200,121,rng,num-start-221,221,17520,3.728040933609009,True,,True,1,False,1000,True,1.0
./expes/v2_2020-11-09_3bh_200-prng-1,30_base_hphc_200,200,first-200,171,rng,num-start-661,661,17520,8.718212127685547,True,,True,1,False,1000,True,1.0
./expes/v2_2020-11-09_3bh_200-prng-1,30_base_hphc_200,200,first-200,101,rng,num-start-711,711,17520,12.194992780685425,True,,True,1,False,1000,True,1.0
./expes/v2_2020-11-09_3bh_200-prng-1,30_base_hphc_200,200,first-200,81,rng,num-start-891,891,17520,12.53717565536499,True,,True,1,False,1000,True,1.0
./expes/v2_2020-11-09_3bh_200-prng-1,30_base_hphc_200,200,first-200,11,rng,num-start-331,331,17520,4.5847508907318115,True,,True,1,False,1000,True,1.0
./expes/v2_2020-11-09_3bh_200-prng-1,30_base_hphc_200,200,first-200,51,rng,num-start-531,531,17520,7.971796035766602,True,,True,1,False,1000,True,1.0
./expes/v2_2020-11-09_3bh_200-prng-1,30_base_hphc_200,200,first-200,31,rng,num-start-891,891,17520,13.560750007629395,True,,True,1,False,1000,True,1.0
./expes/v2_2020-11-09_3bh_200-prng-1,30_base_hphc_200,200,first-200,21,rng,num-start-811,811,17520,10.667314767837524,True,,True,1,False,1000,True,1.0
./expes/v2_2020-11-09_3bh_200-prng-1,30_base_hphc_200,200,first-200,131,rng,num-start-661,661,17520,8.837754011154175,True,,True,1,False,1000,True,1.0
./expes/v2_2020-11-09_3bh_200-prng-1,30_base_hphc_200,200,first-200,121,rng,num-start-31,31,17520,1000.4515240192413,False,,False,0,True,1000,True,0.0
./expes/v2_2020-11-09_3bh_200-prng-1,30_base_hphc_200,200,first-200,181,rng,num-start-471,471,17520,6.290308952331543,True,,True,1,False,1000,True,1.0
./expes/v2_2020-11-09_3bh_200-prng-1,30_base_hphc_200,200,first-200,191,rng,num-start-691,691,17520,8.288310527801514,True,,True,1,False,1000,True,1.0
./expes/v2_2020-11-09_3bh_200-prng-1,30_base_hphc_200,200,first-200,191,rng,num-start-431,431,17520,5.366641283035278,True,,True,1,False,1000,True,1.0
./expes/v2_2020-11-09_3bh_200-prng-1,30_base_hphc_200,200,first-200,151,rng,num-start-771,771,17520,10.774663925170898,True,,True,1,False,1000,True,1.0
./expes/v2_2020-11-09_3bh_200-prng-1,30_base_hphc_200,200,first-200,21,rng,num-start-51,51,17520,1.3054773807525635,True,,True,1,False,1000,True,1.0
./expes/v2_2020-11-09_3bh_200-prng-1,30_base_hphc_200,200,first-200,191,rng,num-start-641,641,17520,7.967018127441406,True,,True,1,False,1000,True,1.0
./expes/v2_2020-11-09_3bh_200-prng-1,30_base_hphc_200,200,first-200,1,rng,num-start-311,311,17520,3.500316619873047,True,,True,1,False,1000,True,1.0
./expes/v2_2020-11-09_3bh_200-prng-1,30_base_hphc_200,200,first-200,31,rng,num-start-691,691,17520,10.002676010131836,True,,True,1,False,1000,True,1.0
./expes/v2_2020-11-09_3bh_200-prng-1,30_base_hphc_200,200,first-200,1,rng,num-start-881,881,17520,9.818984508514404,True,,True,1,False,1000,True,1.0
./expes/v2_2020-11-09_3bh_200-prng-1,30_base_hphc_200,200,first-200,11,rng,num-start-991,991,17520,14.383814811706543,True,,True,1,False,1000,True,1.0
./expes/v2_2020-11-09_3bh_200-prng-1,30_base_hphc_200,200,first-200,71,rng,num-start-241,241,17520,3.9653947353363037,True,,True,1,False,1000,True,1.0
./expes/v2_2020-11-09_3bh_200-prng-1,30_base_hphc_200,200,first-200,91,rng,num-start-631,631,17520,9.90210771560669,True,,True,1,False,1000,True,1.0
./expes/v2_2020-11-09_3bh_200-prng-1,30_base_hphc_200,200,first-200,161,rng,num-start-811,811,17520,12.894638538360596,True,,True,1,False,1000,True,1.0
./expes/v2_2020-11-09_3bh_200-prng-1,30_base_hphc_200,200,first-200,121,rng,num-start-971,971,17520,14.855138063430786,True,,True,1,False,1000,True,1.0
./expes/v2_2020-11-09_3bh_200-prng-1,30_base_hphc_200,200,first-200,61,rng,num-start-811,811,17520,12.511129140853882,True,,True,1,False,1000,True,1.0
./expes/v2_2020-11-09_3bh_200-prng-1,30_base_hphc_200,200,first-200,101,rng,num-start-61,61,17520,564.5822875499725,True,,True,1,False,1000,True,1.0
./expes/v2_2020-11-09_3bh_200-prng-1,30_base_hphc_200,200,first-200,31,rng,num-start-81,81,17520,1.3907783031463623,True,,True,1,False,1000,True,1.0
./expes/v2_2020-11-09_3bh_200-prng-1,30_base_hphc_200,200,first-200,141,rng,num-start-181,181,17520,2.7090373039245605,True,,True,1,False,1000,True,1.0
./expes/v2_2020-11-09_3bh_200-prng-1,30_base_hphc_200,200,first-200,191,rng,num-start-201,201,17520,2.6338672637939453,True,,True,1,False,1000,True,1.0
./expes/v2_2020-11-09_3bh_200-prng-1,30_base_hphc_200,200,first-200,61,rng,num-start-391,391,17520,4.972035646438599,True,,True,1,False,1000,True,1.0
./expes/v2_2020-11-09_3bh_200-prng-1,30_base_hphc_200,200,first-200,81,rng,num-start-411,411,17520,5.3213372230529785,True,,True,1,False,1000,True,1.0
./expes/v2_2020-11-09_3bh_200-prng-1,30_base_hphc_200,200,first-200,101,rng,num-start-431,431,17520,6.230461359024048,True,,True,1,False,1000,True,1.0
./expes/v2_2020-11-09_3bh_200-prng-1,30_base_hphc_200,200,first-200,1,rng,num-start-871,871,17520,8.981038570404053,True,,True,1,False,1000,True,1.0
./expes/v2_2020-11-09_3bh_200-prng-1,30_base_hphc_200,200,first-200,111,rng,num-start-631,631,17520,8.880840063095093,True,,True,1,False,1000,True,1.0
./expes/v2_2020-11-09_3bh_200-prng-1,30_base_hphc_200,200,first-200,111,rng,num-start-341,341,17520,5.200746774673462,True,,True,1,False,1000,True,1.0
./expes/v2_2020-11-09_3bh_200-prng-1,30_base_hphc_200,200,first-200,181,rng,num-start-601,601,17520,9.699964046478271,True,,True,1,False,1000,True,1.0
./expes/v2_2020-11-09_3bh_200-prng-1,30_base_hphc_200,200,first-200,191,rng,num-start-371,371,17520,4.654484510421753,True,,True,1,False,1000,True,1.0
./expes/v2_2020-11-09_3bh_200-prng-1,30_base_hphc_200,200,first-200,181,rng,num-start-781,781,17520,10.939503908157349,True,,True,1,False,1000,True,1.0
./expes/v2_2020-11-09_3bh_200-prng-1,30_base_hphc_200,200,first-200,121,rng,num-start-791,791,17520,12.532374620437622,True,,True,1,False,1000,True,1.0
./expes/v2_2020-11-09_3bh_200-prng-1,30_base_hphc_200,200,first-200,101,rng,num-start-761,761,17520,12.636553764343262,True,,True,1,False,1000,True,1.0
./expes/v2_2020-11-09_3bh_200-prng-1,30_base_hphc_200,200,first-200,171,rng,num-start-331,331,17520,4.689152002334595,True,,True,1,False,1000,True,1.0
./expes/v2_2020-11-09_3bh_200-prng-1,30_base_hphc_200,200,first-200,141,rng,num-start-481,481,17520,6.896789789199829,True,,True,1,False,1000,True,1.0
./expes/v2_2020-11-09_3bh_200-prng-1,30_base_hphc_200,200,first-200,131,rng,num-start-681,681,17520,9.487459421157837,True,,True,1,False,1000,True,1.0
./expes/v2_2020-11-09_3bh_200-prng-1,30_base_hphc_200,200,first-200,31,rng,num-start-271,271,17520,4.03908109664917,True,,True,1,False,1000,True,1.0
./expes/v2_2020-11-09_3bh_200-prng-1,30_base_hphc_200,200,first-200,101,rng,num-start-921,921,17520,14.715588808059692,True,,True,1,False,1000,True,1.0
./expes/v2_2020-11-09_3bh_200-prng-1,30_base_hphc_200,200,first-200,111,rng,num-start-931,931,17520,14.665462017059326,True,,True,1,False,1000,True,1.0
./expes/v2_2020-11-09_3bh_200-prng-1,30_base_hphc_200,200,first-200,141,rng,num-start-181,181,17520,2.8541994094848633,True,,True,1,False,1000,True,1.0
./expes/v2_2020-11-09_3bh_200-prng-1,30_base_hphc_200,200,first-200,121,rng,num-start-751,751,17520,10.949421882629395,True,,True,1,False,1000,True,1.0
./expes/v2_2020-11-09_3bh_200-prng-1,30_base_hphc_200,200,first-200,51,rng,num-start-731,731,17520,10.240154027938843,True,,True,1,False,1000,True,1.0
./expes/v2_2020-11-09_3bh_200-prng-1,30_base_hphc_200,200,first-200,91,rng,num-start-621,621,17520,8.362244606018066,True,,True,1,False,1000,True,1.0
./expes/v2_2020-11-09_3bh_200-prng-1,30_base_hphc_200,200,first-200,71,rng,num-start-701,701,17520,10.119811058044434,True,,True,1,False,1000,True,1.0
./expes/v2_2020-11-09_3bh_200-prng-1,30_base_hphc_200,200,first-200,191,rng,num-start-801,801,17520,9.801283121109009,True,,True,1,False,1000,True,1.0
./expes/v2_2020-11-09_3bh_200-prng-1,30_base_hphc_200,200,first-200,151,rng,num-start-381,381,17520,5.587440252304077,True,,True,1,False,1000,True,1.0
./expes/v2_2020-11-09_3bh_200-prng-1,30_base_hphc_200,200,first-200,11,rng,num-start-91,91,17520,1.3955092430114746,True,,True,1,False,1000,True,1.0
./expes/v2_2020-11-09_3bh_200-prng-1,30_base_hphc_200,200,first-200,81,rng,num-start-651,651,17520,10.114116668701172,True,,True,1,False,1000,True,1.0
./expes/v2_2020-11-09_3bh_200-prng-1,30_base_hphc_200,200,first-200,131,rng,num-start-51,51,17520,1000.644528388977,False,,False,0,True,1000,True,0.0
./expes/v2_2020-11-09_3bh_200-prng-1,30_base_hphc_200,200,first-200,181,rng,num-start-981,981,17520,13.018973588943481,True,,True,1,False,1000,True,1.0
./expes/v2_2020-11-09_3bh_200-prng-1,30_base_hphc_200,200,first-200,151,rng,num-start-691,691,17520,10.417554140090942,True,,True,1,False,1000,True,1.0
./expes/v2_2020-11-09_3bh_200-prng-1,30_base_hphc_200,200,first-200,191,rng,num-start-281,281,17520,3.624535083770752,True,,True,1,False,1000,True,1.0
./expes/v2_2020-11-09_3bh_200-prng-1,30_base_hphc_200,200,first-200,31,rng,num-start-431,431,17520,6.556048154830933,True,,True,1,False,1000,True,1.0
./expes/v2_2020-11-09_3bh_200-prng-1,30_base_hphc_200,200,first-200,131,rng,num-start-731,731,17520,10.404900074005127,True,,True,1,False,1000,True,1.0
./expes/v2_2020-11-09_3bh_200-prng-1,30_base_hphc_200,200,first-200,11,rng,num-start-201,201,17520,2.8849308490753174,True,,True,1,False,1000,True,1.0
./expes/v2_2020-11-09_3bh_200-prng-1,30_base_hphc_200,200,first-200,31,rng,num-start-611,611,17520,8.406165838241577,True,,True,1,False,1000,True,1.0
./expes/v2_2020-11-09_3bh_200-prng-1,30_base_hphc_200,200,first-200,131,rng,num-start-241,241,17520,3.9316389560699463,True,,True,1,False,1000,True,1.0
./expes/v2_2020-11-09_3bh_200-prng-1,30_base_hphc_200,200,first-200,11,rng,num-start-91,91,17520,1.6139895915985107,True,,True,1,False,1000,True,1.0
./expes/v2_2020-11-09_3bh_200-prng-1,30_base_hphc_200,200,first-200,81,rng,num-start-931,931,17520,14.991922855377197,True,,True,1,False,1000,True,1.0
./expes/v2_2020-11-09_3bh_200-prng-1,30_base_hphc_200,200,first-200,151,rng,num-start-131,131,17520,1.978398084640503,True,,True,1,False,1000,True,1.0
./expes/v2_2020-11-09_3bh_200-prng-1,30_base_hphc_200,200,first-200,181,rng,num-start-91,91,17520,1.2587082386016846,True,,True,1,False,1000,True,1.0
./expes/v2_2020-11-09_3bh_200-prng-1,30_base_hphc_200,200,first-200,141,rng,num-start-421,421,17520,5.983394622802734,True,,True,1,False,1000,True,1.0
./expes/v2_2020-11-09_3bh_200-prng-1,30_base_hphc_200,200,first-200,91,rng,num-start-931,931,17520,12.739302396774292,True,,True,1,False,1000,True,1.0
./expes/v2_2020-11-09_3bh_200-prng-1,30_base_hphc_200,200,first-200,91,rng,num-start-711,711,17520,11.277620553970337,True,,True,1,False,1000,True,1.0
./expes/v2_2020-11-09_3bh_200-prng-1,30_base_hphc_200,200,first-200,131,rng,num-start-901,901,17520,13.250609397888184,True,,True,1,False,1000,True,1.0
./expes/v2_2020-11-09_3bh_200-prng-1,30_base_hphc_200,200,first-200,11,rng,num-start-821,821,17520,10.022652387619019,True,,True,1,False,1000,True,1.0
./expes/v2_2020-11-09_3bh_200-prng-1,30_base_hphc_200,200,first-200,51,rng,num-start-241,241,17520,3.687506675720215,True,,True,1,False,1000,True,1.0
./expes/v2_2020-11-09_3bh_200-prng-1,30_base_hphc_200,200,first-200,41,rng,num-start-71,71,17520,1.797170877456665,True,,True,1,False,1000,True,1.0
./expes/v2_2020-11-09_3bh_200-prng-1,30_base_hphc_200,200,first-200,101,rng,num-start-101,101,17520,1.422482967376709,True,,True,1,False,1000,True,1.0
./expes/v2_2020-11-09_3bh_200-prng-1,30_base_hphc_200,200,first-200,131,rng,num-start-1,1,17520,0.021187305450439453,False,,False,2,False,1000,True,1.0
./expes/v2_2020-11-09_3bh_200-prng-1,30_base_hphc_200,200,first-200,131,rng,num-start-271,271,17520,4.5611350536346436,True,,True,1,False,1000,True,1.0
./expes/v2_2020-11-09_3bh_200-prng-1,30_base_hphc_200,200,first-200,61,rng,num-start-381,381,17520,5.214028835296631,True,,True,1,False,1000,True,1.0
./expes/v2_2020-11-09_3bh_200-prng-1,30_base_hphc_200,200,first-200,151,rng,num-start-801,801,17520,10.90249752998352,True,,True,1,False,1000,True,1.0
./expes/v2_2020-11-09_3bh_200-prng-1,30_base_hphc_200,200,first-200,151,rng,num-start-861,861,17520,11.460155487060547,True,,True,1,False,1000,True,1.0
./expes/v2_2020-11-09_3bh_200-prng-1,30_base_hphc_200,200,first-200,111,rng,num-start-731,731,17520,9.664525985717773,True,,True,1,False,1000,True,1.0
./expes/v2_2020-11-09_3bh_200-prng-1,30_base_hphc_200,200,first-200,81,rng,num-start-541,541,17520,7.668187141418457,True,,True,1,False,1000,True,1.0
./expes/v2_2020-11-09_3bh_200-prng-1,30_base_hphc_200,200,first-200,71,rng,num-start-941,941,17520,13.54610276222229,True,,True,1,False,1000,True,1.0
./expes/v2_2020-11-09_3bh_200-prng-1,30_base_hphc_200,200,first-200,31,rng,num-start-451,451,17520,6.491238117218018,True,,True,1,False,1000,True,1.0
./expes/v2_2020-11-09_3bh_200-prng-1,30_base_hphc_200,200,first-200,41,rng,num-start-261,261,17520,3.778585195541382,True,,True,1,False,1000,True,1.0
./expes/v2_2020-11-09_3bh_200-prng-1,30_base_hphc_200,200,first-200,121,rng,num-start-971,971,17520,14.362727165222168,True,,True,1,False,1000,True,1.0
./expes/v2_2020-11-09_3bh_200-prng-1,30_base_hphc_200,200,first-200,111,rng,num-start-1,1,17520,0.02211475372314453,False,,False,2,False,1000,True,1.0
./expes/v2_2020-11-09_3bh_200-prng-1,30_base_hphc_200,200,first-200,181,rng,num-start-531,531,17520,7.485381364822388,True,,True,1,False,1000,True,1.0
./expes/v2_2020-11-09_3bh_200-prng-1,30_base_hphc_200,200,first-200,131,rng,num-start-21,21,17520,1000.3723177909851,False,,False,0,True,1000,True,0.0
./expes/v2_2020-11-09_3bh_200-prng-1,30_base_hphc_200,200,first-200,61,rng,num-start-251,251,17520,3.961813449859619,True,,True,1,False,1000,True,1.0
./expes/v2_2020-11-09_3bh_200-prng-1,30_base_hphc_200,200,first-200,41,rng,num-start-501,501,17520,7.358073472976685,True,,True,1,False,1000,True,1.0
./expes/v2_2020-11-09_3bh_200-prng-1,30_base_hphc_200,200,first-200,1,rng,num-start-401,401,17520,4.447582721710205,True,,True,1,False,1000,True,1.0
./expes/v2_2020-11-09_3bh_200-prng-1,30_base_hphc_200,200,first-200,11,rng,num-start-61,61,17520,0.9502041339874268,True,,True,1,False,1000,True,1.0
./expes/v2_2020-11-09_3bh_200-prng-1,30_base_hphc_200,200,first-200,21,rng,num-start-921,921,17520,13.137260437011719,True,,True,1,False,1000,True,1.0
./expes/v2_2020-11-09_3bh_200-prng-1,30_base_hphc_200,200,first-200,151,rng,num-start-941,941,17520,13.25393033027649,True,,True,1,False,1000,True,1.0
./expes/v2_2020-11-09_3bh_200-prng-1,30_base_hphc_200,200,first-200,61,rng,num-start-291,291,17520,4.2906529903411865,True,,True,1,False,1000,True,1.0
./expes/v2_2020-11-09_3bh_200-prng-1,30_base_hphc_200,200,first-200,41,rng,num-start-671,671,17520,9.69911503791809,True,,True,1,False,1000,True,1.0
./expes/v2_2020-11-09_3bh_200-prng-1,30_base_hphc_200,200,first-200,71,rng,num-start-841,841,17520,12.959356546401978,True,,True,1,False,1000,True,1.0
./expes/v2_2020-11-09_3bh_200-prng-1,30_base_hphc_200,200,first-200,31,rng,num-start-91,91,17520,1.4415345191955566,True,,True,1,False,1000,True,1.0
./expes/v2_2020-11-09_3bh_200-prng-1,30_base_hphc_200,200,first-200,101,rng,num-start-471,471,17520,6.830336809158325,True,,True,1,False,1000,True,1.0
./expes/v2_2020-11-09_3bh_200-prng-1,30_base_hphc_200,200,first-200,181,rng,num-start-791,791,17520,11.3999924659729,True,,True,1,False,1000,True,1.0
./expes/v2_2020-11-09_3bh_200-prng-1,30_base_hphc_200,200,first-200,151,rng,num-start-551,551,17520,8.64347243309021,True,,True,1,False,1000,True,1.0
./expes/v2_2020-11-09_3bh_200-prng-1,30_base_hphc_200,200,first-200,61,rng,num-start-41,41,17520,1000.5015678405762,False,,False,0,True,1000,True,0.0
./expes/v2_2020-11-09_3bh_200-prng-1,30_base_hphc_200,200,first-200,111,rng,num-start-131,131,17520,2.4025516510009766,True,,True,1,False,1000,True,1.0
./expes/v2_2020-11-09_3bh_200-prng-1,30_base_hphc_200,200,first-200,101,rng,num-start-131,131,17520,1.979910135269165,True,,True,1,False,1000,True,1.0
./expes/v2_2020-11-09_3bh_200-prng-1,30_base_hphc_200,200,first-200,11,rng,num-start-941,941,17520,13.32713007926941,True,,True,1,False,1000,True,1.0
./expes/v2_2020-11-09_3bh_200-prng-1,30_base_hphc_200,200,first-200,171,rng,num-start-941,941,17520,14.545374393463135,True,,True,1,False,1000,True,1.0
./expes/v2_2020-11-09_3bh_200-prng-1,30_base_hphc_200,200,first-200,41,rng,num-start-821,821,17520,11.656491994857788,True,,True,1,False,1000,True,1.0
./expes/v2_2020-11-09_3bh_200-prng-1,30_base_hphc_200,200,first-200,181,rng,num-start-711,711,17520,9.916654109954834,True,,True,1,False,1000,True,1.0
./expes/v2_2020-11-09_3bh_200-prng-1,30_base_hphc_200,200,first-200,181,rng,num-start-211,211,17520,2.8980190753936768,True,,True,1,False,1000,True,1.0
./expes/v2_2020-11-09_3bh_200-prng-1,30_base_hphc_200,200,first-200,181,rng,num-start-731,731,17520,9.735103607177734,True,,True,1,False,1000,True,1.0
./expes/v2_2020-11-09_3bh_200-prng-1,30_base_hphc_200,200,first-200,141,rng,num-start-691,691,17520,9.512138843536377,True,,True,1,False,1000,True,1.0
./expes/v2_2020-11-09_3bh_200-prng-1,30_base_hphc_200,200,first-200,191,rng,num-start-681,681,17520,7.6899731159210205,True,,True,1,False,1000,True,1.0
./expes/v2_2020-11-09_3bh_200-prng-1,30_base_hphc_200,200,first-200,81,rng,num-start-991,991,17520,16.10482168197632,True,,True,1,False,1000,True,1.0
./expes/v2_2020-11-09_3bh_200-prng-1,30_base_hphc_200,200,first-200,131,rng,num-start-581,581,17520,8.547521591186523,True,,True,1,False,1000,True,1.0
./expes/v2_2020-11-09_3bh_200-prng-1,30_base_hphc_200,200,first-200,61,rng,num-start-301,301,17520,4.696698427200317,True,,True,1,False,1000,True,1.0
./expes/v2_2020-11-09_3bh_200-prng-1,30_base_hphc_200,200,first-200,71,rng,num-start-251,251,17520,3.8221123218536377,True,,True,1,False,1000,True,1.0
./expes/v2_2020-11-09_3bh_200-prng-1,30_base_hphc_200,200,first-200,171,rng,num-start-881,881,17520,13.6920166015625,True,,True,1,False,1000,True,1.0
./expes/v2_2020-11-09_3bh_200-prng-1,30_base_hphc_200,200,first-200,171,rng,num-start-331,331,17520,4.963900566101074,True,,True,1,False,1000,True,1.0
./expes/v2_2020-11-09_3bh_200-prng-1,30_base_hphc_200,200,first-200,1,rng,num-start-211,211,17520,2.3215997219085693,True,,True,1,False,1000,True,1.0
./expes/v2_2020-11-09_3bh_200-prng-1,30_base_hphc_200,200,first-200,141,rng,num-start-491,491,17520,6.995184898376465,True,,True,1,False,1000,True,1.0
./expes/v2_2020-11-09_3bh_200-prng-1,30_base_hphc_200,200,first-200,111,rng,num-start-401,401,17520,5.739495277404785,True,,True,1,False,1000,True,1.0
./expes/v2_2020-11-09_3bh_200-prng-1,30_base_hphc_200,200,first-200,111,rng,num-start-661,661,17520,10.468230485916138,True,,True,1,False,1000,True,1.0
./expes/v2_2020-11-09_3bh_200-prng-1,30_base_hphc_200,200,first-200,91,rng,num-start-711,711,17520,10.369559526443481,True,,True,1,False,1000,True,1.0
./expes/v2_2020-11-09_3bh_200-prng-1,30_base_hphc_200,200,first-200,91,rng,num-start-661,661,17520,10.022669315338135,True,,True,1,False,1000,True,1.0
./expes/v2_2020-11-09_3bh_200-prng-1,30_base_hphc_200,200,first-200,191,rng,num-start-811,811,17520,9.44978928565979,True,,True,1,False,1000,True,1.0
./expes/v2_2020-11-09_3bh_200-prng-1,30_base_hphc_200,200,first-200,111,rng,num-start-331,331,17520,4.711486577987671,True,,True,1,False,1000,True,1.0
./expes/v2_2020-11-09_3bh_200-prng-1,30_base_hphc_200,200,first-200,111,rng,num-start-381,381,17520,5.4225804805755615,True,,True,1,False,1000,True,1.0
./expes/v2_2020-11-09_3bh_200-prng-1,30_base_hphc_200,200,first-200,41,rng,num-start-901,901,17520,14.01343846321106,True,,True,1,False,1000,True,1.0
./expes/v2_2020-11-09_3bh_200-prng-1,30_base_hphc_200,200,first-200,61,rng,num-start-231,231,17520,3.423788070678711,True,,True,1,False,1000,True,1.0
./expes/v2_2020-11-09_3bh_200-prng-1,30_base_hphc_200,200,first-200,121,rng,num-start-561,561,17520,9.537034749984741,True,,True,1,False,1000,True,1.0
./expes/v2_2020-11-09_3bh_200-prng-1,30_base_hphc_200,200,first-200,71,rng,num-start-781,781,17520,11.74039077758789,True,,True,1,False,1000,True,1.0
./expes/v2_2020-11-09_3bh_200-prng-1,30_base_hphc_200,200,first-200,171,rng,num-start-81,81,17520,1.3947720527648926,True,,True,1,False,1000,True,1.0
./expes/v2_2020-11-09_3bh_200-prng-1,30_base_hphc_200,200,first-200,141,rng,num-start-771,771,17520,18.011862754821777,True,,True,1,False,1000,True,1.0
./expes/v2_2020-11-09_3bh_200-prng-1,30_base_hphc_200,200,first-200,1,rng,num-start-51,51,17520,0.5314843654632568,True,,True,1,False,1000,True,1.0
./expes/v2_2020-11-09_3bh_200-prng-1,30_base_hphc_200,200,first-200,31,rng,num-start-581,581,17520,8.945283889770508,True,,True,1,False,1000,True,1.0
./expes/v2_2020-11-09_3bh_200-prng-1,30_base_hphc_200,200,first-200,61,rng,num-start-111,111,17520,1.461409091949463,True,,True,1,False,1000,True,1.0
./expes/v2_2020-11-09_3bh_200-prng-1,30_base_hphc_200,200,first-200,161,rng,num-start-111,111,17520,1.7995233535766602,True,,True,1,False,1000,True,1.0
./expes/v2_2020-11-09_3bh_200-prng-1,30_base_hphc_200,200,first-200,131,rng,num-start-171,171,17520,2.8672146797180176,True,,True,1,False,1000,True,1.0
./expes/v2_2020-11-09_3bh_200-prng-1,30_base_hphc_200,200,first-200,31,rng,num-start-701,701,17520,10.335213661193848,True,,True,1,False,1000,True,1.0
./expes/v2_2020-11-09_3bh_200-prng-1,30_base_hphc_200,200,first-200,191,rng,num-start-191,191,17520,2.734609365463257,True,,True,1,False,1000,True,1.0
./expes/v2_2020-11-09_3bh_200-prng-1,30_base_hphc_200,200,first-200,131,rng,num-start-891,891,17520,13.897822141647339,True,,True,1,False,1000,True,1.0
./expes/v2_2020-11-09_3bh_200-prng-1,30_base_hphc_200,200,first-200,171,rng,num-start-321,321,17520,4.074279308319092,True,,True,1,False,1000,True,1.0
./expes/v2_2020-11-09_3bh_200-prng-1,30_base_hphc_200,200,first-200,171,rng,num-start-821,821,17520,10.76987099647522,True,,True,1,False,1000,True,1.0
./expes/v2_2020-11-09_3bh_200-prng-1,30_base_hphc_200,200,first-200,71,rng,num-start-721,721,17520,9.983266353607178,True,,True,1,False,1000,True,1.0
./expes/v2_2020-11-09_3bh_200-prng-1,30_base_hphc_200,200,first-200,111,rng,num-start-601,601,17520,9.078755617141724,True,,True,1,False,1000,True,1.0
./expes/v2_2020-11-09_3bh_200-prng-1,30_base_hphc_200,200,first-200,181,rng,num-start-861,861,17520,11.242403030395508,True,,True,1,False,1000,True,1.0
./expes/v2_2020-11-09_3bh_200-prng-1,30_base_hphc_200,200,first-200,31,rng,num-start-211,211,17520,3.051154851913452,True,,True,1,False,1000,True,1.0
./expes/v2_2020-11-09_3bh_200-prng-1,30_base_hphc_200,200,first-200,161,rng,num-start-161,161,17520,2.403899669647217,True,,True,1,False,1000,True,1.0
./expes/v2_2020-11-09_3bh_200-prng-1,30_base_hphc_200,200,first-200,61,rng,num-start-211,211,17520,3.3483784198760986,True,,True,1,False,1000,True,1.0
./expes/v2_2020-11-09_3bh_200-prng-1,30_base_hphc_200,200,first-200,61,rng,num-start-81,81,17520,2.310720443725586,True,,True,1,False,1000,True,1.0
./expes/v2_2020-11-09_3bh_200-prng-1,30_base_hphc_200,200,first-200,1,rng,num-start-91,91,17520,0.9826629161834717,True,,True,1,False,1000,True,1.0
./expes/v2_2020-11-09_3bh_200-prng-1,30_base_hphc_200,200,first-200,81,rng,num-start-241,241,17520,3.8914735317230225,True,,True,1,False,1000,True,1.0
./expes/v2_2020-11-09_3bh_200-prng-1,30_base_hphc_200,200,first-200,81,rng,num-start-491,491,17520,7.287514925003052,True,,True,1,False,1000,True,1.0
./expes/v2_2020-11-09_3bh_200-prng-1,30_base_hphc_200,200,first-200,191,rng,num-start-631,631,17520,8.54274034500122,True,,True,1,False,1000,True,1.0
./expes/v2_2020-11-09_3bh_200-prng-1,30_base_hphc_200,200,first-200,191,rng,num-start-381,381,17520,4.817021608352661,True,,True,1,False,1000,True,1.0
./expes/v2_2020-11-09_3bh_200-prng-1,30_base_hphc_200,200,first-200,71,rng,num-start-961,961,17520,16.004289150238037,True,,True,1,False,1000,True,1.0
./expes/v2_2020-11-09_3bh_200-prng-1,30_base_hphc_200,200,first-200,171,rng,num-start-461,461,17520,6.406965494155884,True,,True,1,False,1000,True,1.0
./expes/v2_2020-11-09_3bh_200-prng-1,30_base_hphc_200,200,first-200,171,rng,num-start-951,951,17520,13.171135187149048,True,,True,1,False,1000,True,1.0
./expes/v2_2020-11-09_3bh_200-prng-1,30_base_hphc_200,200,first-200,21,rng,num-start-691,691,17520,9.443792819976807,True,,True,1,False,1000,True,1.0
./expes/v2_2020-11-09_3bh_200-prng-1,30_base_hphc_200,200,first-200,71,rng,num-start-851,851,17520,12.99618935585022,True,,True,1,False,1000,True,1.0
./expes/v2_2020-11-09_3bh_200-prng-1,30_base_hphc_200,200,first-200,131,rng,num-start-861,861,17520,11.105461835861206,True,,True,1,False,1000,True,1.0
./expes/v2_2020-11-09_3bh_200-prng-1,30_base_hphc_200,200,first-200,81,rng,num-start-741,741,17520,11.462861776351929,True,,True,1,False,1000,True,1.0
./expes/v2_2020-11-09_3bh_200-prng-1,30_base_hphc_200,200,first-200,81,rng,num-start-271,271,17520,4.451512098312378,True,,True,1,False,1000,True,1.0
./expes/v2_2020-11-09_3bh_200-prng-1,30_base_hphc_200,200,first-200,41,rng,num-start-851,851,17520,11.586901903152466,True,,True,1,False,1000,True,1.0
./expes/v2_2020-11-09_3bh_200-prng-1,30_base_hphc_200,200,first-200,71,rng,num-start-341,341,17520,4.892179489135742,True,,True,1,False,1000,True,1.0
./expes/v2_2020-11-09_3bh_200-prng-1,30_base_hphc_200,200,first-200,111,rng,num-start-931,931,17520,12.529853820800781,True,,True,1,False,1000,True,1.0
./expes/v2_2020-11-09_3bh_200-prng-1,30_base_hphc_200,200,first-200,71,rng,num-start-421,421,17520,6.012244701385498,True,,True,1,False,1000,True,1.0
./expes/v2_2020-11-09_3bh_200-prng-1,30_base_hphc_200,200,first-200,191,rng,num-start-311,311,17520,3.8044321537017822,True,,True,1,False,1000,True,1.0
./expes/v2_2020-11-09_3bh_200-prng-1,30_base_hphc_200,200,first-200,21,rng,num-start-131,131,17520,1.9174821376800537,True,,True,1,False,1000,True,1.0
./expes/v2_2020-11-09_3bh_200-prng-1,30_base_hphc_200,200,first-200,81,rng,num-start-161,161,17520,2.3500356674194336,True,,True,1,False,1000,True,1.0
./expes/v2_2020-11-09_3bh_200-prng-1,30_base_hphc_200,200,first-200,51,rng,num-start-421,421,17520,5.4205169677734375,True,,True,1,False,1000,True,1.0
./expes/v2_2020-11-09_3bh_200-prng-1,30_base_hphc_200,200,first-200,41,rng,num-start-311,311,17520,4.386868715286255,True,,True,1,False,1000,True,1.0
./expes/v2_2020-11-09_3bh_200-prng-1,30_base_hphc_200,200,first-200,171,rng,num-start-101,101,17520,1.4546914100646973,True,,True,1,False,1000,True,1.0
./expes/v2_2020-11-09_3bh_200-prng-1,30_base_hphc_200,200,first-200,141,rng,num-start-621,621,17520,8.188483715057373,True,,True,1,False,1000,True,1.0
./expes/v2_2020-11-09_3bh_200-prng-1,30_base_hphc_200,200,first-200,171,rng,num-start-591,591,17520,7.72939920425415,True,,True,1,False,1000,True,1.0
./expes/v2_2020-11-09_3bh_200-prng-1,30_base_hphc_200,200,first-200,81,rng,num-start-851,851,17520,11.46414065361023,True,,True,1,False,1000,True,1.0
./expes/v2_2020-11-09_3bh_200-prng-1,30_base_hphc_200,200,first-200,41,rng,num-start-941,941,17520,13.459935665130615,True,,True,1,False,1000,True,1.0
./expes/v2_2020-11-09_3bh_200-prng-1,30_base_hphc_200,200,first-200,61,rng,num-start-201,201,17520,3.0491158962249756,True,,True,1,False,1000,True,1.0
./expes/v2_2020-11-09_3bh_200-prng-1,30_base_hphc_200,200,first-200,51,rng,num-start-391,391,17520,5.856164455413818,True,,True,1,False,1000,True,1.0
./expes/v2_2020-11-09_3bh_200-prng-1,30_base_hphc_200,200,first-200,71,rng,num-start-91,91,17520,2.686962127685547,True,,True,1,False,1000,True,1.0
./expes/v2_2020-11-09_3bh_200-prng-1,30_base_hphc_200,200,first-200,131,rng,num-start-951,951,17520,12.460633516311646,True,,True,1,False,1000,True,1.0
./expes/v2_2020-11-09_3bh_200-prng-1,30_base_hphc_200,200,first-200,81,rng,num-start-781,781,17520,10.663328170776367,True,,True,1,False,1000,True,1.0
./expes/v2_2020-11-09_3bh_200-prng-1,30_base_hphc_200,200,first-200,161,rng,num-start-671,671,17520,9.130690097808838,True,,True,1,False,1000,True,1.0
./expes/v2_2020-11-09_3bh_200-prng-1,30_base_hphc_200,200,first-200,161,rng,num-start-981,981,17520,13.03551721572876,True,,True,1,False,1000,True,1.0
./expes/v2_2020-11-09_3bh_200-prng-1,30_base_hphc_200,200,first-200,71,rng,num-start-341,341,17520,4.959348917007446,True,,True,1,False,1000,True,1.0
./expes/v2_2020-11-09_3bh_200-prng-1,30_base_hphc_200,200,first-200,31,rng,num-start-251,251,17520,3.584735870361328,True,,True,1,False,1000,True,1.0
./expes/v2_2020-11-09_3bh_200-prng-1,30_base_hphc_200,200,first-200,21,rng,num-start-351,351,17520,4.9392924308776855,True,,True,1,False,1000,True,1.0
./expes/v2_2020-11-09_3bh_200-prng-1,30_base_hphc_200,200,first-200,61,rng,num-start-601,601,17520,8.637082815170288,True,,True,1,False,1000,True,1.0
./expes/v2_2020-11-09_3bh_200-prng-1,30_base_hphc_200,200,first-200,81,rng,num-start-761,761,17520,11.617413520812988,True,,True,1,False,1000,True,1.0
./expes/v2_2020-11-09_3bh_200-prng-1,30_base_hphc_200,200,first-200,91,rng,num-start-321,321,17520,4.91153359413147,True,,True,1,False,1000,True,1.0
./expes/v2_2020-11-09_3bh_200-prng-1,30_base_hphc_200,200,first-200,81,rng,num-start-711,711,17520,9.781583309173584,True,,True,1,False,1000,True,1.0
./expes/v2_2020-11-09_3bh_200-prng-1,30_base_hphc_200,200,first-200,31,rng,num-start-951,951,17520,13.08469009399414,True,,True,1,False,1000,True,1.0
./expes/v2_2020-11-09_3bh_200-prng-1,30_base_hphc_200,200,first-200,11,rng,num-start-41,41,17520,0.6827476024627686,True,,True,1,False,1000,True,1.0
./expes/v2_2020-11-09_3bh_200-prng-1,30_base_hphc_200,200,first-200,191,rng,num-start-121,121,17520,1.545440673828125,True,,True,1,False,1000,True,1.0
./expes/v2_2020-11-09_3bh_200-prng-1,30_base_hphc_200,200,first-200,131,rng,num-start-781,781,17520,11.700197458267212,True,,True,1,False,1000,True,1.0
./expes/v2_2020-11-09_3bh_200-prng-1,30_base_hphc_200,200,first-200,141,rng,num-start-211,211,17520,2.887997627258301,True,,True,1,False,1000,True,1.0
./expes/v2_2020-11-09_3bh_200-prng-1,30_base_hphc_200,200,first-200,191,rng,num-start-701,701,17520,8.10101580619812,True,,True,1,False,1000,True,1.0
./expes/v2_2020-11-09_3bh_200-prng-1,30_base_hphc_200,200,first-200,171,rng,num-start-531,531,17520,7.004342555999756,True,,True,1,False,1000,True,1.0
./expes/v2_2020-11-09_3bh_200-prng-1,30_base_hphc_200,200,first-200,101,rng,num-start-871,871,17520,11.30783224105835,True,,True,1,False,1000,True,1.0
./expes/v2_2020-11-09_3bh_200-prng-1,30_base_hphc_200,200,first-200,171,rng,num-start-401,401,17520,5.362420082092285,True,,True,1,False,1000,True,1.0
./expes/v2_2020-11-09_3bh_200-prng-1,30_base_hphc_200,200,first-200,11,rng,num-start-871,871,17520,12.060887813568115,True,,True,1,False,1000,True,1.0
./expes/v2_2020-11-09_3bh_200-prng-1,30_base_hphc_200,200,first-200,181,rng,num-start-761,761,17520,10.068457841873169,True,,True,1,False,1000,True,1.0
./expes/v2_2020-11-09_3bh_200-prng-1,30_base_hphc_200,200,first-200,31,rng,num-start-471,471,17520,5.889712810516357,True,,True,1,False,1000,True,1.0
./expes/v2_2020-11-09_3bh_200-prng-1,30_base_hphc_200,200,first-200,1,rng,num-start-131,131,17520,1.478154182434082,True,,True,1,False,1000,True,1.0
./expes/v2_2020-11-09_3bh_200-prng-1,30_base_hphc_200,200,first-200,21,rng,num-start-491,491,17520,6.863858699798584,True,,True,1,False,1000,True,1.0
./expes/v2_2020-11-09_3bh_200-prng-1,30_base_hphc_200,200,first-200,11,rng,num-start-171,171,17520,2.5532143115997314,True,,True,1,False,1000,True,1.0
./expes/v2_2020-11-09_3bh_200-prng-1,30_base_hphc_200,200,first-200,161,rng,num-start-371,371,17520,5.548747539520264,True,,True,1,False,1000,True,1.0
./expes/v2_2020-11-09_3bh_200-prng-1,30_base_hphc_200,200,first-200,111,rng,num-start-801,801,17520,11.050078868865967,True,,True,1,False,1000,True,1.0
./expes/v2_2020-11-09_3bh_200-prng-1,30_base_hphc_200,200,first-200,181,rng,num-start-21,21,17520,306.94596242904663,True,,True,1,False,1000,True,1.0
./expes/v2_2020-11-09_3bh_200-prng-1,30_base_hphc_200,200,first-200,131,rng,num-start-181,181,17520,2.821296453475952,True,,True,1,False,1000,True,1.0
./expes/v2_2020-11-09_3bh_200-prng-1,30_base_hphc_200,200,first-200,161,rng,num-start-131,131,17520,1.7320525646209717,True,,True,1,False,1000,True,1.0
./expes/v2_2020-11-09_3bh_200-prng-1,30_base_hphc_200,200,first-200,191,rng,num-start-131,131,17520,1.7276480197906494,True,,True,1,False,1000,True,1.0
./expes/v2_2020-11-09_3bh_200-prng-1,30_base_hphc_200,200,first-200,51,rng,num-start-141,141,17520,2.1775472164154053,True,,True,1,False,1000,True,1.0
./expes/v2_2020-11-09_3bh_200-prng-1,30_base_hphc_200,200,first-200,51,rng,num-start-981,981,17520,14.253845453262329,True,,True,1,False,1000,True,1.0
./expes/v2_2020-11-09_3bh_200-prng-1,30_base_hphc_200,200,first-200,61,rng,num-start-191,191,17520,3.195859670639038,True,,True,1,False,1000,True,1.0
./expes/v2_2020-11-09_3bh_200-prng-1,30_base_hphc_200,200,first-200,111,rng,num-start-271,271,17520,4.441254138946533,True,,True,1,False,1000,True,1.0
./expes/v2_2020-11-09_3bh_200-prng-1,30_base_hphc_200,200,first-200,121,rng,num-start-571,571,17520,8.92578387260437,True,,True,1,False,1000,True,1.0
./expes/v2_2020-11-09_3bh_200-prng-1,30_base_hphc_200,200,first-200,151,rng,num-start-41,41,17520,1000.8561024665833,False,,False,0,True,1000,True,0.0
./expes/v2_2020-11-09_3bh_200-prng-1,30_base_hphc_200,200,first-200,91,rng,num-start-931,931,17520,14.664719104766846,True,,True,1,False,1000,True,1.0
./expes/v2_2020-11-09_3bh_200-prng-1,30_base_hphc_200,200,first-200,161,rng,num-start-901,901,17520,13.064059972763062,True,,True,1,False,1000,True,1.0
./expes/v2_2020-11-09_3bh_200-prng-1,30_base_hphc_200,200,first-200,51,rng,num-start-901,901,17520,14.943730115890503,True,,True,1,False,1000,True,1.0
./expes/v2_2020-11-09_3bh_200-prng-1,30_base_hphc_200,200,first-200,171,rng,num-start-461,461,17520,6.536319732666016,True,,True,1,False,1000,True,1.0
./expes/v2_2020-11-09_3bh_200-prng-1,30_base_hphc_200,200,first-200,21,rng,num-start-271,271,17520,4.401963233947754,True,,True,1,False,1000,True,1.0
./expes/v2_2020-11-09_3bh_200-prng-1,30_base_hphc_200,200,first-200,191,rng,num-start-981,981,17520,11.632829904556274,True,,True,1,False,1000,True,1.0
./expes/v2_2020-11-09_3bh_200-prng-1,30_base_hphc_200,200,first-200,151,rng,num-start-511,511,17520,7.227630138397217,True,,True,1,False,1000,True,1.0
./expes/v2_2020-11-09_3bh_200-prng-1,30_base_hphc_200,200,first-200,191,rng,num-start-141,141,17520,1.7814438343048096,True,,True,1,False,1000,True,1.0
./expes/v2_2020-11-09_3bh_200-prng-1,30_base_hphc_200,200,first-200,101,rng,num-start-91,91,17520,3.4066100120544434,True,,True,1,False,1000,True,1.0
./expes/v2_2020-11-09_3bh_200-prng-1,30_base_hphc_200,200,first-200,11,rng,num-start-51,51,17520,0.7309238910675049,True,,True,1,False,1000,True,1.0
./expes/v2_2020-11-09_3bh_200-prng-1,30_base_hphc_200,200,first-200,11,rng,num-start-571,571,17520,9.149081945419312,True,,True,1,False,1000,True,1.0
./expes/v2_2020-11-09_3bh_200-prng-1,30_base_hphc_200,200,first-200,111,rng,num-start-121,121,17520,2.138765335083008,True,,True,1,False,1000,True,1.0
./expes/v2_2020-11-09_3bh_200-prng-1,30_base_hphc_200,200,first-200,171,rng,num-start-711,711,17520,9.464616298675537,True,,True,1,False,1000,True,1.0
./expes/v2_2020-11-09_3bh_200-prng-1,30_base_hphc_200,200,first-200,61,rng,num-start-101,101,17520,1.6337037086486816,True,,True,1,False,1000,True,1.0
./expes/v2_2020-11-09_3bh_200-prng-1,30_base_hphc_200,200,first-200,91,rng,num-start-201,201,17520,3.1822450160980225,True,,True,1,False,1000,True,1.0
./expes/v2_2020-11-09_3bh_200-prng-1,30_base_hphc_200,200,first-200,61,rng,num-start-411,411,17520,5.346256971359253,True,,True,1,False,1000,True,1.0
