expe,clients,clients_size,clients_subset,agg_size,method,days,days_size,days_total,time,valid,valid_sum,success,nsols,wall_hit,wall_time,pooled,valid_sums
./expes/v2_2020-11-04_dbh_50-prng-1,daily_base_hphc_50,50,first-50,21,rng,num-start-191,191,365,2.257784605026245,True,,True,1,False,1000,True,1.0
./expes/v2_2020-11-04_dbh_50-prng-1,daily_base_hphc_50,50,first-50,1,rng,num-start-261,261,365,2.466308832168579,True,,True,1,False,1000,True,1.0
./expes/v2_2020-11-04_dbh_50-prng-1,daily_base_hphc_50,50,first-50,41,rng,num-start-21,21,365,0.28031039237976074,True,,True,1,False,1000,True,1.0
