expe,clients,clients_size,clients_subset,agg_size,method,days,days_size,days_total,time,valid,valid_sum,success,nsols,wall_hit,wall_time,pooled,valid_sums
./expes/v2_2020-11-04_dbh_50-prng-1,daily_base_hphc_50,50,first-50,41,rng,num-start-221,221,365,1.8483059406280518,True,,True,1,False,1000,True,1.0
./expes/v2_2020-11-04_dbh_50-prng-1,daily_base_hphc_50,50,first-50,41,rng,num-start-211,211,365,1.5702064037322998,True,,True,1,False,1000,True,1.0
