,expe,clients,clients_size,clients_subset,agg_size,agg_size_pc,method,days,days_size,days_total,noise_method,time,valid,valid_sum,success,score_avg,score_min,score_max,nsols,oracle,wall_hit,wall_time,pooled,pool_size,optimal,valid_sums,uuid
0,./expes/v3_2021-01-22_di_4500-prng-1-w1-p100,daily_issda-4500,4500,first-4500,112,2,rng,num-start-11,11,536,classic,1003.2303638458252,False,,True,0.0,,,0,"Index(['34', '42', '122', '261', '267', '282', '303', '358', '363', '366',
       ...
       '4096', '4112', '4261', '4266', '4276', '4304', '4371', '4394', '4464',
       '4498'],
      dtype='object', length=112)",True,1000,True,100,0.0,0.0,468f55ec67
1,./expes/v3_2021-01-22_di_4500-prng-1-w1-p100,daily_issda-4500,4500,first-4500,1904,42,rng,num-start-111,111,536,classic,1030.6977128982544,False,,True,0.0,,,0,"Index(['4', '6', '7', '10', '11', '12', '16', '17', '18', '19',
       ...
       '4479', '4481', '4482', '4487', '4488', '4490', '4494', '4495', '4499',
       '4500'],
      dtype='object', length=1904)",True,1000,True,100,0.0,0.0,3cba2fb814
2,./expes/v3_2021-01-22_di_4500-prng-1-w1-p100,daily_issda-4500,4500,first-4500,2128,47,rng,num-start-111,111,536,classic,1031.075095653534,False,,True,0.0,,,0,"Index(['2', '4', '8', '9', '10', '11', '12', '14', '15', '16',
       ...
       '4482', '4488', '4490', '4491', '4492', '4494', '4495', '4496', '4499',
       '4500'],
      dtype='object', length=2128)",True,1000,True,100,0.0,0.0,e24d04f9f2
3,./expes/v3_2021-01-22_di_4500-prng-1-w1-p100,daily_issda-4500,4500,first-4500,1904,42,rng,num-start-151,151,536,classic,1042.752922296524,False,,True,0.0,,,0,"Index(['1', '4', '6', '8', '9', '10', '11', '13', '14', '15',
       ...
       '4484', '4485', '4486', '4490', '4491', '4492', '4493', '4498', '4499',
       '4500'],
      dtype='object', length=1904)",True,1000,True,100,0.0,0.0,6670b28cfb
4,./expes/v3_2021-01-22_di_4500-prng-1-w1-p100,daily_issda-4500,4500,first-4500,1568,34,rng,num-start-151,151,536,classic,1042.482080936432,False,,True,0.0,,,0,"Index(['2', '3', '4', '7', '10', '11', '13', '15', '16', '23',
       ...
       '4480', '4482', '4484', '4486', '4489', '4491', '4492', '4493', '4494',
       '4499'],
      dtype='object', length=1568)",True,1000,True,100,0.0,0.0,7f61a39303
5,./expes/v3_2021-01-22_di_4500-prng-1-w1-p100,daily_issda-4500,4500,first-4500,1120,24,rng,num-start-111,111,536,classic,1033.0825402736664,False,,True,0.0,,,0,"Index(['1', '4', '6', '8', '9', '13', '14', '15', '20', '24',
       ...
       '4471', '4473', '4481', '4484', '4486', '4491', '4492', '4493', '4498',
       '4499'],
      dtype='object', length=1120)",True,1000,True,100,0.0,0.0,4f5e630b82
6,./expes/v3_2021-01-22_di_4500-prng-1-w1-p100,daily_issda-4500,4500,first-4500,560,12,rng,num-start-241,241,536,classic,1066.8226399421692,False,,True,0.0,,,0,"Index(['1', '2', '10', '13', '20', '27', '28', '59', '65', '73',
       ...
       '4447', '4449', '4459', '4460', '4477', '4483', '4485', '4494', '4495',
       '4499'],
      dtype='object', length=560)",True,1000,True,100,0.0,0.0,4d39c88db2
7,./expes/v3_2021-01-22_di_4500-prng-1-w1-p100,daily_issda-4500,4500,first-4500,224,4,rng,num-start-201,201,536,classic,1062.9878704547882,False,,True,0.0,,,0,"Index(['47', '52', '55', '72', '91', '106', '117', '141', '144', '149',
       ...
       '4364', '4377', '4407', '4414', '4416', '4425', '4434', '4453', '4464',
       '4494'],
      dtype='object', length=224)",True,1000,True,100,0.0,0.0,eae2d16b0a
8,./expes/v3_2021-01-22_di_4500-prng-1-w1-p100,daily_issda-4500,4500,first-4500,1456,32,rng,num-start-81,81,536,classic,1022.3222353458405,False,,True,0.0,,,0,"Index(['4', '8', '9', '14', '20', '24', '31', '33', '35', '36',
       ...
       '4476', '4477', '4478', '4486', '4490', '4492', '4493', '4496', '4497',
       '4499'],
      dtype='object', length=1456)",True,1000,True,100,0.0,0.0,c74b7a5b30
9,./expes/v3_2021-01-22_di_4500-prng-1-w1-p100,daily_issda-4500,4500,first-4500,2240,49,rng,num-start-101,101,536,classic,1026.9712255001068,False,,True,0.0,,,0,"Index(['1', '2', '3', '4', '5', '7', '9', '10', '11', '12',
       ...
       '4483', '4484', '4489', '4490', '4491', '4494', '4496', '4497', '4499',
       '4500'],
      dtype='object', length=2240)",True,1000,True,100,0.0,0.0,358cabdb71
10,./expes/v3_2021-01-22_di_4500-prng-1-w1-p100,daily_issda-4500,4500,first-4500,1904,42,rng,num-start-231,231,536,classic,1066.4074354171753,False,,True,0.0,,,0,"Index(['1', '2', '3', '4', '5', '6', '9', '10', '11', '13',
       ...
       '4479', '4483', '4484', '4485', '4488', '4492', '4494', '4495', '4497',
       '4499'],
      dtype='object', length=1904)",True,1000,True,100,0.0,0.0,a599465f35
11,./expes/v3_2021-01-22_di_4500-prng-1-w1-p100,daily_issda-4500,4500,first-4500,1792,39,rng,num-start-241,241,536,classic,1066.2920186519625,False,,True,0.0,,,0,"Index(['5', '7', '12', '13', '18', '25', '26', '28', '29', '30',
       ...
       '4479', '4481', '4482', '4487', '4490', '4492', '4494', '4496', '4499',
       '4500'],
      dtype='object', length=1792)",True,1000,True,100,0.0,0.0,c353d4f8b5
12,./expes/v3_2021-01-22_di_4500-prng-1-w1-p100,daily_issda-4500,4500,first-4500,896,19,rng,num-start-291,291,536,classic,1081.1877269744873,False,,True,0.0,,,0,"Index(['1', '2', '3', '10', '13', '16', '20', '27', '28', '31',
       ...
       '4460', '4467', '4474', '4477', '4479', '4483', '4485', '4494', '4495',
       '4499'],
      dtype='object', length=896)",True,1000,True,100,0.0,0.0,e0134fa900
13,./expes/v3_2021-01-22_di_4500-prng-1-w1-p100,daily_issda-4500,4500,first-4500,1568,34,rng,num-start-291,291,536,classic,1079.3331866264343,False,,True,0.0,,,0,"Index(['4', '6', '7', '10', '16', '17', '18', '19', '20', '21',
       ...
       '4479', '4481', '4482', '4487', '4488', '4490', '4494', '4495', '4499',
       '4500'],
      dtype='object', length=1568)",True,1000,True,100,0.0,0.0,9ccd771f9f
14,./expes/v3_2021-01-22_di_4500-prng-1-w1-p100,daily_issda-4500,4500,first-4500,2240,49,rng,num-start-81,81,536,classic,1022.3968691825868,False,,True,0.0,,,0,"Index(['4', '5', '8', '9', '10', '11', '13', '14', '16', '20',
       ...
       '4482', '4486', '4490', '4492', '4493', '4496', '4497', '4498', '4499',
       '4500'],
      dtype='object', length=2240)",True,1000,True,100,0.0,0.0,dd2c02b8ff
15,./expes/v3_2021-01-22_di_4500-prng-1-w1-p100,daily_issda-4500,4500,first-4500,1232,27,rng,num-start-271,271,536,classic,1072.196323633194,False,,True,0.0,,,0,"Index(['1', '2', '3', '4', '8', '9', '19', '25', '28', '30',
       ...
       '4442', '4447', '4449', '4457', '4469', '4472', '4473', '4479', '4486',
       '4498'],
      dtype='object', length=1232)",True,1000,True,100,0.0,0.0,499c0fa0cb
16,./expes/v3_2021-01-22_di_4500-prng-1-w1-p100,daily_issda-4500,4500,first-4500,1344,29,rng,num-start-211,211,536,classic,1055.262912750244,False,,True,0.0,,,0,"Index(['1', '2', '3', '4', '8', '9', '16', '19', '25', '28',
       ...
       '4449', '4457', '4464', '4469', '4472', '4473', '4479', '4486', '4498',
       '4500'],
      dtype='object', length=1344)",True,1000,True,100,0.0,0.0,54adc9a025
17,./expes/v3_2021-01-22_di_4500-prng-1-w1-p100,daily_issda-4500,4500,first-4500,1792,39,rng,num-start-201,201,536,classic,1054.3493537902832,False,,True,0.0,,,0,"Index(['1', '3', '4', '5', '7', '9', '10', '11', '12', '14',
       ...
       '4471', '4474', '4479', '4490', '4491', '4494', '4496', '4497', '4499',
       '4500'],
      dtype='object', length=1792)",True,1000,True,100,0.0,0.0,a85e0403a7
18,./expes/v3_2021-01-22_di_4500-prng-1-w1-p100,daily_issda-4500,4500,first-4500,112,2,rng,num-start-51,51,536,classic,1014.6118297576904,False,,True,0.0,,,0,"Index(['48', '51', '75', '83', '92', '108', '115', '167', '182', '187',
       ...
       '4014', '4027', '4050', '4090', '4188', '4234', '4288', '4305', '4418',
       '4438'],
      dtype='object', length=112)",True,1000,True,100,0.0,0.0,162116c7a2
19,./expes/v3_2021-01-22_di_4500-prng-1-w1-p100,daily_issda-4500,4500,first-4500,896,19,rng,num-start-71,71,536,classic,1021.5611832141876,False,,True,0.0,,,0,"Index(['5', '6', '8', '10', '16', '17', '18', '25', '27', '31',
       ...
       '4406', '4408', '4438', '4451', '4466', '4468', '4469', '4474', '4480',
       '4482'],
      dtype='object', length=896)",True,1000,True,100,0.0,0.0,0e1c5a193f
20,./expes/v3_2021-01-22_di_4500-prng-1-w1-p100,daily_issda-4500,4500,first-4500,896,19,rng,num-start-1,1,536,classic,29.573271989822388,False,,True,0.4297132281859497,0.4283888774747887,0.4311173470989584,10,"Index(['16', '21', '24', '25', '31', '35', '38', '43', '46', '51',
       ...
       '4454', '4460', '4462', '4469', '4475', '4482', '4488', '4494', '4495',
       '4499'],
      dtype='object', length=896)",False,1000,True,100,1.0,1.0,3514b9ebec
21,./expes/v3_2021-01-22_di_4500-prng-1-w1-p100,daily_issda-4500,4500,first-4500,1792,39,rng,num-start-101,101,536,classic,1028.1653442382812,False,,True,0.0,,,0,"Index(['1', '3', '6', '7', '13', '18', '19', '25', '26', '29',
       ...
       '4468', '4470', '4473', '4474', '4477', '4484', '4487', '4494', '4499',
       '4500'],
      dtype='object', length=1792)",True,1000,True,100,0.0,0.0,2d3913450b
22,./expes/v3_2021-01-22_di_4500-prng-1-w1-p100,daily_issda-4500,4500,first-4500,1120,24,rng,num-start-131,131,536,classic,1036.315407514572,False,,True,0.0,,,0,"Index(['1', '2', '14', '15', '16', '20', '23', '29', '30', '39',
       ...
       '4456', '4459', '4460', '4463', '4473', '4474', '4482', '4484', '4493',
       '4495'],
      dtype='object', length=1120)",True,1000,True,100,0.0,0.0,7e3b433ba6
23,./expes/v3_2021-01-22_di_4500-prng-1-w1-p100,daily_issda-4500,4500,first-4500,1792,39,rng,num-start-11,11,536,classic,1003.410507440567,False,,True,0.0,,,0,"Index(['4', '5', '6', '8', '9', '10', '12', '14', '15', '16',
       ...
       '4469', '4474', '4475', '4478', '4480', '4482', '4486', '4489', '4495',
       '4498'],
      dtype='object', length=1792)",True,1000,True,100,0.0,0.0,079f79ea07
24,./expes/v3_2021-01-22_di_4500-prng-1-w1-p100,daily_issda-4500,4500,first-4500,1568,34,rng,num-start-71,71,536,classic,1019.6973402500151,False,,True,0.0,,,0,"Index(['4', '8', '9', '11', '14', '20', '24', '31', '33', '35',
       ...
       '4478', '4480', '4486', '4490', '4492', '4493', '4496', '4497', '4498',
       '4499'],
      dtype='object', length=1568)",True,1000,True,100,0.0,0.0,1cabd550bf
25,./expes/v3_2021-01-22_di_4500-prng-1-w1-p100,daily_issda-4500,4500,first-4500,560,12,rng,num-start-291,291,536,classic,1079.2149648666382,False,,True,0.0,,,0,"Index(['26', '43', '47', '58', '60', '62', '64', '65', '66', '68',
       ...
       '4426', '4428', '4434', '4435', '4442', '4449', '4455', '4462', '4484',
       '4487'],
      dtype='object', length=560)",True,1000,True,100,0.0,0.0,dcccdee3b0
26,./expes/v3_2021-01-22_di_4500-prng-1-w1-p100,daily_issda-4500,4500,first-4500,784,17,rng,num-start-251,251,536,classic,1069.6635012626648,False,,True,0.0,,,0,"Index(['4', '5', '32', '38', '41', '56', '77', '78', '79', '84',
       ...
       '4448', '4451', '4454', '4457', '4458', '4463', '4469', '4474', '4480',
       '4495'],
      dtype='object', length=784)",True,1000,True,100,0.0,0.0,0fc669f2c7
27,./expes/v3_2021-01-22_di_4500-prng-1-w1-p100,daily_issda-4500,4500,first-4500,224,4,rng,num-start-231,231,536,classic,1069.3025438785553,False,,True,0.0,,,0,"Index(['47', '52', '55', '72', '91', '106', '117', '141', '144', '149',
       ...
       '4364', '4377', '4407', '4414', '4416', '4425', '4434', '4453', '4464',
       '4494'],
      dtype='object', length=224)",True,1000,True,100,0.0,0.0,9137503ce4
28,./expes/v3_2021-01-22_di_4500-prng-1-w1-p100,daily_issda-4500,4500,first-4500,2016,44,rng,num-start-141,141,536,classic,1039.232398033142,False,,True,0.0,,,0,"Index(['5', '7', '12', '13', '16', '18', '25', '26', '28', '29',
       ...
       '4481', '4482', '4487', '4490', '4492', '4494', '4496', '4498', '4499',
       '4500'],
      dtype='object', length=2016)",True,1000,True,100,0.0,0.0,58ec95dc75
