,expe,clients,clients_size,clients_subset,agg_size,agg_size_pc,method,days,days_size,days_total,noise_method,time,valid,valid_sum,success,score_avg,score_min,score_max,nsols,oracle,wall_hit,wall_time,pooled,pool_size,optimal,valid_sums,uuid
0,./expes/v3_2021-01-22_di_4500-prng-1-w1-p100,daily_issda-4500,4500,first-4500,1008,22,rng,num-start-11,11,536,classic,1002.85204744339,False,,True,0,,,0,"Index(['8', '14', '20', '31', '33', '46', '49', '51', '55', '60',
       ...
       '4475', '4476', '4478', '4486', '4490', '4492', '4493', '4496', '4497',
       '4499'],
      dtype='object', length=1008)",True,1000,True,100,0.0,0.0,1fbb74a523
1,./expes/v3_2021-01-22_di_4500-prng-1-w1-p100,daily_issda-4500,4500,first-4500,1232,27,rng,num-start-71,71,536,classic,1018.3816056251526,False,,True,0,,,0,"Index(['1', '3', '4', '10', '14', '16', '21', '26', '30', '33',
       ...
       '4465', '4471', '4474', '4490', '4491', '4494', '4496', '4497', '4499',
       '4500'],
      dtype='object', length=1232)",True,1000,True,100,0.0,0.0,7f8350c7aa
2,./expes/v3_2021-01-22_di_4500-prng-1-w1-p100,daily_issda-4500,4500,first-4500,1680,37,rng,num-start-41,41,536,classic,1010.7413353919984,False,,True,0,,,0,"Index(['1', '2', '3', '4', '5', '6', '8', '13', '15', '21',
       ...
       '4470', '4473', '4474', '4480', '4481', '4486', '4489', '4493', '4499',
       '4500'],
      dtype='object', length=1680)",True,1000,True,100,0.0,0.0,fca343d3bd
3,./expes/v3_2021-01-22_di_4500-prng-1-w1-p100,daily_issda-4500,4500,first-4500,1344,29,rng,num-start-171,171,536,classic,1043.516160488129,False,,True,0,,,0,"Index(['2', '3', '4', '7', '10', '11', '13', '16', '23', '25',
       ...
       '4478', '4480', '4482', '4484', '4486', '4489', '4491', '4492', '4493',
       '4494'],
      dtype='object', length=1344)",True,1000,True,100,0.0,0.0,ca49037c51
4,./expes/v3_2021-01-22_di_4500-prng-1-w1-p100,daily_issda-4500,4500,first-4500,1904,42,rng,num-start-151,151,536,classic,1039.0373780727386,False,,True,0,,,0,"Index(['2', '4', '5', '7', '8', '10', '11', '12', '13', '14',
       ...
       '4480', '4481', '4483', '4492', '4493', '4494', '4495', '4496', '4497',
       '4498'],
      dtype='object', length=1904)",True,1000,True,100,0.0,0.0,dcb6caf367
5,./expes/v3_2021-01-22_di_4500-prng-1-w1-p100,daily_issda-4500,4500,first-4500,1232,27,rng,num-start-151,151,536,classic,1036.7440202236176,False,,True,0,,,0,"Index(['4', '16', '20', '21', '24', '25', '31', '32', '35', '38',
       ...
       '4477', '4479', '4482', '4487', '4488', '4490', '4494', '4495', '4499',
       '4500'],
      dtype='object', length=1232)",True,1000,True,100,0.0,0.0,d5211158cb
6,./expes/v3_2021-01-22_di_4500-prng-1-w1-p100,daily_issda-4500,4500,first-4500,1120,24,rng,num-start-191,191,536,classic,1049.7535209655762,False,,True,0,,,0,"Index(['1', '3', '10', '14', '16', '21', '26', '33', '47', '49',
       ...
       '4464', '4465', '4471', '4474', '4490', '4494', '4496', '4497', '4499',
       '4500'],
      dtype='object', length=1120)",True,1000,True,100,0.0,0.0,f82a0dc7d3
7,./expes/v3_2021-01-22_di_4500-prng-1-w1-p100,daily_issda-4500,4500,first-4500,672,14,rng,num-start-131,131,536,classic,1035.3124191761017,False,,True,0,,,0,"Index(['14', '31', '51', '55', '64', '67', '69', '71', '79', '85',
       ...
       '4468', '4475', '4476', '4478', '4490', '4492', '4493', '4496', '4497',
       '4499'],
      dtype='object', length=672)",True,1000,True,100,0.0,0.0,1633eea792
8,./expes/v3_2021-01-22_di_4500-prng-1-w1-p100,daily_issda-4500,4500,first-4500,896,19,rng,num-start-131,131,536,classic,1031.8639817237854,False,,True,0,,,0,"Index(['1', '26', '39', '40', '42', '43', '47', '58', '59', '60',
       ...
       '4446', '4449', '4455', '4460', '4462', '4467', '4468', '4484', '4487',
       '4499'],
      dtype='object', length=896)",True,1000,True,100,0.0,0.0,bdae58346d
9,./expes/v3_2021-01-22_di_4500-prng-1-w1-p100,daily_issda-4500,4500,first-4500,336,7,rng,num-start-141,141,536,classic,1036.6352715492249,False,,True,0,,,0,"Index(['4', '5', '38', '56', '79', '89', '90', '93', '102', '120',
       ...
       '4276', '4329', '4350', '4382', '4386', '4399', '4413', '4422', '4434',
       '4474'],
      dtype='object', length=336)",True,1000,True,100,0.0,0.0,73b9a279ac
10,./expes/v3_2021-01-22_di_4500-prng-1-w1-p100,daily_issda-4500,4500,first-4500,1008,22,rng,num-start-281,281,536,classic,1069.4486865997314,False,,True,0,,,0,"Index(['5', '8', '14', '17', '22', '27', '30', '39', '40', '43',
       ...
       '4459', '4460', '4465', '4467', '4469', '4470', '4475', '4483', '4487',
       '4500'],
      dtype='object', length=1008)",True,1000,True,100,0.0,0.0,8d551b37b8
11,./expes/v3_2021-01-22_di_4500-prng-1-w1-p100,daily_issda-4500,4500,first-4500,672,14,rng,num-start-71,71,536,classic,1018.5642681121826,False,,True,0,,,0,"Index(['8', '14', '22', '27', '30', '40', '46', '48', '60', '66',
       ...
       '4439', '4452', '4455', '4458', '4460', '4465', '4470', '4475', '4483',
       '4487'],
      dtype='object', length=672)",True,1000,True,100,0.0,0.0,ceece98843
12,./expes/v3_2021-01-22_di_4500-prng-1-w1-p100,daily_issda-4500,4500,first-4500,2128,47,rng,num-start-201,201,536,classic,1050.7144820690155,False,,True,0,,,0,"Index(['2', '5', '6', '9', '11', '12', '15', '16', '17', '20',
       ...
       '4480', '4482', '4484', '4487', '4490', '4492', '4493', '4495', '4498',
       '4499'],
      dtype='object', length=2128)",True,1000,True,100,0.0,0.0,485cdc7875
