{
  "clients": [
    {
      "name": "30_issda-4500",
      "path": "./csv/30_issda.csv",
      "subset": "first-4500",
      "subset_size": 4500,
      "param": null
    }
  ],
  "noise": {
    "name": "classic",
    "method": "classic",
    "param": null
  },
  "agg_size": [
    225,
    450,
    675,
    900,
    1125,
    1350,
    1575,
    1800,
    2025,
    2250
  ],
  "methods": [
    {
      "name": "rng",
      "param": 0
    }
  ],
  "days": [
    {
      "name": "num-start-2250",
      "param": 2250
    },
    {
      "name": "num-start-2700",
      "param": 2700
    },
    {
      "name": "num-start-3150",
      "param": 3150
    },
    {
      "name": "num-start-3600",
      "param": 3600
    },
    {
      "name": "num-start-4050",
      "param": 4050
    }
  ],
  "threads": null,
  "wall_time": 86400,
  "pooled": true,
  "pool_size": 100
}