,expe,clients,clients_size,clients_subset,agg_size,method,days,days_size,days_total,time,valid,valid_sum,success,nsols,wall_hit,wall_time,pooled,valid_sums,agg_size_pc,days_size_pc
0,./expes/v2_2020-11-04_dbh_50-prng-1,daily_base_hphc_50,50,first-50,31,rng,num-start-251,251,365,1.7543449401855469,True,,True,1,False,1000,True,1.0,62,502
1,./expes/v2_2020-11-04_dbh_50-prng-1,daily_base_hphc_50,50,first-50,41,rng,num-start-111,111,365,0.8459415435791016,True,,True,1,False,1000,True,1.0,82,222
0,./expes/v2_2020-11-04_dbh_50-prng-1,daily_base_hphc_50,50,first-50,41,rng,num-start-221,221,365,1.848305940628052,True,,True,1,False,1000,True,1.0,82,442
1,./expes/v2_2020-11-04_dbh_50-prng-1,daily_base_hphc_50,50,first-50,41,rng,num-start-211,211,365,1.5702064037322998,True,,True,1,False,1000,True,1.0,82,422
0,./expes/v2_2020-11-04_dbh_50-prng-1,daily_base_hphc_50,50,first-50,1,rng,num-start-11,11,365,0.225663423538208,True,,True,1,False,1000,True,1.0,2,22
0,./expes/v2_2020-11-04_dbh_50-prng-1,daily_base_hphc_50,50,first-50,11,rng,num-start-141,141,365,1.2002694606781006,True,,True,1,False,1000,True,1.0,22,282
0,./expes/v2_2020-11-04_dbh_50-prng-1,daily_base_hphc_50,50,first-50,11,rng,num-start-131,131,365,1.1633882522583008,True,,True,1,False,1000,True,1.0,22,262
1,./expes/v2_2020-11-04_dbh_50-prng-1,daily_base_hphc_50,50,first-50,1,rng,num-start-241,241,365,1.5708234310150146,True,,True,1,False,1000,True,1.0,2,482
0,./expes/v2_2020-11-04_dbh_50-prng-1,daily_base_hphc_50,50,first-50,21,rng,num-start-181,181,365,1.4785094261169434,True,,True,1,False,1000,True,1.0,42,362
1,./expes/v2_2020-11-04_dbh_50-prng-1,daily_base_hphc_50,50,first-50,31,rng,num-start-211,211,365,1.5507397651672363,True,,True,1,False,1000,True,1.0,62,422
2,./expes/v2_2020-11-04_dbh_50-prng-1,daily_base_hphc_50,50,first-50,41,rng,num-start-131,131,365,0.961411476135254,True,,True,1,False,1000,True,1.0,82,262
3,./expes/v2_2020-11-04_dbh_50-prng-1,daily_base_hphc_50,50,first-50,11,rng,num-start-271,271,365,1.8270151615142824,True,,True,1,False,1000,True,1.0,22,542
4,./expes/v2_2020-11-04_dbh_50-prng-1,daily_base_hphc_50,50,first-50,21,rng,num-start-11,11,365,1.6218621730804443,True,,True,1,False,1000,True,1.0,42,22
5,./expes/v2_2020-11-04_dbh_50-prng-1,daily_base_hphc_50,50,first-50,11,rng,num-start-241,241,365,1.7507781982421875,True,,True,1,False,1000,True,1.0,22,482
6,./expes/v2_2020-11-04_dbh_50-prng-1,daily_base_hphc_50,50,first-50,1,rng,num-start-191,191,365,1.214118242263794,True,,True,1,False,1000,True,1.0,2,382
7,./expes/v2_2020-11-04_dbh_50-prng-1,daily_base_hphc_50,50,first-50,11,rng,num-start-111,111,365,0.8345260620117188,True,,True,1,False,1000,True,1.0,22,222
8,./expes/v2_2020-11-04_dbh_50-prng-1,daily_base_hphc_50,50,first-50,41,rng,num-start-141,141,365,1.0781817436218262,True,,True,1,False,1000,True,1.0,82,282
9,./expes/v2_2020-11-04_dbh_50-prng-1,daily_base_hphc_50,50,first-50,31,rng,num-start-1,1,365,0.3305695056915283,False,,False,2,False,1000,True,1.0,62,2
10,./expes/v2_2020-11-04_dbh_50-prng-1,daily_base_hphc_50,50,first-50,21,rng,num-start-201,201,365,1.5356345176696775,True,,True,1,False,1000,True,1.0,42,402
11,./expes/v2_2020-11-04_dbh_50-prng-1,daily_base_hphc_50,50,first-50,21,rng,num-start-241,241,365,1.7508747577667236,True,,True,1,False,1000,True,1.0,42,482
12,./expes/v2_2020-11-04_dbh_50-prng-1,daily_base_hphc_50,50,first-50,41,rng,num-start-251,251,365,1.640326738357544,True,,True,1,False,1000,True,1.0,82,502
13,./expes/v2_2020-11-04_dbh_50-prng-1,daily_base_hphc_50,50,first-50,11,rng,num-start-91,91,365,0.7195773124694824,True,,True,1,False,1000,True,1.0,22,182
14,./expes/v2_2020-11-04_dbh_50-prng-1,daily_base_hphc_50,50,first-50,31,rng,num-start-31,31,365,0.3156208992004394,True,,True,1,False,1000,True,1.0,62,62
15,./expes/v2_2020-11-04_dbh_50-prng-1,daily_base_hphc_50,50,first-50,21,rng,num-start-51,51,365,0.4395699501037597,True,,True,1,False,1000,True,1.0,42,102
16,./expes/v2_2020-11-04_dbh_50-prng-1,daily_base_hphc_50,50,first-50,21,rng,num-start-291,291,365,1.9143717288970947,True,,True,1,False,1000,True,1.0,42,582
17,./expes/v2_2020-11-04_dbh_50-prng-1,daily_base_hphc_50,50,first-50,31,rng,num-start-201,201,365,1.4868555068969729,True,,True,1,False,1000,True,1.0,62,402
18,./expes/v2_2020-11-04_dbh_50-prng-1,daily_base_hphc_50,50,first-50,41,rng,num-start-281,281,365,1.8321330547332764,True,,True,1,False,1000,True,1.0,82,562
19,./expes/v2_2020-11-04_dbh_50-prng-1,daily_base_hphc_50,50,first-50,11,rng,num-start-81,81,365,0.6508700847625732,True,,True,1,False,1000,True,1.0,22,162
20,./expes/v2_2020-11-04_dbh_50-prng-1,daily_base_hphc_50,50,first-50,31,rng,num-start-241,241,365,1.7894253730773926,True,,True,1,False,1000,True,1.0,62,482
0,./expes/v2_2020-11-04_dbh_50-prng-1,daily_base_hphc_50,50,first-50,41,rng,num-start-31,31,365,0.4291515350341797,True,,True,1,False,1000,True,1.0,82,62
0,./expes/v2_2020-11-04_dbh_50-prng-1,daily_base_hphc_50,50,first-50,11,rng,num-start-11,11,365,0.3358983993530273,True,,True,1,False,1000,True,1.0,22,22
1,./expes/v2_2020-11-04_dbh_50-prng-1,daily_base_hphc_50,50,first-50,31,rng,num-start-71,71,365,0.5802452564239502,True,,True,1,False,1000,True,1.0,62,142
0,./expes/v2_2020-11-04_dbh_50-prng-1,daily_base_hphc_50,50,first-50,31,rng,num-start-161,161,365,1.905158758163452,True,,True,1,False,1000,True,1.0,62,322
1,./expes/v2_2020-11-04_dbh_50-prng-1,daily_base_hphc_50,50,first-50,21,rng,num-start-91,91,365,0.9406654834747314,True,,True,1,False,1000,True,1.0,42,182
2,./expes/v2_2020-11-04_dbh_50-prng-1,daily_base_hphc_50,50,first-50,11,rng,num-start-281,281,365,2.6385812759399414,True,,True,1,False,1000,True,1.0,22,562
3,./expes/v2_2020-11-04_dbh_50-prng-1,daily_base_hphc_50,50,first-50,21,rng,num-start-71,71,365,0.7414529323577881,True,,True,1,False,1000,True,1.0,42,142
4,./expes/v2_2020-11-04_dbh_50-prng-1,daily_base_hphc_50,50,first-50,1,rng,num-start-221,221,365,2.032778024673462,True,,True,1,False,1000,True,1.0,2,442
5,./expes/v2_2020-11-04_dbh_50-prng-1,daily_base_hphc_50,50,first-50,1,rng,num-start-51,51,365,0.4750814437866211,True,,True,1,False,1000,True,1.0,2,102
6,./expes/v2_2020-11-04_dbh_50-prng-1,daily_base_hphc_50,50,first-50,11,rng,num-start-171,171,365,1.844160795211792,True,,True,1,False,1000,True,1.0,22,342
7,./expes/v2_2020-11-04_dbh_50-prng-1,daily_base_hphc_50,50,first-50,1,rng,num-start-201,201,365,1.847306251525879,True,,True,1,False,1000,True,1.0,2,402
8,./expes/v2_2020-11-04_dbh_50-prng-1,daily_base_hphc_50,50,first-50,11,rng,num-start-21,21,365,0.2815444469451904,True,,True,1,False,1000,True,1.0,22,42
9,./expes/v2_2020-11-04_dbh_50-prng-1,daily_base_hphc_50,50,first-50,1,rng,num-start-211,211,365,1.9393064975738523,True,,True,1,False,1000,True,1.0,2,422
10,./expes/v2_2020-11-04_dbh_50-prng-1,daily_base_hphc_50,50,first-50,11,rng,num-start-161,161,365,1.7225966453552246,True,,True,1,False,1000,True,1.0,22,322
11,./expes/v2_2020-11-04_dbh_50-prng-1,daily_base_hphc_50,50,first-50,41,rng,num-start-101,101,365,1.0517511367797852,True,,True,1,False,1000,True,1.0,82,202
12,./expes/v2_2020-11-04_dbh_50-prng-1,daily_base_hphc_50,50,first-50,31,rng,num-start-171,171,365,1.840307712554932,True,,True,1,False,1000,True,1.0,62,342
0,./expes/v2_2020-11-04_dbh_50-prng-1,daily_base_hphc_50,50,first-50,41,rng,num-start-41,41,365,0.5717065334320068,True,,True,1,False,1000,True,1.0,82,82
1,./expes/v2_2020-11-04_dbh_50-prng-1,daily_base_hphc_50,50,first-50,1,rng,num-start-1,1,365,0.0114974975585937,True,,True,1,False,1000,True,1.0,2,2
2,./expes/v2_2020-11-04_dbh_50-prng-1,daily_base_hphc_50,50,first-50,21,rng,num-start-161,161,365,1.264622688293457,True,,True,1,False,1000,True,1.0,42,322
3,./expes/v2_2020-11-04_dbh_50-prng-1,daily_base_hphc_50,50,first-50,1,rng,num-start-251,251,365,1.6302275657653809,True,,True,1,False,1000,True,1.0,2,502
0,./expes/v2_2020-11-04_dbh_50-prng-1,daily_base_hphc_50,50,first-50,21,rng,num-start-101,101,365,0.8607430458068848,True,,True,1,False,1000,True,1.0,42,202
1,./expes/v2_2020-11-04_dbh_50-prng-1,daily_base_hphc_50,50,first-50,21,rng,num-start-261,261,365,1.6954665184020996,True,,True,1,False,1000,True,1.0,42,522
0,./expes/v2_2020-11-04_dbh_50-prng-1,daily_base_hphc_50,50,first-50,21,rng,num-start-121,121,365,1.0627427101135254,True,,True,1,False,1000,True,1.0,42,242
1,./expes/v2_2020-11-04_dbh_50-prng-1,daily_base_hphc_50,50,first-50,1,rng,num-start-101,101,365,0.65378737449646,True,,True,1,False,1000,True,1.0,2,202
2,./expes/v2_2020-11-04_dbh_50-prng-1,daily_base_hphc_50,50,first-50,21,rng,num-start-131,131,365,1.0072710514068604,True,,True,1,False,1000,True,1.0,42,262
0,./expes/v2_2020-11-04_dbh_50-prng-1,daily_base_hphc_50,50,first-50,31,rng,num-start-271,271,365,2.7562735080718994,True,,True,1,False,1000,True,1.0,62,542
0,./expes/v2_2020-11-04_dbh_50-prng-1,daily_base_hphc_50,50,first-50,41,rng,num-start-81,81,365,0.7844300270080566,True,,True,1,False,1000,True,1.0,82,162
1,./expes/v2_2020-11-04_dbh_50-prng-1,daily_base_hphc_50,50,first-50,41,rng,num-start-241,241,365,1.809849500656128,True,,True,1,False,1000,True,1.0,82,482
0,./expes/v2_2020-11-04_dbh_50-prng-1,daily_base_hphc_50,50,first-50,31,rng,num-start-101,101,365,0.8791120052337646,True,,True,1,False,1000,True,1.0,62,202
0,./expes/v2_2020-11-04_dbh_50-prng-1,daily_base_hphc_50,50,first-50,31,rng,num-start-91,91,365,1.3763055801391602,True,,True,1,False,1000,True,1.0,62,182
0,./expes/v2_2020-11-04_dbh_50-prng-1,daily_base_hphc_50,50,first-50,31,rng,num-start-121,121,365,1.053898811340332,True,,True,1,False,1000,True,1.0,62,242
1,./expes/v2_2020-11-04_dbh_50-prng-1,daily_base_hphc_50,50,first-50,21,rng,num-start-31,31,365,0.3194305896759033,True,,True,1,False,1000,True,1.0,42,62
2,./expes/v2_2020-11-04_dbh_50-prng-1,daily_base_hphc_50,50,first-50,11,rng,num-start-101,101,365,0.7888083457946777,True,,True,1,False,1000,True,1.0,22,202
3,./expes/v2_2020-11-04_dbh_50-prng-1,daily_base_hphc_50,50,first-50,31,rng,num-start-281,281,365,1.8523426055908203,True,,True,1,False,1000,True,1.0,62,562
4,./expes/v2_2020-11-04_dbh_50-prng-1,daily_base_hphc_50,50,first-50,31,rng,num-start-51,51,365,0.454707384109497,True,,True,1,False,1000,True,1.0,62,102
5,./expes/v2_2020-11-04_dbh_50-prng-1,daily_base_hphc_50,50,first-50,1,rng,num-start-161,161,365,1.0317645072937012,True,,True,1,False,1000,True,1.0,2,322
6,./expes/v2_2020-11-04_dbh_50-prng-1,daily_base_hphc_50,50,first-50,21,rng,num-start-111,111,365,0.8385887145996094,True,,True,1,False,1000,True,1.0,42,222
7,./expes/v2_2020-11-04_dbh_50-prng-1,daily_base_hphc_50,50,first-50,21,rng,num-start-41,41,365,0.3795433044433594,True,,True,1,False,1000,True,1.0,42,82
8,./expes/v2_2020-11-04_dbh_50-prng-1,daily_base_hphc_50,50,first-50,41,rng,num-start-91,91,365,0.7212619781494141,True,,True,1,False,1000,True,1.0,82,182
9,./expes/v2_2020-11-04_dbh_50-prng-1,daily_base_hphc_50,50,first-50,1,rng,num-start-81,81,365,0.5318019390106201,True,,True,1,False,1000,True,1.0,2,162
10,./expes/v2_2020-11-04_dbh_50-prng-1,daily_base_hphc_50,50,first-50,21,rng,num-start-231,231,365,1.78948712348938,True,,True,1,False,1000,True,1.0,42,462
11,./expes/v2_2020-11-04_dbh_50-prng-1,daily_base_hphc_50,50,first-50,1,rng,num-start-121,121,365,0.7763473987579346,True,,True,1,False,1000,True,1.0,2,242
12,./expes/v2_2020-11-04_dbh_50-prng-1,daily_base_hphc_50,50,first-50,41,rng,num-start-271,271,365,1.7704496383666992,True,,True,1,False,1000,True,1.0,82,542
0,./expes/v2_2020-11-04_dbh_50-prng-1,daily_base_hphc_50,50,first-50,1,rng,num-start-91,91,365,0.7026636600494385,True,,True,1,False,1000,True,1.0,2,182
0,./expes/v2_2020-11-04_dbh_50-prng-1,daily_base_hphc_50,50,first-50,41,rng,num-start-231,231,365,1.8480377197265625,True,,True,1,False,1000,True,1.0,82,462
1,./expes/v2_2020-11-04_dbh_50-prng-1,daily_base_hphc_50,50,first-50,31,rng,num-start-21,21,365,0.267432689666748,True,,True,1,False,1000,True,1.0,62,42
2,./expes/v2_2020-11-04_dbh_50-prng-1,daily_base_hphc_50,50,first-50,1,rng,num-start-141,141,365,0.907663345336914,True,,True,1,False,1000,True,1.0,2,282
3,./expes/v2_2020-11-04_dbh_50-prng-1,daily_base_hphc_50,50,first-50,11,rng,num-start-261,261,365,1.7116639614105225,True,,True,1,False,1000,True,1.0,22,522
4,./expes/v2_2020-11-04_dbh_50-prng-1,daily_base_hphc_50,50,first-50,11,rng,num-start-181,181,365,1.366804838180542,True,,True,1,False,1000,True,1.0,22,362
5,./expes/v2_2020-11-04_dbh_50-prng-1,daily_base_hphc_50,50,first-50,1,rng,num-start-31,31,365,0.2022206783294677,True,,True,1,False,1000,True,1.0,2,62
6,./expes/v2_2020-11-04_dbh_50-prng-1,daily_base_hphc_50,50,first-50,41,rng,num-start-171,171,365,1.3448097705841064,True,,True,1,False,1000,True,1.0,82,342
7,./expes/v2_2020-11-04_dbh_50-prng-1,daily_base_hphc_50,50,first-50,1,rng,num-start-271,271,365,1.7273354530334473,True,,True,1,False,1000,True,1.0,2,542
8,./expes/v2_2020-11-04_dbh_50-prng-1,daily_base_hphc_50,50,first-50,41,rng,num-start-261,261,365,1.7186477184295654,True,,True,1,False,1000,True,1.0,82,522
9,./expes/v2_2020-11-04_dbh_50-prng-1,daily_base_hphc_50,50,first-50,31,rng,num-start-221,221,365,1.6569242477416992,True,,True,1,False,1000,True,1.0,62,442
10,./expes/v2_2020-11-04_dbh_50-prng-1,daily_base_hphc_50,50,first-50,1,rng,num-start-181,181,365,1.1510076522827148,True,,True,1,False,1000,True,1.0,2,362
11,./expes/v2_2020-11-04_dbh_50-prng-1,daily_base_hphc_50,50,first-50,11,rng,num-start-1,1,365,0.3856256008148193,False,,False,2,False,1000,True,1.0,22,2
12,./expes/v2_2020-11-04_dbh_50-prng-1,daily_base_hphc_50,50,first-50,11,rng,num-start-211,211,365,1.5792734622955322,True,,True,1,False,1000,True,1.0,22,422
13,./expes/v2_2020-11-04_dbh_50-prng-1,daily_base_hphc_50,50,first-50,41,rng,num-start-201,201,365,1.4752528667449951,True,,True,1,False,1000,True,1.0,82,402
14,./expes/v2_2020-11-04_dbh_50-prng-1,daily_base_hphc_50,50,first-50,1,rng,num-start-171,171,365,1.090897798538208,True,,True,1,False,1000,True,1.0,2,342
15,./expes/v2_2020-11-04_dbh_50-prng-1,daily_base_hphc_50,50,first-50,11,rng,num-start-291,291,365,1.9140501022338867,True,,True,1,False,1000,True,1.0,22,582
16,./expes/v2_2020-11-04_dbh_50-prng-1,daily_base_hphc_50,50,first-50,11,rng,num-start-41,41,365,0.3719434738159179,True,,True,1,False,1000,True,1.0,22,82
17,./expes/v2_2020-11-04_dbh_50-prng-1,daily_base_hphc_50,50,first-50,41,rng,num-start-11,11,365,0.3015487194061279,True,,True,1,False,1000,True,1.0,82,22
18,./expes/v2_2020-11-04_dbh_50-prng-1,daily_base_hphc_50,50,first-50,1,rng,num-start-61,61,365,0.3903653621673584,True,,True,1,False,1000,True,1.0,2,122
0,./expes/v2_2020-11-04_dbh_50-prng-1,daily_base_hphc_50,50,first-50,1,rng,num-start-21,21,365,0.3998017311096191,True,,True,1,False,1000,True,1.0,2,42
1,./expes/v2_2020-11-04_dbh_50-prng-1,daily_base_hphc_50,50,first-50,11,rng,num-start-251,251,365,2.472724437713623,True,,True,1,False,1000,True,1.0,22,502
2,./expes/v2_2020-11-04_dbh_50-prng-1,daily_base_hphc_50,50,first-50,41,rng,num-start-191,191,365,2.1119725704193115,True,,True,1,False,1000,True,1.0,82,382
0,./expes/v2_2020-11-04_dbh_50-prng-1,daily_base_hphc_50,50,first-50,31,rng,num-start-81,81,365,0.8055729866027832,True,,True,1,False,1000,True,1.0,62,162
1,./expes/v2_2020-11-04_dbh_50-prng-1,daily_base_hphc_50,50,first-50,21,rng,num-start-281,281,365,1.8454811573028564,True,,True,1,False,1000,True,1.0,42,562
2,./expes/v2_2020-11-04_dbh_50-prng-1,daily_base_hphc_50,50,first-50,11,rng,num-start-31,31,365,0.3153855800628662,True,,True,1,False,1000,True,1.0,22,62
3,./expes/v2_2020-11-04_dbh_50-prng-1,daily_base_hphc_50,50,first-50,1,rng,num-start-231,231,365,1.480478286743164,True,,True,1,False,1000,True,1.0,2,462
4,./expes/v2_2020-11-04_dbh_50-prng-1,daily_base_hphc_50,50,first-50,11,rng,num-start-71,71,365,0.5888340473175049,True,,True,1,False,1000,True,1.0,22,142
5,./expes/v2_2020-11-04_dbh_50-prng-1,daily_base_hphc_50,50,first-50,41,rng,num-start-1,1,365,0.1886942386627197,False,,False,2,False,1000,True,1.0,82,2
6,./expes/v2_2020-11-04_dbh_50-prng-1,daily_base_hphc_50,50,first-50,41,rng,num-start-161,161,365,1.192540168762207,True,,True,1,False,1000,True,1.0,82,322
0,./expes/v2_2020-11-04_dbh_50-prng-1,daily_base_hphc_50,50,first-50,31,rng,num-start-131,131,365,1.210788011550903,True,,True,1,False,1000,True,1.0,62,262
1,./expes/v2_2020-11-04_dbh_50-prng-1,daily_base_hphc_50,50,first-50,41,rng,num-start-71,71,365,0.5903704166412354,True,,True,1,False,1000,True,1.0,82,142
2,./expes/v2_2020-11-04_dbh_50-prng-1,daily_base_hphc_50,50,first-50,1,rng,num-start-281,281,365,1.8770170211791992,True,,True,1,False,1000,True,1.0,2,562
0,./expes/v2_2020-11-04_dbh_50-prng-1,daily_base_hphc_50,50,first-50,1,rng,num-start-291,291,365,1.970541715621948,True,,True,1,False,1000,True,1.0,2,582
0,./expes/v2_2020-11-04_dbh_50-prng-1,daily_base_hphc_50,50,first-50,1,rng,num-start-131,131,365,1.4179861545562744,True,,True,1,False,1000,True,1.0,2,262
1,./expes/v2_2020-11-04_dbh_50-prng-1,daily_base_hphc_50,50,first-50,1,rng,num-start-111,111,365,1.06477689743042,True,,True,1,False,1000,True,1.0,2,222
2,./expes/v2_2020-11-04_dbh_50-prng-1,daily_base_hphc_50,50,first-50,21,rng,num-start-171,171,365,1.9051053524017332,True,,True,1,False,1000,True,1.0,42,342
3,./expes/v2_2020-11-04_dbh_50-prng-1,daily_base_hphc_50,50,first-50,21,rng,num-start-221,221,365,2.4000496864318848,True,,True,1,False,1000,True,1.0,42,442
4,./expes/v2_2020-11-04_dbh_50-prng-1,daily_base_hphc_50,50,first-50,21,rng,num-start-271,271,365,2.6734604835510254,True,,True,1,False,1000,True,1.0,42,542
5,./expes/v2_2020-11-04_dbh_50-prng-1,daily_base_hphc_50,50,first-50,1,rng,num-start-41,41,365,0.4012880325317383,True,,True,1,False,1000,True,1.0,2,82
6,./expes/v2_2020-11-04_dbh_50-prng-1,daily_base_hphc_50,50,first-50,31,rng,num-start-261,261,365,2.5706818103790283,True,,True,1,False,1000,True,1.0,62,522
7,./expes/v2_2020-11-04_dbh_50-prng-1,daily_base_hphc_50,50,first-50,11,rng,num-start-221,221,365,2.4301512241363525,True,,True,1,False,1000,True,1.0,22,442
8,./expes/v2_2020-11-04_dbh_50-prng-1,daily_base_hphc_50,50,first-50,41,rng,num-start-51,51,365,0.616004228591919,True,,True,1,False,1000,True,1.0,82,102
9,./expes/v2_2020-11-04_dbh_50-prng-1,daily_base_hphc_50,50,first-50,1,rng,num-start-151,151,365,1.445976734161377,True,,True,1,False,1000,True,1.0,2,302
10,./expes/v2_2020-11-04_dbh_50-prng-1,daily_base_hphc_50,50,first-50,11,rng,num-start-151,151,365,1.689286231994629,True,,True,1,False,1000,True,1.0,22,302
11,./expes/v2_2020-11-04_dbh_50-prng-1,daily_base_hphc_50,50,first-50,31,rng,num-start-11,11,365,0.5359025001525879,True,,True,1,False,1000,True,1.0,62,22
12,./expes/v2_2020-11-04_dbh_50-prng-1,daily_base_hphc_50,50,first-50,31,rng,num-start-111,111,365,1.2735958099365234,True,,True,1,False,1000,True,1.0,62,222
13,./expes/v2_2020-11-04_dbh_50-prng-1,daily_base_hphc_50,50,first-50,41,rng,num-start-181,181,365,1.9608683586120603,True,,True,1,False,1000,True,1.0,82,362
14,./expes/v2_2020-11-04_dbh_50-prng-1,daily_base_hphc_50,50,first-50,31,rng,num-start-231,231,365,2.5097429752349854,True,,True,1,False,1000,True,1.0,62,462
0,./expes/v2_2020-11-04_dbh_50-prng-1,daily_base_hphc_50,50,first-50,21,rng,num-start-21,21,365,0.3905518054962158,True,,True,1,False,1000,True,1.0,42,42
1,./expes/v2_2020-11-04_dbh_50-prng-1,daily_base_hphc_50,50,first-50,31,rng,num-start-181,181,365,1.3421204090118408,True,,True,1,False,1000,True,1.0,62,362
0,./expes/v2_2020-11-04_dbh_50-prng-1,daily_base_hphc_50,50,first-50,21,rng,num-start-151,151,365,1.2902679443359375,True,,True,1,False,1000,True,1.0,42,302
1,./expes/v2_2020-11-04_dbh_50-prng-1,daily_base_hphc_50,50,first-50,31,rng,num-start-151,151,365,1.1017210483551023,True,,True,1,False,1000,True,1.0,62,302
0,./expes/v2_2020-11-04_dbh_50-prng-1,daily_base_hphc_50,50,first-50,31,rng,num-start-141,141,365,1.710986614227295,True,,True,1,False,1000,True,1.0,62,282
1,./expes/v2_2020-11-04_dbh_50-prng-1,daily_base_hphc_50,50,first-50,31,rng,num-start-61,61,365,0.6868844032287598,True,,True,1,False,1000,True,1.0,62,122
2,./expes/v2_2020-11-04_dbh_50-prng-1,daily_base_hphc_50,50,first-50,11,rng,num-start-191,191,365,2.084290027618408,True,,True,1,False,1000,True,1.0,22,382
3,./expes/v2_2020-11-04_dbh_50-prng-1,daily_base_hphc_50,50,first-50,41,rng,num-start-151,151,365,1.6614348888397217,True,,True,1,False,1000,True,1.0,82,302
4,./expes/v2_2020-11-04_dbh_50-prng-1,daily_base_hphc_50,50,first-50,21,rng,num-start-1,1,365,0.5158402919769287,False,,False,2,False,1000,True,1.0,42,2
5,./expes/v2_2020-11-04_dbh_50-prng-1,daily_base_hphc_50,50,first-50,41,rng,num-start-61,61,365,0.6741573810577393,True,,True,1,False,1000,True,1.0,82,122
6,./expes/v2_2020-11-04_dbh_50-prng-1,daily_base_hphc_50,50,first-50,31,rng,num-start-291,291,365,2.8160245418548584,True,,True,1,False,1000,True,1.0,62,582
7,./expes/v2_2020-11-04_dbh_50-prng-1,daily_base_hphc_50,50,first-50,21,rng,num-start-61,61,365,0.6807961463928223,True,,True,1,False,1000,True,1.0,42,122
8,./expes/v2_2020-11-04_dbh_50-prng-1,daily_base_hphc_50,50,first-50,21,rng,num-start-81,81,365,0.938506841659546,True,,True,1,False,1000,True,1.0,42,162
9,./expes/v2_2020-11-04_dbh_50-prng-1,daily_base_hphc_50,50,first-50,31,rng,num-start-191,191,365,2.0761282444000244,True,,True,1,False,1000,True,1.0,62,382
10,./expes/v2_2020-11-04_dbh_50-prng-1,daily_base_hphc_50,50,first-50,11,rng,num-start-121,121,365,1.3198301792144775,True,,True,1,False,1000,True,1.0,22,242
11,./expes/v2_2020-11-04_dbh_50-prng-1,daily_base_hphc_50,50,first-50,21,rng,num-start-211,211,365,2.265707015991211,True,,True,1,False,1000,True,1.0,42,422
12,./expes/v2_2020-11-04_dbh_50-prng-1,daily_base_hphc_50,50,first-50,11,rng,num-start-51,51,365,0.5477802753448486,True,,True,1,False,1000,True,1.0,22,102
13,./expes/v2_2020-11-04_dbh_50-prng-1,daily_base_hphc_50,50,first-50,31,rng,num-start-41,41,365,0.5092215538024902,True,,True,1,False,1000,True,1.0,62,82
14,./expes/v2_2020-11-04_dbh_50-prng-1,daily_base_hphc_50,50,first-50,41,rng,num-start-121,121,365,1.3102035522460938,True,,True,1,False,1000,True,1.0,82,242
15,./expes/v2_2020-11-04_dbh_50-prng-1,daily_base_hphc_50,50,first-50,1,rng,num-start-71,71,365,0.6696805953979492,True,,True,1,False,1000,True,1.0,2,142
16,./expes/v2_2020-11-04_dbh_50-prng-1,daily_base_hphc_50,50,first-50,11,rng,num-start-201,201,365,2.1602795124053955,True,,True,1,False,1000,True,1.0,22,402
17,./expes/v2_2020-11-04_dbh_50-prng-1,daily_base_hphc_50,50,first-50,41,rng,num-start-291,291,365,2.80745267868042,True,,True,1,False,1000,True,1.0,82,582
0,./expes/v2_2020-11-04_dbh_50-prng-1,daily_base_hphc_50,50,first-50,21,rng,num-start-191,191,365,2.257784605026245,True,,True,1,False,1000,True,1.0,42,382
1,./expes/v2_2020-11-04_dbh_50-prng-1,daily_base_hphc_50,50,first-50,1,rng,num-start-261,261,365,2.466308832168579,True,,True,1,False,1000,True,1.0,2,522
2,./expes/v2_2020-11-04_dbh_50-prng-1,daily_base_hphc_50,50,first-50,41,rng,num-start-21,21,365,0.2803103923797607,True,,True,1,False,1000,True,1.0,82,42
0,./expes/v2_2020-11-04_dbh_50-prng-1,daily_base_hphc_50,50,first-50,21,rng,num-start-141,141,365,1.2262680530548096,True,,True,1,False,1000,True,1.0,42,282
1,./expes/v2_2020-11-04_dbh_50-prng-1,daily_base_hphc_50,50,first-50,11,rng,num-start-61,61,365,0.4361295700073242,True,,True,1,False,1000,True,1.0,22,122
2,./expes/v2_2020-11-04_dbh_50-prng-1,daily_base_hphc_50,50,first-50,11,rng,num-start-231,231,365,1.722484111785889,True,,True,1,False,1000,True,1.0,22,462
0,./expes/v2_2020-11-04_dbh_50-prng-1,daily_base_hphc_50,50,first-50,21,rng,num-start-251,251,365,2.526885509490967,True,,True,1,False,1000,True,1.0,42,502
