expe,clients,clients_size,clients_subset,agg_size,method,days,days_size,days_total,time,valid,valid_sum,success,nsols,wall_hit,wall_time,pooled,valid_sums
./expes/v2_2020-12-06_dh_2000-prng-1,30_issda_2000,2000,rng-2000,301,rng,num-start-201,201,25726,1024.4850013256073,False,,False,0,True,1000,True,0.0
./expes/v2_2020-12-06_dh_2000-prng-1,30_issda_2000,2000,rng-2000,301,rng,num-start-1301,1301,25726,775.9108688831329,True,,True,1,False,1000,True,1.0
./expes/v2_2020-12-06_dh_2000-prng-1,30_issda_2000,2000,rng-2000,801,rng,num-start-1901,1901,25726,1256.2483394145966,False,,False,1,True,1000,True,0.0
./expes/v2_2020-12-06_dh_2000-prng-1,30_issda_2000,2000,rng-2000,1101,rng,num-start-1301,1301,25726,1035.8914852142334,True,,True,1,False,1000,True,1.0
./expes/v2_2020-12-06_dh_2000-prng-1,30_issda_2000,2000,rng-2000,1601,rng,num-start-1401,1401,25726,1170.1651818752289,False,,False,1,True,1000,True,0.0
./expes/v2_2020-12-06_dh_2000-prng-1,30_issda_2000,2000,rng-2000,1401,rng,num-start-1101,1101,25726,1139.0154304504395,False,,False,1,True,1000,True,0.0
./expes/v2_2020-12-06_dh_2000-prng-1,30_issda_2000,2000,rng-2000,1301,rng,num-start-1001,1001,25726,1133.4253916740417,False,,False,1,True,1000,True,0.0
./expes/v2_2020-12-06_dh_2000-prng-1,30_issda_2000,2000,rng-2000,1601,rng,num-start-1101,1101,25726,1137.8117609024048,False,,False,1,True,1000,True,0.0
./expes/v2_2020-12-06_dh_2000-prng-1,30_issda_2000,2000,rng-2000,1001,rng,num-start-701,701,25726,1087.8854377269745,False,,False,0,True,1000,True,0.0
./expes/v2_2020-12-06_dh_2000-prng-1,30_issda_2000,2000,rng-2000,1901,rng,num-start-401,401,25726,502.68695855140686,True,,True,1,False,1000,True,1.0
