expe,clients,clients_size,clients_subset,agg_size,agg_size_pc,method,days,days_size,days_total,noise_method,time,valid,valid_sum,success,score_avg,score_min,score_max,nsols,oracle,wall_hit,wall_time,pooled,pool_size,uuid,infeasible,optimal,valid_sums
./expes/v2_2021-03-27_issda-30_2000-prng-1-w4-p2,30_issda-2000,2000,first-2000,500,25,rng,num-start-1400,1400,25726,classic,3909.283498287201,True,,True,1.0,1.0,1.0,1,"['1', '4', '9', '25', '30', '39', '44', '47', '48', '53', '56', '57', '58', '60', '77', '81', '87', '96', '99', '102', '108', '111', '117', '119', '121', '122', '123', '125', '127', '128', '129', '130', '134', '138', '141', '144', '145', '149', '150', '159', '165', '166', '168', '170', '174', '176', '177', '178', '186', '187', '192', '193', '200', '201', '208', '210', '211', '212', '213', '218', '226', '237', '240', '242', '246', '247', '250', '252', '254', '258', '261', '265', '268', '269', '273', '281', '286', '290', '296', '299', '300', '301', '305', '307', '309', '310', '311', '312', '320', '326', '331', '333', '338', '341', '343', '345', '349', '353', '361', '366', '369', '371', '374', '376', '385', '391', '392', '397', '399', '400', '403', '409', '410', '415', '419', '421', '422', '426', '428', '433', '436', '440', '447', '452', '453', '457', '458', '465', '473', '476', '478', '491', '493', '500', '508', '509', '516', '517', '531', '532', '535', '539', '543', '553', '568', '570', '571', '573', '578', '583', '589', '590', '594', '600', '611', '614', '615', '632', '635', '639', '643', '644', '648', '653', '664', '667', '668', '676', '681', '692', '697', '701', '702', '704', '705', '706', '711', '712', '716', '718', '725', '728', '729', '735', '741', '745', '746', '747', '749', '752', '757', '763', '771', '780', '791', '796', '801', '804', '808', '809', '811', '813', '815', '816', '818', '821', '823', '851', '854', '857', '859', '862', '864', '870', '876', '882', '889', '902', '903', '906', '908', '913', '916', '917', '920', '927', '929', '935', '936', '939', '946', '949', '954', '955', '963', '968', '970', '971', '972', '980', '981', '982', '984', '987', '989', '991', '994', '1000', '1002', '1010', '1012', '1014', '1017', '1018', '1027', '1028', '1030', '1036', '1040', '1041', '1046', '1049', '1056', '1058', '1059', '1061', '1062', '1072', '1073', '1076', '1079', '1082', '1087', '1089', '1090', '1091', '1093', '1095', '1098', '1099', '1108', '1110', '1113', '1115', '1122', '1123', '1124', '1126', '1127', '1129', '1138', '1140', '1141', '1143', '1146', '1148', '1151', '1156', '1159', '1160', '1161', '1170', '1174', '1177', '1182', '1184', '1188', '1192', '1194', '1195', '1200', '1202', '1207', '1210', '1218', '1221', '1231', '1234', '1240', '1242', '1247', '1248', '1249', '1250', '1252', '1253', '1255', '1256', '1257', '1258', '1265', '1268', '1279', '1285', '1292', '1300', '1303', '1304', '1309', '1317', '1318', '1326', '1331', '1334', '1338', '1342', '1344', '1347', '1349', '1353', '1357', '1361', '1369', '1370', '1385', '1394', '1396', '1397', '1398', '1399', '1414', '1415', '1418', '1419', '1424', '1426', '1428', '1432', '1437', '1447', '1458', '1459', '1468', '1479', '1481', '1485', '1486', '1488', '1494', '1498', '1513', '1516', '1517', '1523', '1535', '1536', '1537', '1551', '1553', '1554', '1557', '1565', '1566', '1574', '1581', '1582', '1590', '1591', '1592', '1596', '1598', '1603', '1607', '1615', '1617', '1619', '1627', '1633', '1635', '1637', '1638', '1641', '1646', '1651', '1652', '1654', '1656', '1662', '1670', '1672', '1676', '1678', '1682', '1684', '1692', '1693', '1694', '1698', '1703', '1709', '1710', '1721', '1722', '1732', '1739', '1747', '1759', '1760', '1769', '1770', '1784', '1785', '1786', '1788', '1790', '1791', '1792', '1793', '1795', '1796', '1799', '1809', '1810', '1811', '1817', '1821', '1829', '1831', '1839', '1843', '1844', '1852', '1854', '1861', '1863', '1864', '1869', '1873', '1878', '1880', '1890', '1892', '1901', '1912', '1913', '1920', '1927', '1929', '1930', '1932', '1935', '1938', '1940', '1941', '1942', '1944', '1947', '1948', '1950', '1952', '1956', '1957', '1959', '1962', '1971', '1989', '1990', '1994', '1996', '2000']",False,4000,True,2,f2bd0dc8d2,0.0,1.0,1.0
./expes/v2_2021-03-27_issda-30_2000-prng-1-w4-p2,30_issda-2000,2000,first-2000,900,45,rng,num-start-3200,3200,25726,classic,3209.559393644333,True,,True,1.0,1.0,1.0,1,"['1', '2', '4', '6', '7', '11', '13', '19', '21', '24', '26', '27', '28', '30', '34', '35', '36', '38', '39', '41', '45', '47', '49', '52', '53', '55', '57', '58', '60', '61', '66', '68', '69', '70', '71', '74', '75', '76', '78', '81', '82', '86', '90', '93', '96', '97', '99', '100', '101', '104', '106', '107', '110', '111', '115', '117', '118', '121', '124', '125', '126', '129', '130', '131', '134', '136', '137', '138', '141', '146', '148', '155', '161', '162', '166', '168', '172', '173', '175', '178', '180', '183', '187', '188', '189', '193', '195', '196', '199', '202', '205', '209', '213', '219', '221', '222', '226', '227', '228', '231', '232', '236', '237', '238', '242', '243', '244', '250', '251', '253', '256', '257', '259', '260', '265', '266', '267', '268', '269', '270', '271', '272', '273', '274', '276', '280', '282', '284', '285', '287', '289', '290', '291', '292', '293', '294', '295', '299', '301', '304', '305', '306', '307', '309', '310', '312', '315', '317', '320', '322', '326', '327', '328', '329', '331', '332', '335', '339', '340', '341', '346', '347', '348', '351', '352', '354', '360', '361', '364', '366', '368', '369', '370', '371', '372', '373', '375', '378', '379', '380', '382', '386', '392', '393', '397', '399', '401', '403', '404', '407', '408', '410', '412', '413', '415', '419', '420', '425', '427', '428', '429', '434', '437', '440', '441', '442', '444', '449', '452', '457', '459', '464', '468', '472', '473', '474', '479', '481', '482', '483', '486', '487', '488', '489', '492', '493', '499', '502', '503', '504', '505', '510', '511', '513', '514', '515', '517', '521', '524', '525', '529', '533', '538', '540', '541', '543', '548', '549', '550', '555', '558', '561', '562', '565', '569', '571', '573', '574', '576', '579', '580', '581', '585', '586', '587', '588', '592', '593', '594', '595', '597', '600', '601', '602', '604', '605', '606', '607', '608', '612', '616', '617', '618', '620', '622', '627', '628', '630', '634', '635', '637', '639', '640', '641', '643', '645', '647', '648', '649', '650', '651', '654', '658', '662', '663', '665', '667', '668', '677', '678', '680', '683', '685', '689', '693', '694', '696', '697', '698', '700', '705', '706', '708', '713', '714', '715', '717', '718', '720', '721', '724', '726', '727', '728', '729', '731', '732', '733', '734', '735', '740', '741', '742', '743', '745', '746', '747', '750', '753', '756', '757', '761', '762', '764', '766', '767', '768', '770', '771', '772', '773', '775', '777', '778', '779', '780', '783', '784', '785', '787', '788', '790', '791', '797', '798', '799', '803', '804', '811', '814', '817', '822', '825', '827', '828', '830', '831', '832', '835', '836', '837', '839', '840', '841', '848', '850', '851', '854', '858', '859', '862', '864', '867', '872', '875', '876', '878', '879', '880', '882', '885', '887', '888', '890', '893', '897', '904', '905', '906', '909', '912', '914', '920', '922', '928', '929', '930', '934', '936', '945', '946', '947', '948', '949', '951', '953', '954', '958', '959', '961', '962', '963', '966', '967', '968', '970', '972', '973', '975', '977', '978', '980', '982', '983', '984', '985', '986', '987', '988', '989', '990', '991', '995', '997', '1000', '1003', '1004', '1006', '1007', '1008', '1009', '1011', '1017', '1019', '1020', '1023', '1025', '1030', '1036', '1038', '1042', '1050', '1051', '1056', '1058', '1059', '1060', '1062', '1063', '1070', '1075', '1081', '1085', '1086', '1087', '1089', '1090', '1091', '1093', '1100', '1102', '1103', '1105', '1106', '1109', '1110', '1111', '1114', '1117', '1118', '1121', '1123', '1124', '1125', '1127', '1130', '1131', '1133', '1134', '1136', '1137', '1138', '1139', '1142', '1146', '1148', '1151', '1155', '1156', '1158', '1159', '1165', '1170', '1171', '1174', '1175', '1176', '1178', '1179', '1182', '1185', '1190', '1193', '1197', '1200', '1201', '1202', '1204', '1208', '1209', '1210', '1214', '1217', '1219', '1221', '1222', '1226', '1230', '1231', '1236', '1237', '1241', '1246', '1247', '1251', '1253', '1254', '1257', '1259', '1260', '1264', '1265', '1266', '1269', '1271', '1272', '1274', '1275', '1276', '1278', '1279', '1280', '1281', '1282', '1284', '1285', '1290', '1292', '1293', '1295', '1305', '1308', '1312', '1316', '1320', '1321', '1323', '1326', '1327', '1328', '1329', '1330', '1331', '1332', '1334', '1336', '1339', '1340', '1342', '1343', '1344', '1345', '1352', '1353', '1355', '1356', '1357', '1360', '1363', '1364', '1365', '1368', '1369', '1370', '1374', '1376', '1377', '1380', '1382', '1385', '1389', '1394', '1395', '1396', '1397', '1398', '1399', '1404', '1405', '1408', '1409', '1410', '1411', '1412', '1415', '1417', '1423', '1424', '1425', '1427', '1428', '1429', '1435', '1437', '1439', '1441', '1443', '1444', '1445', '1446', '1448', '1450', '1451', '1453', '1460', '1461', '1464', '1467', '1468', '1471', '1472', '1474', '1475', '1476', '1477', '1478', '1480', '1481', '1485', '1487', '1488', '1489', '1491', '1494', '1495', '1496', '1498', '1499', '1500', '1501', '1509', '1512', '1514', '1516', '1517', '1518', '1520', '1521', '1523', '1526', '1527', '1533', '1536', '1537', '1538', '1541', '1548', '1549', '1553', '1555', '1556', '1558', '1561', '1565', '1567', '1569', '1572', '1574', '1576', '1577', '1582', '1585', '1587', '1589', '1590', '1595', '1596', '1598', '1599', '1600', '1601', '1602', '1609', '1610', '1614', '1620', '1622', '1627', '1628', '1629', '1631', '1632', '1633', '1634', '1636', '1642', '1643', '1645', '1648', '1650', '1654', '1655', '1663', '1664', '1665', '1666', '1668', '1673', '1675', '1677', '1679', '1681', '1682', '1684', '1689', '1693', '1694', '1697', '1700', '1703', '1706', '1707', '1711', '1712', '1713', '1714', '1715', '1718', '1722', '1723', '1724', '1725', '1727', '1729', '1731', '1738', '1739', '1745', '1746', '1749', '1751', '1753', '1755', '1759', '1761', '1769', '1775', '1776', '1777', '1778', '1779', '1780', '1782', '1785', '1787', '1793', '1795', '1796', '1800', '1803', '1804', '1808', '1814', '1819', '1821', '1822', '1823', '1826', '1827', '1829', '1830', '1831', '1833', '1836', '1837', '1841', '1846', '1848', '1850', '1865', '1866', '1867', '1868', '1870', '1872', '1874', '1877', '1878', '1881', '1887', '1888', '1889', '1892', '1893', '1894', '1899', '1904', '1906', '1915', '1916', '1917', '1918', '1920', '1921', '1923', '1924', '1925', '1926', '1927', '1928', '1930', '1931', '1932', '1935', '1936', '1937', '1945', '1946', '1948', '1949', '1950', '1951', '1953', '1955', '1956', '1957', '1959', '1960', '1961', '1963', '1966', '1967', '1968', '1969', '1970', '1973', '1976', '1977', '1980', '1982', '1983', '1984', '1986', '1990', '1992', '1993', '1994', '1998', '1999', '2000']",False,4000,True,2,e67812851a,0.0,1.0,1.0
./expes/v2_2021-03-27_issda-30_2000-prng-1-w4-p2,30_issda-2000,2000,first-2000,400,20,rng,num-start-1800,1800,25726,classic,1413.723863363266,True,,True,1.0,1.0,1.0,1,"['6', '9', '11', '16', '31', '33', '34', '52', '66', '67', '68', '71', '73', '76', '90', '91', '92', '95', '104', '110', '114', '129', '133', '134', '135', '144', '148', '152', '156', '164', '166', '172', '183', '190', '196', '197', '198', '203', '217', '223', '232', '238', '239', '245', '273', '275', '279', '285', '286', '290', '294', '307', '312', '315', '321', '325', '329', '334', '338', '340', '341', '346', '357', '358', '361', '366', '374', '382', '391', '392', '393', '394', '397', '399', '400', '401', '410', '413', '423', '426', '428', '430', '451', '459', '460', '483', '487', '489', '491', '492', '494', '495', '497', '503', '505', '512', '522', '531', '537', '538', '540', '545', '547', '557', '563', '568', '569', '579', '581', '585', '593', '603', '607', '617', '620', '621', '628', '631', '632', '644', '655', '660', '662', '665', '672', '673', '680', '695', '700', '703', '712', '713', '715', '716', '717', '728', '738', '740', '743', '747', '750', '752', '766', '767', '769', '782', '783', '788', '795', '800', '804', '813', '821', '822', '829', '830', '837', '846', '849', '851', '852', '861', '862', '863', '864', '867', '868', '869', '874', '879', '888', '891', '892', '893', '894', '899', '900', '901', '904', '905', '913', '915', '916', '917', '918', '923', '930', '934', '936', '939', '940', '946', '948', '950', '956', '963', '977', '978', '981', '983', '984', '989', '994', '1003', '1004', '1007', '1016', '1018', '1023', '1024', '1027', '1028', '1038', '1040', '1065', '1066', '1067', '1069', '1070', '1071', '1072', '1076', '1093', '1097', '1099', '1104', '1106', '1109', '1116', '1125', '1128', '1138', '1139', '1145', '1156', '1162', '1167', '1168', '1171', '1172', '1177', '1179', '1184', '1194', '1198', '1203', '1206', '1212', '1216', '1219', '1220', '1224', '1232', '1234', '1235', '1236', '1241', '1243', '1246', '1249', '1250', '1257', '1265', '1268', '1285', '1288', '1310', '1317', '1329', '1331', '1335', '1336', '1338', '1339', '1348', '1353', '1356', '1361', '1366', '1373', '1380', '1381', '1383', '1395', '1402', '1405', '1408', '1413', '1424', '1430', '1438', '1460', '1471', '1475', '1476', '1479', '1480', '1488', '1503', '1508', '1515', '1517', '1523', '1524', '1526', '1527', '1535', '1539', '1556', '1565', '1571', '1573', '1579', '1582', '1583', '1584', '1587', '1589', '1593', '1604', '1612', '1616', '1620', '1626', '1633', '1638', '1641', '1648', '1654', '1659', '1661', '1664', '1666', '1673', '1674', '1676', '1682', '1687', '1688', '1694', '1695', '1698', '1699', '1707', '1714', '1725', '1729', '1736', '1737', '1744', '1748', '1752', '1759', '1762', '1766', '1768', '1772', '1781', '1785', '1786', '1792', '1818', '1819', '1821', '1830', '1837', '1839', '1840', '1853', '1856', '1860', '1863', '1865', '1866', '1870', '1871', '1874', '1884', '1886', '1890', '1893', '1911', '1917', '1928', '1932', '1937', '1941', '1948', '1951', '1952', '1956', '1971', '1974', '1976', '1984', '1986', '1987', '1988', '1995', '1997']",False,4000,True,2,25889b0583,0.0,1.0,1.0
./expes/v2_2021-03-27_issda-30_2000-prng-1-w4-p2,30_issda-2000,2000,first-2000,1000,50,rng,num-start-2400,2400,25726,classic,2073.1191685199738,True,,True,1.0,1.0,1.0,1,"['1', '2', '4', '6', '8', '10', '13', '16', '21', '22', '25', '26', '29', '30', '31', '32', '34', '36', '37', '38', '40', '41', '43', '44', '45', '47', '49', '52', '53', '57', '58', '59', '60', '62', '63', '65', '67', '71', '72', '78', '79', '80', '81', '82', '83', '85', '86', '88', '92', '95', '98', '102', '103', '105', '106', '107', '108', '112', '113', '114', '116', '121', '122', '123', '124', '127', '128', '131', '132', '133', '137', '138', '140', '141', '143', '144', '149', '153', '154', '155', '158', '159', '160', '166', '167', '171', '175', '176', '180', '182', '184', '185', '186', '191', '192', '193', '194', '195', '196', '198', '199', '201', '203', '204', '210', '211', '212', '214', '218', '219', '220', '223', '226', '227', '229', '230', '231', '232', '234', '235', '236', '238', '239', '243', '244', '245', '247', '249', '250', '251', '252', '253', '255', '258', '259', '260', '262', '264', '267', '268', '270', '271', '273', '274', '277', '281', '284', '289', '290', '291', '294', '300', '301', '305', '307', '310', '314', '316', '319', '325', '329', '330', '331', '332', '333', '334', '338', '339', '343', '344', '345', '348', '349', '350', '352', '353', '358', '360', '363', '364', '366', '369', '370', '371', '372', '374', '377', '379', '380', '381', '383', '387', '388', '389', '391', '393', '394', '395', '397', '400', '403', '405', '407', '408', '409', '410', '411', '415', '416', '419', '420', '421', '422', '425', '426', '427', '429', '431', '432', '434', '438', '442', '443', '444', '447', '449', '451', '455', '456', '457', '458', '461', '462', '463', '464', '468', '469', '471', '472', '473', '477', '478', '480', '483', '484', '485', '487', '490', '494', '495', '496', '498', '500', '501', '502', '505', '506', '507', '509', '510', '512', '513', '515', '516', '517', '519', '520', '522', '523', '524', '525', '526', '530', '533', '534', '539', '540', '541', '542', '544', '545', '547', '550', '552', '555', '556', '557', '558', '559', '560', '561', '562', '564', '565', '566', '570', '571', '573', '575', '576', '577', '578', '579', '580', '581', '582', '587', '588', '589', '594', '596', '597', '598', '599', '601', '602', '603', '604', '606', '607', '608', '614', '615', '616', '617', '620', '621', '625', '626', '628', '629', '634', '636', '637', '640', '641', '643', '644', '647', '648', '650', '652', '653', '654', '657', '659', '660', '661', '662', '663', '666', '667', '668', '672', '675', '677', '680', '683', '684', '685', '686', '687', '688', '691', '694', '696', '697', '699', '701', '703', '704', '709', '712', '714', '718', '720', '722', '724', '726', '729', '731', '734', '738', '739', '740', '745', '746', '748', '749', '751', '754', '755', '756', '759', '763', '764', '771', '772', '774', '776', '777', '778', '780', '781', '782', '783', '784', '787', '788', '789', '791', '792', '793', '794', '795', '798', '799', '800', '805', '807', '808', '809', '813', '814', '815', '818', '819', '820', '822', '824', '825', '827', '831', '832', '833', '837', '844', '845', '847', '849', '850', '855', '856', '858', '859', '862', '863', '864', '866', '867', '869', '871', '873', '874', '879', '880', '881', '884', '885', '886', '890', '893', '896', '898', '899', '901', '904', '905', '907', '910', '912', '913', '914', '917', '918', '920', '921', '922', '925', '927', '929', '930', '931', '932', '933', '937', '942', '944', '955', '956', '958', '959', '960', '961', '962', '963', '965', '966', '969', '970', '972', '973', '974', '975', '977', '979', '981', '984', '986', '987', '990', '992', '993', '994', '995', '996', '997', '998', '1000', '1002', '1003', '1005', '1006', '1012', '1013', '1014', '1015', '1020', '1022', '1025', '1026', '1029', '1031', '1033', '1034', '1035', '1036', '1038', '1039', '1041', '1044', '1046', '1048', '1049', '1053', '1058', '1061', '1062', '1065', '1066', '1068', '1069', '1073', '1077', '1078', '1080', '1082', '1086', '1087', '1088', '1089', '1090', '1092', '1094', '1095', '1096', '1098', '1101', '1103', '1107', '1109', '1110', '1111', '1113', '1115', '1116', '1117', '1119', '1120', '1121', '1122', '1124', '1125', '1126', '1128', '1130', '1132', '1134', '1136', '1138', '1140', '1142', '1143', '1144', '1145', '1146', '1147', '1150', '1158', '1161', '1162', '1163', '1164', '1166', '1167', '1168', '1169', '1171', '1174', '1177', '1178', '1182', '1183', '1184', '1186', '1192', '1195', '1197', '1201', '1205', '1206', '1207', '1211', '1214', '1216', '1218', '1219', '1220', '1221', '1222', '1226', '1229', '1232', '1234', '1235', '1237', '1240', '1244', '1245', '1248', '1249', '1253', '1255', '1261', '1262', '1265', '1267', '1270', '1272', '1279', '1281', '1283', '1285', '1286', '1287', '1294', '1296', '1297', '1298', '1301', '1304', '1306', '1310', '1311', '1313', '1315', '1318', '1321', '1322', '1323', '1324', '1325', '1326', '1327', '1329', '1330', '1331', '1335', '1336', '1339', '1343', '1344', '1345', '1346', '1348', '1349', '1351', '1352', '1356', '1359', '1360', '1363', '1365', '1369', '1373', '1374', '1375', '1377', '1379', '1380', '1383', '1386', '1388', '1393', '1394', '1395', '1396', '1398', '1402', '1403', '1404', '1406', '1407', '1409', '1413', '1416', '1417', '1418', '1427', '1431', '1432', '1437', '1439', '1440', '1441', '1442', '1443', '1444', '1446', '1453', '1454', '1456', '1457', '1460', '1463', '1464', '1465', '1466', '1470', '1471', '1472', '1474', '1476', '1478', '1480', '1484', '1485', '1486', '1487', '1488', '1489', '1491', '1496', '1497', '1500', '1504', '1506', '1509', '1514', '1515', '1516', '1517', '1519', '1522', '1525', '1527', '1529', '1530', '1532', '1533', '1539', '1540', '1541', '1542', '1546', '1547', '1548', '1551', '1552', '1555', '1557', '1558', '1559', '1560', '1562', '1563', '1564', '1565', '1567', '1571', '1575', '1576', '1577', '1578', '1580', '1584', '1585', '1587', '1588', '1590', '1593', '1597', '1602', '1603', '1606', '1607', '1608', '1610', '1613', '1615', '1621', '1623', '1624', '1626', '1627', '1632', '1633', '1634', '1635', '1637', '1639', '1641', '1646', '1648', '1650', '1651', '1652', '1654', '1655', '1656', '1658', '1659', '1660', '1661', '1664', '1668', '1670', '1673', '1676', '1678', '1680', '1681', '1682', '1683', '1685', '1686', '1687', '1688', '1691', '1694', '1695', '1696', '1697', '1698', '1701', '1702', '1703', '1704', '1705', '1710', '1711', '1713', '1714', '1720', '1724', '1731', '1732', '1735', '1737', '1739', '1740', '1741', '1742', '1745', '1747', '1748', '1750', '1752', '1754', '1756', '1761', '1762', '1764', '1765', '1768', '1769', '1770', '1771', '1772', '1773', '1776', '1777', '1779', '1781', '1784', '1785', '1786', '1787', '1788', '1790', '1791', '1792', '1795', '1800', '1802', '1803', '1807', '1810', '1814', '1815', '1816', '1819', '1820', '1821', '1835', '1836', '1837', '1839', '1840', '1841', '1842', '1845', '1846', '1847', '1848', '1849', '1852', '1853', '1861', '1862', '1864', '1865', '1875', '1877', '1879', '1884', '1886', '1887', '1888', '1889', '1891', '1893', '1894', '1895', '1896', '1898', '1900', '1901', '1902', '1903', '1906', '1907', '1908', '1910', '1911', '1912', '1913', '1914', '1917', '1918', '1920', '1921', '1924', '1926', '1930', '1932', '1934', '1935', '1936', '1937', '1938', '1940', '1946', '1948', '1949', '1950', '1951', '1955', '1959', '1962', '1964', '1965', '1967', '1968', '1969', '1971', '1972', '1974', '1977', '1980', '1983', '1984', '1986', '1988', '1990', '1991', '1992', '1993', '1995', '2000']",False,4000,True,2,41aaf3f46f,0.0,1.0,1.0
./expes/v2_2021-03-27_issda-30_2000-prng-1-w4-p2,30_issda-2000,2000,first-2000,300,15,rng,num-start-1200,1200,25726,classic,2732.957827568054,True,,True,1.0,1.0,1.0,1,"['6', '9', '11', '16', '31', '52', '66', '67', '68', '71', '73', '76', '90', '91', '92', '95', '104', '129', '133', '134', '148', '156', '164', '166', '183', '190', '197', '198', '203', '217', '223', '232', '238', '239', '245', '273', '275', '279', '285', '286', '290', '294', '307', '312', '315', '321', '325', '329', '334', '338', '340', '341', '357', '358', '361', '366', '374', '392', '394', '399', '400', '401', '423', '426', '428', '430', '459', '460', '483', '487', '489', '491', '492', '495', '497', '503', '505', '512', '531', '537', '538', '545', '547', '557', '563', '569', '581', '585', '593', '607', '617', '620', '621', '632', '644', '655', '662', '665', '672', '673', '680', '703', '712', '715', '716', '717', '728', '740', '743', '747', '750', '767', '769', '782', '788', '795', '800', '821', '822', '830', '837', '846', '849', '851', '861', '862', '863', '867', '868', '869', '874', '879', '888', '891', '892', '893', '894', '899', '901', '904', '905', '913', '916', '917', '918', '923', '930', '934', '936', '939', '940', '946', '948', '950', '963', '978', '981', '984', '989', '994', '1003', '1004', '1007', '1016', '1018', '1024', '1027', '1028', '1065', '1066', '1067', '1069', '1070', '1072', '1076', '1093', '1097', '1099', '1104', '1109', '1116', '1125', '1128', '1138', '1145', '1162', '1171', '1179', '1184', '1194', '1198', '1206', '1212', '1219', '1224', '1232', '1234', '1236', '1243', '1246', '1249', '1257', '1265', '1268', '1285', '1288', '1317', '1329', '1331', '1338', '1339', '1348', '1353', '1356', '1361', '1366', '1373', '1380', '1381', '1383', '1395', '1402', '1405', '1408', '1424', '1430', '1438', '1460', '1471', '1480', '1488', '1508', '1515', '1523', '1524', '1527', '1539', '1571', '1573', '1582', '1583', '1584', '1587', '1589', '1593', '1604', '1612', '1616', '1638', '1654', '1661', '1666', '1673', '1676', '1682', '1687', '1694', '1695', '1698', '1699', '1707', '1725', '1729', '1744', '1752', '1759', '1762', '1766', '1768', '1772', '1781', '1786', '1818', '1821', '1830', '1837', '1839', '1840', '1853', '1863', '1865', '1870', '1871', '1884', '1886', '1890', '1893', '1928', '1932', '1937', '1941', '1951', '1952', '1971', '1974', '1984', '1986', '1987', '1988', '1995']",False,4000,True,2,d293c40777,0.0,1.0,1.0
./expes/v2_2021-03-27_issda-30_2000-prng-1-w4-p2,30_issda-2000,2000,first-2000,1000,50,rng,num-start-200,200,25726,classic,4023.169946908951,False,,False,0,,,0,"['2', '3', '7', '8', '11', '12', '13', '14', '15', '16', '17', '18', '19', '20', '21', '23', '24', '25', '26', '27', '29', '31', '32', '35', '36', '38', '40', '42', '43', '44', '46', '49', '53', '54', '55', '56', '58', '59', '60', '61', '62', '68', '70', '71', '74', '77', '80', '84', '85', '86', '87', '89', '97', '100', '102', '104', '105', '106', '107', '108', '109', '110', '111', '113', '116', '117', '119', '120', '121', '122', '123', '124', '125', '129', '130', '131', '132', '133', '134', '135', '136', '137', '141', '142', '143', '147', '148', '149', '152', '153', '155', '156', '157', '161', '162', '164', '166', '167', '168', '170', '171', '172', '173', '174', '176', '178', '179', '180', '181', '182', '183', '188', '189', '191', '192', '193', '194', '197', '198', '201', '202', '203', '204', '205', '209', '210', '212', '213', '217', '218', '221', '223', '226', '227', '228', '229', '230', '239', '242', '243', '244', '246', '247', '249', '251', '253', '263', '264', '266', '269', '271', '272', '273', '275', '276', '277', '282', '283', '284', '285', '288', '289', '292', '295', '296', '298', '301', '304', '305', '306', '307', '309', '311', '312', '319', '322', '323', '326', '329', '330', '331', '332', '333', '334', '335', '337', '339', '341', '345', '346', '347', '348', '350', '351', '352', '354', '355', '360', '361', '362', '364', '365', '367', '371', '372', '373', '374', '375', '377', '379', '382', '383', '387', '388', '390', '391', '393', '394', '397', '398', '400', '402', '405', '406', '408', '409', '410', '411', '412', '414', '416', '420', '421', '423', '424', '428', '429', '430', '431', '432', '433', '438', '442', '444', '452', '453', '455', '456', '457', '459', '460', '462', '466', '471', '473', '474', '476', '477', '482', '484', '485', '487', '488', '496', '497', '498', '499', '503', '507', '509', '514', '515', '519', '520', '522', '523', '524', '526', '527', '530', '531', '532', '533', '535', '538', '539', '540', '543', '546', '547', '548', '550', '552', '553', '557', '559', '562', '564', '565', '567', '569', '571', '576', '578', '581', '583', '584', '585', '589', '590', '595', '596', '597', '599', '601', '603', '605', '607', '610', '615', '616', '617', '620', '623', '625', '626', '627', '630', '631', '633', '636', '638', '642', '644', '645', '646', '650', '651', '653', '654', '657', '659', '661', '662', '663', '664', '666', '667', '673', '674', '675', '676', '677', '678', '681', '684', '685', '687', '688', '689', '691', '692', '693', '694', '697', '698', '700', '706', '709', '711', '712', '714', '715', '723', '724', '727', '732', '734', '735', '736', '744', '746', '747', '748', '749', '750', '753', '754', '757', '758', '761', '763', '764', '765', '766', '767', '771', '776', '777', '780', '782', '785', '786', '789', '791', '795', '796', '797', '798', '799', '806', '808', '810', '811', '813', '816', '817', '818', '819', '822', '824', '825', '826', '827', '830', '832', '833', '835', '836', '837', '838', '840', '843', '846', '850', '852', '853', '854', '855', '859', '861', '863', '864', '866', '867', '868', '870', '871', '873', '875', '878', '881', '888', '892', '893', '894', '896', '897', '899', '900', '901', '903', '906', '910', '916', '918', '920', '923', '925', '926', '928', '929', '930', '933', '934', '936', '937', '940', '942', '946', '947', '949', '950', '951', '952', '956', '958', '962', '964', '965', '969', '971', '973', '974', '977', '978', '980', '981', '984', '985', '987', '988', '1001', '1004', '1007', '1008', '1010', '1013', '1016', '1017', '1018', '1019', '1021', '1024', '1026', '1028', '1029', '1030', '1035', '1036', '1037', '1041', '1042', '1044', '1045', '1046', '1047', '1050', '1051', '1053', '1056', '1057', '1059', '1060', '1061', '1062', '1063', '1064', '1066', '1070', '1071', '1072', '1073', '1075', '1077', '1079', '1080', '1083', '1084', '1088', '1089', '1091', '1092', '1093', '1097', '1098', '1100', '1101', '1102', '1106', '1110', '1111', '1113', '1114', '1115', '1118', '1119', '1120', '1121', '1124', '1126', '1128', '1132', '1133', '1136', '1137', '1139', '1141', '1142', '1146', '1148', '1151', '1153', '1154', '1156', '1157', '1158', '1159', '1160', '1162', '1165', '1168', '1169', '1173', '1174', '1176', '1177', '1179', '1183', '1185', '1186', '1187', '1188', '1190', '1191', '1193', '1195', '1197', '1198', '1199', '1202', '1204', '1205', '1206', '1209', '1210', '1212', '1213', '1215', '1223', '1224', '1225', '1228', '1230', '1231', '1235', '1238', '1239', '1240', '1241', '1242', '1243', '1245', '1246', '1247', '1248', '1249', '1251', '1252', '1253', '1254', '1255', '1256', '1262', '1263', '1264', '1275', '1280', '1281', '1282', '1283', '1284', '1289', '1290', '1295', '1300', '1303', '1305', '1308', '1309', '1312', '1315', '1317', '1319', '1320', '1322', '1323', '1325', '1326', '1327', '1328', '1330', '1334', '1338', '1344', '1347', '1349', '1350', '1352', '1357', '1358', '1359', '1360', '1361', '1362', '1363', '1364', '1367', '1368', '1370', '1371', '1372', '1373', '1375', '1377', '1381', '1385', '1386', '1387', '1389', '1390', '1391', '1393', '1394', '1395', '1396', '1399', '1400', '1402', '1403', '1405', '1406', '1409', '1410', '1414', '1415', '1418', '1419', '1421', '1423', '1424', '1426', '1427', '1428', '1429', '1432', '1433', '1434', '1435', '1436', '1438', '1439', '1441', '1442', '1445', '1446', '1449', '1450', '1451', '1452', '1453', '1454', '1455', '1457', '1458', '1461', '1464', '1466', '1468', '1469', '1470', '1472', '1474', '1476', '1481', '1483', '1485', '1487', '1489', '1490', '1491', '1492', '1493', '1495', '1501', '1503', '1508', '1510', '1511', '1513', '1518', '1520', '1522', '1523', '1524', '1526', '1527', '1528', '1529', '1531', '1532', '1533', '1540', '1541', '1542', '1545', '1546', '1551', '1556', '1558', '1559', '1560', '1561', '1564', '1565', '1566', '1567', '1568', '1572', '1573', '1574', '1580', '1581', '1582', '1583', '1584', '1585', '1586', '1587', '1589', '1592', '1593', '1594', '1595', '1597', '1598', '1599', '1604', '1606', '1610', '1611', '1618', '1625', '1628', '1629', '1630', '1631', '1634', '1636', '1637', '1638', '1639', '1642', '1645', '1649', '1651', '1653', '1654', '1656', '1657', '1658', '1659', '1669', '1670', '1679', '1681', '1682', '1684', '1686', '1688', '1702', '1703', '1704', '1705', '1706', '1708', '1709', '1710', '1713', '1715', '1719', '1720', '1721', '1724', '1728', '1730', '1731', '1732', '1733', '1734', '1738', '1739', '1741', '1743', '1744', '1745', '1746', '1749', '1755', '1757', '1760', '1762', '1763', '1770', '1774', '1775', '1776', '1777', '1779', '1780', '1786', '1789', '1791', '1792', '1794', '1796', '1797', '1800', '1801', '1803', '1804', '1806', '1808', '1809', '1810', '1811', '1813', '1816', '1817', '1818', '1820', '1821', '1822', '1825', '1828', '1829', '1831', '1832', '1834', '1835', '1837', '1838', '1840', '1841', '1847', '1849', '1853', '1854', '1856', '1857', '1858', '1861', '1863', '1867', '1874', '1875', '1880', '1883', '1885', '1887', '1889', '1891', '1893', '1894', '1897', '1903', '1906', '1907', '1908', '1911', '1914', '1918', '1921', '1922', '1925', '1927', '1928', '1930', '1932', '1933', '1934', '1936', '1938', '1939', '1940', '1941', '1945', '1947', '1948', '1949', '1951', '1952', '1953', '1954', '1957', '1958', '1960', '1963', '1967', '1968', '1970', '1971', '1972', '1975', '1976', '1977', '1979', '1980', '1982', '1984', '1985', '1986', '1988', '1991', '1992', '1994', '1995', '1997', '1998', '2000']",True,4000,True,2,ba03c380f4,0.0,0.0,0.0
./expes/v2_2021-03-27_issda-30_2000-prng-1-w4-p2,30_issda-2000,2000,first-2000,1000,50,rng,num-start-400,400,25726,classic,4047.923214197159,False,,False,0,,,0,"['6', '8', '10', '11', '13', '14', '16', '17', '19', '23', '24', '25', '27', '28', '31', '32', '33', '35', '36', '37', '39', '40', '44', '46', '48', '49', '59', '60', '63', '64', '65', '70', '75', '77', '78', '80', '82', '83', '85', '87', '89', '91', '95', '98', '99', '100', '105', '108', '109', '110', '112', '113', '115', '116', '121', '122', '124', '125', '127', '128', '132', '133', '134', '135', '138', '139', '141', '145', '146', '149', '150', '151', '152', '156', '157', '158', '160', '161', '162', '166', '168', '171', '174', '176', '181', '183', '187', '189', '190', '193', '196', '198', '202', '204', '205', '206', '210', '213', '214', '220', '222', '223', '228', '231', '232', '237', '239', '240', '247', '248', '249', '252', '256', '258', '261', '263', '264', '267', '270', '271', '272', '273', '274', '279', '282', '283', '285', '288', '292', '293', '295', '296', '297', '298', '301', '302', '303', '306', '308', '309', '311', '312', '314', '315', '318', '319', '321', '322', '323', '324', '325', '328', '330', '331', '333', '335', '337', '338', '341', '344', '345', '347', '348', '349', '351', '353', '354', '355', '356', '357', '358', '359', '361', '366', '367', '368', '372', '376', '377', '378', '379', '383', '384', '385', '392', '393', '401', '402', '403', '405', '409', '410', '411', '418', '421', '423', '428', '429', '430', '433', '434', '435', '436', '438', '440', '441', '444', '446', '448', '449', '450', '451', '452', '453', '454', '455', '456', '458', '462', '463', '465', '467', '469', '470', '471', '474', '475', '476', '477', '478', '479', '481', '482', '483', '485', '486', '488', '489', '490', '491', '492', '493', '494', '497', '500', '505', '507', '511', '514', '515', '516', '518', '519', '521', '522', '523', '524', '525', '526', '529', '531', '533', '535', '536', '537', '540', '541', '545', '548', '553', '556', '557', '558', '560', '562', '566', '568', '569', '573', '575', '577', '581', '583', '587', '588', '589', '593', '594', '595', '605', '606', '607', '608', '609', '612', '613', '617', '618', '620', '623', '625', '626', '628', '635', '636', '638', '639', '642', '644', '645', '646', '647', '649', '650', '651', '652', '653', '655', '657', '659', '660', '661', '663', '666', '667', '669', '674', '676', '677', '678', '679', '680', '681', '682', '683', '684', '685', '686', '688', '689', '691', '692', '693', '694', '697', '702', '704', '705', '706', '712', '713', '714', '715', '719', '721', '722', '723', '724', '725', '726', '728', '729', '732', '735', '736', '738', '740', '742', '743', '744', '750', '752', '753', '754', '755', '756', '758', '760', '762', '763', '764', '765', '766', '768', '769', '770', '771', '775', '776', '778', '780', '781', '789', '793', '795', '796', '797', '799', '800', '801', '804', '807', '810', '814', '815', '818', '819', '822', '823', '825', '828', '829', '830', '831', '832', '834', '835', '836', '844', '847', '849', '852', '853', '855', '857', '860', '862', '864', '866', '867', '868', '870', '873', '874', '875', '878', '883', '886', '887', '888', '889', '890', '894', '895', '896', '898', '900', '901', '903', '905', '906', '907', '909', '910', '912', '913', '919', '920', '922', '923', '924', '926', '929', '931', '933', '938', '939', '941', '942', '943', '944', '945', '946', '947', '951', '955', '956', '957', '958', '959', '960', '963', '964', '970', '971', '972', '974', '976', '977', '980', '981', '983', '986', '987', '988', '989', '990', '992', '994', '995', '1003', '1005', '1006', '1008', '1009', '1011', '1012', '1014', '1015', '1017', '1019', '1020', '1021', '1022', '1024', '1025', '1027', '1029', '1033', '1035', '1036', '1037', '1038', '1039', '1040', '1041', '1046', '1047', '1048', '1050', '1052', '1056', '1057', '1058', '1059', '1060', '1061', '1062', '1064', '1065', '1066', '1067', '1068', '1071', '1075', '1077', '1082', '1085', '1086', '1089', '1092', '1094', '1097', '1098', '1100', '1103', '1104', '1110', '1114', '1115', '1118', '1119', '1121', '1122', '1124', '1127', '1130', '1134', '1135', '1137', '1141', '1144', '1147', '1149', '1157', '1158', '1160', '1161', '1162', '1164', '1167', '1168', '1169', '1170', '1171', '1172', '1176', '1178', '1180', '1183', '1184', '1186', '1187', '1188', '1190', '1191', '1193', '1196', '1197', '1199', '1202', '1203', '1204', '1209', '1216', '1220', '1221', '1222', '1225', '1227', '1230', '1236', '1237', '1238', '1239', '1240', '1242', '1245', '1246', '1250', '1251', '1253', '1254', '1257', '1258', '1260', '1261', '1263', '1265', '1267', '1270', '1271', '1273', '1275', '1277', '1280', '1283', '1285', '1286', '1287', '1288', '1293', '1295', '1296', '1300', '1302', '1303', '1306', '1307', '1311', '1314', '1316', '1317', '1318', '1319', '1322', '1323', '1324', '1325', '1326', '1328', '1329', '1330', '1336', '1341', '1342', '1343', '1344', '1345', '1346', '1348', '1349', '1350', '1352', '1357', '1358', '1362', '1363', '1370', '1371', '1375', '1376', '1379', '1386', '1387', '1388', '1390', '1391', '1392', '1393', '1394', '1396', '1398', '1399', '1402', '1404', '1410', '1411', '1412', '1414', '1415', '1417', '1419', '1420', '1422', '1423', '1425', '1426', '1427', '1428', '1435', '1436', '1438', '1445', '1447', '1450', '1451', '1452', '1454', '1455', '1456', '1457', '1459', '1461', '1465', '1472', '1473', '1475', '1476', '1477', '1478', '1482', '1483', '1486', '1488', '1489', '1493', '1496', '1499', '1505', '1506', '1508', '1511', '1512', '1513', '1515', '1516', '1518', '1519', '1520', '1522', '1524', '1526', '1527', '1528', '1534', '1535', '1537', '1538', '1539', '1541', '1542', '1543', '1544', '1546', '1547', '1549', '1551', '1552', '1554', '1557', '1558', '1561', '1568', '1572', '1573', '1574', '1576', '1581', '1582', '1583', '1585', '1586', '1589', '1590', '1591', '1592', '1593', '1595', '1600', '1601', '1602', '1604', '1605', '1606', '1608', '1613', '1614', '1615', '1616', '1623', '1625', '1627', '1629', '1631', '1632', '1633', '1634', '1636', '1637', '1639', '1640', '1641', '1645', '1646', '1647', '1648', '1649', '1650', '1651', '1653', '1655', '1656', '1658', '1659', '1660', '1662', '1663', '1664', '1667', '1671', '1672', '1681', '1683', '1684', '1686', '1690', '1693', '1694', '1695', '1701', '1702', '1705', '1706', '1707', '1708', '1709', '1711', '1713', '1716', '1717', '1718', '1721', '1722', '1724', '1726', '1728', '1729', '1731', '1732', '1735', '1736', '1737', '1738', '1741', '1743', '1744', '1745', '1747', '1748', '1749', '1751', '1752', '1753', '1756', '1757', '1763', '1768', '1769', '1773', '1776', '1777', '1780', '1781', '1782', '1783', '1784', '1785', '1786', '1787', '1788', '1791', '1792', '1793', '1797', '1800', '1801', '1802', '1804', '1806', '1809', '1812', '1813', '1815', '1816', '1817', '1818', '1823', '1824', '1827', '1829', '1830', '1831', '1833', '1835', '1836', '1841', '1842', '1847', '1848', '1849', '1850', '1851', '1854', '1857', '1858', '1859', '1862', '1863', '1867', '1870', '1874', '1875', '1877', '1880', '1884', '1886', '1888', '1889', '1890', '1891', '1893', '1894', '1895', '1896', '1899', '1900', '1901', '1906', '1908', '1911', '1913', '1914', '1915', '1916', '1917', '1918', '1922', '1926', '1927', '1928', '1930', '1931', '1932', '1935', '1936', '1938', '1940', '1942', '1945', '1946', '1947', '1948', '1949', '1950', '1951', '1952', '1953', '1954', '1955', '1958', '1959', '1960', '1964', '1965', '1967', '1971', '1973', '1977', '1979', '1980', '1981', '1982', '1983', '1984', '1985', '1987', '1992', '1998', '2000']",True,4000,True,2,2e563c1bc3,0.0,0.0,0.0
./expes/v2_2021-03-27_issda-30_2000-prng-1-w4-p2,30_issda-2000,2000,first-2000,1000,50,rng,num-start-2600,2600,25726,classic,2227.826793909073,True,,True,1.0,1.0,1.0,1,"['4', '5', '6', '8', '10', '11', '15', '16', '24', '27', '32', '37', '39', '40', '41', '42', '44', '46', '48', '49', '53', '55', '56', '57', '58', '59', '61', '62', '63', '64', '65', '67', '68', '70', '71', '72', '73', '74', '75', '76', '77', '81', '87', '88', '89', '91', '93', '94', '95', '99', '100', '102', '103', '104', '105', '107', '109', '110', '111', '113', '116', '117', '122', '123', '124', '125', '126', '130', '132', '135', '137', '140', '141', '142', '147', '148', '149', '157', '158', '159', '160', '164', '165', '166', '171', '176', '177', '180', '182', '184', '186', '187', '189', '190', '192', '194', '197', '199', '200', '204', '205', '209', '211', '212', '214', '215', '216', '219', '220', '221', '222', '223', '224', '226', '229', '230', '231', '233', '235', '236', '238', '242', '244', '245', '246', '248', '249', '251', '253', '254', '255', '256', '257', '260', '262', '264', '266', '267', '268', '270', '273', '275', '276', '278', '279', '280', '282', '284', '286', '290', '294', '295', '300', '301', '306', '307', '309', '311', '313', '316', '320', '322', '326', '327', '329', '330', '333', '335', '338', '345', '347', '348', '349', '350', '351', '352', '353', '355', '358', '362', '364', '366', '367', '369', '370', '372', '373', '376', '377', '378', '379', '380', '382', '383', '384', '388', '389', '391', '392', '393', '397', '400', '405', '407', '408', '409', '410', '411', '412', '414', '421', '422', '427', '428', '429', '431', '433', '434', '445', '446', '447', '448', '449', '451', '453', '455', '456', '459', '460', '461', '466', '470', '471', '475', '476', '479', '480', '481', '482', '484', '486', '487', '488', '489', '490', '491', '493', '495', '496', '501', '502', '507', '509', '512', '513', '514', '515', '518', '521', '523', '526', '529', '530', '532', '537', '540', '541', '542', '543', '544', '545', '547', '548', '550', '551', '552', '554', '555', '556', '561', '563', '564', '571', '572', '573', '581', '583', '584', '588', '589', '592', '595', '596', '598', '601', '602', '603', '606', '612', '614', '615', '616', '617', '621', '623', '624', '625', '630', '635', '638', '640', '641', '642', '643', '645', '646', '647', '648', '650', '651', '653', '656', '660', '662', '665', '667', '669', '672', '673', '674', '678', '679', '681', '682', '684', '685', '686', '690', '691', '694', '695', '696', '697', '699', '700', '704', '705', '707', '708', '710', '718', '719', '720', '721', '722', '723', '726', '731', '736', '738', '739', '741', '744', '746', '749', '752', '753', '755', '757', '758', '760', '763', '765', '767', '769', '770', '771', '772', '773', '774', '778', '779', '783', '784', '785', '786', '791', '793', '794', '797', '798', '799', '801', '802', '803', '807', '808', '809', '813', '814', '816', '818', '820', '822', '823', '825', '826', '827', '835', '836', '837', '839', '841', '846', '847', '848', '850', '851', '854', '857', '860', '861', '862', '863', '865', '867', '871', '873', '875', '878', '881', '884', '886', '890', '892', '894', '896', '898', '907', '908', '910', '911', '912', '917', '918', '922', '923', '924', '927', '931', '933', '935', '936', '938', '943', '944', '951', '952', '954', '955', '956', '957', '958', '959', '961', '964', '969', '970', '971', '972', '976', '977', '978', '981', '982', '983', '985', '986', '987', '988', '989', '991', '992', '994', '996', '998', '999', '1001', '1002', '1003', '1004', '1005', '1008', '1011', '1012', '1014', '1017', '1019', '1020', '1022', '1025', '1029', '1031', '1032', '1034', '1036', '1037', '1039', '1040', '1042', '1044', '1045', '1048', '1050', '1055', '1056', '1060', '1062', '1063', '1065', '1066', '1068', '1072', '1073', '1076', '1077', '1080', '1081', '1084', '1085', '1086', '1090', '1094', '1095', '1097', '1098', '1099', '1100', '1101', '1102', '1104', '1108', '1109', '1110', '1113', '1114', '1115', '1116', '1121', '1124', '1126', '1127', '1129', '1132', '1134', '1135', '1136', '1137', '1138', '1140', '1141', '1145', '1146', '1147', '1150', '1152', '1155', '1156', '1160', '1161', '1162', '1164', '1165', '1166', '1168', '1170', '1172', '1175', '1176', '1178', '1180', '1182', '1186', '1188', '1189', '1190', '1195', '1197', '1198', '1199', '1200', '1201', '1202', '1204', '1206', '1207', '1208', '1209', '1211', '1213', '1214', '1218', '1219', '1220', '1222', '1224', '1227', '1228', '1229', '1231', '1232', '1237', '1238', '1240', '1241', '1243', '1245', '1247', '1251', '1254', '1259', '1262', '1265', '1266', '1267', '1269', '1271', '1274', '1275', '1276', '1277', '1281', '1282', '1284', '1285', '1286', '1287', '1288', '1289', '1293', '1294', '1295', '1297', '1298', '1299', '1300', '1301', '1304', '1309', '1315', '1316', '1317', '1319', '1320', '1321', '1323', '1325', '1327', '1328', '1330', '1331', '1332', '1337', '1339', '1340', '1341', '1343', '1347', '1349', '1351', '1353', '1356', '1357', '1358', '1363', '1366', '1368', '1373', '1375', '1376', '1377', '1378', '1380', '1381', '1383', '1384', '1385', '1388', '1389', '1390', '1392', '1393', '1395', '1396', '1397', '1398', '1401', '1405', '1407', '1410', '1413', '1415', '1416', '1417', '1421', '1422', '1423', '1424', '1425', '1427', '1428', '1429', '1430', '1431', '1432', '1433', '1434', '1436', '1437', '1440', '1441', '1444', '1445', '1446', '1448', '1456', '1460', '1462', '1463', '1465', '1466', '1467', '1468', '1469', '1470', '1471', '1472', '1473', '1474', '1476', '1477', '1481', '1489', '1490', '1491', '1492', '1493', '1496', '1499', '1501', '1503', '1504', '1506', '1512', '1515', '1516', '1519', '1520', '1521', '1523', '1527', '1531', '1532', '1533', '1534', '1540', '1541', '1542', '1543', '1544', '1545', '1546', '1549', '1550', '1551', '1552', '1553', '1554', '1557', '1560', '1572', '1575', '1578', '1581', '1582', '1586', '1588', '1589', '1591', '1592', '1595', '1596', '1597', '1598', '1601', '1602', '1603', '1604', '1612', '1613', '1614', '1615', '1617', '1620', '1622', '1623', '1626', '1629', '1635', '1636', '1637', '1640', '1641', '1642', '1645', '1646', '1647', '1651', '1652', '1653', '1654', '1658', '1659', '1660', '1662', '1663', '1665', '1666', '1669', '1671', '1673', '1674', '1679', '1682', '1683', '1684', '1686', '1687', '1696', '1704', '1706', '1707', '1708', '1710', '1712', '1713', '1714', '1716', '1718', '1719', '1724', '1726', '1728', '1729', '1732', '1735', '1739', '1741', '1743', '1744', '1745', '1746', '1749', '1750', '1752', '1753', '1754', '1755', '1756', '1758', '1759', '1761', '1762', '1763', '1764', '1765', '1767', '1769', '1770', '1771', '1772', '1773', '1776', '1778', '1779', '1780', '1781', '1782', '1783', '1787', '1788', '1793', '1800', '1802', '1803', '1804', '1805', '1807', '1809', '1810', '1813', '1816', '1817', '1818', '1822', '1823', '1824', '1825', '1826', '1827', '1835', '1837', '1838', '1839', '1842', '1843', '1844', '1847', '1851', '1852', '1853', '1856', '1862', '1864', '1866', '1870', '1872', '1875', '1876', '1878', '1879', '1885', '1886', '1887', '1888', '1889', '1892', '1893', '1897', '1899', '1900', '1902', '1903', '1904', '1905', '1909', '1911', '1913', '1914', '1915', '1916', '1917', '1918', '1921', '1923', '1924', '1926', '1927', '1928', '1930', '1931', '1932', '1934', '1935', '1936', '1939', '1941', '1944', '1945', '1946', '1947', '1948', '1951', '1953', '1956', '1957', '1958', '1961', '1962', '1964', '1965', '1967', '1968', '1969', '1970', '1973', '1975', '1976', '1978', '1980', '1981', '1985', '1986', '1987', '1989', '1990', '1991', '1993', '1995', '1997']",False,4000,True,2,efc13e24f5,0.0,1.0,1.0
./expes/v2_2021-03-27_issda-30_2000-prng-1-w4-p2,30_issda-2000,2000,first-2000,900,45,rng,num-start-3200,3200,25726,classic,2769.2252099514008,True,,True,1.0,1.0,1.0,1,"['2', '3', '4', '5', '7', '8', '9', '11', '12', '14', '17', '20', '24', '27', '28', '30', '32', '33', '35', '36', '37', '40', '42', '45', '46', '54', '56', '57', '58', '60', '62', '63', '66', '69', '71', '73', '74', '76', '79', '80', '84', '86', '88', '89', '90', '92', '94', '95', '96', '97', '101', '105', '107', '108', '110', '111', '112', '114', '116', '117', '123', '125', '126', '133', '135', '137', '138', '139', '140', '141', '142', '145', '146', '151', '153', '155', '159', '160', '163', '164', '165', '166', '167', '169', '174', '177', '178', '181', '183', '184', '187', '188', '190', '191', '193', '194', '199', '205', '206', '208', '211', '212', '214', '219', '220', '225', '229', '230', '232', '233', '237', '239', '241', '243', '245', '249', '251', '253', '256', '257', '258', '259', '260', '262', '263', '264', '265', '267', '268', '269', '271', '273', '274', '277', '281', '284', '286', '287', '288', '291', '293', '294', '299', '300', '301', '302', '303', '304', '305', '306', '307', '309', '310', '315', '316', '317', '318', '319', '321', '322', '326', '328', '329', '330', '337', '342', '343', '346', '347', '348', '357', '360', '361', '362', '363', '364', '365', '366', '367', '368', '374', '380', '381', '384', '386', '390', '391', '392', '394', '396', '397', '398', '399', '400', '405', '414', '415', '416', '417', '418', '420', '421', '422', '425', '426', '427', '429', '431', '434', '435', '438', '439', '441', '442', '446', '448', '450', '452', '455', '457', '461', '462', '463', '464', '465', '473', '474', '478', '480', '482', '483', '487', '488', '489', '491', '493', '494', '497', '500', '501', '502', '504', '507', '509', '510', '513', '515', '519', '520', '522', '526', '527', '528', '530', '531', '535', '536', '537', '538', '539', '541', '549', '551', '556', '559', '565', '566', '568', '574', '575', '577', '580', '581', '585', '588', '589', '593', '595', '596', '599', '601', '604', '605', '606', '608', '610', '611', '614', '615', '617', '618', '619', '622', '625', '626', '627', '628', '630', '631', '632', '633', '637', '642', '643', '648', '650', '655', '661', '665', '671', '673', '677', '680', '682', '684', '686', '693', '696', '697', '699', '700', '703', '707', '709', '712', '713', '715', '717', '719', '722', '729', '730', '731', '736', '740', '742', '745', '746', '748', '751', '755', '756', '760', '761', '762', '764', '768', '769', '770', '771', '772', '778', '781', '782', '787', '792', '794', '795', '796', '798', '799', '801', '806', '807', '811', '813', '815', '816', '819', '820', '822', '824', '826', '831', '833', '836', '839', '841', '847', '848', '849', '853', '855', '856', '861', '864', '866', '867', '869', '870', '871', '872', '874', '875', '876', '877', '878', '879', '880', '881', '882', '884', '886', '890', '891', '894', '895', '896', '901', '902', '903', '905', '906', '907', '909', '911', '912', '915', '917', '918', '919', '921', '922', '924', '925', '927', '929', '937', '940', '941', '944', '945', '947', '949', '950', '951', '954', '956', '958', '963', '966', '968', '970', '972', '975', '976', '979', '980', '981', '984', '985', '987', '988', '992', '996', '997', '998', '1002', '1003', '1004', '1006', '1008', '1009', '1010', '1012', '1016', '1017', '1018', '1020', '1022', '1023', '1026', '1027', '1032', '1033', '1034', '1042', '1045', '1048', '1050', '1052', '1059', '1063', '1065', '1066', '1067', '1068', '1070', '1071', '1072', '1074', '1075', '1078', '1079', '1080', '1082', '1087', '1088', '1089', '1090', '1091', '1092', '1093', '1094', '1096', '1098', '1099', '1100', '1102', '1113', '1117', '1118', '1120', '1121', '1126', '1127', '1130', '1133', '1135', '1136', '1137', '1138', '1140', '1143', '1144', '1147', '1148', '1150', '1154', '1156', '1158', '1159', '1163', '1167', '1168', '1170', '1171', '1172', '1174', '1175', '1176', '1179', '1183', '1184', '1185', '1186', '1187', '1188', '1189', '1190', '1195', '1199', '1202', '1205', '1207', '1210', '1211', '1213', '1217', '1218', '1219', '1220', '1222', '1224', '1227', '1228', '1229', '1230', '1233', '1236', '1237', '1241', '1246', '1247', '1250', '1252', '1254', '1257', '1262', '1265', '1267', '1268', '1269', '1271', '1272', '1275', '1280', '1285', '1287', '1288', '1289', '1291', '1292', '1295', '1298', '1304', '1308', '1309', '1310', '1313', '1314', '1315', '1318', '1322', '1330', '1332', '1334', '1336', '1338', '1339', '1342', '1344', '1346', '1351', '1357', '1361', '1365', '1366', '1367', '1370', '1372', '1374', '1375', '1377', '1381', '1387', '1388', '1395', '1396', '1400', '1401', '1402', '1404', '1408', '1413', '1416', '1418', '1424', '1425', '1427', '1428', '1429', '1430', '1432', '1435', '1436', '1437', '1438', '1439', '1442', '1443', '1445', '1447', '1452', '1454', '1456', '1457', '1460', '1461', '1463', '1464', '1465', '1466', '1467', '1468', '1469', '1472', '1473', '1474', '1475', '1476', '1477', '1479', '1480', '1481', '1482', '1483', '1485', '1488', '1489', '1491', '1493', '1497', '1500', '1502', '1504', '1506', '1508', '1510', '1513', '1515', '1516', '1517', '1520', '1523', '1525', '1526', '1527', '1529', '1530', '1533', '1536', '1537', '1538', '1539', '1540', '1542', '1545', '1547', '1553', '1557', '1561', '1564', '1565', '1566', '1567', '1569', '1570', '1572', '1576', '1577', '1578', '1579', '1580', '1583', '1585', '1587', '1588', '1589', '1592', '1594', '1595', '1596', '1599', '1601', '1602', '1604', '1607', '1608', '1611', '1613', '1618', '1622', '1626', '1627', '1633', '1634', '1635', '1636', '1638', '1641', '1642', '1643', '1645', '1646', '1648', '1649', '1651', '1653', '1656', '1657', '1659', '1664', '1668', '1669', '1671', '1674', '1675', '1677', '1679', '1680', '1682', '1683', '1687', '1688', '1689', '1691', '1693', '1696', '1698', '1703', '1707', '1709', '1710', '1713', '1716', '1717', '1719', '1720', '1721', '1723', '1732', '1733', '1738', '1739', '1740', '1741', '1745', '1746', '1748', '1749', '1753', '1757', '1760', '1765', '1766', '1769', '1773', '1775', '1777', '1778', '1779', '1781', '1783', '1785', '1790', '1792', '1795', '1797', '1800', '1801', '1808', '1810', '1813', '1815', '1816', '1817', '1818', '1820', '1822', '1823', '1825', '1827', '1829', '1832', '1833', '1834', '1839', '1840', '1842', '1845', '1847', '1848', '1851', '1855', '1857', '1858', '1861', '1863', '1865', '1866', '1867', '1868', '1869', '1870', '1873', '1874', '1876', '1881', '1885', '1886', '1887', '1897', '1901', '1909', '1911', '1912', '1916', '1917', '1920', '1921', '1922', '1931', '1932', '1945', '1946', '1947', '1949', '1951', '1954', '1958', '1960', '1962', '1963', '1964', '1965', '1969', '1970', '1972', '1974', '1977', '1982', '1983', '1985', '1987', '1989', '1990', '1991', '1993', '1996']",False,4000,True,2,684c2a4ff6,0.0,1.0,1.0
./expes/v2_2021-03-27_issda-30_2000-prng-1-w4-p2,30_issda-2000,2000,first-2000,900,45,rng,num-start-3600,3600,25726,classic,3079.0960524082184,True,,True,1.0,1.0,1.0,1,"['2', '4', '5', '8', '9', '12', '16', '18', '19', '21', '22', '23', '26', '28', '30', '35', '36', '37', '38', '39', '41', '42', '43', '44', '45', '46', '49', '50', '53', '56', '58', '59', '60', '61', '63', '64', '66', '67', '71', '73', '77', '78', '81', '82', '83', '84', '85', '90', '93', '94', '98', '99', '100', '107', '115', '121', '128', '129', '130', '132', '134', '138', '139', '141', '143', '145', '146', '147', '149', '150', '151', '154', '157', '158', '167', '168', '171', '172', '174', '175', '178', '183', '184', '186', '188', '189', '191', '193', '198', '202', '203', '205', '206', '207', '210', '211', '214', '219', '221', '222', '223', '225', '229', '232', '234', '235', '236', '237', '242', '245', '248', '250', '253', '254', '257', '258', '259', '265', '268', '273', '276', '277', '278', '280', '284', '285', '290', '291', '300', '302', '304', '307', '312', '316', '320', '322', '324', '325', '326', '327', '329', '332', '336', '337', '338', '339', '342', '343', '345', '346', '348', '349', '352', '353', '355', '362', '363', '364', '365', '368', '371', '376', '379', '381', '383', '385', '386', '389', '398', '405', '408', '409', '410', '411', '412', '418', '420', '421', '422', '424', '426', '428', '429', '430', '435', '437', '441', '444', '446', '449', '450', '451', '452', '455', '458', '459', '461', '462', '463', '465', '466', '469', '471', '473', '476', '478', '479', '481', '482', '486', '489', '491', '494', '495', '497', '498', '500', '502', '504', '505', '507', '508', '509', '512', '513', '514', '517', '518', '519', '520', '523', '529', '530', '531', '532', '534', '542', '546', '547', '548', '549', '551', '552', '554', '555', '559', '560', '564', '565', '568', '569', '576', '577', '582', '584', '594', '595', '596', '597', '602', '603', '604', '606', '607', '608', '611', '612', '613', '614', '621', '622', '624', '625', '626', '628', '629', '630', '632', '636', '638', '639', '641', '642', '645', '648', '649', '650', '651', '655', '656', '657', '658', '660', '663', '667', '671', '672', '679', '681', '682', '684', '685', '689', '691', '694', '695', '696', '697', '699', '704', '705', '706', '708', '709', '711', '713', '716', '718', '724', '727', '728', '729', '731', '732', '736', '737', '739', '747', '748', '752', '754', '755', '756', '759', '762', '766', '768', '773', '774', '775', '776', '777', '778', '779', '781', '784', '785', '786', '787', '792', '798', '799', '800', '802', '806', '807', '809', '811', '814', '815', '817', '818', '822', '823', '824', '828', '829', '830', '833', '834', '837', '838', '843', '845', '847', '849', '853', '854', '861', '863', '865', '866', '873', '874', '880', '881', '884', '885', '887', '892', '896', '897', '898', '899', '900', '906', '907', '912', '913', '915', '918', '921', '922', '924', '928', '929', '932', '934', '938', '939', '941', '942', '944', '946', '947', '952', '957', '959', '961', '962', '968', '971', '977', '981', '984', '986', '993', '994', '995', '996', '1000', '1002', '1003', '1006', '1009', '1010', '1011', '1014', '1015', '1016', '1017', '1023', '1024', '1025', '1026', '1027', '1029', '1031', '1033', '1034', '1035', '1037', '1039', '1040', '1042', '1043', '1045', '1046', '1047', '1048', '1050', '1053', '1054', '1055', '1058', '1059', '1063', '1067', '1072', '1073', '1074', '1078', '1081', '1082', '1083', '1088', '1091', '1094', '1095', '1101', '1102', '1103', '1105', '1106', '1107', '1109', '1110', '1111', '1112', '1115', '1116', '1117', '1118', '1122', '1123', '1124', '1125', '1127', '1128', '1129', '1132', '1133', '1136', '1140', '1141', '1143', '1146', '1148', '1149', '1150', '1154', '1156', '1157', '1160', '1166', '1167', '1168', '1169', '1170', '1171', '1173', '1175', '1177', '1180', '1184', '1185', '1186', '1187', '1188', '1197', '1200', '1202', '1204', '1207', '1210', '1211', '1212', '1215', '1216', '1218', '1221', '1222', '1226', '1229', '1230', '1231', '1232', '1233', '1237', '1240', '1241', '1242', '1245', '1248', '1252', '1253', '1254', '1255', '1257', '1260', '1264', '1266', '1270', '1274', '1275', '1276', '1277', '1280', '1286', '1288', '1289', '1290', '1292', '1293', '1298', '1302', '1303', '1305', '1309', '1312', '1316', '1318', '1322', '1324', '1326', '1327', '1328', '1329', '1330', '1331', '1335', '1336', '1339', '1345', '1346', '1350', '1351', '1352', '1353', '1356', '1360', '1362', '1363', '1364', '1368', '1370', '1373', '1374', '1377', '1379', '1381', '1382', '1383', '1387', '1388', '1389', '1390', '1395', '1396', '1397', '1400', '1403', '1406', '1407', '1408', '1410', '1411', '1413', '1415', '1417', '1419', '1424', '1426', '1432', '1433', '1435', '1437', '1439', '1440', '1441', '1442', '1444', '1451', '1453', '1455', '1457', '1458', '1459', '1460', '1464', '1465', '1469', '1471', '1473', '1474', '1478', '1480', '1483', '1484', '1486', '1487', '1488', '1492', '1494', '1495', '1496', '1498', '1501', '1503', '1509', '1510', '1511', '1512', '1513', '1517', '1522', '1524', '1526', '1528', '1529', '1531', '1534', '1536', '1538', '1543', '1545', '1548', '1552', '1554', '1555', '1559', '1562', '1564', '1565', '1569', '1572', '1573', '1576', '1578', '1579', '1589', '1590', '1593', '1594', '1595', '1596', '1597', '1598', '1602', '1603', '1604', '1605', '1608', '1609', '1611', '1612', '1615', '1616', '1618', '1621', '1623', '1624', '1625', '1629', '1631', '1633', '1634', '1635', '1636', '1643', '1644', '1646', '1647', '1648', '1650', '1652', '1654', '1655', '1656', '1657', '1658', '1661', '1662', '1666', '1670', '1673', '1674', '1676', '1679', '1680', '1681', '1682', '1683', '1692', '1696', '1697', '1698', '1699', '1700', '1702', '1705', '1706', '1710', '1711', '1712', '1713', '1716', '1721', '1722', '1723', '1724', '1725', '1731', '1732', '1734', '1735', '1736', '1738', '1739', '1742', '1743', '1744', '1748', '1752', '1753', '1754', '1756', '1757', '1759', '1760', '1762', '1764', '1766', '1767', '1773', '1774', '1777', '1778', '1782', '1786', '1790', '1794', '1797', '1800', '1801', '1805', '1806', '1808', '1809', '1813', '1815', '1818', '1825', '1826', '1829', '1830', '1831', '1835', '1837', '1839', '1843', '1845', '1847', '1850', '1851', '1852', '1858', '1862', '1863', '1864', '1865', '1866', '1870', '1871', '1873', '1877', '1879', '1880', '1883', '1885', '1886', '1887', '1888', '1889', '1891', '1893', '1895', '1896', '1897', '1898', '1905', '1907', '1910', '1911', '1918', '1920', '1921', '1922', '1924', '1926', '1927', '1928', '1929', '1933', '1934', '1936', '1938', '1945', '1946', '1950', '1951', '1955', '1956', '1959', '1961', '1965', '1966', '1967', '1971', '1974', '1976', '1977', '1978', '1980', '1981', '1982', '1983', '1985', '1987', '1988', '1990', '1992', '1993', '1994', '1995', '1996', '1997', '1998', '1999', '2000']",False,4000,True,2,a91a0b80c8,0.0,1.0,1.0
./expes/v2_2021-03-27_issda-30_2000-prng-1-w4-p2,30_issda-2000,2000,first-2000,1000,50,rng,num-start-600,600,25726,classic,4076.5241737365723,False,,False,0,,,0,"['2', '4', '5', '8', '9', '11', '12', '16', '18', '19', '21', '22', '23', '26', '28', '30', '32', '35', '36', '37', '38', '39', '41', '42', '43', '44', '45', '46', '48', '49', '50', '53', '56', '58', '59', '60', '61', '63', '64', '66', '67', '71', '72', '73', '77', '78', '81', '82', '83', '84', '85', '90', '93', '94', '95', '98', '99', '100', '102', '107', '114', '115', '117', '121', '128', '129', '130', '132', '134', '138', '139', '140', '141', '143', '145', '146', '147', '149', '150', '151', '154', '157', '158', '162', '167', '168', '171', '172', '174', '175', '178', '183', '184', '186', '188', '189', '191', '193', '196', '198', '202', '203', '205', '206', '207', '210', '211', '214', '218', '219', '221', '222', '223', '225', '228', '229', '232', '234', '235', '236', '237', '238', '242', '245', '248', '250', '253', '254', '257', '258', '259', '265', '268', '273', '276', '277', '278', '280', '283', '284', '285', '290', '291', '298', '300', '302', '304', '307', '312', '316', '320', '322', '324', '325', '326', '327', '328', '329', '332', '333', '336', '337', '338', '339', '340', '342', '343', '345', '346', '348', '349', '352', '353', '354', '355', '362', '363', '364', '365', '368', '371', '376', '379', '381', '383', '385', '386', '389', '398', '402', '405', '408', '409', '410', '411', '412', '418', '420', '421', '422', '423', '424', '426', '428', '429', '430', '434', '435', '437', '438', '441', '444', '446', '449', '450', '451', '452', '455', '456', '458', '459', '461', '462', '463', '465', '466', '467', '469', '471', '473', '475', '476', '478', '479', '481', '482', '483', '486', '489', '491', '493', '494', '495', '497', '498', '500', '501', '502', '504', '505', '507', '508', '509', '512', '513', '514', '517', '518', '519', '520', '523', '529', '530', '531', '532', '534', '537', '542', '546', '547', '548', '549', '551', '552', '553', '554', '555', '559', '560', '563', '564', '565', '568', '569', '576', '577', '581', '582', '584', '589', '594', '595', '596', '597', '602', '603', '604', '606', '607', '608', '609', '611', '612', '613', '614', '621', '622', '624', '625', '626', '628', '629', '630', '632', '635', '636', '638', '639', '641', '642', '645', '648', '649', '650', '651', '655', '656', '657', '658', '659', '660', '663', '667', '671', '672', '676', '677', '679', '681', '682', '684', '685', '689', '691', '694', '695', '696', '697', '699', '702', '704', '705', '706', '708', '709', '711', '713', '716', '718', '724', '727', '728', '729', '731', '732', '736', '737', '739', '740', '747', '748', '752', '754', '755', '756', '759', '762', '766', '768', '773', '774', '775', '776', '777', '778', '779', '781', '784', '785', '786', '787', '792', '794', '798', '799', '800', '802', '804', '806', '807', '809', '811', '814', '815', '817', '818', '819', '820', '821', '822', '823', '824', '825', '828', '829', '830', '833', '834', '837', '838', '843', '845', '847', '849', '853', '854', '861', '863', '865', '866', '873', '874', '880', '881', '884', '885', '887', '892', '896', '897', '898', '899', '900', '903', '906', '907', '909', '912', '913', '915', '918', '921', '922', '924', '926', '928', '929', '932', '934', '938', '939', '941', '942', '944', '946', '947', '948', '952', '957', '959', '961', '962', '968', '971', '977', '981', '984', '986', '991', '993', '994', '995', '996', '1000', '1002', '1003', '1006', '1009', '1010', '1011', '1013', '1014', '1015', '1016', '1017', '1023', '1024', '1025', '1026', '1027', '1029', '1031', '1033', '1034', '1035', '1037', '1039', '1040', '1042', '1043', '1045', '1046', '1047', '1048', '1050', '1053', '1054', '1055', '1058', '1059', '1063', '1067', '1072', '1073', '1074', '1078', '1079', '1081', '1082', '1083', '1088', '1091', '1094', '1095', '1101', '1102', '1103', '1105', '1106', '1107', '1109', '1110', '1111', '1112', '1115', '1116', '1117', '1118', '1121', '1122', '1123', '1124', '1125', '1127', '1128', '1129', '1132', '1133', '1136', '1140', '1141', '1143', '1146', '1148', '1149', '1150', '1154', '1156', '1157', '1160', '1166', '1167', '1168', '1169', '1170', '1171', '1173', '1175', '1177', '1180', '1184', '1185', '1186', '1187', '1188', '1189', '1191', '1197', '1200', '1202', '1204', '1207', '1210', '1211', '1212', '1215', '1216', '1218', '1221', '1222', '1224', '1226', '1229', '1230', '1231', '1232', '1233', '1237', '1240', '1241', '1242', '1245', '1248', '1249', '1250', '1251', '1252', '1253', '1254', '1255', '1256', '1257', '1260', '1264', '1266', '1270', '1274', '1275', '1276', '1277', '1280', '1282', '1286', '1288', '1289', '1290', '1292', '1293', '1298', '1302', '1303', '1305', '1309', '1312', '1316', '1318', '1322', '1324', '1326', '1327', '1328', '1329', '1330', '1331', '1335', '1336', '1338', '1339', '1345', '1346', '1350', '1351', '1352', '1353', '1354', '1356', '1358', '1360', '1362', '1363', '1364', '1368', '1370', '1373', '1374', '1377', '1379', '1381', '1382', '1383', '1387', '1388', '1389', '1390', '1395', '1396', '1397', '1400', '1403', '1406', '1407', '1408', '1410', '1411', '1413', '1415', '1417', '1419', '1424', '1426', '1432', '1433', '1435', '1437', '1439', '1440', '1441', '1442', '1444', '1448', '1451', '1453', '1455', '1457', '1458', '1459', '1460', '1462', '1464', '1465', '1466', '1467', '1469', '1471', '1472', '1473', '1474', '1478', '1480', '1483', '1484', '1486', '1487', '1488', '1492', '1494', '1495', '1496', '1498', '1500', '1501', '1503', '1506', '1509', '1510', '1511', '1512', '1513', '1516', '1517', '1522', '1524', '1526', '1528', '1529', '1531', '1534', '1536', '1538', '1539', '1541', '1543', '1545', '1548', '1552', '1554', '1555', '1559', '1560', '1562', '1564', '1565', '1569', '1572', '1573', '1576', '1578', '1579', '1589', '1590', '1593', '1594', '1595', '1596', '1597', '1598', '1602', '1603', '1604', '1605', '1608', '1609', '1611', '1612', '1615', '1616', '1618', '1621', '1623', '1624', '1625', '1626', '1629', '1631', '1633', '1634', '1635', '1636', '1643', '1644', '1646', '1647', '1648', '1650', '1652', '1654', '1655', '1656', '1657', '1658', '1661', '1662', '1666', '1669', '1670', '1673', '1674', '1676', '1679', '1680', '1681', '1682', '1683', '1689', '1692', '1696', '1697', '1698', '1699', '1700', '1702', '1705', '1706', '1710', '1711', '1712', '1713', '1716', '1721', '1722', '1723', '1724', '1725', '1729', '1731', '1732', '1734', '1735', '1736', '1737', '1738', '1739', '1742', '1743', '1744', '1745', '1748', '1752', '1753', '1754', '1756', '1757', '1759', '1760', '1762', '1764', '1766', '1767', '1773', '1774', '1776', '1777', '1778', '1779', '1782', '1784', '1786', '1790', '1794', '1795', '1797', '1800', '1801', '1803', '1805', '1806', '1808', '1809', '1813', '1815', '1817', '1818', '1821', '1825', '1826', '1829', '1830', '1831', '1835', '1837', '1839', '1842', '1843', '1845', '1847', '1850', '1851', '1852', '1858', '1862', '1863', '1864', '1865', '1866', '1870', '1871', '1872', '1873', '1877', '1879', '1880', '1882', '1883', '1885', '1886', '1887', '1888', '1889', '1891', '1893', '1895', '1896', '1897', '1898', '1901', '1902', '1905', '1907', '1910', '1911', '1912', '1918', '1920', '1921', '1922', '1924', '1926', '1927', '1928', '1929', '1933', '1934', '1936', '1937', '1938', '1945', '1946', '1950', '1951', '1955', '1956', '1957', '1959', '1961', '1965', '1966', '1967', '1971', '1974', '1975', '1976', '1977', '1978', '1980', '1981', '1982', '1983', '1985', '1987', '1988', '1990', '1992', '1993', '1994', '1995', '1996', '1997', '1998', '1999', '2000']",True,4000,True,2,8ac938d637,0.0,0.0,0.0
./expes/v2_2021-03-27_issda-30_2000-prng-1-w4-p2,30_issda-2000,2000,first-2000,100,5,rng,num-start-600,600,25726,classic,874.0446949005127,True,,True,1.0,1.0,1.0,1,"['27', '32', '59', '64', '74', '88', '132', '135', '200', '268', '275', '279', '309', '311', '327', '393', '445', '475', '476', '480', '488', '529', '532', '552', '617', '690', '719', '749', '758', '791', '794', '799', '809', '814', '835', '863', '875', '894', '911', '961', '964', '969', '971', '976', '1014', '1039', '1072', '1094', '1108', '1115', '1126', '1129', '1176', '1182', '1190', '1197', '1199', '1211', '1214', '1219', '1237', '1241', '1282', '1284', '1301', '1309', '1376', '1377', '1397', '1463', '1469', '1473', '1492', '1519', '1553', '1592', '1596', '1598', '1615', '1641', '1687', '1707', '1714', '1716', '1752', '1764', '1773', '1778', '1800', '1852', '1862', '1876', '1885', '1887', '1897', '1903', '1917', '1961', '1975', '1978']",False,4000,True,2,c8fbb5bae2,0.0,1.0,1.0
./expes/v2_2021-03-27_issda-30_2000-prng-1-w4-p2,30_issda-2000,2000,first-2000,700,35,rng,num-start-3000,3000,25726,classic,4365.45995926857,True,,False,1.0,1.0,1.0,1,"['1', '3', '4', '5', '7', '17', '19', '20', '26', '28', '29', '30', '31', '32', '34', '39', '42', '45', '47', '55', '57', '65', '67', '68', '69', '73', '74', '75', '78', '79', '80', '81', '83', '84', '85', '87', '93', '94', '96', '97', '99', '103', '114', '119', '124', '126', '128', '129', '131', '135', '136', '142', '144', '146', '148', '152', '157', '162', '165', '166', '167', '168', '169', '171', '172', '174', '179', '184', '186', '187', '188', '192', '195', '201', '203', '204', '206', '207', '208', '215', '216', '223', '224', '228', '236', '237', '238', '240', '241', '244', '246', '249', '254', '255', '256', '261', '266', '267', '268', '272', '274', '277', '284', '286', '287', '289', '292', '300', '301', '304', '305', '307', '310', '311', '315', '317', '319', '320', '323', '325', '328', '330', '332', '336', '340', '342', '347', '350', '359', '366', '368', '370', '373', '374', '377', '379', '383', '386', '387', '388', '390', '391', '392', '394', '399', '400', '406', '407', '409', '414', '417', '419', '422', '423', '425', '426', '432', '438', '441', '443', '445', '448', '449', '451', '452', '453', '455', '457', '461', '479', '483', '489', '490', '491', '492', '496', '498', '500', '514', '522', '526', '527', '531', '532', '533', '534', '535', '537', '553', '556', '563', '564', '565', '571', '574', '576', '578', '588', '590', '593', '594', '595', '597', '601', '602', '603', '607', '613', '616', '617', '618', '619', '620', '621', '622', '631', '636', '638', '640', '645', '648', '650', '652', '656', '660', '661', '664', '665', '667', '668', '673', '677', '678', '682', '683', '685', '687', '688', '691', '692', '693', '697', '702', '704', '710', '711', '718', '722', '723', '725', '732', '734', '735', '736', '740', '741', '752', '753', '755', '759', '761', '762', '763', '770', '775', '776', '777', '783', '786', '787', '789', '792', '794', '795', '796', '802', '803', '807', '809', '813', '816', '817', '823', '824', '826', '830', '832', '836', '840', '843', '849', '850', '851', '856', '857', '859', '862', '867', '872', '873', '874', '884', '890', '892', '894', '906', '907', '912', '913', '915', '918', '919', '923', '925', '928', '938', '939', '940', '944', '955', '957', '964', '965', '966', '967', '971', '975', '976', '977', '980', '982', '986', '987', '988', '996', '997', '998', '1000', '1001', '1003', '1005', '1008', '1009', '1011', '1013', '1015', '1019', '1020', '1021', '1022', '1029', '1032', '1034', '1035', '1039', '1041', '1042', '1048', '1058', '1061', '1063', '1067', '1068', '1069', '1072', '1075', '1076', '1077', '1081', '1083', '1085', '1086', '1091', '1095', '1097', '1102', '1107', '1108', '1112', '1113', '1115', '1120', '1121', '1122', '1124', '1125', '1129', '1132', '1140', '1144', '1147', '1149', '1150', '1155', '1157', '1163', '1164', '1166', '1167', '1168', '1176', '1179', '1180', '1188', '1194', '1195', '1198', '1199', '1201', '1203', '1204', '1208', '1209', '1218', '1222', '1223', '1226', '1230', '1233', '1234', '1235', '1236', '1237', '1241', '1242', '1245', '1246', '1249', '1250', '1252', '1253', '1254', '1255', '1259', '1265', '1267', '1271', '1272', '1274', '1277', '1281', '1284', '1286', '1291', '1295', '1297', '1298', '1299', '1301', '1306', '1308', '1309', '1312', '1313', '1314', '1320', '1321', '1325', '1330', '1333', '1339', '1343', '1344', '1345', '1346', '1347', '1353', '1357', '1364', '1369', '1373', '1378', '1380', '1384', '1385', '1387', '1390', '1391', '1392', '1393', '1394', '1395', '1396', '1398', '1400', '1401', '1408', '1411', '1415', '1429', '1431', '1433', '1434', '1435', '1436', '1437', '1438', '1442', '1445', '1446', '1447', '1448', '1453', '1455', '1459', '1462', '1464', '1466', '1469', '1470', '1471', '1472', '1474', '1486', '1490', '1493', '1494', '1495', '1496', '1497', '1499', '1505', '1514', '1518', '1519', '1528', '1530', '1533', '1535', '1536', '1541', '1546', '1548', '1552', '1553', '1555', '1561', '1572', '1582', '1583', '1591', '1592', '1593', '1594', '1597', '1602', '1604', '1605', '1606', '1608', '1609', '1615', '1616', '1618', '1621', '1623', '1625', '1627', '1628', '1634', '1635', '1638', '1639', '1640', '1645', '1646', '1649', '1651', '1653', '1655', '1657', '1659', '1660', '1663', '1664', '1669', '1671', '1674', '1676', '1683', '1684', '1685', '1690', '1691', '1692', '1694', '1696', '1698', '1699', '1700', '1701', '1708', '1712', '1716', '1717', '1721', '1723', '1726', '1729', '1730', '1731', '1732', '1734', '1740', '1742', '1744', '1747', '1749', '1752', '1756', '1762', '1763', '1765', '1766', '1769', '1772', '1773', '1777', '1780', '1783', '1785', '1786', '1787', '1790', '1791', '1792', '1793', '1796', '1798', '1805', '1811', '1813', '1814', '1819', '1823', '1824', '1827', '1832', '1834', '1840', '1841', '1842', '1844', '1846', '1848', '1849', '1850', '1853', '1856', '1860', '1861', '1864', '1868', '1870', '1872', '1875', '1876', '1878', '1879', '1880', '1881', '1882', '1884', '1885', '1888', '1889', '1890', '1891', '1892', '1908', '1911', '1913', '1916', '1918', '1919', '1922', '1929', '1932', '1939', '1940', '1942', '1945', '1946', '1953', '1962', '1963', '1969', '1972', '1973', '1974', '1978', '1980', '1982', '1983', '1984', '1986', '1988', '1992', '1996', '2000']",True,4000,True,2,5a45eb5160,0.0,0.0,1.0
./expes/v2_2021-03-27_issda-30_2000-prng-1-w4-p2,30_issda-2000,2000,first-2000,400,20,rng,num-start-2800,2800,25726,classic,2742.1250257492065,True,,True,1.0,1.0,1.0,1,"['1', '3', '4', '5', '7', '26', '28', '29', '30', '31', '34', '45', '47', '55', '65', '68', '75', '80', '81', '83', '93', '94', '96', '103', '119', '126', '128', '129', '131', '142', '144', '148', '152', '162', '165', '166', '169', '171', '184', '187', '188', '192', '195', '201', '203', '206', '207', '208', '224', '237', '238', '240', '241', '244', '246', '254', '255', '256', '267', '268', '272', '277', '286', '287', '292', '300', '301', '307', '315', '323', '325', '328', '332', '340', '347', '350', '359', '370', '374', '377', '379', '383', '386', '387', '388', '390', '391', '392', '394', '399', '407', '409', '417', '419', '432', '438', '441', '448', '449', '452', '453', '455', '457', '483', '489', '491', '492', '496', '498', '500', '514', '531', '533', '534', '556', '564', '565', '574', '576', '578', '590', '595', '597', '617', '618', '620', '622', '636', '638', '640', '648', '650', '656', '665', '667', '668', '677', '682', '683', '685', '687', '688', '702', '718', '722', '725', '732', '734', '735', '736', '759', '762', '776', '789', '795', '796', '802', '817', '823', '824', '830', '840', '849', '851', '856', '857', '859', '862', '872', '873', '890', '894', '906', '907', '912', '913', '915', '918', '923', '938', '957', '964', '966', '967', '975', '976', '977', '982', '987', '996', '997', '998', '1003', '1009', '1011', '1013', '1032', '1034', '1041', '1042', '1048', '1068', '1069', '1075', '1081', '1083', '1085', '1091', '1095', '1107', '1108', '1113', '1115', '1121', '1122', '1124', '1129', '1132', '1147', '1149', '1150', '1163', '1164', '1166', '1167', '1176', '1179', '1180', '1188', '1195', '1203', '1204', '1208', '1209', '1218', '1222', '1223', '1233', '1234', '1236', '1237', '1241', '1242', '1246', '1250', '1252', '1254', '1255', '1267', '1271', '1272', '1281', '1291', '1297', '1298', '1299', '1301', '1306', '1312', '1314', '1325', '1330', '1333', '1345', '1347', '1353', '1357', '1364', '1369', '1378', '1380', '1384', '1385', '1390', '1391', '1392', '1394', '1396', '1400', '1401', '1411', '1415', '1429', '1431', '1433', '1435', '1437', '1438', '1442', '1445', '1448', '1453', '1455', '1466', '1470', '1471', '1474', '1486', '1490', '1495', '1496', '1499', '1514', '1519', '1533', '1546', '1548', '1552', '1553', '1561', '1572', '1582', '1604', '1606', '1608', '1616', '1625', '1628', '1635', '1638', '1640', '1645', '1646', '1649', '1657', '1660', '1663', '1664', '1669', '1671', '1674', '1683', '1685', '1690', '1691', '1696', '1698', '1699', '1700', '1701', '1708', '1712', '1716', '1717', '1721', '1726', '1730', '1731', '1732', '1740', '1742', '1749', '1752', '1773', '1777', '1783', '1786', '1790', '1792', '1793', '1796', '1811', '1813', '1824', '1827', '1834', '1840', '1841', '1844', '1848', '1853', '1860', '1864', '1870', '1876', '1878', '1879', '1880', '1881', '1882', '1888', '1889', '1891', '1892', '1911', '1918', '1919', '1940', '1945', '1946', '1953', '1969', '1973', '1974', '1978', '1980', '1982', '1983', '1988', '1996']",False,4000,True,2,9742816fb5,0.0,1.0,1.0
