expe,clients,clients_size,clients_subset,agg_size,agg_size_pc,method,days,days_size,days_total,noise_method,time,valid,valid_sum,success,score_avg,score_min,score_max,nsols,oracle,wall_hit,wall_time,pooled,pool_size,uuid,infeasible,optimal,valid_sums
./expes/v2_2021-04-10_issda-30_500-prng-1-w1-p2,30_issda-500,500,first-500,150,30,rng,num-start-500,500,25726,classic,39.63643717765808,True,,True,1.0,1.0,1.0,1,"['2', '5', '7', '12', '14', '15', '16', '18', '23', '33', '45', '49', '52', '53', '56', '61', '62', '69', '84', '87', '88', '89', '96', '98', '103', '108', '111', '113', '114', '117', '118', '119', '120', '125', '131', '137', '138', '146', '149', '152', '156', '158', '163', '171', '177', '181', '188', '190', '192', '195', '196', '200', '202', '207', '208', '213', '214', '217', '222', '225', '229', '231', '236', '241', '242', '246', '250', '251', '254', '256', '257', '258', '259', '260', '261', '264', '267', '271', '277', '278', '281', '284', '285', '292', '296', '297', '301', '302', '303', '304', '312', '315', '323', '329', '332', '333', '334', '338', '340', '341', '344', '346', '347', '352', '357', '360', '361', '365', '370', '371', '372', '376', '378', '381', '390', '391', '392', '393', '395', '398', '399', '404', '409', '411', '425', '428', '429', '431', '434', '435', '437', '441', '452', '458', '459', '462', '466', '467', '470', '472', '473', '475', '480', '481', '482', '484', '488', '496', '497', '499']",False,1000,True,2,9757a8cd94,0.0,1.0,1.0
./expes/v2_2021-04-10_issda-30_500-prng-1-w1-p2,30_issda-500,500,first-500,500,100,rng,num-start-400,400,25726,classic,22.541970014572144,True,,True,1.0,1.0,1.0,1,"['1', '2', '3', '4', '5', '6', '7', '8', '9', '10', '11', '12', '13', '14', '15', '16', '17', '18', '19', '20', '21', '22', '23', '24', '25', '26', '27', '28', '29', '30', '31', '32', '33', '34', '35', '36', '37', '38', '39', '40', '41', '42', '43', '44', '45', '46', '47', '48', '49', '50', '51', '52', '53', '54', '55', '56', '57', '58', '59', '60', '61', '62', '63', '64', '65', '66', '67', '68', '69', '70', '71', '72', '73', '74', '75', '76', '77', '78', '79', '80', '81', '82', '83', '84', '85', '86', '87', '88', '89', '90', '91', '92', '93', '94', '95', '96', '97', '98', '99', '100', '101', '102', '103', '104', '105', '106', '107', '108', '109', '110', '111', '112', '113', '114', '115', '116', '117', '118', '119', '120', '121', '122', '123', '124', '125', '126', '127', '128', '129', '130', '131', '132', '133', '134', '135', '136', '137', '138', '139', '140', '141', '142', '143', '144', '145', '146', '147', '148', '149', '150', '151', '152', '153', '154', '155', '156', '157', '158', '159', '160', '161', '162', '163', '164', '165', '166', '167', '168', '169', '170', '171', '172', '173', '174', '175', '176', '177', '178', '179', '180', '181', '182', '183', '184', '185', '186', '187', '188', '189', '190', '191', '192', '193', '194', '195', '196', '197', '198', '199', '200', '201', '202', '203', '204', '205', '206', '207', '208', '209', '210', '211', '212', '213', '214', '215', '216', '217', '218', '219', '220', '221', '222', '223', '224', '225', '226', '227', '228', '229', '230', '231', '232', '233', '234', '235', '236', '237', '238', '239', '240', '241', '242', '243', '244', '245', '246', '247', '248', '249', '250', '251', '252', '253', '254', '255', '256', '257', '258', '259', '260', '261', '262', '263', '264', '265', '266', '267', '268', '269', '270', '271', '272', '273', '274', '275', '276', '277', '278', '279', '280', '281', '282', '283', '284', '285', '286', '287', '288', '289', '290', '291', '292', '293', '294', '295', '296', '297', '298', '299', '300', '301', '302', '303', '304', '305', '306', '307', '308', '309', '310', '311', '312', '313', '314', '315', '316', '317', '318', '319', '320', '321', '322', '323', '324', '325', '326', '327', '328', '329', '330', '331', '332', '333', '334', '335', '336', '337', '338', '339', '340', '341', '342', '343', '344', '345', '346', '347', '348', '349', '350', '351', '352', '353', '354', '355', '356', '357', '358', '359', '360', '361', '362', '363', '364', '365', '366', '367', '368', '369', '370', '371', '372', '373', '374', '375', '376', '377', '378', '379', '380', '381', '382', '383', '384', '385', '386', '387', '388', '389', '390', '391', '392', '393', '394', '395', '396', '397', '398', '399', '400', '401', '402', '403', '404', '405', '406', '407', '408', '409', '410', '411', '412', '413', '414', '415', '416', '417', '418', '419', '420', '421', '422', '423', '424', '425', '426', '427', '428', '429', '430', '431', '432', '433', '434', '435', '436', '437', '438', '439', '440', '441', '442', '443', '444', '445', '446', '447', '448', '449', '450', '451', '452', '453', '454', '455', '456', '457', '458', '459', '460', '461', '462', '463', '464', '465', '466', '467', '468', '469', '470', '471', '472', '473', '474', '475', '476', '477', '478', '479', '480', '481', '482', '483', '484', '485', '486', '487', '488', '489', '490', '491', '492', '493', '494', '495', '496', '497', '498', '499', '500']",False,1000,True,2,846f1da56f,0.0,1.0,1.0
./expes/v2_2021-04-10_issda-30_500-prng-1-w1-p2,30_issda-500,500,first-500,50,10,rng,num-start-200,200,25726,classic,13.959354400634766,True,,True,1.0,1.0,1.0,1,"['2', '5', '12', '14', '15', '16', '33', '49', '53', '61', '69', '108', '111', '118', '131', '137', '163', '195', '196', '200', '217', '222', '229', '231', '242', '250', '254', '278', '292', '303', '312', '333', '334', '352', '357', '370', '390', '391', '392', '393', '404', '411', '428', '434', '452', '458', '462', '481', '484', '497']",False,1000,True,2,2d004f8b49,0.0,1.0,1.0
./expes/v2_2021-04-10_issda-30_500-prng-1-w1-p2,30_issda-500,500,first-500,400,80,rng,num-start-200,200,25726,classic,14.990255117416382,True,,True,1.0,1.0,1.0,1,"['1', '2', '5', '7', '8', '9', '10', '11', '12', '14', '15', '17', '18', '19', '20', '21', '22', '24', '25', '26', '29', '30', '31', '32', '33', '34', '36', '37', '38', '40', '41', '42', '43', '44', '45', '46', '47', '48', '49', '51', '52', '54', '56', '57', '59', '60', '61', '62', '64', '66', '67', '68', '69', '70', '71', '72', '73', '75', '76', '77', '78', '79', '80', '81', '82', '83', '84', '85', '86', '87', '88', '90', '92', '93', '94', '95', '96', '97', '98', '99', '100', '102', '103', '104', '105', '106', '107', '108', '110', '111', '112', '113', '114', '115', '116', '120', '121', '123', '124', '125', '129', '131', '132', '133', '134', '135', '139', '141', '142', '143', '144', '145', '147', '148', '149', '150', '151', '154', '155', '156', '158', '159', '160', '162', '163', '164', '165', '166', '167', '169', '170', '171', '172', '173', '174', '175', '176', '178', '180', '181', '182', '183', '184', '185', '186', '188', '189', '190', '191', '193', '194', '195', '196', '197', '198', '199', '201', '202', '203', '204', '205', '206', '207', '208', '209', '210', '211', '213', '214', '215', '216', '217', '218', '219', '221', '223', '224', '227', '228', '229', '230', '231', '232', '235', '236', '239', '240', '241', '242', '243', '244', '245', '246', '247', '249', '250', '251', '252', '253', '254', '255', '256', '258', '259', '260', '261', '262', '265', '266', '267', '268', '269', '270', '271', '272', '273', '274', '275', '276', '277', '278', '279', '280', '281', '282', '283', '285', '286', '287', '288', '289', '290', '291', '292', '294', '295', '297', '299', '300', '301', '302', '303', '305', '306', '307', '308', '309', '310', '311', '312', '313', '314', '315', '317', '318', '320', '321', '322', '323', '325', '326', '327', '328', '329', '330', '331', '332', '333', '334', '335', '336', '337', '339', '340', '341', '343', '344', '345', '346', '347', '348', '349', '350', '351', '352', '353', '354', '358', '359', '360', '361', '362', '364', '365', '366', '367', '368', '369', '372', '373', '374', '375', '377', '379', '380', '383', '384', '386', '387', '388', '389', '391', '393', '396', '398', '399', '400', '401', '402', '404', '405', '406', '407', '409', '410', '412', '413', '414', '415', '416', '418', '419', '421', '422', '423', '424', '425', '426', '427', '428', '429', '430', '431', '432', '433', '434', '435', '436', '437', '438', '439', '441', '442', '443', '444', '445', '446', '447', '448', '449', '450', '452', '453', '454', '455', '456', '457', '458', '459', '460', '461', '462', '463', '464', '465', '466', '468', '469', '470', '471', '472', '473', '477', '478', '479', '480', '481', '483', '485', '486', '487', '489', '493', '494', '495', '496', '497', '498', '499', '500']",False,1000,True,2,3fa49a3cad,0.0,1.0,1.0
./expes/v2_2021-04-10_issda-30_500-prng-1-w1-p2,30_issda-500,500,first-500,250,50,rng,num-start-200,200,25726,classic,1011.8177688121796,False,,False,0,,,0,"['4', '6', '7', '8', '11', '12', '14', '15', '16', '17', '18', '19', '22', '23', '24', '31', '32', '33', '34', '35', '40', '41', '44', '46', '50', '53', '54', '56', '61', '62', '64', '67', '68', '69', '70', '71', '78', '80', '82', '84', '87', '91', '94', '95', '96', '98', '99', '102', '109', '112', '114', '115', '116', '119', '120', '121', '122', '123', '129', '133', '135', '136', '137', '138', '139', '143', '144', '146', '149', '150', '151', '153', '154', '155', '156', '159', '161', '162', '164', '165', '168', '170', '171', '173', '174', '175', '177', '178', '180', '181', '185', '187', '188', '190', '193', '194', '198', '199', '200', '203', '204', '209', '211', '213', '214', '216', '219', '221', '223', '224', '225', '228', '231', '234', '236', '238', '239', '241', '243', '244', '247', '248', '251', '254', '257', '259', '260', '266', '267', '268', '272', '274', '275', '277', '278', '279', '281', '282', '283', '287', '292', '293', '294', '295', '296', '297', '298', '300', '301', '302', '303', '304', '305', '308', '310', '311', '312', '313', '315', '316', '318', '321', '322', '324', '325', '326', '328', '329', '330', '333', '335', '336', '344', '345', '346', '347', '348', '349', '350', '351', '354', '357', '358', '362', '366', '367', '368', '369', '373', '377', '378', '380', '389', '390', '394', '396', '398', '399', '400', '403', '404', '407', '410', '411', '412', '413', '414', '415', '416', '417', '422', '424', '426', '427', '429', '430', '433', '436', '438', '439', '441', '442', '443', '444', '445', '446', '447', '450', '452', '454', '460', '463', '464', '466', '469', '470', '472', '473', '475', '476', '480', '482', '486', '489', '491', '492', '494', '495', '498', '499']",True,1000,True,2,1903956feb,0.0,0.0,0.0
