expe,clients,clients_size,clients_subset,agg_size,agg_size_pc,method,days,days_size,days_total,noise_method,time,valid,valid_sum,success,score_avg,score_min,score_max,nsols,oracle,wall_hit,wall_time,pooled,pool_size,uuid,infeasible,optimal,valid_sums
./expes/v4_2021-03-18_issda_1000-prng-1-w1-p100-ukn95_98,30_issda-1000,999,first-1000,50,5,rng,num-start-800,800,25726,ukn-95-98,147.50221848487854,False,,False,0.7028112846953679,0.6850422301425361,0.9683455531083541,100,"['3', '10', '23', '27', '30', '32', '65', '97', '105', '121', '138', '215', '222', '235', '262', '273', '326', '389', '391', '400', '433', '444', '457', '461', '484', '500', '508', '555', '583', '606', '623', '666', '668', '703', '713', '739', '780', '781', '783', '786', '808', '822', '856', '868', '903', '915', '924', '962', '968', '993']",False,1000,True,100,9c2130e62e,0.0,1.0,0.0
./expes/v4_2021-03-18_issda_1000-prng-1-w1-p100-ukn95_98,30_issda-1000,999,first-1000,50,5,rng,num-start-600,600,25726,ukn-95-98,1055.6971032619476,False,,False,0.7175761178596566,0.6947355691445678,0.9683455531083541,88,"['42', '76', '98', '102', '104', '143', '144', '151', '224', '257', '266', '289', '311', '318', '339', '363', '367', '395', '415', '431', '484', '489', '498', '517', '524', '546', '574', '598', '617', '634', '701', '723', '748', '774', '777', '803', '819', '830', '850', '865', '871', '912', '914', '921', '924', '930', '932', '941', '989', '992']",True,1000,True,100,9bedb40bdf,0.0,0.0,0.0
