expe,clients,clients_size,clients_subset,agg_size,agg_size_pc,method,days,days_size,days_total,noise_method,time,valid,valid_sum,success,score_avg,score_min,score_max,nsols,oracle,wall_hit,wall_time,pooled,pool_size,uuid,infeasible,optimal,valid_sums
./expes/v4_2021-03-18_issda_1000-prng-1-w1-p100-ukn95_98,30_issda-1000,995,first-1000,250,25,rng,num-start-100,100,25726,ukn-95-98,7.7011730670928955,False,,False,0.3888124195365899,0.37442179663035957,0.9290762304546698,100,"['8', '12', '14', '16', '21', '22', '23', '28', '30', '32', '33', '37', '44', '46', '47', '62', '63', '65', '66', '68', '69', '79', '91', '100', '105', '106', '107', '108', '111', '122', '128', '134', '135', '137', '138', '140', '142', '155', '156', '160', '164', '168', '182', '190', '192', '197', '203', '217', '223', '228', '238', '240', '242', '244', '245', '258', '265', '266', '270', '271', '274', '276', '278', '286', '287', '292', '299', '301', '306', '308', '309', '311', '318', '321', '322', '323', '328', '330', '335', '336', '339', '341', '342', '345', '348', '353', '360', '362', '369', '373', '375', '379', '386', '387', '396', '397', '400', '405', '407', '418', '421', '426', '432', '438', '442', '446', '447', '448', '456', '468', '472', '478', '481', '482', '485', '486', '488', '494', '496', '502', '507', '513', '518', '520', '533', '534', '536', '547', '549', '554', '555', '558', '562', '563', '565', '573', '583', '586', '588', '591', '594', '595', '599', '600', '601', '604', '606', '607', '610', '615', '616', '619', '620', '621', '624', '626', '630', '631', '636', '641', '642', '643', '644', '648', '649', '650', '651', '655', '660', '666', '670', '672', '688', '689', '693', '695', '696', '698', '699', '701', '707', '713', '715', '716', '724', '731', '732', '733', '735', '736', '737', '738', '746', '753', '756', '760', '777', '780', '788', '791', '796', '798', '799', '807', '808', '820', '821', '824', '831', '833', '844', '852', '854', '857', '858', '865', '875', '876', '877', '882', '883', '887', '888', '889', '891', '894', '900', '903', '919', '926', '927', '931', '938', '940', '943', '944', '945', '949', '952', '959', '964', '972', '978', '981', '982', '987', '988', '989', '995', '997']",False,1000,True,100,d9eb3867d9,0.0,1.0,0.0
./expes/v4_2021-03-18_issda_1000-prng-1-w1-p100-ukn95_98,30_issda-1000,994,first-1000,300,30,rng,num-start-800,800,25726,ukn-95-98,58.71156072616577,False,,False,0.35934468605786074,0.22657430144955237,0.9222677925663528,100,"['2', '4', '6', '10', '12', '14', '19', '23', '24', '30', '33', '34', '36', '38', '48', '50', '54', '58', '59', '61', '65', '67', '68', '74', '81', '83', '92', '94', '95', '105', '110', '111', '116', '122', '130', '134', '136', '143', '145', '146', '150', '151', '152', '153', '161', '164', '166', '170', '171', '173', '174', '177', '181', '182', '183', '184', '185', '186', '187', '190', '202', '204', '210', '213', '214', '215', '221', '222', '244', '252', '253', '256', '257', '262', '263', '271', '272', '279', '281', '283', '287', '288', '296', '297', '299', '301', '302', '303', '306', '309', '314', '317', '318', '320', '322', '324', '325', '326', '334', '340', '343', '347', '349', '353', '354', '357', '359', '364', '365', '366', '367', '368', '370', '371', '372', '373', '374', '375', '377', '381', '382', '386', '387', '390', '393', '399', '414', '416', '418', '419', '424', '425', '429', '431', '432', '444', '445', '456', '461', '464', '465', '467', '474', '475', '477', '481', '482', '484', '486', '491', '493', '496', '498', '500', '504', '506', '512', '513', '515', '525', '526', '528', '531', '535', '538', '543', '545', '547', '553', '557', '559', '561', '562', '563', '573', '578', '588', '593', '595', '601', '602', '604', '609', '611', '616', '618', '626', '633', '636', '638', '639', '641', '642', '643', '646', '654', '660', '663', '665', '666', '667', '668', '680', '685', '688', '690', '695', '703', '705', '706', '708', '712', '714', '720', '722', '725', '734', '738', '739', '748', '749', '750', '756', '758', '759', '760', '767', '768', '774', '778', '781', '785', '789', '793', '794', '795', '800', '801', '805', '807', '815', '817', '818', '821', '837', '838', '839', '840', '842', '847', '849', '856', '857', '859', '861', '862', '864', '866', '873', '875', '881', '888', '889', '890', '891', '893', '894', '898', '915', '916', '919', '923', '924', '939', '941', '945', '946', '947', '952', '959', '960', '961', '962', '964', '965', '966', '969', '973', '978', '979', '980', '983', '984', '985', '989', '990', '992', '996', '999', '1000']",False,1000,True,100,629b350749,0.0,1.0,0.0
./expes/v4_2021-03-18_issda_1000-prng-1-w1-p100-ukn95_98,30_issda-1000,995,first-1000,250,25,rng,num-start-300,300,25726,ukn-95-98,23.250179052352905,False,,False,0.39477710844538605,0.3792650555773711,0.9290762304546698,100,"['2', '4', '6', '10', '14', '19', '23', '24', '30', '33', '34', '38', '48', '50', '54', '58', '59', '61', '65', '67', '68', '74', '81', '83', '92', '94', '95', '105', '110', '111', '116', '122', '130', '134', '136', '143', '145', '150', '151', '152', '153', '161', '164', '166', '170', '171', '173', '174', '181', '182', '184', '185', '186', '187', '190', '202', '204', '210', '213', '214', '215', '221', '222', '244', '252', '253', '256', '257', '262', '263', '271', '279', '281', '283', '287', '297', '299', '302', '303', '306', '309', '314', '317', '318', '320', '322', '324', '325', '326', '340', '343', '347', '349', '353', '364', '365', '367', '368', '370', '372', '375', '377', '381', '382', '386', '387', '390', '393', '399', '414', '416', '418', '424', '425', '429', '431', '432', '444', '445', '456', '464', '465', '467', '474', '477', '481', '482', '484', '491', '493', '496', '500', '504', '506', '512', '515', '525', '526', '528', '535', '538', '543', '545', '547', '553', '557', '559', '562', '563', '578', '588', '593', '601', '604', '609', '611', '616', '618', '626', '633', '636', '638', '639', '641', '642', '643', '646', '654', '665', '667', '668', '695', '703', '706', '708', '712', '714', '720', '722', '725', '738', '739', '748', '749', '750', '758', '759', '760', '767', '768', '774', '781', '785', '793', '794', '795', '800', '801', '805', '807', '815', '817', '818', '821', '838', '839', '840', '842', '847', '859', '861', '862', '866', '873', '881', '889', '890', '893', '894', '898', '915', '916', '919', '923', '924', '939', '941', '945', '946', '947', '952', '959', '960', '962', '964', '965', '966', '969', '973', '978', '979', '983', '984', '985', '989', '990', '992', '996', '999', '1000']",False,1000,True,100,d0790d7d49,0.0,1.0,0.0
./expes/v4_2021-03-18_issda_1000-prng-1-w1-p100-ukn95_98,30_issda-1000,999,first-1000,50,5,rng,num-start-700,700,25726,ukn-95-98,1043.896394252777,False,,False,0.7326189649341472,0.7081604196114538,0.9683455531083541,65,"['14', '16', '32', '44', '66', '68', '134', '155', '156', '164', '197', '238', '240', '244', '266', '309', '379', '400', '407', '481', '482', '486', '488', '536', '554', '558', '563', '565', '595', '606', '607', '619', '621', '641', '651', '655', '688', '735', '760', '777', '796', '799', '857', '858', '882', '889', '931', '938', '949', '981']",True,1000,True,100,635f35a1c9,0.0,0.0,0.0
