expe,clients,clients_size,clients_subset,agg_size,method,days,days_size,days_total,time,valid,valid_sum,success,nsols,wall_hit,wall_time,pooled,valid_sums
./expes/v2_2020-12-03_dh_300-prng-1,30_issda_300,300,rng-300,191,rng,num-start-271,271,25726,7.77180290222168,True,,True,1,False,1000,True,1.0
./expes/v2_2020-12-03_dh_300-prng-1,30_issda_300,300,rng-300,201,rng,num-start-31,31,25726,1000.5765383243561,False,,False,0,True,1000,True,0.0
./expes/v2_2020-12-03_dh_300-prng-1,30_issda_300,300,rng-300,261,rng,num-start-561,561,25726,15.863367795944214,True,,True,1,False,1000,True,1.0
./expes/v2_2020-12-03_dh_300-prng-1,30_issda_300,300,rng-300,171,rng,num-start-551,551,25726,14.992884397506714,True,,True,1,False,1000,True,1.0
./expes/v2_2020-12-03_dh_300-prng-1,30_issda_300,300,rng-300,271,rng,num-start-981,981,25726,25.932681798934937,True,,True,1,False,1000,True,1.0
./expes/v2_2020-12-03_dh_300-prng-1,30_issda_300,300,rng-300,191,rng,num-start-81,81,25726,1001.683269739151,False,,False,0,True,1000,True,0.0
./expes/v2_2020-12-03_dh_300-prng-1,30_issda_300,300,rng-300,91,rng,num-start-271,271,25726,10.75757646560669,True,,True,1,False,1000,True,1.0
./expes/v2_2020-12-03_dh_300-prng-1,30_issda_300,300,rng-300,271,rng,num-start-841,841,25726,31.072061777114868,True,,True,1,False,1000,True,1.0
./expes/v2_2020-12-03_dh_300-prng-1,30_issda_300,300,rng-300,91,rng,num-start-361,361,25726,14.357142210006714,True,,True,1,False,1000,True,1.0
./expes/v2_2020-12-03_dh_300-prng-1,30_issda_300,300,rng-300,221,rng,num-start-71,71,25726,1001.7110464572906,False,,False,0,True,1000,True,0.0
./expes/v2_2020-12-03_dh_300-prng-1,30_issda_300,300,rng-300,231,rng,num-start-51,51,25726,1001.0511355400085,False,,False,0,True,1000,True,0.0
./expes/v2_2020-12-03_dh_300-prng-1,30_issda_300,300,rng-300,131,rng,num-start-501,501,25726,11.508673667907715,True,,True,1,False,1000,True,1.0
./expes/v2_2020-12-03_dh_300-prng-1,30_issda_300,300,rng-300,201,rng,num-start-721,721,25726,20.71489930152893,True,,True,1,False,1000,True,1.0
./expes/v2_2020-12-03_dh_300-prng-1,30_issda_300,300,rng-300,121,rng,num-start-631,631,25726,19.542563915252686,True,,True,1,False,1000,True,1.0
./expes/v2_2020-12-03_dh_300-prng-1,30_issda_300,300,rng-300,141,rng,num-start-401,401,25726,13.617937564849854,True,,True,1,False,1000,True,1.0
./expes/v2_2020-12-03_dh_300-prng-1,30_issda_300,300,rng-300,251,rng,num-start-921,921,25726,23.964174270629883,True,,True,1,False,1000,True,1.0
./expes/v2_2020-12-03_dh_300-prng-1,30_issda_300,300,rng-300,71,rng,num-start-381,381,25726,9.264743089675903,True,,True,1,False,1000,True,1.0
./expes/v2_2020-12-03_dh_300-prng-1,30_issda_300,300,rng-300,191,rng,num-start-241,241,25726,7.474294662475586,True,,True,1,False,1000,True,1.0
./expes/v2_2020-12-03_dh_300-prng-1,30_issda_300,300,rng-300,141,rng,num-start-31,31,25726,1000.572026014328,False,,False,0,True,1000,True,0.0
./expes/v2_2020-12-03_dh_300-prng-1,30_issda_300,300,rng-300,21,rng,num-start-211,211,25726,5.09566330909729,True,,True,1,False,1000,True,1.0
./expes/v2_2020-12-03_dh_300-prng-1,30_issda_300,300,rng-300,171,rng,num-start-351,351,25726,9.596022367477417,True,,True,1,False,1000,True,1.0
./expes/v2_2020-12-03_dh_300-prng-1,30_issda_300,300,rng-300,291,rng,num-start-101,101,25726,2.4091145992279053,True,,True,1,False,1000,True,1.0
./expes/v2_2020-12-03_dh_300-prng-1,30_issda_300,300,rng-300,271,rng,num-start-701,701,25726,16.457193613052368,True,,True,1,False,1000,True,1.0
./expes/v2_2020-12-03_dh_300-prng-1,30_issda_300,300,rng-300,51,rng,num-start-391,391,25726,12.230973958969116,True,,True,1,False,1000,True,1.0
./expes/v2_2020-12-03_dh_300-prng-1,30_issda_300,300,rng-300,61,rng,num-start-371,371,25726,9.916640043258667,True,,True,1,False,1000,True,1.0
./expes/v2_2020-12-03_dh_300-prng-1,30_issda_300,300,rng-300,191,rng,num-start-921,921,25726,26.160151720046997,True,,True,1,False,1000,True,1.0
./expes/v2_2020-12-03_dh_300-prng-1,30_issda_300,300,rng-300,231,rng,num-start-511,511,25726,12.277798175811768,True,,True,1,False,1000,True,1.0
./expes/v2_2020-12-03_dh_300-prng-1,30_issda_300,300,rng-300,261,rng,num-start-151,151,25726,3.9097001552581787,True,,True,1,False,1000,True,1.0
./expes/v2_2020-12-03_dh_300-prng-1,30_issda_300,300,rng-300,251,rng,num-start-651,651,25726,15.747583866119385,True,,True,1,False,1000,True,1.0
./expes/v2_2020-12-03_dh_300-prng-1,30_issda_300,300,rng-300,121,rng,num-start-711,711,25726,17.14818835258484,True,,True,1,False,1000,True,1.0
./expes/v2_2020-12-03_dh_300-prng-1,30_issda_300,300,rng-300,71,rng,num-start-571,571,25726,14.365020990371704,True,,True,1,False,1000,True,1.0
./expes/v2_2020-12-03_dh_300-prng-1,30_issda_300,300,rng-300,191,rng,num-start-431,431,25726,10.088310480117798,True,,True,1,False,1000,True,1.0
./expes/v2_2020-12-03_dh_300-prng-1,30_issda_300,300,rng-300,121,rng,num-start-881,881,25726,23.145916223526,True,,True,1,False,1000,True,1.0
./expes/v2_2020-12-03_dh_300-prng-1,30_issda_300,300,rng-300,101,rng,num-start-461,461,25726,11.365586757659912,True,,True,1,False,1000,True,1.0
./expes/v2_2020-12-03_dh_300-prng-1,30_issda_300,300,rng-300,1,rng,num-start-341,341,25726,6.268164873123169,True,,True,1,False,1000,True,1.0
./expes/v2_2020-12-03_dh_300-prng-1,30_issda_300,300,rng-300,11,rng,num-start-911,911,25726,19.382539987564087,True,,True,1,False,1000,True,1.0
./expes/v2_2020-12-03_dh_300-prng-1,30_issda_300,300,rng-300,261,rng,num-start-611,611,25726,17.55559253692627,True,,True,1,False,1000,True,1.0
./expes/v2_2020-12-03_dh_300-prng-1,30_issda_300,300,rng-300,91,rng,num-start-601,601,25726,14.879067659378052,True,,True,1,False,1000,True,1.0
./expes/v2_2020-12-03_dh_300-prng-1,30_issda_300,300,rng-300,271,rng,num-start-901,901,25726,22.478490829467773,True,,True,1,False,1000,True,1.0
./expes/v2_2020-12-03_dh_300-prng-1,30_issda_300,300,rng-300,71,rng,num-start-811,811,25726,18.64577865600586,True,,True,1,False,1000,True,1.0
./expes/v2_2020-12-03_dh_300-prng-1,30_issda_300,300,rng-300,11,rng,num-start-481,481,25726,9.375512599945068,True,,True,1,False,1000,True,1.0
./expes/v2_2020-12-03_dh_300-prng-1,30_issda_300,300,rng-300,191,rng,num-start-581,581,25726,15.286071538925171,True,,True,1,False,1000,True,1.0
./expes/v2_2020-12-03_dh_300-prng-1,30_issda_300,300,rng-300,91,rng,num-start-151,151,25726,4.988854169845581,True,,True,1,False,1000,True,1.0
./expes/v2_2020-12-03_dh_300-prng-1,30_issda_300,300,rng-300,1,rng,num-start-171,171,25726,3.328037738800049,True,,True,1,False,1000,True,1.0
./expes/v2_2020-12-03_dh_300-prng-1,30_issda_300,300,rng-300,151,rng,num-start-981,981,25726,24.95568871498108,True,,True,1,False,1000,True,1.0
./expes/v2_2020-12-03_dh_300-prng-1,30_issda_300,300,rng-300,191,rng,num-start-131,131,25726,8.200014114379883,True,,True,1,False,1000,True,1.0
./expes/v2_2020-12-03_dh_300-prng-1,30_issda_300,300,rng-300,51,rng,num-start-241,241,25726,6.090378761291504,True,,True,1,False,1000,True,1.0
./expes/v2_2020-12-03_dh_300-prng-1,30_issda_300,300,rng-300,51,rng,num-start-611,611,25726,13.633633613586426,True,,True,1,False,1000,True,1.0
./expes/v2_2020-12-03_dh_300-prng-1,30_issda_300,300,rng-300,191,rng,num-start-151,151,25726,3.7284090518951416,True,,True,1,False,1000,True,1.0
./expes/v2_2020-12-03_dh_300-prng-1,30_issda_300,300,rng-300,11,rng,num-start-751,751,25726,12.751382112503052,True,,True,1,False,1000,True,1.0
./expes/v2_2020-12-03_dh_300-prng-1,30_issda_300,300,rng-300,221,rng,num-start-371,371,25726,8.12909984588623,True,,True,1,False,1000,True,1.0
./expes/v2_2020-12-03_dh_300-prng-1,30_issda_300,300,rng-300,141,rng,num-start-31,31,25726,1000.7417466640472,False,,False,0,True,1000,True,0.0
./expes/v2_2020-12-03_dh_300-prng-1,30_issda_300,300,rng-300,161,rng,num-start-921,921,25726,25.278311491012573,True,,True,1,False,1000,True,1.0
./expes/v2_2020-12-03_dh_300-prng-1,30_issda_300,300,rng-300,101,rng,num-start-121,121,25726,8.827462196350098,True,,True,1,False,1000,True,1.0
./expes/v2_2020-12-03_dh_300-prng-1,30_issda_300,300,rng-300,291,rng,num-start-941,941,25726,17.48406219482422,True,,True,1,False,1000,True,1.0
./expes/v2_2020-12-03_dh_300-prng-1,30_issda_300,300,rng-300,101,rng,num-start-971,971,25726,25.480392456054688,True,,True,1,False,1000,True,1.0
./expes/v2_2020-12-03_dh_300-prng-1,30_issda_300,300,rng-300,121,rng,num-start-261,261,25726,7.143745422363281,True,,True,1,False,1000,True,1.0
./expes/v2_2020-12-03_dh_300-prng-1,30_issda_300,300,rng-300,171,rng,num-start-801,801,25726,23.166651964187622,True,,True,1,False,1000,True,1.0
./expes/v2_2020-12-03_dh_300-prng-1,30_issda_300,300,rng-300,191,rng,num-start-201,201,25726,5.686286687850952,True,,True,1,False,1000,True,1.0
./expes/v2_2020-12-03_dh_300-prng-1,30_issda_300,300,rng-300,121,rng,num-start-861,861,25726,22.225256204605103,True,,True,1,False,1000,True,1.0
./expes/v2_2020-12-03_dh_300-prng-1,30_issda_300,300,rng-300,41,rng,num-start-701,701,25726,19.858094692230225,True,,True,1,False,1000,True,1.0
./expes/v2_2020-12-03_dh_300-prng-1,30_issda_300,300,rng-300,111,rng,num-start-301,301,25726,7.203841209411621,True,,True,1,False,1000,True,1.0
./expes/v2_2020-12-03_dh_300-prng-1,30_issda_300,300,rng-300,71,rng,num-start-441,441,25726,11.140807390213013,True,,True,1,False,1000,True,1.0
./expes/v2_2020-12-03_dh_300-prng-1,30_issda_300,300,rng-300,121,rng,num-start-51,51,25726,1000.9627296924591,False,,False,0,True,1000,True,0.0
./expes/v2_2020-12-03_dh_300-prng-1,30_issda_300,300,rng-300,171,rng,num-start-481,481,25726,15.684400796890259,True,,True,1,False,1000,True,1.0
./expes/v2_2020-12-03_dh_300-prng-1,30_issda_300,300,rng-300,91,rng,num-start-681,681,25726,20.602062463760376,True,,True,1,False,1000,True,1.0
./expes/v2_2020-12-03_dh_300-prng-1,30_issda_300,300,rng-300,231,rng,num-start-711,711,25726,18.337961673736572,True,,True,1,False,1000,True,1.0
./expes/v2_2020-12-03_dh_300-prng-1,30_issda_300,300,rng-300,51,rng,num-start-891,891,25726,23.582151412963867,True,,True,1,False,1000,True,1.0
./expes/v2_2020-12-03_dh_300-prng-1,30_issda_300,300,rng-300,81,rng,num-start-781,781,25726,28.524937391281128,True,,True,1,False,1000,True,1.0
./expes/v2_2020-12-03_dh_300-prng-1,30_issda_300,300,rng-300,81,rng,num-start-821,821,25726,21.265264749526978,True,,True,1,False,1000,True,1.0
./expes/v2_2020-12-03_dh_300-prng-1,30_issda_300,300,rng-300,291,rng,num-start-371,371,25726,7.5330283641815186,True,,True,1,False,1000,True,1.0
./expes/v2_2020-12-03_dh_300-prng-1,30_issda_300,300,rng-300,171,rng,num-start-791,791,25726,21.870031356811523,True,,True,1,False,1000,True,1.0
./expes/v2_2020-12-03_dh_300-prng-1,30_issda_300,300,rng-300,171,rng,num-start-661,661,25726,18.07355499267578,True,,True,1,False,1000,True,1.0
./expes/v2_2020-12-03_dh_300-prng-1,30_issda_300,300,rng-300,1,rng,num-start-551,551,25726,9.991221904754639,True,,True,1,False,1000,True,1.0
./expes/v2_2020-12-03_dh_300-prng-1,30_issda_300,300,rng-300,191,rng,num-start-981,981,25726,27.910595655441284,True,,True,1,False,1000,True,1.0
./expes/v2_2020-12-03_dh_300-prng-1,30_issda_300,300,rng-300,21,rng,num-start-251,251,25726,6.122831344604492,True,,True,1,False,1000,True,1.0
./expes/v2_2020-12-03_dh_300-prng-1,30_issda_300,300,rng-300,261,rng,num-start-651,651,25726,14.238771438598633,True,,True,1,False,1000,True,1.0
./expes/v2_2020-12-03_dh_300-prng-1,30_issda_300,300,rng-300,271,rng,num-start-221,221,25726,5.4733641147613525,True,,True,1,False,1000,True,1.0
./expes/v2_2020-12-03_dh_300-prng-1,30_issda_300,300,rng-300,151,rng,num-start-641,641,25726,16.360881090164185,True,,True,1,False,1000,True,1.0
./expes/v2_2020-12-03_dh_300-prng-1,30_issda_300,300,rng-300,61,rng,num-start-21,21,25726,1000.5294015407562,False,,False,0,True,1000,True,0.0
./expes/v2_2020-12-03_dh_300-prng-1,30_issda_300,300,rng-300,21,rng,num-start-431,431,25726,10.229036569595337,True,,True,1,False,1000,True,1.0
./expes/v2_2020-12-03_dh_300-prng-1,30_issda_300,300,rng-300,161,rng,num-start-351,351,25726,9.944902181625366,True,,True,1,False,1000,True,1.0
./expes/v2_2020-12-03_dh_300-prng-1,30_issda_300,300,rng-300,81,rng,num-start-431,431,25726,10.775298118591309,True,,True,1,False,1000,True,1.0
./expes/v2_2020-12-03_dh_300-prng-1,30_issda_300,300,rng-300,291,rng,num-start-781,781,25726,16.92431139945984,True,,True,1,False,1000,True,1.0
./expes/v2_2020-12-03_dh_300-prng-1,30_issda_300,300,rng-300,221,rng,num-start-401,401,25726,10.427583694458008,True,,True,1,False,1000,True,1.0
./expes/v2_2020-12-03_dh_300-prng-1,30_issda_300,300,rng-300,31,rng,num-start-251,251,25726,6.3803956508636475,True,,True,1,False,1000,True,1.0
./expes/v2_2020-12-03_dh_300-prng-1,30_issda_300,300,rng-300,261,rng,num-start-811,811,25726,17.763813495635986,True,,True,1,False,1000,True,1.0
./expes/v2_2020-12-03_dh_300-prng-1,30_issda_300,300,rng-300,171,rng,num-start-811,811,25726,23.028544902801514,True,,True,1,False,1000,True,1.0
./expes/v2_2020-12-03_dh_300-prng-1,30_issda_300,300,rng-300,71,rng,num-start-811,811,25726,19.91859245300293,True,,True,1,False,1000,True,1.0
./expes/v2_2020-12-03_dh_300-prng-1,30_issda_300,300,rng-300,1,rng,num-start-391,391,25726,7.62415337562561,True,,True,1,False,1000,True,1.0
./expes/v2_2020-12-03_dh_300-prng-1,30_issda_300,300,rng-300,21,rng,num-start-261,261,25726,7.092727899551392,True,,True,1,False,1000,True,1.0
./expes/v2_2020-12-03_dh_300-prng-1,30_issda_300,300,rng-300,101,rng,num-start-531,531,25726,13.605227947235107,True,,True,1,False,1000,True,1.0
./expes/v2_2020-12-03_dh_300-prng-1,30_issda_300,300,rng-300,281,rng,num-start-451,451,25726,9.766233921051025,True,,True,1,False,1000,True,1.0
./expes/v2_2020-12-03_dh_300-prng-1,30_issda_300,300,rng-300,41,rng,num-start-161,161,25726,4.2096710205078125,True,,True,1,False,1000,True,1.0
./expes/v2_2020-12-03_dh_300-prng-1,30_issda_300,300,rng-300,11,rng,num-start-361,361,25726,8.859611988067627,True,,True,1,False,1000,True,1.0
./expes/v2_2020-12-03_dh_300-prng-1,30_issda_300,300,rng-300,261,rng,num-start-231,231,25726,6.527954816818237,True,,True,1,False,1000,True,1.0
./expes/v2_2020-12-03_dh_300-prng-1,30_issda_300,300,rng-300,51,rng,num-start-211,211,25726,5.401975870132446,True,,True,1,False,1000,True,1.0
./expes/v2_2020-12-03_dh_300-prng-1,30_issda_300,300,rng-300,51,rng,num-start-881,881,25726,20.40971064567566,True,,True,1,False,1000,True,1.0
./expes/v2_2020-12-03_dh_300-prng-1,30_issda_300,300,rng-300,101,rng,num-start-211,211,25726,6.301794528961182,True,,True,1,False,1000,True,1.0
./expes/v2_2020-12-03_dh_300-prng-1,30_issda_300,300,rng-300,81,rng,num-start-551,551,25726,15.188314437866211,True,,True,1,False,1000,True,1.0
./expes/v2_2020-12-03_dh_300-prng-1,30_issda_300,300,rng-300,111,rng,num-start-421,421,25726,12.12151575088501,True,,True,1,False,1000,True,1.0
./expes/v2_2020-12-03_dh_300-prng-1,30_issda_300,300,rng-300,251,rng,num-start-801,801,25726,19.60846734046936,True,,True,1,False,1000,True,1.0
./expes/v2_2020-12-03_dh_300-prng-1,30_issda_300,300,rng-300,181,rng,num-start-301,301,25726,8.276458740234375,True,,True,1,False,1000,True,1.0
./expes/v2_2020-12-03_dh_300-prng-1,30_issda_300,300,rng-300,131,rng,num-start-751,751,25726,19.534235954284668,True,,True,1,False,1000,True,1.0
./expes/v2_2020-12-03_dh_300-prng-1,30_issda_300,300,rng-300,51,rng,num-start-81,81,25726,6.502871513366699,True,,True,1,False,1000,True,1.0
./expes/v2_2020-12-03_dh_300-prng-1,30_issda_300,300,rng-300,51,rng,num-start-831,831,25726,20.776103258132935,True,,True,1,False,1000,True,1.0
./expes/v2_2020-12-03_dh_300-prng-1,30_issda_300,300,rng-300,141,rng,num-start-921,921,25726,25.551507472991943,True,,True,1,False,1000,True,1.0
./expes/v2_2020-12-03_dh_300-prng-1,30_issda_300,300,rng-300,171,rng,num-start-11,11,25726,1000.3241143226624,False,,False,0,True,1000,True,0.0
./expes/v2_2020-12-03_dh_300-prng-1,30_issda_300,300,rng-300,31,rng,num-start-361,361,25726,8.69884967803955,True,,True,1,False,1000,True,1.0
./expes/v2_2020-12-03_dh_300-prng-1,30_issda_300,300,rng-300,261,rng,num-start-471,471,25726,10.97692346572876,True,,True,1,False,1000,True,1.0
./expes/v2_2020-12-03_dh_300-prng-1,30_issda_300,300,rng-300,41,rng,num-start-751,751,25726,16.51034116744995,True,,True,1,False,1000,True,1.0
./expes/v2_2020-12-03_dh_300-prng-1,30_issda_300,300,rng-300,281,rng,num-start-241,241,25726,5.6473798751831055,True,,True,1,False,1000,True,1.0
./expes/v2_2020-12-03_dh_300-prng-1,30_issda_300,300,rng-300,1,rng,num-start-111,111,25726,2.0259735584259033,True,,True,1,False,1000,True,1.0
./expes/v2_2020-12-03_dh_300-prng-1,30_issda_300,300,rng-300,181,rng,num-start-601,601,25726,15.258668661117554,True,,True,1,False,1000,True,1.0
./expes/v2_2020-12-03_dh_300-prng-1,30_issda_300,300,rng-300,291,rng,num-start-641,641,25726,11.751102447509766,True,,True,1,False,1000,True,1.0
./expes/v2_2020-12-03_dh_300-prng-1,30_issda_300,300,rng-300,261,rng,num-start-251,251,25726,5.861531496047974,True,,True,1,False,1000,True,1.0
./expes/v2_2020-12-03_dh_300-prng-1,30_issda_300,300,rng-300,81,rng,num-start-521,521,25726,13.36924958229065,True,,True,1,False,1000,True,1.0
./expes/v2_2020-12-03_dh_300-prng-1,30_issda_300,300,rng-300,1,rng,num-start-391,391,25726,6.820673227310181,True,,True,1,False,1000,True,1.0
./expes/v2_2020-12-03_dh_300-prng-1,30_issda_300,300,rng-300,211,rng,num-start-141,141,25726,3.6780970096588135,True,,True,1,False,1000,True,1.0
./expes/v2_2020-12-03_dh_300-prng-1,30_issda_300,300,rng-300,131,rng,num-start-851,851,25726,20.261192083358765,True,,True,1,False,1000,True,1.0
./expes/v2_2020-12-03_dh_300-prng-1,30_issda_300,300,rng-300,261,rng,num-start-601,601,25726,11.973812580108643,True,,True,1,False,1000,True,1.0
./expes/v2_2020-12-03_dh_300-prng-1,30_issda_300,300,rng-300,171,rng,num-start-481,481,25726,11.683647155761719,True,,True,1,False,1000,True,1.0
./expes/v2_2020-12-03_dh_300-prng-1,30_issda_300,300,rng-300,131,rng,num-start-551,551,25726,12.967609167098999,True,,True,1,False,1000,True,1.0
./expes/v2_2020-12-03_dh_300-prng-1,30_issda_300,300,rng-300,111,rng,num-start-401,401,25726,10.916954755783081,True,,True,1,False,1000,True,1.0
./expes/v2_2020-12-03_dh_300-prng-1,30_issda_300,300,rng-300,221,rng,num-start-741,741,25726,17.198697566986084,True,,True,1,False,1000,True,1.0
./expes/v2_2020-12-03_dh_300-prng-1,30_issda_300,300,rng-300,201,rng,num-start-231,231,25726,5.741971492767334,True,,True,1,False,1000,True,1.0
./expes/v2_2020-12-03_dh_300-prng-1,30_issda_300,300,rng-300,1,rng,num-start-721,721,25726,13.215426206588745,True,,True,1,False,1000,True,1.0
./expes/v2_2020-12-03_dh_300-prng-1,30_issda_300,300,rng-300,121,rng,num-start-401,401,25726,11.668505430221558,True,,True,1,False,1000,True,1.0
./expes/v2_2020-12-03_dh_300-prng-1,30_issda_300,300,rng-300,241,rng,num-start-361,361,25726,9.546669721603394,True,,True,1,False,1000,True,1.0
./expes/v2_2020-12-03_dh_300-prng-1,30_issda_300,300,rng-300,121,rng,num-start-31,31,25726,1000.7682254314423,False,,False,0,True,1000,True,0.0
./expes/v2_2020-12-03_dh_300-prng-1,30_issda_300,300,rng-300,41,rng,num-start-311,311,25726,7.7548017501831055,True,,True,1,False,1000,True,1.0
./expes/v2_2020-12-03_dh_300-prng-1,30_issda_300,300,rng-300,11,rng,num-start-691,691,25726,13.51694941520691,True,,True,1,False,1000,True,1.0
./expes/v2_2020-12-03_dh_300-prng-1,30_issda_300,300,rng-300,61,rng,num-start-401,401,25726,9.536062717437744,True,,True,1,False,1000,True,1.0
./expes/v2_2020-12-03_dh_300-prng-1,30_issda_300,300,rng-300,111,rng,num-start-881,881,25726,22.442851066589355,True,,True,1,False,1000,True,1.0
./expes/v2_2020-12-03_dh_300-prng-1,30_issda_300,300,rng-300,21,rng,num-start-181,181,25726,4.369806528091431,True,,True,1,False,1000,True,1.0
./expes/v2_2020-12-03_dh_300-prng-1,30_issda_300,300,rng-300,171,rng,num-start-811,811,25726,22.424219608306885,True,,True,1,False,1000,True,1.0
./expes/v2_2020-12-03_dh_300-prng-1,30_issda_300,300,rng-300,141,rng,num-start-551,551,25726,15.308360576629639,True,,True,1,False,1000,True,1.0
./expes/v2_2020-12-03_dh_300-prng-1,30_issda_300,300,rng-300,291,rng,num-start-851,851,25726,16.863849878311157,True,,True,1,False,1000,True,1.0
./expes/v2_2020-12-03_dh_300-prng-1,30_issda_300,300,rng-300,281,rng,num-start-211,211,25726,5.036244869232178,True,,True,1,False,1000,True,1.0
./expes/v2_2020-12-03_dh_300-prng-1,30_issda_300,300,rng-300,201,rng,num-start-961,961,25726,24.819392919540405,True,,True,1,False,1000,True,1.0
./expes/v2_2020-12-03_dh_300-prng-1,30_issda_300,300,rng-300,261,rng,num-start-561,561,25726,12.20051908493042,True,,True,1,False,1000,True,1.0
./expes/v2_2020-12-03_dh_300-prng-1,30_issda_300,300,rng-300,11,rng,num-start-371,371,25726,8.702571392059326,True,,True,1,False,1000,True,1.0
./expes/v2_2020-12-03_dh_300-prng-1,30_issda_300,300,rng-300,111,rng,num-start-71,71,25726,1001.4368498325348,False,,False,0,True,1000,True,0.0
./expes/v2_2020-12-03_dh_300-prng-1,30_issda_300,300,rng-300,211,rng,num-start-691,691,25726,17.31852650642395,True,,True,1,False,1000,True,1.0
./expes/v2_2020-12-03_dh_300-prng-1,30_issda_300,300,rng-300,221,rng,num-start-571,571,25726,13.965099334716797,True,,True,1,False,1000,True,1.0
./expes/v2_2020-12-03_dh_300-prng-1,30_issda_300,300,rng-300,191,rng,num-start-591,591,25726,13.838173627853394,True,,True,1,False,1000,True,1.0
./expes/v2_2020-12-03_dh_300-prng-1,30_issda_300,300,rng-300,281,rng,num-start-211,211,25726,4.836500406265259,True,,True,1,False,1000,True,1.0
./expes/v2_2020-12-03_dh_300-prng-1,30_issda_300,300,rng-300,201,rng,num-start-431,431,25726,12.863904237747192,True,,True,1,False,1000,True,1.0
./expes/v2_2020-12-03_dh_300-prng-1,30_issda_300,300,rng-300,141,rng,num-start-151,151,25726,8.814094543457031,True,,True,1,False,1000,True,1.0
./expes/v2_2020-12-03_dh_300-prng-1,30_issda_300,300,rng-300,191,rng,num-start-311,311,25726,8.432460308074951,True,,True,1,False,1000,True,1.0
./expes/v2_2020-12-03_dh_300-prng-1,30_issda_300,300,rng-300,101,rng,num-start-201,201,25726,5.04350209236145,True,,True,1,False,1000,True,1.0
./expes/v2_2020-12-03_dh_300-prng-1,30_issda_300,300,rng-300,201,rng,num-start-461,461,25726,10.508251667022705,True,,True,1,False,1000,True,1.0
./expes/v2_2020-12-03_dh_300-prng-1,30_issda_300,300,rng-300,81,rng,num-start-611,611,25726,14.245442867279053,True,,True,1,False,1000,True,1.0
./expes/v2_2020-12-03_dh_300-prng-1,30_issda_300,300,rng-300,71,rng,num-start-441,441,25726,13.956112623214722,True,,True,1,False,1000,True,1.0
./expes/v2_2020-12-03_dh_300-prng-1,30_issda_300,300,rng-300,291,rng,num-start-941,941,25726,18.679847240447998,True,,True,1,False,1000,True,1.0
./expes/v2_2020-12-03_dh_300-prng-1,30_issda_300,300,rng-300,61,rng,num-start-511,511,25726,13.873550176620483,True,,True,1,False,1000,True,1.0
./expes/v2_2020-12-03_dh_300-prng-1,30_issda_300,300,rng-300,191,rng,num-start-311,311,25726,8.574792385101318,True,,True,1,False,1000,True,1.0
./expes/v2_2020-12-03_dh_300-prng-1,30_issda_300,300,rng-300,31,rng,num-start-951,951,25726,24.473078727722168,True,,True,1,False,1000,True,1.0
./expes/v2_2020-12-03_dh_300-prng-1,30_issda_300,300,rng-300,201,rng,num-start-991,991,25726,27.10923457145691,True,,True,1,False,1000,True,1.0
./expes/v2_2020-12-03_dh_300-prng-1,30_issda_300,300,rng-300,21,rng,num-start-531,531,25726,15.001447677612305,True,,True,1,False,1000,True,1.0
./expes/v2_2020-12-03_dh_300-prng-1,30_issda_300,300,rng-300,251,rng,num-start-241,241,25726,5.9469099044799805,True,,True,1,False,1000,True,1.0
./expes/v2_2020-12-03_dh_300-prng-1,30_issda_300,300,rng-300,211,rng,num-start-591,591,25726,18.34265446662903,True,,True,1,False,1000,True,1.0
./expes/v2_2020-12-03_dh_300-prng-1,30_issda_300,300,rng-300,151,rng,num-start-261,261,25726,6.955578327178955,True,,True,1,False,1000,True,1.0
./expes/v2_2020-12-03_dh_300-prng-1,30_issda_300,300,rng-300,71,rng,num-start-321,321,25726,7.383743047714233,True,,True,1,False,1000,True,1.0
./expes/v2_2020-12-03_dh_300-prng-1,30_issda_300,300,rng-300,291,rng,num-start-961,961,25726,18.53891372680664,True,,True,1,False,1000,True,1.0
./expes/v2_2020-12-03_dh_300-prng-1,30_issda_300,300,rng-300,91,rng,num-start-691,691,25726,19.87859606742859,True,,True,1,False,1000,True,1.0
./expes/v2_2020-12-03_dh_300-prng-1,30_issda_300,300,rng-300,181,rng,num-start-421,421,25726,12.77022647857666,True,,True,1,False,1000,True,1.0
./expes/v2_2020-12-03_dh_300-prng-1,30_issda_300,300,rng-300,251,rng,num-start-851,851,25726,22.868201971054077,True,,True,1,False,1000,True,1.0
./expes/v2_2020-12-03_dh_300-prng-1,30_issda_300,300,rng-300,181,rng,num-start-451,451,25726,13.404463052749634,True,,True,1,False,1000,True,1.0
./expes/v2_2020-12-03_dh_300-prng-1,30_issda_300,300,rng-300,71,rng,num-start-821,821,25726,21.06424570083618,True,,True,1,False,1000,True,1.0
./expes/v2_2020-12-03_dh_300-prng-1,30_issda_300,300,rng-300,101,rng,num-start-241,241,25726,6.64331579208374,True,,True,1,False,1000,True,1.0
./expes/v2_2020-12-03_dh_300-prng-1,30_issda_300,300,rng-300,231,rng,num-start-861,861,25726,24.25035572052002,True,,True,1,False,1000,True,1.0
./expes/v2_2020-12-03_dh_300-prng-1,30_issda_300,300,rng-300,11,rng,num-start-981,981,25726,20.305646657943726,True,,True,1,False,1000,True,1.0
./expes/v2_2020-12-03_dh_300-prng-1,30_issda_300,300,rng-300,91,rng,num-start-261,261,25726,6.566176891326904,True,,True,1,False,1000,True,1.0
./expes/v2_2020-12-03_dh_300-prng-1,30_issda_300,300,rng-300,171,rng,num-start-931,931,25726,25.997815370559692,True,,True,1,False,1000,True,1.0
./expes/v2_2020-12-03_dh_300-prng-1,30_issda_300,300,rng-300,51,rng,num-start-821,821,25726,23.4713773727417,True,,True,1,False,1000,True,1.0
./expes/v2_2020-12-03_dh_300-prng-1,30_issda_300,300,rng-300,81,rng,num-start-881,881,25726,27.660297393798828,True,,True,1,False,1000,True,1.0
./expes/v2_2020-12-03_dh_300-prng-1,30_issda_300,300,rng-300,151,rng,num-start-541,541,25726,15.871132135391235,True,,True,1,False,1000,True,1.0
./expes/v2_2020-12-03_dh_300-prng-1,30_issda_300,300,rng-300,81,rng,num-start-671,671,25726,16.672243356704712,True,,True,1,False,1000,True,1.0
./expes/v2_2020-12-03_dh_300-prng-1,30_issda_300,300,rng-300,151,rng,num-start-101,101,25726,12.959124088287354,True,,True,1,False,1000,True,1.0
./expes/v2_2020-12-03_dh_300-prng-1,30_issda_300,300,rng-300,141,rng,num-start-971,971,25726,27.63133478164673,True,,True,1,False,1000,True,1.0
./expes/v2_2020-12-03_dh_300-prng-1,30_issda_300,300,rng-300,211,rng,num-start-771,771,25726,22.264264822006226,True,,True,1,False,1000,True,1.0
./expes/v2_2020-12-03_dh_300-prng-1,30_issda_300,300,rng-300,81,rng,num-start-701,701,25726,22.106795072555542,True,,True,1,False,1000,True,1.0
./expes/v2_2020-12-03_dh_300-prng-1,30_issda_300,300,rng-300,71,rng,num-start-281,281,25726,6.849586725234985,True,,True,1,False,1000,True,1.0
./expes/v2_2020-12-03_dh_300-prng-1,30_issda_300,300,rng-300,181,rng,num-start-631,631,25726,16.86246156692505,True,,True,1,False,1000,True,1.0
./expes/v2_2020-12-03_dh_300-prng-1,30_issda_300,300,rng-300,81,rng,num-start-261,261,25726,7.580596208572388,True,,True,1,False,1000,True,1.0
./expes/v2_2020-12-03_dh_300-prng-1,30_issda_300,300,rng-300,171,rng,num-start-381,381,25726,9.957424879074097,True,,True,1,False,1000,True,1.0
./expes/v2_2020-12-03_dh_300-prng-1,30_issda_300,300,rng-300,181,rng,num-start-841,841,25726,23.16644811630249,True,,True,1,False,1000,True,1.0
./expes/v2_2020-12-03_dh_300-prng-1,30_issda_300,300,rng-300,1,rng,num-start-11,11,25726,0.19355344772338867,True,,True,1,False,1000,True,1.0
./expes/v2_2020-12-03_dh_300-prng-1,30_issda_300,300,rng-300,201,rng,num-start-441,441,25726,10.724337577819824,True,,True,1,False,1000,True,1.0
./expes/v2_2020-12-03_dh_300-prng-1,30_issda_300,300,rng-300,171,rng,num-start-411,411,25726,11.03069257736206,True,,True,1,False,1000,True,1.0
./expes/v2_2020-12-03_dh_300-prng-1,30_issda_300,300,rng-300,21,rng,num-start-941,941,25726,23.79731822013855,True,,True,1,False,1000,True,1.0
./expes/v2_2020-12-03_dh_300-prng-1,30_issda_300,300,rng-300,241,rng,num-start-391,391,25726,9.851714134216309,True,,True,1,False,1000,True,1.0
./expes/v2_2020-12-03_dh_300-prng-1,30_issda_300,300,rng-300,281,rng,num-start-301,301,25726,6.137483835220337,True,,True,1,False,1000,True,1.0
./expes/v2_2020-12-03_dh_300-prng-1,30_issda_300,300,rng-300,61,rng,num-start-401,401,25726,9.777001142501831,True,,True,1,False,1000,True,1.0
./expes/v2_2020-12-03_dh_300-prng-1,30_issda_300,300,rng-300,31,rng,num-start-301,301,25726,7.546000719070435,True,,True,1,False,1000,True,1.0
./expes/v2_2020-12-03_dh_300-prng-1,30_issda_300,300,rng-300,1,rng,num-start-551,551,25726,10.008578777313232,True,,True,1,False,1000,True,1.0
./expes/v2_2020-12-03_dh_300-prng-1,30_issda_300,300,rng-300,151,rng,num-start-621,621,25726,17.762559175491333,True,,True,1,False,1000,True,1.0
./expes/v2_2020-12-03_dh_300-prng-1,30_issda_300,300,rng-300,201,rng,num-start-411,411,25726,10.449345350265503,True,,True,1,False,1000,True,1.0
./expes/v2_2020-12-03_dh_300-prng-1,30_issda_300,300,rng-300,111,rng,num-start-861,861,25726,25.15133047103882,True,,True,1,False,1000,True,1.0
./expes/v2_2020-12-03_dh_300-prng-1,30_issda_300,300,rng-300,111,rng,num-start-11,11,25726,1000.2796561717987,False,,False,0,True,1000,True,0.0
./expes/v2_2020-12-03_dh_300-prng-1,30_issda_300,300,rng-300,151,rng,num-start-961,961,25726,26.207686185836792,True,,True,1,False,1000,True,1.0
./expes/v2_2020-12-03_dh_300-prng-1,30_issda_300,300,rng-300,211,rng,num-start-521,521,25726,13.851371049880981,True,,True,1,False,1000,True,1.0
./expes/v2_2020-12-03_dh_300-prng-1,30_issda_300,300,rng-300,31,rng,num-start-311,311,25726,8.128430843353271,True,,True,1,False,1000,True,1.0
./expes/v2_2020-12-03_dh_300-prng-1,30_issda_300,300,rng-300,1,rng,num-start-281,281,25726,5.088763236999512,True,,True,1,False,1000,True,1.0
./expes/v2_2020-12-03_dh_300-prng-1,30_issda_300,300,rng-300,191,rng,num-start-101,101,25726,1001.8022181987762,False,,False,0,True,1000,True,0.0
./expes/v2_2020-12-03_dh_300-prng-1,30_issda_300,300,rng-300,181,rng,num-start-271,271,25726,7.759892702102661,True,,True,1,False,1000,True,1.0
./expes/v2_2020-12-03_dh_300-prng-1,30_issda_300,300,rng-300,181,rng,num-start-781,781,25726,21.81465196609497,True,,True,1,False,1000,True,1.0
./expes/v2_2020-12-03_dh_300-prng-1,30_issda_300,300,rng-300,221,rng,num-start-121,121,25726,7.186913013458252,True,,True,1,False,1000,True,1.0
./expes/v2_2020-12-03_dh_300-prng-1,30_issda_300,300,rng-300,71,rng,num-start-141,141,25726,3.989824056625366,True,,True,1,False,1000,True,1.0
./expes/v2_2020-12-03_dh_300-prng-1,30_issda_300,300,rng-300,71,rng,num-start-831,831,25726,23.14714741706848,True,,True,1,False,1000,True,1.0
./expes/v2_2020-12-03_dh_300-prng-1,30_issda_300,300,rng-300,81,rng,num-start-441,441,25726,10.456966876983643,True,,True,1,False,1000,True,1.0
./expes/v2_2020-12-03_dh_300-prng-1,30_issda_300,300,rng-300,101,rng,num-start-191,191,25726,4.9574127197265625,True,,True,1,False,1000,True,1.0
./expes/v2_2020-12-03_dh_300-prng-1,30_issda_300,300,rng-300,71,rng,num-start-101,101,25726,5.332237243652344,True,,True,1,False,1000,True,1.0
./expes/v2_2020-12-03_dh_300-prng-1,30_issda_300,300,rng-300,81,rng,num-start-901,901,25726,24.83562707901001,True,,True,1,False,1000,True,1.0
./expes/v2_2020-12-03_dh_300-prng-1,30_issda_300,300,rng-300,201,rng,num-start-11,11,25726,1000.3101906776428,False,,False,0,True,1000,True,0.0
./expes/v2_2020-12-03_dh_300-prng-1,30_issda_300,300,rng-300,11,rng,num-start-821,821,25726,17.588196516036987,True,,True,1,False,1000,True,1.0
./expes/v2_2020-12-03_dh_300-prng-1,30_issda_300,300,rng-300,231,rng,num-start-281,281,25726,6.822878360748291,True,,True,1,False,1000,True,1.0
./expes/v2_2020-12-03_dh_300-prng-1,30_issda_300,300,rng-300,181,rng,num-start-511,511,25726,16.40845775604248,True,,True,1,False,1000,True,1.0
./expes/v2_2020-12-03_dh_300-prng-1,30_issda_300,300,rng-300,231,rng,num-start-311,311,25726,8.63922643661499,True,,True,1,False,1000,True,1.0
./expes/v2_2020-12-03_dh_300-prng-1,30_issda_300,300,rng-300,31,rng,num-start-441,441,25726,10.167124032974243,True,,True,1,False,1000,True,1.0
./expes/v2_2020-12-03_dh_300-prng-1,30_issda_300,300,rng-300,211,rng,num-start-891,891,25726,25.214998722076416,True,,True,1,False,1000,True,1.0
./expes/v2_2020-12-03_dh_300-prng-1,30_issda_300,300,rng-300,1,rng,num-start-771,771,25726,14.57420825958252,True,,True,1,False,1000,True,1.0
./expes/v2_2020-12-03_dh_300-prng-1,30_issda_300,300,rng-300,271,rng,num-start-761,761,25726,18.18632745742798,True,,True,1,False,1000,True,1.0
./expes/v2_2020-12-03_dh_300-prng-1,30_issda_300,300,rng-300,271,rng,num-start-501,501,25726,11.855006456375122,True,,True,1,False,1000,True,1.0
./expes/v2_2020-12-03_dh_300-prng-1,30_issda_300,300,rng-300,251,rng,num-start-531,531,25726,17.428602933883667,True,,True,1,False,1000,True,1.0
./expes/v2_2020-12-03_dh_300-prng-1,30_issda_300,300,rng-300,1,rng,num-start-781,781,25726,14.76786208152771,True,,True,1,False,1000,True,1.0
./expes/v2_2020-12-03_dh_300-prng-1,30_issda_300,300,rng-300,191,rng,num-start-211,211,25726,5.448143005371094,True,,True,1,False,1000,True,1.0
./expes/v2_2020-12-03_dh_300-prng-1,30_issda_300,300,rng-300,1,rng,num-start-761,761,25726,15.268174171447754,True,,True,1,False,1000,True,1.0
./expes/v2_2020-12-03_dh_300-prng-1,30_issda_300,300,rng-300,251,rng,num-start-701,701,25726,16.42555046081543,True,,True,1,False,1000,True,1.0
./expes/v2_2020-12-03_dh_300-prng-1,30_issda_300,300,rng-300,151,rng,num-start-21,21,25726,1000.5436968803406,False,,False,0,True,1000,True,0.0
./expes/v2_2020-12-03_dh_300-prng-1,30_issda_300,300,rng-300,191,rng,num-start-131,131,25726,7.761985540390015,True,,True,1,False,1000,True,1.0
./expes/v2_2020-12-03_dh_300-prng-1,30_issda_300,300,rng-300,61,rng,num-start-271,271,25726,7.436971187591553,True,,True,1,False,1000,True,1.0
./expes/v2_2020-12-03_dh_300-prng-1,30_issda_300,300,rng-300,161,rng,num-start-331,331,25726,9.62512469291687,True,,True,1,False,1000,True,1.0
./expes/v2_2020-12-03_dh_300-prng-1,30_issda_300,300,rng-300,41,rng,num-start-31,31,25726,1000.6249842643738,False,,False,0,True,1000,True,0.0
./expes/v2_2020-12-03_dh_300-prng-1,30_issda_300,300,rng-300,11,rng,num-start-331,331,25726,7.554697036743164,True,,True,1,False,1000,True,1.0
./expes/v2_2020-12-03_dh_300-prng-1,30_issda_300,300,rng-300,171,rng,num-start-51,51,25726,1001.1315534114838,False,,False,0,True,1000,True,0.0
./expes/v2_2020-12-03_dh_300-prng-1,30_issda_300,300,rng-300,131,rng,num-start-941,941,25726,25.51396608352661,True,,True,1,False,1000,True,1.0
./expes/v2_2020-12-03_dh_300-prng-1,30_issda_300,300,rng-300,111,rng,num-start-631,631,25726,16.444556951522827,True,,True,1,False,1000,True,1.0
./expes/v2_2020-12-03_dh_300-prng-1,30_issda_300,300,rng-300,81,rng,num-start-81,81,25726,52.0364556312561,False,,False,2,False,1000,True,1.0
./expes/v2_2020-12-03_dh_300-prng-1,30_issda_300,300,rng-300,1,rng,num-start-71,71,25726,1.3576247692108154,True,,True,1,False,1000,True,1.0
./expes/v2_2020-12-03_dh_300-prng-1,30_issda_300,300,rng-300,211,rng,num-start-141,141,25726,3.9591336250305176,True,,True,1,False,1000,True,1.0
./expes/v2_2020-12-03_dh_300-prng-1,30_issda_300,300,rng-300,31,rng,num-start-971,971,25726,24.97185707092285,True,,True,1,False,1000,True,1.0
./expes/v2_2020-12-03_dh_300-prng-1,30_issda_300,300,rng-300,231,rng,num-start-611,611,25726,18.09410524368286,True,,True,1,False,1000,True,1.0
./expes/v2_2020-12-03_dh_300-prng-1,30_issda_300,300,rng-300,31,rng,num-start-391,391,25726,11.204574584960938,True,,True,1,False,1000,True,1.0
./expes/v2_2020-12-03_dh_300-prng-1,30_issda_300,300,rng-300,201,rng,num-start-911,911,25726,26.909680128097534,True,,True,1,False,1000,True,1.0
./expes/v2_2020-12-03_dh_300-prng-1,30_issda_300,300,rng-300,271,rng,num-start-971,971,25726,24.90535068511963,True,,True,1,False,1000,True,1.0
./expes/v2_2020-12-03_dh_300-prng-1,30_issda_300,300,rng-300,171,rng,num-start-1,1,25726,0.11040115356445312,False,,False,2,False,1000,True,1.0
./expes/v2_2020-12-03_dh_300-prng-1,30_issda_300,300,rng-300,251,rng,num-start-951,951,25726,26.199482679367065,True,,True,1,False,1000,True,1.0
./expes/v2_2020-12-03_dh_300-prng-1,30_issda_300,300,rng-300,171,rng,num-start-11,11,25726,1000.3523089885712,False,,False,0,True,1000,True,0.0
./expes/v2_2020-12-03_dh_300-prng-1,30_issda_300,300,rng-300,201,rng,num-start-301,301,25726,9.026171922683716,True,,True,1,False,1000,True,1.0
./expes/v2_2020-12-03_dh_300-prng-1,30_issda_300,300,rng-300,191,rng,num-start-621,621,25726,15.723347663879395,True,,True,1,False,1000,True,1.0
./expes/v2_2020-12-03_dh_300-prng-1,30_issda_300,300,rng-300,181,rng,num-start-701,701,25726,19.342981100082397,True,,True,1,False,1000,True,1.0
./expes/v2_2020-12-03_dh_300-prng-1,30_issda_300,300,rng-300,41,rng,num-start-311,311,25726,8.683359861373901,True,,True,1,False,1000,True,1.0
./expes/v2_2020-12-03_dh_300-prng-1,30_issda_300,300,rng-300,51,rng,num-start-721,721,25726,17.780324935913086,True,,True,1,False,1000,True,1.0
./expes/v2_2020-12-03_dh_300-prng-1,30_issda_300,300,rng-300,221,rng,num-start-131,131,25726,4.235674619674683,True,,True,1,False,1000,True,1.0
./expes/v2_2020-12-03_dh_300-prng-1,30_issda_300,300,rng-300,221,rng,num-start-181,181,25726,5.126457452774048,True,,True,1,False,1000,True,1.0
./expes/v2_2020-12-03_dh_300-prng-1,30_issda_300,300,rng-300,291,rng,num-start-111,111,25726,2.2905161380767822,True,,True,1,False,1000,True,1.0
./expes/v2_2020-12-03_dh_300-prng-1,30_issda_300,300,rng-300,81,rng,num-start-971,971,25726,24.52478551864624,True,,True,1,False,1000,True,1.0
./expes/v2_2020-12-03_dh_300-prng-1,30_issda_300,300,rng-300,121,rng,num-start-851,851,25726,23.136670112609863,True,,True,1,False,1000,True,1.0
./expes/v2_2020-12-03_dh_300-prng-1,30_issda_300,300,rng-300,111,rng,num-start-131,131,25726,6.9866557121276855,True,,True,1,False,1000,True,1.0
./expes/v2_2020-12-03_dh_300-prng-1,30_issda_300,300,rng-300,131,rng,num-start-721,721,25726,19.47622561454773,True,,True,1,False,1000,True,1.0
./expes/v2_2020-12-03_dh_300-prng-1,30_issda_300,300,rng-300,51,rng,num-start-41,41,25726,1000.8258540630341,False,,False,0,True,1000,True,0.0
./expes/v2_2020-12-03_dh_300-prng-1,30_issda_300,300,rng-300,71,rng,num-start-681,681,25726,15.758368730545044,True,,True,1,False,1000,True,1.0
./expes/v2_2020-12-03_dh_300-prng-1,30_issda_300,300,rng-300,81,rng,num-start-291,291,25726,8.823741912841797,True,,True,1,False,1000,True,1.0
./expes/v2_2020-12-03_dh_300-prng-1,30_issda_300,300,rng-300,181,rng,num-start-721,721,25726,19.10785675048828,True,,True,1,False,1000,True,1.0
./expes/v2_2020-12-03_dh_300-prng-1,30_issda_300,300,rng-300,41,rng,num-start-391,391,25726,9.618651151657104,True,,True,1,False,1000,True,1.0
./expes/v2_2020-12-03_dh_300-prng-1,30_issda_300,300,rng-300,281,rng,num-start-411,411,25726,8.903651714324951,True,,True,1,False,1000,True,1.0
./expes/v2_2020-12-03_dh_300-prng-1,30_issda_300,300,rng-300,201,rng,num-start-401,401,25726,10.774180889129639,True,,True,1,False,1000,True,1.0
./expes/v2_2020-12-03_dh_300-prng-1,30_issda_300,300,rng-300,201,rng,num-start-181,181,25726,4.664598703384399,True,,True,1,False,1000,True,1.0
./expes/v2_2020-12-03_dh_300-prng-1,30_issda_300,300,rng-300,151,rng,num-start-841,841,25726,20.279776334762573,True,,True,1,False,1000,True,1.0
./expes/v2_2020-12-03_dh_300-prng-1,30_issda_300,300,rng-300,61,rng,num-start-361,361,25726,8.958932876586914,True,,True,1,False,1000,True,1.0
./expes/v2_2020-12-03_dh_300-prng-1,30_issda_300,300,rng-300,221,rng,num-start-881,881,25726,20.325623035430908,True,,True,1,False,1000,True,1.0
./expes/v2_2020-12-03_dh_300-prng-1,30_issda_300,300,rng-300,31,rng,num-start-581,581,25726,14.083224296569824,True,,True,1,False,1000,True,1.0
./expes/v2_2020-12-03_dh_300-prng-1,30_issda_300,300,rng-300,281,rng,num-start-441,441,25726,8.581166744232178,True,,True,1,False,1000,True,1.0
./expes/v2_2020-12-03_dh_300-prng-1,30_issda_300,300,rng-300,191,rng,num-start-981,981,25726,25.328537225723267,True,,True,1,False,1000,True,1.0
./expes/v2_2020-12-03_dh_300-prng-1,30_issda_300,300,rng-300,191,rng,num-start-831,831,25726,24.531972885131836,True,,True,1,False,1000,True,1.0
./expes/v2_2020-12-03_dh_300-prng-1,30_issda_300,300,rng-300,21,rng,num-start-291,291,25726,7.107811450958252,True,,True,1,False,1000,True,1.0
./expes/v2_2020-12-03_dh_300-prng-1,30_issda_300,300,rng-300,111,rng,num-start-821,821,25726,19.667463541030884,True,,True,1,False,1000,True,1.0
./expes/v2_2020-12-03_dh_300-prng-1,30_issda_300,300,rng-300,61,rng,num-start-791,791,25726,19.948342323303223,True,,True,1,False,1000,True,1.0
./expes/v2_2020-12-03_dh_300-prng-1,30_issda_300,300,rng-300,101,rng,num-start-351,351,25726,9.995336055755615,True,,True,1,False,1000,True,1.0
./expes/v2_2020-12-03_dh_300-prng-1,30_issda_300,300,rng-300,61,rng,num-start-471,471,25726,11.567317008972168,True,,True,1,False,1000,True,1.0
./expes/v2_2020-12-03_dh_300-prng-1,30_issda_300,300,rng-300,141,rng,num-start-431,431,25726,10.976973533630371,True,,True,1,False,1000,True,1.0
./expes/v2_2020-12-03_dh_300-prng-1,30_issda_300,300,rng-300,131,rng,num-start-701,701,25726,20.21587324142456,True,,True,1,False,1000,True,1.0
./expes/v2_2020-12-03_dh_300-prng-1,30_issda_300,300,rng-300,101,rng,num-start-961,961,25726,24.373643159866333,True,,True,1,False,1000,True,1.0
./expes/v2_2020-12-03_dh_300-prng-1,30_issda_300,300,rng-300,231,rng,num-start-901,901,25726,21.86368489265442,True,,True,1,False,1000,True,1.0
./expes/v2_2020-12-03_dh_300-prng-1,30_issda_300,300,rng-300,211,rng,num-start-491,491,25726,13.053892135620117,True,,True,1,False,1000,True,1.0
./expes/v2_2020-12-03_dh_300-prng-1,30_issda_300,300,rng-300,1,rng,num-start-831,831,25726,15.918006658554077,True,,True,1,False,1000,True,1.0
./expes/v2_2020-12-03_dh_300-prng-1,30_issda_300,300,rng-300,11,rng,num-start-391,391,25726,9.33558464050293,True,,True,1,False,1000,True,1.0
./expes/v2_2020-12-03_dh_300-prng-1,30_issda_300,300,rng-300,21,rng,num-start-771,771,25726,21.735926628112793,True,,True,1,False,1000,True,1.0
./expes/v2_2020-12-03_dh_300-prng-1,30_issda_300,300,rng-300,291,rng,num-start-721,721,25726,19.915043354034424,True,,True,1,False,1000,True,1.0
./expes/v2_2020-12-03_dh_300-prng-1,30_issda_300,300,rng-300,41,rng,num-start-701,701,25726,20.491297721862793,True,,True,1,False,1000,True,1.0
./expes/v2_2020-12-03_dh_300-prng-1,30_issda_300,300,rng-300,11,rng,num-start-881,881,25726,20.21208381652832,True,,True,1,False,1000,True,1.0
./expes/v2_2020-12-03_dh_300-prng-1,30_issda_300,300,rng-300,81,rng,num-start-41,41,25726,1000.9311926364899,False,,False,0,True,1000,True,0.0
./expes/v2_2020-12-03_dh_300-prng-1,30_issda_300,300,rng-300,251,rng,num-start-481,481,25726,12.411628246307373,True,,True,1,False,1000,True,1.0
./expes/v2_2020-12-03_dh_300-prng-1,30_issda_300,300,rng-300,41,rng,num-start-461,461,25726,9.919737577438354,True,,True,1,False,1000,True,1.0
./expes/v2_2020-12-03_dh_300-prng-1,30_issda_300,300,rng-300,221,rng,num-start-611,611,25726,14.299919128417969,True,,True,1,False,1000,True,1.0
./expes/v2_2020-12-03_dh_300-prng-1,30_issda_300,300,rng-300,71,rng,num-start-1,1,25726,0.0532984733581543,False,,False,2,False,1000,True,1.0
./expes/v2_2020-12-03_dh_300-prng-1,30_issda_300,300,rng-300,61,rng,num-start-11,11,25726,1000.4755725860596,False,,False,0,True,1000,True,0.0
./expes/v2_2020-12-03_dh_300-prng-1,30_issda_300,300,rng-300,1,rng,num-start-821,821,25726,14.448913335800171,True,,True,1,False,1000,True,1.0
./expes/v2_2020-12-03_dh_300-prng-1,30_issda_300,300,rng-300,221,rng,num-start-701,701,25726,20.782182693481445,True,,True,1,False,1000,True,1.0
./expes/v2_2020-12-03_dh_300-prng-1,30_issda_300,300,rng-300,161,rng,num-start-821,821,25726,24.155226945877075,True,,True,1,False,1000,True,1.0
./expes/v2_2020-12-03_dh_300-prng-1,30_issda_300,300,rng-300,251,rng,num-start-771,771,25726,17.95992374420166,True,,True,1,False,1000,True,1.0
./expes/v2_2020-12-03_dh_300-prng-1,30_issda_300,300,rng-300,161,rng,num-start-491,491,25726,14.745179891586304,True,,True,1,False,1000,True,1.0
./expes/v2_2020-12-03_dh_300-prng-1,30_issda_300,300,rng-300,221,rng,num-start-411,411,25726,10.554243326187134,True,,True,1,False,1000,True,1.0
./expes/v2_2020-12-03_dh_300-prng-1,30_issda_300,300,rng-300,261,rng,num-start-291,291,25726,7.459923505783081,True,,True,1,False,1000,True,1.0
./expes/v2_2020-12-03_dh_300-prng-1,30_issda_300,300,rng-300,81,rng,num-start-761,761,25726,19.563244581222534,True,,True,1,False,1000,True,1.0
./expes/v2_2020-12-03_dh_300-prng-1,30_issda_300,300,rng-300,1,rng,num-start-821,821,25726,15.675113439559937,True,,True,1,False,1000,True,1.0
./expes/v2_2020-12-03_dh_300-prng-1,30_issda_300,300,rng-300,41,rng,num-start-191,191,25726,5.1892921924591064,True,,True,1,False,1000,True,1.0
./expes/v2_2020-12-03_dh_300-prng-1,30_issda_300,300,rng-300,121,rng,num-start-481,481,25726,11.307998418807983,True,,True,1,False,1000,True,1.0
./expes/v2_2020-12-03_dh_300-prng-1,30_issda_300,300,rng-300,51,rng,num-start-551,551,25726,13.883355379104614,True,,True,1,False,1000,True,1.0
./expes/v2_2020-12-03_dh_300-prng-1,30_issda_300,300,rng-300,291,rng,num-start-751,751,25726,14.482837200164795,True,,True,1,False,1000,True,1.0
./expes/v2_2020-12-03_dh_300-prng-1,30_issda_300,300,rng-300,131,rng,num-start-231,231,25726,6.487821102142334,True,,True,1,False,1000,True,1.0
./expes/v2_2020-12-03_dh_300-prng-1,30_issda_300,300,rng-300,171,rng,num-start-931,931,25726,21.887401342391968,True,,True,1,False,1000,True,1.0
./expes/v2_2020-12-03_dh_300-prng-1,30_issda_300,300,rng-300,281,rng,num-start-581,581,25726,12.425093412399292,True,,True,1,False,1000,True,1.0
./expes/v2_2020-12-03_dh_300-prng-1,30_issda_300,300,rng-300,261,rng,num-start-121,121,25726,3.1265413761138916,True,,True,1,False,1000,True,1.0
./expes/v2_2020-12-03_dh_300-prng-1,30_issda_300,300,rng-300,151,rng,num-start-161,161,25726,5.0298309326171875,True,,True,1,False,1000,True,1.0
./expes/v2_2020-12-03_dh_300-prng-1,30_issda_300,300,rng-300,161,rng,num-start-31,31,25726,1000.6489417552948,False,,False,0,True,1000,True,0.0
./expes/v2_2020-12-03_dh_300-prng-1,30_issda_300,300,rng-300,41,rng,num-start-51,51,25726,24.819014310836792,True,,True,1,False,1000,True,1.0
./expes/v2_2020-12-03_dh_300-prng-1,30_issda_300,300,rng-300,101,rng,num-start-881,881,25726,27.399362802505493,True,,True,1,False,1000,True,1.0
./expes/v2_2020-12-03_dh_300-prng-1,30_issda_300,300,rng-300,251,rng,num-start-761,761,25726,20.682002067565918,True,,True,1,False,1000,True,1.0
./expes/v2_2020-12-03_dh_300-prng-1,30_issda_300,300,rng-300,31,rng,num-start-891,891,25726,23.76265001296997,True,,True,1,False,1000,True,1.0
./expes/v2_2020-12-03_dh_300-prng-1,30_issda_300,300,rng-300,41,rng,num-start-21,21,25726,1000.6110870838165,False,,False,0,True,1000,True,0.0
./expes/v2_2020-12-03_dh_300-prng-1,30_issda_300,300,rng-300,71,rng,num-start-601,601,25726,15.504281044006348,True,,True,1,False,1000,True,1.0
./expes/v2_2020-12-03_dh_300-prng-1,30_issda_300,300,rng-300,171,rng,num-start-221,221,25726,6.220815658569336,True,,True,1,False,1000,True,1.0
./expes/v2_2020-12-03_dh_300-prng-1,30_issda_300,300,rng-300,11,rng,num-start-201,201,25726,4.480911016464233,True,,True,1,False,1000,True,1.0
./expes/v2_2020-12-03_dh_300-prng-1,30_issda_300,300,rng-300,121,rng,num-start-731,731,25726,16.585748434066772,True,,True,1,False,1000,True,1.0
./expes/v2_2020-12-03_dh_300-prng-1,30_issda_300,300,rng-300,71,rng,num-start-831,831,25726,18.7489492893219,True,,True,1,False,1000,True,1.0
./expes/v2_2020-12-03_dh_300-prng-1,30_issda_300,300,rng-300,171,rng,num-start-471,471,25726,13.230923891067505,True,,True,1,False,1000,True,1.0
./expes/v2_2020-12-03_dh_300-prng-1,30_issda_300,300,rng-300,271,rng,num-start-991,991,25726,23.921478748321533,True,,True,1,False,1000,True,1.0
./expes/v2_2020-12-03_dh_300-prng-1,30_issda_300,300,rng-300,21,rng,num-start-651,651,25726,15.331387519836426,True,,True,1,False,1000,True,1.0
./expes/v2_2020-12-03_dh_300-prng-1,30_issda_300,300,rng-300,81,rng,num-start-41,41,25726,1000.7624258995056,False,,False,0,True,1000,True,0.0
./expes/v2_2020-12-03_dh_300-prng-1,30_issda_300,300,rng-300,151,rng,num-start-681,681,25726,22.431234121322632,True,,True,1,False,1000,True,1.0
./expes/v2_2020-12-03_dh_300-prng-1,30_issda_300,300,rng-300,171,rng,num-start-501,501,25726,15.988948106765747,True,,True,1,False,1000,True,1.0
./expes/v2_2020-12-03_dh_300-prng-1,30_issda_300,300,rng-300,271,rng,num-start-221,221,25726,6.055479049682617,True,,True,1,False,1000,True,1.0
./expes/v2_2020-12-03_dh_300-prng-1,30_issda_300,300,rng-300,101,rng,num-start-951,951,25726,27.38338589668274,True,,True,1,False,1000,True,1.0
./expes/v2_2020-12-03_dh_300-prng-1,30_issda_300,300,rng-300,221,rng,num-start-911,911,25726,22.642924308776855,True,,True,1,False,1000,True,1.0
./expes/v2_2020-12-03_dh_300-prng-1,30_issda_300,300,rng-300,111,rng,num-start-381,381,25726,11.517842769622803,True,,True,1,False,1000,True,1.0
./expes/v2_2020-12-03_dh_300-prng-1,30_issda_300,300,rng-300,261,rng,num-start-531,531,25726,12.043606281280518,True,,True,1,False,1000,True,1.0
./expes/v2_2020-12-03_dh_300-prng-1,30_issda_300,300,rng-300,61,rng,num-start-21,21,25726,1000.6626100540161,False,,False,0,True,1000,True,0.0
./expes/v2_2020-12-03_dh_300-prng-1,30_issda_300,300,rng-300,11,rng,num-start-851,851,25726,16.623342752456665,True,,True,1,False,1000,True,1.0
./expes/v2_2020-12-03_dh_300-prng-1,30_issda_300,300,rng-300,151,rng,num-start-911,911,25726,25.34031343460083,True,,True,1,False,1000,True,1.0
./expes/v2_2020-12-03_dh_300-prng-1,30_issda_300,300,rng-300,1,rng,num-start-471,471,25726,8.999441623687744,True,,True,1,False,1000,True,1.0
./expes/v2_2020-12-03_dh_300-prng-1,30_issda_300,300,rng-300,291,rng,num-start-721,721,25726,14.30899977684021,True,,True,1,False,1000,True,1.0
./expes/v2_2020-12-03_dh_300-prng-1,30_issda_300,300,rng-300,61,rng,num-start-581,581,25726,13.033204793930054,True,,True,1,False,1000,True,1.0
./expes/v2_2020-12-03_dh_300-prng-1,30_issda_300,300,rng-300,51,rng,num-start-61,61,25726,1001.1378288269043,False,,False,0,True,1000,True,0.0
./expes/v2_2020-12-03_dh_300-prng-1,30_issda_300,300,rng-300,281,rng,num-start-181,181,25726,4.39445686340332,True,,True,1,False,1000,True,1.0
./expes/v2_2020-12-03_dh_300-prng-1,30_issda_300,300,rng-300,111,rng,num-start-411,411,25726,10.431112289428711,True,,True,1,False,1000,True,1.0
./expes/v2_2020-12-03_dh_300-prng-1,30_issda_300,300,rng-300,161,rng,num-start-51,51,25726,1000.9298975467682,False,,False,0,True,1000,True,0.0
./expes/v2_2020-12-03_dh_300-prng-1,30_issda_300,300,rng-300,111,rng,num-start-441,441,25726,11.869948387145996,True,,True,1,False,1000,True,1.0
./expes/v2_2020-12-03_dh_300-prng-1,30_issda_300,300,rng-300,231,rng,num-start-991,991,25726,24.719586849212646,True,,True,1,False,1000,True,1.0
./expes/v2_2020-12-03_dh_300-prng-1,30_issda_300,300,rng-300,41,rng,num-start-981,981,25726,22.575306177139282,True,,True,1,False,1000,True,1.0
./expes/v2_2020-12-03_dh_300-prng-1,30_issda_300,300,rng-300,101,rng,num-start-41,41,25726,1000.8314146995544,False,,False,0,True,1000,True,0.0
./expes/v2_2020-12-03_dh_300-prng-1,30_issda_300,300,rng-300,151,rng,num-start-221,221,25726,6.480896711349487,True,,True,1,False,1000,True,1.0
./expes/v2_2020-12-03_dh_300-prng-1,30_issda_300,300,rng-300,31,rng,num-start-281,281,25726,6.624974489212036,True,,True,1,False,1000,True,1.0
./expes/v2_2020-12-03_dh_300-prng-1,30_issda_300,300,rng-300,131,rng,num-start-561,561,25726,14.337128162384033,True,,True,1,False,1000,True,1.0
./expes/v2_2020-12-03_dh_300-prng-1,30_issda_300,300,rng-300,71,rng,num-start-341,341,25726,9.113726615905762,True,,True,1,False,1000,True,1.0
./expes/v2_2020-12-03_dh_300-prng-1,30_issda_300,300,rng-300,101,rng,num-start-191,191,25726,5.89344596862793,True,,True,1,False,1000,True,1.0
./expes/v2_2020-12-03_dh_300-prng-1,30_issda_300,300,rng-300,271,rng,num-start-321,321,25726,7.46410870552063,True,,True,1,False,1000,True,1.0
./expes/v2_2020-12-03_dh_300-prng-1,30_issda_300,300,rng-300,281,rng,num-start-1,1,25726,0.05270671844482422,False,,False,2,False,1000,True,1.0
./expes/v2_2020-12-03_dh_300-prng-1,30_issda_300,300,rng-300,21,rng,num-start-91,91,25726,2.225919485092163,True,,True,1,False,1000,True,1.0
./expes/v2_2020-12-03_dh_300-prng-1,30_issda_300,300,rng-300,231,rng,num-start-341,341,25726,9.758556842803955,True,,True,1,False,1000,True,1.0
./expes/v2_2020-12-03_dh_300-prng-1,30_issda_300,300,rng-300,111,rng,num-start-531,531,25726,17.93830704689026,True,,True,1,False,1000,True,1.0
./expes/v2_2020-12-03_dh_300-prng-1,30_issda_300,300,rng-300,131,rng,num-start-991,991,25726,26.532666206359863,True,,True,1,False,1000,True,1.0
./expes/v2_2020-12-03_dh_300-prng-1,30_issda_300,300,rng-300,201,rng,num-start-271,271,25726,7.813371896743774,True,,True,1,False,1000,True,1.0
./expes/v2_2020-12-03_dh_300-prng-1,30_issda_300,300,rng-300,61,rng,num-start-321,321,25726,9.361239433288574,True,,True,1,False,1000,True,1.0
./expes/v2_2020-12-03_dh_300-prng-1,30_issda_300,300,rng-300,81,rng,num-start-281,281,25726,8.519245624542236,True,,True,1,False,1000,True,1.0
./expes/v2_2020-12-03_dh_300-prng-1,30_issda_300,300,rng-300,151,rng,num-start-151,151,25726,6.918177127838135,True,,True,1,False,1000,True,1.0
./expes/v2_2020-12-03_dh_300-prng-1,30_issda_300,300,rng-300,71,rng,num-start-971,971,25726,25.305617332458496,True,,True,1,False,1000,True,1.0
./expes/v2_2020-12-03_dh_300-prng-1,30_issda_300,300,rng-300,81,rng,num-start-851,851,25726,24.82406735420227,True,,True,1,False,1000,True,1.0
./expes/v2_2020-12-03_dh_300-prng-1,30_issda_300,300,rng-300,221,rng,num-start-911,911,25726,23.895509243011475,True,,True,1,False,1000,True,1.0
./expes/v2_2020-12-03_dh_300-prng-1,30_issda_300,300,rng-300,181,rng,num-start-961,961,25726,26.222158432006836,True,,True,1,False,1000,True,1.0
./expes/v2_2020-12-03_dh_300-prng-1,30_issda_300,300,rng-300,11,rng,num-start-351,351,25726,7.7465527057647705,True,,True,1,False,1000,True,1.0
./expes/v2_2020-12-03_dh_300-prng-1,30_issda_300,300,rng-300,201,rng,num-start-941,941,25726,26.359621047973633,True,,True,1,False,1000,True,1.0
./expes/v2_2020-12-03_dh_300-prng-1,30_issda_300,300,rng-300,81,rng,num-start-681,681,25726,19.153738260269165,True,,True,1,False,1000,True,1.0
./expes/v2_2020-12-03_dh_300-prng-1,30_issda_300,300,rng-300,101,rng,num-start-871,871,25726,24.083327770233154,True,,True,1,False,1000,True,1.0
./expes/v2_2020-12-03_dh_300-prng-1,30_issda_300,300,rng-300,61,rng,num-start-951,951,25726,33.36286234855652,True,,True,1,False,1000,True,1.0
./expes/v2_2020-12-03_dh_300-prng-1,30_issda_300,300,rng-300,11,rng,num-start-611,611,25726,16.371611833572388,True,,True,1,False,1000,True,1.0
./expes/v2_2020-12-03_dh_300-prng-1,30_issda_300,300,rng-300,131,rng,num-start-671,671,25726,17.933114051818848,True,,True,1,False,1000,True,1.0
./expes/v2_2020-12-03_dh_300-prng-1,30_issda_300,300,rng-300,161,rng,num-start-391,391,25726,13.85206937789917,True,,True,1,False,1000,True,1.0
./expes/v2_2020-12-03_dh_300-prng-1,30_issda_300,300,rng-300,181,rng,num-start-391,391,25726,14.095020771026611,True,,True,1,False,1000,True,1.0
./expes/v2_2020-12-03_dh_300-prng-1,30_issda_300,300,rng-300,71,rng,num-start-81,81,25726,677.225656747818,True,,True,1,False,1000,True,1.0
./expes/v2_2020-12-03_dh_300-prng-1,30_issda_300,300,rng-300,11,rng,num-start-211,211,25726,4.846722841262817,True,,True,1,False,1000,True,1.0
./expes/v2_2020-12-03_dh_300-prng-1,30_issda_300,300,rng-300,191,rng,num-start-281,281,25726,6.488487720489502,True,,True,1,False,1000,True,1.0
./expes/v2_2020-12-03_dh_300-prng-1,30_issda_300,300,rng-300,191,rng,num-start-161,161,25726,4.299220085144043,True,,True,1,False,1000,True,1.0
./expes/v2_2020-12-03_dh_300-prng-1,30_issda_300,300,rng-300,211,rng,num-start-761,761,25726,20.044142484664917,True,,True,1,False,1000,True,1.0
./expes/v2_2020-12-03_dh_300-prng-1,30_issda_300,300,rng-300,281,rng,num-start-651,651,25726,15.262688875198364,True,,True,1,False,1000,True,1.0
./expes/v2_2020-12-03_dh_300-prng-1,30_issda_300,300,rng-300,121,rng,num-start-271,271,25726,7.285064458847046,True,,True,1,False,1000,True,1.0
./expes/v2_2020-12-03_dh_300-prng-1,30_issda_300,300,rng-300,281,rng,num-start-851,851,25726,21.171871185302734,True,,True,1,False,1000,True,1.0
./expes/v2_2020-12-03_dh_300-prng-1,30_issda_300,300,rng-300,201,rng,num-start-691,691,25726,20.092638969421387,True,,True,1,False,1000,True,1.0
./expes/v2_2020-12-03_dh_300-prng-1,30_issda_300,300,rng-300,251,rng,num-start-81,81,25726,3.42362642288208,True,,True,1,False,1000,True,1.0
./expes/v2_2020-12-03_dh_300-prng-1,30_issda_300,300,rng-300,161,rng,num-start-991,991,25726,26.448411464691162,True,,True,1,False,1000,True,1.0
./expes/v2_2020-12-03_dh_300-prng-1,30_issda_300,300,rng-300,71,rng,num-start-931,931,25726,21.96817445755005,True,,True,1,False,1000,True,1.0
./expes/v2_2020-12-03_dh_300-prng-1,30_issda_300,300,rng-300,281,rng,num-start-451,451,25726,12.87720775604248,True,,True,1,False,1000,True,1.0
./expes/v2_2020-12-03_dh_300-prng-1,30_issda_300,300,rng-300,171,rng,num-start-281,281,25726,7.0505146980285645,True,,True,1,False,1000,True,1.0
./expes/v2_2020-12-03_dh_300-prng-1,30_issda_300,300,rng-300,251,rng,num-start-341,341,25726,8.749206781387329,True,,True,1,False,1000,True,1.0
./expes/v2_2020-12-03_dh_300-prng-1,30_issda_300,300,rng-300,261,rng,num-start-471,471,25726,11.509368658065796,True,,True,1,False,1000,True,1.0
./expes/v2_2020-12-03_dh_300-prng-1,30_issda_300,300,rng-300,1,rng,num-start-491,491,25726,9.731010675430298,True,,True,1,False,1000,True,1.0
./expes/v2_2020-12-03_dh_300-prng-1,30_issda_300,300,rng-300,291,rng,num-start-621,621,25726,12.881450414657593,True,,True,1,False,1000,True,1.0
./expes/v2_2020-12-03_dh_300-prng-1,30_issda_300,300,rng-300,11,rng,num-start-541,541,25726,11.798332452774048,True,,True,1,False,1000,True,1.0
./expes/v2_2020-12-03_dh_300-prng-1,30_issda_300,300,rng-300,271,rng,num-start-61,61,25726,2.459805965423584,True,,True,1,False,1000,True,1.0
./expes/v2_2020-12-03_dh_300-prng-1,30_issda_300,300,rng-300,1,rng,num-start-891,891,25726,15.952410221099854,True,,True,1,False,1000,True,1.0
./expes/v2_2020-12-03_dh_300-prng-1,30_issda_300,300,rng-300,21,rng,num-start-461,461,25726,10.555472612380981,True,,True,1,False,1000,True,1.0
./expes/v2_2020-12-03_dh_300-prng-1,30_issda_300,300,rng-300,121,rng,num-start-421,421,25726,11.495355606079102,True,,True,1,False,1000,True,1.0
./expes/v2_2020-12-03_dh_300-prng-1,30_issda_300,300,rng-300,201,rng,num-start-231,231,25726,5.997741937637329,True,,True,1,False,1000,True,1.0
./expes/v2_2020-12-03_dh_300-prng-1,30_issda_300,300,rng-300,251,rng,num-start-41,41,25726,1000.8634495735168,False,,False,0,True,1000,True,0.0
./expes/v2_2020-12-03_dh_300-prng-1,30_issda_300,300,rng-300,61,rng,num-start-121,121,25726,3.1356072425842285,True,,True,1,False,1000,True,1.0
./expes/v2_2020-12-03_dh_300-prng-1,30_issda_300,300,rng-300,241,rng,num-start-131,131,25726,3.2879369258880615,True,,True,1,False,1000,True,1.0
./expes/v2_2020-12-03_dh_300-prng-1,30_issda_300,300,rng-300,171,rng,num-start-311,311,25726,8.871610641479492,True,,True,1,False,1000,True,1.0
./expes/v2_2020-12-03_dh_300-prng-1,30_issda_300,300,rng-300,11,rng,num-start-861,861,25726,17.594306707382202,True,,True,1,False,1000,True,1.0
./expes/v2_2020-12-03_dh_300-prng-1,30_issda_300,300,rng-300,291,rng,num-start-171,171,25726,3.7927448749542236,True,,True,1,False,1000,True,1.0
./expes/v2_2020-12-03_dh_300-prng-1,30_issda_300,300,rng-300,241,rng,num-start-861,861,25726,20.465068340301514,True,,True,1,False,1000,True,1.0
./expes/v2_2020-12-03_dh_300-prng-1,30_issda_300,300,rng-300,251,rng,num-start-591,591,25726,13.955991268157959,True,,True,1,False,1000,True,1.0
./expes/v2_2020-12-03_dh_300-prng-1,30_issda_300,300,rng-300,31,rng,num-start-31,31,25726,1003.3274703025818,False,,False,0,True,1000,True,0.0
./expes/v2_2020-12-03_dh_300-prng-1,30_issda_300,300,rng-300,141,rng,num-start-631,631,25726,16.008812189102173,True,,True,1,False,1000,True,1.0
./expes/v2_2020-12-03_dh_300-prng-1,30_issda_300,300,rng-300,171,rng,num-start-881,881,25726,22.62126898765564,True,,True,1,False,1000,True,1.0
./expes/v2_2020-12-03_dh_300-prng-1,30_issda_300,300,rng-300,271,rng,num-start-11,11,25726,1000.387218952179,False,,False,0,True,1000,True,0.0
./expes/v2_2020-12-03_dh_300-prng-1,30_issda_300,300,rng-300,1,rng,num-start-891,891,25726,16.98813772201538,True,,True,1,False,1000,True,1.0
./expes/v2_2020-12-03_dh_300-prng-1,30_issda_300,300,rng-300,51,rng,num-start-91,91,25726,4.6212239265441895,True,,True,1,False,1000,True,1.0
./expes/v2_2020-12-03_dh_300-prng-1,30_issda_300,300,rng-300,71,rng,num-start-701,701,25726,18.43408203125,True,,True,1,False,1000,True,1.0
./expes/v2_2020-12-03_dh_300-prng-1,30_issda_300,300,rng-300,171,rng,num-start-281,281,25726,7.19261908531189,True,,True,1,False,1000,True,1.0
./expes/v2_2020-12-03_dh_300-prng-1,30_issda_300,300,rng-300,81,rng,num-start-311,311,25726,8.819388628005981,True,,True,1,False,1000,True,1.0
./expes/v2_2020-12-03_dh_300-prng-1,30_issda_300,300,rng-300,281,rng,num-start-691,691,25726,15.517822265625,True,,True,1,False,1000,True,1.0
./expes/v2_2020-12-03_dh_300-prng-1,30_issda_300,300,rng-300,151,rng,num-start-121,121,25726,38.24972462654114,True,,True,1,False,1000,True,1.0
./expes/v2_2020-12-03_dh_300-prng-1,30_issda_300,300,rng-300,241,rng,num-start-861,861,25726,22.743523120880127,True,,True,1,False,1000,True,1.0
./expes/v2_2020-12-03_dh_300-prng-1,30_issda_300,300,rng-300,201,rng,num-start-701,701,25726,20.671888828277588,True,,True,1,False,1000,True,1.0
./expes/v2_2020-12-03_dh_300-prng-1,30_issda_300,300,rng-300,221,rng,num-start-531,531,25726,13.802786588668823,True,,True,1,False,1000,True,1.0
./expes/v2_2020-12-03_dh_300-prng-1,30_issda_300,300,rng-300,31,rng,num-start-851,851,25726,23.90245246887207,True,,True,1,False,1000,True,1.0
./expes/v2_2020-12-03_dh_300-prng-1,30_issda_300,300,rng-300,221,rng,num-start-71,71,25726,1001.4262590408325,False,,False,1,True,1000,True,0.0
./expes/v2_2020-12-03_dh_300-prng-1,30_issda_300,300,rng-300,251,rng,num-start-531,531,25726,12.957840919494629,True,,True,1,False,1000,True,1.0
./expes/v2_2020-12-03_dh_300-prng-1,30_issda_300,300,rng-300,261,rng,num-start-961,961,25726,22.661958932876587,True,,True,1,False,1000,True,1.0
./expes/v2_2020-12-03_dh_300-prng-1,30_issda_300,300,rng-300,121,rng,num-start-211,211,25726,5.902453422546387,True,,True,1,False,1000,True,1.0
./expes/v2_2020-12-03_dh_300-prng-1,30_issda_300,300,rng-300,171,rng,num-start-831,831,25726,23.300732851028442,True,,True,1,False,1000,True,1.0
./expes/v2_2020-12-03_dh_300-prng-1,30_issda_300,300,rng-300,281,rng,num-start-361,361,25726,8.789023399353027,True,,True,1,False,1000,True,1.0
./expes/v2_2020-12-03_dh_300-prng-1,30_issda_300,300,rng-300,261,rng,num-start-861,861,25726,23.492428302764893,True,,True,1,False,1000,True,1.0
./expes/v2_2020-12-03_dh_300-prng-1,30_issda_300,300,rng-300,1,rng,num-start-971,971,25726,18.53901767730713,True,,True,1,False,1000,True,1.0
./expes/v2_2020-12-03_dh_300-prng-1,30_issda_300,300,rng-300,31,rng,num-start-521,521,25726,14.136137962341309,True,,True,1,False,1000,True,1.0
./expes/v2_2020-12-03_dh_300-prng-1,30_issda_300,300,rng-300,31,rng,num-start-451,451,25726,13.293861389160156,True,,True,1,False,1000,True,1.0
./expes/v2_2020-12-03_dh_300-prng-1,30_issda_300,300,rng-300,161,rng,num-start-771,771,25726,21.170313358306885,True,,True,1,False,1000,True,1.0
./expes/v2_2020-12-03_dh_300-prng-1,30_issda_300,300,rng-300,101,rng,num-start-541,541,25726,14.105042934417725,True,,True,1,False,1000,True,1.0
./expes/v2_2020-12-03_dh_300-prng-1,30_issda_300,300,rng-300,261,rng,num-start-841,841,25726,18.873888969421387,True,,True,1,False,1000,True,1.0
./expes/v2_2020-12-03_dh_300-prng-1,30_issda_300,300,rng-300,251,rng,num-start-521,521,25726,13.8932785987854,True,,True,1,False,1000,True,1.0
./expes/v2_2020-12-03_dh_300-prng-1,30_issda_300,300,rng-300,21,rng,num-start-411,411,25726,8.830430269241333,True,,True,1,False,1000,True,1.0
./expes/v2_2020-12-03_dh_300-prng-1,30_issda_300,300,rng-300,81,rng,num-start-61,61,25726,1001.259191274643,False,,False,0,True,1000,True,0.0
./expes/v2_2020-12-03_dh_300-prng-1,30_issda_300,300,rng-300,11,rng,num-start-861,861,25726,18.875597953796387,True,,True,1,False,1000,True,1.0
./expes/v2_2020-12-03_dh_300-prng-1,30_issda_300,300,rng-300,81,rng,num-start-571,571,25726,14.296018362045288,True,,True,1,False,1000,True,1.0
./expes/v2_2020-12-03_dh_300-prng-1,30_issda_300,300,rng-300,171,rng,num-start-461,461,25726,11.953409433364868,True,,True,1,False,1000,True,1.0
./expes/v2_2020-12-03_dh_300-prng-1,30_issda_300,300,rng-300,71,rng,num-start-51,51,25726,1001.1761472225189,False,,False,0,True,1000,True,0.0
./expes/v2_2020-12-03_dh_300-prng-1,30_issda_300,300,rng-300,281,rng,num-start-351,351,25726,8.78117823600769,True,,True,1,False,1000,True,1.0
./expes/v2_2020-12-03_dh_300-prng-1,30_issda_300,300,rng-300,51,rng,num-start-611,611,25726,15.905330657958984,True,,True,1,False,1000,True,1.0
./expes/v2_2020-12-03_dh_300-prng-1,30_issda_300,300,rng-300,271,rng,num-start-21,21,25726,1000.4409205913544,False,,False,0,True,1000,True,0.0
./expes/v2_2020-12-03_dh_300-prng-1,30_issda_300,300,rng-300,81,rng,num-start-361,361,25726,10.45228099822998,True,,True,1,False,1000,True,1.0
./expes/v2_2020-12-03_dh_300-prng-1,30_issda_300,300,rng-300,201,rng,num-start-51,51,25726,1001.1123218536377,False,,False,0,True,1000,True,0.0
./expes/v2_2020-12-03_dh_300-prng-1,30_issda_300,300,rng-300,21,rng,num-start-891,891,25726,19.331205368041992,True,,True,1,False,1000,True,1.0
./expes/v2_2020-12-03_dh_300-prng-1,30_issda_300,300,rng-300,211,rng,num-start-241,241,25726,7.462583780288696,True,,True,1,False,1000,True,1.0
./expes/v2_2020-12-03_dh_300-prng-1,30_issda_300,300,rng-300,91,rng,num-start-191,191,25726,6.019162893295288,True,,True,1,False,1000,True,1.0
./expes/v2_2020-12-03_dh_300-prng-1,30_issda_300,300,rng-300,171,rng,num-start-41,41,25726,1000.9034090042114,False,,False,0,True,1000,True,0.0
./expes/v2_2020-12-03_dh_300-prng-1,30_issda_300,300,rng-300,121,rng,num-start-621,621,25726,18.190539836883545,True,,True,1,False,1000,True,1.0
./expes/v2_2020-12-03_dh_300-prng-1,30_issda_300,300,rng-300,81,rng,num-start-731,731,25726,19.43861484527588,True,,True,1,False,1000,True,1.0
./expes/v2_2020-12-03_dh_300-prng-1,30_issda_300,300,rng-300,261,rng,num-start-671,671,25726,17.843692302703857,True,,True,1,False,1000,True,1.0
./expes/v2_2020-12-03_dh_300-prng-1,30_issda_300,300,rng-300,291,rng,num-start-661,661,25726,13.50903606414795,True,,True,1,False,1000,True,1.0
./expes/v2_2020-12-03_dh_300-prng-1,30_issda_300,300,rng-300,121,rng,num-start-401,401,25726,12.733237981796265,True,,True,1,False,1000,True,1.0
./expes/v2_2020-12-03_dh_300-prng-1,30_issda_300,300,rng-300,21,rng,num-start-321,321,25726,8.143944501876831,True,,True,1,False,1000,True,1.0
./expes/v2_2020-12-03_dh_300-prng-1,30_issda_300,300,rng-300,261,rng,num-start-751,751,25726,18.432464599609375,True,,True,1,False,1000,True,1.0
./expes/v2_2020-12-03_dh_300-prng-1,30_issda_300,300,rng-300,241,rng,num-start-301,301,25726,7.8241918087005615,True,,True,1,False,1000,True,1.0
./expes/v2_2020-12-03_dh_300-prng-1,30_issda_300,300,rng-300,241,rng,num-start-151,151,25726,4.166422367095947,True,,True,1,False,1000,True,1.0
./expes/v2_2020-12-03_dh_300-prng-1,30_issda_300,300,rng-300,101,rng,num-start-341,341,25726,9.725502252578735,True,,True,1,False,1000,True,1.0
./expes/v2_2020-12-03_dh_300-prng-1,30_issda_300,300,rng-300,281,rng,num-start-261,261,25726,6.142913579940796,True,,True,1,False,1000,True,1.0
./expes/v2_2020-12-03_dh_300-prng-1,30_issda_300,300,rng-300,191,rng,num-start-591,591,25726,19.765532732009888,True,,True,1,False,1000,True,1.0
./expes/v2_2020-12-03_dh_300-prng-1,30_issda_300,300,rng-300,171,rng,num-start-631,631,25726,16.63822102546692,True,,True,1,False,1000,True,1.0
./expes/v2_2020-12-03_dh_300-prng-1,30_issda_300,300,rng-300,51,rng,num-start-241,241,25726,6.421050548553467,True,,True,1,False,1000,True,1.0
./expes/v2_2020-12-03_dh_300-prng-1,30_issda_300,300,rng-300,261,rng,num-start-571,571,25726,14.833937168121338,True,,True,1,False,1000,True,1.0
./expes/v2_2020-12-03_dh_300-prng-1,30_issda_300,300,rng-300,51,rng,num-start-721,721,25726,17.64379072189331,True,,True,1,False,1000,True,1.0
./expes/v2_2020-12-03_dh_300-prng-1,30_issda_300,300,rng-300,151,rng,num-start-971,971,25726,26.980087995529175,True,,True,1,False,1000,True,1.0
./expes/v2_2020-12-03_dh_300-prng-1,30_issda_300,300,rng-300,251,rng,num-start-121,121,25726,2.7248988151550293,True,,True,1,False,1000,True,1.0
./expes/v2_2020-12-03_dh_300-prng-1,30_issda_300,300,rng-300,111,rng,num-start-931,931,25726,25.098716259002686,True,,True,1,False,1000,True,1.0
./expes/v2_2020-12-03_dh_300-prng-1,30_issda_300,300,rng-300,41,rng,num-start-491,491,25726,13.53309178352356,True,,True,1,False,1000,True,1.0
./expes/v2_2020-12-03_dh_300-prng-1,30_issda_300,300,rng-300,171,rng,num-start-831,831,25726,25.156920433044434,True,,True,1,False,1000,True,1.0
./expes/v2_2020-12-03_dh_300-prng-1,30_issda_300,300,rng-300,21,rng,num-start-51,51,25726,2.1514856815338135,True,,True,1,False,1000,True,1.0
./expes/v2_2020-12-03_dh_300-prng-1,30_issda_300,300,rng-300,191,rng,num-start-321,321,25726,9.225615739822388,True,,True,1,False,1000,True,1.0
./expes/v2_2020-12-03_dh_300-prng-1,30_issda_300,300,rng-300,61,rng,num-start-611,611,25726,16.69790291786194,True,,True,1,False,1000,True,1.0
./expes/v2_2020-12-03_dh_300-prng-1,30_issda_300,300,rng-300,151,rng,num-start-511,511,25726,12.792395114898682,True,,True,1,False,1000,True,1.0
./expes/v2_2020-12-03_dh_300-prng-1,30_issda_300,300,rng-300,291,rng,num-start-741,741,25726,15.140871047973633,True,,True,1,False,1000,True,1.0
./expes/v2_2020-12-03_dh_300-prng-1,30_issda_300,300,rng-300,271,rng,num-start-161,161,25726,3.7802205085754395,True,,True,1,False,1000,True,1.0
./expes/v2_2020-12-03_dh_300-prng-1,30_issda_300,300,rng-300,1,rng,num-start-551,551,25726,9.690543174743652,True,,True,1,False,1000,True,1.0
./expes/v2_2020-12-03_dh_300-prng-1,30_issda_300,300,rng-300,111,rng,num-start-121,121,25726,8.179989099502563,True,,True,1,False,1000,True,1.0
./expes/v2_2020-12-03_dh_300-prng-1,30_issda_300,300,rng-300,211,rng,num-start-281,281,25726,7.936410665512085,True,,True,1,False,1000,True,1.0
./expes/v2_2020-12-03_dh_300-prng-1,30_issda_300,300,rng-300,101,rng,num-start-571,571,25726,14.287394285202026,True,,True,1,False,1000,True,1.0
./expes/v2_2020-12-03_dh_300-prng-1,30_issda_300,300,rng-300,31,rng,num-start-591,591,25726,15.10264539718628,True,,True,1,False,1000,True,1.0
./expes/v2_2020-12-03_dh_300-prng-1,30_issda_300,300,rng-300,1,rng,num-start-511,511,25726,9.619927167892456,True,,True,1,False,1000,True,1.0
./expes/v2_2020-12-03_dh_300-prng-1,30_issda_300,300,rng-300,131,rng,num-start-961,961,25726,26.643271684646606,True,,True,1,False,1000,True,1.0
./expes/v2_2020-12-03_dh_300-prng-1,30_issda_300,300,rng-300,141,rng,num-start-371,371,25726,10.176703453063965,True,,True,1,False,1000,True,1.0
./expes/v2_2020-12-03_dh_300-prng-1,30_issda_300,300,rng-300,251,rng,num-start-451,451,25726,11.842546939849854,True,,True,1,False,1000,True,1.0
./expes/v2_2020-12-03_dh_300-prng-1,30_issda_300,300,rng-300,291,rng,num-start-601,601,25726,12.881107091903687,True,,True,1,False,1000,True,1.0
./expes/v2_2020-12-03_dh_300-prng-1,30_issda_300,300,rng-300,1,rng,num-start-221,221,25726,4.397616624832153,True,,True,1,False,1000,True,1.0
./expes/v2_2020-12-03_dh_300-prng-1,30_issda_300,300,rng-300,281,rng,num-start-451,451,25726,9.860263109207153,True,,True,1,False,1000,True,1.0
./expes/v2_2020-12-03_dh_300-prng-1,30_issda_300,300,rng-300,201,rng,num-start-21,21,25726,1000.555064201355,False,,False,0,True,1000,True,0.0
./expes/v2_2020-12-03_dh_300-prng-1,30_issda_300,300,rng-300,251,rng,num-start-961,961,25726,24.139148473739624,True,,True,1,False,1000,True,1.0
./expes/v2_2020-12-03_dh_300-prng-1,30_issda_300,300,rng-300,211,rng,num-start-671,671,25726,17.55649423599243,True,,True,1,False,1000,True,1.0
./expes/v2_2020-12-03_dh_300-prng-1,30_issda_300,300,rng-300,91,rng,num-start-911,911,25726,24.816153287887573,True,,True,1,False,1000,True,1.0
./expes/v2_2020-12-03_dh_300-prng-1,30_issda_300,300,rng-300,11,rng,num-start-731,731,25726,14.801944732666016,True,,True,1,False,1000,True,1.0
./expes/v2_2020-12-03_dh_300-prng-1,30_issda_300,300,rng-300,131,rng,num-start-761,761,25726,18.33927869796753,True,,True,1,False,1000,True,1.0
./expes/v2_2020-12-03_dh_300-prng-1,30_issda_300,300,rng-300,121,rng,num-start-361,361,25726,10.044190883636475,True,,True,1,False,1000,True,1.0
./expes/v2_2020-12-03_dh_300-prng-1,30_issda_300,300,rng-300,101,rng,num-start-411,411,25726,11.984193325042725,True,,True,1,False,1000,True,1.0
./expes/v2_2020-12-03_dh_300-prng-1,30_issda_300,300,rng-300,91,rng,num-start-581,581,25726,14.328492879867554,True,,True,1,False,1000,True,1.0
./expes/v2_2020-12-03_dh_300-prng-1,30_issda_300,300,rng-300,131,rng,num-start-721,721,25726,16.537374019622803,True,,True,1,False,1000,True,1.0
./expes/v2_2020-12-03_dh_300-prng-1,30_issda_300,300,rng-300,11,rng,num-start-141,141,25726,3.356419324874878,True,,True,1,False,1000,True,1.0
./expes/v2_2020-12-03_dh_300-prng-1,30_issda_300,300,rng-300,21,rng,num-start-121,121,25726,2.89133358001709,True,,True,1,False,1000,True,1.0
./expes/v2_2020-12-03_dh_300-prng-1,30_issda_300,300,rng-300,211,rng,num-start-101,101,25726,6.665062665939331,True,,True,1,False,1000,True,1.0
./expes/v2_2020-12-03_dh_300-prng-1,30_issda_300,300,rng-300,61,rng,num-start-301,301,25726,8.519237518310547,True,,True,1,False,1000,True,1.0
./expes/v2_2020-12-03_dh_300-prng-1,30_issda_300,300,rng-300,61,rng,num-start-191,191,25726,5.266969919204712,True,,True,1,False,1000,True,1.0
./expes/v2_2020-12-03_dh_300-prng-1,30_issda_300,300,rng-300,171,rng,num-start-381,381,25726,11.517732381820679,True,,True,1,False,1000,True,1.0
./expes/v2_2020-12-03_dh_300-prng-1,30_issda_300,300,rng-300,151,rng,num-start-511,511,25726,13.045592546463013,True,,True,1,False,1000,True,1.0
./expes/v2_2020-12-03_dh_300-prng-1,30_issda_300,300,rng-300,111,rng,num-start-551,551,25726,15.712276697158813,True,,True,1,False,1000,True,1.0
./expes/v2_2020-12-03_dh_300-prng-1,30_issda_300,300,rng-300,1,rng,num-start-811,811,25726,15.568804740905762,True,,True,1,False,1000,True,1.0
./expes/v2_2020-12-03_dh_300-prng-1,30_issda_300,300,rng-300,181,rng,num-start-291,291,25726,8.180671215057373,True,,True,1,False,1000,True,1.0
./expes/v2_2020-12-03_dh_300-prng-1,30_issda_300,300,rng-300,151,rng,num-start-831,831,25726,22.47379755973816,True,,True,1,False,1000,True,1.0
./expes/v2_2020-12-03_dh_300-prng-1,30_issda_300,300,rng-300,181,rng,num-start-561,561,25726,13.80006742477417,True,,True,1,False,1000,True,1.0
./expes/v2_2020-12-03_dh_300-prng-1,30_issda_300,300,rng-300,71,rng,num-start-191,191,25726,5.524279356002808,True,,True,1,False,1000,True,1.0
./expes/v2_2020-12-03_dh_300-prng-1,30_issda_300,300,rng-300,151,rng,num-start-171,171,25726,4.623654127120972,True,,True,1,False,1000,True,1.0
./expes/v2_2020-12-03_dh_300-prng-1,30_issda_300,300,rng-300,251,rng,num-start-711,711,25726,17.963696002960205,True,,True,1,False,1000,True,1.0
./expes/v2_2020-12-03_dh_300-prng-1,30_issda_300,300,rng-300,51,rng,num-start-61,61,25726,1001.4109027385712,False,,False,0,True,1000,True,0.0
./expes/v2_2020-12-03_dh_300-prng-1,30_issda_300,300,rng-300,151,rng,num-start-851,851,25726,65.72211384773254,True,,True,1,False,1000,True,1.0
./expes/v2_2020-12-03_dh_300-prng-1,30_issda_300,300,rng-300,111,rng,num-start-661,661,25726,47.25800967216492,True,,True,1,False,1000,True,1.0
./expes/v2_2020-12-03_dh_300-prng-1,30_issda_300,300,rng-300,181,rng,num-start-381,381,25726,9.843704462051392,True,,True,1,False,1000,True,1.0
./expes/v2_2020-12-03_dh_300-prng-1,30_issda_300,300,rng-300,241,rng,num-start-551,551,25726,33.64101552963257,True,,True,1,False,1000,True,1.0
./expes/v2_2020-12-03_dh_300-prng-1,30_issda_300,300,rng-300,181,rng,num-start-181,181,25726,34.3152711391449,True,,True,1,False,1000,True,1.0
./expes/v2_2020-12-03_dh_300-prng-1,30_issda_300,300,rng-300,271,rng,num-start-311,311,25726,22.389595985412598,True,,True,1,False,1000,True,1.0
./expes/v2_2020-12-03_dh_300-prng-1,30_issda_300,300,rng-300,271,rng,num-start-931,931,25726,52.9772093296051,True,,True,1,False,1000,True,1.0
./expes/v2_2020-12-03_dh_300-prng-1,30_issda_300,300,rng-300,151,rng,num-start-771,771,25726,30.812867403030396,True,,True,1,False,1000,True,1.0
./expes/v2_2020-12-03_dh_300-prng-1,30_issda_300,300,rng-300,271,rng,num-start-901,901,25726,29.736144065856934,True,,True,1,False,1000,True,1.0
./expes/v2_2020-12-03_dh_300-prng-1,30_issda_300,300,rng-300,31,rng,num-start-1,1,25726,0.6753332614898682,False,,False,2,False,1000,True,1.0
./expes/v2_2020-12-03_dh_300-prng-1,30_issda_300,300,rng-300,261,rng,num-start-211,211,25726,12.72197937965393,True,,True,1,False,1000,True,1.0
./expes/v2_2020-12-03_dh_300-prng-1,30_issda_300,300,rng-300,211,rng,num-start-861,861,25726,26.919649839401245,True,,True,1,False,1000,True,1.0
./expes/v2_2020-12-03_dh_300-prng-1,30_issda_300,300,rng-300,171,rng,num-start-941,941,25726,57.18785738945007,True,,True,1,False,1000,True,1.0
./expes/v2_2020-12-03_dh_300-prng-1,30_issda_300,300,rng-300,191,rng,num-start-181,181,25726,41.53259086608887,True,,True,1,False,1000,True,1.0
./expes/v2_2020-12-03_dh_300-prng-1,30_issda_300,300,rng-300,211,rng,num-start-941,941,25726,37.21721315383911,True,,True,1,False,1000,True,1.0
./expes/v2_2020-12-03_dh_300-prng-1,30_issda_300,300,rng-300,121,rng,num-start-721,721,25726,20.286546230316162,True,,True,1,False,1000,True,1.0
./expes/v2_2020-12-03_dh_300-prng-1,30_issda_300,300,rng-300,211,rng,num-start-721,721,25726,20.83111023902893,True,,True,1,False,1000,True,1.0
./expes/v2_2020-12-03_dh_300-prng-1,30_issda_300,300,rng-300,231,rng,num-start-151,151,25726,4.058777570724487,True,,True,1,False,1000,True,1.0
./expes/v2_2020-12-03_dh_300-prng-1,30_issda_300,300,rng-300,161,rng,num-start-191,191,25726,5.258131742477417,True,,True,1,False,1000,True,1.0
./expes/v2_2020-12-03_dh_300-prng-1,30_issda_300,300,rng-300,181,rng,num-start-181,181,25726,5.0692150592803955,True,,True,1,False,1000,True,1.0
./expes/v2_2020-12-03_dh_300-prng-1,30_issda_300,300,rng-300,161,rng,num-start-631,631,25726,18.525766372680664,True,,True,1,False,1000,True,1.0
./expes/v2_2020-12-03_dh_300-prng-1,30_issda_300,300,rng-300,171,rng,num-start-841,841,25726,24.931074380874634,True,,True,1,False,1000,True,1.0
./expes/v2_2020-12-03_dh_300-prng-1,30_issda_300,300,rng-300,131,rng,num-start-611,611,25726,17.499443531036377,True,,True,1,False,1000,True,1.0
./expes/v2_2020-12-03_dh_300-prng-1,30_issda_300,300,rng-300,41,rng,num-start-121,121,25726,3.220940113067627,True,,True,1,False,1000,True,1.0
./expes/v2_2020-12-03_dh_300-prng-1,30_issda_300,300,rng-300,51,rng,num-start-571,571,25726,12.96401333808899,True,,True,1,False,1000,True,1.0
./expes/v2_2020-12-03_dh_300-prng-1,30_issda_300,300,rng-300,231,rng,num-start-751,751,25726,17.23858141899109,True,,True,1,False,1000,True,1.0
./expes/v2_2020-12-03_dh_300-prng-1,30_issda_300,300,rng-300,61,rng,num-start-571,571,25726,13.95749807357788,True,,True,1,False,1000,True,1.0
./expes/v2_2020-12-03_dh_300-prng-1,30_issda_300,300,rng-300,31,rng,num-start-841,841,25726,17.971237897872925,True,,True,1,False,1000,True,1.0
./expes/v2_2020-12-03_dh_300-prng-1,30_issda_300,300,rng-300,61,rng,num-start-821,821,25726,21.580955505371094,True,,True,1,False,1000,True,1.0
./expes/v2_2020-12-03_dh_300-prng-1,30_issda_300,300,rng-300,1,rng,num-start-511,511,25726,9.939543724060059,True,,True,1,False,1000,True,1.0
./expes/v2_2020-12-03_dh_300-prng-1,30_issda_300,300,rng-300,261,rng,num-start-501,501,25726,13.805670022964478,True,,True,1,False,1000,True,1.0
./expes/v2_2020-12-03_dh_300-prng-1,30_issda_300,300,rng-300,161,rng,num-start-331,331,25726,10.356054782867432,True,,True,1,False,1000,True,1.0
./expes/v2_2020-12-03_dh_300-prng-1,30_issda_300,300,rng-300,1,rng,num-start-751,751,25726,14.553653717041016,True,,True,1,False,1000,True,1.0
./expes/v2_2020-12-03_dh_300-prng-1,30_issda_300,300,rng-300,11,rng,num-start-631,631,25726,15.195858240127563,True,,True,1,False,1000,True,1.0
./expes/v2_2020-12-03_dh_300-prng-1,30_issda_300,300,rng-300,31,rng,num-start-931,931,25726,26.400054216384888,True,,True,1,False,1000,True,1.0
./expes/v2_2020-12-03_dh_300-prng-1,30_issda_300,300,rng-300,281,rng,num-start-821,821,25726,20.009567737579346,True,,True,1,False,1000,True,1.0
./expes/v2_2020-12-03_dh_300-prng-1,30_issda_300,300,rng-300,21,rng,num-start-941,941,25726,24.86371350288391,True,,True,1,False,1000,True,1.0
./expes/v2_2020-12-03_dh_300-prng-1,30_issda_300,300,rng-300,181,rng,num-start-101,101,25726,473.71180748939514,True,,True,1,False,1000,True,1.0
./expes/v2_2020-12-03_dh_300-prng-1,30_issda_300,300,rng-300,201,rng,num-start-71,71,25726,1001.3929958343506,False,,False,0,True,1000,True,0.0
./expes/v2_2020-12-03_dh_300-prng-1,30_issda_300,300,rng-300,101,rng,num-start-111,111,25726,7.590716361999512,True,,True,1,False,1000,True,1.0
./expes/v2_2020-12-03_dh_300-prng-1,30_issda_300,300,rng-300,191,rng,num-start-521,521,25726,14.828982591629028,True,,True,1,False,1000,True,1.0
./expes/v2_2020-12-03_dh_300-prng-1,30_issda_300,300,rng-300,31,rng,num-start-651,651,25726,17.095646142959595,True,,True,1,False,1000,True,1.0
./expes/v2_2020-12-03_dh_300-prng-1,30_issda_300,300,rng-300,281,rng,num-start-41,41,25726,3.197786331176758,True,,True,1,False,1000,True,1.0
./expes/v2_2020-12-03_dh_300-prng-1,30_issda_300,300,rng-300,11,rng,num-start-21,21,25726,0.8158731460571289,True,,True,1,False,1000,True,1.0
./expes/v2_2020-12-03_dh_300-prng-1,30_issda_300,300,rng-300,81,rng,num-start-281,281,25726,8.336755990982056,True,,True,1,False,1000,True,1.0
./expes/v2_2020-12-03_dh_300-prng-1,30_issda_300,300,rng-300,81,rng,num-start-511,511,25726,14.77821683883667,True,,True,1,False,1000,True,1.0
./expes/v2_2020-12-03_dh_300-prng-1,30_issda_300,300,rng-300,221,rng,num-start-341,341,25726,9.271376132965088,True,,True,1,False,1000,True,1.0
./expes/v2_2020-12-03_dh_300-prng-1,30_issda_300,300,rng-300,111,rng,num-start-421,421,25726,14.53047251701355,True,,True,1,False,1000,True,1.0
./expes/v2_2020-12-03_dh_300-prng-1,30_issda_300,300,rng-300,71,rng,num-start-831,831,25726,23.229612350463867,True,,True,1,False,1000,True,1.0
./expes/v2_2020-12-03_dh_300-prng-1,30_issda_300,300,rng-300,91,rng,num-start-941,941,25726,23.140880823135376,True,,True,1,False,1000,True,1.0
./expes/v2_2020-12-03_dh_300-prng-1,30_issda_300,300,rng-300,261,rng,num-start-811,811,25726,20.505991220474243,True,,True,1,False,1000,True,1.0
./expes/v2_2020-12-03_dh_300-prng-1,30_issda_300,300,rng-300,61,rng,num-start-241,241,25726,6.915271759033203,False,,False,2,False,1000,True,1.0
./expes/v2_2020-12-03_dh_300-prng-1,30_issda_300,300,rng-300,131,rng,num-start-601,601,25726,17.365483045578003,True,,True,1,False,1000,True,1.0
./expes/v2_2020-12-03_dh_300-prng-1,30_issda_300,300,rng-300,251,rng,num-start-721,721,25726,17.31719994544983,True,,True,1,False,1000,True,1.0
./expes/v2_2020-12-03_dh_300-prng-1,30_issda_300,300,rng-300,41,rng,num-start-241,241,25726,6.493047714233398,True,,True,1,False,1000,True,1.0
./expes/v2_2020-12-03_dh_300-prng-1,30_issda_300,300,rng-300,141,rng,num-start-861,861,25726,24.526251792907715,True,,True,1,False,1000,True,1.0
./expes/v2_2020-12-03_dh_300-prng-1,30_issda_300,300,rng-300,41,rng,num-start-811,811,25726,22.91600751876831,True,,True,1,False,1000,True,1.0
./expes/v2_2020-12-03_dh_300-prng-1,30_issda_300,300,rng-300,191,rng,num-start-91,91,25726,1001.8700275421143,False,,False,0,True,1000,True,0.0
./expes/v2_2020-12-03_dh_300-prng-1,30_issda_300,300,rng-300,241,rng,num-start-931,931,25726,24.712678909301758,True,,True,1,False,1000,True,1.0
./expes/v2_2020-12-03_dh_300-prng-1,30_issda_300,300,rng-300,211,rng,num-start-31,31,25726,1000.6688446998596,False,,False,0,True,1000,True,0.0
./expes/v2_2020-12-03_dh_300-prng-1,30_issda_300,300,rng-300,161,rng,num-start-461,461,25726,12.910759449005127,True,,True,1,False,1000,True,1.0
./expes/v2_2020-12-03_dh_300-prng-1,30_issda_300,300,rng-300,161,rng,num-start-901,901,25726,25.33102512359619,True,,True,1,False,1000,True,1.0
./expes/v2_2020-12-03_dh_300-prng-1,30_issda_300,300,rng-300,111,rng,num-start-451,451,25726,13.52182674407959,True,,True,1,False,1000,True,1.0
./expes/v2_2020-12-03_dh_300-prng-1,30_issda_300,300,rng-300,171,rng,num-start-161,161,25726,5.201545000076294,True,,True,1,False,1000,True,1.0
./expes/v2_2020-12-03_dh_300-prng-1,30_issda_300,300,rng-300,151,rng,num-start-601,601,25726,16.68131923675537,True,,True,1,False,1000,True,1.0
./expes/v2_2020-12-03_dh_300-prng-1,30_issda_300,300,rng-300,231,rng,num-start-641,641,25726,19.956151008605957,True,,True,1,False,1000,True,1.0
./expes/v2_2020-12-03_dh_300-prng-1,30_issda_300,300,rng-300,1,rng,num-start-301,301,25726,5.949394941329956,True,,True,1,False,1000,True,1.0
./expes/v2_2020-12-03_dh_300-prng-1,30_issda_300,300,rng-300,251,rng,num-start-261,261,25726,7.3979268074035645,True,,True,1,False,1000,True,1.0
./expes/v2_2020-12-03_dh_300-prng-1,30_issda_300,300,rng-300,181,rng,num-start-491,491,25726,12.885442018508911,True,,True,1,False,1000,True,1.0
./expes/v2_2020-12-03_dh_300-prng-1,30_issda_300,300,rng-300,121,rng,num-start-331,331,25726,10.053930521011353,True,,True,1,False,1000,True,1.0
./expes/v2_2020-12-03_dh_300-prng-1,30_issda_300,300,rng-300,231,rng,num-start-411,411,25726,12.77459192276001,True,,True,1,False,1000,True,1.0
./expes/v2_2020-12-03_dh_300-prng-1,30_issda_300,300,rng-300,101,rng,num-start-131,131,25726,8.859268188476562,True,,True,1,False,1000,True,1.0
./expes/v2_2020-12-03_dh_300-prng-1,30_issda_300,300,rng-300,51,rng,num-start-761,761,25726,18.64409351348877,True,,True,1,False,1000,True,1.0
./expes/v2_2020-12-03_dh_300-prng-1,30_issda_300,300,rng-300,11,rng,num-start-271,271,25726,5.391186952590942,True,,True,1,False,1000,True,1.0
./expes/v2_2020-12-03_dh_300-prng-1,30_issda_300,300,rng-300,1,rng,num-start-561,561,25726,11.01566195487976,True,,True,1,False,1000,True,1.0
./expes/v2_2020-12-03_dh_300-prng-1,30_issda_300,300,rng-300,271,rng,num-start-561,561,25726,14.481510400772095,True,,True,1,False,1000,True,1.0
./expes/v2_2020-12-03_dh_300-prng-1,30_issda_300,300,rng-300,221,rng,num-start-661,661,25726,17.359280586242676,True,,True,1,False,1000,True,1.0
./expes/v2_2020-12-03_dh_300-prng-1,30_issda_300,300,rng-300,61,rng,num-start-661,661,25726,17.66473150253296,True,,True,1,False,1000,True,1.0
./expes/v2_2020-12-03_dh_300-prng-1,30_issda_300,300,rng-300,201,rng,num-start-251,251,25726,7.5638322830200195,True,,True,1,False,1000,True,1.0
./expes/v2_2020-12-03_dh_300-prng-1,30_issda_300,300,rng-300,221,rng,num-start-711,711,25726,19.619723320007324,True,,True,1,False,1000,True,1.0
./expes/v2_2020-12-03_dh_300-prng-1,30_issda_300,300,rng-300,181,rng,num-start-851,851,25726,26.221765518188477,True,,True,1,False,1000,True,1.0
./expes/v2_2020-12-03_dh_300-prng-1,30_issda_300,300,rng-300,21,rng,num-start-621,621,25726,20.976768970489502,True,,True,1,False,1000,True,1.0
./expes/v2_2020-12-03_dh_300-prng-1,30_issda_300,300,rng-300,281,rng,num-start-221,221,25726,5.635590314865112,True,,True,1,False,1000,True,1.0
./expes/v2_2020-12-03_dh_300-prng-1,30_issda_300,300,rng-300,121,rng,num-start-921,921,25726,26.61780548095703,True,,True,1,False,1000,True,1.0
./expes/v2_2020-12-03_dh_300-prng-1,30_issda_300,300,rng-300,281,rng,num-start-1,1,25726,0.07573103904724121,False,,False,2,False,1000,True,1.0
./expes/v2_2020-12-03_dh_300-prng-1,30_issda_300,300,rng-300,1,rng,num-start-561,561,25726,10.50332236289978,True,,True,1,False,1000,True,1.0
./expes/v2_2020-12-03_dh_300-prng-1,30_issda_300,300,rng-300,31,rng,num-start-261,261,25726,7.453009605407715,True,,True,1,False,1000,True,1.0
./expes/v2_2020-12-03_dh_300-prng-1,30_issda_300,300,rng-300,121,rng,num-start-151,151,25726,4.409932613372803,True,,True,1,False,1000,True,1.0
./expes/v2_2020-12-03_dh_300-prng-1,30_issda_300,300,rng-300,11,rng,num-start-901,901,25726,17.11888575553894,True,,True,1,False,1000,True,1.0
./expes/v2_2020-12-03_dh_300-prng-1,30_issda_300,300,rng-300,241,rng,num-start-91,91,25726,3.2880046367645264,True,,True,1,False,1000,True,1.0
./expes/v2_2020-12-03_dh_300-prng-1,30_issda_300,300,rng-300,211,rng,num-start-551,551,25726,13.491618871688843,True,,True,1,False,1000,True,1.0
./expes/v2_2020-12-03_dh_300-prng-1,30_issda_300,300,rng-300,241,rng,num-start-701,701,25726,17.321374654769897,True,,True,1,False,1000,True,1.0
./expes/v2_2020-12-03_dh_300-prng-1,30_issda_300,300,rng-300,101,rng,num-start-881,881,25726,26.065840005874634,True,,True,1,False,1000,True,1.0
./expes/v2_2020-12-03_dh_300-prng-1,30_issda_300,300,rng-300,191,rng,num-start-461,461,25726,14.379672288894653,True,,True,1,False,1000,True,1.0
./expes/v2_2020-12-03_dh_300-prng-1,30_issda_300,300,rng-300,151,rng,num-start-811,811,25726,22.732901573181152,True,,True,1,False,1000,True,1.0
./expes/v2_2020-12-03_dh_300-prng-1,30_issda_300,300,rng-300,141,rng,num-start-381,381,25726,11.34717869758606,True,,True,1,False,1000,True,1.0
./expes/v2_2020-12-03_dh_300-prng-1,30_issda_300,300,rng-300,191,rng,num-start-871,871,25726,27.69572424888611,True,,True,1,False,1000,True,1.0
./expes/v2_2020-12-03_dh_300-prng-1,30_issda_300,300,rng-300,41,rng,num-start-421,421,25726,10.53508472442627,True,,True,1,False,1000,True,1.0
./expes/v2_2020-12-03_dh_300-prng-1,30_issda_300,300,rng-300,71,rng,num-start-451,451,25726,12.69130802154541,True,,True,1,False,1000,True,1.0
./expes/v2_2020-12-03_dh_300-prng-1,30_issda_300,300,rng-300,41,rng,num-start-321,321,25726,8.159013271331787,True,,True,1,False,1000,True,1.0
./expes/v2_2020-12-03_dh_300-prng-1,30_issda_300,300,rng-300,181,rng,num-start-741,741,25726,20.490373611450195,True,,True,1,False,1000,True,1.0
./expes/v2_2020-12-03_dh_300-prng-1,30_issda_300,300,rng-300,251,rng,num-start-571,571,25726,15.286154508590698,True,,True,1,False,1000,True,1.0
./expes/v2_2020-12-03_dh_300-prng-1,30_issda_300,300,rng-300,111,rng,num-start-471,471,25726,12.269191265106201,True,,True,1,False,1000,True,1.0
./expes/v2_2020-12-03_dh_300-prng-1,30_issda_300,300,rng-300,11,rng,num-start-351,351,25726,8.492008924484253,True,,True,1,False,1000,True,1.0
./expes/v2_2020-12-03_dh_300-prng-1,30_issda_300,300,rng-300,171,rng,num-start-271,271,25726,7.850746154785156,True,,True,1,False,1000,True,1.0
./expes/v2_2020-12-03_dh_300-prng-1,30_issda_300,300,rng-300,41,rng,num-start-121,121,25726,3.082090139389038,True,,True,1,False,1000,True,1.0
./expes/v2_2020-12-03_dh_300-prng-1,30_issda_300,300,rng-300,121,rng,num-start-951,951,25726,29.38950800895691,True,,True,1,False,1000,True,1.0
./expes/v2_2020-12-03_dh_300-prng-1,30_issda_300,300,rng-300,101,rng,num-start-841,841,25726,25.996723890304565,True,,True,1,False,1000,True,1.0
./expes/v2_2020-12-03_dh_300-prng-1,30_issda_300,300,rng-300,51,rng,num-start-721,721,25726,18.521663665771484,True,,True,1,False,1000,True,1.0
./expes/v2_2020-12-03_dh_300-prng-1,30_issda_300,300,rng-300,151,rng,num-start-491,491,25726,14.117556810379028,True,,True,1,False,1000,True,1.0
./expes/v2_2020-12-03_dh_300-prng-1,30_issda_300,300,rng-300,191,rng,num-start-501,501,25726,13.606737852096558,True,,True,1,False,1000,True,1.0
./expes/v2_2020-12-03_dh_300-prng-1,30_issda_300,300,rng-300,101,rng,num-start-271,271,25726,7.329721927642822,True,,True,1,False,1000,True,1.0
./expes/v2_2020-12-03_dh_300-prng-1,30_issda_300,300,rng-300,31,rng,num-start-61,61,25726,3.9858598709106445,True,,True,1,False,1000,True,1.0
./expes/v2_2020-12-03_dh_300-prng-1,30_issda_300,300,rng-300,261,rng,num-start-331,331,25726,8.319823265075684,True,,True,1,False,1000,True,1.0
./expes/v2_2020-12-03_dh_300-prng-1,30_issda_300,300,rng-300,251,rng,num-start-311,311,25726,8.990760803222656,True,,True,1,False,1000,True,1.0
./expes/v2_2020-12-03_dh_300-prng-1,30_issda_300,300,rng-300,11,rng,num-start-281,281,25726,6.5766518115997314,True,,True,1,False,1000,True,1.0
./expes/v2_2020-12-03_dh_300-prng-1,30_issda_300,300,rng-300,201,rng,num-start-751,751,25726,19.397541284561157,True,,True,1,False,1000,True,1.0
./expes/v2_2020-12-03_dh_300-prng-1,30_issda_300,300,rng-300,191,rng,num-start-751,751,25726,22.07088875770569,True,,True,1,False,1000,True,1.0
./expes/v2_2020-12-03_dh_300-prng-1,30_issda_300,300,rng-300,41,rng,num-start-931,931,25726,25.33664608001709,True,,True,1,False,1000,True,1.0
./expes/v2_2020-12-03_dh_300-prng-1,30_issda_300,300,rng-300,51,rng,num-start-391,391,25726,10.463038444519043,True,,True,1,False,1000,True,1.0
./expes/v2_2020-12-03_dh_300-prng-1,30_issda_300,300,rng-300,291,rng,num-start-421,421,25726,8.675859689712524,True,,True,1,False,1000,True,1.0
./expes/v2_2020-12-03_dh_300-prng-1,30_issda_300,300,rng-300,81,rng,num-start-671,671,25726,16.244361400604248,True,,True,1,False,1000,True,1.0
./expes/v2_2020-12-03_dh_300-prng-1,30_issda_300,300,rng-300,271,rng,num-start-31,31,25726,1002.4824097156525,False,,False,0,True,1000,True,0.0
./expes/v2_2020-12-03_dh_300-prng-1,30_issda_300,300,rng-300,261,rng,num-start-91,91,25726,2.2315726280212402,True,,True,1,False,1000,True,1.0
./expes/v2_2020-12-03_dh_300-prng-1,30_issda_300,300,rng-300,71,rng,num-start-571,571,25726,15.977923154830933,True,,True,1,False,1000,True,1.0
./expes/v2_2020-12-03_dh_300-prng-1,30_issda_300,300,rng-300,1,rng,num-start-221,221,25726,4.199353218078613,True,,True,1,False,1000,True,1.0
./expes/v2_2020-12-03_dh_300-prng-1,30_issda_300,300,rng-300,121,rng,num-start-631,631,25726,16.163202047348022,True,,True,1,False,1000,True,1.0
./expes/v2_2020-12-03_dh_300-prng-1,30_issda_300,300,rng-300,191,rng,num-start-321,321,25726,9.2810537815094,True,,True,1,False,1000,True,1.0
./expes/v2_2020-12-03_dh_300-prng-1,30_issda_300,300,rng-300,51,rng,num-start-411,411,25726,10.13688039779663,True,,True,1,False,1000,True,1.0
./expes/v2_2020-12-03_dh_300-prng-1,30_issda_300,300,rng-300,71,rng,num-start-221,221,25726,6.309814453125,True,,True,1,False,1000,True,1.0
./expes/v2_2020-12-03_dh_300-prng-1,30_issda_300,300,rng-300,201,rng,num-start-31,31,25726,1000.763632774353,False,,False,0,True,1000,True,0.0
./expes/v2_2020-12-03_dh_300-prng-1,30_issda_300,300,rng-300,141,rng,num-start-761,761,25726,19.96884846687317,True,,True,1,False,1000,True,1.0
./expes/v2_2020-12-03_dh_300-prng-1,30_issda_300,300,rng-300,281,rng,num-start-631,631,25726,14.316863059997559,True,,True,1,False,1000,True,1.0
./expes/v2_2020-12-03_dh_300-prng-1,30_issda_300,300,rng-300,211,rng,num-start-931,931,25726,22.301881551742554,True,,True,1,False,1000,True,1.0
./expes/v2_2020-12-03_dh_300-prng-1,30_issda_300,300,rng-300,61,rng,num-start-711,711,25726,17.63577437400818,True,,True,1,False,1000,True,1.0
./expes/v2_2020-12-03_dh_300-prng-1,30_issda_300,300,rng-300,191,rng,num-start-61,61,25726,1001.3430671691895,False,,False,0,True,1000,True,0.0
./expes/v2_2020-12-03_dh_300-prng-1,30_issda_300,300,rng-300,171,rng,num-start-451,451,25726,12.444232702255249,True,,True,1,False,1000,True,1.0
./expes/v2_2020-12-03_dh_300-prng-1,30_issda_300,300,rng-300,11,rng,num-start-81,81,25726,2.267223358154297,True,,True,1,False,1000,True,1.0
./expes/v2_2020-12-03_dh_300-prng-1,30_issda_300,300,rng-300,91,rng,num-start-471,471,25726,13.330078840255737,True,,True,1,False,1000,True,1.0
./expes/v2_2020-12-03_dh_300-prng-1,30_issda_300,300,rng-300,1,rng,num-start-551,551,25726,10.503576040267944,True,,True,1,False,1000,True,1.0
./expes/v2_2020-12-03_dh_300-prng-1,30_issda_300,300,rng-300,51,rng,num-start-991,991,25726,25.479125261306763,True,,True,1,False,1000,True,1.0
./expes/v2_2020-12-03_dh_300-prng-1,30_issda_300,300,rng-300,121,rng,num-start-241,241,25726,7.310381650924683,True,,True,1,False,1000,True,1.0
./expes/v2_2020-12-03_dh_300-prng-1,30_issda_300,300,rng-300,171,rng,num-start-881,881,25726,23.503190279006958,True,,True,1,False,1000,True,1.0
./expes/v2_2020-12-03_dh_300-prng-1,30_issda_300,300,rng-300,171,rng,num-start-691,691,25726,19.501354217529297,True,,True,1,False,1000,True,1.0
./expes/v2_2020-12-03_dh_300-prng-1,30_issda_300,300,rng-300,21,rng,num-start-361,361,25726,8.810205221176147,True,,True,1,False,1000,True,1.0
./expes/v2_2020-12-03_dh_300-prng-1,30_issda_300,300,rng-300,101,rng,num-start-891,891,25726,26.41772437095642,True,,True,1,False,1000,True,1.0
./expes/v2_2020-12-03_dh_300-prng-1,30_issda_300,300,rng-300,131,rng,num-start-131,131,25726,7.867599725723267,True,,True,1,False,1000,True,1.0
./expes/v2_2020-12-03_dh_300-prng-1,30_issda_300,300,rng-300,231,rng,num-start-571,571,25726,13.913376092910767,True,,True,1,False,1000,True,1.0
./expes/v2_2020-12-03_dh_300-prng-1,30_issda_300,300,rng-300,191,rng,num-start-421,421,25726,12.559380054473877,True,,True,1,False,1000,True,1.0
./expes/v2_2020-12-03_dh_300-prng-1,30_issda_300,300,rng-300,61,rng,num-start-441,441,25726,12.24922227859497,True,,True,1,False,1000,True,1.0
./expes/v2_2020-12-03_dh_300-prng-1,30_issda_300,300,rng-300,51,rng,num-start-661,661,25726,18.238648891448975,True,,True,1,False,1000,True,1.0
./expes/v2_2020-12-03_dh_300-prng-1,30_issda_300,300,rng-300,101,rng,num-start-31,31,25726,1000.6425583362579,False,,False,0,True,1000,True,0.0
./expes/v2_2020-12-03_dh_300-prng-1,30_issda_300,300,rng-300,291,rng,num-start-51,51,25726,19.90980863571167,True,,True,1,False,1000,True,1.0
