expe,clients,clients_size,clients_subset,agg_size,method,days,days_size,days_total,time,valid,valid_sum,success,nsols,wall_hit,wall_time,pooled,valid_sums
./expes/v2_2020-12-03_dh_300-prng-1,30_issda_300,300,rng-300,71,rng,num-start-311,311,25726,7.572450160980225,True,,True,1,False,1000,True,1.0
./expes/v2_2020-12-03_dh_300-prng-1,30_issda_300,300,rng-300,1,rng,num-start-381,381,25726,6.361996173858643,True,,True,1,False,1000,True,1.0
./expes/v2_2020-12-03_dh_300-prng-1,30_issda_300,300,rng-300,261,rng,num-start-791,791,25726,18.82500433921814,True,,True,1,False,1000,True,1.0
./expes/v2_2020-12-03_dh_300-prng-1,30_issda_300,300,rng-300,81,rng,num-start-1,1,25726,0.05452322959899902,False,,False,2,False,1000,True,1.0
./expes/v2_2020-12-03_dh_300-prng-1,30_issda_300,300,rng-300,51,rng,num-start-821,821,25726,20.512954235076904,True,,True,1,False,1000,True,1.0
./expes/v2_2020-12-03_dh_300-prng-1,30_issda_300,300,rng-300,81,rng,num-start-341,341,25726,8.545625686645508,True,,True,1,False,1000,True,1.0
./expes/v2_2020-12-03_dh_300-prng-1,30_issda_300,300,rng-300,181,rng,num-start-331,331,25726,11.399786233901978,True,,True,1,False,1000,True,1.0
./expes/v2_2020-12-03_dh_300-prng-1,30_issda_300,300,rng-300,261,rng,num-start-161,161,25726,4.226738691329956,True,,True,1,False,1000,True,1.0
./expes/v2_2020-12-03_dh_300-prng-1,30_issda_300,300,rng-300,221,rng,num-start-871,871,25726,21.09548568725586,True,,True,1,False,1000,True,1.0
./expes/v2_2020-12-03_dh_300-prng-1,30_issda_300,300,rng-300,291,rng,num-start-131,131,25726,2.9270083904266357,True,,True,1,False,1000,True,1.0
./expes/v2_2020-12-03_dh_300-prng-1,30_issda_300,300,rng-300,121,rng,num-start-481,481,25726,13.152966022491455,True,,True,1,False,1000,True,1.0
./expes/v2_2020-12-03_dh_300-prng-1,30_issda_300,300,rng-300,211,rng,num-start-581,581,25726,15.445735931396484,True,,True,1,False,1000,True,1.0
./expes/v2_2020-12-03_dh_300-prng-1,30_issda_300,300,rng-300,151,rng,num-start-611,611,25726,18.021575927734375,True,,True,1,False,1000,True,1.0
./expes/v2_2020-12-03_dh_300-prng-1,30_issda_300,300,rng-300,51,rng,num-start-101,101,25726,5.104311943054199,True,,True,1,False,1000,True,1.0
./expes/v2_2020-12-03_dh_300-prng-1,30_issda_300,300,rng-300,121,rng,num-start-611,611,25726,16.63810396194458,True,,True,1,False,1000,True,1.0
./expes/v2_2020-12-03_dh_300-prng-1,30_issda_300,300,rng-300,241,rng,num-start-411,411,25726,11.1068434715271,True,,True,1,False,1000,True,1.0
./expes/v2_2020-12-03_dh_300-prng-1,30_issda_300,300,rng-300,201,rng,num-start-691,691,25726,17.62790012359619,True,,True,1,False,1000,True,1.0
./expes/v2_2020-12-03_dh_300-prng-1,30_issda_300,300,rng-300,181,rng,num-start-731,731,25726,22.022316932678223,True,,True,1,False,1000,True,1.0
./expes/v2_2020-12-03_dh_300-prng-1,30_issda_300,300,rng-300,81,rng,num-start-11,11,25726,1000.3382301330566,False,,False,0,True,1000,True,0.0
./expes/v2_2020-12-03_dh_300-prng-1,30_issda_300,300,rng-300,11,rng,num-start-961,961,25726,18.913684368133545,True,,True,1,False,1000,True,1.0
./expes/v2_2020-12-03_dh_300-prng-1,30_issda_300,300,rng-300,181,rng,num-start-381,381,25726,13.266583681106567,True,,True,1,False,1000,True,1.0
./expes/v2_2020-12-03_dh_300-prng-1,30_issda_300,300,rng-300,81,rng,num-start-421,421,25726,16.647496461868286,True,,True,1,False,1000,True,1.0
./expes/v2_2020-12-03_dh_300-prng-1,30_issda_300,300,rng-300,291,rng,num-start-951,951,25726,19.328333854675293,True,,True,1,False,1000,True,1.0
./expes/v2_2020-12-03_dh_300-prng-1,30_issda_300,300,rng-300,251,rng,num-start-481,481,25726,16.28486204147339,True,,True,1,False,1000,True,1.0
./expes/v2_2020-12-03_dh_300-prng-1,30_issda_300,300,rng-300,171,rng,num-start-851,851,25726,26.761714696884155,True,,True,1,False,1000,True,1.0
./expes/v2_2020-12-03_dh_300-prng-1,30_issda_300,300,rng-300,31,rng,num-start-561,561,25726,18.486140727996826,True,,True,1,False,1000,True,1.0
./expes/v2_2020-12-03_dh_300-prng-1,30_issda_300,300,rng-300,101,rng,num-start-991,991,25726,30.295069694519043,True,,True,1,False,1000,True,1.0
./expes/v2_2020-12-03_dh_300-prng-1,30_issda_300,300,rng-300,281,rng,num-start-961,961,25726,25.261253356933594,True,,True,1,False,1000,True,1.0
./expes/v2_2020-12-03_dh_300-prng-1,30_issda_300,300,rng-300,131,rng,num-start-651,651,25726,19.65306782722473,True,,True,1,False,1000,True,1.0
./expes/v2_2020-12-03_dh_300-prng-1,30_issda_300,300,rng-300,261,rng,num-start-971,971,25726,28.44520092010498,True,,True,1,False,1000,True,1.0
./expes/v2_2020-12-03_dh_300-prng-1,30_issda_300,300,rng-300,171,rng,num-start-391,391,25726,12.916001319885254,True,,True,1,False,1000,True,1.0
./expes/v2_2020-12-03_dh_300-prng-1,30_issda_300,300,rng-300,211,rng,num-start-111,111,25726,7.031702280044556,True,,True,1,False,1000,True,1.0
./expes/v2_2020-12-03_dh_300-prng-1,30_issda_300,300,rng-300,241,rng,num-start-971,971,25726,29.74904227256775,True,,True,1,False,1000,True,1.0
./expes/v2_2020-12-03_dh_300-prng-1,30_issda_300,300,rng-300,101,rng,num-start-51,51,25726,1001.4678792953491,False,,False,0,True,1000,True,0.0
./expes/v2_2020-12-03_dh_300-prng-1,30_issda_300,300,rng-300,261,rng,num-start-221,221,25726,5.525771856307983,True,,True,1,False,1000,True,1.0
./expes/v2_2020-12-03_dh_300-prng-1,30_issda_300,300,rng-300,21,rng,num-start-861,861,25726,21.070802450180054,True,,True,1,False,1000,True,1.0
./expes/v2_2020-12-03_dh_300-prng-1,30_issda_300,300,rng-300,1,rng,num-start-331,331,25726,6.292872190475464,True,,True,1,False,1000,True,1.0
./expes/v2_2020-12-03_dh_300-prng-1,30_issda_300,300,rng-300,41,rng,num-start-651,651,25726,15.222155332565308,True,,True,1,False,1000,True,1.0
./expes/v2_2020-12-03_dh_300-prng-1,30_issda_300,300,rng-300,31,rng,num-start-191,191,25726,5.120854616165161,True,,True,1,False,1000,True,1.0
./expes/v2_2020-12-03_dh_300-prng-1,30_issda_300,300,rng-300,141,rng,num-start-791,791,25726,23.662495851516724,True,,True,1,False,1000,True,1.0
./expes/v2_2020-12-03_dh_300-prng-1,30_issda_300,300,rng-300,21,rng,num-start-591,591,25726,13.731033325195312,True,,True,1,False,1000,True,1.0
./expes/v2_2020-12-03_dh_300-prng-1,30_issda_300,300,rng-300,161,rng,num-start-331,331,25726,8.834930896759033,True,,True,1,False,1000,True,1.0
./expes/v2_2020-12-03_dh_300-prng-1,30_issda_300,300,rng-300,291,rng,num-start-461,461,25726,8.609385251998901,True,,True,1,False,1000,True,1.0
./expes/v2_2020-12-03_dh_300-prng-1,30_issda_300,300,rng-300,131,rng,num-start-271,271,25726,7.96265435218811,True,,True,1,False,1000,True,1.0
./expes/v2_2020-12-03_dh_300-prng-1,30_issda_300,300,rng-300,271,rng,num-start-871,871,25726,17.70537567138672,True,,True,1,False,1000,True,1.0
./expes/v2_2020-12-03_dh_300-prng-1,30_issda_300,300,rng-300,281,rng,num-start-751,751,25726,18.83875274658203,True,,True,1,False,1000,True,1.0
./expes/v2_2020-12-03_dh_300-prng-1,30_issda_300,300,rng-300,161,rng,num-start-991,991,25726,26.394997119903564,True,,True,1,False,1000,True,1.0
./expes/v2_2020-12-03_dh_300-prng-1,30_issda_300,300,rng-300,61,rng,num-start-341,341,25726,8.186559200286865,True,,True,1,False,1000,True,1.0
./expes/v2_2020-12-03_dh_300-prng-1,30_issda_300,300,rng-300,71,rng,num-start-391,391,25726,10.125560283660889,True,,True,1,False,1000,True,1.0
./expes/v2_2020-12-03_dh_300-prng-1,30_issda_300,300,rng-300,91,rng,num-start-251,251,25726,7.683630466461182,True,,True,1,False,1000,True,1.0
./expes/v2_2020-12-03_dh_300-prng-1,30_issda_300,300,rng-300,101,rng,num-start-651,651,25726,17.5727276802063,True,,True,1,False,1000,True,1.0
./expes/v2_2020-12-03_dh_300-prng-1,30_issda_300,300,rng-300,101,rng,num-start-251,251,25726,7.53445291519165,True,,True,1,False,1000,True,1.0
./expes/v2_2020-12-03_dh_300-prng-1,30_issda_300,300,rng-300,291,rng,num-start-931,931,25726,16.58437156677246,True,,True,1,False,1000,True,1.0
./expes/v2_2020-12-03_dh_300-prng-1,30_issda_300,300,rng-300,191,rng,num-start-331,331,25726,8.937939405441284,True,,True,1,False,1000,True,1.0
./expes/v2_2020-12-03_dh_300-prng-1,30_issda_300,300,rng-300,281,rng,num-start-641,641,25726,12.644346475601196,True,,True,1,False,1000,True,1.0
./expes/v2_2020-12-03_dh_300-prng-1,30_issda_300,300,rng-300,231,rng,num-start-911,911,25726,24.258260250091553,True,,True,1,False,1000,True,1.0
./expes/v2_2020-12-03_dh_300-prng-1,30_issda_300,300,rng-300,101,rng,num-start-31,31,25726,1000.7200610637665,False,,False,0,True,1000,True,0.0
./expes/v2_2020-12-03_dh_300-prng-1,30_issda_300,300,rng-300,111,rng,num-start-591,591,25726,19.383629083633423,True,,True,1,False,1000,True,1.0
./expes/v2_2020-12-03_dh_300-prng-1,30_issda_300,300,rng-300,1,rng,num-start-461,461,25726,8.144855499267578,True,,True,1,False,1000,True,1.0
./expes/v2_2020-12-03_dh_300-prng-1,30_issda_300,300,rng-300,1,rng,num-start-751,751,25726,14.024561405181885,True,,True,1,False,1000,True,1.0
./expes/v2_2020-12-03_dh_300-prng-1,30_issda_300,300,rng-300,281,rng,num-start-991,991,25726,23.120022535324097,True,,True,1,False,1000,True,1.0
./expes/v2_2020-12-03_dh_300-prng-1,30_issda_300,300,rng-300,181,rng,num-start-881,881,25726,20.88924741744995,True,,True,1,False,1000,True,1.0
./expes/v2_2020-12-03_dh_300-prng-1,30_issda_300,300,rng-300,131,rng,num-start-431,431,25726,11.097245454788208,True,,False,2,False,1000,True,1.0
./expes/v2_2020-12-03_dh_300-prng-1,30_issda_300,300,rng-300,91,rng,num-start-791,791,25726,23.27548909187317,True,,True,1,False,1000,True,1.0
./expes/v2_2020-12-03_dh_300-prng-1,30_issda_300,300,rng-300,11,rng,num-start-141,141,25726,3.611391305923462,True,,True,1,False,1000,True,1.0
./expes/v2_2020-12-03_dh_300-prng-1,30_issda_300,300,rng-300,61,rng,num-start-11,11,25726,1000.411808013916,False,,False,0,True,1000,True,0.0
./expes/v2_2020-12-03_dh_300-prng-1,30_issda_300,300,rng-300,291,rng,num-start-991,991,25726,20.422139883041382,True,,True,1,False,1000,True,1.0
./expes/v2_2020-12-03_dh_300-prng-1,30_issda_300,300,rng-300,201,rng,num-start-531,531,25726,13.51855731010437,True,,True,1,False,1000,True,1.0
./expes/v2_2020-12-03_dh_300-prng-1,30_issda_300,300,rng-300,141,rng,num-start-791,791,25726,22.47391700744629,True,,True,1,False,1000,True,1.0
./expes/v2_2020-12-03_dh_300-prng-1,30_issda_300,300,rng-300,91,rng,num-start-191,191,25726,5.257596254348755,True,,True,1,False,1000,True,1.0
./expes/v2_2020-12-03_dh_300-prng-1,30_issda_300,300,rng-300,1,rng,num-start-441,441,25726,8.127456188201904,True,,True,1,False,1000,True,1.0
./expes/v2_2020-12-03_dh_300-prng-1,30_issda_300,300,rng-300,271,rng,num-start-271,271,25726,5.874151945114136,True,,True,1,False,1000,True,1.0
./expes/v2_2020-12-03_dh_300-prng-1,30_issda_300,300,rng-300,171,rng,num-start-961,961,25726,24.09425163269043,True,,True,1,False,1000,True,1.0
./expes/v2_2020-12-03_dh_300-prng-1,30_issda_300,300,rng-300,241,rng,num-start-841,841,25726,20.282360792160034,True,,True,1,False,1000,True,1.0
./expes/v2_2020-12-03_dh_300-prng-1,30_issda_300,300,rng-300,61,rng,num-start-241,241,25726,6.293441534042358,True,,True,1,False,1000,True,1.0
./expes/v2_2020-12-03_dh_300-prng-1,30_issda_300,300,rng-300,241,rng,num-start-311,311,25726,7.531261205673218,True,,True,1,False,1000,True,1.0
./expes/v2_2020-12-03_dh_300-prng-1,30_issda_300,300,rng-300,91,rng,num-start-271,271,25726,7.23734188079834,True,,True,1,False,1000,True,1.0
./expes/v2_2020-12-03_dh_300-prng-1,30_issda_300,300,rng-300,171,rng,num-start-641,641,25726,16.820144414901733,True,,True,1,False,1000,True,1.0
./expes/v2_2020-12-03_dh_300-prng-1,30_issda_300,300,rng-300,71,rng,num-start-931,931,25726,21.021581411361694,True,,True,1,False,1000,True,1.0
./expes/v2_2020-12-03_dh_300-prng-1,30_issda_300,300,rng-300,191,rng,num-start-841,841,25726,21.623626947402954,True,,True,1,False,1000,True,1.0
./expes/v2_2020-12-03_dh_300-prng-1,30_issda_300,300,rng-300,291,rng,num-start-411,411,25726,9.497159004211426,True,,True,1,False,1000,True,1.0
./expes/v2_2020-12-03_dh_300-prng-1,30_issda_300,300,rng-300,191,rng,num-start-351,351,25726,9.181525945663452,True,,True,1,False,1000,True,1.0
./expes/v2_2020-12-03_dh_300-prng-1,30_issda_300,300,rng-300,81,rng,num-start-981,981,25726,21.305821418762207,True,,True,1,False,1000,True,1.0
./expes/v2_2020-12-03_dh_300-prng-1,30_issda_300,300,rng-300,1,rng,num-start-171,171,25726,3.206897735595703,True,,True,1,False,1000,True,1.0
./expes/v2_2020-12-03_dh_300-prng-1,30_issda_300,300,rng-300,131,rng,num-start-321,321,25726,7.6485676765441895,True,,True,1,False,1000,True,1.0
./expes/v2_2020-12-03_dh_300-prng-1,30_issda_300,300,rng-300,101,rng,num-start-381,381,25726,8.722381591796875,True,,True,1,False,1000,True,1.0
./expes/v2_2020-12-03_dh_300-prng-1,30_issda_300,300,rng-300,51,rng,num-start-431,431,25726,11.299322605133057,True,,True,1,False,1000,True,1.0
./expes/v2_2020-12-03_dh_300-prng-1,30_issda_300,300,rng-300,191,rng,num-start-1,1,25726,0.05137014389038086,False,,False,2,False,1000,True,1.0
./expes/v2_2020-12-03_dh_300-prng-1,30_issda_300,300,rng-300,111,rng,num-start-531,531,25726,14.943702220916748,True,,True,1,False,1000,True,1.0
./expes/v2_2020-12-03_dh_300-prng-1,30_issda_300,300,rng-300,31,rng,num-start-951,951,25726,21.292943716049194,True,,True,1,False,1000,True,1.0
./expes/v2_2020-12-03_dh_300-prng-1,30_issda_300,300,rng-300,71,rng,num-start-621,621,25726,19.06223440170288,True,,True,1,False,1000,True,1.0
./expes/v2_2020-12-03_dh_300-prng-1,30_issda_300,300,rng-300,131,rng,num-start-241,241,25726,6.394463300704956,True,,True,1,False,1000,True,1.0
./expes/v2_2020-12-03_dh_300-prng-1,30_issda_300,300,rng-300,61,rng,num-start-801,801,25726,19.6120822429657,True,,True,1,False,1000,True,1.0
./expes/v2_2020-12-03_dh_300-prng-1,30_issda_300,300,rng-300,201,rng,num-start-881,881,25726,22.60052514076233,True,,True,1,False,1000,True,1.0
./expes/v2_2020-12-03_dh_300-prng-1,30_issda_300,300,rng-300,41,rng,num-start-701,701,25726,20.91097402572632,True,,True,1,False,1000,True,1.0
./expes/v2_2020-12-03_dh_300-prng-1,30_issda_300,300,rng-300,111,rng,num-start-491,491,25726,14.695410966873169,True,,True,1,False,1000,True,1.0
./expes/v2_2020-12-03_dh_300-prng-1,30_issda_300,300,rng-300,31,rng,num-start-921,921,25726,21.159375190734863,True,,True,1,False,1000,True,1.0
./expes/v2_2020-12-03_dh_300-prng-1,30_issda_300,300,rng-300,1,rng,num-start-201,201,25726,3.7211859226226807,True,,True,1,False,1000,True,1.0
./expes/v2_2020-12-03_dh_300-prng-1,30_issda_300,300,rng-300,101,rng,num-start-361,361,25726,9.950276851654053,True,,False,2,False,1000,True,1.0
./expes/v2_2020-12-03_dh_300-prng-1,30_issda_300,300,rng-300,181,rng,num-start-711,711,25726,19.235225439071655,True,,True,1,False,1000,True,1.0
./expes/v2_2020-12-03_dh_300-prng-1,30_issda_300,300,rng-300,211,rng,num-start-501,501,25726,13.178324699401855,True,,True,1,False,1000,True,1.0
./expes/v2_2020-12-03_dh_300-prng-1,30_issda_300,300,rng-300,171,rng,num-start-971,971,25726,23.126718759536743,True,,True,1,False,1000,True,1.0
./expes/v2_2020-12-03_dh_300-prng-1,30_issda_300,300,rng-300,191,rng,num-start-741,741,25726,18.267049551010132,True,,True,1,False,1000,True,1.0
./expes/v2_2020-12-03_dh_300-prng-1,30_issda_300,300,rng-300,181,rng,num-start-401,401,25726,10.860155582427979,True,,True,1,False,1000,True,1.0
./expes/v2_2020-12-03_dh_300-prng-1,30_issda_300,300,rng-300,21,rng,num-start-821,821,25726,18.171151161193848,True,,True,1,False,1000,True,1.0
./expes/v2_2020-12-03_dh_300-prng-1,30_issda_300,300,rng-300,131,rng,num-start-251,251,25726,6.052315711975098,True,,True,1,False,1000,True,1.0
./expes/v2_2020-12-03_dh_300-prng-1,30_issda_300,300,rng-300,271,rng,num-start-461,461,25726,9.744247198104858,True,,True,1,False,1000,True,1.0
./expes/v2_2020-12-03_dh_300-prng-1,30_issda_300,300,rng-300,61,rng,num-start-811,811,25726,18.814179182052612,True,,True,1,False,1000,True,1.0
./expes/v2_2020-12-03_dh_300-prng-1,30_issda_300,300,rng-300,291,rng,num-start-161,161,25726,3.397135019302368,True,,True,1,False,1000,True,1.0
./expes/v2_2020-12-03_dh_300-prng-1,30_issda_300,300,rng-300,291,rng,num-start-301,301,25726,6.085684537887573,True,,True,1,False,1000,True,1.0
./expes/v2_2020-12-03_dh_300-prng-1,30_issda_300,300,rng-300,11,rng,num-start-931,931,25726,17.292990684509277,True,,True,1,False,1000,True,1.0
./expes/v2_2020-12-03_dh_300-prng-1,30_issda_300,300,rng-300,61,rng,num-start-871,871,25726,22.337043285369873,True,,True,1,False,1000,True,1.0
./expes/v2_2020-12-03_dh_300-prng-1,30_issda_300,300,rng-300,211,rng,num-start-401,401,25726,10.786216259002686,True,,True,1,False,1000,True,1.0
./expes/v2_2020-12-03_dh_300-prng-1,30_issda_300,300,rng-300,51,rng,num-start-791,791,25726,21.075270414352417,True,,True,1,False,1000,True,1.0
./expes/v2_2020-12-03_dh_300-prng-1,30_issda_300,300,rng-300,271,rng,num-start-521,521,25726,10.96002197265625,True,,True,1,False,1000,True,1.0
./expes/v2_2020-12-03_dh_300-prng-1,30_issda_300,300,rng-300,101,rng,num-start-911,911,25726,19.40763521194458,True,,True,1,False,1000,True,1.0
./expes/v2_2020-12-03_dh_300-prng-1,30_issda_300,300,rng-300,101,rng,num-start-791,791,25726,20.33138418197632,True,,True,1,False,1000,True,1.0
./expes/v2_2020-12-03_dh_300-prng-1,30_issda_300,300,rng-300,111,rng,num-start-211,211,25726,5.952794790267944,True,,True,1,False,1000,True,1.0
./expes/v2_2020-12-03_dh_300-prng-1,30_issda_300,300,rng-300,151,rng,num-start-361,361,25726,9.841549396514893,True,,True,1,False,1000,True,1.0
./expes/v2_2020-12-03_dh_300-prng-1,30_issda_300,300,rng-300,291,rng,num-start-41,41,25726,1.6592435836791992,True,,True,1,False,1000,True,1.0
./expes/v2_2020-12-03_dh_300-prng-1,30_issda_300,300,rng-300,241,rng,num-start-711,711,25726,19.11881995201111,True,,True,1,False,1000,True,1.0
./expes/v2_2020-12-03_dh_300-prng-1,30_issda_300,300,rng-300,81,rng,num-start-91,91,25726,19.778581380844116,True,,True,1,False,1000,True,1.0
./expes/v2_2020-12-03_dh_300-prng-1,30_issda_300,300,rng-300,221,rng,num-start-431,431,25726,13.366347789764404,True,,True,1,False,1000,True,1.0
./expes/v2_2020-12-03_dh_300-prng-1,30_issda_300,300,rng-300,11,rng,num-start-841,841,25726,18.53528881072998,True,,True,1,False,1000,True,1.0
./expes/v2_2020-12-03_dh_300-prng-1,30_issda_300,300,rng-300,41,rng,num-start-571,571,25726,15.870440006256104,True,,True,1,False,1000,True,1.0
./expes/v2_2020-12-03_dh_300-prng-1,30_issda_300,300,rng-300,271,rng,num-start-911,911,25726,20.677229166030884,True,,True,1,False,1000,True,1.0
./expes/v2_2020-12-03_dh_300-prng-1,30_issda_300,300,rng-300,31,rng,num-start-851,851,25726,22.776221990585327,True,,True,1,False,1000,True,1.0
./expes/v2_2020-12-03_dh_300-prng-1,30_issda_300,300,rng-300,101,rng,num-start-111,111,25726,5.744001626968384,True,,True,1,False,1000,True,1.0
./expes/v2_2020-12-03_dh_300-prng-1,30_issda_300,300,rng-300,131,rng,num-start-901,901,25726,22.46072554588318,True,,True,1,False,1000,True,1.0
./expes/v2_2020-12-03_dh_300-prng-1,30_issda_300,300,rng-300,151,rng,num-start-491,491,25726,13.625287532806396,True,,True,1,False,1000,True,1.0
./expes/v2_2020-12-03_dh_300-prng-1,30_issda_300,300,rng-300,91,rng,num-start-861,861,25726,20.54107165336609,True,,True,1,False,1000,True,1.0
./expes/v2_2020-12-03_dh_300-prng-1,30_issda_300,300,rng-300,31,rng,num-start-161,161,25726,4.090060234069824,True,,True,1,False,1000,True,1.0
./expes/v2_2020-12-03_dh_300-prng-1,30_issda_300,300,rng-300,261,rng,num-start-631,631,25726,15.941064357757568,True,,True,1,False,1000,True,1.0
./expes/v2_2020-12-03_dh_300-prng-1,30_issda_300,300,rng-300,291,rng,num-start-91,91,25726,2.372906446456909,True,,True,1,False,1000,True,1.0
./expes/v2_2020-12-03_dh_300-prng-1,30_issda_300,300,rng-300,141,rng,num-start-171,171,25726,6.079035043716431,True,,True,1,False,1000,True,1.0
./expes/v2_2020-12-03_dh_300-prng-1,30_issda_300,300,rng-300,201,rng,num-start-71,71,25726,1001.3187568187714,False,,False,0,True,1000,True,0.0
./expes/v2_2020-12-03_dh_300-prng-1,30_issda_300,300,rng-300,31,rng,num-start-711,711,25726,16.54267644882202,True,,True,1,False,1000,True,1.0
./expes/v2_2020-12-03_dh_300-prng-1,30_issda_300,300,rng-300,1,rng,num-start-731,731,25726,13.842080116271973,True,,True,1,False,1000,True,1.0
./expes/v2_2020-12-03_dh_300-prng-1,30_issda_300,300,rng-300,231,rng,num-start-671,671,25726,17.422982454299927,True,,True,1,False,1000,True,1.0
./expes/v2_2020-12-03_dh_300-prng-1,30_issda_300,300,rng-300,201,rng,num-start-271,271,25726,8.025620698928833,True,,True,1,False,1000,True,1.0
./expes/v2_2020-12-03_dh_300-prng-1,30_issda_300,300,rng-300,141,rng,num-start-231,231,25726,6.169810056686401,True,,True,1,False,1000,True,1.0
./expes/v2_2020-12-03_dh_300-prng-1,30_issda_300,300,rng-300,41,rng,num-start-561,561,25726,13.423162460327148,True,,True,1,False,1000,True,1.0
./expes/v2_2020-12-03_dh_300-prng-1,30_issda_300,300,rng-300,61,rng,num-start-751,751,25726,20.628762245178223,True,,True,1,False,1000,True,1.0
./expes/v2_2020-12-03_dh_300-prng-1,30_issda_300,300,rng-300,261,rng,num-start-161,161,25726,4.224780321121216,True,,True,1,False,1000,True,1.0
./expes/v2_2020-12-03_dh_300-prng-1,30_issda_300,300,rng-300,171,rng,num-start-781,781,25726,19.37578511238098,True,,True,1,False,1000,True,1.0
./expes/v2_2020-12-03_dh_300-prng-1,30_issda_300,300,rng-300,31,rng,num-start-501,501,25726,10.811010837554932,True,,True,1,False,1000,True,1.0
./expes/v2_2020-12-03_dh_300-prng-1,30_issda_300,300,rng-300,131,rng,num-start-261,261,25726,7.1869237422943115,True,,True,1,False,1000,True,1.0
./expes/v2_2020-12-03_dh_300-prng-1,30_issda_300,300,rng-300,281,rng,num-start-491,491,25726,11.266479015350342,True,,True,1,False,1000,True,1.0
./expes/v2_2020-12-03_dh_300-prng-1,30_issda_300,300,rng-300,1,rng,num-start-981,981,25726,18.427424669265747,True,,True,1,False,1000,True,1.0
./expes/v2_2020-12-03_dh_300-prng-1,30_issda_300,300,rng-300,231,rng,num-start-811,811,25726,20.479073762893677,True,,True,1,False,1000,True,1.0
./expes/v2_2020-12-03_dh_300-prng-1,30_issda_300,300,rng-300,251,rng,num-start-821,821,25726,20.055527687072754,True,,True,1,False,1000,True,1.0
./expes/v2_2020-12-03_dh_300-prng-1,30_issda_300,300,rng-300,271,rng,num-start-611,611,25726,13.374021053314209,True,,True,1,False,1000,True,1.0
./expes/v2_2020-12-03_dh_300-prng-1,30_issda_300,300,rng-300,181,rng,num-start-881,881,25726,20.25508689880371,True,,True,1,False,1000,True,1.0
./expes/v2_2020-12-03_dh_300-prng-1,30_issda_300,300,rng-300,1,rng,num-start-221,221,25726,4.264853000640869,True,,True,1,False,1000,True,1.0
./expes/v2_2020-12-03_dh_300-prng-1,30_issda_300,300,rng-300,51,rng,num-start-901,901,25726,22.238031148910522,True,,True,1,False,1000,True,1.0
./expes/v2_2020-12-03_dh_300-prng-1,30_issda_300,300,rng-300,211,rng,num-start-991,991,25726,28.733115673065186,True,,True,1,False,1000,True,1.0
./expes/v2_2020-12-03_dh_300-prng-1,30_issda_300,300,rng-300,61,rng,num-start-111,111,25726,3.926828145980835,True,,True,1,False,1000,True,1.0
./expes/v2_2020-12-03_dh_300-prng-1,30_issda_300,300,rng-300,61,rng,num-start-551,551,25726,15.274719953536987,True,,True,1,False,1000,True,1.0
./expes/v2_2020-12-03_dh_300-prng-1,30_issda_300,300,rng-300,31,rng,num-start-251,251,25726,6.3500635623931885,True,,True,1,False,1000,True,1.0
./expes/v2_2020-12-03_dh_300-prng-1,30_issda_300,300,rng-300,11,rng,num-start-791,791,25726,17.913225412368774,True,,True,1,False,1000,True,1.0
./expes/v2_2020-12-03_dh_300-prng-1,30_issda_300,300,rng-300,81,rng,num-start-261,261,25726,6.778045654296875,True,,True,1,False,1000,True,1.0
./expes/v2_2020-12-03_dh_300-prng-1,30_issda_300,300,rng-300,191,rng,num-start-941,941,25726,27.03523278236389,True,,True,1,False,1000,True,1.0
./expes/v2_2020-12-03_dh_300-prng-1,30_issda_300,300,rng-300,241,rng,num-start-271,271,25726,7.09984016418457,True,,True,1,False,1000,True,1.0
./expes/v2_2020-12-03_dh_300-prng-1,30_issda_300,300,rng-300,211,rng,num-start-441,441,25726,10.361767292022705,True,,True,1,False,1000,True,1.0
./expes/v2_2020-12-03_dh_300-prng-1,30_issda_300,300,rng-300,231,rng,num-start-271,271,25726,7.691516637802124,True,,True,1,False,1000,True,1.0
./expes/v2_2020-12-03_dh_300-prng-1,30_issda_300,300,rng-300,51,rng,num-start-201,201,25726,5.37542724609375,True,,True,1,False,1000,True,1.0
./expes/v2_2020-12-03_dh_300-prng-1,30_issda_300,300,rng-300,131,rng,num-start-781,781,25726,22.78335428237915,True,,True,1,False,1000,True,1.0
./expes/v2_2020-12-03_dh_300-prng-1,30_issda_300,300,rng-300,11,rng,num-start-781,781,25726,18.99300527572632,True,,True,1,False,1000,True,1.0
./expes/v2_2020-12-03_dh_300-prng-1,30_issda_300,300,rng-300,181,rng,num-start-981,981,25726,27.149771690368652,True,,True,1,False,1000,True,1.0
./expes/v2_2020-12-03_dh_300-prng-1,30_issda_300,300,rng-300,71,rng,num-start-41,41,25726,1001.0077795982361,False,,False,0,True,1000,True,0.0
./expes/v2_2020-12-03_dh_300-prng-1,30_issda_300,300,rng-300,81,rng,num-start-831,831,25726,19.658296823501587,True,,True,1,False,1000,True,1.0
./expes/v2_2020-12-03_dh_300-prng-1,30_issda_300,300,rng-300,51,rng,num-start-591,591,25726,16.475321292877197,True,,True,1,False,1000,True,1.0
./expes/v2_2020-12-03_dh_300-prng-1,30_issda_300,300,rng-300,261,rng,num-start-621,621,25726,14.637331008911133,True,,True,1,False,1000,True,1.0
./expes/v2_2020-12-03_dh_300-prng-1,30_issda_300,300,rng-300,161,rng,num-start-621,621,25726,17.244568347930908,True,,True,1,False,1000,True,1.0
./expes/v2_2020-12-03_dh_300-prng-1,30_issda_300,300,rng-300,1,rng,num-start-81,81,25726,1.4875011444091797,True,,True,1,False,1000,True,1.0
./expes/v2_2020-12-03_dh_300-prng-1,30_issda_300,300,rng-300,261,rng,num-start-141,141,25726,3.6549835205078125,True,,True,1,False,1000,True,1.0
./expes/v2_2020-12-03_dh_300-prng-1,30_issda_300,300,rng-300,271,rng,num-start-481,481,25726,11.206467390060425,True,,True,1,False,1000,True,1.0
./expes/v2_2020-12-03_dh_300-prng-1,30_issda_300,300,rng-300,241,rng,num-start-281,281,25726,7.436983585357666,True,,True,1,False,1000,True,1.0
./expes/v2_2020-12-03_dh_300-prng-1,30_issda_300,300,rng-300,61,rng,num-start-331,331,25726,8.937168836593628,True,,True,1,False,1000,True,1.0
./expes/v2_2020-12-03_dh_300-prng-1,30_issda_300,300,rng-300,241,rng,num-start-31,31,25726,1000.7510130405426,False,,False,0,True,1000,True,0.0
./expes/v2_2020-12-03_dh_300-prng-1,30_issda_300,300,rng-300,201,rng,num-start-541,541,25726,13.95868730545044,True,,True,1,False,1000,True,1.0
./expes/v2_2020-12-03_dh_300-prng-1,30_issda_300,300,rng-300,81,rng,num-start-911,911,25726,21.311201572418213,True,,True,1,False,1000,True,1.0
./expes/v2_2020-12-03_dh_300-prng-1,30_issda_300,300,rng-300,271,rng,num-start-351,351,25726,8.767075061798096,True,,True,1,False,1000,True,1.0
./expes/v2_2020-12-03_dh_300-prng-1,30_issda_300,300,rng-300,201,rng,num-start-761,761,25726,20.25850534439087,True,,True,1,False,1000,True,1.0
./expes/v2_2020-12-03_dh_300-prng-1,30_issda_300,300,rng-300,41,rng,num-start-251,251,25726,6.584322929382324,True,,True,1,False,1000,True,1.0
./expes/v2_2020-12-03_dh_300-prng-1,30_issda_300,300,rng-300,1,rng,num-start-781,781,25726,15.31627082824707,True,,True,1,False,1000,True,1.0
./expes/v2_2020-12-03_dh_300-prng-1,30_issda_300,300,rng-300,251,rng,num-start-801,801,25726,19.739116668701172,True,,True,1,False,1000,True,1.0
./expes/v2_2020-12-03_dh_300-prng-1,30_issda_300,300,rng-300,281,rng,num-start-911,911,25726,19.76003098487854,True,,True,1,False,1000,True,1.0
./expes/v2_2020-12-03_dh_300-prng-1,30_issda_300,300,rng-300,11,rng,num-start-331,331,25726,7.598229169845581,True,,True,1,False,1000,True,1.0
./expes/v2_2020-12-03_dh_300-prng-1,30_issda_300,300,rng-300,261,rng,num-start-631,631,25726,15.062469005584717,True,,True,1,False,1000,True,1.0
./expes/v2_2020-12-03_dh_300-prng-1,30_issda_300,300,rng-300,281,rng,num-start-321,321,25726,6.914170265197754,True,,True,1,False,1000,True,1.0
./expes/v2_2020-12-03_dh_300-prng-1,30_issda_300,300,rng-300,51,rng,num-start-501,501,25726,11.210951089859009,True,,True,1,False,1000,True,1.0
./expes/v2_2020-12-03_dh_300-prng-1,30_issda_300,300,rng-300,1,rng,num-start-241,241,25726,4.63630223274231,True,,True,1,False,1000,True,1.0
./expes/v2_2020-12-03_dh_300-prng-1,30_issda_300,300,rng-300,221,rng,num-start-761,761,25726,20.921351671218872,True,,True,1,False,1000,True,1.0
./expes/v2_2020-12-03_dh_300-prng-1,30_issda_300,300,rng-300,151,rng,num-start-461,461,25726,14.162967443466187,True,,True,1,False,1000,True,1.0
./expes/v2_2020-12-03_dh_300-prng-1,30_issda_300,300,rng-300,261,rng,num-start-611,611,25726,14.394078731536865,True,,True,1,False,1000,True,1.0
./expes/v2_2020-12-03_dh_300-prng-1,30_issda_300,300,rng-300,251,rng,num-start-331,331,25726,8.284769296646118,True,,True,1,False,1000,True,1.0
./expes/v2_2020-12-03_dh_300-prng-1,30_issda_300,300,rng-300,241,rng,num-start-371,371,25726,9.156035423278809,True,,True,1,False,1000,True,1.0
./expes/v2_2020-12-03_dh_300-prng-1,30_issda_300,300,rng-300,261,rng,num-start-1,1,25726,0.04121685028076172,False,,False,2,False,1000,True,1.0
./expes/v2_2020-12-03_dh_300-prng-1,30_issda_300,300,rng-300,101,rng,num-start-641,641,25726,13.429476976394653,True,,True,1,False,1000,True,1.0
./expes/v2_2020-12-03_dh_300-prng-1,30_issda_300,300,rng-300,291,rng,num-start-611,611,25726,11.263062715530396,True,,True,1,False,1000,True,1.0
./expes/v2_2020-12-03_dh_300-prng-1,30_issda_300,300,rng-300,131,rng,num-start-331,331,25726,9.806428670883179,True,,True,1,False,1000,True,1.0
./expes/v2_2020-12-03_dh_300-prng-1,30_issda_300,300,rng-300,11,rng,num-start-271,271,25726,5.909989833831787,True,,True,1,False,1000,True,1.0
./expes/v2_2020-12-03_dh_300-prng-1,30_issda_300,300,rng-300,71,rng,num-start-201,201,25726,4.52787709236145,True,,True,1,False,1000,True,1.0
./expes/v2_2020-12-03_dh_300-prng-1,30_issda_300,300,rng-300,201,rng,num-start-651,651,25726,17.833104372024536,True,,True,1,False,1000,True,1.0
./expes/v2_2020-12-03_dh_300-prng-1,30_issda_300,300,rng-300,131,rng,num-start-221,221,25726,6.083749055862427,True,,True,1,False,1000,True,1.0
./expes/v2_2020-12-03_dh_300-prng-1,30_issda_300,300,rng-300,61,rng,num-start-781,781,25726,18.143189430236816,True,,True,1,False,1000,True,1.0
./expes/v2_2020-12-03_dh_300-prng-1,30_issda_300,300,rng-300,291,rng,num-start-261,261,25726,5.817827224731445,True,,True,1,False,1000,True,1.0
./expes/v2_2020-12-03_dh_300-prng-1,30_issda_300,300,rng-300,171,rng,num-start-801,801,25726,22.90063190460205,True,,True,1,False,1000,True,1.0
./expes/v2_2020-12-03_dh_300-prng-1,30_issda_300,300,rng-300,181,rng,num-start-141,141,25726,4.453720569610596,True,,True,1,False,1000,True,1.0
./expes/v2_2020-12-03_dh_300-prng-1,30_issda_300,300,rng-300,11,rng,num-start-531,531,25726,10.083083391189575,True,,True,1,False,1000,True,1.0
./expes/v2_2020-12-03_dh_300-prng-1,30_issda_300,300,rng-300,41,rng,num-start-451,451,25726,9.487382173538208,True,,True,1,False,1000,True,1.0
./expes/v2_2020-12-03_dh_300-prng-1,30_issda_300,300,rng-300,41,rng,num-start-821,821,25726,17.449922800064087,True,,True,1,False,1000,True,1.0
./expes/v2_2020-12-03_dh_300-prng-1,30_issda_300,300,rng-300,191,rng,num-start-291,291,25726,7.278954982757568,True,,True,1,False,1000,True,1.0
./expes/v2_2020-12-03_dh_300-prng-1,30_issda_300,300,rng-300,141,rng,num-start-471,471,25726,11.79347276687622,True,,True,1,False,1000,True,1.0
./expes/v2_2020-12-03_dh_300-prng-1,30_issda_300,300,rng-300,151,rng,num-start-481,481,25726,13.733464479446411,True,,True,1,False,1000,True,1.0
./expes/v2_2020-12-03_dh_300-prng-1,30_issda_300,300,rng-300,101,rng,num-start-751,751,25726,18.989481210708618,True,,True,1,False,1000,True,1.0
./expes/v2_2020-12-03_dh_300-prng-1,30_issda_300,300,rng-300,141,rng,num-start-911,911,25726,25.7275333404541,True,,True,1,False,1000,True,1.0
./expes/v2_2020-12-03_dh_300-prng-1,30_issda_300,300,rng-300,131,rng,num-start-131,131,25726,8.792378902435303,True,,True,1,False,1000,True,1.0
./expes/v2_2020-12-03_dh_300-prng-1,30_issda_300,300,rng-300,261,rng,num-start-601,601,25726,14.627089500427246,True,,True,1,False,1000,True,1.0
./expes/v2_2020-12-03_dh_300-prng-1,30_issda_300,300,rng-300,281,rng,num-start-781,781,25726,20.79460597038269,True,,True,1,False,1000,True,1.0
./expes/v2_2020-12-03_dh_300-prng-1,30_issda_300,300,rng-300,51,rng,num-start-371,371,25726,10.027214050292969,True,,True,1,False,1000,True,1.0
./expes/v2_2020-12-03_dh_300-prng-1,30_issda_300,300,rng-300,21,rng,num-start-91,91,25726,2.2403461933135986,True,,True,1,False,1000,True,1.0
./expes/v2_2020-12-03_dh_300-prng-1,30_issda_300,300,rng-300,141,rng,num-start-451,451,25726,15.242030620574951,True,,True,1,False,1000,True,1.0
./expes/v2_2020-12-03_dh_300-prng-1,30_issda_300,300,rng-300,271,rng,num-start-51,51,25726,3.7708754539489746,True,,True,1,False,1000,True,1.0
./expes/v2_2020-12-03_dh_300-prng-1,30_issda_300,300,rng-300,251,rng,num-start-71,71,25726,1001.2872545719147,False,,False,0,True,1000,True,0.0
./expes/v2_2020-12-03_dh_300-prng-1,30_issda_300,300,rng-300,261,rng,num-start-741,741,25726,17.437936305999756,True,,True,1,False,1000,True,1.0
./expes/v2_2020-12-03_dh_300-prng-1,30_issda_300,300,rng-300,231,rng,num-start-761,761,25726,17.766282558441162,True,,True,1,False,1000,True,1.0
./expes/v2_2020-12-03_dh_300-prng-1,30_issda_300,300,rng-300,11,rng,num-start-791,791,25726,15.353015184402466,True,,True,1,False,1000,True,1.0
./expes/v2_2020-12-03_dh_300-prng-1,30_issda_300,300,rng-300,31,rng,num-start-251,251,25726,6.694923400878906,True,,True,1,False,1000,True,1.0
./expes/v2_2020-12-03_dh_300-prng-1,30_issda_300,300,rng-300,291,rng,num-start-51,51,25726,1.1723902225494385,True,,True,1,False,1000,True,1.0
./expes/v2_2020-12-03_dh_300-prng-1,30_issda_300,300,rng-300,241,rng,num-start-941,941,25726,20.838487148284912,True,,True,1,False,1000,True,1.0
./expes/v2_2020-12-03_dh_300-prng-1,30_issda_300,300,rng-300,191,rng,num-start-301,301,25726,8.756905555725098,True,,True,1,False,1000,True,1.0
./expes/v2_2020-12-03_dh_300-prng-1,30_issda_300,300,rng-300,41,rng,num-start-961,961,25726,24.818280935287476,True,,True,1,False,1000,True,1.0
./expes/v2_2020-12-03_dh_300-prng-1,30_issda_300,300,rng-300,281,rng,num-start-131,131,25726,3.5101494789123535,True,,True,1,False,1000,True,1.0
./expes/v2_2020-12-03_dh_300-prng-1,30_issda_300,300,rng-300,1,rng,num-start-631,631,25726,11.98501706123352,True,,True,1,False,1000,True,1.0
./expes/v2_2020-12-03_dh_300-prng-1,30_issda_300,300,rng-300,191,rng,num-start-221,221,25726,6.661997556686401,True,,True,1,False,1000,True,1.0
./expes/v2_2020-12-03_dh_300-prng-1,30_issda_300,300,rng-300,121,rng,num-start-721,721,25726,18.20126962661743,True,,True,1,False,1000,True,1.0
./expes/v2_2020-12-03_dh_300-prng-1,30_issda_300,300,rng-300,181,rng,num-start-271,271,25726,7.205131530761719,True,,True,1,False,1000,True,1.0
./expes/v2_2020-12-03_dh_300-prng-1,30_issda_300,300,rng-300,81,rng,num-start-991,991,25726,25.13724136352539,True,,True,1,False,1000,True,1.0
./expes/v2_2020-12-03_dh_300-prng-1,30_issda_300,300,rng-300,211,rng,num-start-221,221,25726,5.526727914810181,True,,True,1,False,1000,True,1.0
./expes/v2_2020-12-03_dh_300-prng-1,30_issda_300,300,rng-300,81,rng,num-start-511,511,25726,15.223789691925049,True,,True,1,False,1000,True,1.0
./expes/v2_2020-12-03_dh_300-prng-1,30_issda_300,300,rng-300,151,rng,num-start-161,161,25726,4.907393932342529,True,,True,1,False,1000,True,1.0
./expes/v2_2020-12-03_dh_300-prng-1,30_issda_300,300,rng-300,291,rng,num-start-481,481,25726,9.359933137893677,True,,True,1,False,1000,True,1.0
./expes/v2_2020-12-03_dh_300-prng-1,30_issda_300,300,rng-300,21,rng,num-start-781,781,25726,24.692050218582153,True,,True,1,False,1000,True,1.0
./expes/v2_2020-12-03_dh_300-prng-1,30_issda_300,300,rng-300,121,rng,num-start-201,201,25726,6.438737392425537,True,,True,1,False,1000,True,1.0
./expes/v2_2020-12-03_dh_300-prng-1,30_issda_300,300,rng-300,231,rng,num-start-981,981,25726,25.10813069343567,True,,True,1,False,1000,True,1.0
./expes/v2_2020-12-03_dh_300-prng-1,30_issda_300,300,rng-300,21,rng,num-start-301,301,25726,9.014228582382202,True,,True,1,False,1000,True,1.0
./expes/v2_2020-12-03_dh_300-prng-1,30_issda_300,300,rng-300,11,rng,num-start-21,21,25726,2.611940383911133,True,,True,1,False,1000,True,1.0
./expes/v2_2020-12-03_dh_300-prng-1,30_issda_300,300,rng-300,221,rng,num-start-271,271,25726,8.359551429748535,True,,True,1,False,1000,True,1.0
./expes/v2_2020-12-03_dh_300-prng-1,30_issda_300,300,rng-300,41,rng,num-start-281,281,25726,8.083800077438354,True,,True,1,False,1000,True,1.0
./expes/v2_2020-12-03_dh_300-prng-1,30_issda_300,300,rng-300,11,rng,num-start-951,951,25726,20.03209900856018,True,,True,1,False,1000,True,1.0
./expes/v2_2020-12-03_dh_300-prng-1,30_issda_300,300,rng-300,151,rng,num-start-651,651,25726,18.386794328689575,True,,True,1,False,1000,True,1.0
./expes/v2_2020-12-03_dh_300-prng-1,30_issda_300,300,rng-300,51,rng,num-start-51,51,25726,1001.0411033630371,False,,False,0,True,1000,True,0.0
./expes/v2_2020-12-03_dh_300-prng-1,30_issda_300,300,rng-300,141,rng,num-start-891,891,25726,25.388084411621094,True,,True,1,False,1000,True,1.0
./expes/v2_2020-12-03_dh_300-prng-1,30_issda_300,300,rng-300,141,rng,num-start-981,981,25726,28.366801738739014,True,,True,1,False,1000,True,1.0
./expes/v2_2020-12-03_dh_300-prng-1,30_issda_300,300,rng-300,271,rng,num-start-891,891,25726,22.791833877563477,True,,True,1,False,1000,True,1.0
./expes/v2_2020-12-03_dh_300-prng-1,30_issda_300,300,rng-300,211,rng,num-start-161,161,25726,4.15112829208374,True,,True,1,False,1000,True,1.0
./expes/v2_2020-12-03_dh_300-prng-1,30_issda_300,300,rng-300,271,rng,num-start-651,651,25726,14.105148553848267,True,,True,1,False,1000,True,1.0
./expes/v2_2020-12-03_dh_300-prng-1,30_issda_300,300,rng-300,161,rng,num-start-341,341,25726,9.672770977020264,True,,True,1,False,1000,True,1.0
./expes/v2_2020-12-03_dh_300-prng-1,30_issda_300,300,rng-300,91,rng,num-start-771,771,25726,18.32346200942993,True,,True,1,False,1000,True,1.0
./expes/v2_2020-12-03_dh_300-prng-1,30_issda_300,300,rng-300,281,rng,num-start-461,461,25726,10.99821662902832,True,,True,1,False,1000,True,1.0
./expes/v2_2020-12-03_dh_300-prng-1,30_issda_300,300,rng-300,241,rng,num-start-511,511,25726,12.595319271087646,True,,True,1,False,1000,True,1.0
./expes/v2_2020-12-03_dh_300-prng-1,30_issda_300,300,rng-300,281,rng,num-start-601,601,25726,14.583712100982666,True,,True,1,False,1000,True,1.0
./expes/v2_2020-12-03_dh_300-prng-1,30_issda_300,300,rng-300,131,rng,num-start-591,591,25726,16.32295274734497,True,,True,1,False,1000,True,1.0
./expes/v2_2020-12-03_dh_300-prng-1,30_issda_300,300,rng-300,261,rng,num-start-691,691,25726,17.082584381103516,True,,True,1,False,1000,True,1.0
./expes/v2_2020-12-03_dh_300-prng-1,30_issda_300,300,rng-300,251,rng,num-start-571,571,25726,13.415966033935547,True,,True,1,False,1000,True,1.0
./expes/v2_2020-12-03_dh_300-prng-1,30_issda_300,300,rng-300,211,rng,num-start-371,371,25726,9.475127458572388,True,,True,1,False,1000,True,1.0
./expes/v2_2020-12-03_dh_300-prng-1,30_issda_300,300,rng-300,191,rng,num-start-21,21,25726,1000.5790390968323,False,,False,0,True,1000,True,0.0
./expes/v2_2020-12-03_dh_300-prng-1,30_issda_300,300,rng-300,281,rng,num-start-31,31,25726,1.7843129634857178,True,,True,1,False,1000,True,1.0
./expes/v2_2020-12-03_dh_300-prng-1,30_issda_300,300,rng-300,101,rng,num-start-61,61,25726,1001.5144925117493,False,,False,0,True,1000,True,0.0
./expes/v2_2020-12-03_dh_300-prng-1,30_issda_300,300,rng-300,31,rng,num-start-511,511,25726,12.189157724380493,True,,True,1,False,1000,True,1.0
./expes/v2_2020-12-03_dh_300-prng-1,30_issda_300,300,rng-300,291,rng,num-start-511,511,25726,9.30832290649414,True,,True,1,False,1000,True,1.0
./expes/v2_2020-12-03_dh_300-prng-1,30_issda_300,300,rng-300,1,rng,num-start-101,101,25726,1.8835806846618652,True,,True,1,False,1000,True,1.0
./expes/v2_2020-12-03_dh_300-prng-1,30_issda_300,300,rng-300,31,rng,num-start-291,291,25726,7.396590232849121,True,,True,1,False,1000,True,1.0
./expes/v2_2020-12-03_dh_300-prng-1,30_issda_300,300,rng-300,31,rng,num-start-11,11,25726,1000.830109834671,False,,False,0,True,1000,True,0.0
./expes/v2_2020-12-03_dh_300-prng-1,30_issda_300,300,rng-300,201,rng,num-start-111,111,25726,7.831963539123535,True,,True,1,False,1000,True,1.0
./expes/v2_2020-12-03_dh_300-prng-1,30_issda_300,300,rng-300,101,rng,num-start-381,381,25726,9.988566637039185,True,,True,1,False,1000,True,1.0
./expes/v2_2020-12-03_dh_300-prng-1,30_issda_300,300,rng-300,191,rng,num-start-641,641,25726,16.911433696746826,True,,True,1,False,1000,True,1.0
./expes/v2_2020-12-03_dh_300-prng-1,30_issda_300,300,rng-300,41,rng,num-start-991,991,25726,21.441622018814087,True,,True,1,False,1000,True,1.0
./expes/v2_2020-12-03_dh_300-prng-1,30_issda_300,300,rng-300,141,rng,num-start-741,741,25726,17.146901607513428,True,,True,1,False,1000,True,1.0
./expes/v2_2020-12-03_dh_300-prng-1,30_issda_300,300,rng-300,181,rng,num-start-121,121,25726,7.544764757156372,True,,True,1,False,1000,True,1.0
./expes/v2_2020-12-03_dh_300-prng-1,30_issda_300,300,rng-300,211,rng,num-start-161,161,25726,4.283743143081665,True,,True,1,False,1000,True,1.0
./expes/v2_2020-12-03_dh_300-prng-1,30_issda_300,300,rng-300,61,rng,num-start-401,401,25726,12.624934673309326,True,,True,1,False,1000,True,1.0
./expes/v2_2020-12-03_dh_300-prng-1,30_issda_300,300,rng-300,281,rng,num-start-201,201,25726,4.976595878601074,True,,True,1,False,1000,True,1.0
./expes/v2_2020-12-03_dh_300-prng-1,30_issda_300,300,rng-300,291,rng,num-start-251,251,25726,5.084497928619385,True,,True,1,False,1000,True,1.0
./expes/v2_2020-12-03_dh_300-prng-1,30_issda_300,300,rng-300,261,rng,num-start-711,711,25726,18.33148193359375,True,,True,1,False,1000,True,1.0
./expes/v2_2020-12-03_dh_300-prng-1,30_issda_300,300,rng-300,61,rng,num-start-671,671,25726,16.142552614212036,True,,True,1,False,1000,True,1.0
./expes/v2_2020-12-03_dh_300-prng-1,30_issda_300,300,rng-300,111,rng,num-start-951,951,25726,30.801225423812866,True,,True,1,False,1000,True,1.0
./expes/v2_2020-12-03_dh_300-prng-1,30_issda_300,300,rng-300,1,rng,num-start-821,821,25726,15.549264430999756,True,,True,1,False,1000,True,1.0
./expes/v2_2020-12-03_dh_300-prng-1,30_issda_300,300,rng-300,111,rng,num-start-161,161,25726,4.794679164886475,True,,True,1,False,1000,True,1.0
./expes/v2_2020-12-03_dh_300-prng-1,30_issda_300,300,rng-300,131,rng,num-start-1,1,25726,0.04342365264892578,False,,False,2,False,1000,True,1.0
./expes/v2_2020-12-03_dh_300-prng-1,30_issda_300,300,rng-300,171,rng,num-start-501,501,25726,14.882097005844116,True,,True,1,False,1000,True,1.0
./expes/v2_2020-12-03_dh_300-prng-1,30_issda_300,300,rng-300,131,rng,num-start-971,971,25726,29.57459020614624,True,,True,1,False,1000,True,1.0
./expes/v2_2020-12-03_dh_300-prng-1,30_issda_300,300,rng-300,131,rng,num-start-281,281,25726,8.792318344116211,True,,True,1,False,1000,True,1.0
./expes/v2_2020-12-03_dh_300-prng-1,30_issda_300,300,rng-300,21,rng,num-start-931,931,25726,22.61972451210022,True,,True,1,False,1000,True,1.0
./expes/v2_2020-12-03_dh_300-prng-1,30_issda_300,300,rng-300,241,rng,num-start-451,451,25726,10.261420011520386,True,,True,1,False,1000,True,1.0
./expes/v2_2020-12-03_dh_300-prng-1,30_issda_300,300,rng-300,11,rng,num-start-121,121,25726,2.6775879859924316,True,,True,1,False,1000,True,1.0
./expes/v2_2020-12-03_dh_300-prng-1,30_issda_300,300,rng-300,131,rng,num-start-391,391,25726,11.747602701187134,True,,True,1,False,1000,True,1.0
./expes/v2_2020-12-03_dh_300-prng-1,30_issda_300,300,rng-300,1,rng,num-start-691,691,25726,12.899638414382935,True,,True,1,False,1000,True,1.0
./expes/v2_2020-12-03_dh_300-prng-1,30_issda_300,300,rng-300,171,rng,num-start-661,661,25726,16.496434688568115,True,,True,1,False,1000,True,1.0
./expes/v2_2020-12-03_dh_300-prng-1,30_issda_300,300,rng-300,251,rng,num-start-681,681,25726,15.089411973953247,True,,True,1,False,1000,True,1.0
./expes/v2_2020-12-03_dh_300-prng-1,30_issda_300,300,rng-300,1,rng,num-start-41,41,25726,0.6987676620483398,True,,True,1,False,1000,True,1.0
./expes/v2_2020-12-03_dh_300-prng-1,30_issda_300,300,rng-300,241,rng,num-start-841,841,25726,21.539676666259766,True,,True,1,False,1000,True,1.0
./expes/v2_2020-12-03_dh_300-prng-1,30_issda_300,300,rng-300,291,rng,num-start-61,61,25726,1.4209237098693848,True,,True,1,False,1000,True,1.0
./expes/v2_2020-12-03_dh_300-prng-1,30_issda_300,300,rng-300,211,rng,num-start-941,941,25726,23.60458779335022,True,,True,1,False,1000,True,1.0
./expes/v2_2020-12-03_dh_300-prng-1,30_issda_300,300,rng-300,21,rng,num-start-291,291,25726,6.726640701293945,True,,True,1,False,1000,True,1.0
./expes/v2_2020-12-03_dh_300-prng-1,30_issda_300,300,rng-300,21,rng,num-start-961,961,25726,27.879175424575806,True,,True,1,False,1000,True,1.0
./expes/v2_2020-12-03_dh_300-prng-1,30_issda_300,300,rng-300,171,rng,num-start-521,521,25726,13.270092010498047,True,,True,1,False,1000,True,1.0
./expes/v2_2020-12-03_dh_300-prng-1,30_issda_300,300,rng-300,101,rng,num-start-11,11,25726,1000.2568633556366,False,,False,0,True,1000,True,0.0
./expes/v2_2020-12-03_dh_300-prng-1,30_issda_300,300,rng-300,231,rng,num-start-31,31,25726,1000.9971690177917,False,,False,0,True,1000,True,0.0
./expes/v2_2020-12-03_dh_300-prng-1,30_issda_300,300,rng-300,281,rng,num-start-121,121,25726,2.941305637359619,True,,True,1,False,1000,True,1.0
./expes/v2_2020-12-03_dh_300-prng-1,30_issda_300,300,rng-300,171,rng,num-start-531,531,25726,12.23305892944336,True,,True,1,False,1000,True,1.0
./expes/v2_2020-12-03_dh_300-prng-1,30_issda_300,300,rng-300,221,rng,num-start-951,951,25726,26.30532455444336,True,,True,1,False,1000,True,1.0
./expes/v2_2020-12-03_dh_300-prng-1,30_issda_300,300,rng-300,141,rng,num-start-181,181,25726,4.890074729919434,True,,True,1,False,1000,True,1.0
./expes/v2_2020-12-03_dh_300-prng-1,30_issda_300,300,rng-300,241,rng,num-start-771,771,25726,17.910268783569336,True,,True,1,False,1000,True,1.0
./expes/v2_2020-12-03_dh_300-prng-1,30_issda_300,300,rng-300,271,rng,num-start-601,601,25726,13.749325275421143,True,,True,1,False,1000,True,1.0
./expes/v2_2020-12-03_dh_300-prng-1,30_issda_300,300,rng-300,61,rng,num-start-721,721,25726,19.770612716674805,True,,True,1,False,1000,True,1.0
./expes/v2_2020-12-03_dh_300-prng-1,30_issda_300,300,rng-300,211,rng,num-start-691,691,25726,16.87566328048706,True,,True,1,False,1000,True,1.0
./expes/v2_2020-12-03_dh_300-prng-1,30_issda_300,300,rng-300,61,rng,num-start-681,681,25726,17.44960045814514,True,,True,1,False,1000,True,1.0
./expes/v2_2020-12-03_dh_300-prng-1,30_issda_300,300,rng-300,171,rng,num-start-801,801,25726,20.795142650604248,True,,True,1,False,1000,True,1.0
./expes/v2_2020-12-03_dh_300-prng-1,30_issda_300,300,rng-300,141,rng,num-start-751,751,25726,19.93525505065918,True,,True,1,False,1000,True,1.0
./expes/v2_2020-12-03_dh_300-prng-1,30_issda_300,300,rng-300,161,rng,num-start-271,271,25726,8.527920007705688,True,,True,1,False,1000,True,1.0
./expes/v2_2020-12-03_dh_300-prng-1,30_issda_300,300,rng-300,231,rng,num-start-611,611,25726,14.715166091918945,True,,True,1,False,1000,True,1.0
./expes/v2_2020-12-03_dh_300-prng-1,30_issda_300,300,rng-300,191,rng,num-start-341,341,25726,10.153824090957642,True,,True,1,False,1000,True,1.0
./expes/v2_2020-12-03_dh_300-prng-1,30_issda_300,300,rng-300,51,rng,num-start-71,71,25726,6.632099151611328,True,,True,1,False,1000,True,1.0
./expes/v2_2020-12-03_dh_300-prng-1,30_issda_300,300,rng-300,241,rng,num-start-631,631,25726,14.484577655792236,True,,True,1,False,1000,True,1.0
./expes/v2_2020-12-03_dh_300-prng-1,30_issda_300,300,rng-300,271,rng,num-start-391,391,25726,10.062989234924316,True,,True,1,False,1000,True,1.0
./expes/v2_2020-12-03_dh_300-prng-1,30_issda_300,300,rng-300,271,rng,num-start-91,91,25726,3.1047756671905518,True,,True,1,False,1000,True,1.0
./expes/v2_2020-12-03_dh_300-prng-1,30_issda_300,300,rng-300,271,rng,num-start-581,581,25726,13.69886040687561,True,,True,1,False,1000,True,1.0
./expes/v2_2020-12-03_dh_300-prng-1,30_issda_300,300,rng-300,41,rng,num-start-631,631,25726,15.941318273544312,True,,True,1,False,1000,True,1.0
./expes/v2_2020-12-03_dh_300-prng-1,30_issda_300,300,rng-300,31,rng,num-start-571,571,25726,15.876695394515991,True,,True,1,False,1000,True,1.0
./expes/v2_2020-12-03_dh_300-prng-1,30_issda_300,300,rng-300,21,rng,num-start-161,161,25726,4.194061756134033,True,,True,1,False,1000,True,1.0
./expes/v2_2020-12-03_dh_300-prng-1,30_issda_300,300,rng-300,201,rng,num-start-511,511,25726,15.224461555480957,True,,True,1,False,1000,True,1.0
./expes/v2_2020-12-03_dh_300-prng-1,30_issda_300,300,rng-300,1,rng,num-start-301,301,25726,5.773319482803345,True,,True,1,False,1000,True,1.0
./expes/v2_2020-12-03_dh_300-prng-1,30_issda_300,300,rng-300,101,rng,num-start-241,241,25726,7.220540761947632,True,,True,1,False,1000,True,1.0
./expes/v2_2020-12-03_dh_300-prng-1,30_issda_300,300,rng-300,131,rng,num-start-701,701,25726,19.533677577972412,True,,True,1,False,1000,True,1.0
./expes/v2_2020-12-03_dh_300-prng-1,30_issda_300,300,rng-300,171,rng,num-start-181,181,25726,5.449365854263306,True,,True,1,False,1000,True,1.0
./expes/v2_2020-12-03_dh_300-prng-1,30_issda_300,300,rng-300,71,rng,num-start-971,971,25726,24.622374773025513,True,,True,1,False,1000,True,1.0
./expes/v2_2020-12-03_dh_300-prng-1,30_issda_300,300,rng-300,171,rng,num-start-741,741,25726,24.624861001968384,True,,True,1,False,1000,True,1.0
./expes/v2_2020-12-03_dh_300-prng-1,30_issda_300,300,rng-300,41,rng,num-start-1,1,25726,0.03458523750305176,False,,False,2,False,1000,True,1.0
./expes/v2_2020-12-03_dh_300-prng-1,30_issda_300,300,rng-300,221,rng,num-start-271,271,25726,7.540038824081421,True,,True,1,False,1000,True,1.0
./expes/v2_2020-12-03_dh_300-prng-1,30_issda_300,300,rng-300,191,rng,num-start-351,351,25726,9.28990626335144,True,,True,1,False,1000,True,1.0
./expes/v2_2020-12-03_dh_300-prng-1,30_issda_300,300,rng-300,281,rng,num-start-141,141,25726,3.519561529159546,True,,True,1,False,1000,True,1.0
./expes/v2_2020-12-03_dh_300-prng-1,30_issda_300,300,rng-300,101,rng,num-start-981,981,25726,25.178524255752563,True,,True,1,False,1000,True,1.0
./expes/v2_2020-12-03_dh_300-prng-1,30_issda_300,300,rng-300,191,rng,num-start-991,991,25726,26.29599404335022,True,,True,1,False,1000,True,1.0
./expes/v2_2020-12-03_dh_300-prng-1,30_issda_300,300,rng-300,181,rng,num-start-371,371,25726,11.735004425048828,True,,True,1,False,1000,True,1.0
./expes/v2_2020-12-03_dh_300-prng-1,30_issda_300,300,rng-300,241,rng,num-start-221,221,25726,6.017336130142212,True,,True,1,False,1000,True,1.0
./expes/v2_2020-12-03_dh_300-prng-1,30_issda_300,300,rng-300,91,rng,num-start-951,951,25726,23.40493154525757,True,,True,1,False,1000,True,1.0
./expes/v2_2020-12-03_dh_300-prng-1,30_issda_300,300,rng-300,281,rng,num-start-371,371,25726,8.262565612792969,True,,True,1,False,1000,True,1.0
./expes/v2_2020-12-03_dh_300-prng-1,30_issda_300,300,rng-300,121,rng,num-start-541,541,25726,14.208702325820923,True,,True,1,False,1000,True,1.0
./expes/v2_2020-12-03_dh_300-prng-1,30_issda_300,300,rng-300,151,rng,num-start-141,141,25726,8.949440956115723,True,,True,1,False,1000,True,1.0
./expes/v2_2020-12-03_dh_300-prng-1,30_issda_300,300,rng-300,121,rng,num-start-361,361,25726,8.81645154953003,True,,True,1,False,1000,True,1.0
./expes/v2_2020-12-03_dh_300-prng-1,30_issda_300,300,rng-300,231,rng,num-start-631,631,25726,16.454839944839478,True,,True,1,False,1000,True,1.0
./expes/v2_2020-12-03_dh_300-prng-1,30_issda_300,300,rng-300,201,rng,num-start-781,781,25726,19.70298147201538,True,,True,1,False,1000,True,1.0
./expes/v2_2020-12-03_dh_300-prng-1,30_issda_300,300,rng-300,231,rng,num-start-721,721,25726,18.410797357559204,True,,True,1,False,1000,True,1.0
./expes/v2_2020-12-03_dh_300-prng-1,30_issda_300,300,rng-300,51,rng,num-start-941,941,25726,23.62656545639038,True,,True,1,False,1000,True,1.0
./expes/v2_2020-12-03_dh_300-prng-1,30_issda_300,300,rng-300,261,rng,num-start-501,501,25726,13.466179609298706,True,,True,1,False,1000,True,1.0
./expes/v2_2020-12-03_dh_300-prng-1,30_issda_300,300,rng-300,251,rng,num-start-871,871,25726,21.99262523651123,True,,True,1,False,1000,True,1.0
./expes/v2_2020-12-03_dh_300-prng-1,30_issda_300,300,rng-300,201,rng,num-start-91,91,25726,1001.9586493968964,False,,False,0,True,1000,True,0.0
./expes/v2_2020-12-03_dh_300-prng-1,30_issda_300,300,rng-300,281,rng,num-start-351,351,25726,9.204464435577393,True,,True,1,False,1000,True,1.0
./expes/v2_2020-12-03_dh_300-prng-1,30_issda_300,300,rng-300,211,rng,num-start-811,811,25726,25.134618520736694,True,,True,1,False,1000,True,1.0
./expes/v2_2020-12-03_dh_300-prng-1,30_issda_300,300,rng-300,101,rng,num-start-731,731,25726,19.70426917076111,True,,True,1,False,1000,True,1.0
./expes/v2_2020-12-03_dh_300-prng-1,30_issda_300,300,rng-300,261,rng,num-start-1,1,25726,0.06554102897644043,False,,False,2,False,1000,True,1.0
./expes/v2_2020-12-03_dh_300-prng-1,30_issda_300,300,rng-300,251,rng,num-start-751,751,25726,17.932456016540527,True,,True,1,False,1000,True,1.0
./expes/v2_2020-12-03_dh_300-prng-1,30_issda_300,300,rng-300,91,rng,num-start-11,11,25726,1000.3564643859863,False,,False,0,True,1000,True,0.0
./expes/v2_2020-12-03_dh_300-prng-1,30_issda_300,300,rng-300,211,rng,num-start-331,331,25726,10.17749285697937,True,,True,1,False,1000,True,1.0
./expes/v2_2020-12-03_dh_300-prng-1,30_issda_300,300,rng-300,281,rng,num-start-581,581,25726,13.076154947280884,True,,True,1,False,1000,True,1.0
./expes/v2_2020-12-03_dh_300-prng-1,30_issda_300,300,rng-300,101,rng,num-start-341,341,25726,10.839313268661499,True,,True,1,False,1000,True,1.0
./expes/v2_2020-12-03_dh_300-prng-1,30_issda_300,300,rng-300,121,rng,num-start-691,691,25726,19.185570240020752,True,,True,1,False,1000,True,1.0
./expes/v2_2020-12-03_dh_300-prng-1,30_issda_300,300,rng-300,201,rng,num-start-831,831,25726,19.4320330619812,True,,True,1,False,1000,True,1.0
./expes/v2_2020-12-03_dh_300-prng-1,30_issda_300,300,rng-300,1,rng,num-start-311,311,25726,5.834900617599487,True,,True,1,False,1000,True,1.0
./expes/v2_2020-12-03_dh_300-prng-1,30_issda_300,300,rng-300,61,rng,num-start-881,881,25726,23.21971082687378,True,,True,1,False,1000,True,1.0
./expes/v2_2020-12-03_dh_300-prng-1,30_issda_300,300,rng-300,111,rng,num-start-191,191,25726,5.949903726577759,True,,True,1,False,1000,True,1.0
./expes/v2_2020-12-03_dh_300-prng-1,30_issda_300,300,rng-300,231,rng,num-start-501,501,25726,12.158577680587769,True,,True,1,False,1000,True,1.0
./expes/v2_2020-12-03_dh_300-prng-1,30_issda_300,300,rng-300,221,rng,num-start-981,981,25726,23.44707417488098,True,,True,1,False,1000,True,1.0
./expes/v2_2020-12-03_dh_300-prng-1,30_issda_300,300,rng-300,271,rng,num-start-321,321,25726,8.160098791122437,True,,True,1,False,1000,True,1.0
./expes/v2_2020-12-03_dh_300-prng-1,30_issda_300,300,rng-300,231,rng,num-start-691,691,25726,17.231518268585205,True,,True,1,False,1000,True,1.0
./expes/v2_2020-12-03_dh_300-prng-1,30_issda_300,300,rng-300,121,rng,num-start-181,181,25726,5.380614995956421,True,,True,1,False,1000,True,1.0
./expes/v2_2020-12-03_dh_300-prng-1,30_issda_300,300,rng-300,91,rng,num-start-871,871,25726,23.49775266647339,True,,True,1,False,1000,True,1.0
./expes/v2_2020-12-03_dh_300-prng-1,30_issda_300,300,rng-300,201,rng,num-start-781,781,25726,22.518668174743652,True,,True,1,False,1000,True,1.0
./expes/v2_2020-12-03_dh_300-prng-1,30_issda_300,300,rng-300,121,rng,num-start-311,311,25726,10.838483810424805,True,,True,1,False,1000,True,1.0
./expes/v2_2020-12-03_dh_300-prng-1,30_issda_300,300,rng-300,171,rng,num-start-551,551,25726,13.960654497146606,True,,True,1,False,1000,True,1.0
./expes/v2_2020-12-03_dh_300-prng-1,30_issda_300,300,rng-300,291,rng,num-start-391,391,25726,8.32877230644226,True,,True,1,False,1000,True,1.0
./expes/v2_2020-12-03_dh_300-prng-1,30_issda_300,300,rng-300,91,rng,num-start-831,831,25726,19.602243661880493,True,,True,1,False,1000,True,1.0
./expes/v2_2020-12-03_dh_300-prng-1,30_issda_300,300,rng-300,141,rng,num-start-741,741,25726,21.559544563293457,True,,True,1,False,1000,True,1.0
./expes/v2_2020-12-03_dh_300-prng-1,30_issda_300,300,rng-300,61,rng,num-start-161,161,25726,4.698992967605591,True,,True,1,False,1000,True,1.0
./expes/v2_2020-12-03_dh_300-prng-1,30_issda_300,300,rng-300,31,rng,num-start-691,691,25726,17.454601287841797,True,,True,1,False,1000,True,1.0
./expes/v2_2020-12-03_dh_300-prng-1,30_issda_300,300,rng-300,231,rng,num-start-661,661,25726,20.09572148323059,True,,True,1,False,1000,True,1.0
./expes/v2_2020-12-03_dh_300-prng-1,30_issda_300,300,rng-300,51,rng,num-start-901,901,25726,23.34059190750122,True,,True,1,False,1000,True,1.0
./expes/v2_2020-12-03_dh_300-prng-1,30_issda_300,300,rng-300,151,rng,num-start-481,481,25726,13.929009914398193,True,,True,1,False,1000,True,1.0
./expes/v2_2020-12-03_dh_300-prng-1,30_issda_300,300,rng-300,231,rng,num-start-701,701,25726,19.405327081680298,True,,True,1,False,1000,True,1.0
./expes/v2_2020-12-03_dh_300-prng-1,30_issda_300,300,rng-300,61,rng,num-start-731,731,25726,17.74989104270935,True,,True,1,False,1000,True,1.0
./expes/v2_2020-12-03_dh_300-prng-1,30_issda_300,300,rng-300,291,rng,num-start-841,841,25726,16.30939745903015,True,,True,1,False,1000,True,1.0
./expes/v2_2020-12-03_dh_300-prng-1,30_issda_300,300,rng-300,51,rng,num-start-781,781,25726,20.616035223007202,True,,True,1,False,1000,True,1.0
./expes/v2_2020-12-03_dh_300-prng-1,30_issda_300,300,rng-300,281,rng,num-start-1,1,25726,0.047263145446777344,False,,False,2,False,1000,True,1.0
./expes/v2_2020-12-03_dh_300-prng-1,30_issda_300,300,rng-300,41,rng,num-start-761,761,25726,18.917664766311646,True,,True,1,False,1000,True,1.0
./expes/v2_2020-12-03_dh_300-prng-1,30_issda_300,300,rng-300,221,rng,num-start-411,411,25726,10.283589839935303,True,,True,1,False,1000,True,1.0
./expes/v2_2020-12-03_dh_300-prng-1,30_issda_300,300,rng-300,201,rng,num-start-311,311,25726,9.00920581817627,True,,True,1,False,1000,True,1.0
./expes/v2_2020-12-03_dh_300-prng-1,30_issda_300,300,rng-300,1,rng,num-start-641,641,25726,12.863138675689697,True,,True,1,False,1000,True,1.0
./expes/v2_2020-12-03_dh_300-prng-1,30_issda_300,300,rng-300,271,rng,num-start-601,601,25726,14.06754183769226,True,,True,1,False,1000,True,1.0
./expes/v2_2020-12-03_dh_300-prng-1,30_issda_300,300,rng-300,221,rng,num-start-941,941,25726,22.05602240562439,False,,False,2,False,1000,True,1.0
./expes/v2_2020-12-03_dh_300-prng-1,30_issda_300,300,rng-300,41,rng,num-start-91,91,25726,4.105788469314575,True,,True,1,False,1000,True,1.0
./expes/v2_2020-12-03_dh_300-prng-1,30_issda_300,300,rng-300,291,rng,num-start-1,1,25726,0.1120767593383789,False,,False,2,False,1000,True,1.0
./expes/v2_2020-12-03_dh_300-prng-1,30_issda_300,300,rng-300,131,rng,num-start-371,371,25726,10.488833665847778,True,,True,1,False,1000,True,1.0
./expes/v2_2020-12-03_dh_300-prng-1,30_issda_300,300,rng-300,81,rng,num-start-601,601,25726,14.753793716430664,True,,True,1,False,1000,True,1.0
./expes/v2_2020-12-03_dh_300-prng-1,30_issda_300,300,rng-300,81,rng,num-start-731,731,25726,18.87854552268982,True,,True,1,False,1000,True,1.0
./expes/v2_2020-12-03_dh_300-prng-1,30_issda_300,300,rng-300,171,rng,num-start-41,41,25726,1000.8473787307739,False,,False,0,True,1000,True,0.0
./expes/v2_2020-12-03_dh_300-prng-1,30_issda_300,300,rng-300,81,rng,num-start-391,391,25726,9.23023772239685,True,,True,1,False,1000,True,1.0
./expes/v2_2020-12-03_dh_300-prng-1,30_issda_300,300,rng-300,221,rng,num-start-161,161,25726,4.499291896820068,True,,True,1,False,1000,True,1.0
./expes/v2_2020-12-03_dh_300-prng-1,30_issda_300,300,rng-300,71,rng,num-start-331,331,25726,7.6456334590911865,True,,True,1,False,1000,True,1.0
./expes/v2_2020-12-03_dh_300-prng-1,30_issda_300,300,rng-300,221,rng,num-start-361,361,25726,10.054225444793701,True,,True,1,False,1000,True,1.0
./expes/v2_2020-12-03_dh_300-prng-1,30_issda_300,300,rng-300,91,rng,num-start-171,171,25726,4.908547401428223,True,,True,1,False,1000,True,1.0
./expes/v2_2020-12-03_dh_300-prng-1,30_issda_300,300,rng-300,91,rng,num-start-901,901,25726,22.878317832946777,True,,True,1,False,1000,True,1.0
./expes/v2_2020-12-03_dh_300-prng-1,30_issda_300,300,rng-300,191,rng,num-start-171,171,25726,4.9221031665802,True,,True,1,False,1000,True,1.0
./expes/v2_2020-12-03_dh_300-prng-1,30_issda_300,300,rng-300,201,rng,num-start-181,181,25726,5.665662050247192,True,,True,1,False,1000,True,1.0
./expes/v2_2020-12-03_dh_300-prng-1,30_issda_300,300,rng-300,31,rng,num-start-661,661,25726,15.768856525421143,True,,True,1,False,1000,True,1.0
./expes/v2_2020-12-03_dh_300-prng-1,30_issda_300,300,rng-300,111,rng,num-start-141,141,25726,4.587450981140137,True,,True,1,False,1000,True,1.0
./expes/v2_2020-12-03_dh_300-prng-1,30_issda_300,300,rng-300,51,rng,num-start-321,321,25726,7.502307653427124,True,,True,1,False,1000,True,1.0
./expes/v2_2020-12-03_dh_300-prng-1,30_issda_300,300,rng-300,31,rng,num-start-281,281,25726,6.468604564666748,True,,True,1,False,1000,True,1.0
./expes/v2_2020-12-03_dh_300-prng-1,30_issda_300,300,rng-300,71,rng,num-start-491,491,25726,11.706543445587158,True,,True,1,False,1000,True,1.0
./expes/v2_2020-12-03_dh_300-prng-1,30_issda_300,300,rng-300,11,rng,num-start-691,691,25726,14.126419305801392,True,,True,1,False,1000,True,1.0
./expes/v2_2020-12-03_dh_300-prng-1,30_issda_300,300,rng-300,191,rng,num-start-551,551,25726,14.507805347442627,True,,True,1,False,1000,True,1.0
./expes/v2_2020-12-03_dh_300-prng-1,30_issda_300,300,rng-300,61,rng,num-start-541,541,25726,12.890043258666992,True,,True,1,False,1000,True,1.0
./expes/v2_2020-12-03_dh_300-prng-1,30_issda_300,300,rng-300,121,rng,num-start-661,661,25726,18.44037437438965,True,,True,1,False,1000,True,1.0
./expes/v2_2020-12-03_dh_300-prng-1,30_issda_300,300,rng-300,291,rng,num-start-21,21,25726,0.9769468307495117,True,,True,1,False,1000,True,1.0
./expes/v2_2020-12-03_dh_300-prng-1,30_issda_300,300,rng-300,81,rng,num-start-71,71,25726,1001.4056849479675,False,,False,0,True,1000,True,0.0
./expes/v2_2020-12-03_dh_300-prng-1,30_issda_300,300,rng-300,251,rng,num-start-821,821,25726,21.339390993118286,True,,True,1,False,1000,True,1.0
./expes/v2_2020-12-03_dh_300-prng-1,30_issda_300,300,rng-300,121,rng,num-start-481,481,25726,12.079338550567627,True,,True,1,False,1000,True,1.0
./expes/v2_2020-12-03_dh_300-prng-1,30_issda_300,300,rng-300,211,rng,num-start-441,441,25726,11.854357481002808,True,,True,1,False,1000,True,1.0
./expes/v2_2020-12-03_dh_300-prng-1,30_issda_300,300,rng-300,221,rng,num-start-661,661,25726,19.085972785949707,True,,True,1,False,1000,True,1.0
./expes/v2_2020-12-03_dh_300-prng-1,30_issda_300,300,rng-300,81,rng,num-start-171,171,25726,4.941239356994629,True,,True,1,False,1000,True,1.0
./expes/v2_2020-12-03_dh_300-prng-1,30_issda_300,300,rng-300,81,rng,num-start-741,741,25726,22.354522228240967,True,,True,1,False,1000,True,1.0
./expes/v2_2020-12-03_dh_300-prng-1,30_issda_300,300,rng-300,141,rng,num-start-591,591,25726,14.249205827713013,True,,True,1,False,1000,True,1.0
./expes/v2_2020-12-03_dh_300-prng-1,30_issda_300,300,rng-300,181,rng,num-start-691,691,25726,18.686851739883423,True,,True,1,False,1000,True,1.0
./expes/v2_2020-12-03_dh_300-prng-1,30_issda_300,300,rng-300,41,rng,num-start-101,101,25726,2.6564137935638428,True,,True,1,False,1000,True,1.0
./expes/v2_2020-12-03_dh_300-prng-1,30_issda_300,300,rng-300,211,rng,num-start-141,141,25726,4.049681663513184,True,,True,1,False,1000,True,1.0
./expes/v2_2020-12-03_dh_300-prng-1,30_issda_300,300,rng-300,11,rng,num-start-521,521,25726,9.988427639007568,True,,True,1,False,1000,True,1.0
./expes/v2_2020-12-03_dh_300-prng-1,30_issda_300,300,rng-300,281,rng,num-start-451,451,25726,10.527118921279907,True,,True,1,False,1000,True,1.0
./expes/v2_2020-12-03_dh_300-prng-1,30_issda_300,300,rng-300,171,rng,num-start-951,951,25726,23.233622789382935,True,,True,1,False,1000,True,1.0
./expes/v2_2020-12-03_dh_300-prng-1,30_issda_300,300,rng-300,41,rng,num-start-641,641,25726,17.178956747055054,True,,True,1,False,1000,True,1.0
./expes/v2_2020-12-03_dh_300-prng-1,30_issda_300,300,rng-300,181,rng,num-start-221,221,25726,6.382707595825195,True,,True,1,False,1000,True,1.0
./expes/v2_2020-12-03_dh_300-prng-1,30_issda_300,300,rng-300,11,rng,num-start-661,661,25726,14.717296838760376,True,,True,1,False,1000,True,1.0
./expes/v2_2020-12-03_dh_300-prng-1,30_issda_300,300,rng-300,191,rng,num-start-981,981,25726,24.67902374267578,True,,True,1,False,1000,True,1.0
./expes/v2_2020-12-03_dh_300-prng-1,30_issda_300,300,rng-300,1,rng,num-start-331,331,25726,6.345602750778198,True,,True,1,False,1000,True,1.0
./expes/v2_2020-12-03_dh_300-prng-1,30_issda_300,300,rng-300,121,rng,num-start-61,61,25726,1001.2690510749817,False,,False,0,True,1000,True,0.0
./expes/v2_2020-12-03_dh_300-prng-1,30_issda_300,300,rng-300,261,rng,num-start-881,881,25726,21.469249725341797,True,,True,1,False,1000,True,1.0
./expes/v2_2020-12-03_dh_300-prng-1,30_issda_300,300,rng-300,21,rng,num-start-591,591,25726,12.590166330337524,True,,True,1,False,1000,True,1.0
./expes/v2_2020-12-03_dh_300-prng-1,30_issda_300,300,rng-300,11,rng,num-start-871,871,25726,17.69115924835205,True,,True,1,False,1000,True,1.0
./expes/v2_2020-12-03_dh_300-prng-1,30_issda_300,300,rng-300,271,rng,num-start-501,501,25726,11.244427919387817,True,,True,1,False,1000,True,1.0
./expes/v2_2020-12-03_dh_300-prng-1,30_issda_300,300,rng-300,171,rng,num-start-611,611,25726,19.241324424743652,True,,True,1,False,1000,True,1.0
./expes/v2_2020-12-03_dh_300-prng-1,30_issda_300,300,rng-300,81,rng,num-start-941,941,25726,28.22919797897339,True,,True,1,False,1000,True,1.0
./expes/v2_2020-12-03_dh_300-prng-1,30_issda_300,300,rng-300,201,rng,num-start-331,331,25726,10.370106220245361,True,,True,1,False,1000,True,1.0
./expes/v2_2020-12-03_dh_300-prng-1,30_issda_300,300,rng-300,151,rng,num-start-271,271,25726,8.60277247428894,True,,True,1,False,1000,True,1.0
./expes/v2_2020-12-03_dh_300-prng-1,30_issda_300,300,rng-300,71,rng,num-start-931,931,25726,24.902252674102783,True,,True,1,False,1000,True,1.0
./expes/v2_2020-12-03_dh_300-prng-1,30_issda_300,300,rng-300,31,rng,num-start-611,611,25726,13.278253316879272,True,,True,1,False,1000,True,1.0
./expes/v2_2020-12-03_dh_300-prng-1,30_issda_300,300,rng-300,31,rng,num-start-201,201,25726,5.054053544998169,True,,True,1,False,1000,True,1.0
./expes/v2_2020-12-03_dh_300-prng-1,30_issda_300,300,rng-300,1,rng,num-start-911,911,25726,17.2973473072052,True,,True,1,False,1000,True,1.0
./expes/v2_2020-12-03_dh_300-prng-1,30_issda_300,300,rng-300,141,rng,num-start-311,311,25726,8.86722993850708,True,,True,1,False,1000,True,1.0
./expes/v2_2020-12-03_dh_300-prng-1,30_issda_300,300,rng-300,131,rng,num-start-961,961,25726,26.441646814346313,True,,True,1,False,1000,True,1.0
./expes/v2_2020-12-03_dh_300-prng-1,30_issda_300,300,rng-300,111,rng,num-start-221,221,25726,6.225008249282837,True,,True,1,False,1000,True,1.0
./expes/v2_2020-12-03_dh_300-prng-1,30_issda_300,300,rng-300,151,rng,num-start-771,771,25726,20.49321484565735,True,,True,1,False,1000,True,1.0
./expes/v2_2020-12-03_dh_300-prng-1,30_issda_300,300,rng-300,71,rng,num-start-241,241,25726,7.015864849090576,True,,True,1,False,1000,True,1.0
./expes/v2_2020-12-03_dh_300-prng-1,30_issda_300,300,rng-300,1,rng,num-start-521,521,25726,9.65172791481018,True,,True,1,False,1000,True,1.0
./expes/v2_2020-12-03_dh_300-prng-1,30_issda_300,300,rng-300,271,rng,num-start-361,361,25726,8.698633670806885,True,,True,1,False,1000,True,1.0
./expes/v2_2020-12-03_dh_300-prng-1,30_issda_300,300,rng-300,71,rng,num-start-511,511,25726,11.24384355545044,True,,True,1,False,1000,True,1.0
./expes/v2_2020-12-03_dh_300-prng-1,30_issda_300,300,rng-300,71,rng,num-start-61,61,25726,1001.203405380249,False,,False,0,True,1000,True,0.0
./expes/v2_2020-12-03_dh_300-prng-1,30_issda_300,300,rng-300,71,rng,num-start-351,351,25726,10.046221733093262,True,,True,1,False,1000,True,1.0
./expes/v2_2020-12-03_dh_300-prng-1,30_issda_300,300,rng-300,271,rng,num-start-721,721,25726,15.989706993103027,True,,True,1,False,1000,True,1.0
./expes/v2_2020-12-03_dh_300-prng-1,30_issda_300,300,rng-300,221,rng,num-start-901,901,25726,22.56682062149048,True,,True,1,False,1000,True,1.0
./expes/v2_2020-12-03_dh_300-prng-1,30_issda_300,300,rng-300,141,rng,num-start-931,931,25726,26.35376262664795,True,,True,1,False,1000,True,1.0
./expes/v2_2020-12-03_dh_300-prng-1,30_issda_300,300,rng-300,251,rng,num-start-671,671,25726,16.123891353607178,True,,True,1,False,1000,True,1.0
./expes/v2_2020-12-03_dh_300-prng-1,30_issda_300,300,rng-300,71,rng,num-start-561,561,25726,13.82232666015625,True,,True,1,False,1000,True,1.0
./expes/v2_2020-12-03_dh_300-prng-1,30_issda_300,300,rng-300,61,rng,num-start-311,311,25726,8.390963792800903,True,,True,1,False,1000,True,1.0
./expes/v2_2020-12-03_dh_300-prng-1,30_issda_300,300,rng-300,181,rng,num-start-231,231,25726,6.896053791046143,True,,True,1,False,1000,True,1.0
./expes/v2_2020-12-03_dh_300-prng-1,30_issda_300,300,rng-300,131,rng,num-start-361,361,25726,9.404836654663086,True,,True,1,False,1000,True,1.0
./expes/v2_2020-12-03_dh_300-prng-1,30_issda_300,300,rng-300,31,rng,num-start-391,391,25726,9.867218255996704,True,,True,1,False,1000,True,1.0
./expes/v2_2020-12-03_dh_300-prng-1,30_issda_300,300,rng-300,61,rng,num-start-241,241,25726,6.785804748535156,True,,True,1,False,1000,True,1.0
./expes/v2_2020-12-03_dh_300-prng-1,30_issda_300,300,rng-300,261,rng,num-start-491,491,25726,11.467209339141846,True,,True,1,False,1000,True,1.0
./expes/v2_2020-12-03_dh_300-prng-1,30_issda_300,300,rng-300,131,rng,num-start-151,151,25726,7.518846750259399,True,,True,1,False,1000,True,1.0
./expes/v2_2020-12-03_dh_300-prng-1,30_issda_300,300,rng-300,71,rng,num-start-631,631,25726,13.870591640472412,True,,True,1,False,1000,True,1.0
./expes/v2_2020-12-03_dh_300-prng-1,30_issda_300,300,rng-300,71,rng,num-start-381,381,25726,11.762477397918701,True,,True,1,False,1000,True,1.0
./expes/v2_2020-12-03_dh_300-prng-1,30_issda_300,300,rng-300,281,rng,num-start-551,551,25726,12.430213928222656,True,,True,1,False,1000,True,1.0
./expes/v2_2020-12-03_dh_300-prng-1,30_issda_300,300,rng-300,111,rng,num-start-791,791,25726,20.475147247314453,True,,True,1,False,1000,True,1.0
./expes/v2_2020-12-03_dh_300-prng-1,30_issda_300,300,rng-300,201,rng,num-start-561,561,25726,14.219226598739624,True,,True,1,False,1000,True,1.0
./expes/v2_2020-12-03_dh_300-prng-1,30_issda_300,300,rng-300,11,rng,num-start-871,871,25726,19.053285837173462,True,,True,1,False,1000,True,1.0
./expes/v2_2020-12-03_dh_300-prng-1,30_issda_300,300,rng-300,21,rng,num-start-821,821,25726,20.884961128234863,True,,True,1,False,1000,True,1.0
./expes/v2_2020-12-03_dh_300-prng-1,30_issda_300,300,rng-300,231,rng,num-start-131,131,25726,6.703570604324341,True,,True,1,False,1000,True,1.0
./expes/v2_2020-12-03_dh_300-prng-1,30_issda_300,300,rng-300,131,rng,num-start-451,451,25726,12.42504072189331,True,,True,1,False,1000,True,1.0
./expes/v2_2020-12-03_dh_300-prng-1,30_issda_300,300,rng-300,161,rng,num-start-841,841,25726,25.578495264053345,True,,True,1,False,1000,True,1.0
./expes/v2_2020-12-03_dh_300-prng-1,30_issda_300,300,rng-300,51,rng,num-start-351,351,25726,11.014222383499146,True,,True,1,False,1000,True,1.0
./expes/v2_2020-12-03_dh_300-prng-1,30_issda_300,300,rng-300,231,rng,num-start-71,71,25726,1001.406507730484,False,,False,0,True,1000,True,0.0
./expes/v2_2020-12-03_dh_300-prng-1,30_issda_300,300,rng-300,171,rng,num-start-631,631,25726,16.203840494155884,True,,True,1,False,1000,True,1.0
./expes/v2_2020-12-03_dh_300-prng-1,30_issda_300,300,rng-300,121,rng,num-start-331,331,25726,9.500197887420654,True,,True,1,False,1000,True,1.0
./expes/v2_2020-12-03_dh_300-prng-1,30_issda_300,300,rng-300,51,rng,num-start-461,461,25726,11.241715908050537,True,,True,1,False,1000,True,1.0
./expes/v2_2020-12-03_dh_300-prng-1,30_issda_300,300,rng-300,131,rng,num-start-961,961,25726,25.076279401779175,True,,True,1,False,1000,True,1.0
./expes/v2_2020-12-03_dh_300-prng-1,30_issda_300,300,rng-300,151,rng,num-start-451,451,25726,12.319774627685547,True,,True,1,False,1000,True,1.0
./expes/v2_2020-12-03_dh_300-prng-1,30_issda_300,300,rng-300,151,rng,num-start-91,91,25726,1001.7830674648285,False,,False,1,True,1000,True,0.0
./expes/v2_2020-12-03_dh_300-prng-1,30_issda_300,300,rng-300,21,rng,num-start-121,121,25726,2.952747106552124,True,,True,1,False,1000,True,1.0
./expes/v2_2020-12-03_dh_300-prng-1,30_issda_300,300,rng-300,221,rng,num-start-51,51,25726,1000.9034614562988,False,,False,0,True,1000,True,0.0
./expes/v2_2020-12-03_dh_300-prng-1,30_issda_300,300,rng-300,131,rng,num-start-471,471,25726,13.472277164459229,True,,True,1,False,1000,True,1.0
./expes/v2_2020-12-03_dh_300-prng-1,30_issda_300,300,rng-300,161,rng,num-start-881,881,25726,20.94503378868103,True,,True,1,False,1000,True,1.0
./expes/v2_2020-12-03_dh_300-prng-1,30_issda_300,300,rng-300,131,rng,num-start-441,441,25726,13.147809028625488,True,,True,1,False,1000,True,1.0
./expes/v2_2020-12-03_dh_300-prng-1,30_issda_300,300,rng-300,171,rng,num-start-891,891,25726,24.285318851470947,True,,True,1,False,1000,True,1.0
./expes/v2_2020-12-03_dh_300-prng-1,30_issda_300,300,rng-300,131,rng,num-start-691,691,25726,18.337440729141235,True,,True,1,False,1000,True,1.0
./expes/v2_2020-12-03_dh_300-prng-1,30_issda_300,300,rng-300,211,rng,num-start-861,861,25726,22.661700963974,True,,True,1,False,1000,True,1.0
./expes/v2_2020-12-03_dh_300-prng-1,30_issda_300,300,rng-300,221,rng,num-start-491,491,25726,12.192224502563477,True,,True,1,False,1000,True,1.0
./expes/v2_2020-12-03_dh_300-prng-1,30_issda_300,300,rng-300,31,rng,num-start-741,741,25726,17.67353105545044,True,,True,1,False,1000,True,1.0
./expes/v2_2020-12-03_dh_300-prng-1,30_issda_300,300,rng-300,1,rng,num-start-741,741,25726,14.146238803863525,True,,True,1,False,1000,True,1.0
./expes/v2_2020-12-03_dh_300-prng-1,30_issda_300,300,rng-300,91,rng,num-start-611,611,25726,14.930698156356812,True,,True,1,False,1000,True,1.0
./expes/v2_2020-12-03_dh_300-prng-1,30_issda_300,300,rng-300,211,rng,num-start-61,61,25726,1001.2306723594666,False,,False,0,True,1000,True,0.0
./expes/v2_2020-12-03_dh_300-prng-1,30_issda_300,300,rng-300,11,rng,num-start-231,231,25726,5.924395561218262,True,,True,1,False,1000,True,1.0
./expes/v2_2020-12-03_dh_300-prng-1,30_issda_300,300,rng-300,61,rng,num-start-881,881,25726,19.54146718978882,True,,True,1,False,1000,True,1.0
./expes/v2_2020-12-03_dh_300-prng-1,30_issda_300,300,rng-300,231,rng,num-start-151,151,25726,4.048822641372681,True,,True,1,False,1000,True,1.0
./expes/v2_2020-12-03_dh_300-prng-1,30_issda_300,300,rng-300,191,rng,num-start-741,741,25726,18.27151870727539,True,,True,1,False,1000,True,1.0
./expes/v2_2020-12-03_dh_300-prng-1,30_issda_300,300,rng-300,71,rng,num-start-321,321,25726,7.307867765426636,True,,True,1,False,1000,True,1.0
./expes/v2_2020-12-03_dh_300-prng-1,30_issda_300,300,rng-300,251,rng,num-start-41,41,25726,1000.919365644455,False,,False,0,True,1000,True,0.0
./expes/v2_2020-12-03_dh_300-prng-1,30_issda_300,300,rng-300,11,rng,num-start-121,121,25726,2.948878526687622,True,,True,1,False,1000,True,1.0
./expes/v2_2020-12-03_dh_300-prng-1,30_issda_300,300,rng-300,241,rng,num-start-371,371,25726,8.865478038787842,True,,True,1,False,1000,True,1.0
./expes/v2_2020-12-03_dh_300-prng-1,30_issda_300,300,rng-300,261,rng,num-start-701,701,25726,17.046706914901733,True,,True,1,False,1000,True,1.0
./expes/v2_2020-12-03_dh_300-prng-1,30_issda_300,300,rng-300,181,rng,num-start-561,561,25726,14.128087043762207,True,,True,1,False,1000,True,1.0
./expes/v2_2020-12-03_dh_300-prng-1,30_issda_300,300,rng-300,1,rng,num-start-371,371,25726,6.611633539199829,True,,True,1,False,1000,True,1.0
./expes/v2_2020-12-03_dh_300-prng-1,30_issda_300,300,rng-300,71,rng,num-start-321,321,25726,8.161277532577515,True,,True,1,False,1000,True,1.0
./expes/v2_2020-12-03_dh_300-prng-1,30_issda_300,300,rng-300,201,rng,num-start-151,151,25726,4.992360353469849,True,,True,1,False,1000,True,1.0
./expes/v2_2020-12-03_dh_300-prng-1,30_issda_300,300,rng-300,111,rng,num-start-81,81,25726,1001.4407415390015,False,,False,0,True,1000,True,0.0
./expes/v2_2020-12-03_dh_300-prng-1,30_issda_300,300,rng-300,251,rng,num-start-721,721,25726,15.673410177230835,True,,True,1,False,1000,True,1.0
./expes/v2_2020-12-03_dh_300-prng-1,30_issda_300,300,rng-300,61,rng,num-start-791,791,25726,20.06666922569275,True,,True,1,False,1000,True,1.0
./expes/v2_2020-12-03_dh_300-prng-1,30_issda_300,300,rng-300,141,rng,num-start-481,481,25726,14.91288161277771,True,,True,1,False,1000,True,1.0
./expes/v2_2020-12-03_dh_300-prng-1,30_issda_300,300,rng-300,81,rng,num-start-591,591,25726,15.572328329086304,True,,True,1,False,1000,True,1.0
./expes/v2_2020-12-03_dh_300-prng-1,30_issda_300,300,rng-300,281,rng,num-start-51,51,25726,2.728114366531372,True,,True,1,False,1000,True,1.0
./expes/v2_2020-12-03_dh_300-prng-1,30_issda_300,300,rng-300,261,rng,num-start-771,771,25726,18.571194410324097,True,,True,1,False,1000,True,1.0
./expes/v2_2020-12-03_dh_300-prng-1,30_issda_300,300,rng-300,21,rng,num-start-621,621,25726,14.443108081817627,True,,True,1,False,1000,True,1.0
./expes/v2_2020-12-03_dh_300-prng-1,30_issda_300,300,rng-300,91,rng,num-start-151,151,25726,4.425879001617432,True,,True,1,False,1000,True,1.0
./expes/v2_2020-12-03_dh_300-prng-1,30_issda_300,300,rng-300,71,rng,num-start-571,571,25726,14.22365140914917,True,,True,1,False,1000,True,1.0
./expes/v2_2020-12-03_dh_300-prng-1,30_issda_300,300,rng-300,161,rng,num-start-301,301,25726,8.039552688598633,True,,True,1,False,1000,True,1.0
./expes/v2_2020-12-03_dh_300-prng-1,30_issda_300,300,rng-300,111,rng,num-start-301,301,25726,9.735285758972168,True,,True,1,False,1000,True,1.0
./expes/v2_2020-12-03_dh_300-prng-1,30_issda_300,300,rng-300,181,rng,num-start-311,311,25726,9.567866802215576,True,,True,1,False,1000,True,1.0
./expes/v2_2020-12-03_dh_300-prng-1,30_issda_300,300,rng-300,161,rng,num-start-921,921,25726,23.125770092010498,True,,True,1,False,1000,True,1.0
./expes/v2_2020-12-03_dh_300-prng-1,30_issda_300,300,rng-300,271,rng,num-start-741,741,25726,18.284677743911743,True,,True,1,False,1000,True,1.0
./expes/v2_2020-12-03_dh_300-prng-1,30_issda_300,300,rng-300,251,rng,num-start-721,721,25726,17.26594305038452,True,,True,1,False,1000,True,1.0
./expes/v2_2020-12-03_dh_300-prng-1,30_issda_300,300,rng-300,261,rng,num-start-621,621,25726,16.830570220947266,True,,True,1,False,1000,True,1.0
./expes/v2_2020-12-03_dh_300-prng-1,30_issda_300,300,rng-300,51,rng,num-start-191,191,25726,5.382798194885254,True,,True,1,False,1000,True,1.0
./expes/v2_2020-12-03_dh_300-prng-1,30_issda_300,300,rng-300,161,rng,num-start-91,91,25726,1001.849335193634,False,,False,0,True,1000,True,0.0
./expes/v2_2020-12-03_dh_300-prng-1,30_issda_300,300,rng-300,141,rng,num-start-401,401,25726,12.76572322845459,True,,True,1,False,1000,True,1.0
./expes/v2_2020-12-03_dh_300-prng-1,30_issda_300,300,rng-300,191,rng,num-start-451,451,25726,12.160516738891602,True,,True,1,False,1000,True,1.0
./expes/v2_2020-12-03_dh_300-prng-1,30_issda_300,300,rng-300,151,rng,num-start-301,301,25726,8.298893690109253,True,,True,1,False,1000,True,1.0
./expes/v2_2020-12-03_dh_300-prng-1,30_issda_300,300,rng-300,221,rng,num-start-911,911,25726,23.349043130874634,True,,True,1,False,1000,True,1.0
./expes/v2_2020-12-03_dh_300-prng-1,30_issda_300,300,rng-300,211,rng,num-start-81,81,25726,1001.637038230896,False,,False,0,True,1000,True,0.0
./expes/v2_2020-12-03_dh_300-prng-1,30_issda_300,300,rng-300,211,rng,num-start-511,511,25726,13.076101541519165,True,,True,1,False,1000,True,1.0
./expes/v2_2020-12-03_dh_300-prng-1,30_issda_300,300,rng-300,231,rng,num-start-211,211,25726,5.590001583099365,True,,True,1,False,1000,True,1.0
./expes/v2_2020-12-03_dh_300-prng-1,30_issda_300,300,rng-300,161,rng,num-start-131,131,25726,8.913029670715332,True,,True,1,False,1000,True,1.0
./expes/v2_2020-12-03_dh_300-prng-1,30_issda_300,300,rng-300,1,rng,num-start-251,251,25726,4.59130597114563,True,,True,1,False,1000,True,1.0
./expes/v2_2020-12-03_dh_300-prng-1,30_issda_300,300,rng-300,11,rng,num-start-271,271,25726,6.028763294219971,True,,True,1,False,1000,True,1.0
./expes/v2_2020-12-03_dh_300-prng-1,30_issda_300,300,rng-300,271,rng,num-start-171,171,25726,3.8033995628356934,True,,True,1,False,1000,True,1.0
./expes/v2_2020-12-03_dh_300-prng-1,30_issda_300,300,rng-300,71,rng,num-start-581,581,25726,12.527744054794312,True,,True,1,False,1000,True,1.0
./expes/v2_2020-12-03_dh_300-prng-1,30_issda_300,300,rng-300,31,rng,num-start-361,361,25726,9.869737386703491,True,,True,1,False,1000,True,1.0
./expes/v2_2020-12-03_dh_300-prng-1,30_issda_300,300,rng-300,281,rng,num-start-121,121,25726,2.792102336883545,True,,True,1,False,1000,True,1.0
./expes/v2_2020-12-03_dh_300-prng-1,30_issda_300,300,rng-300,211,rng,num-start-371,371,25726,9.179267168045044,True,,True,1,False,1000,True,1.0
./expes/v2_2020-12-03_dh_300-prng-1,30_issda_300,300,rng-300,221,rng,num-start-811,811,25726,19.892425537109375,True,,True,1,False,1000,True,1.0
./expes/v2_2020-12-03_dh_300-prng-1,30_issda_300,300,rng-300,201,rng,num-start-431,431,25726,11.285542964935303,True,,True,1,False,1000,True,1.0
./expes/v2_2020-12-03_dh_300-prng-1,30_issda_300,300,rng-300,231,rng,num-start-491,491,25726,13.984429359436035,True,,True,1,False,1000,True,1.0
./expes/v2_2020-12-03_dh_300-prng-1,30_issda_300,300,rng-300,11,rng,num-start-871,871,25726,19.4951491355896,True,,True,1,False,1000,True,1.0
./expes/v2_2020-12-03_dh_300-prng-1,30_issda_300,300,rng-300,71,rng,num-start-191,191,25726,5.289987802505493,True,,True,1,False,1000,True,1.0
./expes/v2_2020-12-03_dh_300-prng-1,30_issda_300,300,rng-300,131,rng,num-start-631,631,25726,15.173569917678833,True,,True,1,False,1000,True,1.0
./expes/v2_2020-12-03_dh_300-prng-1,30_issda_300,300,rng-300,201,rng,num-start-361,361,25726,8.978498697280884,False,,False,2,False,1000,True,1.0
./expes/v2_2020-12-03_dh_300-prng-1,30_issda_300,300,rng-300,41,rng,num-start-31,31,25726,1000.9233601093292,False,,False,0,True,1000,True,0.0
./expes/v2_2020-12-03_dh_300-prng-1,30_issda_300,300,rng-300,291,rng,num-start-581,581,25726,11.873162031173706,True,,True,1,False,1000,True,1.0
