expe,clients,clients_size,clients_subset,agg_size,method,days,days_size,days_total,time,valid,valid_sum,success,nsols,wall_hit,wall_time,pooled,valid_sums
./expes/v2_2020-12-03_dh_300-prng-1,30_issda_300,300,rng-300,191,rng,num-start-361,361,25726,14.911707162857056,True,,True,1,False,1000,True,1.0
./expes/v2_2020-12-03_dh_300-prng-1,30_issda_300,300,rng-300,41,rng,num-start-331,331,25726,13.736666202545166,True,,True,1,False,1000,True,1.0
./expes/v2_2020-12-03_dh_300-prng-1,30_issda_300,300,rng-300,71,rng,num-start-401,401,25726,15.35386610031128,True,,True,1,False,1000,True,1.0
./expes/v2_2020-12-03_dh_300-prng-1,30_issda_300,300,rng-300,261,rng,num-start-451,451,25726,16.66758370399475,True,,True,1,False,1000,True,1.0
./expes/v2_2020-12-03_dh_300-prng-1,30_issda_300,300,rng-300,181,rng,num-start-381,381,25726,16.154995918273926,True,,True,1,False,1000,True,1.0
./expes/v2_2020-12-03_dh_300-prng-1,30_issda_300,300,rng-300,51,rng,num-start-381,381,25726,14.713855981826782,True,,True,1,False,1000,True,1.0
./expes/v2_2020-12-03_dh_300-prng-1,30_issda_300,300,rng-300,71,rng,num-start-631,631,25726,27.601675748825073,True,,True,1,False,1000,True,1.0
./expes/v2_2020-12-03_dh_300-prng-1,30_issda_300,300,rng-300,131,rng,num-start-301,301,25726,12.96680760383606,True,,True,1,False,1000,True,1.0
./expes/v2_2020-12-03_dh_300-prng-1,30_issda_300,300,rng-300,271,rng,num-start-861,861,25726,34.99078178405762,True,,True,1,False,1000,True,1.0
./expes/v2_2020-12-03_dh_300-prng-1,30_issda_300,300,rng-300,241,rng,num-start-361,361,25726,14.697076559066772,True,,True,1,False,1000,True,1.0
./expes/v2_2020-12-03_dh_300-prng-1,30_issda_300,300,rng-300,241,rng,num-start-321,321,25726,13.290564775466919,False,,False,2,False,1000,True,1.0
./expes/v2_2020-12-03_dh_300-prng-1,30_issda_300,300,rng-300,211,rng,num-start-771,771,25726,30.56953763961792,True,,True,1,False,1000,True,1.0
./expes/v2_2020-12-03_dh_300-prng-1,30_issda_300,300,rng-300,181,rng,num-start-931,931,25726,45.32411217689514,True,,True,1,False,1000,True,1.0
./expes/v2_2020-12-03_dh_300-prng-1,30_issda_300,300,rng-300,221,rng,num-start-501,501,25726,18.14052963256836,True,,True,1,False,1000,True,1.0
./expes/v2_2020-12-03_dh_300-prng-1,30_issda_300,300,rng-300,291,rng,num-start-431,431,25726,14.296274900436401,True,,True,1,False,1000,True,1.0
./expes/v2_2020-12-03_dh_300-prng-1,30_issda_300,300,rng-300,101,rng,num-start-321,321,25726,15.029483795166016,True,,True,1,False,1000,True,1.0
./expes/v2_2020-12-03_dh_300-prng-1,30_issda_300,300,rng-300,61,rng,num-start-251,251,25726,9.769265413284302,True,,True,1,False,1000,True,1.0
./expes/v2_2020-12-03_dh_300-prng-1,30_issda_300,300,rng-300,231,rng,num-start-41,41,25726,1001.6468489170074,False,,False,0,True,1000,True,0.0
./expes/v2_2020-12-03_dh_300-prng-1,30_issda_300,300,rng-300,21,rng,num-start-81,81,25726,3.3291473388671875,True,,True,1,False,1000,True,1.0
./expes/v2_2020-12-03_dh_300-prng-1,30_issda_300,300,rng-300,281,rng,num-start-201,201,25726,7.642627000808716,True,,True,1,False,1000,True,1.0
./expes/v2_2020-12-03_dh_300-prng-1,30_issda_300,300,rng-300,41,rng,num-start-71,71,25726,5.24375581741333,True,,True,1,False,1000,True,1.0
./expes/v2_2020-12-03_dh_300-prng-1,30_issda_300,300,rng-300,261,rng,num-start-61,61,25726,1002.044732093811,False,,False,0,True,1000,True,0.0
./expes/v2_2020-12-03_dh_300-prng-1,30_issda_300,300,rng-300,101,rng,num-start-621,621,25726,25.79593825340271,True,,True,1,False,1000,True,1.0
./expes/v2_2020-12-03_dh_300-prng-1,30_issda_300,300,rng-300,11,rng,num-start-51,51,25726,2.073190212249756,True,,True,1,False,1000,True,1.0
./expes/v2_2020-12-03_dh_300-prng-1,30_issda_300,300,rng-300,81,rng,num-start-81,81,25726,1002.5756106376648,False,,False,0,True,1000,True,0.0
./expes/v2_2020-12-03_dh_300-prng-1,30_issda_300,300,rng-300,121,rng,num-start-671,671,25726,28.636568784713745,True,,True,1,False,1000,True,1.0
./expes/v2_2020-12-03_dh_300-prng-1,30_issda_300,300,rng-300,81,rng,num-start-251,251,25726,9.134097337722778,True,,True,1,False,1000,True,1.0
./expes/v2_2020-12-03_dh_300-prng-1,30_issda_300,300,rng-300,211,rng,num-start-841,841,25726,31.4728045463562,True,,True,1,False,1000,True,1.0
./expes/v2_2020-12-03_dh_300-prng-1,30_issda_300,300,rng-300,171,rng,num-start-241,241,25726,9.714190006256104,True,,True,1,False,1000,True,1.0
./expes/v2_2020-12-03_dh_300-prng-1,30_issda_300,300,rng-300,71,rng,num-start-261,261,25726,10.066009759902954,True,,True,1,False,1000,True,1.0
./expes/v2_2020-12-03_dh_300-prng-1,30_issda_300,300,rng-300,121,rng,num-start-821,821,25726,32.20076012611389,True,,True,1,False,1000,True,1.0
./expes/v2_2020-12-03_dh_300-prng-1,30_issda_300,300,rng-300,181,rng,num-start-61,61,25726,1002.0309045314789,False,,False,0,True,1000,True,0.0
./expes/v2_2020-12-03_dh_300-prng-1,30_issda_300,300,rng-300,141,rng,num-start-21,21,25726,1000.7266592979431,False,,False,0,True,1000,True,0.0
./expes/v2_2020-12-03_dh_300-prng-1,30_issda_300,300,rng-300,291,rng,num-start-241,241,25726,9.006839513778687,True,,True,1,False,1000,True,1.0
./expes/v2_2020-12-03_dh_300-prng-1,30_issda_300,300,rng-300,281,rng,num-start-251,251,25726,9.443263292312622,True,,True,1,False,1000,True,1.0
./expes/v2_2020-12-03_dh_300-prng-1,30_issda_300,300,rng-300,181,rng,num-start-81,81,25726,1002.6555819511414,False,,False,0,True,1000,True,0.0
./expes/v2_2020-12-03_dh_300-prng-1,30_issda_300,300,rng-300,41,rng,num-start-291,291,25726,10.110488891601562,True,,True,1,False,1000,True,1.0
./expes/v2_2020-12-03_dh_300-prng-1,30_issda_300,300,rng-300,171,rng,num-start-621,621,25726,25.523552417755127,True,,True,1,False,1000,True,1.0
./expes/v2_2020-12-03_dh_300-prng-1,30_issda_300,300,rng-300,121,rng,num-start-121,121,25726,12.893705368041992,True,,True,1,False,1000,True,1.0
./expes/v2_2020-12-03_dh_300-prng-1,30_issda_300,300,rng-300,271,rng,num-start-991,991,25726,47.57927489280701,True,,True,1,False,1000,True,1.0
./expes/v2_2020-12-03_dh_300-prng-1,30_issda_300,300,rng-300,261,rng,num-start-471,471,25726,16.454914331436157,True,,True,1,False,1000,True,1.0
./expes/v2_2020-12-03_dh_300-prng-1,30_issda_300,300,rng-300,221,rng,num-start-91,91,25726,1002.8779392242432,False,,False,1,True,1000,True,0.0
./expes/v2_2020-12-03_dh_300-prng-1,30_issda_300,300,rng-300,171,rng,num-start-161,161,25726,6.389019966125488,True,,True,1,False,1000,True,1.0
./expes/v2_2020-12-03_dh_300-prng-1,30_issda_300,300,rng-300,241,rng,num-start-941,941,25726,34.2179696559906,True,,True,1,False,1000,True,1.0
./expes/v2_2020-12-03_dh_300-prng-1,30_issda_300,300,rng-300,251,rng,num-start-911,911,25726,32.482752561569214,True,,True,1,False,1000,True,1.0
./expes/v2_2020-12-03_dh_300-prng-1,30_issda_300,300,rng-300,1,rng,num-start-271,271,25726,8.128604173660278,True,,True,1,False,1000,True,1.0
./expes/v2_2020-12-03_dh_300-prng-1,30_issda_300,300,rng-300,231,rng,num-start-901,901,25726,32.87066578865051,True,,True,1,False,1000,True,1.0
./expes/v2_2020-12-03_dh_300-prng-1,30_issda_300,300,rng-300,241,rng,num-start-301,301,25726,10.25515079498291,True,,True,1,False,1000,True,1.0
./expes/v2_2020-12-03_dh_300-prng-1,30_issda_300,300,rng-300,231,rng,num-start-101,101,25726,8.240601062774658,True,,True,1,False,1000,True,1.0
./expes/v2_2020-12-03_dh_300-prng-1,30_issda_300,300,rng-300,91,rng,num-start-411,411,25726,14.056713104248047,True,,True,1,False,1000,True,1.0
./expes/v2_2020-12-03_dh_300-prng-1,30_issda_300,300,rng-300,81,rng,num-start-821,821,25726,29.833325147628784,True,,True,1,False,1000,True,1.0
./expes/v2_2020-12-03_dh_300-prng-1,30_issda_300,300,rng-300,1,rng,num-start-991,991,25726,30.05245614051819,True,,True,1,False,1000,True,1.0
./expes/v2_2020-12-03_dh_300-prng-1,30_issda_300,300,rng-300,221,rng,num-start-111,111,25726,9.69727611541748,True,,True,1,False,1000,True,1.0
./expes/v2_2020-12-03_dh_300-prng-1,30_issda_300,300,rng-300,81,rng,num-start-641,641,25726,25.578721046447754,True,,True,1,False,1000,True,1.0
./expes/v2_2020-12-03_dh_300-prng-1,30_issda_300,300,rng-300,261,rng,num-start-281,281,25726,10.19926118850708,True,,True,1,False,1000,True,1.0
./expes/v2_2020-12-03_dh_300-prng-1,30_issda_300,300,rng-300,31,rng,num-start-931,931,25726,32.50107955932617,True,,True,1,False,1000,True,1.0
./expes/v2_2020-12-03_dh_300-prng-1,30_issda_300,300,rng-300,51,rng,num-start-391,391,25726,14.698847532272339,True,,True,1,False,1000,True,1.0
./expes/v2_2020-12-03_dh_300-prng-1,30_issda_300,300,rng-300,81,rng,num-start-181,181,25726,6.528717756271362,True,,True,1,False,1000,True,1.0
./expes/v2_2020-12-03_dh_300-prng-1,30_issda_300,300,rng-300,21,rng,num-start-831,831,25726,28.57645559310913,True,,True,1,False,1000,True,1.0
./expes/v2_2020-12-03_dh_300-prng-1,30_issda_300,300,rng-300,121,rng,num-start-221,221,25726,8.852173566818237,True,,True,1,False,1000,True,1.0
./expes/v2_2020-12-03_dh_300-prng-1,30_issda_300,300,rng-300,221,rng,num-start-321,321,25726,10.936923265457153,True,,True,1,False,1000,True,1.0
./expes/v2_2020-12-03_dh_300-prng-1,30_issda_300,300,rng-300,181,rng,num-start-961,961,25726,34.928431272506714,True,,True,1,False,1000,True,1.0
./expes/v2_2020-12-03_dh_300-prng-1,30_issda_300,300,rng-300,221,rng,num-start-591,591,25726,19.839486122131348,True,,True,1,False,1000,True,1.0
./expes/v2_2020-12-03_dh_300-prng-1,30_issda_300,300,rng-300,31,rng,num-start-91,91,25726,4.0752222537994385,True,,True,1,False,1000,True,1.0
./expes/v2_2020-12-03_dh_300-prng-1,30_issda_300,300,rng-300,91,rng,num-start-601,601,25726,22.13558793067932,True,,True,1,False,1000,True,1.0
./expes/v2_2020-12-03_dh_300-prng-1,30_issda_300,300,rng-300,181,rng,num-start-51,51,25726,1001.6612839698792,False,,False,0,True,1000,True,0.0
./expes/v2_2020-12-03_dh_300-prng-1,30_issda_300,300,rng-300,191,rng,num-start-161,161,25726,6.324103593826294,True,,True,1,False,1000,True,1.0
./expes/v2_2020-12-03_dh_300-prng-1,30_issda_300,300,rng-300,221,rng,num-start-611,611,25726,21.623344659805298,True,,True,1,False,1000,True,1.0
./expes/v2_2020-12-03_dh_300-prng-1,30_issda_300,300,rng-300,261,rng,num-start-481,481,25726,16.576786756515503,True,,True,1,False,1000,True,1.0
./expes/v2_2020-12-03_dh_300-prng-1,30_issda_300,300,rng-300,181,rng,num-start-211,211,25726,8.437736749649048,True,,True,1,False,1000,True,1.0
./expes/v2_2020-12-03_dh_300-prng-1,30_issda_300,300,rng-300,171,rng,num-start-901,901,25726,39.28890562057495,True,,True,1,False,1000,True,1.0
./expes/v2_2020-12-03_dh_300-prng-1,30_issda_300,300,rng-300,281,rng,num-start-871,871,25726,30.39032745361328,True,,True,1,False,1000,True,1.0
./expes/v2_2020-12-03_dh_300-prng-1,30_issda_300,300,rng-300,101,rng,num-start-171,171,25726,7.788359880447388,True,,True,1,False,1000,True,1.0
./expes/v2_2020-12-03_dh_300-prng-1,30_issda_300,300,rng-300,291,rng,num-start-231,231,25726,7.952752590179443,True,,True,1,False,1000,True,1.0
./expes/v2_2020-12-03_dh_300-prng-1,30_issda_300,300,rng-300,181,rng,num-start-161,161,25726,6.5424675941467285,True,,True,1,False,1000,True,1.0
./expes/v2_2020-12-03_dh_300-prng-1,30_issda_300,300,rng-300,231,rng,num-start-831,831,25726,33.54955434799194,True,,True,1,False,1000,True,1.0
./expes/v2_2020-12-03_dh_300-prng-1,30_issda_300,300,rng-300,231,rng,num-start-361,361,25726,15.09431529045105,True,,True,1,False,1000,True,1.0
./expes/v2_2020-12-03_dh_300-prng-1,30_issda_300,300,rng-300,291,rng,num-start-301,301,25726,10.53334355354309,True,,True,1,False,1000,True,1.0
./expes/v2_2020-12-03_dh_300-prng-1,30_issda_300,300,rng-300,21,rng,num-start-891,891,25726,33.25447201728821,True,,True,1,False,1000,True,1.0
./expes/v2_2020-12-03_dh_300-prng-1,30_issda_300,300,rng-300,231,rng,num-start-651,651,25726,26.045087575912476,True,,True,1,False,1000,True,1.0
./expes/v2_2020-12-03_dh_300-prng-1,30_issda_300,300,rng-300,191,rng,num-start-151,151,25726,7.152038097381592,True,,True,1,False,1000,True,1.0
./expes/v2_2020-12-03_dh_300-prng-1,30_issda_300,300,rng-300,261,rng,num-start-141,141,25726,5.653643608093262,True,,True,1,False,1000,True,1.0
./expes/v2_2020-12-03_dh_300-prng-1,30_issda_300,300,rng-300,111,rng,num-start-931,931,25726,36.72305107116699,True,,True,1,False,1000,True,1.0
./expes/v2_2020-12-03_dh_300-prng-1,30_issda_300,300,rng-300,221,rng,num-start-341,341,25726,13.709758996963501,True,,True,1,False,1000,True,1.0
./expes/v2_2020-12-03_dh_300-prng-1,30_issda_300,300,rng-300,161,rng,num-start-961,961,25726,37.4862961769104,True,,True,1,False,1000,True,1.0
./expes/v2_2020-12-03_dh_300-prng-1,30_issda_300,300,rng-300,31,rng,num-start-241,241,25726,8.905668258666992,True,,True,1,False,1000,True,1.0
./expes/v2_2020-12-03_dh_300-prng-1,30_issda_300,300,rng-300,21,rng,num-start-721,721,25726,26.06264019012451,True,,True,1,False,1000,True,1.0
./expes/v2_2020-12-03_dh_300-prng-1,30_issda_300,300,rng-300,181,rng,num-start-971,971,25726,41.69776773452759,True,,True,1,False,1000,True,1.0
./expes/v2_2020-12-03_dh_300-prng-1,30_issda_300,300,rng-300,261,rng,num-start-231,231,25726,8.91701626777649,True,,True,1,False,1000,True,1.0
./expes/v2_2020-12-03_dh_300-prng-1,30_issda_300,300,rng-300,191,rng,num-start-71,71,25726,1002.2541348934174,False,,False,0,True,1000,True,0.0
./expes/v2_2020-12-03_dh_300-prng-1,30_issda_300,300,rng-300,121,rng,num-start-291,291,25726,10.695492029190063,True,,True,1,False,1000,True,1.0
./expes/v2_2020-12-03_dh_300-prng-1,30_issda_300,300,rng-300,271,rng,num-start-221,221,25726,8.392149448394775,True,,True,1,False,1000,True,1.0
./expes/v2_2020-12-03_dh_300-prng-1,30_issda_300,300,rng-300,81,rng,num-start-891,891,25726,31.06893253326416,True,,True,1,False,1000,True,1.0
./expes/v2_2020-12-03_dh_300-prng-1,30_issda_300,300,rng-300,21,rng,num-start-1,1,25726,0.12267541885375977,False,,False,2,False,1000,True,1.0
./expes/v2_2020-12-03_dh_300-prng-1,30_issda_300,300,rng-300,141,rng,num-start-511,511,25726,20.020628452301025,True,,True,1,False,1000,True,1.0
./expes/v2_2020-12-03_dh_300-prng-1,30_issda_300,300,rng-300,141,rng,num-start-791,791,25726,29.49502682685852,True,,True,1,False,1000,True,1.0
./expes/v2_2020-12-03_dh_300-prng-1,30_issda_300,300,rng-300,111,rng,num-start-821,821,25726,31.560129165649414,True,,True,1,False,1000,True,1.0
./expes/v2_2020-12-03_dh_300-prng-1,30_issda_300,300,rng-300,141,rng,num-start-171,171,25726,7.488091707229614,True,,True,1,False,1000,True,1.0
./expes/v2_2020-12-03_dh_300-prng-1,30_issda_300,300,rng-300,91,rng,num-start-171,171,25726,7.289719104766846,True,,True,1,False,1000,True,1.0
./expes/v2_2020-12-03_dh_300-prng-1,30_issda_300,300,rng-300,211,rng,num-start-811,811,25726,31.759649991989136,True,,True,1,False,1000,True,1.0
./expes/v2_2020-12-03_dh_300-prng-1,30_issda_300,300,rng-300,11,rng,num-start-261,261,25726,9.293209552764893,True,,True,1,False,1000,True,1.0
./expes/v2_2020-12-03_dh_300-prng-1,30_issda_300,300,rng-300,171,rng,num-start-101,101,25726,14.804028987884521,True,,True,1,False,1000,True,1.0
./expes/v2_2020-12-03_dh_300-prng-1,30_issda_300,300,rng-300,191,rng,num-start-851,851,25726,34.424623250961304,True,,True,1,False,1000,True,1.0
./expes/v2_2020-12-03_dh_300-prng-1,30_issda_300,300,rng-300,21,rng,num-start-331,331,25726,11.491762638092041,True,,True,1,False,1000,True,1.0
./expes/v2_2020-12-03_dh_300-prng-1,30_issda_300,300,rng-300,21,rng,num-start-831,831,25726,30.027508974075317,True,,True,1,False,1000,True,1.0
./expes/v2_2020-12-03_dh_300-prng-1,30_issda_300,300,rng-300,151,rng,num-start-71,71,25726,1002.4622256755829,False,,False,0,True,1000,True,0.0
./expes/v2_2020-12-03_dh_300-prng-1,30_issda_300,300,rng-300,171,rng,num-start-21,21,25726,1000.717940568924,False,,False,0,True,1000,True,0.0
./expes/v2_2020-12-03_dh_300-prng-1,30_issda_300,300,rng-300,151,rng,num-start-601,601,25726,21.54999852180481,True,,True,1,False,1000,True,1.0
./expes/v2_2020-12-03_dh_300-prng-1,30_issda_300,300,rng-300,191,rng,num-start-11,11,25726,1000.5065448284149,False,,False,0,True,1000,True,0.0
./expes/v2_2020-12-03_dh_300-prng-1,30_issda_300,300,rng-300,151,rng,num-start-481,481,25726,17.798295497894287,True,,True,1,False,1000,True,1.0
./expes/v2_2020-12-03_dh_300-prng-1,30_issda_300,300,rng-300,251,rng,num-start-531,531,25726,18.145928621292114,True,,True,1,False,1000,True,1.0
./expes/v2_2020-12-03_dh_300-prng-1,30_issda_300,300,rng-300,291,rng,num-start-381,381,25726,11.32463550567627,True,,True,1,False,1000,True,1.0
./expes/v2_2020-12-03_dh_300-prng-1,30_issda_300,300,rng-300,271,rng,num-start-791,791,25726,26.52137541770935,True,,True,1,False,1000,True,1.0
./expes/v2_2020-12-03_dh_300-prng-1,30_issda_300,300,rng-300,291,rng,num-start-21,21,25726,1.9873692989349365,True,,True,1,False,1000,True,1.0
./expes/v2_2020-12-03_dh_300-prng-1,30_issda_300,300,rng-300,71,rng,num-start-891,891,25726,35.41638112068176,True,,True,1,False,1000,True,1.0
./expes/v2_2020-12-03_dh_300-prng-1,30_issda_300,300,rng-300,151,rng,num-start-981,981,25726,40.72614240646362,True,,True,1,False,1000,True,1.0
./expes/v2_2020-12-03_dh_300-prng-1,30_issda_300,300,rng-300,181,rng,num-start-471,471,25726,19.634483337402344,True,,True,1,False,1000,True,1.0
./expes/v2_2020-12-03_dh_300-prng-1,30_issda_300,300,rng-300,291,rng,num-start-251,251,25726,8.720783710479736,True,,True,1,False,1000,True,1.0
./expes/v2_2020-12-03_dh_300-prng-1,30_issda_300,300,rng-300,131,rng,num-start-191,191,25726,8.302309513092041,True,,True,1,False,1000,True,1.0
./expes/v2_2020-12-03_dh_300-prng-1,30_issda_300,300,rng-300,111,rng,num-start-501,501,25726,22.704864263534546,True,,True,1,False,1000,True,1.0
./expes/v2_2020-12-03_dh_300-prng-1,30_issda_300,300,rng-300,181,rng,num-start-981,981,25726,44.56612420082092,True,,True,1,False,1000,True,1.0
./expes/v2_2020-12-03_dh_300-prng-1,30_issda_300,300,rng-300,41,rng,num-start-611,611,25726,22.46180510520935,True,,True,1,False,1000,True,1.0
./expes/v2_2020-12-03_dh_300-prng-1,30_issda_300,300,rng-300,161,rng,num-start-231,231,25726,10.42099118232727,True,,True,1,False,1000,True,1.0
./expes/v2_2020-12-03_dh_300-prng-1,30_issda_300,300,rng-300,221,rng,num-start-1,1,25726,0.12490224838256836,False,,False,2,False,1000,True,1.0
./expes/v2_2020-12-03_dh_300-prng-1,30_issda_300,300,rng-300,291,rng,num-start-111,111,25726,4.083301067352295,True,,True,1,False,1000,True,1.0
./expes/v2_2020-12-03_dh_300-prng-1,30_issda_300,300,rng-300,41,rng,num-start-51,51,25726,1001.7880046367645,False,,False,0,True,1000,True,0.0
./expes/v2_2020-12-03_dh_300-prng-1,30_issda_300,300,rng-300,251,rng,num-start-121,121,25726,4.892093896865845,True,,True,1,False,1000,True,1.0
./expes/v2_2020-12-03_dh_300-prng-1,30_issda_300,300,rng-300,51,rng,num-start-461,461,25726,17.122379779815674,True,,True,1,False,1000,True,1.0
./expes/v2_2020-12-03_dh_300-prng-1,30_issda_300,300,rng-300,221,rng,num-start-231,231,25726,8.86369800567627,True,,True,1,False,1000,True,1.0
./expes/v2_2020-12-03_dh_300-prng-1,30_issda_300,300,rng-300,31,rng,num-start-511,511,25726,17.72669506072998,True,,True,1,False,1000,True,1.0
./expes/v2_2020-12-03_dh_300-prng-1,30_issda_300,300,rng-300,181,rng,num-start-951,951,25726,40.305288314819336,True,,True,1,False,1000,True,1.0
./expes/v2_2020-12-03_dh_300-prng-1,30_issda_300,300,rng-300,1,rng,num-start-471,471,25726,14.685983180999756,True,,True,1,False,1000,True,1.0
./expes/v2_2020-12-03_dh_300-prng-1,30_issda_300,300,rng-300,191,rng,num-start-301,301,25726,11.914437770843506,True,,True,1,False,1000,True,1.0
./expes/v2_2020-12-03_dh_300-prng-1,30_issda_300,300,rng-300,261,rng,num-start-311,311,25726,11.61120080947876,True,,True,1,False,1000,True,1.0
./expes/v2_2020-12-03_dh_300-prng-1,30_issda_300,300,rng-300,181,rng,num-start-51,51,25726,1001.6031708717346,False,,False,0,True,1000,True,0.0
./expes/v2_2020-12-03_dh_300-prng-1,30_issda_300,300,rng-300,131,rng,num-start-251,251,25726,9.586631059646606,True,,True,1,False,1000,True,1.0
./expes/v2_2020-12-03_dh_300-prng-1,30_issda_300,300,rng-300,281,rng,num-start-521,521,25726,19.5766384601593,True,,True,1,False,1000,True,1.0
./expes/v2_2020-12-03_dh_300-prng-1,30_issda_300,300,rng-300,111,rng,num-start-991,991,25726,43.08691215515137,True,,True,1,False,1000,True,1.0
./expes/v2_2020-12-03_dh_300-prng-1,30_issda_300,300,rng-300,91,rng,num-start-201,201,25726,8.905390501022339,True,,True,1,False,1000,True,1.0
./expes/v2_2020-12-03_dh_300-prng-1,30_issda_300,300,rng-300,231,rng,num-start-31,31,25726,1001.0321891307831,False,,False,0,True,1000,True,0.0
./expes/v2_2020-12-03_dh_300-prng-1,30_issda_300,300,rng-300,61,rng,num-start-361,361,25726,14.5688796043396,True,,True,1,False,1000,True,1.0
./expes/v2_2020-12-03_dh_300-prng-1,30_issda_300,300,rng-300,191,rng,num-start-41,41,25726,1001.3187761306763,False,,False,0,True,1000,True,0.0
./expes/v2_2020-12-03_dh_300-prng-1,30_issda_300,300,rng-300,291,rng,num-start-701,701,25726,22.421355724334717,True,,True,1,False,1000,True,1.0
./expes/v2_2020-12-03_dh_300-prng-1,30_issda_300,300,rng-300,91,rng,num-start-311,311,25726,12.569235563278198,True,,True,1,False,1000,True,1.0
./expes/v2_2020-12-03_dh_300-prng-1,30_issda_300,300,rng-300,101,rng,num-start-961,961,25726,38.18570899963379,True,,True,1,False,1000,True,1.0
./expes/v2_2020-12-03_dh_300-prng-1,30_issda_300,300,rng-300,141,rng,num-start-11,11,25726,1000.4967801570892,False,,False,0,True,1000,True,0.0
./expes/v2_2020-12-03_dh_300-prng-1,30_issda_300,300,rng-300,221,rng,num-start-561,561,25726,21.777583122253418,True,,True,1,False,1000,True,1.0
./expes/v2_2020-12-03_dh_300-prng-1,30_issda_300,300,rng-300,51,rng,num-start-221,221,25726,8.672938585281372,True,,True,1,False,1000,True,1.0
./expes/v2_2020-12-03_dh_300-prng-1,30_issda_300,300,rng-300,71,rng,num-start-841,841,25726,36.347174406051636,True,,True,1,False,1000,True,1.0
./expes/v2_2020-12-03_dh_300-prng-1,30_issda_300,300,rng-300,61,rng,num-start-271,271,25726,10.48490023612976,True,,True,1,False,1000,True,1.0
./expes/v2_2020-12-03_dh_300-prng-1,30_issda_300,300,rng-300,241,rng,num-start-721,721,25726,28.854469299316406,True,,True,1,False,1000,True,1.0
./expes/v2_2020-12-03_dh_300-prng-1,30_issda_300,300,rng-300,211,rng,num-start-231,231,25726,9.846462726593018,True,,True,1,False,1000,True,1.0
./expes/v2_2020-12-03_dh_300-prng-1,30_issda_300,300,rng-300,71,rng,num-start-71,71,25726,1002.397632598877,False,,False,0,True,1000,True,0.0
./expes/v2_2020-12-03_dh_300-prng-1,30_issda_300,300,rng-300,171,rng,num-start-321,321,25726,12.237529277801514,True,,True,1,False,1000,True,1.0
./expes/v2_2020-12-03_dh_300-prng-1,30_issda_300,300,rng-300,61,rng,num-start-291,291,25726,10.759887456893921,True,,True,1,False,1000,True,1.0
./expes/v2_2020-12-03_dh_300-prng-1,30_issda_300,300,rng-300,91,rng,num-start-841,841,25726,37.278703451156616,True,,True,1,False,1000,True,1.0
./expes/v2_2020-12-03_dh_300-prng-1,30_issda_300,300,rng-300,141,rng,num-start-611,611,25726,23.525721073150635,True,,True,1,False,1000,True,1.0
./expes/v2_2020-12-03_dh_300-prng-1,30_issda_300,300,rng-300,51,rng,num-start-1,1,25726,0.1527385711669922,False,,False,2,False,1000,True,1.0
./expes/v2_2020-12-03_dh_300-prng-1,30_issda_300,300,rng-300,281,rng,num-start-891,891,25726,30.19140315055847,True,,True,1,False,1000,True,1.0
./expes/v2_2020-12-03_dh_300-prng-1,30_issda_300,300,rng-300,51,rng,num-start-551,551,25726,19.899367570877075,True,,True,1,False,1000,True,1.0
./expes/v2_2020-12-03_dh_300-prng-1,30_issda_300,300,rng-300,281,rng,num-start-341,341,25726,11.36256456375122,True,,True,1,False,1000,True,1.0
./expes/v2_2020-12-03_dh_300-prng-1,30_issda_300,300,rng-300,231,rng,num-start-741,741,25726,28.18521809577942,True,,True,1,False,1000,True,1.0
./expes/v2_2020-12-03_dh_300-prng-1,30_issda_300,300,rng-300,231,rng,num-start-651,651,25726,26.624722242355347,True,,True,1,False,1000,True,1.0
./expes/v2_2020-12-03_dh_300-prng-1,30_issda_300,300,rng-300,21,rng,num-start-811,811,25726,30.319803953170776,True,,True,1,False,1000,True,1.0
./expes/v2_2020-12-03_dh_300-prng-1,30_issda_300,300,rng-300,171,rng,num-start-591,591,25726,22.76889729499817,True,,True,1,False,1000,True,1.0
./expes/v2_2020-12-03_dh_300-prng-1,30_issda_300,300,rng-300,51,rng,num-start-321,321,25726,11.652730226516724,True,,True,1,False,1000,True,1.0
./expes/v2_2020-12-03_dh_300-prng-1,30_issda_300,300,rng-300,51,rng,num-start-921,921,25726,37.131298303604126,True,,True,1,False,1000,True,1.0
./expes/v2_2020-12-03_dh_300-prng-1,30_issda_300,300,rng-300,191,rng,num-start-921,921,25726,35.474897623062134,True,,True,1,False,1000,True,1.0
./expes/v2_2020-12-03_dh_300-prng-1,30_issda_300,300,rng-300,21,rng,num-start-871,871,25726,33.19945669174194,True,,True,1,False,1000,True,1.0
./expes/v2_2020-12-03_dh_300-prng-1,30_issda_300,300,rng-300,191,rng,num-start-901,901,25726,37.86339354515076,True,,True,1,False,1000,True,1.0
./expes/v2_2020-12-03_dh_300-prng-1,30_issda_300,300,rng-300,161,rng,num-start-801,801,25726,29.101390838623047,True,,True,1,False,1000,True,1.0
./expes/v2_2020-12-03_dh_300-prng-1,30_issda_300,300,rng-300,161,rng,num-start-861,861,25726,36.00048565864563,True,,True,1,False,1000,True,1.0
./expes/v2_2020-12-03_dh_300-prng-1,30_issda_300,300,rng-300,161,rng,num-start-841,841,25726,32.41149187088013,True,,True,1,False,1000,True,1.0
./expes/v2_2020-12-03_dh_300-prng-1,30_issda_300,300,rng-300,121,rng,num-start-71,71,25726,1002.261559009552,False,,False,0,True,1000,True,0.0
./expes/v2_2020-12-03_dh_300-prng-1,30_issda_300,300,rng-300,1,rng,num-start-191,191,25726,6.051440954208374,True,,True,1,False,1000,True,1.0
./expes/v2_2020-12-03_dh_300-prng-1,30_issda_300,300,rng-300,201,rng,num-start-601,601,25726,22.59764051437378,True,,True,1,False,1000,True,1.0
./expes/v2_2020-12-03_dh_300-prng-1,30_issda_300,300,rng-300,261,rng,num-start-361,361,25726,13.934643507003784,True,,True,1,False,1000,True,1.0
./expes/v2_2020-12-03_dh_300-prng-1,30_issda_300,300,rng-300,91,rng,num-start-61,61,25726,1002.01416182518,False,,False,0,True,1000,True,0.0
./expes/v2_2020-12-03_dh_300-prng-1,30_issda_300,300,rng-300,141,rng,num-start-511,511,25726,19.782990217208862,True,,True,1,False,1000,True,1.0
./expes/v2_2020-12-03_dh_300-prng-1,30_issda_300,300,rng-300,131,rng,num-start-981,981,25726,37.65114903450012,True,,True,1,False,1000,True,1.0
./expes/v2_2020-12-03_dh_300-prng-1,30_issda_300,300,rng-300,11,rng,num-start-391,391,25726,13.392070055007935,True,,True,1,False,1000,True,1.0
./expes/v2_2020-12-03_dh_300-prng-1,30_issda_300,300,rng-300,171,rng,num-start-541,541,25726,24.31865692138672,True,,True,1,False,1000,True,1.0
./expes/v2_2020-12-03_dh_300-prng-1,30_issda_300,300,rng-300,191,rng,num-start-591,591,25726,26.808008432388306,True,,True,1,False,1000,True,1.0
./expes/v2_2020-12-03_dh_300-prng-1,30_issda_300,300,rng-300,141,rng,num-start-461,461,25726,18.404730558395386,True,,True,1,False,1000,True,1.0
./expes/v2_2020-12-03_dh_300-prng-1,30_issda_300,300,rng-300,41,rng,num-start-451,451,25726,15.702401161193848,True,,True,1,False,1000,True,1.0
./expes/v2_2020-12-03_dh_300-prng-1,30_issda_300,300,rng-300,111,rng,num-start-881,881,25726,29.11020541191101,True,,True,1,False,1000,True,1.0
./expes/v2_2020-12-03_dh_300-prng-1,30_issda_300,300,rng-300,281,rng,num-start-201,201,25726,7.203264236450195,True,,True,1,False,1000,True,1.0
./expes/v2_2020-12-03_dh_300-prng-1,30_issda_300,300,rng-300,161,rng,num-start-431,431,25726,20.36578345298767,True,,True,1,False,1000,True,1.0
./expes/v2_2020-12-03_dh_300-prng-1,30_issda_300,300,rng-300,231,rng,num-start-321,321,25726,11.883201122283936,True,,True,1,False,1000,True,1.0
./expes/v2_2020-12-03_dh_300-prng-1,30_issda_300,300,rng-300,181,rng,num-start-991,991,25726,37.05594801902771,True,,True,1,False,1000,True,1.0
./expes/v2_2020-12-03_dh_300-prng-1,30_issda_300,300,rng-300,51,rng,num-start-731,731,25726,25.703968286514282,True,,True,1,False,1000,True,1.0
./expes/v2_2020-12-03_dh_300-prng-1,30_issda_300,300,rng-300,141,rng,num-start-351,351,25726,13.886636972427368,True,,True,1,False,1000,True,1.0
./expes/v2_2020-12-03_dh_300-prng-1,30_issda_300,300,rng-300,171,rng,num-start-561,561,25726,19.036416053771973,True,,True,1,False,1000,True,1.0
./expes/v2_2020-12-03_dh_300-prng-1,30_issda_300,300,rng-300,21,rng,num-start-531,531,25726,17.858022451400757,True,,True,1,False,1000,True,1.0
./expes/v2_2020-12-03_dh_300-prng-1,30_issda_300,300,rng-300,121,rng,num-start-341,341,25726,13.390792846679688,True,,True,1,False,1000,True,1.0
./expes/v2_2020-12-03_dh_300-prng-1,30_issda_300,300,rng-300,221,rng,num-start-951,951,25726,32.817378282547,True,,True,1,False,1000,True,1.0
./expes/v2_2020-12-03_dh_300-prng-1,30_issda_300,300,rng-300,91,rng,num-start-271,271,25726,10.871511220932007,True,,True,1,False,1000,True,1.0
./expes/v2_2020-12-03_dh_300-prng-1,30_issda_300,300,rng-300,91,rng,num-start-341,341,25726,14.089431762695312,True,,True,1,False,1000,True,1.0
./expes/v2_2020-12-03_dh_300-prng-1,30_issda_300,300,rng-300,181,rng,num-start-621,621,25726,23.52958035469055,True,,True,1,False,1000,True,1.0
./expes/v2_2020-12-03_dh_300-prng-1,30_issda_300,300,rng-300,211,rng,num-start-981,981,25726,33.70437836647034,True,,True,1,False,1000,True,1.0
./expes/v2_2020-12-03_dh_300-prng-1,30_issda_300,300,rng-300,131,rng,num-start-631,631,25726,26.509979248046875,True,,True,1,False,1000,True,1.0
./expes/v2_2020-12-03_dh_300-prng-1,30_issda_300,300,rng-300,151,rng,num-start-291,291,25726,10.964611530303955,True,,True,1,False,1000,True,1.0
./expes/v2_2020-12-03_dh_300-prng-1,30_issda_300,300,rng-300,211,rng,num-start-881,881,25726,36.73609280586243,True,,True,1,False,1000,True,1.0
./expes/v2_2020-12-03_dh_300-prng-1,30_issda_300,300,rng-300,221,rng,num-start-221,221,25726,9.713151931762695,True,,True,1,False,1000,True,1.0
./expes/v2_2020-12-03_dh_300-prng-1,30_issda_300,300,rng-300,21,rng,num-start-11,11,25726,1000.6369259357452,False,,False,0,True,1000,True,0.0
./expes/v2_2020-12-03_dh_300-prng-1,30_issda_300,300,rng-300,111,rng,num-start-921,921,25726,41.7788519859314,True,,True,1,False,1000,True,1.0
./expes/v2_2020-12-03_dh_300-prng-1,30_issda_300,300,rng-300,71,rng,num-start-431,431,25726,15.919042348861694,True,,True,1,False,1000,True,1.0
./expes/v2_2020-12-03_dh_300-prng-1,30_issda_300,300,rng-300,31,rng,num-start-801,801,25726,29.197396755218506,True,,True,1,False,1000,True,1.0
./expes/v2_2020-12-03_dh_300-prng-1,30_issda_300,300,rng-300,191,rng,num-start-741,741,25726,30.186936616897583,True,,True,1,False,1000,True,1.0
./expes/v2_2020-12-03_dh_300-prng-1,30_issda_300,300,rng-300,241,rng,num-start-391,391,25726,15.544745445251465,True,,True,1,False,1000,True,1.0
./expes/v2_2020-12-03_dh_300-prng-1,30_issda_300,300,rng-300,111,rng,num-start-141,141,25726,11.304730415344238,True,,True,1,False,1000,True,1.0
./expes/v2_2020-12-03_dh_300-prng-1,30_issda_300,300,rng-300,81,rng,num-start-51,51,25726,1001.7809793949127,False,,False,0,True,1000,True,0.0
./expes/v2_2020-12-03_dh_300-prng-1,30_issda_300,300,rng-300,31,rng,num-start-531,531,25726,17.887913942337036,True,,True,1,False,1000,True,1.0
./expes/v2_2020-12-03_dh_300-prng-1,30_issda_300,300,rng-300,241,rng,num-start-271,271,25726,10.103373289108276,True,,True,1,False,1000,True,1.0
./expes/v2_2020-12-03_dh_300-prng-1,30_issda_300,300,rng-300,151,rng,num-start-981,981,25726,37.35965275764465,True,,True,1,False,1000,True,1.0
./expes/v2_2020-12-03_dh_300-prng-1,30_issda_300,300,rng-300,201,rng,num-start-81,81,25726,1002.5554013252258,False,,False,0,True,1000,True,0.0
./expes/v2_2020-12-03_dh_300-prng-1,30_issda_300,300,rng-300,81,rng,num-start-871,871,25726,34.37100672721863,True,,True,1,False,1000,True,1.0
./expes/v2_2020-12-03_dh_300-prng-1,30_issda_300,300,rng-300,11,rng,num-start-341,341,25726,11.826401233673096,True,,True,1,False,1000,True,1.0
./expes/v2_2020-12-03_dh_300-prng-1,30_issda_300,300,rng-300,211,rng,num-start-181,181,25726,7.5793540477752686,True,,True,1,False,1000,True,1.0
./expes/v2_2020-12-03_dh_300-prng-1,30_issda_300,300,rng-300,231,rng,num-start-791,791,25726,27.30968427658081,True,,True,1,False,1000,True,1.0
./expes/v2_2020-12-03_dh_300-prng-1,30_issda_300,300,rng-300,151,rng,num-start-651,651,25726,23.956087112426758,True,,True,1,False,1000,True,1.0
./expes/v2_2020-12-03_dh_300-prng-1,30_issda_300,300,rng-300,51,rng,num-start-861,861,25726,30.894801378250122,True,,True,1,False,1000,True,1.0
./expes/v2_2020-12-03_dh_300-prng-1,30_issda_300,300,rng-300,151,rng,num-start-661,661,25726,24.923158407211304,True,,True,1,False,1000,True,1.0
./expes/v2_2020-12-03_dh_300-prng-1,30_issda_300,300,rng-300,81,rng,num-start-531,531,25726,18.56008291244507,True,,True,1,False,1000,True,1.0
./expes/v2_2020-12-03_dh_300-prng-1,30_issda_300,300,rng-300,241,rng,num-start-541,541,25726,19.418505668640137,True,,True,1,False,1000,True,1.0
./expes/v2_2020-12-03_dh_300-prng-1,30_issda_300,300,rng-300,121,rng,num-start-811,811,25726,33.53097176551819,True,,True,1,False,1000,True,1.0
./expes/v2_2020-12-03_dh_300-prng-1,30_issda_300,300,rng-300,181,rng,num-start-331,331,25726,14.713296890258789,True,,True,1,False,1000,True,1.0
./expes/v2_2020-12-03_dh_300-prng-1,30_issda_300,300,rng-300,1,rng,num-start-971,971,25726,29.915170431137085,True,,True,1,False,1000,True,1.0
./expes/v2_2020-12-03_dh_300-prng-1,30_issda_300,300,rng-300,141,rng,num-start-961,961,25726,37.21725916862488,True,,True,1,False,1000,True,1.0
./expes/v2_2020-12-03_dh_300-prng-1,30_issda_300,300,rng-300,51,rng,num-start-451,451,25726,16.051408529281616,True,,True,1,False,1000,True,1.0
./expes/v2_2020-12-03_dh_300-prng-1,30_issda_300,300,rng-300,161,rng,num-start-471,471,25726,16.92720127105713,True,,True,1,False,1000,True,1.0
./expes/v2_2020-12-03_dh_300-prng-1,30_issda_300,300,rng-300,161,rng,num-start-1,1,25726,0.1469573974609375,False,,False,2,False,1000,True,1.0
./expes/v2_2020-12-03_dh_300-prng-1,30_issda_300,300,rng-300,61,rng,num-start-271,271,25726,10.107749700546265,True,,True,1,False,1000,True,1.0
./expes/v2_2020-12-03_dh_300-prng-1,30_issda_300,300,rng-300,71,rng,num-start-391,391,25726,15.819459676742554,True,,True,1,False,1000,True,1.0
./expes/v2_2020-12-03_dh_300-prng-1,30_issda_300,300,rng-300,141,rng,num-start-791,791,25726,30.40052628517151,True,,True,1,False,1000,True,1.0
./expes/v2_2020-12-03_dh_300-prng-1,30_issda_300,300,rng-300,241,rng,num-start-911,911,25726,36.25965213775635,True,,True,1,False,1000,True,1.0
./expes/v2_2020-12-03_dh_300-prng-1,30_issda_300,300,rng-300,181,rng,num-start-61,61,25726,1001.8524105548859,False,,False,0,True,1000,True,0.0
./expes/v2_2020-12-03_dh_300-prng-1,30_issda_300,300,rng-300,151,rng,num-start-341,341,25726,14.696020126342773,True,,True,1,False,1000,True,1.0
./expes/v2_2020-12-03_dh_300-prng-1,30_issda_300,300,rng-300,1,rng,num-start-531,531,25726,16.913756608963013,True,,True,1,False,1000,True,1.0
./expes/v2_2020-12-03_dh_300-prng-1,30_issda_300,300,rng-300,271,rng,num-start-501,501,25726,18.038043975830078,True,,True,1,False,1000,True,1.0
./expes/v2_2020-12-03_dh_300-prng-1,30_issda_300,300,rng-300,151,rng,num-start-931,931,25726,36.55551290512085,True,,True,1,False,1000,True,1.0
./expes/v2_2020-12-03_dh_300-prng-1,30_issda_300,300,rng-300,51,rng,num-start-31,31,25726,1001.0803883075714,False,,False,0,True,1000,True,0.0
./expes/v2_2020-12-03_dh_300-prng-1,30_issda_300,300,rng-300,181,rng,num-start-481,481,25726,21.55377197265625,True,,True,1,False,1000,True,1.0
./expes/v2_2020-12-03_dh_300-prng-1,30_issda_300,300,rng-300,1,rng,num-start-241,241,25726,7.554947853088379,True,,True,1,False,1000,True,1.0
./expes/v2_2020-12-03_dh_300-prng-1,30_issda_300,300,rng-300,151,rng,num-start-901,901,25726,39.64993906021118,True,,True,1,False,1000,True,1.0
./expes/v2_2020-12-03_dh_300-prng-1,30_issda_300,300,rng-300,1,rng,num-start-411,411,25726,13.074050188064575,True,,True,1,False,1000,True,1.0
./expes/v2_2020-12-03_dh_300-prng-1,30_issda_300,300,rng-300,61,rng,num-start-801,801,25726,30.7022602558136,True,,True,1,False,1000,True,1.0
./expes/v2_2020-12-03_dh_300-prng-1,30_issda_300,300,rng-300,231,rng,num-start-51,51,25726,1001.6890254020691,False,,False,0,True,1000,True,0.0
./expes/v2_2020-12-03_dh_300-prng-1,30_issda_300,300,rng-300,201,rng,num-start-431,431,25726,19.12626075744629,True,,True,1,False,1000,True,1.0
./expes/v2_2020-12-03_dh_300-prng-1,30_issda_300,300,rng-300,271,rng,num-start-811,811,25726,31.1185884475708,True,,True,1,False,1000,True,1.0
./expes/v2_2020-12-03_dh_300-prng-1,30_issda_300,300,rng-300,71,rng,num-start-661,661,25726,27.359712600708008,True,,True,1,False,1000,True,1.0
./expes/v2_2020-12-03_dh_300-prng-1,30_issda_300,300,rng-300,171,rng,num-start-531,531,25726,24.882811307907104,True,,True,1,False,1000,True,1.0
./expes/v2_2020-12-03_dh_300-prng-1,30_issda_300,300,rng-300,221,rng,num-start-571,571,25726,22.974377870559692,True,,True,1,False,1000,True,1.0
./expes/v2_2020-12-03_dh_300-prng-1,30_issda_300,300,rng-300,281,rng,num-start-1,1,25726,0.148148775100708,False,,False,2,False,1000,True,1.0
./expes/v2_2020-12-03_dh_300-prng-1,30_issda_300,300,rng-300,121,rng,num-start-181,181,25726,7.763700723648071,True,,True,1,False,1000,True,1.0
./expes/v2_2020-12-03_dh_300-prng-1,30_issda_300,300,rng-300,141,rng,num-start-801,801,25726,30.98356795310974,True,,True,1,False,1000,True,1.0
./expes/v2_2020-12-03_dh_300-prng-1,30_issda_300,300,rng-300,141,rng,num-start-841,841,25726,39.576385259628296,True,,True,1,False,1000,True,1.0
./expes/v2_2020-12-03_dh_300-prng-1,30_issda_300,300,rng-300,61,rng,num-start-671,671,25726,27.486056327819824,True,,True,1,False,1000,True,1.0
./expes/v2_2020-12-03_dh_300-prng-1,30_issda_300,300,rng-300,51,rng,num-start-341,341,25726,13.712844610214233,True,,True,1,False,1000,True,1.0
./expes/v2_2020-12-03_dh_300-prng-1,30_issda_300,300,rng-300,241,rng,num-start-481,481,25726,17.60147714614868,True,,True,1,False,1000,True,1.0
./expes/v2_2020-12-03_dh_300-prng-1,30_issda_300,300,rng-300,81,rng,num-start-731,731,25726,28.277017831802368,True,,True,1,False,1000,True,1.0
./expes/v2_2020-12-03_dh_300-prng-1,30_issda_300,300,rng-300,281,rng,num-start-721,721,25726,25.418728351593018,True,,True,1,False,1000,True,1.0
./expes/v2_2020-12-03_dh_300-prng-1,30_issda_300,300,rng-300,141,rng,num-start-371,371,25726,15.650723457336426,True,,True,1,False,1000,True,1.0
./expes/v2_2020-12-03_dh_300-prng-1,30_issda_300,300,rng-300,271,rng,num-start-801,801,25726,27.336958646774292,True,,True,1,False,1000,True,1.0
./expes/v2_2020-12-03_dh_300-prng-1,30_issda_300,300,rng-300,11,rng,num-start-751,751,25726,27.32300877571106,True,,True,1,False,1000,True,1.0
./expes/v2_2020-12-03_dh_300-prng-1,30_issda_300,300,rng-300,221,rng,num-start-431,431,25726,16.259454250335693,True,,True,1,False,1000,True,1.0
./expes/v2_2020-12-03_dh_300-prng-1,30_issda_300,300,rng-300,71,rng,num-start-721,721,25726,26.311426401138306,True,,True,1,False,1000,True,1.0
./expes/v2_2020-12-03_dh_300-prng-1,30_issda_300,300,rng-300,21,rng,num-start-961,961,25726,34.701698303222656,True,,True,1,False,1000,True,1.0
./expes/v2_2020-12-03_dh_300-prng-1,30_issda_300,300,rng-300,201,rng,num-start-611,611,25726,21.71909475326538,True,,True,1,False,1000,True,1.0
./expes/v2_2020-12-03_dh_300-prng-1,30_issda_300,300,rng-300,91,rng,num-start-751,751,25726,29.497740507125854,True,,True,1,False,1000,True,1.0
./expes/v2_2020-12-03_dh_300-prng-1,30_issda_300,300,rng-300,131,rng,num-start-771,771,25726,33.279884338378906,True,,True,1,False,1000,True,1.0
./expes/v2_2020-12-03_dh_300-prng-1,30_issda_300,300,rng-300,121,rng,num-start-691,691,25726,30.78148102760315,True,,True,1,False,1000,True,1.0
./expes/v2_2020-12-03_dh_300-prng-1,30_issda_300,300,rng-300,171,rng,num-start-431,431,25726,16.80876588821411,True,,True,1,False,1000,True,1.0
./expes/v2_2020-12-03_dh_300-prng-1,30_issda_300,300,rng-300,1,rng,num-start-261,261,25726,8.539393901824951,True,,True,1,False,1000,True,1.0
./expes/v2_2020-12-03_dh_300-prng-1,30_issda_300,300,rng-300,41,rng,num-start-931,931,25726,34.210501194000244,True,,True,1,False,1000,True,1.0
./expes/v2_2020-12-03_dh_300-prng-1,30_issda_300,300,rng-300,271,rng,num-start-461,461,25726,18.348806858062744,True,,True,1,False,1000,True,1.0
./expes/v2_2020-12-03_dh_300-prng-1,30_issda_300,300,rng-300,201,rng,num-start-521,521,25726,22.4877872467041,True,,True,1,False,1000,True,1.0
