expe,clients,clients_size,clients_subset,agg_size,method,days,days_size,days_total,time,valid,valid_sum,success,nsols,wall_hit,wall_time,pooled,valid_sums
./expes/v2_2020-12-01_dh_2000-prng-1,30_issda_2000,2000,rng-2000,1501,rng,num-start-6001,6001,25726,2141.086150407791,False,,False,1,True,1000,True,0.0
./expes/v2_2020-12-01_dh_2000-prng-1,30_issda_2000,2000,rng-2000,1,rng,num-start-7001,7001,25726,1346.5661702156067,True,,True,1,False,1000,True,1.0
./expes/v2_2020-12-01_dh_2000-prng-1,30_issda_2000,2000,rng-2000,501,rng,num-start-9001,9001,25726,2665.2010810375214,False,,False,1,True,1000,True,0.0
./expes/v2_2020-12-01_dh_2000-prng-1,30_issda_2000,2000,rng-2000,501,rng,num-start-1001,1001,25726,1185.6248977184296,False,,False,1,True,1000,True,0.0
./expes/v2_2020-12-01_dh_2000-prng-1,30_issda_2000,2000,rng-2000,1001,rng,num-start-1,1,25726,0.309680700302124,False,,False,2,False,1000,True,1.0
./expes/v2_2020-12-01_dh_2000-prng-1,30_issda_2000,2000,rng-2000,1,rng,num-start-4001,4001,25726,749.7531044483185,True,,True,1,False,1000,True,1.0
./expes/v2_2020-12-01_dh_2000-prng-1,30_issda_2000,2000,rng-2000,1501,rng,num-start-2001,2001,25726,1387.379409790039,False,,False,1,True,1000,True,0.0
./expes/v2_2020-12-01_dh_2000-prng-1,30_issda_2000,2000,rng-2000,1001,rng,num-start-7001,7001,25726,2301.5035502910614,False,,False,1,True,1000,True,0.0
./expes/v2_2020-12-01_dh_2000-prng-1,30_issda_2000,2000,rng-2000,1001,rng,num-start-16001,16001,25726,3971.232591867447,False,,False,1,True,1000,True,0.0
./expes/v2_2020-12-01_dh_2000-prng-1,30_issda_2000,2000,rng-2000,1501,rng,num-start-7001,7001,25726,2302.5714094638824,False,,False,1,True,1000,True,0.0
./expes/v2_2020-12-01_dh_2000-prng-1,30_issda_2000,2000,rng-2000,1,rng,num-start-14001,14001,25726,2653.5734276771545,True,,True,1,False,1000,True,1.0
./expes/v2_2020-12-01_dh_2000-prng-1,30_issda_2000,2000,rng-2000,501,rng,num-start-16001,16001,25726,4012.8171451091766,False,,False,1,True,1000,True,0.0
./expes/v2_2020-12-01_dh_2000-prng-1,30_issda_2000,2000,rng-2000,1501,rng,num-start-1001,1001,25726,1103.275886297226,True,,True,1,False,1000,True,1.0
./expes/v2_2020-12-01_dh_2000-prng-1,30_issda_2000,2000,rng-2000,1501,rng,num-start-1001,1001,25726,1187.8240571022034,False,,False,1,True,1000,True,0.0
./expes/v2_2020-12-01_dh_2000-prng-1,30_issda_2000,2000,rng-2000,1001,rng,num-start-10001,10001,25726,2888.3894374370575,False,,False,1,True,1000,True,0.0
./expes/v2_2020-12-01_dh_2000-prng-1,30_issda_2000,2000,rng-2000,1501,rng,num-start-5001,5001,25726,1962.1915159225464,False,,False,1,True,1000,True,0.0
./expes/v2_2020-12-01_dh_2000-prng-1,30_issda_2000,2000,rng-2000,501,rng,num-start-5001,5001,25726,1945.8679296970367,False,,False,1,True,1000,True,0.0
./expes/v2_2020-12-01_dh_2000-prng-1,30_issda_2000,2000,rng-2000,1,rng,num-start-4001,4001,25726,779.0806016921997,True,,True,1,False,1000,True,1.0
./expes/v2_2020-12-01_dh_2000-prng-1,30_issda_2000,2000,rng-2000,1501,rng,num-start-14001,14001,25726,3659.4815278053284,False,,False,1,True,1000,True,0.0
