expe,clients,clients_size,clients_subset,agg_size,method,days,days_size,days_total,time,valid,valid_sum,success,nsols,wall_hit,wall_time,pooled,valid_sums
./expes/v2_2020-12-01_dh_2000-prng-1,30_issda_2000,2000,rng-2000,1,rng,num-start-10001,10001,25726,926.8259520530701,True,,True,1,False,1000,True,1.0
./expes/v2_2020-12-01_dh_2000-prng-1,30_issda_2000,2000,rng-2000,1501,rng,num-start-4001,4001,25726,1393.4286615848541,False,,False,1,True,1000,True,0.0
./expes/v2_2020-12-01_dh_2000-prng-1,30_issda_2000,2000,rng-2000,1,rng,num-start-14001,14001,25726,1339.9265179634094,True,,True,1,False,1000,True,1.0
./expes/v2_2020-12-01_dh_2000-prng-1,30_issda_2000,2000,rng-2000,1001,rng,num-start-9001,9001,25726,1813.101059436798,False,,False,1,True,1000,True,0.0
./expes/v2_2020-12-01_dh_2000-prng-1,30_issda_2000,2000,rng-2000,1,rng,num-start-4001,4001,25726,375.57482957839966,True,,True,1,False,1000,True,1.0
./expes/v2_2020-12-01_dh_2000-prng-1,30_issda_2000,2000,rng-2000,501,rng,num-start-5001,5001,25726,1468.0826342105865,False,,False,1,True,1000,True,0.0
./expes/v2_2020-12-01_dh_2000-prng-1,30_issda_2000,2000,rng-2000,501,rng,num-start-12001,12001,25726,2100.9889357089996,False,,False,1,True,1000,True,0.0
./expes/v2_2020-12-01_dh_2000-prng-1,30_issda_2000,2000,rng-2000,501,rng,num-start-7001,7001,25726,1645.7220017910004,False,,False,1,True,1000,True,0.0
./expes/v2_2020-12-01_dh_2000-prng-1,30_issda_2000,2000,rng-2000,1,rng,num-start-12001,12001,25726,1088.998867034912,True,,True,1,False,1000,True,1.0
./expes/v2_2020-12-01_dh_2000-prng-1,30_issda_2000,2000,rng-2000,1001,rng,num-start-8001,8001,25726,1733.6266524791718,False,,False,1,True,1000,True,0.0
./expes/v2_2020-12-01_dh_2000-prng-1,30_issda_2000,2000,rng-2000,1501,rng,num-start-14001,14001,25726,2291.016306400299,False,,False,1,True,1000,True,0.0
./expes/v2_2020-12-01_dh_2000-prng-1,30_issda_2000,2000,rng-2000,1001,rng,num-start-7001,7001,25726,1654.8337516784668,False,,False,1,True,1000,True,0.0
./expes/v2_2020-12-01_dh_2000-prng-1,30_issda_2000,2000,rng-2000,1001,rng,num-start-8001,8001,25726,1754.4495027065277,False,,False,1,True,1000,True,0.0
./expes/v2_2020-12-01_dh_2000-prng-1,30_issda_2000,2000,rng-2000,501,rng,num-start-6001,6001,25726,1556.9256346225739,False,,False,1,True,1000,True,0.0
./expes/v2_2020-12-01_dh_2000-prng-1,30_issda_2000,2000,rng-2000,1,rng,num-start-11001,11001,25726,1028.1018414497375,True,,True,1,False,1000,True,1.0
./expes/v2_2020-12-01_dh_2000-prng-1,30_issda_2000,2000,rng-2000,1001,rng,num-start-13001,13001,25726,2199.766011238098,False,,False,1,True,1000,True,0.0
./expes/v2_2020-12-01_dh_2000-prng-1,30_issda_2000,2000,rng-2000,501,rng,num-start-16001,16001,25726,2509.0268619060516,False,,False,1,True,1000,True,0.0
./expes/v2_2020-12-01_dh_2000-prng-1,30_issda_2000,2000,rng-2000,1,rng,num-start-2001,2001,25726,183.83656358718872,True,,True,1,False,1000,True,1.0
./expes/v2_2020-12-01_dh_2000-prng-1,30_issda_2000,2000,rng-2000,1501,rng,num-start-11001,11001,25726,2030.0317282676697,False,,False,1,True,1000,True,0.0
./expes/v2_2020-12-01_dh_2000-prng-1,30_issda_2000,2000,rng-2000,1001,rng,num-start-5001,5001,25726,1465.9160442352295,False,,False,1,True,1000,True,0.0
./expes/v2_2020-12-01_dh_2000-prng-1,30_issda_2000,2000,rng-2000,501,rng,num-start-16001,16001,25726,2517.437477350235,False,,False,1,True,1000,True,0.0
./expes/v2_2020-12-01_dh_2000-prng-1,30_issda_2000,2000,rng-2000,501,rng,num-start-1001,1001,25726,1091.4378740787506,False,,False,1,True,1000,True,0.0
./expes/v2_2020-12-01_dh_2000-prng-1,30_issda_2000,2000,rng-2000,501,rng,num-start-6001,6001,25726,1561.149698972702,False,,False,1,True,1000,True,0.0
