expe,clients,clients_size,clients_subset,agg_size,method,days,days_size,days_total,time,valid,valid_sum,success,nsols,wall_hit,wall_time,pooled,valid_sums
./expes/v2_2020-11-23_di_250-prng-1,daily_issda_300,300,rng-300,91,rng,num-start-211,211,536,7.137031555175781,True,,True,1,False,1000,True,1.0
./expes/v2_2020-11-23_di_250-prng-1,daily_issda_300,300,rng-300,181,rng,num-start-21,21,536,1000.5866014957428,False,,False,0,True,1000,True,0.0
./expes/v2_2020-11-23_di_250-prng-1,daily_issda_300,300,rng-300,291,rng,num-start-291,291,536,7.820615291595459,True,,True,1,False,1000,True,1.0
./expes/v2_2020-11-23_di_250-prng-1,daily_issda_300,300,rng-300,81,rng,num-start-61,61,536,1001.4723384380341,False,,False,0,True,1000,True,0.0
./expes/v2_2020-11-23_di_250-prng-1,daily_issda_300,300,rng-300,61,rng,num-start-171,171,536,5.839801073074341,True,,True,1,False,1000,True,1.0
./expes/v2_2020-11-23_di_250-prng-1,daily_issda_300,300,rng-300,211,rng,num-start-151,151,536,5.4558656215667725,True,,True,1,False,1000,True,1.0
./expes/v2_2020-11-23_di_250-prng-1,daily_issda_300,300,rng-300,31,rng,num-start-281,281,536,8.316673755645752,True,,True,1,False,1000,True,1.0
./expes/v2_2020-11-23_di_250-prng-1,daily_issda_300,300,rng-300,251,rng,num-start-151,151,536,4.620946645736694,True,,True,1,False,1000,True,1.0
./expes/v2_2020-11-23_di_250-prng-1,daily_issda_300,300,rng-300,141,rng,num-start-181,181,536,6.559074640274048,True,,True,1,False,1000,True,1.0
./expes/v2_2020-11-23_di_250-prng-1,daily_issda_300,300,rng-300,151,rng,num-start-201,201,536,6.5901875495910645,True,,True,1,False,1000,True,1.0
./expes/v2_2020-11-23_di_250-prng-1,daily_issda_300,300,rng-300,291,rng,num-start-201,201,536,4.950872182846069,True,,True,1,False,1000,True,1.0
./expes/v2_2020-11-23_di_250-prng-1,daily_issda_300,300,rng-300,31,rng,num-start-71,71,536,5.356796503067017,True,,True,1,False,1000,True,1.0
./expes/v2_2020-11-23_di_250-prng-1,daily_issda_300,300,rng-300,271,rng,num-start-41,41,536,1001.6295747756958,False,,False,0,True,1000,True,0.0
./expes/v2_2020-11-23_di_250-prng-1,daily_issda_300,300,rng-300,51,rng,num-start-61,61,536,1001.3681447505951,False,,False,0,True,1000,True,0.0
./expes/v2_2020-11-23_di_250-prng-1,daily_issda_300,300,rng-300,291,rng,num-start-231,231,536,5.994022607803345,True,,True,1,False,1000,True,1.0
./expes/v2_2020-11-23_di_250-prng-1,daily_issda_300,300,rng-300,11,rng,num-start-71,71,536,2.0893430709838867,True,,True,1,False,1000,True,1.0
./expes/v2_2020-11-23_di_250-prng-1,daily_issda_300,300,rng-300,271,rng,num-start-211,211,536,5.649059057235718,True,,True,1,False,1000,True,1.0
./expes/v2_2020-11-23_di_250-prng-1,daily_issda_300,300,rng-300,41,rng,num-start-291,291,536,9.193169832229614,True,,True,1,False,1000,True,1.0
./expes/v2_2020-11-23_di_250-prng-1,daily_issda_300,300,rng-300,171,rng,num-start-241,241,536,8.7442946434021,True,,True,1,False,1000,True,1.0
./expes/v2_2020-11-23_di_250-prng-1,daily_issda_300,300,rng-300,31,rng,num-start-91,91,536,2.8925511837005615,True,,True,1,False,1000,True,1.0
./expes/v2_2020-11-23_di_250-prng-1,daily_issda_300,300,rng-300,261,rng,num-start-181,181,536,5.7100841999053955,True,,True,1,False,1000,True,1.0
./expes/v2_2020-11-23_di_250-prng-1,daily_issda_300,300,rng-300,141,rng,num-start-291,291,536,11.009562730789185,True,,True,1,False,1000,True,1.0
./expes/v2_2020-11-23_di_250-prng-1,daily_issda_300,300,rng-300,241,rng,num-start-91,91,536,6.701800107955933,True,,True,1,False,1000,True,1.0
./expes/v2_2020-11-23_di_250-prng-1,daily_issda_300,300,rng-300,231,rng,num-start-151,151,536,5.3153486251831055,True,,True,1,False,1000,True,1.0
./expes/v2_2020-11-23_di_250-prng-1,daily_issda_300,300,rng-300,281,rng,num-start-91,91,536,2.528900384902954,True,,True,1,False,1000,True,1.0
./expes/v2_2020-11-23_di_250-prng-1,daily_issda_300,300,rng-300,291,rng,num-start-151,151,536,4.373351573944092,True,,True,1,False,1000,True,1.0
./expes/v2_2020-11-23_di_250-prng-1,daily_issda_300,300,rng-300,151,rng,num-start-161,161,536,5.486479759216309,True,,True,1,False,1000,True,1.0
./expes/v2_2020-11-23_di_250-prng-1,daily_issda_300,300,rng-300,21,rng,num-start-291,291,536,7.494046449661255,True,,True,1,False,1000,True,1.0
./expes/v2_2020-11-23_di_250-prng-1,daily_issda_300,300,rng-300,151,rng,num-start-291,291,536,10.513152599334717,True,,True,1,False,1000,True,1.0
./expes/v2_2020-11-23_di_250-prng-1,daily_issda_300,300,rng-300,151,rng,num-start-261,261,536,10.986913442611694,True,,True,1,False,1000,True,1.0
./expes/v2_2020-11-23_di_250-prng-1,daily_issda_300,300,rng-300,71,rng,num-start-131,131,536,4.804614305496216,True,,True,1,False,1000,True,1.0
./expes/v2_2020-11-23_di_250-prng-1,daily_issda_300,300,rng-300,1,rng,num-start-241,241,536,5.110977411270142,True,,True,1,False,1000,True,1.0
./expes/v2_2020-11-23_di_250-prng-1,daily_issda_300,300,rng-300,211,rng,num-start-271,271,536,9.358792543411255,True,,True,1,False,1000,True,1.0
./expes/v2_2020-11-23_di_250-prng-1,daily_issda_300,300,rng-300,41,rng,num-start-231,231,536,7.174309730529785,True,,True,1,False,1000,True,1.0
./expes/v2_2020-11-23_di_250-prng-1,daily_issda_300,300,rng-300,141,rng,num-start-221,221,536,8.001590967178345,True,,True,1,False,1000,True,1.0
./expes/v2_2020-11-23_di_250-prng-1,daily_issda_300,300,rng-300,71,rng,num-start-11,11,536,1000.2720317840576,False,,False,0,True,1000,True,0.0
./expes/v2_2020-11-23_di_250-prng-1,daily_issda_300,300,rng-300,251,rng,num-start-51,51,536,1001.1191477775574,False,,False,0,True,1000,True,0.0
./expes/v2_2020-11-23_di_250-prng-1,daily_issda_300,300,rng-300,51,rng,num-start-31,31,536,1000.8434743881226,False,,False,0,True,1000,True,0.0
./expes/v2_2020-11-23_di_250-prng-1,daily_issda_300,300,rng-300,11,rng,num-start-131,131,536,3.630282402038574,True,,True,1,False,1000,True,1.0
./expes/v2_2020-11-23_di_250-prng-1,daily_issda_300,300,rng-300,21,rng,num-start-161,161,536,4.396418333053589,True,,True,1,False,1000,True,1.0
./expes/v2_2020-11-23_di_250-prng-1,daily_issda_300,300,rng-300,181,rng,num-start-231,231,536,7.758440256118774,True,,True,1,False,1000,True,1.0
./expes/v2_2020-11-23_di_250-prng-1,daily_issda_300,300,rng-300,31,rng,num-start-1,1,536,0.9558990001678467,False,,False,2,False,1000,True,1.0
./expes/v2_2020-11-23_di_250-prng-1,daily_issda_300,300,rng-300,131,rng,num-start-141,141,536,6.038308620452881,True,,True,1,False,1000,True,1.0
./expes/v2_2020-11-23_di_250-prng-1,daily_issda_300,300,rng-300,241,rng,num-start-241,241,536,6.914774179458618,True,,True,1,False,1000,True,1.0
./expes/v2_2020-11-23_di_250-prng-1,daily_issda_300,300,rng-300,41,rng,num-start-81,81,536,3.9748997688293457,True,,True,1,False,1000,True,1.0
./expes/v2_2020-11-23_di_250-prng-1,daily_issda_300,300,rng-300,181,rng,num-start-231,231,536,6.485088586807251,True,,True,1,False,1000,True,1.0
./expes/v2_2020-11-23_di_250-prng-1,daily_issda_300,300,rng-300,261,rng,num-start-131,131,536,3.984768867492676,True,,True,1,False,1000,True,1.0
./expes/v2_2020-11-23_di_250-prng-1,daily_issda_300,300,rng-300,61,rng,num-start-151,151,536,5.019403457641602,True,,True,1,False,1000,True,1.0
./expes/v2_2020-11-23_di_250-prng-1,daily_issda_300,300,rng-300,241,rng,num-start-201,201,536,6.962223052978516,True,,True,1,False,1000,True,1.0
./expes/v2_2020-11-23_di_250-prng-1,daily_issda_300,300,rng-300,221,rng,num-start-151,151,536,5.118223428726196,True,,True,1,False,1000,True,1.0
./expes/v2_2020-11-23_di_250-prng-1,daily_issda_300,300,rng-300,271,rng,num-start-271,271,536,7.195309400558472,True,,True,1,False,1000,True,1.0
./expes/v2_2020-11-23_di_250-prng-1,daily_issda_300,300,rng-300,121,rng,num-start-231,231,536,7.488068342208862,True,,True,1,False,1000,True,1.0
./expes/v2_2020-11-23_di_250-prng-1,daily_issda_300,300,rng-300,141,rng,num-start-221,221,536,7.958421468734741,True,,True,1,False,1000,True,1.0
./expes/v2_2020-11-23_di_250-prng-1,daily_issda_300,300,rng-300,251,rng,num-start-51,51,536,1001.1226627826691,False,,False,0,True,1000,True,0.0
./expes/v2_2020-11-23_di_250-prng-1,daily_issda_300,300,rng-300,151,rng,num-start-31,31,536,1000.7064836025238,False,,False,0,True,1000,True,0.0
./expes/v2_2020-11-23_di_250-prng-1,daily_issda_300,300,rng-300,191,rng,num-start-201,201,536,7.351217985153198,True,,True,1,False,1000,True,1.0
./expes/v2_2020-11-23_di_250-prng-1,daily_issda_300,300,rng-300,101,rng,num-start-51,51,536,1001.1408231258392,False,,False,0,True,1000,True,0.0
./expes/v2_2020-11-23_di_250-prng-1,daily_issda_300,300,rng-300,141,rng,num-start-111,111,536,1002.3672678470612,False,,False,0,True,1000,True,0.0
./expes/v2_2020-11-23_di_250-prng-1,daily_issda_300,300,rng-300,231,rng,num-start-261,261,536,7.276520729064941,True,,True,1,False,1000,True,1.0
./expes/v2_2020-11-23_di_250-prng-1,daily_issda_300,300,rng-300,51,rng,num-start-211,211,536,7.157024383544922,True,,True,1,False,1000,True,1.0
./expes/v2_2020-11-23_di_250-prng-1,daily_issda_300,300,rng-300,211,rng,num-start-61,61,536,1001.4270031452179,False,,False,0,True,1000,True,0.0
./expes/v2_2020-11-23_di_250-prng-1,daily_issda_300,300,rng-300,71,rng,num-start-31,31,536,1000.7762231826782,False,,False,0,True,1000,True,0.0
./expes/v2_2020-11-23_di_250-prng-1,daily_issda_300,300,rng-300,191,rng,num-start-201,201,536,6.788445234298706,True,,True,1,False,1000,True,1.0
./expes/v2_2020-11-23_di_250-prng-1,daily_issda_300,300,rng-300,261,rng,num-start-11,11,536,1000.266987323761,False,,False,0,True,1000,True,0.0
./expes/v2_2020-11-23_di_250-prng-1,daily_issda_300,300,rng-300,171,rng,num-start-271,271,536,10.066004991531372,True,,True,1,False,1000,True,1.0
./expes/v2_2020-11-23_di_250-prng-1,daily_issda_300,300,rng-300,171,rng,num-start-11,11,536,1000.4510209560394,False,,False,0,True,1000,True,0.0
./expes/v2_2020-11-23_di_250-prng-1,daily_issda_300,300,rng-300,101,rng,num-start-111,111,536,7.994302034378052,True,,True,1,False,1000,True,1.0
./expes/v2_2020-11-23_di_250-prng-1,daily_issda_300,300,rng-300,61,rng,num-start-31,31,536,1000.7902114391327,False,,False,0,True,1000,True,0.0
./expes/v2_2020-11-23_di_250-prng-1,daily_issda_300,300,rng-300,1,rng,num-start-131,131,536,2.699968099594116,True,,True,1,False,1000,True,1.0
./expes/v2_2020-11-23_di_250-prng-1,daily_issda_300,300,rng-300,211,rng,num-start-161,161,536,5.1723785400390625,True,,True,1,False,1000,True,1.0
./expes/v2_2020-11-23_di_250-prng-1,daily_issda_300,300,rng-300,121,rng,num-start-11,11,536,1000.297290802002,False,,False,0,True,1000,True,0.0
./expes/v2_2020-11-23_di_250-prng-1,daily_issda_300,300,rng-300,51,rng,num-start-201,201,536,6.631710529327393,True,,True,1,False,1000,True,1.0
./expes/v2_2020-11-23_di_250-prng-1,daily_issda_300,300,rng-300,161,rng,num-start-31,31,536,1000.7105703353882,False,,False,0,True,1000,True,0.0
./expes/v2_2020-11-23_di_250-prng-1,daily_issda_300,300,rng-300,131,rng,num-start-251,251,536,8.65632438659668,True,,True,1,False,1000,True,1.0
./expes/v2_2020-11-23_di_250-prng-1,daily_issda_300,300,rng-300,141,rng,num-start-41,41,536,1000.9153423309326,False,,False,0,True,1000,True,0.0
./expes/v2_2020-11-23_di_250-prng-1,daily_issda_300,300,rng-300,181,rng,num-start-261,261,536,8.716904401779175,True,,True,1,False,1000,True,1.0
./expes/v2_2020-11-23_di_250-prng-1,daily_issda_300,300,rng-300,21,rng,num-start-41,41,536,6.6465418338775635,True,,True,1,False,1000,True,1.0
./expes/v2_2020-11-23_di_250-prng-1,daily_issda_300,300,rng-300,211,rng,num-start-201,201,536,6.38243556022644,True,,True,1,False,1000,True,1.0
./expes/v2_2020-11-23_di_250-prng-1,daily_issda_300,300,rng-300,41,rng,num-start-111,111,536,3.217740535736084,True,,True,1,False,1000,True,1.0
./expes/v2_2020-11-23_di_250-prng-1,daily_issda_300,300,rng-300,101,rng,num-start-281,281,536,8.66845965385437,True,,True,1,False,1000,True,1.0
./expes/v2_2020-11-23_di_250-prng-1,daily_issda_300,300,rng-300,261,rng,num-start-171,171,536,5.1298768520355225,True,,True,1,False,1000,True,1.0
./expes/v2_2020-11-23_di_250-prng-1,daily_issda_300,300,rng-300,31,rng,num-start-221,221,536,5.920158624649048,True,,True,1,False,1000,True,1.0
./expes/v2_2020-11-23_di_250-prng-1,daily_issda_300,300,rng-300,291,rng,num-start-91,91,536,2.4537527561187744,True,,True,1,False,1000,True,1.0
./expes/v2_2020-11-23_di_250-prng-1,daily_issda_300,300,rng-300,41,rng,num-start-261,261,536,7.618744611740112,True,,True,1,False,1000,True,1.0
./expes/v2_2020-11-23_di_250-prng-1,daily_issda_300,300,rng-300,261,rng,num-start-121,121,536,3.682917833328247,True,,True,1,False,1000,True,1.0
./expes/v2_2020-11-23_di_250-prng-1,daily_issda_300,300,rng-300,261,rng,num-start-271,271,536,6.895198106765747,True,,True,1,False,1000,True,1.0
./expes/v2_2020-11-23_di_250-prng-1,daily_issda_300,300,rng-300,91,rng,num-start-11,11,536,1000.2815010547638,False,,False,0,True,1000,True,0.0
./expes/v2_2020-11-23_di_250-prng-1,daily_issda_300,300,rng-300,31,rng,num-start-231,231,536,5.9419708251953125,True,,True,1,False,1000,True,1.0
./expes/v2_2020-11-23_di_250-prng-1,daily_issda_300,300,rng-300,251,rng,num-start-111,111,536,6.0322041511535645,True,,True,1,False,1000,True,1.0
./expes/v2_2020-11-23_di_250-prng-1,daily_issda_300,300,rng-300,171,rng,num-start-171,171,536,5.771156549453735,True,,True,1,False,1000,True,1.0
./expes/v2_2020-11-23_di_250-prng-1,daily_issda_300,300,rng-300,111,rng,num-start-81,81,536,1001.68425822258,False,,False,0,True,1000,True,0.0
./expes/v2_2020-11-23_di_250-prng-1,daily_issda_300,300,rng-300,31,rng,num-start-131,131,536,4.1483094692230225,True,,True,1,False,1000,True,1.0
./expes/v2_2020-11-23_di_250-prng-1,daily_issda_300,300,rng-300,271,rng,num-start-211,211,536,5.625633001327515,True,,True,1,False,1000,True,1.0
./expes/v2_2020-11-23_di_250-prng-1,daily_issda_300,300,rng-300,121,rng,num-start-71,71,536,1001.5127809047699,False,,False,0,True,1000,True,0.0
./expes/v2_2020-11-23_di_250-prng-1,daily_issda_300,300,rng-300,121,rng,num-start-131,131,536,9.11841869354248,True,,True,1,False,1000,True,1.0
./expes/v2_2020-11-23_di_250-prng-1,daily_issda_300,300,rng-300,171,rng,num-start-181,181,536,7.384883880615234,True,,True,1,False,1000,True,1.0
./expes/v2_2020-11-23_di_250-prng-1,daily_issda_300,300,rng-300,211,rng,num-start-11,11,536,1000.3067121505737,False,,False,0,True,1000,True,0.0
./expes/v2_2020-11-23_di_250-prng-1,daily_issda_300,300,rng-300,21,rng,num-start-161,161,536,5.375817537307739,True,,True,1,False,1000,True,1.0
./expes/v2_2020-11-23_di_250-prng-1,daily_issda_300,300,rng-300,131,rng,num-start-271,271,536,10.266924142837524,True,,True,1,False,1000,True,1.0
./expes/v2_2020-11-23_di_250-prng-1,daily_issda_300,300,rng-300,81,rng,num-start-71,71,536,1001.553097486496,False,,False,0,True,1000,True,0.0
./expes/v2_2020-11-23_di_250-prng-1,daily_issda_300,300,rng-300,191,rng,num-start-61,61,536,1001.3330357074738,False,,False,0,True,1000,True,0.0
./expes/v2_2020-11-23_di_250-prng-1,daily_issda_300,300,rng-300,201,rng,num-start-141,141,536,8.822027683258057,True,,True,1,False,1000,True,1.0
./expes/v2_2020-11-23_di_250-prng-1,daily_issda_300,300,rng-300,241,rng,num-start-211,211,536,6.170691251754761,True,,True,1,False,1000,True,1.0
./expes/v2_2020-11-23_di_250-prng-1,daily_issda_300,300,rng-300,21,rng,num-start-51,51,536,2.961181879043579,True,,True,1,False,1000,True,1.0
./expes/v2_2020-11-23_di_250-prng-1,daily_issda_300,300,rng-300,171,rng,num-start-101,101,536,103.46562957763672,True,,True,1,False,1000,True,1.0
./expes/v2_2020-11-23_di_250-prng-1,daily_issda_300,300,rng-300,271,rng,num-start-161,161,536,3.8860528469085693,True,,True,1,False,1000,True,1.0
./expes/v2_2020-11-23_di_250-prng-1,daily_issda_300,300,rng-300,281,rng,num-start-191,191,536,5.688620567321777,True,,True,1,False,1000,True,1.0
./expes/v2_2020-11-23_di_250-prng-1,daily_issda_300,300,rng-300,51,rng,num-start-91,91,536,6.866119623184204,True,,True,1,False,1000,True,1.0
./expes/v2_2020-11-23_di_250-prng-1,daily_issda_300,300,rng-300,191,rng,num-start-71,71,536,1001.4880547523499,False,,False,0,True,1000,True,0.0
./expes/v2_2020-11-23_di_250-prng-1,daily_issda_300,300,rng-300,91,rng,num-start-181,181,536,6.50803804397583,True,,True,1,False,1000,True,1.0
./expes/v2_2020-11-23_di_250-prng-1,daily_issda_300,300,rng-300,131,rng,num-start-1,1,536,1.6023576259613037,False,,False,2,False,1000,True,0.0
./expes/v2_2020-11-23_di_250-prng-1,daily_issda_300,300,rng-300,81,rng,num-start-161,161,536,5.5441062450408936,True,,True,1,False,1000,True,1.0
./expes/v2_2020-11-23_di_250-prng-1,daily_issda_300,300,rng-300,191,rng,num-start-71,71,536,1001.483072757721,False,,False,0,True,1000,True,0.0
./expes/v2_2020-11-23_di_250-prng-1,daily_issda_300,300,rng-300,221,rng,num-start-111,111,536,7.916930437088013,True,,True,1,False,1000,True,1.0
./expes/v2_2020-11-23_di_250-prng-1,daily_issda_300,300,rng-300,151,rng,num-start-91,91,536,1001.8842742443085,False,,False,0,True,1000,True,0.0
./expes/v2_2020-11-23_di_250-prng-1,daily_issda_300,300,rng-300,31,rng,num-start-81,81,536,2.4193902015686035,True,,True,1,False,1000,True,1.0
./expes/v2_2020-11-23_di_250-prng-1,daily_issda_300,300,rng-300,61,rng,num-start-181,181,536,6.757853031158447,True,,True,1,False,1000,True,1.0
./expes/v2_2020-11-23_di_250-prng-1,daily_issda_300,300,rng-300,201,rng,num-start-91,91,536,1001.8612132072449,False,,False,0,True,1000,True,0.0
./expes/v2_2020-11-23_di_250-prng-1,daily_issda_300,300,rng-300,291,rng,num-start-171,171,536,4.561328887939453,True,,True,1,False,1000,True,1.0
./expes/v2_2020-11-23_di_250-prng-1,daily_issda_300,300,rng-300,81,rng,num-start-181,181,536,5.646989107131958,True,,True,1,False,1000,True,1.0
./expes/v2_2020-11-23_di_250-prng-1,daily_issda_300,300,rng-300,11,rng,num-start-51,51,536,1.5631985664367676,True,,True,1,False,1000,True,1.0
./expes/v2_2020-11-23_di_250-prng-1,daily_issda_300,300,rng-300,281,rng,num-start-71,71,536,2.1319198608398438,True,,True,1,False,1000,True,1.0
./expes/v2_2020-11-23_di_250-prng-1,daily_issda_300,300,rng-300,121,rng,num-start-251,251,536,8.747071027755737,True,,True,1,False,1000,True,1.0
./expes/v2_2020-11-23_di_250-prng-1,daily_issda_300,300,rng-300,1,rng,num-start-131,131,536,2.64131236076355,True,,True,1,False,1000,True,1.0
./expes/v2_2020-11-23_di_250-prng-1,daily_issda_300,300,rng-300,71,rng,num-start-171,171,536,5.559064626693726,True,,True,1,False,1000,True,1.0
./expes/v2_2020-11-23_di_250-prng-1,daily_issda_300,300,rng-300,211,rng,num-start-271,271,536,8.201347351074219,True,,True,1,False,1000,True,1.0
./expes/v2_2020-11-23_di_250-prng-1,daily_issda_300,300,rng-300,51,rng,num-start-71,71,536,1001.5069823265076,False,,False,1,True,1000,True,0.0
./expes/v2_2020-11-23_di_250-prng-1,daily_issda_300,300,rng-300,231,rng,num-start-281,281,536,7.648468255996704,True,,True,1,False,1000,True,1.0
./expes/v2_2020-11-23_di_250-prng-1,daily_issda_300,300,rng-300,241,rng,num-start-51,51,536,1001.08900141716,False,,False,0,True,1000,True,0.0
./expes/v2_2020-11-23_di_250-prng-1,daily_issda_300,300,rng-300,111,rng,num-start-121,121,536,7.698503255844116,True,,True,1,False,1000,True,1.0
./expes/v2_2020-11-23_di_250-prng-1,daily_issda_300,300,rng-300,181,rng,num-start-71,71,536,1001.6270813941956,False,,False,0,True,1000,True,0.0
./expes/v2_2020-11-23_di_250-prng-1,daily_issda_300,300,rng-300,111,rng,num-start-1,1,536,3.538762331008911,False,,False,2,False,1000,True,1.0
./expes/v2_2020-11-23_di_250-prng-1,daily_issda_300,300,rng-300,101,rng,num-start-81,81,536,1001.7618663311005,False,,False,0,True,1000,True,0.0
./expes/v2_2020-11-23_di_250-prng-1,daily_issda_300,300,rng-300,201,rng,num-start-141,141,536,4.984321594238281,True,,True,1,False,1000,True,1.0
./expes/v2_2020-11-23_di_250-prng-1,daily_issda_300,300,rng-300,191,rng,num-start-231,231,536,8.536150217056274,True,,True,1,False,1000,True,1.0
./expes/v2_2020-11-23_di_250-prng-1,daily_issda_300,300,rng-300,21,rng,num-start-151,151,536,4.126477003097534,True,,True,1,False,1000,True,1.0
./expes/v2_2020-11-23_di_250-prng-1,daily_issda_300,300,rng-300,151,rng,num-start-161,161,536,5.753994703292847,True,,True,1,False,1000,True,1.0
./expes/v2_2020-11-23_di_250-prng-1,daily_issda_300,300,rng-300,161,rng,num-start-261,261,536,9.725810527801514,True,,True,1,False,1000,True,1.0
./expes/v2_2020-11-23_di_250-prng-1,daily_issda_300,300,rng-300,91,rng,num-start-91,91,536,11.455512046813965,True,,True,1,False,1000,True,1.0
./expes/v2_2020-11-23_di_250-prng-1,daily_issda_300,300,rng-300,121,rng,num-start-211,211,536,6.870187282562256,True,,True,1,False,1000,True,1.0
./expes/v2_2020-11-23_di_250-prng-1,daily_issda_300,300,rng-300,171,rng,num-start-11,11,536,1000.6651372909546,False,,False,0,True,1000,True,0.0
./expes/v2_2020-11-23_di_250-prng-1,daily_issda_300,300,rng-300,281,rng,num-start-191,191,536,4.976422548294067,True,,True,1,False,1000,True,1.0
./expes/v2_2020-11-23_di_250-prng-1,daily_issda_300,300,rng-300,101,rng,num-start-71,71,536,1001.5790712833405,False,,False,0,True,1000,True,0.0
./expes/v2_2020-11-23_di_250-prng-1,daily_issda_300,300,rng-300,21,rng,num-start-251,251,536,7.124353408813477,True,,True,1,False,1000,True,1.0
./expes/v2_2020-11-23_di_250-prng-1,daily_issda_300,300,rng-300,141,rng,num-start-101,101,536,1002.0353064537048,False,,False,0,True,1000,True,0.0
./expes/v2_2020-11-23_di_250-prng-1,daily_issda_300,300,rng-300,91,rng,num-start-71,71,536,1001.4784109592438,False,,False,0,True,1000,True,0.0
./expes/v2_2020-11-23_di_250-prng-1,daily_issda_300,300,rng-300,291,rng,num-start-141,141,536,3.4350316524505615,True,,True,1,False,1000,True,1.0
./expes/v2_2020-11-23_di_250-prng-1,daily_issda_300,300,rng-300,221,rng,num-start-271,271,536,8.363152503967285,True,,True,1,False,1000,True,1.0
./expes/v2_2020-11-23_di_250-prng-1,daily_issda_300,300,rng-300,61,rng,num-start-211,211,536,6.223888158798218,True,,True,1,False,1000,True,1.0
./expes/v2_2020-11-23_di_250-prng-1,daily_issda_300,300,rng-300,1,rng,num-start-11,11,536,0.21663546562194824,True,,True,1,False,1000,True,1.0
./expes/v2_2020-11-23_di_250-prng-1,daily_issda_300,300,rng-300,251,rng,num-start-241,241,536,7.612569808959961,True,,True,1,False,1000,True,1.0
./expes/v2_2020-11-23_di_250-prng-1,daily_issda_300,300,rng-300,121,rng,num-start-41,41,536,1000.8838758468628,False,,False,0,True,1000,True,0.0
./expes/v2_2020-11-23_di_250-prng-1,daily_issda_300,300,rng-300,201,rng,num-start-161,161,536,5.389234781265259,True,,True,1,False,1000,True,1.0
./expes/v2_2020-11-23_di_250-prng-1,daily_issda_300,300,rng-300,261,rng,num-start-261,261,536,6.840550899505615,True,,True,1,False,1000,True,1.0
./expes/v2_2020-11-23_di_250-prng-1,daily_issda_300,300,rng-300,191,rng,num-start-81,81,536,1001.7022018432617,False,,False,0,True,1000,True,0.0
./expes/v2_2020-11-23_di_250-prng-1,daily_issda_300,300,rng-300,121,rng,num-start-1,1,536,3.5844671726226807,False,,False,2,False,1000,True,1.0
./expes/v2_2020-11-23_di_250-prng-1,daily_issda_300,300,rng-300,71,rng,num-start-291,291,536,9.53515887260437,True,,True,1,False,1000,True,1.0
./expes/v2_2020-11-23_di_250-prng-1,daily_issda_300,300,rng-300,141,rng,num-start-151,151,536,5.618455171585083,True,,True,1,False,1000,True,1.0
./expes/v2_2020-11-23_di_250-prng-1,daily_issda_300,300,rng-300,271,rng,num-start-251,251,536,6.485125780105591,True,,True,1,False,1000,True,1.0
./expes/v2_2020-11-23_di_250-prng-1,daily_issda_300,300,rng-300,251,rng,num-start-41,41,536,1000.8817753791809,False,,False,0,True,1000,True,0.0
./expes/v2_2020-11-23_di_250-prng-1,daily_issda_300,300,rng-300,81,rng,num-start-21,21,536,1000.4698524475098,False,,False,0,True,1000,True,0.0
./expes/v2_2020-11-23_di_250-prng-1,daily_issda_300,300,rng-300,101,rng,num-start-241,241,536,7.995019197463989,True,,True,1,False,1000,True,1.0
./expes/v2_2020-11-23_di_250-prng-1,daily_issda_300,300,rng-300,141,rng,num-start-231,231,536,8.518773317337036,True,,True,1,False,1000,True,1.0
./expes/v2_2020-11-23_di_250-prng-1,daily_issda_300,300,rng-300,201,rng,num-start-251,251,536,7.933288335800171,True,,True,1,False,1000,True,1.0
./expes/v2_2020-11-23_di_250-prng-1,daily_issda_300,300,rng-300,251,rng,num-start-171,171,536,5.272242546081543,True,,True,1,False,1000,True,1.0
./expes/v2_2020-11-23_di_250-prng-1,daily_issda_300,300,rng-300,251,rng,num-start-51,51,536,1001.2453615665436,False,,False,0,True,1000,True,0.0
./expes/v2_2020-11-23_di_250-prng-1,daily_issda_300,300,rng-300,201,rng,num-start-41,41,536,1000.9432401657104,False,,False,0,True,1000,True,0.0
./expes/v2_2020-11-23_di_250-prng-1,daily_issda_300,300,rng-300,111,rng,num-start-181,181,536,6.36961030960083,True,,True,1,False,1000,True,1.0
./expes/v2_2020-11-23_di_250-prng-1,daily_issda_300,300,rng-300,131,rng,num-start-281,281,536,10.402911186218262,True,,True,1,False,1000,True,1.0
./expes/v2_2020-11-23_di_250-prng-1,daily_issda_300,300,rng-300,151,rng,num-start-151,151,536,5.687946557998657,True,,True,1,False,1000,True,1.0
./expes/v2_2020-11-23_di_250-prng-1,daily_issda_300,300,rng-300,141,rng,num-start-41,41,536,1001.1497423648834,False,,False,0,True,1000,True,0.0
./expes/v2_2020-11-23_di_250-prng-1,daily_issda_300,300,rng-300,221,rng,num-start-261,261,536,8.216360569000244,True,,True,1,False,1000,True,1.0
./expes/v2_2020-11-23_di_250-prng-1,daily_issda_300,300,rng-300,201,rng,num-start-221,221,536,7.817783355712891,True,,True,1,False,1000,True,1.0
./expes/v2_2020-11-23_di_250-prng-1,daily_issda_300,300,rng-300,291,rng,num-start-241,241,536,5.929575443267822,True,,True,1,False,1000,True,1.0
./expes/v2_2020-11-23_di_250-prng-1,daily_issda_300,300,rng-300,141,rng,num-start-1,1,536,3.2861528396606445,False,,False,2,False,1000,True,1.0
./expes/v2_2020-11-23_di_250-prng-1,daily_issda_300,300,rng-300,1,rng,num-start-261,261,536,5.289668560028076,True,,True,1,False,1000,True,1.0
./expes/v2_2020-11-23_di_250-prng-1,daily_issda_300,300,rng-300,161,rng,num-start-171,171,536,6.239100933074951,True,,True,1,False,1000,True,1.0
./expes/v2_2020-11-23_di_250-prng-1,daily_issda_300,300,rng-300,261,rng,num-start-221,221,536,5.835506200790405,True,,True,1,False,1000,True,1.0
./expes/v2_2020-11-23_di_250-prng-1,daily_issda_300,300,rng-300,71,rng,num-start-171,171,536,5.618510723114014,True,,True,1,False,1000,True,1.0
./expes/v2_2020-11-23_di_250-prng-1,daily_issda_300,300,rng-300,241,rng,num-start-41,41,536,1000.9342274665833,False,,False,0,True,1000,True,0.0
./expes/v2_2020-11-23_di_250-prng-1,daily_issda_300,300,rng-300,261,rng,num-start-71,71,536,6.8415234088897705,True,,True,1,False,1000,True,1.0
./expes/v2_2020-11-23_di_250-prng-1,daily_issda_300,300,rng-300,261,rng,num-start-91,91,536,3.3437271118164062,True,,True,1,False,1000,True,1.0
./expes/v2_2020-11-23_di_250-prng-1,daily_issda_300,300,rng-300,111,rng,num-start-261,261,536,9.787950992584229,True,,True,1,False,1000,True,1.0
./expes/v2_2020-11-23_di_250-prng-1,daily_issda_300,300,rng-300,131,rng,num-start-121,121,536,8.507386684417725,True,,True,1,False,1000,True,1.0
./expes/v2_2020-11-23_di_250-prng-1,daily_issda_300,300,rng-300,1,rng,num-start-91,91,536,1.8827502727508545,True,,True,1,False,1000,True,1.0
./expes/v2_2020-11-23_di_250-prng-1,daily_issda_300,300,rng-300,181,rng,num-start-171,171,536,5.761505365371704,True,,True,1,False,1000,True,1.0
./expes/v2_2020-11-23_di_250-prng-1,daily_issda_300,300,rng-300,81,rng,num-start-211,211,536,7.014278173446655,True,,True,1,False,1000,True,1.0
./expes/v2_2020-11-23_di_250-prng-1,daily_issda_300,300,rng-300,181,rng,num-start-131,131,536,10.318059921264648,True,,True,1,False,1000,True,1.0
./expes/v2_2020-11-23_di_250-prng-1,daily_issda_300,300,rng-300,21,rng,num-start-21,21,536,1002.5401926040649,False,,False,0,True,1000,True,0.0
./expes/v2_2020-11-23_di_250-prng-1,daily_issda_300,300,rng-300,291,rng,num-start-191,191,536,4.687062501907349,True,,True,1,False,1000,True,1.0
./expes/v2_2020-11-23_di_250-prng-1,daily_issda_300,300,rng-300,171,rng,num-start-101,101,536,1002.1777374744415,False,,False,0,True,1000,True,0.0
./expes/v2_2020-11-23_di_250-prng-1,daily_issda_300,300,rng-300,271,rng,num-start-181,181,536,5.072319030761719,True,,True,1,False,1000,True,1.0
./expes/v2_2020-11-23_di_250-prng-1,daily_issda_300,300,rng-300,11,rng,num-start-61,61,536,1.9057557582855225,True,,True,1,False,1000,True,1.0
./expes/v2_2020-11-23_di_250-prng-1,daily_issda_300,300,rng-300,241,rng,num-start-191,191,536,5.092590093612671,True,,True,1,False,1000,True,1.0
./expes/v2_2020-11-23_di_250-prng-1,daily_issda_300,300,rng-300,171,rng,num-start-41,41,536,1000.9112606048584,False,,False,0,True,1000,True,0.0
./expes/v2_2020-11-23_di_250-prng-1,daily_issda_300,300,rng-300,271,rng,num-start-231,231,536,6.561712265014648,True,,True,1,False,1000,True,1.0
./expes/v2_2020-11-23_di_250-prng-1,daily_issda_300,300,rng-300,111,rng,num-start-61,61,536,1001.2824885845184,False,,False,0,True,1000,True,0.0
./expes/v2_2020-11-23_di_250-prng-1,daily_issda_300,300,rng-300,51,rng,num-start-51,51,536,1001.2205250263214,False,,False,0,True,1000,True,0.0
./expes/v2_2020-11-23_di_250-prng-1,daily_issda_300,300,rng-300,11,rng,num-start-81,81,536,2.407994031906128,True,,True,1,False,1000,True,1.0
./expes/v2_2020-11-23_di_250-prng-1,daily_issda_300,300,rng-300,191,rng,num-start-211,211,536,5.722362995147705,True,,True,1,False,1000,True,1.0
./expes/v2_2020-11-23_di_250-prng-1,daily_issda_300,300,rng-300,1,rng,num-start-41,41,536,0.8616399765014648,True,,True,1,False,1000,True,1.0
./expes/v2_2020-11-23_di_250-prng-1,daily_issda_300,300,rng-300,121,rng,num-start-31,31,536,1000.8041613101959,False,,False,0,True,1000,True,0.0
./expes/v2_2020-11-23_di_250-prng-1,daily_issda_300,300,rng-300,41,rng,num-start-211,211,536,6.486907720565796,True,,True,1,False,1000,True,1.0
./expes/v2_2020-11-23_di_250-prng-1,daily_issda_300,300,rng-300,151,rng,num-start-121,121,536,9.235952615737915,True,,True,1,False,1000,True,1.0
./expes/v2_2020-11-23_di_250-prng-1,daily_issda_300,300,rng-300,41,rng,num-start-41,41,536,1000.9342141151428,False,,False,0,True,1000,True,0.0
./expes/v2_2020-11-23_di_250-prng-1,daily_issda_300,300,rng-300,31,rng,num-start-101,101,536,3.3312506675720215,True,,True,1,False,1000,True,1.0
./expes/v2_2020-11-23_di_250-prng-1,daily_issda_300,300,rng-300,141,rng,num-start-31,31,536,1000.7647333145142,False,,False,0,True,1000,True,0.0
./expes/v2_2020-11-23_di_250-prng-1,daily_issda_300,300,rng-300,261,rng,num-start-71,71,536,8.631423711776733,True,,True,1,False,1000,True,1.0
./expes/v2_2020-11-23_di_250-prng-1,daily_issda_300,300,rng-300,1,rng,num-start-121,121,536,2.5195693969726562,True,,True,1,False,1000,True,1.0
./expes/v2_2020-11-23_di_250-prng-1,daily_issda_300,300,rng-300,81,rng,num-start-211,211,536,6.88224720954895,True,,True,1,False,1000,True,1.0
./expes/v2_2020-11-23_di_250-prng-1,daily_issda_300,300,rng-300,81,rng,num-start-181,181,536,6.187504291534424,True,,True,1,False,1000,True,1.0
./expes/v2_2020-11-23_di_250-prng-1,daily_issda_300,300,rng-300,231,rng,num-start-111,111,536,5.245069980621338,True,,True,1,False,1000,True,1.0
./expes/v2_2020-11-23_di_250-prng-1,daily_issda_300,300,rng-300,61,rng,num-start-51,51,536,1001.514228105545,False,,False,0,True,1000,True,0.0
./expes/v2_2020-11-23_di_250-prng-1,daily_issda_300,300,rng-300,291,rng,num-start-271,271,536,6.581731081008911,True,,True,1,False,1000,True,1.0
./expes/v2_2020-11-23_di_250-prng-1,daily_issda_300,300,rng-300,41,rng,num-start-181,181,536,4.893331050872803,True,,True,1,False,1000,True,1.0
./expes/v2_2020-11-23_di_250-prng-1,daily_issda_300,300,rng-300,201,rng,num-start-291,291,536,8.791054725646973,True,,True,1,False,1000,True,1.0
./expes/v2_2020-11-23_di_250-prng-1,daily_issda_300,300,rng-300,11,rng,num-start-111,111,536,2.897702932357788,True,,True,1,False,1000,True,1.0
./expes/v2_2020-11-23_di_250-prng-1,daily_issda_300,300,rng-300,31,rng,num-start-111,111,536,3.2358829975128174,True,,True,1,False,1000,True,1.0
./expes/v2_2020-11-23_di_250-prng-1,daily_issda_300,300,rng-300,81,rng,num-start-281,281,536,10.234344482421875,True,,True,1,False,1000,True,1.0
./expes/v2_2020-11-23_di_250-prng-1,daily_issda_300,300,rng-300,271,rng,num-start-11,11,536,1000.6332695484161,False,,False,0,True,1000,True,0.0
./expes/v2_2020-11-23_di_250-prng-1,daily_issda_300,300,rng-300,271,rng,num-start-201,201,536,5.13720440864563,True,,True,1,False,1000,True,1.0
./expes/v2_2020-11-23_di_250-prng-1,daily_issda_300,300,rng-300,51,rng,num-start-191,191,536,5.637943506240845,True,,True,1,False,1000,True,1.0
./expes/v2_2020-11-23_di_250-prng-1,daily_issda_300,300,rng-300,271,rng,num-start-181,181,536,5.2565758228302,True,,True,1,False,1000,True,1.0
./expes/v2_2020-11-23_di_250-prng-1,daily_issda_300,300,rng-300,111,rng,num-start-271,271,536,9.064133882522583,True,,True,1,False,1000,True,1.0
./expes/v2_2020-11-23_di_250-prng-1,daily_issda_300,300,rng-300,21,rng,num-start-241,241,536,6.840035438537598,True,,True,1,False,1000,True,1.0
./expes/v2_2020-11-23_di_250-prng-1,daily_issda_300,300,rng-300,11,rng,num-start-151,151,536,4.154840469360352,True,,True,1,False,1000,True,1.0
./expes/v2_2020-11-23_di_250-prng-1,daily_issda_300,300,rng-300,31,rng,num-start-1,1,536,0.8655056953430176,False,,False,2,False,1000,True,1.0
./expes/v2_2020-11-23_di_250-prng-1,daily_issda_300,300,rng-300,241,rng,num-start-141,141,536,4.702399730682373,True,,True,1,False,1000,True,1.0
./expes/v2_2020-11-23_di_250-prng-1,daily_issda_300,300,rng-300,221,rng,num-start-141,141,536,4.7064900398254395,True,,True,1,False,1000,True,1.0
./expes/v2_2020-11-23_di_250-prng-1,daily_issda_300,300,rng-300,141,rng,num-start-81,81,536,1001.6895220279694,False,,False,0,True,1000,True,0.0
./expes/v2_2020-11-23_di_250-prng-1,daily_issda_300,300,rng-300,11,rng,num-start-291,291,536,7.502646446228027,True,,True,1,False,1000,True,1.0
./expes/v2_2020-11-23_di_250-prng-1,daily_issda_300,300,rng-300,71,rng,num-start-21,21,536,1000.5223276615143,False,,False,0,True,1000,True,0.0
./expes/v2_2020-11-23_di_250-prng-1,daily_issda_300,300,rng-300,261,rng,num-start-181,181,536,4.71967339515686,True,,True,1,False,1000,True,1.0
./expes/v2_2020-11-23_di_250-prng-1,daily_issda_300,300,rng-300,111,rng,num-start-31,31,536,1000.7287003993988,False,,False,0,True,1000,True,0.0
./expes/v2_2020-11-23_di_250-prng-1,daily_issda_300,300,rng-300,1,rng,num-start-281,281,536,5.669772624969482,True,,True,1,False,1000,True,1.0
./expes/v2_2020-11-23_di_250-prng-1,daily_issda_300,300,rng-300,261,rng,num-start-151,151,536,4.463132619857788,True,,True,1,False,1000,True,1.0
./expes/v2_2020-11-23_di_250-prng-1,daily_issda_300,300,rng-300,71,rng,num-start-161,161,536,4.781510829925537,True,,True,1,False,1000,True,1.0
./expes/v2_2020-11-23_di_250-prng-1,daily_issda_300,300,rng-300,281,rng,num-start-51,51,536,2.3605458736419678,True,,True,1,False,1000,True,1.0
./expes/v2_2020-11-23_di_250-prng-1,daily_issda_300,300,rng-300,91,rng,num-start-151,151,536,5.392909526824951,True,,True,1,False,1000,True,1.0
./expes/v2_2020-11-23_di_250-prng-1,daily_issda_300,300,rng-300,51,rng,num-start-151,151,536,4.832032680511475,True,,True,1,False,1000,True,1.0
./expes/v2_2020-11-23_di_250-prng-1,daily_issda_300,300,rng-300,191,rng,num-start-71,71,536,1001.6258759498596,False,,False,0,True,1000,True,0.0
./expes/v2_2020-11-23_di_250-prng-1,daily_issda_300,300,rng-300,1,rng,num-start-241,241,536,4.9946019649505615,True,,True,1,False,1000,True,1.0
./expes/v2_2020-11-23_di_250-prng-1,daily_issda_300,300,rng-300,51,rng,num-start-51,51,536,1001.2154095172882,False,,False,0,True,1000,True,0.0
./expes/v2_2020-11-23_di_250-prng-1,daily_issda_300,300,rng-300,161,rng,num-start-151,151,536,7.805720090866089,True,,True,1,False,1000,True,1.0
./expes/v2_2020-11-23_di_250-prng-1,daily_issda_300,300,rng-300,11,rng,num-start-291,291,536,7.89644193649292,True,,True,1,False,1000,True,1.0
./expes/v2_2020-11-23_di_250-prng-1,daily_issda_300,300,rng-300,71,rng,num-start-91,91,536,1001.9048836231232,False,,False,1,True,1000,True,0.0
./expes/v2_2020-11-23_di_250-prng-1,daily_issda_300,300,rng-300,151,rng,num-start-271,271,536,10.946202516555786,True,,True,1,False,1000,True,1.0
./expes/v2_2020-11-23_di_250-prng-1,daily_issda_300,300,rng-300,171,rng,num-start-281,281,536,8.78637981414795,True,,True,1,False,1000,True,1.0
./expes/v2_2020-11-23_di_250-prng-1,daily_issda_300,300,rng-300,231,rng,num-start-241,241,536,7.411960124969482,True,,True,1,False,1000,True,1.0
./expes/v2_2020-11-23_di_250-prng-1,daily_issda_300,300,rng-300,101,rng,num-start-31,31,536,1000.7652857303619,False,,False,0,True,1000,True,0.0
./expes/v2_2020-11-23_di_250-prng-1,daily_issda_300,300,rng-300,1,rng,num-start-111,111,536,2.3442556858062744,True,,True,1,False,1000,True,1.0
./expes/v2_2020-11-23_di_250-prng-1,daily_issda_300,300,rng-300,191,rng,num-start-11,11,536,1000.3632416725159,False,,False,0,True,1000,True,0.0
