expe,clients,clients_size,clients_subset,agg_size,agg_size_pc,method,days,days_size,days_total,noise_method,time,valid,valid_sum,success,score_avg,score_min,score_max,nsols,oracle,wall_hit,wall_time,pooled,pool_size,uuid,optimal,valid_sums
./expes/v3_2021-02-05_di_300-prng-1-w1-p2,daily_issda-300,300,first-300,119,39,rng,num-start-211,211,536,classic,8.038510799407959,True,,True,1.0,1.0,1.0,1,"Index(['1', '3', '5', '6', '8', '9', '11', '16', '19', '20',
       ...
       '271', '276', '283', '284', '287', '289', '290', '295', '296', '299'],
      dtype='object', length=119)",False,1000,True,2,f82bb6409a,1.0,1.0
./expes/v3_2021-02-05_di_300-prng-1-w1-p2,daily_issda-300,300,first-300,63,21,rng,num-start-291,291,536,classic,10.299437284469604,True,,True,1.0,1.0,1.0,1,"Index(['3', '8', '17', '18', '19', '23', '34', '37', '39', '42', '50', '58',
       '69', '72', '77', '81', '83', '90', '100', '106', '115', '121', '123',
       '128', '135', '143', '146', '155', '156', '161', '167', '168', '182',
       '185', '186', '188', '192', '193', '196', '197', '212', '216', '220',
       '224', '226', '231', '234', '237', '241', '248', '251', '252', '255',
       '257', '267', '274', '275', '282', '291', '293', '296', '299', '300'],
      dtype='object')",False,1000,True,2,5b19d44def,1.0,1.0
./expes/v3_2021-02-05_di_300-prng-1-w1-p2,daily_issda-300,300,first-300,77,25,rng,num-start-131,131,536,classic,5.930955648422241,True,,True,1.0,1.0,1.0,1,"Index(['20', '21', '24', '25', '26', '30', '31', '32', '33', '36', '38', '40',
       '42', '45', '47', '49', '50', '53', '61', '64', '69', '74', '78', '85',
       '93', '97', '106', '110', '114', '115', '124', '125', '128', '148',
       '149', '154', '158', '161', '166', '175', '176', '180', '186', '188',
       '191', '203', '204', '215', '216', '218', '219', '223', '230', '233',
       '239', '251', '254', '255', '260', '263', '269', '273', '275', '277',
       '281', '283', '286', '287', '289', '290', '293', '294', '295', '296',
       '298', '299', '300'],
      dtype='object')",False,1000,True,2,d494f473f3,1.0,1.0
./expes/v3_2021-02-05_di_300-prng-1-w1-p2,daily_issda-300,300,first-300,77,25,rng,num-start-251,251,536,classic,8.80311131477356,True,,True,1.0,1.0,1.0,1,"Index(['2', '3', '4', '5', '9', '13', '18', '21', '22', '23', '27', '28', '29',
       '33', '36', '42', '43', '44', '45', '48', '53', '57', '58', '63', '68',
       '69', '71', '72', '75', '77', '81', '83', '87', '89', '96', '99', '102',
       '103', '104', '105', '108', '115', '122', '137', '138', '139', '144',
       '150', '170', '172', '174', '175', '192', '194', '195', '197', '204',
       '207', '211', '216', '217', '218', '232', '238', '252', '255', '257',
       '258', '259', '260', '276', '277', '284', '285', '294', '295', '297'],
      dtype='object')",False,1000,True,2,8fe9b03d4a,1.0,1.0
./expes/v3_2021-02-05_di_300-prng-1-w1-p2,daily_issda-300,300,first-300,77,25,rng,num-start-141,141,536,classic,5.569812536239624,True,,True,1.0,1.0,1.0,1,"Index(['3', '8', '17', '18', '19', '23', '34', '37', '39', '42', '50', '58',
       '62', '69', '72', '74', '77', '81', '83', '86', '90', '92', '98', '100',
       '106', '115', '121', '123', '126', '128', '135', '137', '141', '143',
       '146', '155', '156', '161', '167', '168', '179', '182', '185', '186',
       '188', '192', '193', '196', '197', '212', '213', '216', '220', '222',
       '224', '226', '227', '229', '231', '234', '237', '241', '248', '251',
       '252', '255', '257', '267', '268', '274', '275', '282', '291', '293',
       '296', '299', '300'],
      dtype='object')",False,1000,True,2,909e78cd01,1.0,1.0
./expes/v3_2021-02-05_di_300-prng-1-w1-p2,daily_issda-300,300,first-300,42,14,rng,num-start-241,241,536,classic,7.9953367710113525,True,,True,1.0,1.0,1.0,1,"Index(['11', '16', '23', '30', '33', '44', '45', '46', '50', '56', '59', '65',
       '71', '99', '108', '117', '120', '121', '127', '133', '137', '174',
       '190', '193', '194', '195', '198', '200', '206', '207', '209', '233',
       '236', '243', '249', '250', '254', '255', '260', '265', '267', '294'],
      dtype='object')",False,1000,True,2,a8a34d8606,1.0,1.0
./expes/v3_2021-02-05_di_300-prng-1-w1-p2,daily_issda-300,300,first-300,105,35,rng,num-start-231,231,536,classic,7.873352289199829,True,,True,1.0,1.0,1.0,1,"Index(['2', '3', '8', '16', '19', '20', '22', '23', '36', '37',
       ...
       '282', '284', '285', '287', '289', '290', '292', '296', '298', '299'],
      dtype='object', length=105)",False,1000,True,2,7fc2858715,1.0,1.0
./expes/v3_2021-02-05_di_300-prng-1-w1-p2,daily_issda-300,300,first-300,63,21,rng,num-start-151,151,536,classic,5.783422470092773,True,,True,1.0,1.0,1.0,1,"Index(['4', '11', '14', '23', '24', '31', '35', '42', '45', '46', '47', '53',
       '55', '80', '83', '85', '89', '92', '100', '110', '114', '120', '121',
       '127', '128', '133', '134', '135', '140', '142', '144', '148', '149',
       '150', '154', '156', '157', '159', '160', '173', '176', '185', '191',
       '199', '203', '206', '212', '217', '221', '232', '237', '242', '243',
       '246', '260', '261', '266', '267', '274', '275', '281', '282', '294'],
      dtype='object')",False,1000,True,2,e71fd500dd,1.0,1.0
./expes/v3_2021-02-05_di_300-prng-1-w1-p2,daily_issda-300,300,first-300,70,23,rng,num-start-31,31,536,classic,1000.9380567073822,False,,False,0,,,0,"Index(['6', '9', '10', '19', '25', '29', '34', '38', '41', '52', '60', '72',
       '76', '78', '81', '85', '89', '92', '101', '106', '107', '115', '118',
       '119', '121', '123', '135', '144', '147', '152', '157', '159', '160',
       '161', '162', '163', '174', '177', '182', '183', '185', '189', '199',
       '201', '203', '206', '208', '215', '216', '225', '231', '234', '237',
       '239', '240', '244', '251', '252', '254', '257', '258', '262', '267',
       '272', '274', '279', '285', '290', '292', '296'],
      dtype='object')",True,1000,True,2,98053349d3,0.0,0.0
./expes/v3_2021-02-05_di_300-prng-1-w1-p2,daily_issda-300,300,first-300,112,37,rng,num-start-281,281,536,classic,10.238610029220581,True,,True,1.0,1.0,1.0,1,"Index(['3', '4', '5', '6', '7', '8', '11', '12', '15', '16',
       ...
       '258', '262', '265', '268', '270', '277', '278', '289', '297', '299'],
      dtype='object', length=112)",False,1000,True,2,2c0ad91b05,1.0,1.0
./expes/v3_2021-02-05_di_300-prng-1-w1-p2,daily_issda-300,300,first-300,84,28,rng,num-start-21,21,536,classic,1000.6337411403656,False,,False,0,,,0,"Index(['6', '8', '9', '10', '19', '22', '25', '29', '33', '34', '38', '41',
       '48', '52', '60', '72', '73', '76', '78', '81', '85', '89', '92', '101',
       '106', '107', '115', '118', '119', '121', '123', '134', '135', '140',
       '144', '147', '148', '152', '157', '159', '160', '161', '162', '163',
       '173', '174', '177', '182', '183', '185', '189', '193', '199', '200',
       '201', '203', '206', '208', '215', '216', '225', '227', '231', '234',
       '237', '239', '240', '243', '244', '251', '252', '253', '254', '257',
       '258', '262', '267', '272', '274', '279', '285', '290', '292', '296'],
      dtype='object')",True,1000,True,2,2b2140a6a3,0.0,0.0
./expes/v3_2021-02-05_di_300-prng-1-w1-p2,daily_issda-300,300,first-300,133,44,rng,num-start-101,101,536,classic,1002.874783039093,False,,False,0,,,0,"Index(['3', '4', '5', '6', '7', '8', '11', '12', '15', '16',
       ...
       '268', '270', '274', '277', '278', '284', '289', '294', '297', '299'],
      dtype='object', length=133)",True,1000,True,2,672700612e,0.0,0.0
./expes/v3_2021-02-05_di_300-prng-1-w1-p2,daily_issda-300,300,first-300,35,11,rng,num-start-221,221,536,classic,7.519168853759766,True,,True,1.0,1.0,1.0,1,"Index(['1', '12', '19', '24', '42', '46', '48', '49', '50', '75', '99', '101',
       '102', '103', '129', '134', '136', '140', '150', '164', '172', '186',
       '192', '210', '212', '218', '228', '241', '249', '251', '276', '277',
       '284', '289', '294'],
      dtype='object')",False,1000,True,2,76c084ace5,1.0,1.0
./expes/v3_2021-02-05_di_300-prng-1-w1-p2,daily_issda-300,300,first-300,35,11,rng,num-start-101,101,536,classic,3.9011263847351074,True,,True,1.0,1.0,1.0,1,"Index(['7', '8', '16', '22', '33', '34', '67', '69', '78', '82', '99', '119',
       '120', '122', '133', '138', '155', '188', '190', '199', '200', '203',
       '204', '219', '228', '241', '243', '244', '268', '277', '279', '282',
       '283', '296', '298'],
      dtype='object')",False,1000,True,2,4949f05eb0,1.0,1.0
./expes/v3_2021-02-05_di_300-prng-1-w1-p2,daily_issda-300,300,first-300,63,21,rng,num-start-151,151,536,classic,5.697455167770386,True,,True,1.0,1.0,1.0,1,"Index(['7', '8', '15', '16', '19', '22', '33', '34', '50', '54', '64', '67',
       '69', '70', '78', '82', '84', '99', '109', '112', '119', '120', '122',
       '133', '137', '138', '144', '146', '155', '168', '173', '180', '188',
       '190', '198', '199', '200', '203', '204', '209', '216', '219', '224',
       '228', '241', '243', '244', '247', '254', '260', '268', '274', '277',
       '278', '279', '282', '283', '292', '293', '294', '296', '298', '300'],
      dtype='object')",False,1000,True,2,c4ef0c4529,1.0,1.0
./expes/v3_2021-02-05_di_300-prng-1-w1-p2,daily_issda-300,300,first-300,70,23,rng,num-start-21,21,536,classic,1000.6247224807739,False,,False,0,,,0,"Index(['1', '2', '3', '5', '7', '10', '12', '15', '27', '30', '34', '37', '53',
       '58', '65', '68', '72', '75', '81', '82', '85', '86', '91', '94', '95',
       '101', '102', '105', '108', '111', '127', '128', '131', '132', '136',
       '144', '149', '153', '155', '157', '159', '161', '162', '170', '174',
       '182', '184', '185', '188', '191', '193', '195', '197', '200', '207',
       '209', '213', '215', '228', '232', '239', '241', '242', '247', '272',
       '277', '279', '282', '294', '297'],
      dtype='object')",True,1000,True,2,d025d23f45,0.0,0.0
./expes/v3_2021-02-05_di_300-prng-1-w1-p2,daily_issda-300,300,first-300,112,37,rng,num-start-81,81,536,classic,1002.3014693260193,False,,False,0,,,0,"Index(['1', '8', '9', '12', '14', '17', '19', '20', '21', '24',
       ...
       '277', '279', '281', '283', '287', '291', '294', '295', '297', '299'],
      dtype='object', length=112)",True,1000,True,2,28cf054e08,0.0,0.0
./expes/v3_2021-02-05_di_300-prng-1-w1-p2,daily_issda-300,300,first-300,112,37,rng,num-start-81,81,536,classic,1002.3300611972809,False,,False,0,,,0,"Index(['1', '2', '3', '5', '7', '12', '14', '15', '16', '17',
       ...
       '281', '282', '283', '284', '285', '288', '292', '296', '297', '300'],
      dtype='object', length=112)",True,1000,True,2,2790d1070f,0.0,0.0
./expes/v3_2021-02-05_di_300-prng-1-w1-p2,daily_issda-300,300,first-300,126,42,rng,num-start-21,21,536,classic,1000.6165447235107,False,,False,0,,,0,"Index(['3', '4', '5', '6', '7', '8', '11', '12', '15', '16',
       ...
       '265', '268', '270', '274', '277', '278', '289', '294', '297', '299'],
      dtype='object', length=126)",True,1000,True,2,623cd1db92,0.0,0.0
./expes/v3_2021-02-05_di_300-prng-1-w1-p2,daily_issda-300,300,first-300,35,11,rng,num-start-111,111,536,classic,4.153985977172852,True,,True,1.0,1.0,1.0,1,"Index(['21', '32', '38', '49', '51', '52', '72', '76', '105', '112', '129',
       '133', '134', '145', '156', '159', '162', '170', '182', '184', '198',
       '208', '216', '223', '227', '242', '245', '249', '259', '262', '267',
       '273', '283', '287', '299'],
      dtype='object')",False,1000,True,2,8045e238aa,1.0,1.0
./expes/v3_2021-02-05_di_300-prng-1-w1-p2,daily_issda-300,300,first-300,49,16,rng,num-start-61,61,536,classic,1001.7369954586029,False,,False,0,,,0,"Index(['1', '8', '21', '32', '33', '38', '48', '49', '51', '52', '72', '76',
       '98', '105', '112', '114', '123', '125', '129', '133', '134', '145',
       '156', '159', '162', '167', '170', '171', '182', '184', '198', '205',
       '208', '216', '223', '227', '242', '245', '249', '253', '259', '262',
       '267', '273', '281', '283', '287', '291', '299'],
      dtype='object')",True,1000,True,2,49d8999cdd,0.0,0.0
./expes/v3_2021-02-05_di_300-prng-1-w1-p2,daily_issda-300,300,first-300,28,9,rng,num-start-201,201,536,classic,7.00229549407959,True,,True,1.0,1.0,1.0,1,"Index(['7', '15', '27', '37', '53', '58', '65', '68', '72', '81', '82', '94',
       '111', '127', '128', '131', '144', '184', '191', '195', '200', '209',
       '228', '239', '241', '272', '279', '294'],
      dtype='object')",False,1000,True,2,38ee1a7335,1.0,1.0
./expes/v3_2021-02-05_di_300-prng-1-w1-p2,daily_issda-300,300,first-300,105,35,rng,num-start-231,231,536,classic,8.353295803070068,True,,True,1.0,1.0,1.0,1,"Index(['1', '4', '7', '9', '10', '12', '15', '19', '24', '28',
       ...
       '269', '271', '276', '277', '284', '286', '287', '289', '294', '295'],
      dtype='object', length=105)",False,1000,True,2,b4132f395e,1.0,1.0
./expes/v3_2021-02-05_di_300-prng-1-w1-p2,daily_issda-300,300,first-300,56,18,rng,num-start-221,221,536,classic,7.217278242111206,True,,True,1.0,1.0,1.0,1,"Index(['13', '15', '19', '29', '44', '47', '70', '82', '83', '85', '87', '89',
       '91', '94', '109', '119', '121', '128', '129', '138', '143', '158',
       '164', '167', '180', '182', '185', '186', '187', '191', '195', '202',
       '205', '213', '217', '221', '228', '229', '233', '237', '239', '251',
       '256', '257', '258', '261', '262', '264', '269', '270', '272', '279',
       '286', '287', '291', '298'],
      dtype='object')",False,1000,True,2,61fbd7f0ef,1.0,1.0
./expes/v3_2021-02-05_di_300-prng-1-w1-p2,daily_issda-300,300,first-300,63,21,rng,num-start-41,41,536,classic,1001.1486263275146,False,,False,0,,,0,"Index(['2', '8', '16', '23', '37', '38', '44', '61', '65', '67', '68', '70',
       '72', '73', '76', '82', '91', '92', '96', '100', '104', '110', '116',
       '119', '120', '121', '130', '132', '133', '135', '142', '144', '149',
       '151', '161', '178', '183', '187', '188', '191', '200', '203', '218',
       '220', '221', '224', '226', '228', '230', '231', '236', '238', '250',
       '252', '255', '268', '273', '275', '282', '284', '289', '290', '296'],
      dtype='object')",True,1000,True,2,e7a812e286,0.0,0.0
./expes/v3_2021-02-05_di_300-prng-1-w1-p2,daily_issda-300,300,first-300,63,21,rng,num-start-11,11,536,classic,1000.3435831069946,False,,False,0,,,0,"Index(['4', '11', '14', '23', '24', '31', '35', '42', '45', '46', '47', '53',
       '55', '80', '83', '85', '89', '92', '100', '110', '114', '120', '121',
       '127', '128', '133', '134', '135', '140', '142', '144', '148', '149',
       '150', '154', '156', '157', '159', '160', '173', '176', '185', '191',
       '199', '203', '206', '212', '217', '221', '232', '237', '242', '243',
       '246', '260', '261', '266', '267', '274', '275', '281', '282', '294'],
      dtype='object')",True,1000,True,2,5f97c5de00,0.0,0.0
./expes/v3_2021-02-05_di_300-prng-1-w1-p2,daily_issda-300,300,first-300,140,46,rng,num-start-21,21,536,classic,1000.6424381732941,False,,False,0,,,0,"Index(['1', '2', '4', '5', '6', '10', '13', '14', '15', '16',
       ...
       '278', '280', '282', '285', '286', '287', '292', '294', '296', '298'],
      dtype='object', length=140)",True,1000,True,2,a4f10b70c7,0.0,0.0
./expes/v3_2021-02-05_di_300-prng-1-w1-p2,daily_issda-300,300,first-300,140,46,rng,num-start-11,11,536,classic,1000.3230445384979,False,,False,0,,,0,"Index(['2', '7', '9', '11', '14', '16', '17', '18', '20', '23',
       ...
       '273', '277', '280', '286', '289', '292', '294', '297', '298', '300'],
      dtype='object', length=140)",True,1000,True,2,214bfd9317,0.0,0.0
./expes/v3_2021-02-05_di_300-prng-1-w1-p2,daily_issda-300,300,first-300,133,44,rng,num-start-171,171,536,classic,6.557550430297852,True,,True,1.0,1.0,1.0,1,"Index(['2', '7', '9', '11', '14', '16', '17', '18', '20', '23',
       ...
       '273', '277', '280', '286', '289', '292', '294', '297', '298', '300'],
      dtype='object', length=133)",False,1000,True,2,50451932a2,1.0,1.0
./expes/v3_2021-02-05_di_300-prng-1-w1-p2,daily_issda-300,300,first-300,42,14,rng,num-start-121,121,536,classic,4.190674066543579,True,,True,1.0,1.0,1.0,1,"Index(['7', '8', '16', '19', '22', '33', '34', '50', '67', '69', '70', '78',
       '82', '99', '112', '119', '120', '122', '133', '138', '155', '188',
       '190', '199', '200', '203', '204', '216', '219', '224', '228', '241',
       '243', '244', '254', '268', '277', '279', '282', '283', '296', '298'],
      dtype='object')",False,1000,True,2,d891af84f3,1.0,1.0
./expes/v3_2021-02-05_di_300-prng-1-w1-p2,daily_issda-300,300,first-300,49,16,rng,num-start-21,21,536,classic,1000.6482105255127,False,,False,0,,,0,"Index(['4', '11', '14', '31', '35', '45', '46', '47', '53', '55', '80', '85',
       '89', '92', '100', '110', '114', '121', '127', '128', '134', '135',
       '140', '142', '144', '148', '149', '150', '154', '156', '159', '160',
       '173', '185', '191', '199', '203', '206', '212', '217', '243', '246',
       '260', '261', '267', '275', '281', '282', '294'],
      dtype='object')",True,1000,True,2,6109f16bd5,0.0,0.0
./expes/v3_2021-02-05_di_300-prng-1-w1-p2,daily_issda-300,300,first-300,35,11,rng,num-start-111,111,536,classic,4.129580020904541,True,,True,1.0,1.0,1.0,1,"Index(['3', '8', '17', '18', '23', '39', '69', '72', '83', '90', '106', '123',
       '128', '135', '143', '146', '156', '168', '182', '185', '186', '193',
       '196', '216', '220', '226', '234', '237', '248', '251', '252', '267',
       '293', '296', '299'],
      dtype='object')",False,1000,True,2,501e566c31,1.0,1.0
./expes/v3_2021-02-05_di_300-prng-1-w1-p2,daily_issda-300,300,first-300,7,2,rng,num-start-231,231,536,classic,7.596279621124268,True,,True,1.0,1.0,1.0,1,"Index(['90', '149', '156', '188', '213', '268', '277'], dtype='object')",False,1000,True,2,f1bed20e28,1.0,1.0
./expes/v3_2021-02-05_di_300-prng-1-w1-p2,daily_issda-300,300,first-300,42,14,rng,num-start-161,161,536,classic,5.927082538604736,True,,True,1.0,1.0,1.0,1,"Index(['1', '6', '10', '27', '31', '32', '39', '45', '47', '58', '70', '74',
       '75', '84', '88', '103', '108', '115', '117', '138', '141', '161',
       '173', '174', '180', '189', '192', '196', '208', '217', '226', '228',
       '236', '243', '248', '261', '263', '271', '277', '285', '286', '296'],
      dtype='object')",False,1000,True,2,7dcc4c6d1c,1.0,1.0
./expes/v3_2021-02-05_di_300-prng-1-w1-p2,daily_issda-300,300,first-300,42,14,rng,num-start-181,181,536,classic,6.650557279586792,True,,True,1.0,1.0,1.0,1,"Index(['13', '15', '19', '29', '44', '47', '70', '82', '85', '87', '89', '91',
       '94', '109', '119', '121', '129', '138', '158', '164', '167', '182',
       '185', '187', '191', '195', '202', '213', '217', '221', '228', '229',
       '239', '258', '261', '262', '264', '269', '270', '279', '287', '298'],
      dtype='object')",False,1000,True,2,8e995c6cab,1.0,1.0
./expes/v3_2021-02-05_di_300-prng-1-w1-p2,daily_issda-300,300,first-300,91,30,rng,num-start-71,71,536,classic,1002.0131371021271,False,,False,0,,,0,"Index(['1', '7', '9', '10', '12', '15', '19', '24', '28', '40', '42', '44',
       '46', '48', '49', '50', '60', '62', '64', '65', '71', '75', '87', '89',
       '95', '97', '99', '100', '101', '102', '103', '108', '115', '126',
       '129', '131', '132', '134', '136', '137', '138', '140', '149', '150',
       '156', '157', '160', '164', '169', '171', '172', '183', '185', '186',
       '192', '194', '195', '200', '204', '210', '211', '212', '216', '217',
       '218', '219', '221', '226', '228', '229', '232', '241', '242', '248',
       '249', '250', '251', '257', '258', '264', '265', '268', '269', '271',
       '276', '277', '284', '286', '289', '294', '295'],
      dtype='object')",True,1000,True,2,07cf671edd,0.0,0.0
./expes/v3_2021-02-05_di_300-prng-1-w1-p2,daily_issda-300,300,first-300,7,2,rng,num-start-61,61,536,classic,2.037257432937622,True,,True,1.0,1.0,1.0,1,"Index(['29', '44', '47', '87', '129', '158', '185'], dtype='object')",False,1000,True,2,df145c5fb3,1.0,1.0
./expes/v3_2021-02-05_di_300-prng-1-w1-p2,daily_issda-300,300,first-300,42,14,rng,num-start-11,11,536,classic,1000.3734102249146,False,,False,0,,,0,"Index(['6', '9', '19', '29', '34', '41', '60', '76', '81', '106', '107', '115',
       '118', '119', '123', '135', '144', '157', '161', '162', '174', '177',
       '182', '183', '185', '189', '201', '208', '215', '216', '225', '231',
       '234', '237', '239', '251', '252', '262', '267', '290', '292', '296'],
      dtype='object')",True,1000,True,2,29700e0d7c,0.0,0.0
./expes/v3_2021-02-05_di_300-prng-1-w1-p2,daily_issda-300,300,first-300,105,35,rng,num-start-231,231,536,classic,8.049964904785156,True,,True,1.0,1.0,1.0,1,"Index(['1', '6', '10', '11', '13', '15', '18', '22', '35', '36',
       ...
       '268', '270', '272', '274', '283', '287', '292', '293', '297', '299'],
      dtype='object', length=105)",False,1000,True,2,1009827821,1.0,1.0
./expes/v3_2021-02-05_di_300-prng-1-w1-p2,daily_issda-300,300,first-300,35,11,rng,num-start-261,261,536,classic,8.260842323303223,True,,True,1.0,1.0,1.0,1,"Index(['6', '9', '19', '29', '41', '60', '76', '81', '106', '107', '115',
       '118', '119', '123', '135', '144', '157', '161', '174', '177', '182',
       '183', '185', '189', '201', '215', '216', '234', '237', '239', '251',
       '262', '267', '290', '296'],
      dtype='object')",False,1000,True,2,f663845638,1.0,1.0
./expes/v3_2021-02-05_di_300-prng-1-w1-p2,daily_issda-300,300,first-300,84,28,rng,num-start-181,181,536,classic,6.758772373199463,True,,True,1.0,1.0,1.0,1,"Index(['1', '7', '9', '12', '15', '19', '24', '28', '40', '42', '44', '46',
       '48', '49', '50', '60', '62', '65', '71', '75', '87', '89', '95', '97',
       '99', '100', '101', '102', '103', '108', '115', '126', '129', '134',
       '136', '137', '138', '140', '149', '150', '156', '157', '160', '164',
       '171', '172', '183', '185', '186', '192', '194', '195', '200', '204',
       '210', '212', '217', '218', '219', '221', '226', '228', '229', '232',
       '241', '242', '248', '249', '250', '251', '257', '258', '264', '265',
       '268', '269', '271', '276', '277', '284', '286', '289', '294', '295'],
      dtype='object')",False,1000,True,2,9fcea57810,1.0,1.0
./expes/v3_2021-02-05_di_300-prng-1-w1-p2,daily_issda-300,300,first-300,70,23,rng,num-start-81,81,536,classic,33.086766958236694,True,,True,1.0,1.0,1.0,1,"Index(['2', '5', '12', '14', '15', '16', '18', '33', '45', '49', '52', '53',
       '56', '61', '62', '69', '84', '89', '96', '98', '108', '111', '113',
       '114', '118', '119', '120', '125', '131', '137', '146', '149', '152',
       '156', '163', '171', '177', '188', '190', '192', '195', '196', '200',
       '202', '207', '213', '214', '217', '222', '225', '229', '231', '236',
       '242', '246', '250', '251', '254', '256', '257', '259', '260', '261',
       '267', '271', '278', '281', '284', '285', '292'],
      dtype='object')",False,1000,True,2,02b4eb6c52,1.0,1.0
./expes/v3_2021-02-05_di_300-prng-1-w1-p2,daily_issda-300,300,first-300,42,14,rng,num-start-161,161,536,classic,5.787593364715576,True,,True,1.0,1.0,1.0,1,"Index(['10', '14', '27', '32', '36', '42', '57', '64', '71', '72', '73', '78',
       '90', '101', '108', '128', '130', '143', '149', '156', '159', '163',
       '170', '173', '182', '188', '191', '197', '206', '210', '213', '215',
       '222', '243', '257', '260', '268', '273', '277', '283', '287', '293'],
      dtype='object')",False,1000,True,2,660285df64,1.0,1.0
./expes/v3_2021-02-05_di_300-prng-1-w1-p2,daily_issda-300,300,first-300,140,46,rng,num-start-71,71,536,classic,1002.0034942626953,False,,False,0,,,0,"Index(['4', '6', '7', '8', '11', '12', '14', '15', '16', '17',
       ...
       '283', '287', '292', '293', '294', '295', '296', '297', '298', '300'],
      dtype='object', length=140)",True,1000,True,2,763873ddd0,0.0,0.0
./expes/v3_2021-02-05_di_300-prng-1-w1-p2,daily_issda-300,300,first-300,133,44,rng,num-start-21,21,536,classic,1000.6557838916779,False,,False,0,,,0,"Index(['1', '2', '3', '5', '7', '8', '9', '12', '13', '14',
       ...
       '281', '282', '283', '284', '285', '288', '292', '296', '297', '300'],
      dtype='object', length=133)",True,1000,True,2,340bbd4ffc,0.0,0.0
./expes/v3_2021-02-05_di_300-prng-1-w1-p2,daily_issda-300,300,first-300,84,28,rng,num-start-241,241,536,classic,8.558765888214111,True,,True,1.0,1.0,1.0,1,"Index(['1', '3', '6', '8', '9', '11', '16', '19', '22', '27', '31', '33', '35',
       '36', '38', '43', '44', '45', '47', '49', '52', '56', '60', '61', '68',
       '69', '73', '81', '91', '95', '96', '97', '98', '101', '102', '108',
       '109', '110', '118', '120', '124', '127', '131', '139', '143', '148',
       '149', '151', '156', '160', '162', '168', '171', '173', '193', '197',
       '198', '203', '204', '206', '209', '210', '215', '216', '226', '229',
       '230', '232', '235', '238', '239', '241', '244', '250', '256', '261',
       '263', '266', '271', '276', '283', '287', '289', '290'],
      dtype='object')",False,1000,True,2,60e8cb7469,1.0,1.0
./expes/v3_2021-02-05_di_300-prng-1-w1-p2,daily_issda-300,300,first-300,63,21,rng,num-start-91,91,536,classic,7.614332675933838,True,,True,1.0,1.0,1.0,1,"Index(['7', '8', '15', '16', '19', '22', '33', '34', '50', '54', '64', '67',
       '69', '70', '78', '82', '84', '99', '109', '112', '119', '120', '122',
       '133', '137', '138', '144', '146', '155', '168', '173', '180', '188',
       '190', '198', '199', '200', '203', '204', '209', '216', '219', '224',
       '228', '241', '243', '244', '247', '254', '260', '268', '274', '277',
       '278', '279', '282', '283', '292', '293', '294', '296', '298', '300'],
      dtype='object')",False,1000,True,2,5ee938dfce,1.0,1.0
./expes/v3_2021-02-05_di_300-prng-1-w1-p2,daily_issda-300,300,first-300,49,16,rng,num-start-211,211,536,classic,7.319583177566528,True,,True,1.0,1.0,1.0,1,"Index(['7', '8', '16', '19', '22', '33', '34', '50', '67', '69', '70', '78',
       '82', '99', '112', '119', '120', '122', '133', '138', '155', '180',
       '188', '190', '198', '199', '200', '203', '204', '209', '216', '219',
       '224', '228', '241', '243', '244', '254', '260', '268', '274', '277',
       '279', '282', '283', '294', '296', '298', '300'],
      dtype='object')",False,1000,True,2,612198c055,1.0,1.0
./expes/v3_2021-02-05_di_300-prng-1-w1-p2,daily_issda-300,300,first-300,49,16,rng,num-start-201,201,536,classic,7.449739217758179,True,,True,1.0,1.0,1.0,1,"Index(['1', '12', '15', '19', '24', '42', '46', '48', '49', '50', '62', '75',
       '99', '100', '101', '102', '103', '126', '129', '134', '136', '140',
       '150', '156', '164', '172', '183', '185', '186', '192', '210', '212',
       '218', '221', '228', '241', '249', '250', '251', '257', '258', '264',
       '269', '276', '277', '284', '289', '294', '295'],
      dtype='object')",False,1000,True,2,c0a02a158c,1.0,1.0
./expes/v3_2021-02-05_di_300-prng-1-w1-p2,daily_issda-300,300,first-300,49,16,rng,num-start-201,201,536,classic,7.630876302719116,True,,True,1.0,1.0,1.0,1,"Index(['1', '3', '7', '12', '15', '27', '34', '37', '53', '58', '65', '68',
       '72', '75', '81', '82', '85', '86', '94', '101', '102', '105', '108',
       '111', '127', '128', '131', '136', '144', '149', '153', '155', '161',
       '170', '184', '185', '191', '195', '197', '200', '209', '213', '228',
       '239', '241', '272', '277', '279', '294'],
      dtype='object')",False,1000,True,2,d95c1f8f60,1.0,1.0
./expes/v3_2021-02-05_di_300-prng-1-w1-p2,daily_issda-300,300,first-300,84,28,rng,num-start-241,241,536,classic,8.030373573303223,True,,True,1.0,1.0,1.0,1,"Index(['1', '7', '9', '12', '15', '19', '24', '28', '40', '42', '44', '46',
       '48', '49', '50', '60', '62', '65', '71', '75', '87', '89', '95', '97',
       '99', '100', '101', '102', '103', '108', '115', '126', '129', '134',
       '136', '137', '138', '140', '149', '150', '156', '157', '160', '164',
       '171', '172', '183', '185', '186', '192', '194', '195', '200', '204',
       '210', '212', '217', '218', '219', '221', '226', '228', '229', '232',
       '241', '242', '248', '249', '250', '251', '257', '258', '264', '265',
       '268', '269', '271', '276', '277', '284', '286', '289', '294', '295'],
      dtype='object')",False,1000,True,2,58e37950ba,1.0,1.0
./expes/v3_2021-02-05_di_300-prng-1-w1-p2,daily_issda-300,300,first-300,28,9,rng,num-start-81,81,536,classic,3.470186948776245,True,,True,1.0,1.0,1.0,1,"Index(['20', '25', '30', '31', '32', '36', '38', '45', '47', '49', '64', '78',
       '110', '115', '124', '166', '188', '203', '215', '218', '223', '260',
       '275', '283', '290', '296', '299', '300'],
      dtype='object')",False,1000,True,2,6147f9a6a0,1.0,1.0
./expes/v3_2021-02-05_di_300-prng-1-w1-p2,daily_issda-300,300,first-300,14,4,rng,num-start-181,181,536,classic,6.210788011550903,True,,True,1.0,1.0,1.0,1,"Index(['1', '12', '19', '42', '75', '102', '134', '140', '164', '192', '241',
       '249', '251', '294'],
      dtype='object')",False,1000,True,2,4db33aa3ee,1.0,1.0
./expes/v3_2021-02-05_di_300-prng-1-w1-p2,daily_issda-300,300,first-300,7,2,rng,num-start-151,151,536,classic,5.082171201705933,True,,True,1.0,1.0,1.0,1,"Index(['63', '93', '102', '123', '172', '230', '251'], dtype='object')",False,1000,True,2,04c9f2e6a4,1.0,1.0
./expes/v3_2021-02-05_di_300-prng-1-w1-p2,daily_issda-300,300,first-300,105,35,rng,num-start-251,251,536,classic,8.79702353477478,True,,True,1.0,1.0,1.0,1,"Index(['5', '6', '8', '9', '10', '16', '19', '22', '23', '25',
       ...
       '262', '267', '272', '274', '279', '281', '285', '290', '292', '296'],
      dtype='object', length=105)",False,1000,True,2,c1f4213cef,1.0,1.0
./expes/v3_2021-02-05_di_300-prng-1-w1-p2,daily_issda-300,300,first-300,91,30,rng,num-start-271,271,536,classic,9.791368246078491,True,,True,1.0,1.0,1.0,1,"Index(['5', '13', '15', '17', '19', '26', '29', '30', '31', '35', '39', '43',
       '44', '47', '55', '59', '70', '82', '83', '85', '86', '87', '89', '91',
       '94', '98', '107', '108', '109', '114', '117', '119', '121', '126',
       '128', '129', '137', '138', '140', '143', '156', '158', '159', '160',
       '164', '167', '175', '180', '182', '185', '186', '187', '188', '191',
       '195', '202', '205', '209', '213', '217', '221', '228', '229', '233',
       '234', '237', '239', '246', '250', '251', '256', '257', '258', '259',
       '260', '261', '262', '263', '264', '266', '268', '269', '270', '272',
       '279', '286', '287', '288', '291', '295', '298'],
      dtype='object')",False,1000,True,2,23d4bb1e70,1.0,1.0
./expes/v3_2021-02-05_di_300-prng-1-w1-p2,daily_issda-300,300,first-300,70,23,rng,num-start-11,11,536,classic,1000.3718276023865,False,,False,0,,,0,"Index(['11', '16', '20', '23', '30', '33', '37', '44', '45', '46', '50', '56',
       '59', '65', '70', '71', '73', '76', '77', '82', '99', '100', '102',
       '107', '108', '117', '120', '121', '127', '133', '137', '146', '147',
       '159', '161', '174', '183', '190', '193', '194', '195', '198', '200',
       '206', '207', '209', '219', '228', '233', '234', '236', '243', '249',
       '250', '251', '254', '255', '258', '260', '262', '265', '267', '271',
       '273', '277', '286', '294', '297', '298', '300'],
      dtype='object')",True,1000,True,2,b42d6bab30,0.0,0.0
./expes/v3_2021-02-05_di_300-prng-1-w1-p2,daily_issda-300,300,first-300,140,46,rng,num-start-21,21,536,classic,1000.6128289699554,False,,False,0,,,0,"Index(['2', '7', '9', '11', '14', '16', '17', '18', '20', '23',
       ...
       '273', '277', '280', '286', '289', '292', '294', '297', '298', '300'],
      dtype='object', length=140)",True,1000,True,2,2782be38f7,0.0,0.0
./expes/v3_2021-02-05_di_300-prng-1-w1-p2,daily_issda-300,300,first-300,42,14,rng,num-start-1,1,536,classic,1.6988751888275146,False,,False,0.5127152608051775,0.5092835079342817,0.5161470136760733,2,"Index(['3', '8', '17', '18', '23', '39', '69', '72', '83', '90', '100', '106',
       '121', '123', '128', '135', '143', '146', '156', '161', '168', '182',
       '185', '186', '188', '193', '196', '216', '220', '226', '231', '234',
       '237', '248', '251', '252', '267', '275', '282', '293', '296', '299'],
      dtype='object')",False,1000,True,2,d9ed73530a,1.0,1.0
./expes/v3_2021-02-05_di_300-prng-1-w1-p2,daily_issda-300,300,first-300,14,4,rng,num-start-151,151,536,classic,5.110825777053833,True,,True,1.0,1.0,1.0,1,"Index(['6', '9', '19', '29', '60', '76', '81', '107', '123', '174', '183',
       '189', '239', '267'],
      dtype='object')",False,1000,True,2,fcc548d91d,1.0,1.0
./expes/v3_2021-02-05_di_300-prng-1-w1-p2,daily_issda-300,300,first-300,42,14,rng,num-start-71,71,536,classic,5.7948081493377686,True,,True,1.0,1.0,1.0,1,"Index(['11', '16', '23', '30', '33', '44', '45', '46', '50', '56', '59', '65',
       '71', '99', '108', '117', '120', '121', '127', '133', '137', '174',
       '190', '193', '194', '195', '198', '200', '206', '207', '209', '233',
       '236', '243', '249', '250', '254', '255', '260', '265', '267', '294'],
      dtype='object')",False,1000,True,2,511dbd6dd2,1.0,1.0
./expes/v3_2021-02-05_di_300-prng-1-w1-p2,daily_issda-300,300,first-300,84,28,rng,num-start-181,181,536,classic,6.790045261383057,True,,True,1.0,1.0,1.0,1,"Index(['2', '8', '16', '20', '22', '23', '37', '38', '44', '58', '61', '65',
       '67', '68', '70', '71', '72', '73', '76', '82', '85', '91', '92', '94',
       '96', '99', '100', '104', '109', '110', '116', '119', '120', '121',
       '122', '129', '130', '132', '133', '135', '142', '144', '149', '151',
       '152', '161', '175', '178', '180', '183', '184', '187', '188', '191',
       '192', '200', '203', '212', '218', '220', '221', '224', '226', '228',
       '230', '231', '236', '238', '250', '252', '255', '267', '268', '273',
       '275', '282', '284', '285', '289', '290', '292', '296', '298', '299'],
      dtype='object')",False,1000,True,2,819076cb85,1.0,1.0
./expes/v3_2021-02-05_di_300-prng-1-w1-p2,daily_issda-300,300,first-300,42,14,rng,num-start-261,261,536,classic,8.552229881286621,True,,True,1.0,1.0,1.0,1,"Index(['7', '8', '16', '19', '22', '33', '34', '50', '67', '69', '70', '78',
       '82', '99', '112', '119', '120', '122', '133', '138', '155', '188',
       '190', '199', '200', '203', '204', '216', '219', '224', '228', '241',
       '243', '244', '254', '268', '277', '279', '282', '283', '296', '298'],
      dtype='object')",False,1000,True,2,205ecde2dc,1.0,1.0
./expes/v3_2021-02-05_di_300-prng-1-w1-p2,daily_issda-300,300,first-300,84,28,rng,num-start-131,131,536,classic,7.842286825180054,True,,True,1.0,1.0,1.0,1,"Index(['1', '2', '3', '5', '7', '10', '12', '15', '19', '24', '27', '30', '34',
       '37', '53', '56', '58', '61', '65', '68', '72', '75', '81', '82', '85',
       '86', '91', '93', '94', '95', '101', '102', '105', '108', '111', '126',
       '127', '128', '129', '131', '132', '136', '144', '149', '152', '153',
       '155', '157', '159', '161', '162', '170', '174', '177', '182', '184',
       '185', '188', '189', '191', '193', '195', '197', '200', '207', '209',
       '213', '215', '222', '228', '232', '237', '239', '241', '242', '247',
       '263', '269', '272', '277', '279', '282', '294', '297'],
      dtype='object')",False,1000,True,2,7f12d1ae12,1.0,1.0
./expes/v3_2021-02-05_di_300-prng-1-w1-p2,daily_issda-300,300,first-300,21,7,rng,num-start-251,251,536,classic,8.208203315734863,True,,True,1.0,1.0,1.0,1,"Index(['38', '55', '61', '77', '115', '127', '131', '134', '135', '139', '150',
       '156', '162', '184', '185', '202', '204', '231', '239', '265', '270'],
      dtype='object')",False,1000,True,2,2bf5501731,1.0,1.0
./expes/v3_2021-02-05_di_300-prng-1-w1-p2,daily_issda-300,300,first-300,35,11,rng,num-start-31,31,536,classic,1000.9029994010925,False,,False,0,,,0,"Index(['13', '15', '19', '29', '44', '47', '70', '82', '85', '87', '89', '91',
       '109', '119', '121', '129', '138', '158', '164', '167', '185', '187',
       '191', '195', '202', '217', '221', '228', '239', '258', '261', '270',
       '279', '287', '298'],
      dtype='object')",True,1000,True,2,92733fc125,0.0,0.0
./expes/v3_2021-02-05_di_300-prng-1-w1-p2,daily_issda-300,300,first-300,28,9,rng,num-start-31,31,536,classic,1001.0131051540375,False,,False,0,,,0,"Index(['8', '16', '19', '22', '31', '33', '47', '49', '73', '81', '95', '96',
       '98', '124', '156', '168', '203', '226', '229', '232', '238', '239',
       '244', '261', '263', '271', '276', '287'],
      dtype='object')",True,1000,True,2,aad1dc2f3a,0.0,0.0
./expes/v3_2021-02-05_di_300-prng-1-w1-p2,daily_issda-300,300,first-300,98,32,rng,num-start-81,81,536,classic,1002.3434529304504,False,,False,0,,,0,"Index(['3', '8', '17', '18', '19', '23', '33', '34', '37', '39', '41', '42',
       '50', '58', '62', '69', '72', '74', '77', '81', '82', '83', '85', '86',
       '90', '91', '92', '98', '100', '106', '115', '121', '123', '124', '125',
       '126', '128', '135', '137', '140', '141', '143', '146', '155', '156',
       '161', '164', '167', '168', '170', '178', '179', '182', '185', '186',
       '188', '192', '193', '196', '197', '200', '206', '208', '212', '213',
       '216', '220', '222', '223', '224', '226', '227', '229', '230', '231',
       '234', '237', '241', '246', '248', '251', '252', '254', '255', '256',
       '257', '267', '268', '269', '274', '275', '279', '282', '291', '293',
       '296', '299', '300'],
      dtype='object')",True,1000,True,2,7dbd5013e6,0.0,0.0
./expes/v3_2021-02-05_di_300-prng-1-w1-p2,daily_issda-300,300,first-300,133,44,rng,num-start-11,11,536,classic,1000.4794764518738,False,,False,0,,,0,"Index(['1', '7', '8', '9', '12', '14', '17', '19', '20', '21',
       ...
       '279', '281', '283', '287', '291', '292', '294', '295', '297', '299'],
      dtype='object', length=133)",True,1000,True,2,0160080c61,0.0,0.0
./expes/v3_2021-02-05_di_300-prng-1-w1-p2,daily_issda-300,300,first-300,91,30,rng,num-start-181,181,536,classic,7.335417032241821,True,,True,1.0,1.0,1.0,1,"Index(['1', '8', '17', '20', '21', '32', '33', '36', '38', '42', '43', '46',
       '47', '48', '49', '51', '52', '56', '60', '64', '67', '72', '73', '76',
       '77', '95', '96', '97', '98', '105', '111', '112', '114', '121', '123',
       '124', '125', '129', '133', '134', '141', '142', '145', '148', '149',
       '150', '155', '156', '159', '162', '163', '164', '167', '170', '171',
       '182', '183', '184', '198', '201', '205', '208', '215', '216', '223',
       '227', '228', '230', '231', '242', '244', '245', '249', '251', '253',
       '259', '261', '262', '267', '268', '269', '273', '277', '279', '281',
       '283', '287', '291', '295', '297', '299'],
      dtype='object')",False,1000,True,2,c5835fddbe,1.0,1.0
./expes/v3_2021-02-05_di_300-prng-1-w1-p2,daily_issda-300,300,first-300,70,23,rng,num-start-91,91,536,classic,7.349309682846069,True,,True,1.0,1.0,1.0,1,"Index(['3', '10', '14', '26', '27', '30', '32', '33', '36', '42', '49', '57',
       '60', '64', '67', '71', '72', '73', '78', '88', '90', '99', '101',
       '108', '110', '123', '128', '129', '130', '137', '142', '143', '149',
       '156', '158', '159', '163', '164', '170', '171', '173', '179', '182',
       '185', '188', '191', '192', '197', '206', '208', '210', '213', '215',
       '222', '243', '245', '257', '260', '268', '270', '273', '277', '283',
       '284', '285', '286', '287', '293', '295', '297'],
      dtype='object')",False,1000,True,2,7c6651e4a7,1.0,1.0
./expes/v3_2021-02-05_di_300-prng-1-w1-p2,daily_issda-300,300,first-300,84,28,rng,num-start-111,111,536,classic,7.891847133636475,True,,True,1.0,1.0,1.0,1,"Index(['2', '5', '7', '12', '14', '15', '16', '18', '23', '33', '45', '49',
       '52', '53', '56', '61', '62', '69', '84', '87', '88', '89', '96', '98',
       '103', '108', '111', '113', '114', '117', '118', '119', '120', '125',
       '131', '137', '146', '149', '152', '156', '158', '163', '171', '177',
       '188', '190', '192', '195', '196', '200', '202', '207', '208', '213',
       '214', '217', '222', '225', '229', '231', '236', '241', '242', '246',
       '250', '251', '254', '256', '257', '258', '259', '260', '261', '264',
       '267', '271', '277', '278', '281', '284', '285', '292', '296', '297'],
      dtype='object')",False,1000,True,2,c5646fab7f,1.0,1.0
./expes/v3_2021-02-05_di_300-prng-1-w1-p2,daily_issda-300,300,first-300,119,39,rng,num-start-121,121,536,classic,10.40845513343811,True,,True,1.0,1.0,1.0,1,"Index(['1', '4', '5', '6', '10', '13', '14', '15', '16', '17',
       ...
       '270', '271', '277', '278', '280', '282', '285', '286', '294', '296'],
      dtype='object', length=119)",False,1000,True,2,7bdb4b681f,1.0,1.0
./expes/v3_2021-02-05_di_300-prng-1-w1-p2,daily_issda-300,300,first-300,98,32,rng,num-start-121,121,536,classic,8.924237966537476,True,,True,1.0,1.0,1.0,1,"Index(['5', '6', '8', '9', '10', '19', '22', '23', '25', '29', '31', '32',
       '33', '34', '38', '41', '42', '44', '48', '52', '60', '72', '73', '76',
       '78', '81', '82', '85', '89', '92', '101', '106', '107', '115', '118',
       '119', '121', '123', '131', '134', '135', '140', '144', '147', '148',
       '152', '157', '159', '160', '161', '162', '163', '171', '173', '174',
       '177', '182', '183', '185', '189', '193', '195', '199', '200', '201',
       '203', '206', '208', '215', '216', '223', '225', '227', '230', '231',
       '234', '237', '239', '240', '243', '244', '247', '251', '252', '253',
       '254', '256', '257', '258', '262', '267', '272', '274', '279', '285',
       '290', '292', '296'],
      dtype='object')",False,1000,True,2,b0ddfb0d9a,1.0,1.0
./expes/v3_2021-02-05_di_300-prng-1-w1-p2,daily_issda-300,300,first-300,140,46,rng,num-start-141,141,536,classic,10.57285475730896,True,,True,1.0,1.0,1.0,1,"Index(['1', '3', '5', '10', '11', '13', '15', '16', '17', '18',
       ...
       '272', '279', '283', '286', '287', '288', '291', '295', '298', '300'],
      dtype='object', length=140)",False,1000,True,2,e79f8cc58b,1.0,1.0
./expes/v3_2021-02-05_di_300-prng-1-w1-p2,daily_issda-300,300,first-300,77,25,rng,num-start-11,11,536,classic,1000.5001578330994,False,,False,0,,,0,"Index(['4', '11', '14', '23', '24', '31', '32', '35', '42', '45', '46', '47',
       '52', '53', '55', '75', '80', '83', '85', '89', '92', '95', '100',
       '101', '102', '104', '110', '114', '118', '120', '121', '127', '128',
       '133', '134', '135', '140', '142', '144', '148', '149', '150', '154',
       '156', '157', '159', '160', '165', '166', '173', '176', '183', '185',
       '191', '199', '203', '206', '212', '217', '221', '224', '226', '232',
       '237', '242', '243', '246', '260', '261', '266', '267', '274', '275',
       '281', '282', '286', '294'],
      dtype='object')",True,1000,True,2,dce2639bf7,0.0,0.0
./expes/v3_2021-02-05_di_300-prng-1-w1-p2,daily_issda-300,300,first-300,70,23,rng,num-start-221,221,536,classic,7.4469075202941895,True,,True,1.0,1.0,1.0,1,"Index(['4', '11', '14', '23', '24', '31', '35', '42', '45', '46', '47', '53',
       '55', '75', '80', '83', '85', '89', '92', '95', '100', '101', '104',
       '110', '114', '120', '121', '127', '128', '133', '134', '135', '140',
       '142', '144', '148', '149', '150', '154', '156', '157', '159', '160',
       '173', '176', '183', '185', '191', '199', '203', '206', '212', '217',
       '221', '224', '226', '232', '237', '242', '243', '246', '260', '261',
       '266', '267', '274', '275', '281', '282', '294'],
      dtype='object')",False,1000,True,2,b961ab0886,1.0,1.0
./expes/v3_2021-02-05_di_300-prng-1-w1-p2,daily_issda-300,300,first-300,77,25,rng,num-start-31,31,536,classic,1000.9467144012451,False,,False,0,,,0,"Index(['2', '3', '4', '5', '9', '13', '18', '21', '22', '23', '27', '28', '29',
       '33', '36', '42', '43', '44', '45', '48', '53', '57', '58', '63', '68',
       '69', '71', '72', '75', '77', '81', '83', '87', '89', '96', '99', '102',
       '103', '104', '105', '108', '115', '122', '137', '138', '139', '144',
       '150', '170', '172', '174', '175', '192', '194', '195', '197', '204',
       '207', '211', '216', '217', '218', '232', '238', '252', '255', '257',
       '258', '259', '260', '276', '277', '284', '285', '294', '295', '297'],
      dtype='object')",True,1000,True,2,0b22b2706c,0.0,0.0
./expes/v3_2021-02-05_di_300-prng-1-w1-p2,daily_issda-300,300,first-300,98,32,rng,num-start-111,111,536,classic,7.957284927368164,True,,True,1.0,1.0,1.0,1,"Index(['5', '11', '13', '15', '17', '19', '21', '26', '29', '30', '31', '35',
       '39', '43', '44', '47', '55', '59', '66', '70', '81', '82', '83', '85',
       '86', '87', '89', '91', '94', '95', '98', '107', '108', '109', '114',
       '117', '119', '121', '126', '128', '129', '131', '137', '138', '140',
       '143', '156', '158', '159', '160', '164', '167', '175', '180', '182',
       '185', '186', '187', '188', '191', '192', '195', '202', '205', '209',
       '213', '217', '221', '228', '229', '233', '234', '237', '239', '246',
       '250', '251', '256', '257', '258', '259', '260', '261', '262', '263',
       '264', '266', '268', '269', '270', '272', '279', '286', '287', '288',
       '291', '295', '298'],
      dtype='object')",False,1000,True,2,60c0982f1a,1.0,1.0
./expes/v3_2021-02-05_di_300-prng-1-w1-p2,daily_issda-300,300,first-300,84,28,rng,num-start-251,251,536,classic,9.034781217575073,True,,True,1.0,1.0,1.0,1,"Index(['4', '7', '8', '11', '15', '16', '19', '22', '23', '24', '33', '34',
       '35', '40', '46', '50', '54', '56', '61', '64', '67', '69', '70', '78',
       '82', '84', '99', '109', '112', '119', '120', '121', '122', '133',
       '137', '138', '143', '144', '146', '151', '155', '159', '168', '170',
       '173', '177', '180', '188', '190', '194', '198', '199', '200', '203',
       '204', '209', '211', '213', '216', '219', '224', '228', '241', '243',
       '244', '247', '248', '254', '259', '260', '268', '274', '275', '277',
       '278', '279', '282', '283', '292', '293', '294', '296', '298', '300'],
      dtype='object')",False,1000,True,2,31d8213d5b,1.0,1.0
./expes/v3_2021-02-05_di_300-prng-1-w1-p2,daily_issda-300,300,first-300,21,7,rng,num-start-261,261,536,classic,8.662556409835815,True,,True,1.0,1.0,1.0,1,"Index(['15', '19', '29', '44', '47', '82', '87', '109', '129', '138', '158',
       '185', '187', '191', '202', '221', '228', '258', '261', '279', '298'],
      dtype='object')",False,1000,True,2,29e8b88f64,1.0,1.0
./expes/v3_2021-02-05_di_300-prng-1-w1-p2,daily_issda-300,300,first-300,21,7,rng,num-start-101,101,536,classic,3.426712989807129,True,,True,1.0,1.0,1.0,1,"Index(['20', '25', '30', '36', '38', '45', '47', '49', '78', '110', '124',
       '166', '188', '203', '215', '218', '223', '260', '275', '283', '299'],
      dtype='object')",False,1000,True,2,6e4437e410,1.0,1.0
./expes/v3_2021-02-05_di_300-prng-1-w1-p2,daily_issda-300,300,first-300,91,30,rng,num-start-101,101,536,classic,13.627437591552734,True,,True,1.0,1.0,1.0,1,"Index(['2', '3', '5', '7', '12', '14', '15', '16', '18', '23', '33', '45',
       '49', '52', '53', '56', '61', '62', '67', '69', '84', '87', '88', '89',
       '96', '98', '103', '108', '111', '113', '114', '117', '118', '119',
       '120', '125', '131', '137', '138', '146', '149', '152', '156', '158',
       '163', '171', '177', '181', '188', '190', '192', '195', '196', '197',
       '200', '202', '207', '208', '213', '214', '217', '222', '225', '229',
       '231', '236', '241', '242', '246', '250', '251', '254', '256', '257',
       '258', '259', '260', '261', '263', '264', '266', '267', '271', '277',
       '278', '281', '284', '285', '292', '296', '297'],
      dtype='object')",False,1000,True,2,202aed132d,1.0,1.0
./expes/v3_2021-02-05_di_300-prng-1-w1-p2,daily_issda-300,300,first-300,70,23,rng,num-start-51,51,536,classic,1001.5687103271484,False,,False,0,,,0,"Index(['11', '16', '20', '23', '30', '33', '37', '44', '45', '46', '50', '56',
       '59', '65', '70', '71', '73', '76', '77', '82', '99', '100', '102',
       '107', '108', '117', '120', '121', '127', '133', '137', '146', '147',
       '159', '161', '174', '183', '190', '193', '194', '195', '198', '200',
       '206', '207', '209', '219', '228', '233', '234', '236', '243', '249',
       '250', '251', '254', '255', '258', '260', '262', '265', '267', '271',
       '273', '277', '286', '294', '297', '298', '300'],
      dtype='object')",True,1000,True,2,8d4fc6cc2b,0.0,0.0
./expes/v3_2021-02-05_di_300-prng-1-w1-p2,daily_issda-300,300,first-300,21,7,rng,num-start-181,181,536,classic,6.511248588562012,True,,True,1.0,1.0,1.0,1,"Index(['7', '15', '27', '53', '58', '81', '94', '111', '127', '128', '131',
       '144', '184', '191', '195', '209', '239', '241', '272', '279', '294'],
      dtype='object')",False,1000,True,2,21569ee361,1.0,1.0
./expes/v3_2021-02-05_di_300-prng-1-w1-p2,daily_issda-300,300,first-300,77,25,rng,num-start-161,161,536,classic,5.797552585601807,True,,True,1.0,1.0,1.0,1,"Index(['1', '3', '6', '8', '9', '16', '19', '22', '27', '31', '33', '35', '36',
       '38', '43', '44', '45', '47', '49', '52', '56', '61', '69', '73', '81',
       '91', '95', '96', '97', '98', '101', '102', '108', '110', '118', '120',
       '124', '127', '131', '139', '143', '148', '149', '151', '156', '160',
       '162', '168', '171', '173', '193', '198', '203', '204', '206', '209',
       '210', '215', '226', '229', '232', '235', '238', '239', '241', '244',
       '250', '256', '261', '263', '266', '271', '276', '283', '287', '289',
       '290'],
      dtype='object')",False,1000,True,2,b0562fb65f,1.0,1.0
./expes/v3_2021-02-05_di_300-prng-1-w1-p2,daily_issda-300,300,first-300,84,28,rng,num-start-121,121,536,classic,5.128464698791504,True,,True,1.0,1.0,1.0,1,"Index(['2', '3', '4', '5', '9', '10', '13', '18', '21', '22', '23', '27', '28',
       '29', '33', '36', '42', '43', '44', '45', '48', '53', '57', '58', '63',
       '68', '69', '71', '72', '75', '77', '81', '83', '87', '89', '96', '99',
       '102', '103', '104', '105', '108', '115', '122', '137', '138', '139',
       '144', '150', '170', '172', '174', '175', '178', '188', '192', '194',
       '195', '197', '204', '206', '207', '211', '216', '217', '218', '232',
       '238', '252', '255', '257', '258', '259', '260', '268', '276', '277',
       '284', '285', '290', '294', '295', '297', '300'],
      dtype='object')",False,1000,True,2,655ef179ae,1.0,1.0
./expes/v3_2021-02-05_di_300-prng-1-w1-p2,daily_issda-300,300,first-300,49,16,rng,num-start-111,111,536,classic,3.815523386001587,True,,True,1.0,1.0,1.0,1,"Index(['6', '9', '10', '19', '29', '34', '41', '60', '72', '76', '81', '89',
       '101', '106', '107', '115', '118', '119', '123', '135', '144', '147',
       '157', '161', '162', '174', '177', '182', '183', '185', '189', '201',
       '208', '215', '216', '225', '231', '234', '237', '239', '251', '252',
       '262', '267', '272', '274', '290', '292', '296'],
      dtype='object')",False,1000,True,2,e747778504,1.0,1.0
./expes/v3_2021-02-05_di_300-prng-1-w1-p2,daily_issda-300,300,first-300,35,11,rng,num-start-221,221,536,classic,7.29797101020813,True,,True,1.0,1.0,1.0,1,"Index(['13', '15', '19', '29', '44', '47', '70', '82', '85', '87', '89', '91',
       '109', '119', '121', '129', '138', '158', '164', '167', '185', '187',
       '191', '195', '202', '217', '221', '228', '239', '258', '261', '270',
       '279', '287', '298'],
      dtype='object')",False,1000,True,2,c27a095656,1.0,1.0
./expes/v3_2021-02-05_di_300-prng-1-w1-p2,daily_issda-300,300,first-300,70,23,rng,num-start-161,161,536,classic,6.226596832275391,True,,True,1.0,1.0,1.0,1,"Index(['20', '24', '25', '26', '30', '31', '32', '33', '36', '38', '42', '45',
       '47', '49', '50', '53', '61', '64', '69', '74', '78', '85', '93', '97',
       '106', '110', '114', '115', '124', '125', '128', '148', '149', '154',
       '158', '161', '166', '176', '186', '188', '191', '203', '204', '215',
       '218', '219', '223', '230', '233', '239', '254', '255', '260', '263',
       '269', '273', '275', '277', '281', '283', '286', '287', '289', '290',
       '293', '295', '296', '298', '299', '300'],
      dtype='object')",False,1000,True,2,34488d6445,1.0,1.0
./expes/v3_2021-02-05_di_300-prng-1-w1-p2,daily_issda-300,300,first-300,49,16,rng,num-start-81,81,536,classic,5.231853008270264,True,,True,1.0,1.0,1.0,1,"Index(['6', '15', '36', '38', '43', '49', '55', '58', '61', '63', '77', '83',
       '85', '93', '100', '105', '112', '115', '127', '131', '134', '135',
       '139', '141', '145', '150', '156', '162', '173', '184', '185', '187',
       '196', '202', '204', '207', '225', '231', '232', '239', '249', '250',
       '257', '264', '265', '270', '283', '297', '299'],
      dtype='object')",False,1000,True,2,74f8d25010,1.0,1.0
./expes/v3_2021-02-05_di_300-prng-1-w1-p2,daily_issda-300,300,first-300,42,14,rng,num-start-11,11,536,classic,1000.4128704071045,False,,False,0,,,0,"Index(['3', '8', '16', '19', '22', '31', '33', '43', '44', '47', '49', '73',
       '81', '95', '96', '98', '101', '120', '124', '131', '143', '151', '156',
       '162', '168', '203', '209', '226', '229', '232', '235', '238', '239',
       '244', '256', '261', '263', '266', '271', '276', '283', '287'],
      dtype='object')",True,1000,True,2,fb43c1c724,0.0,0.0
./expes/v3_2021-02-05_di_300-prng-1-w1-p2,daily_issda-300,300,first-300,126,42,rng,num-start-151,151,536,classic,5.644772529602051,True,,True,1.0,1.0,1.0,1,"Index(['1', '3', '5', '11', '13', '15', '16', '17', '19', '21',
       ...
       '272', '279', '283', '286', '287', '288', '291', '295', '298', '300'],
      dtype='object', length=126)",False,1000,True,2,7f1780a0b6,1.0,1.0
./expes/v3_2021-02-05_di_300-prng-1-w1-p2,daily_issda-300,300,first-300,119,39,rng,num-start-31,31,536,classic,1000.9485700130463,False,,False,0,,,0,"Index(['1', '3', '5', '6', '8', '9', '11', '16', '19', '20',
       ...
       '271', '276', '283', '284', '287', '289', '290', '295', '296', '299'],
      dtype='object', length=119)",True,1000,True,2,de18689fca,0.0,0.0
./expes/v3_2021-02-05_di_300-prng-1-w1-p2,daily_issda-300,300,first-300,126,42,rng,num-start-41,41,536,classic,1001.2173476219177,False,,False,0,,,0,"Index(['2', '3', '8', '13', '17', '18', '19', '23', '26', '33',
       ...
       '278', '279', '282', '287', '291', '293', '295', '296', '299', '300'],
      dtype='object', length=126)",True,1000,True,2,c8c3fd087b,0.0,0.0
./expes/v3_2021-02-05_di_300-prng-1-w1-p2,daily_issda-300,300,first-300,112,37,rng,num-start-91,91,536,classic,1002.6041233539581,False,,False,0,,,0,"Index(['2', '4', '5', '9', '12', '13', '14', '21', '23', '24',
       ...
       '269', '271', '278', '280', '281', '292', '293', '296', '297', '300'],
      dtype='object', length=112)",True,1000,True,2,a99fd93b24,0.0,0.0
./expes/v3_2021-02-05_di_300-prng-1-w1-p2,daily_issda-300,300,first-300,91,30,rng,num-start-91,91,536,classic,21.680306911468506,True,,True,1.0,1.0,1.0,1,"Index(['6', '8', '9', '10', '19', '22', '23', '25', '29', '31', '32', '33',
       '34', '38', '41', '48', '52', '60', '72', '73', '76', '78', '81', '82',
       '85', '89', '92', '101', '106', '107', '115', '118', '119', '121',
       '123', '131', '134', '135', '140', '144', '147', '148', '152', '157',
       '159', '160', '161', '162', '163', '173', '174', '177', '182', '183',
       '185', '189', '193', '199', '200', '201', '203', '206', '208', '215',
       '216', '225', '227', '231', '234', '237', '239', '240', '243', '244',
       '247', '251', '252', '253', '254', '256', '257', '258', '262', '267',
       '272', '274', '279', '285', '290', '292', '296'],
      dtype='object')",False,1000,True,2,2ba52a6b40,1.0,1.0
./expes/v3_2021-02-05_di_300-prng-1-w1-p2,daily_issda-300,300,first-300,112,37,rng,num-start-121,121,536,classic,8.537413835525513,True,,True,1.0,1.0,1.0,1,"Index(['3', '4', '5', '10', '30', '41', '45', '46', '48', '52',
       ...
       '281', '283', '285', '286', '287', '291', '293', '294', '295', '297'],
      dtype='object', length=112)",False,1000,True,2,698f521e94,1.0,1.0
./expes/v3_2021-02-05_di_300-prng-1-w1-p2,daily_issda-300,300,first-300,105,35,rng,num-start-141,141,536,classic,9.02083683013916,True,,True,1.0,1.0,1.0,1,"Index(['4', '6', '7', '8', '11', '15', '16', '17', '19', '22',
       ...
       '282', '283', '287', '292', '293', '294', '296', '297', '298', '300'],
      dtype='object', length=105)",False,1000,True,2,039b930b72,1.0,1.0
./expes/v3_2021-02-05_di_300-prng-1-w1-p2,daily_issda-300,300,first-300,28,9,rng,num-start-71,71,536,classic,2.740408182144165,True,,True,1.0,1.0,1.0,1,"Index(['2', '5', '12', '14', '15', '16', '33', '49', '53', '61', '69', '108',
       '111', '118', '131', '137', '163', '195', '196', '200', '222', '229',
       '231', '242', '250', '254', '278', '292'],
      dtype='object')",False,1000,True,2,5eca60ccc4,1.0,1.0
./expes/v3_2021-02-05_di_300-prng-1-w1-p2,daily_issda-300,300,first-300,140,46,rng,num-start-1,1,536,classic,2.399343490600586,False,,False,0.2964655810043709,0.2917117530251716,0.30121940898357025,2,"Index(['3', '4', '5', '6', '7', '8', '11', '12', '15', '16',
       ...
       '270', '273', '274', '277', '278', '284', '289', '294', '297', '299'],
      dtype='object', length=140)",False,1000,True,2,7cb8337c7e,1.0,1.0
./expes/v3_2021-02-05_di_300-prng-1-w1-p2,daily_issda-300,300,first-300,98,32,rng,num-start-181,181,536,classic,6.7378740310668945,True,,True,1.0,1.0,1.0,1,"Index(['5', '11', '13', '15', '17', '19', '21', '26', '29', '30', '31', '35',
       '39', '43', '44', '47', '55', '59', '66', '70', '81', '82', '83', '85',
       '86', '87', '89', '91', '94', '95', '98', '107', '108', '109', '114',
       '117', '119', '121', '126', '128', '129', '131', '137', '138', '140',
       '143', '156', '158', '159', '160', '164', '167', '175', '180', '182',
       '185', '186', '187', '188', '191', '192', '195', '202', '205', '209',
       '213', '217', '221', '228', '229', '233', '234', '237', '239', '246',
       '250', '251', '256', '257', '258', '259', '260', '261', '262', '263',
       '264', '266', '268', '269', '270', '272', '279', '286', '287', '288',
       '291', '295', '298'],
      dtype='object')",False,1000,True,2,7bbb2e2f17,1.0,1.0
./expes/v3_2021-02-05_di_300-prng-1-w1-p2,daily_issda-300,300,first-300,21,7,rng,num-start-241,241,536,classic,7.842328310012817,True,,True,1.0,1.0,1.0,1,"Index(['8', '16', '37', '44', '65', '67', '72', '76', '96', '110', '116',
       '119', '133', '135', '142', '149', '151', '221', '224', '231', '273'],
      dtype='object')",False,1000,True,2,ac7a9c60a0,1.0,1.0
./expes/v3_2021-02-05_di_300-prng-1-w1-p2,daily_issda-300,300,first-300,112,37,rng,num-start-271,271,536,classic,9.420243501663208,True,,True,1.0,1.0,1.0,1,"Index(['1', '6', '10', '11', '13', '15', '17', '18', '22', '35',
       ...
       '270', '272', '274', '283', '287', '288', '292', '293', '297', '299'],
      dtype='object', length=112)",False,1000,True,2,2e4897602d,1.0,1.0
./expes/v3_2021-02-05_di_300-prng-1-w1-p2,daily_issda-300,300,first-300,35,11,rng,num-start-181,181,536,classic,6.657177448272705,True,,True,1.0,1.0,1.0,1,"Index(['13', '15', '19', '29', '44', '47', '70', '82', '85', '87', '89', '91',
       '109', '119', '121', '129', '138', '158', '164', '167', '185', '187',
       '191', '195', '202', '217', '221', '228', '239', '258', '261', '270',
       '279', '287', '298'],
      dtype='object')",False,1000,True,2,d5c19beb8b,1.0,1.0
./expes/v3_2021-02-05_di_300-prng-1-w1-p2,daily_issda-300,300,first-300,49,16,rng,num-start-121,121,536,classic,4.490936517715454,True,,True,1.0,1.0,1.0,1,"Index(['7', '8', '16', '19', '22', '33', '34', '50', '67', '69', '70', '78',
       '82', '99', '112', '119', '120', '122', '133', '138', '155', '180',
       '188', '190', '198', '199', '200', '203', '204', '209', '216', '219',
       '224', '228', '241', '243', '244', '254', '260', '268', '274', '277',
       '279', '282', '283', '294', '296', '298', '300'],
      dtype='object')",False,1000,True,2,6d65c7a1cd,1.0,1.0
./expes/v3_2021-02-05_di_300-prng-1-w1-p2,daily_issda-300,300,first-300,21,7,rng,num-start-201,201,536,classic,7.39017128944397,True,,True,1.0,1.0,1.0,1,"Index(['38', '55', '61', '77', '115', '127', '131', '134', '135', '139', '150',
       '156', '162', '184', '185', '202', '204', '231', '239', '265', '270'],
      dtype='object')",False,1000,True,2,ee7d6e81d6,1.0,1.0
./expes/v3_2021-02-05_di_300-prng-1-w1-p2,daily_issda-300,300,first-300,91,30,rng,num-start-291,291,536,classic,9.913747787475586,True,,True,1.0,1.0,1.0,1,"Index(['5', '13', '15', '17', '19', '26', '29', '30', '31', '35', '39', '43',
       '44', '47', '55', '59', '70', '82', '83', '85', '86', '87', '89', '91',
       '94', '98', '107', '108', '109', '114', '117', '119', '121', '126',
       '128', '129', '137', '138', '140', '143', '156', '158', '159', '160',
       '164', '167', '175', '180', '182', '185', '186', '187', '188', '191',
       '195', '202', '205', '209', '213', '217', '221', '228', '229', '233',
       '234', '237', '239', '246', '250', '251', '256', '257', '258', '259',
       '260', '261', '262', '263', '264', '266', '268', '269', '270', '272',
       '279', '286', '287', '288', '291', '295', '298'],
      dtype='object')",False,1000,True,2,aea9ef145a,1.0,1.0
./expes/v3_2021-02-05_di_300-prng-1-w1-p2,daily_issda-300,300,first-300,49,16,rng,num-start-281,281,536,classic,9.54771089553833,True,,True,1.0,1.0,1.0,1,"Index(['1', '3', '7', '12', '15', '27', '34', '37', '53', '58', '65', '68',
       '72', '75', '81', '82', '85', '86', '94', '101', '102', '105', '108',
       '111', '127', '128', '131', '136', '144', '149', '153', '155', '161',
       '170', '184', '185', '191', '195', '197', '200', '209', '213', '228',
       '239', '241', '272', '277', '279', '294'],
      dtype='object')",False,1000,True,2,e15ae2e3a2,1.0,1.0
./expes/v3_2021-02-05_di_300-prng-1-w1-p2,daily_issda-300,300,first-300,84,28,rng,num-start-191,191,536,classic,7.674649238586426,True,,True,1.0,1.0,1.0,1,"Index(['1', '6', '10', '14', '15', '16', '17', '19', '23', '27', '31', '32',
       '39', '40', '43', '45', '47', '53', '58', '59', '70', '74', '75', '84',
       '88', '92', '99', '103', '105', '108', '113', '114', '115', '117',
       '121', '130', '134', '138', '141', '142', '159', '161', '172', '173',
       '174', '180', '183', '186', '187', '189', '191', '192', '196', '197',
       '198', '199', '206', '208', '215', '217', '219', '221', '222', '226',
       '228', '236', '241', '243', '245', '248', '257', '260', '261', '262',
       '263', '266', '271', '277', '278', '282', '285', '286', '294', '296'],
      dtype='object')",False,1000,True,2,6501da8cf3,1.0,1.0
./expes/v3_2021-02-05_di_300-prng-1-w1-p2,daily_issda-300,300,first-300,112,37,rng,num-start-41,41,536,classic,1001.1897995471954,False,,False,0,,,0,"Index(['1', '4', '7', '9', '10', '12', '15', '16', '19', '24',
       ...
       '271', '276', '277', '284', '286', '287', '289', '292', '294', '295'],
      dtype='object', length=112)",True,1000,True,2,7e1e3b9d13,0.0,0.0
./expes/v3_2021-02-05_di_300-prng-1-w1-p2,daily_issda-300,300,first-300,7,2,rng,num-start-271,271,536,classic,8.735471248626709,True,,True,1.0,1.0,1.0,1,"Index(['95', '98', '232', '239', '261', '263', '287'], dtype='object')",False,1000,True,2,4282699dd2,1.0,1.0
./expes/v3_2021-02-05_di_300-prng-1-w1-p2,daily_issda-300,300,first-300,56,18,rng,num-start-131,131,536,classic,4.710845708847046,True,,True,1.0,1.0,1.0,1,"Index(['4', '52', '59', '61', '63', '68', '75', '83', '87', '90', '93', '94',
       '98', '101', '102', '103', '104', '106', '111', '113', '121', '122',
       '123', '130', '136', '139', '140', '145', '152', '154', '156', '167',
       '172', '176', '178', '188', '208', '209', '224', '230', '235', '245',
       '246', '251', '253', '254', '257', '260', '263', '268', '270', '276',
       '283', '291', '294', '295'],
      dtype='object')",False,1000,True,2,2ab768e8d9,1.0,1.0
./expes/v3_2021-02-05_di_300-prng-1-w1-p2,daily_issda-300,300,first-300,112,37,rng,num-start-151,151,536,classic,5.675164222717285,True,,True,1.0,1.0,1.0,1,"Index(['1', '3', '5', '11', '13', '15', '16', '17', '19', '21',
       ...
       '270', '272', '279', '283', '286', '287', '288', '291', '295', '298'],
      dtype='object', length=112)",False,1000,True,2,5e5dc96f97,1.0,1.0
./expes/v3_2021-02-05_di_300-prng-1-w1-p2,daily_issda-300,300,first-300,42,14,rng,num-start-81,81,536,classic,3.1600592136383057,True,,True,1.0,1.0,1.0,1,"Index(['7', '8', '16', '19', '22', '33', '34', '50', '67', '69', '70', '78',
       '82', '99', '112', '119', '120', '122', '133', '138', '155', '188',
       '190', '199', '200', '203', '204', '216', '219', '224', '228', '241',
       '243', '244', '254', '268', '277', '279', '282', '283', '296', '298'],
      dtype='object')",False,1000,True,2,e71c30ed51,1.0,1.0
./expes/v3_2021-02-05_di_300-prng-1-w1-p2,daily_issda-300,300,first-300,140,46,rng,num-start-171,171,536,classic,6.652328968048096,True,,True,1.0,1.0,1.0,1,"Index(['1', '2', '3', '5', '7', '10', '12', '15', '17', '18',
       ...
       '274', '277', '279', '280', '281', '282', '287', '289', '294', '297'],
      dtype='object', length=140)",False,1000,True,2,5e1dab8fa5,1.0,1.0
./expes/v3_2021-02-05_di_300-prng-1-w1-p2,daily_issda-300,300,first-300,77,25,rng,num-start-251,251,536,classic,8.39777660369873,True,,True,1.0,1.0,1.0,1,"Index(['6', '9', '10', '19', '25', '29', '34', '38', '41', '52', '60', '72',
       '73', '76', '78', '81', '85', '89', '92', '101', '106', '107', '115',
       '118', '119', '121', '123', '135', '140', '144', '147', '152', '157',
       '159', '160', '161', '162', '163', '173', '174', '177', '182', '183',
       '185', '189', '199', '200', '201', '203', '206', '208', '215', '216',
       '225', '227', '231', '234', '237', '239', '240', '243', '244', '251',
       '252', '253', '254', '257', '258', '262', '267', '272', '274', '279',
       '285', '290', '292', '296'],
      dtype='object')",False,1000,True,2,858569fbba,1.0,1.0
./expes/v3_2021-02-05_di_300-prng-1-w1-p2,daily_issda-300,300,first-300,56,18,rng,num-start-281,281,536,classic,9.255597114562988,True,,True,1.0,1.0,1.0,1,"Index(['6', '15', '36', '38', '43', '46', '48', '49', '53', '55', '58', '59',
       '61', '63', '77', '83', '85', '93', '100', '105', '112', '115', '127',
       '131', '134', '135', '139', '141', '143', '144', '145', '150', '156',
       '162', '173', '184', '185', '187', '196', '202', '204', '207', '211',
       '225', '231', '232', '239', '249', '250', '257', '264', '265', '270',
       '283', '297', '299'],
      dtype='object')",False,1000,True,2,8d698b7c54,1.0,1.0
./expes/v3_2021-02-05_di_300-prng-1-w1-p2,daily_issda-300,300,first-300,21,7,rng,num-start-81,81,536,classic,2.822169780731201,True,,True,1.0,1.0,1.0,1,"Index(['8', '22', '33', '47', '49', '73', '81', '95', '96', '98', '156', '203',
       '229', '232', '239', '244', '261', '263', '271', '276', '287'],
      dtype='object')",False,1000,True,2,ac294df31f,1.0,1.0
./expes/v3_2021-02-05_di_300-prng-1-w1-p2,daily_issda-300,300,first-300,28,9,rng,num-start-51,51,536,classic,8.617807865142822,True,,True,1.0,1.0,1.0,1,"Index(['20', '25', '30', '31', '32', '36', '38', '45', '47', '49', '64', '78',
       '110', '115', '124', '166', '188', '203', '215', '218', '223', '260',
       '275', '283', '290', '296', '299', '300'],
      dtype='object')",False,1000,True,2,fcea652e54,1.0,1.0
./expes/v3_2021-02-05_di_300-prng-1-w1-p2,daily_issda-300,300,first-300,98,32,rng,num-start-1,1,536,classic,0.6668212413787842,False,,False,0.3181811620296109,0.3157285445459792,0.32063377951324257,2,"Index(['1', '3', '5', '6', '8', '9', '11', '16', '19', '22', '27', '31', '33',
       '35', '36', '38', '39', '43', '44', '45', '47', '49', '52', '56', '60',
       '61', '68', '69', '73', '75', '81', '91', '95', '96', '97', '98', '101',
       '102', '107', '108', '109', '110', '118', '120', '124', '125', '127',
       '131', '133', '139', '143', '148', '149', '151', '152', '156', '160',
       '162', '168', '169', '171', '173', '189', '191', '193', '197', '198',
       '202', '203', '204', '206', '209', '210', '215', '216', '226', '227',
       '229', '230', '232', '235', '238', '239', '241', '244', '250', '256',
       '261', '263', '266', '271', '276', '283', '287', '289', '290', '296',
       '299'],
      dtype='object')",False,1000,True,2,464fe584cb,1.0,1.0
./expes/v3_2021-02-05_di_300-prng-1-w1-p2,daily_issda-300,300,first-300,91,30,rng,num-start-61,61,536,classic,1001.8092403411865,False,,False,0,,,0,"Index(['3', '8', '17', '18', '19', '23', '34', '37', '39', '41', '42', '50',
       '58', '62', '69', '72', '74', '77', '81', '82', '83', '85', '86', '90',
       '91', '92', '98', '100', '106', '115', '121', '123', '125', '126',
       '128', '135', '137', '141', '143', '146', '155', '156', '161', '164',
       '167', '168', '170', '178', '179', '182', '185', '186', '188', '192',
       '193', '196', '197', '200', '208', '212', '213', '216', '220', '222',
       '223', '224', '226', '227', '229', '230', '231', '234', '237', '241',
       '246', '248', '251', '252', '255', '257', '267', '268', '274', '275',
       '279', '282', '291', '293', '296', '299', '300'],
      dtype='object')",True,1000,True,2,360403b5f8,0.0,0.0
./expes/v3_2021-02-05_di_300-prng-1-w1-p2,daily_issda-300,300,first-300,14,4,rng,num-start-121,121,536,classic,4.469311475753784,True,,True,1.0,1.0,1.0,1,"Index(['20', '25', '30', '38', '45', '49', '78', '110', '166', '188', '203',
       '260', '275', '299'],
      dtype='object')",False,1000,True,2,47ce37fa68,1.0,1.0
./expes/v3_2021-02-05_di_300-prng-1-w1-p2,daily_issda-300,300,first-300,112,37,rng,num-start-81,81,536,classic,1002.3292863368988,False,,False,0,,,0,"Index(['3', '5', '10', '11', '14', '26', '27', '28', '30', '32',
       ...
       '279', '283', '284', '285', '286', '287', '289', '293', '295', '297'],
      dtype='object', length=112)",True,1000,True,2,3c51f1ea58,0.0,0.0
./expes/v3_2021-02-05_di_300-prng-1-w1-p2,daily_issda-300,300,first-300,77,25,rng,num-start-191,191,536,classic,7.262919187545776,True,,True,1.0,1.0,1.0,1,"Index(['2', '5', '12', '14', '15', '16', '18', '23', '33', '45', '49', '52',
       '53', '56', '61', '62', '69', '84', '87', '88', '89', '96', '98', '108',
       '111', '113', '114', '118', '119', '120', '125', '131', '137', '146',
       '149', '152', '156', '158', '163', '171', '177', '188', '190', '192',
       '195', '196', '200', '202', '207', '213', '214', '217', '222', '225',
       '229', '231', '236', '241', '242', '246', '250', '251', '254', '256',
       '257', '258', '259', '260', '261', '267', '271', '278', '281', '284',
       '285', '292', '297'],
      dtype='object')",False,1000,True,2,3bbdcdc6bb,1.0,1.0
./expes/v3_2021-02-05_di_300-prng-1-w1-p2,daily_issda-300,300,first-300,49,16,rng,num-start-261,261,536,classic,8.968276262283325,True,,True,1.0,1.0,1.0,1,"Index(['1', '3', '7', '12', '15', '27', '34', '37', '53', '58', '65', '68',
       '72', '75', '81', '82', '85', '86', '94', '101', '102', '105', '108',
       '111', '127', '128', '131', '136', '144', '149', '153', '155', '161',
       '170', '184', '185', '191', '195', '197', '200', '209', '213', '228',
       '239', '241', '272', '277', '279', '294'],
      dtype='object')",False,1000,True,2,7c6fb9f1cc,1.0,1.0
./expes/v3_2021-02-05_di_300-prng-1-w1-p2,daily_issda-300,300,first-300,84,28,rng,num-start-201,201,536,classic,7.2301108837127686,True,,True,1.0,1.0,1.0,1,"Index(['4', '41', '45', '46', '48', '52', '59', '61', '63', '65', '67', '68',
       '69', '74', '75', '76', '78', '83', '87', '90', '93', '94', '98', '101',
       '102', '103', '104', '105', '106', '111', '113', '121', '122', '123',
       '128', '130', '133', '136', '139', '140', '145', '152', '154', '155',
       '156', '167', '172', '174', '176', '178', '181', '185', '188', '198',
       '202', '204', '205', '208', '209', '214', '224', '230', '235', '241',
       '245', '246', '251', '252', '253', '254', '257', '260', '263', '268',
       '270', '273', '274', '276', '279', '283', '291', '294', '295', '297'],
      dtype='object')",False,1000,True,2,baf2fe659a,1.0,1.0
./expes/v3_2021-02-05_di_300-prng-1-w1-p2,daily_issda-300,300,first-300,35,11,rng,num-start-261,261,536,classic,8.460075855255127,True,,True,1.0,1.0,1.0,1,"Index(['3', '6', '11', '12', '15', '45', '73', '79', '89', '113', '114', '115',
       '117', '122', '130', '133', '146', '152', '155', '159', '172', '179',
       '186', '210', '214', '216', '217', '229', '234', '238', '241', '247',
       '254', '265', '289'],
      dtype='object')",False,1000,True,2,9958306683,1.0,1.0
./expes/v3_2021-02-05_di_300-prng-1-w1-p2,daily_issda-300,300,first-300,70,23,rng,num-start-21,21,536,classic,1000.6638152599335,False,,False,0,,,0,"Index(['1', '6', '10', '15', '16', '17', '27', '31', '32', '39', '43', '45',
       '47', '58', '59', '70', '74', '75', '84', '88', '92', '99', '103',
       '108', '115', '117', '121', '130', '134', '138', '141', '159', '161',
       '172', '173', '174', '180', '183', '186', '187', '189', '191', '192',
       '196', '197', '198', '206', '208', '215', '217', '221', '226', '228',
       '236', '241', '243', '245', '248', '257', '260', '261', '262', '263',
       '271', '277', '278', '285', '286', '294', '296'],
      dtype='object')",True,1000,True,2,c5b63a9901,0.0,0.0
./expes/v3_2021-02-05_di_300-prng-1-w1-p2,daily_issda-300,300,first-300,105,35,rng,num-start-171,171,536,classic,6.415268182754517,True,,True,1.0,1.0,1.0,1,"Index(['1', '2', '3', '4', '5', '9', '10', '13', '14', '18',
       ...
       '276', '277', '284', '285', '287', '290', '294', '295', '297', '300'],
      dtype='object', length=105)",False,1000,True,2,6bcd9e297f,1.0,1.0
./expes/v3_2021-02-05_di_300-prng-1-w1-p2,daily_issda-300,300,first-300,7,2,rng,num-start-101,101,536,classic,3.5966715812683105,True,,True,1.0,1.0,1.0,1,"Index(['117', '146', '186', '214', '229', '241', '247'], dtype='object')",False,1000,True,2,5f3440d8ce,1.0,1.0
./expes/v3_2021-02-05_di_300-prng-1-w1-p2,daily_issda-300,300,first-300,56,18,rng,num-start-31,31,536,classic,1000.9264574050903,False,,False,0,,,0,"Index(['3', '10', '14', '26', '27', '30', '32', '36', '42', '57', '60', '64',
       '71', '72', '73', '78', '90', '101', '108', '110', '123', '128', '130',
       '137', '143', '149', '156', '159', '163', '170', '173', '182', '185',
       '188', '191', '192', '197', '206', '208', '210', '213', '215', '222',
       '243', '245', '257', '260', '268', '270', '273', '277', '283', '286',
       '287', '293', '297'],
      dtype='object')",True,1000,True,2,7ceef365c9,0.0,0.0
