expe,clients,clients_size,clients_subset,agg_size,agg_size_pc,method,days,days_size,days_total,noise_method,time,valid,valid_sum,success,score_avg,score_min,score_max,nsols,oracle,wall_hit,wall_time,pooled,pool_size,uuid,optimal,valid_sums
./expes/v3_2021-02-05_di_300-prng-1-w1-p2,daily_issda-300,300,first-300,98,32,rng,num-start-41,41,536,classic,1001.6711747646332,False,,False,0,,,0,"Index(['1', '6', '10', '11', '13', '15', '18', '22', '35', '36', '38', '43',
       '46', '48', '49', '51', '53', '55', '58', '59', '61', '63', '74', '77',
       '83', '85', '87', '93', '97', '99', '100', '105', '112', '115', '121',
       '127', '131', '132', '134', '135', '137', '139', '141', '143', '144',
       '145', '150', '155', '156', '159', '160', '162', '173', '178', '183',
       '184', '185', '187', '189', '196', '198', '199', '202', '204', '207',
       '208', '211', '214', '217', '218', '224', '225', '226', '231', '232',
       '234', '236', '239', '241', '242', '243', '246', '249', '250', '251',
       '257', '260', '264', '265', '270', '272', '274', '283', '287', '292',
       '293', '297', '299'],
      dtype='object')",True,1000,True,2,dc6ad40594,0.0,0.0
./expes/v3_2021-02-05_di_300-prng-1-w1-p2,daily_issda-300,300,first-300,28,9,rng,num-start-121,121,536,classic,4.4557929039001465,True,,True,1.0,1.0,1.0,1,"Index(['8', '16', '19', '22', '31', '33', '47', '49', '73', '81', '95', '96',
       '98', '124', '156', '168', '203', '226', '229', '232', '238', '239',
       '244', '261', '263', '271', '276', '287'],
      dtype='object')",False,1000,True,2,d9a55edbeb,1.0,1.0
./expes/v3_2021-02-05_di_300-prng-1-w1-p2,daily_issda-300,300,first-300,70,23,rng,num-start-11,11,536,classic,1000.3715136051178,False,,False,0,,,0,"Index(['4', '41', '46', '48', '52', '59', '61', '63', '68', '75', '76', '78',
       '83', '87', '90', '93', '94', '98', '101', '102', '103', '104', '105',
       '106', '111', '113', '121', '122', '123', '128', '130', '133', '136',
       '139', '140', '145', '152', '154', '156', '167', '172', '174', '176',
       '178', '181', '188', '208', '209', '224', '230', '235', '241', '245',
       '246', '251', '252', '253', '254', '257', '260', '263', '268', '270',
       '274', '276', '279', '283', '291', '294', '295'],
      dtype='object')",True,1000,True,2,96299e7e25,0.0,0.0
./expes/v3_2021-02-05_di_300-prng-1-w1-p2,daily_issda-300,300,first-300,56,18,rng,num-start-61,61,536,classic,1001.8085534572601,False,,False,0,,,0,"Index(['1', '8', '21', '32', '33', '38', '42', '47', '48', '49', '51', '52',
       '72', '73', '76', '98', '105', '112', '114', '123', '125', '129', '133',
       '134', '145', '156', '159', '162', '164', '167', '170', '171', '182',
       '184', '198', '205', '208', '216', '223', '227', '230', '242', '245',
       '249', '253', '259', '261', '262', '267', '273', '279', '281', '283',
       '287', '291', '299'],
      dtype='object')",True,1000,True,2,b3bd4d8ff2,0.0,0.0
./expes/v3_2021-02-05_di_300-prng-1-w1-p2,daily_issda-300,300,first-300,21,7,rng,num-start-21,21,536,classic,1000.6707656383514,False,,False,0,,,0,"Index(['8', '17', '18', '23', '39', '72', '83', '106', '128', '143', '168',
       '185', '216', '220', '237', '248', '251', '252', '267', '293', '296'],
      dtype='object')",True,1000,True,2,66716912d3,0.0,0.0
./expes/v3_2021-02-05_di_300-prng-1-w1-p2,daily_issda-300,300,first-300,42,14,rng,num-start-191,191,536,classic,6.540201425552368,True,,True,1.0,1.0,1.0,1,"Index(['1', '8', '21', '32', '38', '48', '49', '51', '52', '72', '76', '105',
       '112', '129', '133', '134', '145', '156', '159', '162', '170', '171',
       '182', '184', '198', '205', '208', '216', '223', '227', '242', '245',
       '249', '253', '259', '262', '267', '273', '281', '283', '287', '299'],
      dtype='object')",False,1000,True,2,e18bb92b8c,1.0,1.0
./expes/v3_2021-02-05_di_300-prng-1-w1-p2,daily_issda-300,300,first-300,7,2,rng,num-start-231,231,536,classic,7.364532232284546,True,,True,1.0,1.0,1.0,1,"Index(['29', '44', '47', '87', '129', '158', '185'], dtype='object')",False,1000,True,2,5e9e60b93b,1.0,1.0
./expes/v3_2021-02-05_di_300-prng-1-w1-p2,daily_issda-300,300,first-300,56,18,rng,num-start-161,161,536,classic,5.721677303314209,True,,True,1.0,1.0,1.0,1,"Index(['4', '9', '12', '23', '37', '38', '51', '54', '56', '59', '62', '69',
       '71', '76', '82', '99', '103', '104', '107', '120', '134', '138', '149',
       '154', '160', '167', '168', '178', '189', '199', '200', '202', '203',
       '209', '211', '213', '217', '226', '233', '234', '235', '246', '253',
       '257', '258', '262', '267', '271', '278', '280', '281', '292', '293',
       '296', '297', '300'],
      dtype='object')",False,1000,True,2,d05a6270a8,1.0,1.0
./expes/v3_2021-02-05_di_300-prng-1-w1-p2,daily_issda-300,300,first-300,56,18,rng,num-start-101,101,536,classic,3.731215476989746,True,,True,1.0,1.0,1.0,1,"Index(['4', '52', '59', '61', '63', '68', '75', '83', '87', '90', '93', '94',
       '98', '101', '102', '103', '104', '106', '111', '113', '121', '122',
       '123', '130', '136', '139', '140', '145', '152', '154', '156', '167',
       '172', '176', '178', '188', '208', '209', '224', '230', '235', '245',
       '246', '251', '253', '254', '257', '260', '263', '268', '270', '276',
       '283', '291', '294', '295'],
      dtype='object')",False,1000,True,2,6a13f48077,1.0,1.0
./expes/v3_2021-02-05_di_300-prng-1-w1-p2,daily_issda-300,300,first-300,105,35,rng,num-start-51,51,536,classic,1001.4953684806824,False,,False,0,,,0,"Index(['1', '3', '5', '11', '13', '15', '17', '19', '21', '23',
       ...
       '269', '270', '272', '279', '286', '287', '288', '291', '295', '298'],
      dtype='object', length=105)",True,1000,True,2,043ffed031,0.0,0.0
./expes/v3_2021-02-05_di_300-prng-1-w1-p2,daily_issda-300,300,first-300,14,4,rng,num-start-241,241,536,classic,7.791771173477173,True,,True,1.0,1.0,1.0,1,"Index(['15', '27', '58', '81', '127', '128', '131', '184', '191', '195', '239',
       '241', '272', '279'],
      dtype='object')",False,1000,True,2,5245c1b47e,1.0,1.0
./expes/v3_2021-02-05_di_300-prng-1-w1-p2,daily_issda-300,300,first-300,49,16,rng,num-start-261,261,536,classic,8.66325044631958,True,,True,1.0,1.0,1.0,1,"Index(['11', '16', '20', '23', '30', '33', '44', '45', '46', '50', '56', '59',
       '65', '71', '73', '99', '100', '107', '108', '117', '120', '121', '127',
       '133', '137', '174', '190', '193', '194', '195', '198', '200', '206',
       '207', '209', '233', '236', '243', '249', '250', '251', '254', '255',
       '260', '265', '267', '277', '294', '298'],
      dtype='object')",False,1000,True,2,ff4bd094f2,1.0,1.0
./expes/v3_2021-02-05_di_300-prng-1-w1-p2,daily_issda-300,300,first-300,49,16,rng,num-start-151,151,536,classic,5.267158031463623,True,,True,1.0,1.0,1.0,1,"Index(['6', '9', '10', '19', '29', '34', '41', '60', '72', '76', '81', '89',
       '101', '106', '107', '115', '118', '119', '123', '135', '144', '147',
       '157', '161', '162', '174', '177', '182', '183', '185', '189', '201',
       '208', '215', '216', '225', '231', '234', '237', '239', '251', '252',
       '262', '267', '272', '274', '290', '292', '296'],
      dtype='object')",False,1000,True,2,ab53feb17f,1.0,1.0
./expes/v3_2021-02-05_di_300-prng-1-w1-p2,daily_issda-300,300,first-300,49,16,rng,num-start-141,141,536,classic,4.908207416534424,True,,True,1.0,1.0,1.0,1,"Index(['20', '24', '25', '26', '30', '31', '32', '33', '36', '38', '45', '47',
       '49', '50', '53', '61', '64', '69', '74', '78', '93', '97', '110',
       '114', '115', '124', '149', '158', '166', '188', '191', '203', '204',
       '215', '218', '223', '260', '275', '277', '281', '283', '286', '287',
       '290', '293', '296', '298', '299', '300'],
      dtype='object')",False,1000,True,2,1cd4b5f92a,1.0,1.0
./expes/v3_2021-02-05_di_300-prng-1-w1-p2,daily_issda-300,300,first-300,119,39,rng,num-start-161,161,536,classic,5.904003143310547,True,,True,1.0,1.0,1.0,1,"Index(['2', '4', '5', '9', '12', '13', '14', '21', '23', '24',
       ...
       '271', '278', '280', '281', '288', '292', '293', '296', '297', '300'],
      dtype='object', length=119)",False,1000,True,2,98d04157eb,1.0,1.0
./expes/v3_2021-02-05_di_300-prng-1-w1-p2,daily_issda-300,300,first-300,112,37,rng,num-start-1,1,536,classic,2.2954230308532715,False,,False,0.3306266530587278,0.32063377951324257,0.340619526604213,2,"Index(['3', '5', '10', '11', '14', '26', '27', '28', '30', '32',
       ...
       '279', '283', '284', '285', '286', '287', '289', '293', '295', '297'],
      dtype='object', length=112)",False,1000,True,2,3a30c3e4cb,1.0,1.0
./expes/v3_2021-02-05_di_300-prng-1-w1-p2,daily_issda-300,300,first-300,84,28,rng,num-start-31,31,536,classic,1000.9581210613251,False,,False,0,,,0,"Index(['1', '3', '6', '8', '9', '11', '16', '19', '22', '27', '31', '33', '35',
       '36', '38', '43', '44', '45', '47', '49', '52', '56', '60', '61', '68',
       '69', '73', '81', '91', '95', '96', '97', '98', '101', '102', '108',
       '109', '110', '118', '120', '124', '127', '131', '139', '143', '148',
       '149', '151', '156', '160', '162', '168', '171', '173', '193', '197',
       '198', '203', '204', '206', '209', '210', '215', '216', '226', '229',
       '230', '232', '235', '238', '239', '241', '244', '250', '256', '261',
       '263', '266', '271', '276', '283', '287', '289', '290'],
      dtype='object')",True,1000,True,2,89391de1cc,0.0,0.0
./expes/v3_2021-02-05_di_300-prng-1-w1-p2,daily_issda-300,300,first-300,133,44,rng,num-start-291,291,536,classic,10.783916711807251,True,,True,1.0,1.0,1.0,1,"Index(['4', '5', '10', '11', '14', '17', '19', '21', '22', '23',
       ...
       '271', '274', '275', '280', '281', '282', '286', '293', '294', '299'],
      dtype='object', length=133)",False,1000,True,2,ac5cd2fb4b,1.0,1.0
./expes/v3_2021-02-05_di_300-prng-1-w1-p2,daily_issda-300,300,first-300,28,9,rng,num-start-61,61,536,classic,3.430764675140381,True,,True,1.0,1.0,1.0,1,"Index(['2', '5', '12', '14', '15', '16', '33', '49', '53', '61', '69', '108',
       '111', '118', '131', '137', '163', '195', '196', '200', '222', '229',
       '231', '242', '250', '254', '278', '292'],
      dtype='object')",False,1000,True,2,995c654bf4,1.0,1.0
./expes/v3_2021-02-05_di_300-prng-1-w1-p2,daily_issda-300,300,first-300,70,23,rng,num-start-1,1,536,classic,2.240668773651123,False,,False,0.40741025546348225,0.40458833554655305,0.41023217538041146,2,"Index(['2', '5', '12', '14', '15', '16', '18', '33', '45', '49', '52', '53',
       '56', '61', '62', '69', '84', '89', '96', '98', '108', '111', '113',
       '114', '118', '119', '120', '125', '131', '137', '146', '149', '152',
       '156', '163', '171', '177', '188', '190', '192', '195', '196', '200',
       '202', '207', '213', '214', '217', '222', '225', '229', '231', '236',
       '242', '246', '250', '251', '254', '256', '257', '259', '260', '261',
       '267', '271', '278', '281', '284', '285', '292'],
      dtype='object')",False,1000,True,2,bd03a05f05,1.0,1.0
./expes/v3_2021-02-05_di_300-prng-1-w1-p2,daily_issda-300,300,first-300,140,46,rng,num-start-221,221,536,classic,7.8457911014556885,True,,True,1.0,1.0,1.0,1,"Index(['2', '7', '9', '11', '14', '16', '17', '18', '20', '23',
       ...
       '273', '277', '280', '286', '289', '292', '294', '297', '298', '300'],
      dtype='object', length=140)",False,1000,True,2,bc60d6639b,1.0,1.0
./expes/v3_2021-02-05_di_300-prng-1-w1-p2,daily_issda-300,300,first-300,105,35,rng,num-start-201,201,536,classic,7.247798919677734,True,,True,1.0,1.0,1.0,1,"Index(['1', '8', '9', '14', '17', '20', '21', '24', '32', '33',
       ...
       '277', '279', '281', '283', '287', '291', '294', '295', '297', '299'],
      dtype='object', length=105)",False,1000,True,2,b93265a638,1.0,1.0
./expes/v3_2021-02-05_di_300-prng-1-w1-p2,daily_issda-300,300,first-300,14,4,rng,num-start-271,271,536,classic,8.547532320022583,True,,True,1.0,1.0,1.0,1,"Index(['20', '25', '30', '38', '45', '49', '78', '110', '166', '188', '203',
       '260', '275', '299'],
      dtype='object')",False,1000,True,2,9d78e81f5b,1.0,1.0
./expes/v3_2021-02-05_di_300-prng-1-w1-p2,daily_issda-300,300,first-300,98,32,rng,num-start-201,201,536,classic,7.895365476608276,True,,True,1.0,1.0,1.0,1,"Index(['2', '3', '5', '7', '12', '14', '15', '16', '18', '23', '29', '33',
       '45', '49', '52', '53', '56', '61', '62', '67', '69', '84', '87', '88',
       '89', '96', '98', '103', '106', '108', '111', '113', '114', '117',
       '118', '119', '120', '125', '131', '137', '138', '146', '149', '152',
       '156', '158', '163', '171', '177', '181', '187', '188', '190', '192',
       '195', '196', '197', '200', '202', '207', '208', '212', '213', '214',
       '217', '219', '222', '225', '229', '231', '236', '241', '242', '246',
       '247', '250', '251', '254', '256', '257', '258', '259', '260', '261',
       '263', '264', '266', '267', '271', '277', '278', '281', '284', '285',
       '288', '292', '296', '297'],
      dtype='object')",False,1000,True,2,55cdeaa051,1.0,1.0
./expes/v3_2021-02-05_di_300-prng-1-w1-p2,daily_issda-300,300,first-300,28,9,rng,num-start-291,291,536,classic,9.462121486663818,True,,True,1.0,1.0,1.0,1,"Index(['15', '19', '29', '44', '47', '82', '85', '87', '109', '129', '138',
       '158', '164', '185', '187', '191', '195', '202', '217', '221', '228',
       '239', '258', '261', '270', '279', '287', '298'],
      dtype='object')",False,1000,True,2,a70207d96d,1.0,1.0
./expes/v3_2021-02-05_di_300-prng-1-w1-p2,daily_issda-300,300,first-300,35,11,rng,num-start-291,291,536,classic,9.372966766357422,True,,True,1.0,1.0,1.0,1,"Index(['4', '21', '23', '27', '33', '42', '45', '53', '57', '68', '71', '81',
       '87', '96', '105', '108', '115', '122', '137', '144', '150', '172',
       '174', '175', '192', '195', '197', '204', '216', '217', '232', '238',
       '258', '260', '284'],
      dtype='object')",False,1000,True,2,439560615b,1.0,1.0
./expes/v3_2021-02-05_di_300-prng-1-w1-p2,daily_issda-300,300,first-300,63,21,rng,num-start-151,151,536,classic,5.230591535568237,True,,True,1.0,1.0,1.0,1,"Index(['2', '3', '4', '5', '9', '13', '21', '23', '27', '29', '33', '36', '42',
       '43', '44', '45', '53', '57', '58', '63', '68', '69', '71', '72', '81',
       '87', '96', '99', '102', '103', '104', '105', '108', '115', '122',
       '137', '144', '150', '170', '172', '174', '175', '192', '194', '195',
       '197', '204', '211', '216', '217', '218', '232', '238', '252', '255',
       '257', '258', '260', '276', '277', '284', '294', '297'],
      dtype='object')",False,1000,True,2,946b737540,1.0,1.0
./expes/v3_2021-02-05_di_300-prng-1-w1-p2,daily_issda-300,300,first-300,49,16,rng,num-start-101,101,536,classic,6.22510838508606,True,,True,1.0,1.0,1.0,1,"Index(['9', '12', '23', '37', '38', '51', '54', '56', '59', '62', '69', '71',
       '76', '82', '99', '103', '104', '107', '120', '134', '138', '149',
       '154', '160', '167', '168', '178', '199', '200', '202', '203', '209',
       '211', '213', '217', '226', '234', '253', '258', '262', '267', '271',
       '278', '280', '292', '293', '296', '297', '300'],
      dtype='object')",False,1000,True,2,e0ee1d2398,1.0,1.0
./expes/v3_2021-02-05_di_300-prng-1-w1-p2,daily_issda-300,300,first-300,126,42,rng,num-start-31,31,536,classic,1000.9174983501434,False,,False,0,,,0,"Index(['1', '2', '3', '4', '5', '7', '8', '9', '10', '13',
       ...
       '276', '277', '284', '285', '287', '290', '294', '295', '297', '300'],
      dtype='object', length=126)",True,1000,True,2,1646d8ad75,0.0,0.0
./expes/v3_2021-02-05_di_300-prng-1-w1-p2,daily_issda-300,300,first-300,77,25,rng,num-start-161,161,536,classic,5.906866550445557,True,,True,1.0,1.0,1.0,1,"Index(['2', '8', '16', '20', '22', '23', '37', '38', '44', '61', '65', '67',
       '68', '70', '71', '72', '73', '76', '82', '91', '92', '96', '100',
       '104', '109', '110', '116', '119', '120', '121', '122', '129', '130',
       '132', '133', '135', '142', '144', '149', '151', '161', '178', '180',
       '183', '184', '187', '188', '191', '192', '200', '203', '212', '218',
       '220', '221', '224', '226', '228', '230', '231', '236', '238', '250',
       '252', '255', '267', '268', '273', '275', '282', '284', '289', '290',
       '292', '296', '298', '299'],
      dtype='object')",False,1000,True,2,d82c8995da,1.0,1.0
./expes/v3_2021-02-05_di_300-prng-1-w1-p2,daily_issda-300,300,first-300,28,9,rng,num-start-41,41,536,classic,6.41377067565918,True,,True,1.0,1.0,1.0,1,"Index(['6', '9', '19', '29', '60', '76', '81', '106', '107', '115', '118',
       '119', '123', '135', '144', '157', '161', '174', '177', '182', '183',
       '189', '201', '216', '239', '262', '267', '296'],
      dtype='object')",False,1000,True,2,69d19df403,1.0,1.0
./expes/v3_2021-02-05_di_300-prng-1-w1-p2,daily_issda-300,300,first-300,70,23,rng,num-start-271,271,536,classic,9.108185768127441,True,,True,1.0,1.0,1.0,1,"Index(['1', '6', '10', '15', '16', '17', '27', '31', '32', '39', '43', '45',
       '47', '58', '59', '70', '74', '75', '84', '88', '92', '99', '103',
       '108', '115', '117', '121', '130', '134', '138', '141', '159', '161',
       '172', '173', '174', '180', '183', '186', '187', '189', '191', '192',
       '196', '197', '198', '206', '208', '215', '217', '221', '226', '228',
       '236', '241', '243', '245', '248', '257', '260', '261', '262', '263',
       '271', '277', '278', '285', '286', '294', '296'],
      dtype='object')",False,1000,True,2,278179ad3f,1.0,1.0
./expes/v3_2021-02-05_di_300-prng-1-w1-p2,daily_issda-300,300,first-300,70,23,rng,num-start-1,1,536,classic,1.7360775470733643,False,,False,0.41593054886784275,0.41593054886784275,0.41593054886784275,2,"Index(['3', '8', '17', '18', '19', '23', '34', '37', '39', '42', '50', '58',
       '69', '72', '77', '81', '83', '86', '90', '98', '100', '106', '115',
       '121', '123', '128', '135', '143', '146', '155', '156', '161', '167',
       '168', '179', '182', '185', '186', '188', '192', '193', '196', '197',
       '212', '213', '216', '220', '222', '224', '226', '227', '229', '231',
       '234', '237', '241', '248', '251', '252', '255', '257', '267', '274',
       '275', '282', '291', '293', '296', '299', '300'],
      dtype='object')",False,1000,True,2,28c9af0487,1.0,1.0
./expes/v3_2021-02-05_di_300-prng-1-w1-p2,daily_issda-300,300,first-300,77,25,rng,num-start-91,91,536,classic,8.906088829040527,True,,True,1.0,1.0,1.0,1,"Index(['4', '41', '45', '46', '48', '52', '59', '61', '63', '68', '69', '75',
       '76', '78', '83', '87', '90', '93', '94', '98', '101', '102', '103',
       '104', '105', '106', '111', '113', '121', '122', '123', '128', '130',
       '133', '136', '139', '140', '145', '152', '154', '156', '167', '172',
       '174', '176', '178', '181', '188', '198', '202', '205', '208', '209',
       '224', '230', '235', '241', '245', '246', '251', '252', '253', '254',
       '257', '260', '263', '268', '270', '273', '274', '276', '279', '283',
       '291', '294', '295', '297'],
      dtype='object')",False,1000,True,2,8a8eb311a7,1.0,1.0
./expes/v3_2021-02-05_di_300-prng-1-w1-p2,daily_issda-300,300,first-300,140,46,rng,num-start-241,241,536,classic,8.820449829101562,True,,True,1.0,1.0,1.0,1,"Index(['4', '5', '10', '11', '14', '17', '19', '21', '22', '23',
       ...
       '274', '275', '280', '281', '282', '286', '290', '293', '294', '299'],
      dtype='object', length=140)",False,1000,True,2,bb5e1fb233,1.0,1.0
./expes/v3_2021-02-05_di_300-prng-1-w1-p2,daily_issda-300,300,first-300,7,2,rng,num-start-231,231,536,classic,7.264304876327515,True,,True,1.0,1.0,1.0,1,"Index(['25', '38', '49', '78', '166', '203', '275'], dtype='object')",False,1000,True,2,1123b83a8f,1.0,1.0
./expes/v3_2021-02-05_di_300-prng-1-w1-p2,daily_issda-300,300,first-300,77,25,rng,num-start-21,21,536,classic,1000.6851484775543,False,,False,0,,,0,"Index(['2', '3', '4', '5', '9', '13', '18', '21', '22', '23', '27', '28', '29',
       '33', '36', '42', '43', '44', '45', '48', '53', '57', '58', '63', '68',
       '69', '71', '72', '75', '77', '81', '83', '87', '89', '96', '99', '102',
       '103', '104', '105', '108', '115', '122', '137', '138', '139', '144',
       '150', '170', '172', '174', '175', '192', '194', '195', '197', '204',
       '207', '211', '216', '217', '218', '232', '238', '252', '255', '257',
       '258', '259', '260', '276', '277', '284', '285', '294', '295', '297'],
      dtype='object')",True,1000,True,2,01f3f0d426,0.0,0.0
./expes/v3_2021-02-05_di_300-prng-1-w1-p2,daily_issda-300,300,first-300,84,28,rng,num-start-11,11,536,classic,1000.3282651901245,False,,False,0,,,0,"Index(['1', '7', '9', '12', '15', '19', '24', '28', '40', '42', '44', '46',
       '48', '49', '50', '60', '62', '65', '71', '75', '87', '89', '95', '97',
       '99', '100', '101', '102', '103', '108', '115', '126', '129', '134',
       '136', '137', '138', '140', '149', '150', '156', '157', '160', '164',
       '171', '172', '183', '185', '186', '192', '194', '195', '200', '204',
       '210', '212', '217', '218', '219', '221', '226', '228', '229', '232',
       '241', '242', '248', '249', '250', '251', '257', '258', '264', '265',
       '268', '269', '271', '276', '277', '284', '286', '289', '294', '295'],
      dtype='object')",True,1000,True,2,74f5735fa6,0.0,0.0
./expes/v3_2021-02-05_di_300-prng-1-w1-p2,daily_issda-300,300,first-300,119,39,rng,num-start-151,151,536,classic,6.008125066757202,True,,True,1.0,1.0,1.0,1,"Index(['3', '5', '10', '11', '14', '15', '26', '27', '28', '30',
       ...
       '284', '285', '286', '287', '289', '291', '293', '295', '296', '297'],
      dtype='object', length=119)",False,1000,True,2,0c6b4cd1a7,1.0,1.0
./expes/v3_2021-02-05_di_300-prng-1-w1-p2,daily_issda-300,300,first-300,140,46,rng,num-start-141,141,536,classic,5.650231599807739,True,,True,1.0,1.0,1.0,1,"Index(['2', '7', '9', '11', '14', '16', '17', '18', '20', '23',
       ...
       '273', '277', '280', '286', '289', '292', '294', '297', '298', '300'],
      dtype='object', length=140)",False,1000,True,2,a6218f1453,1.0,1.0
./expes/v3_2021-02-05_di_300-prng-1-w1-p2,daily_issda-300,300,first-300,119,39,rng,num-start-81,81,536,classic,1002.4109990596771,False,,False,0,,,0,"Index(['1', '2', '3', '4', '5', '7', '9', '10', '13', '14',
       ...
       '276', '277', '284', '285', '287', '290', '294', '295', '297', '300'],
      dtype='object', length=119)",True,1000,True,2,370884f3da,0.0,0.0
./expes/v3_2021-02-05_di_300-prng-1-w1-p2,daily_issda-300,300,first-300,63,21,rng,num-start-281,281,536,classic,9.47423529624939,True,,True,1.0,1.0,1.0,1,"Index(['7', '8', '15', '16', '19', '22', '33', '34', '50', '54', '64', '67',
       '69', '70', '78', '82', '84', '99', '109', '112', '119', '120', '122',
       '133', '137', '138', '144', '146', '155', '168', '173', '180', '188',
       '190', '198', '199', '200', '203', '204', '209', '216', '219', '224',
       '228', '241', '243', '244', '247', '254', '260', '268', '274', '277',
       '278', '279', '282', '283', '292', '293', '294', '296', '298', '300'],
      dtype='object')",False,1000,True,2,fe099d9c9e,1.0,1.0
./expes/v3_2021-02-05_di_300-prng-1-w1-p2,daily_issda-300,300,first-300,42,14,rng,num-start-241,241,536,classic,9.02679181098938,True,,True,1.0,1.0,1.0,1,"Index(['4', '11', '14', '31', '35', '45', '46', '47', '53', '55', '80', '85',
       '89', '92', '100', '110', '114', '121', '127', '128', '134', '135',
       '140', '142', '144', '149', '154', '156', '159', '173', '185', '191',
       '199', '203', '206', '243', '246', '260', '267', '275', '281', '282'],
      dtype='object')",False,1000,True,2,710bf48371,1.0,1.0
./expes/v3_2021-02-05_di_300-prng-1-w1-p2,daily_issda-300,300,first-300,84,28,rng,num-start-11,11,536,classic,1000.3795340061188,False,,False,0,,,0,"Index(['4', '41', '45', '46', '48', '52', '59', '61', '63', '65', '67', '68',
       '69', '74', '75', '76', '78', '83', '87', '90', '93', '94', '98', '101',
       '102', '103', '104', '105', '106', '111', '113', '121', '122', '123',
       '128', '130', '133', '136', '139', '140', '145', '152', '154', '155',
       '156', '167', '172', '174', '176', '178', '181', '185', '188', '198',
       '202', '204', '205', '208', '209', '214', '224', '230', '235', '241',
       '245', '246', '251', '252', '253', '254', '257', '260', '263', '268',
       '270', '273', '274', '276', '279', '283', '291', '294', '295', '297'],
      dtype='object')",True,1000,True,2,597d93a3cc,0.0,0.0
./expes/v3_2021-02-05_di_300-prng-1-w1-p2,daily_issda-300,300,first-300,112,37,rng,num-start-161,161,536,classic,5.877036094665527,True,,True,1.0,1.0,1.0,1,"Index(['1', '6', '10', '11', '13', '15', '17', '18', '22', '35',
       ...
       '270', '272', '274', '283', '287', '288', '292', '293', '297', '299'],
      dtype='object', length=112)",False,1000,True,2,02aa727dfd,1.0,1.0
./expes/v3_2021-02-05_di_300-prng-1-w1-p2,daily_issda-300,300,first-300,35,11,rng,num-start-181,181,536,classic,6.232822895050049,True,,True,1.0,1.0,1.0,1,"Index(['3', '8', '16', '19', '22', '31', '33', '44', '47', '49', '73', '81',
       '95', '96', '98', '101', '120', '124', '151', '156', '168', '203',
       '226', '229', '232', '238', '239', '244', '256', '261', '263', '266',
       '271', '276', '287'],
      dtype='object')",False,1000,True,2,fd53dacc18,1.0,1.0
./expes/v3_2021-02-05_di_300-prng-1-w1-p2,daily_issda-300,300,first-300,70,23,rng,num-start-81,81,536,classic,1002.2869482040405,False,,False,0,,,0,"Index(['1', '2', '3', '5', '7', '10', '12', '15', '27', '30', '34', '37', '53',
       '58', '65', '68', '72', '75', '81', '82', '85', '86', '91', '94', '95',
       '101', '102', '105', '108', '111', '127', '128', '131', '132', '136',
       '144', '149', '153', '155', '157', '159', '161', '162', '170', '174',
       '182', '184', '185', '188', '191', '193', '195', '197', '200', '207',
       '209', '213', '215', '228', '232', '239', '241', '242', '247', '272',
       '277', '279', '282', '294', '297'],
      dtype='object')",True,1000,True,2,548570c910,0.0,0.0
./expes/v3_2021-02-05_di_300-prng-1-w1-p2,daily_issda-300,300,first-300,98,32,rng,num-start-1,1,536,classic,2.0173563957214355,False,,False,0.33813170541171655,0.33055206691105776,0.34571134391237535,2,"Index(['1', '4', '6', '10', '14', '15', '16', '17', '19', '23', '27', '31',
       '32', '39', '40', '43', '45', '47', '53', '58', '59', '70', '74', '75',
       '84', '86', '88', '92', '94', '97', '99', '103', '105', '107', '108',
       '113', '114', '115', '117', '121', '123', '130', '134', '138', '141',
       '142', '145', '159', '161', '172', '173', '174', '177', '180', '183',
       '186', '187', '189', '191', '192', '196', '197', '198', '199', '206',
       '208', '215', '217', '219', '221', '222', '226', '228', '234', '236',
       '238', '241', '243', '244', '245', '247', '248', '256', '257', '260',
       '261', '262', '263', '264', '266', '271', '277', '278', '282', '285',
       '286', '294', '296'],
      dtype='object')",False,1000,True,2,97363e1255,1.0,1.0
./expes/v3_2021-02-05_di_300-prng-1-w1-p2,daily_issda-300,300,first-300,14,4,rng,num-start-71,71,536,classic,2.488093137741089,True,,True,1.0,1.0,1.0,1,"Index(['1', '12', '19', '42', '75', '102', '134', '140', '164', '192', '241',
       '249', '251', '294'],
      dtype='object')",False,1000,True,2,a3eb66b235,1.0,1.0
./expes/v3_2021-02-05_di_300-prng-1-w1-p2,daily_issda-300,300,first-300,28,9,rng,num-start-81,81,536,classic,3.4519824981689453,True,,True,1.0,1.0,1.0,1,"Index(['14', '32', '57', '64', '71', '72', '78', '90', '101', '108', '128',
       '130', '143', '149', '156', '163', '170', '188', '197', '206', '213',
       '215', '257', '268', '273', '277', '283', '287'],
      dtype='object')",False,1000,True,2,54832149ed,1.0,1.0
./expes/v3_2021-02-05_di_300-prng-1-w1-p2,daily_issda-300,300,first-300,112,37,rng,num-start-141,141,536,classic,5.261735200881958,True,,True,1.0,1.0,1.0,1,"Index(['1', '4', '7', '9', '10', '12', '15', '16', '19', '24',
       ...
       '271', '276', '277', '284', '286', '287', '289', '292', '294', '295'],
      dtype='object', length=112)",False,1000,True,2,8a856b1b6d,1.0,1.0
./expes/v3_2021-02-05_di_300-prng-1-w1-p2,daily_issda-300,300,first-300,42,14,rng,num-start-171,171,536,classic,5.846735000610352,True,,True,1.0,1.0,1.0,1,"Index(['3', '8', '16', '19', '22', '31', '33', '43', '44', '47', '49', '73',
       '81', '95', '96', '98', '101', '120', '124', '131', '143', '151', '156',
       '162', '168', '203', '209', '226', '229', '232', '235', '238', '239',
       '244', '256', '261', '263', '266', '271', '276', '283', '287'],
      dtype='object')",False,1000,True,2,6e958bf93a,1.0,1.0
./expes/v3_2021-02-05_di_300-prng-1-w1-p2,daily_issda-300,300,first-300,77,25,rng,num-start-91,91,536,classic,27.26241683959961,True,,True,1.0,1.0,1.0,1,"Index(['1', '8', '17', '21', '32', '33', '36', '38', '42', '46', '47', '48',
       '49', '51', '52', '56', '64', '67', '72', '73', '76', '77', '95', '96',
       '97', '98', '105', '112', '114', '123', '124', '125', '129', '133',
       '134', '145', '148', '149', '150', '155', '156', '159', '162', '163',
       '164', '167', '170', '171', '182', '184', '198', '205', '208', '216',
       '223', '227', '228', '230', '242', '244', '245', '249', '251', '253',
       '259', '261', '262', '267', '273', '277', '279', '281', '283', '287',
       '291', '295', '299'],
      dtype='object')",False,1000,True,2,480d8eb39c,1.0,1.0
./expes/v3_2021-02-05_di_300-prng-1-w1-p2,daily_issda-300,300,first-300,63,21,rng,num-start-71,71,536,classic,1002.0712897777557,False,,False,0,,,0,"Index(['2', '5', '12', '14', '15', '16', '18', '33', '49', '52', '53', '61',
       '62', '69', '89', '96', '98', '108', '111', '113', '114', '118', '119',
       '120', '125', '131', '137', '146', '149', '152', '156', '163', '171',
       '177', '188', '192', '195', '196', '200', '202', '207', '213', '214',
       '217', '222', '225', '229', '231', '236', '242', '246', '250', '254',
       '256', '257', '259', '260', '271', '278', '281', '284', '285', '292'],
      dtype='object')",True,1000,True,2,956ae8d95f,0.0,0.0
./expes/v3_2021-02-05_di_300-prng-1-w1-p2,daily_issda-300,300,first-300,105,35,rng,num-start-191,191,536,classic,6.627955198287964,True,,True,1.0,1.0,1.0,1,"Index(['4', '5', '10', '11', '14', '22', '23', '24', '31', '32',
       ...
       '266', '267', '274', '275', '281', '282', '286', '293', '294', '299'],
      dtype='object', length=105)",False,1000,True,2,b44aaf0a8a,1.0,1.0
./expes/v3_2021-02-05_di_300-prng-1-w1-p2,daily_issda-300,300,first-300,98,32,rng,num-start-1,1,536,classic,1.9478676319122314,False,,False,0.3182164569706244,0.3108582236144247,0.32557469032682407,2,"Index(['1', '2', '3', '4', '5', '9', '10', '13', '14', '18', '21', '22', '23',
       '27', '28', '29', '33', '36', '42', '43', '44', '45', '46', '48', '53',
       '57', '58', '63', '68', '69', '71', '72', '75', '77', '81', '83', '87',
       '89', '96', '99', '102', '103', '104', '105', '108', '110', '114',
       '115', '122', '137', '138', '139', '144', '146', '150', '158', '167',
       '169', '170', '172', '174', '175', '178', '188', '192', '194', '195',
       '196', '197', '204', '206', '207', '211', '216', '217', '218', '222',
       '228', '232', '238', '252', '255', '257', '258', '259', '260', '265',
       '268', '276', '277', '284', '285', '287', '290', '294', '295', '297',
       '300'],
      dtype='object')",False,1000,True,2,d0361c440d,1.0,1.0
./expes/v3_2021-02-05_di_300-prng-1-w1-p2,daily_issda-300,300,first-300,112,37,rng,num-start-201,201,536,classic,7.10596227645874,True,,True,1.0,1.0,1.0,1,"Index(['2', '3', '8', '17', '18', '19', '23', '26', '33', '34',
       ...
       '276', '278', '279', '282', '287', '291', '293', '296', '299', '300'],
      dtype='object', length=112)",False,1000,True,2,642d7ab7e1,1.0,1.0
./expes/v3_2021-02-05_di_300-prng-1-w1-p2,daily_issda-300,300,first-300,119,39,rng,num-start-271,271,536,classic,9.378806829452515,True,,True,1.0,1.0,1.0,1,"Index(['3', '4', '5', '6', '7', '8', '11', '12', '15', '16',
       ...
       '262', '265', '268', '270', '277', '278', '289', '294', '297', '299'],
      dtype='object', length=119)",False,1000,True,2,5ca103dbc8,1.0,1.0
./expes/v3_2021-02-05_di_300-prng-1-w1-p2,daily_issda-300,300,first-300,140,46,rng,num-start-181,181,536,classic,6.589490175247192,True,,True,1.0,1.0,1.0,1,"Index(['3', '4', '5', '6', '7', '8', '11', '12', '15', '16',
       ...
       '270', '273', '274', '277', '278', '284', '289', '294', '297', '299'],
      dtype='object', length=140)",False,1000,True,2,4791d1e5ab,1.0,1.0
./expes/v3_2021-02-05_di_300-prng-1-w1-p2,daily_issda-300,300,first-300,91,30,rng,num-start-191,191,536,classic,7.173080205917358,True,,True,1.0,1.0,1.0,1,"Index(['1', '7', '9', '10', '12', '15', '19', '24', '28', '40', '42', '44',
       '46', '48', '49', '50', '60', '62', '64', '65', '71', '75', '87', '89',
       '95', '97', '99', '100', '101', '102', '103', '108', '115', '126',
       '129', '131', '132', '134', '136', '137', '138', '140', '149', '150',
       '156', '157', '160', '164', '169', '171', '172', '183', '185', '186',
       '192', '194', '195', '200', '204', '210', '211', '212', '216', '217',
       '218', '219', '221', '226', '228', '229', '232', '241', '242', '248',
       '249', '250', '251', '257', '258', '264', '265', '268', '269', '271',
       '276', '277', '284', '286', '289', '294', '295'],
      dtype='object')",False,1000,True,2,65572f6922,1.0,1.0
./expes/v3_2021-02-05_di_300-prng-1-w1-p2,daily_issda-300,300,first-300,140,46,rng,num-start-111,111,536,classic,9.709303379058838,True,,True,1.0,1.0,1.0,1,"Index(['1', '2', '3', '4', '5', '7', '8', '9', '10', '13',
       ...
       '277', '284', '285', '287', '288', '290', '294', '295', '297', '300'],
      dtype='object', length=140)",False,1000,True,2,4d639df9d9,1.0,1.0
./expes/v3_2021-02-05_di_300-prng-1-w1-p2,daily_issda-300,300,first-300,91,30,rng,num-start-71,71,536,classic,1002.0858056545258,False,,False,0,,,0,"Index(['3', '5', '10', '11', '14', '26', '27', '28', '30', '32', '33', '36',
       '39', '42', '48', '49', '57', '60', '64', '67', '71', '72', '73', '78',
       '83', '88', '90', '94', '99', '101', '102', '108', '109', '110', '123',
       '128', '129', '130', '133', '137', '140', '142', '143', '149', '156',
       '157', '158', '159', '162', '163', '164', '170', '171', '172', '173',
       '179', '182', '185', '188', '191', '192', '197', '201', '206', '207',
       '208', '210', '213', '215', '222', '240', '243', '245', '249', '257',
       '260', '268', '269', '270', '273', '275', '277', '283', '284', '285',
       '286', '287', '289', '293', '295', '297'],
      dtype='object')",True,1000,True,2,02554e0ef2,0.0,0.0
./expes/v3_2021-02-05_di_300-prng-1-w1-p2,daily_issda-300,300,first-300,91,30,rng,num-start-231,231,536,classic,8.516350984573364,True,,True,1.0,1.0,1.0,1,"Index(['12', '20', '21', '24', '25', '26', '30', '31', '32', '33', '34', '36',
       '38', '40', '42', '45', '47', '48', '49', '50', '53', '61', '64', '69',
       '74', '78', '85', '93', '97', '106', '110', '114', '115', '124', '125',
       '128', '139', '146', '148', '149', '154', '158', '159', '161', '166',
       '175', '176', '178', '180', '182', '186', '188', '191', '198', '203',
       '204', '215', '216', '218', '219', '223', '229', '230', '233', '234',
       '237', '239', '243', '251', '254', '255', '260', '263', '269', '273',
       '275', '277', '281', '283', '286', '287', '289', '290', '293', '294',
       '295', '296', '297', '298', '299', '300'],
      dtype='object')",False,1000,True,2,f5bb58acb5,1.0,1.0
./expes/v3_2021-02-05_di_300-prng-1-w1-p2,daily_issda-300,300,first-300,49,16,rng,num-start-111,111,536,classic,4.09255576133728,True,,True,1.0,1.0,1.0,1,"Index(['3', '4', '6', '11', '12', '15', '23', '43', '45', '73', '79', '80',
       '89', '113', '114', '115', '117', '121', '122', '130', '133', '145',
       '146', '151', '152', '155', '156', '159', '163', '172', '179', '186',
       '192', '210', '214', '216', '217', '229', '234', '236', '238', '241',
       '247', '251', '254', '265', '268', '289', '297'],
      dtype='object')",False,1000,True,2,acb9cacaca,1.0,1.0
./expes/v3_2021-02-05_di_300-prng-1-w1-p2,daily_issda-300,300,first-300,140,46,rng,num-start-41,41,536,classic,1001.238630771637,False,,False,0,,,0,"Index(['1', '3', '7', '12', '14', '20', '21', '24', '25', '26',
       ...
       '290', '291', '293', '294', '295', '296', '297', '298', '299', '300'],
      dtype='object', length=140)",True,1000,True,2,800ffa56cb,0.0,0.0
./expes/v3_2021-02-05_di_300-prng-1-w1-p2,daily_issda-300,300,first-300,56,18,rng,num-start-291,291,536,classic,9.719321489334106,True,,True,1.0,1.0,1.0,1,"Index(['1', '2', '3', '7', '12', '15', '27', '34', '37', '53', '58', '65',
       '68', '72', '75', '81', '82', '85', '86', '94', '101', '102', '105',
       '108', '111', '127', '128', '131', '136', '144', '149', '153', '155',
       '157', '159', '161', '162', '170', '174', '182', '184', '185', '191',
       '195', '197', '200', '209', '213', '228', '239', '241', '247', '272',
       '277', '279', '294'],
      dtype='object')",False,1000,True,2,3f57b7e7bb,1.0,1.0
./expes/v3_2021-02-05_di_300-prng-1-w1-p2,daily_issda-300,300,first-300,21,7,rng,num-start-101,101,536,classic,3.394423484802246,True,,True,1.0,1.0,1.0,1,"Index(['4', '21', '27', '42', '57', '68', '71', '81', '87', '96', '122', '137',
       '172', '174', '192', '195', '217', '232', '238', '258', '284'],
      dtype='object')",False,1000,True,2,582c6cefce,1.0,1.0
./expes/v3_2021-02-05_di_300-prng-1-w1-p2,daily_issda-300,300,first-300,140,46,rng,num-start-221,221,536,classic,7.590451955795288,True,,True,1.0,1.0,1.0,1,"Index(['2', '3', '8', '16', '17', '18', '19', '20', '22', '23',
       ...
       '284', '285', '287', '289', '290', '292', '296', '298', '299', '300'],
      dtype='object', length=140)",False,1000,True,2,6a8fef2e31,1.0,1.0
./expes/v3_2021-02-05_di_300-prng-1-w1-p2,daily_issda-300,300,first-300,105,35,rng,num-start-181,181,536,classic,6.554311990737915,True,,True,1.0,1.0,1.0,1,"Index(['1', '2', '3', '5', '7', '12', '14', '15', '16', '18',
       ...
       '276', '277', '278', '281', '284', '285', '288', '292', '296', '297'],
      dtype='object', length=105)",False,1000,True,2,5d6264f8ea,1.0,1.0
./expes/v3_2021-02-05_di_300-prng-1-w1-p2,daily_issda-300,300,first-300,140,46,rng,num-start-261,261,536,classic,9.712278127670288,True,,True,1.0,1.0,1.0,1,"Index(['1', '2', '4', '5', '6', '10', '13', '14', '15', '16',
       ...
       '278', '280', '282', '285', '286', '287', '292', '294', '296', '298'],
      dtype='object', length=140)",False,1000,True,2,7bdd1cc421,1.0,1.0
./expes/v3_2021-02-05_di_300-prng-1-w1-p2,daily_issda-300,300,first-300,28,9,rng,num-start-291,291,536,classic,9.548816919326782,True,,True,1.0,1.0,1.0,1,"Index(['6', '9', '19', '29', '60', '76', '81', '106', '107', '115', '118',
       '119', '123', '135', '144', '157', '161', '174', '177', '182', '183',
       '189', '201', '216', '239', '262', '267', '296'],
      dtype='object')",False,1000,True,2,bbef49b7aa,1.0,1.0
./expes/v3_2021-02-05_di_300-prng-1-w1-p2,daily_issda-300,300,first-300,119,39,rng,num-start-251,251,536,classic,8.219542026519775,True,,True,1.0,1.0,1.0,1,"Index(['1', '3', '5', '11', '13', '15', '16', '17', '19', '21',
       ...
       '270', '272', '279', '283', '286', '287', '288', '291', '295', '298'],
      dtype='object', length=119)",False,1000,True,2,71e4132585,1.0,1.0
./expes/v3_2021-02-05_di_300-prng-1-w1-p2,daily_issda-300,300,first-300,84,28,rng,num-start-131,131,536,classic,4.78665018081665,True,,True,1.0,1.0,1.0,1,"Index(['2', '4', '9', '12', '14', '23', '24', '35', '37', '38', '40', '47',
       '51', '52', '54', '56', '59', '62', '66', '69', '71', '76', '82', '88',
       '94', '99', '103', '104', '107', '108', '120', '126', '134', '135',
       '138', '146', '149', '151', '154', '155', '158', '160', '167', '168',
       '178', '189', '193', '199', '200', '202', '203', '207', '209', '211',
       '213', '216', '217', '220', '225', '226', '231', '232', '233', '234',
       '235', '237', '238', '239', '244', '246', '253', '257', '258', '262',
       '267', '271', '278', '280', '281', '292', '293', '296', '297', '300'],
      dtype='object')",False,1000,True,2,6a32c1a86c,1.0,1.0
./expes/v3_2021-02-05_di_300-prng-1-w1-p2,daily_issda-300,300,first-300,77,25,rng,num-start-271,271,536,classic,9.25493574142456,True,,True,1.0,1.0,1.0,1,"Index(['3', '5', '10', '14', '26', '27', '28', '30', '32', '33', '36', '42',
       '49', '57', '60', '64', '67', '71', '72', '73', '78', '88', '90', '99',
       '101', '102', '108', '110', '123', '128', '129', '130', '133', '137',
       '140', '142', '143', '149', '156', '158', '159', '163', '164', '170',
       '171', '172', '173', '179', '182', '185', '188', '191', '192', '197',
       '206', '208', '210', '213', '215', '222', '240', '243', '245', '257',
       '260', '268', '270', '273', '277', '283', '284', '285', '286', '287',
       '293', '295', '297'],
      dtype='object')",False,1000,True,2,782ffc2ff3,1.0,1.0
./expes/v3_2021-02-05_di_300-prng-1-w1-p2,daily_issda-300,300,first-300,98,32,rng,num-start-201,201,536,classic,7.656954765319824,True,,True,1.0,1.0,1.0,1,"Index(['5', '6', '8', '9', '10', '19', '22', '23', '25', '29', '31', '32',
       '33', '34', '38', '41', '42', '44', '48', '52', '60', '72', '73', '76',
       '78', '81', '82', '85', '89', '92', '101', '106', '107', '115', '118',
       '119', '121', '123', '131', '134', '135', '140', '144', '147', '148',
       '152', '157', '159', '160', '161', '162', '163', '171', '173', '174',
       '177', '182', '183', '185', '189', '193', '195', '199', '200', '201',
       '203', '206', '208', '215', '216', '223', '225', '227', '230', '231',
       '234', '237', '239', '240', '243', '244', '247', '251', '252', '253',
       '254', '256', '257', '258', '262', '267', '272', '274', '279', '285',
       '290', '292', '296'],
      dtype='object')",False,1000,True,2,f92293d7e8,1.0,1.0
./expes/v3_2021-02-05_di_300-prng-1-w1-p2,daily_issda-300,300,first-300,63,21,rng,num-start-191,191,536,classic,7.083981037139893,True,,True,1.0,1.0,1.0,1,"Index(['13', '15', '19', '29', '44', '47', '70', '82', '83', '85', '86', '87',
       '89', '91', '94', '109', '114', '119', '121', '128', '129', '138',
       '143', '156', '158', '159', '164', '167', '180', '182', '185', '186',
       '187', '191', '195', '202', '205', '213', '217', '221', '228', '229',
       '233', '234', '237', '239', '246', '250', '251', '256', '257', '258',
       '261', '262', '264', '269', '270', '272', '279', '286', '287', '291',
       '298'],
      dtype='object')",False,1000,True,2,eda6efb2d9,1.0,1.0
./expes/v3_2021-02-05_di_300-prng-1-w1-p2,daily_issda-300,300,first-300,119,39,rng,num-start-101,101,536,classic,1003.0214612483978,False,,False,0,,,0,"Index(['1', '6', '10', '11', '13', '15', '17', '18', '22', '35',
       ...
       '274', '280', '283', '284', '287', '288', '292', '293', '297', '299'],
      dtype='object', length=119)",True,1000,True,2,24acaeadc7,0.0,0.0
./expes/v3_2021-02-05_di_300-prng-1-w1-p2,daily_issda-300,300,first-300,49,16,rng,num-start-101,101,536,classic,3.7047557830810547,True,,True,1.0,1.0,1.0,1,"Index(['7', '8', '16', '19', '22', '33', '34', '50', '67', '69', '70', '78',
       '82', '99', '112', '119', '120', '122', '133', '138', '155', '180',
       '188', '190', '198', '199', '200', '203', '204', '209', '216', '219',
       '224', '228', '241', '243', '244', '254', '260', '268', '274', '277',
       '279', '282', '283', '294', '296', '298', '300'],
      dtype='object')",False,1000,True,2,5fd3a6dcd6,1.0,1.0
./expes/v3_2021-02-05_di_300-prng-1-w1-p2,daily_issda-300,300,first-300,84,28,rng,num-start-161,161,536,classic,5.888495206832886,True,,True,1.0,1.0,1.0,1,"Index(['4', '11', '14', '23', '24', '31', '32', '35', '42', '45', '46', '47',
       '52', '53', '55', '63', '75', '80', '83', '85', '89', '91', '92', '95',
       '100', '101', '102', '104', '110', '114', '118', '120', '121', '122',
       '127', '128', '133', '134', '135', '140', '142', '143', '144', '148',
       '149', '150', '154', '156', '157', '159', '160', '165', '166', '170',
       '173', '176', '183', '185', '191', '199', '203', '206', '212', '217',
       '221', '224', '226', '232', '236', '237', '242', '243', '246', '260',
       '261', '266', '267', '274', '275', '281', '282', '286', '294', '299'],
      dtype='object')",False,1000,True,2,87532e92e6,1.0,1.0
./expes/v3_2021-02-05_di_300-prng-1-w1-p2,daily_issda-300,300,first-300,56,18,rng,num-start-231,231,536,classic,7.766992807388306,True,,True,1.0,1.0,1.0,1,"Index(['20', '24', '25', '26', '30', '31', '32', '33', '36', '38', '45', '47',
       '49', '50', '53', '61', '64', '69', '74', '78', '93', '97', '106',
       '110', '114', '115', '124', '149', '158', '161', '166', '188', '191',
       '203', '204', '215', '218', '219', '223', '239', '255', '260', '273',
       '275', '277', '281', '283', '286', '287', '289', '290', '293', '296',
       '298', '299', '300'],
      dtype='object')",False,1000,True,2,26d4b780f9,1.0,1.0
./expes/v3_2021-02-05_di_300-prng-1-w1-p2,daily_issda-300,300,first-300,98,32,rng,num-start-291,291,536,classic,10.30817461013794,True,,True,1.0,1.0,1.0,1,"Index(['3', '8', '17', '18', '19', '23', '33', '34', '37', '39', '41', '42',
       '50', '58', '62', '69', '72', '74', '77', '81', '82', '83', '85', '86',
       '90', '91', '92', '98', '100', '106', '115', '121', '123', '124', '125',
       '126', '128', '135', '137', '140', '141', '143', '146', '155', '156',
       '161', '164', '167', '168', '170', '178', '179', '182', '185', '186',
       '188', '192', '193', '196', '197', '200', '206', '208', '212', '213',
       '216', '220', '222', '223', '224', '226', '227', '229', '230', '231',
       '234', '237', '241', '246', '248', '251', '252', '254', '255', '256',
       '257', '267', '268', '269', '274', '275', '279', '282', '291', '293',
       '296', '299', '300'],
      dtype='object')",False,1000,True,2,43c5a897f7,1.0,1.0
./expes/v3_2021-02-05_di_300-prng-1-w1-p2,daily_issda-300,300,first-300,105,35,rng,num-start-141,141,536,classic,12.404375076293945,True,,True,1.0,1.0,1.0,1,"Index(['1', '4', '5', '6', '10', '14', '15', '16', '17', '19',
       ...
       '264', '266', '271', '277', '278', '282', '285', '286', '294', '296'],
      dtype='object', length=105)",False,1000,True,2,ca295fd244,1.0,1.0
./expes/v3_2021-02-05_di_300-prng-1-w1-p2,daily_issda-300,300,first-300,49,16,rng,num-start-211,211,536,classic,7.115337133407593,True,,True,1.0,1.0,1.0,1,"Index(['4', '11', '14', '31', '35', '45', '46', '47', '53', '55', '80', '85',
       '89', '92', '100', '110', '114', '121', '127', '128', '134', '135',
       '140', '142', '144', '148', '149', '150', '154', '156', '159', '160',
       '173', '185', '191', '199', '203', '206', '212', '217', '243', '246',
       '260', '261', '267', '275', '281', '282', '294'],
      dtype='object')",False,1000,True,2,eda78d66e0,1.0,1.0
./expes/v3_2021-02-05_di_300-prng-1-w1-p2,daily_issda-300,300,first-300,140,46,rng,num-start-91,91,536,classic,1002.7422904968262,False,,False,0,,,0,"Index(['1', '2', '3', '5', '7', '8', '9', '12', '13', '14',
       ...
       '281', '282', '283', '284', '285', '288', '292', '296', '297', '300'],
      dtype='object', length=140)",True,1000,True,2,e65d18a3fc,0.0,0.0
./expes/v3_2021-02-05_di_300-prng-1-w1-p2,daily_issda-300,300,first-300,56,18,rng,num-start-181,181,536,classic,6.3817620277404785,True,,True,1.0,1.0,1.0,1,"Index(['6', '9', '10', '19', '25', '29', '34', '38', '41', '52', '60', '72',
       '76', '78', '81', '89', '101', '106', '107', '115', '118', '119', '123',
       '135', '144', '147', '157', '161', '162', '174', '177', '182', '183',
       '185', '189', '201', '203', '208', '215', '216', '225', '231', '234',
       '237', '239', '240', '251', '252', '254', '262', '267', '272', '274',
       '290', '292', '296'],
      dtype='object')",False,1000,True,2,4da19a36ba,1.0,1.0
./expes/v3_2021-02-05_di_300-prng-1-w1-p2,daily_issda-300,300,first-300,42,14,rng,num-start-211,211,536,classic,6.974979877471924,True,,True,1.0,1.0,1.0,1,"Index(['4', '11', '14', '31', '35', '45', '46', '47', '53', '55', '80', '85',
       '89', '92', '100', '110', '114', '121', '127', '128', '134', '135',
       '140', '142', '144', '149', '154', '156', '159', '173', '185', '191',
       '199', '203', '206', '243', '246', '260', '267', '275', '281', '282'],
      dtype='object')",False,1000,True,2,69cd547fd9,1.0,1.0
./expes/v3_2021-02-05_di_300-prng-1-w1-p2,daily_issda-300,300,first-300,112,37,rng,num-start-91,91,536,classic,1002.637725353241,False,,False,0,,,0,"Index(['1', '3', '5', '11', '13', '15', '16', '17', '19', '21',
       ...
       '270', '272', '279', '283', '286', '287', '288', '291', '295', '298'],
      dtype='object', length=112)",True,1000,True,2,805314c49a,0.0,0.0
./expes/v3_2021-02-05_di_300-prng-1-w1-p2,daily_issda-300,300,first-300,35,11,rng,num-start-261,261,536,classic,8.72081470489502,True,,True,1.0,1.0,1.0,1,"Index(['4', '61', '63', '87', '90', '93', '94', '101', '102', '103', '104',
       '111', '113', '121', '122', '123', '130', '136', '152', '154', '167',
       '172', '176', '178', '188', '208', '230', '235', '246', '251', '253',
       '260', '268', '276', '295'],
      dtype='object')",False,1000,True,2,4e51b4455f,1.0,1.0
./expes/v3_2021-02-05_di_300-prng-1-w1-p2,daily_issda-300,300,first-300,35,11,rng,num-start-1,1,536,classic,2.063136100769043,False,,False,0.5595684694411991,0.5595684694411991,0.5595684694411991,2,"Index(['9', '12', '23', '37', '38', '51', '56', '59', '62', '76', '103', '104',
       '134', '138', '149', '154', '160', '167', '168', '178', '199', '202',
       '203', '211', '213', '217', '226', '234', '262', '267', '271', '278',
       '292', '297', '300'],
      dtype='object')",False,1000,True,2,72d52e66e7,1.0,1.0
./expes/v3_2021-02-05_di_300-prng-1-w1-p2,daily_issda-300,300,first-300,14,4,rng,num-start-271,271,536,classic,8.446728229522705,True,,True,1.0,1.0,1.0,1,"Index(['14', '57', '90', '128', '130', '143', '149', '156', '188', '197',
       '213', '215', '268', '277'],
      dtype='object')",False,1000,True,2,c998a21202,1.0,1.0
./expes/v3_2021-02-05_di_300-prng-1-w1-p2,daily_issda-300,300,first-300,91,30,rng,num-start-141,141,536,classic,5.453812122344971,True,,True,1.0,1.0,1.0,1,"Index(['3', '4', '5', '6', '7', '8', '11', '12', '15', '17', '23', '24', '25',
       '34', '37', '41', '43', '45', '48', '52', '54', '59', '60', '63', '73',
       '74', '76', '79', '80', '85', '89', '92', '113', '114', '115', '117',
       '119', '121', '122', '123', '125', '126', '130', '131', '133', '138',
       '145', '146', '151', '152', '155', '156', '159', '163', '164', '172',
       '179', '186', '190', '192', '199', '202', '205', '208', '210', '214',
       '216', '217', '228', '229', '233', '234', '236', '238', '241', '244',
       '245', '247', '251', '252', '254', '256', '262', '265', '268', '270',
       '277', '278', '289', '297', '299'],
      dtype='object')",False,1000,True,2,aa513f84c8,1.0,1.0
./expes/v3_2021-02-05_di_300-prng-1-w1-p2,daily_issda-300,300,first-300,77,25,rng,num-start-111,111,536,classic,8.478305339813232,True,,True,1.0,1.0,1.0,1,"Index(['5', '13', '15', '19', '29', '39', '44', '47', '55', '70', '82', '83',
       '85', '86', '87', '89', '91', '94', '98', '107', '109', '114', '119',
       '121', '128', '129', '138', '143', '156', '158', '159', '160', '164',
       '167', '175', '180', '182', '185', '186', '187', '188', '191', '195',
       '202', '205', '209', '213', '217', '221', '228', '229', '233', '234',
       '237', '239', '246', '250', '251', '256', '257', '258', '259', '260',
       '261', '262', '263', '264', '266', '269', '270', '272', '279', '286',
       '287', '288', '291', '298'],
      dtype='object')",False,1000,True,2,0fd8f46a77,1.0,1.0
./expes/v3_2021-02-05_di_300-prng-1-w1-p2,daily_issda-300,300,first-300,63,21,rng,num-start-201,201,536,classic,6.852689266204834,True,,True,1.0,1.0,1.0,1,"Index(['3', '4', '6', '7', '8', '11', '12', '15', '23', '34', '41', '43', '45',
       '63', '73', '74', '79', '80', '85', '89', '113', '114', '115', '117',
       '119', '121', '122', '130', '133', '145', '146', '151', '152', '155',
       '156', '159', '163', '172', '179', '186', '192', '208', '210', '214',
       '216', '217', '228', '229', '233', '234', '236', '238', '241', '244',
       '247', '251', '252', '254', '256', '265', '268', '289', '297'],
      dtype='object')",False,1000,True,2,7a9ee1f7ac,1.0,1.0
./expes/v3_2021-02-05_di_300-prng-1-w1-p2,daily_issda-300,300,first-300,140,46,rng,num-start-71,71,536,classic,1002.0794506072998,False,,False,0,,,0,"Index(['1', '3', '5', '6', '8', '9', '10', '11', '16', '18',
       ...
       '283', '284', '287', '289', '290', '293', '295', '296', '299', '300'],
      dtype='object', length=140)",True,1000,True,2,946c39ddda,0.0,0.0
./expes/v3_2021-02-05_di_300-prng-1-w1-p2,daily_issda-300,300,first-300,98,32,rng,num-start-61,61,536,classic,1001.7168781757355,False,,False,0,,,0,"Index(['2', '3', '5', '7', '12', '14', '15', '16', '18', '23', '29', '33',
       '45', '49', '52', '53', '56', '61', '62', '67', '69', '84', '87', '88',
       '89', '96', '98', '103', '106', '108', '111', '113', '114', '117',
       '118', '119', '120', '125', '131', '137', '138', '146', '149', '152',
       '156', '158', '163', '171', '177', '181', '187', '188', '190', '192',
       '195', '196', '197', '200', '202', '207', '208', '212', '213', '214',
       '217', '219', '222', '225', '229', '231', '236', '241', '242', '246',
       '247', '250', '251', '254', '256', '257', '258', '259', '260', '261',
       '263', '264', '266', '267', '271', '277', '278', '281', '284', '285',
       '288', '292', '296', '297'],
      dtype='object')",True,1000,True,2,5329aa9907,0.0,0.0
./expes/v3_2021-02-05_di_300-prng-1-w1-p2,daily_issda-300,300,first-300,133,44,rng,num-start-121,121,536,classic,8.348631143569946,True,,True,1.0,1.0,1.0,1,"Index(['4', '5', '10', '11', '14', '17', '19', '21', '22', '23',
       ...
       '271', '274', '275', '280', '281', '282', '286', '293', '294', '299'],
      dtype='object', length=133)",False,1000,True,2,b3c5cee87e,1.0,1.0
./expes/v3_2021-02-05_di_300-prng-1-w1-p2,daily_issda-300,300,first-300,112,37,rng,num-start-61,61,536,classic,1001.8674433231354,False,,False,0,,,0,"Index(['2', '3', '8', '16', '17', '19', '20', '22', '23', '36',
       ...
       '282', '284', '285', '287', '289', '290', '292', '296', '298', '299'],
      dtype='object', length=112)",True,1000,True,2,405d106ffe,0.0,0.0
./expes/v3_2021-02-05_di_300-prng-1-w1-p2,daily_issda-300,300,first-300,49,16,rng,num-start-81,81,536,classic,17.607379913330078,True,,True,1.0,1.0,1.0,1,"Index(['9', '12', '23', '37', '38', '51', '54', '56', '59', '62', '69', '71',
       '76', '82', '99', '103', '104', '107', '120', '134', '138', '149',
       '154', '160', '167', '168', '178', '199', '200', '202', '203', '209',
       '211', '213', '217', '226', '234', '253', '258', '262', '267', '271',
       '278', '280', '292', '293', '296', '297', '300'],
      dtype='object')",False,1000,True,2,c088b92787,1.0,1.0
./expes/v3_2021-02-05_di_300-prng-1-w1-p2,daily_issda-300,300,first-300,133,44,rng,num-start-71,71,536,classic,1002.1113851070404,False,,False,0,,,0,"Index(['3', '7', '12', '20', '21', '24', '25', '26', '28', '30',
       ...
       '289', '290', '293', '294', '295', '296', '297', '298', '299', '300'],
      dtype='object', length=133)",True,1000,True,2,5eab5b9360,0.0,0.0
./expes/v3_2021-02-05_di_300-prng-1-w1-p2,daily_issda-300,300,first-300,56,18,rng,num-start-91,91,536,classic,6.110272645950317,True,,True,1.0,1.0,1.0,1,"Index(['20', '24', '25', '26', '30', '31', '32', '33', '36', '38', '45', '47',
       '49', '50', '53', '61', '64', '69', '74', '78', '93', '97', '106',
       '110', '114', '115', '124', '149', '158', '161', '166', '188', '191',
       '203', '204', '215', '218', '219', '223', '239', '255', '260', '273',
       '275', '277', '281', '283', '286', '287', '289', '290', '293', '296',
       '298', '299', '300'],
      dtype='object')",False,1000,True,2,d24e7b6b4b,1.0,1.0
./expes/v3_2021-02-05_di_300-prng-1-w1-p2,daily_issda-300,300,first-300,63,21,rng,num-start-191,191,536,classic,6.743039131164551,True,,True,1.0,1.0,1.0,1,"Index(['3', '4', '6', '7', '8', '11', '12', '15', '23', '34', '41', '43', '45',
       '63', '73', '74', '79', '80', '85', '89', '113', '114', '115', '117',
       '119', '121', '122', '130', '133', '145', '146', '151', '152', '155',
       '156', '159', '163', '172', '179', '186', '192', '208', '210', '214',
       '216', '217', '228', '229', '233', '234', '236', '238', '241', '244',
       '247', '251', '252', '254', '256', '265', '268', '289', '297'],
      dtype='object')",False,1000,True,2,8ebffb96bc,1.0,1.0
./expes/v3_2021-02-05_di_300-prng-1-w1-p2,daily_issda-300,300,first-300,98,32,rng,num-start-61,61,536,classic,1002.1055207252502,False,,False,0,,,0,"Index(['3', '8', '17', '18', '19', '23', '33', '34', '37', '39', '41', '42',
       '50', '58', '62', '69', '72', '74', '77', '81', '82', '83', '85', '86',
       '90', '91', '92', '98', '100', '106', '115', '121', '123', '124', '125',
       '126', '128', '135', '137', '140', '141', '143', '146', '155', '156',
       '161', '164', '167', '168', '170', '178', '179', '182', '185', '186',
       '188', '192', '193', '196', '197', '200', '206', '208', '212', '213',
       '216', '220', '222', '223', '224', '226', '227', '229', '230', '231',
       '234', '237', '241', '246', '248', '251', '252', '254', '255', '256',
       '257', '267', '268', '269', '274', '275', '279', '282', '291', '293',
       '296', '299', '300'],
      dtype='object')",True,1000,True,2,a5cfc5edb1,0.0,0.0
./expes/v3_2021-02-05_di_300-prng-1-w1-p2,daily_issda-300,300,first-300,70,23,rng,num-start-181,181,536,classic,6.637638330459595,True,,True,1.0,1.0,1.0,1,"Index(['1', '8', '21', '32', '33', '38', '42', '47', '48', '49', '51', '52',
       '56', '64', '72', '73', '76', '95', '97', '98', '105', '112', '114',
       '123', '124', '125', '129', '133', '134', '145', '148', '149', '150',
       '155', '156', '159', '162', '163', '164', '167', '170', '171', '182',
       '184', '198', '205', '208', '216', '223', '227', '228', '230', '242',
       '245', '249', '251', '253', '259', '261', '262', '267', '273', '277',
       '279', '281', '283', '287', '291', '295', '299'],
      dtype='object')",False,1000,True,2,cfebd27661,1.0,1.0
./expes/v3_2021-02-05_di_300-prng-1-w1-p2,daily_issda-300,300,first-300,98,32,rng,num-start-1,1,536,classic,1.8577239513397217,False,,False,0.36913845838339204,0.36648773284004954,0.37178918392673455,2,"Index(['7', '11', '14', '16', '18', '20', '23', '30', '33', '37', '44', '45',
       '46', '50', '56', '59', '60', '65', '70', '71', '72', '73', '76', '77',
       '82', '83', '86', '88', '90', '99', '100', '102', '104', '107', '108',
       '113', '117', '119', '120', '121', '125', '127', '131', '133', '137',
       '146', '147', '152', '153', '154', '159', '161', '174', '176', '177',
       '183', '190', '193', '194', '195', '198', '200', '203', '206', '207',
       '209', '210', '214', '217', '219', '224', '228', '229', '233', '234',
       '236', '243', '249', '250', '251', '254', '255', '258', '260', '262',
       '265', '267', '271', '273', '277', '280', '286', '289', '292', '294',
       '297', '298', '300'],
      dtype='object')",False,1000,True,2,a844672472,1.0,1.0
./expes/v3_2021-02-05_di_300-prng-1-w1-p2,daily_issda-300,300,first-300,7,2,rng,num-start-161,161,536,classic,5.558765172958374,True,,True,1.0,1.0,1.0,1,"Index(['23', '44', '65', '99', '117', '190', '193'], dtype='object')",False,1000,True,2,287d438bf8,1.0,1.0
./expes/v3_2021-02-05_di_300-prng-1-w1-p2,daily_issda-300,300,first-300,56,18,rng,num-start-171,171,536,classic,6.321238040924072,True,,True,1.0,1.0,1.0,1,"Index(['4', '11', '14', '23', '31', '35', '45', '46', '47', '53', '55', '80',
       '83', '85', '89', '92', '100', '110', '114', '120', '121', '127', '128',
       '133', '134', '135', '140', '142', '144', '148', '149', '150', '154',
       '156', '157', '159', '160', '173', '185', '191', '199', '203', '206',
       '212', '217', '221', '232', '243', '246', '260', '261', '267', '275',
       '281', '282', '294'],
      dtype='object')",False,1000,True,2,256600d52f,1.0,1.0
./expes/v3_2021-02-05_di_300-prng-1-w1-p2,daily_issda-300,300,first-300,126,42,rng,num-start-1,1,536,classic,2.047870635986328,False,,False,0.296449520224758,0.296449520224758,0.296449520224758,2,"Index(['1', '4', '7', '8', '9', '10', '12', '15', '16', '19',
       ...
       '276', '277', '283', '284', '286', '287', '289', '292', '294', '295'],
      dtype='object', length=126)",False,1000,True,2,a2e2a5a47a,1.0,1.0
./expes/v3_2021-02-05_di_300-prng-1-w1-p2,daily_issda-300,300,first-300,112,37,rng,num-start-81,81,536,classic,1002.3987200260162,False,,False,0,,,0,"Index(['1', '2', '3', '4', '5', '9', '10', '13', '14', '16',
       ...
       '276', '277', '284', '285', '287', '290', '294', '295', '297', '300'],
      dtype='object', length=112)",True,1000,True,2,bebdee919f,0.0,0.0
./expes/v3_2021-02-05_di_300-prng-1-w1-p2,daily_issda-300,300,first-300,84,28,rng,num-start-191,191,536,classic,6.706217288970947,True,,True,1.0,1.0,1.0,1,"Index(['2', '5', '7', '12', '14', '15', '16', '18', '23', '33', '45', '49',
       '52', '53', '56', '61', '62', '69', '84', '87', '88', '89', '96', '98',
       '103', '108', '111', '113', '114', '117', '118', '119', '120', '125',
       '131', '137', '146', '149', '152', '156', '158', '163', '171', '177',
       '188', '190', '192', '195', '196', '200', '202', '207', '208', '213',
       '214', '217', '222', '225', '229', '231', '236', '241', '242', '246',
       '250', '251', '254', '256', '257', '258', '259', '260', '261', '264',
       '267', '271', '277', '278', '281', '284', '285', '292', '296', '297'],
      dtype='object')",False,1000,True,2,989fa89960,1.0,1.0
./expes/v3_2021-02-05_di_300-prng-1-w1-p2,daily_issda-300,300,first-300,35,11,rng,num-start-271,271,536,classic,9.035032272338867,True,,True,1.0,1.0,1.0,1,"Index(['11', '16', '23', '33', '44', '46', '50', '59', '65', '71', '99', '108',
       '117', '120', '127', '133', '137', '190', '193', '194', '195', '198',
       '200', '206', '207', '209', '233', '236', '243', '249', '250', '254',
       '260', '267', '294'],
      dtype='object')",False,1000,True,2,27dee8f890,1.0,1.0
./expes/v3_2021-02-05_di_300-prng-1-w1-p2,daily_issda-300,300,first-300,49,16,rng,num-start-241,241,536,classic,8.315417051315308,True,,True,1.0,1.0,1.0,1,"Index(['7', '8', '16', '19', '22', '33', '34', '50', '67', '69', '70', '78',
       '82', '99', '112', '119', '120', '122', '133', '138', '155', '180',
       '188', '190', '198', '199', '200', '203', '204', '209', '216', '219',
       '224', '228', '241', '243', '244', '254', '260', '268', '274', '277',
       '279', '282', '283', '294', '296', '298', '300'],
      dtype='object')",False,1000,True,2,8b2fe8ec51,1.0,1.0
./expes/v3_2021-02-05_di_300-prng-1-w1-p2,daily_issda-300,300,first-300,14,4,rng,num-start-291,291,536,classic,9.57365083694458,True,,True,1.0,1.0,1.0,1,"Index(['11', '31', '35', '47', '53', '80', '114', '121', '149', '156', '203',
       '206', '246', '282'],
      dtype='object')",False,1000,True,2,8b09eb2101,1.0,1.0
./expes/v3_2021-02-05_di_300-prng-1-w1-p2,daily_issda-300,300,first-300,119,39,rng,num-start-181,181,536,classic,6.676238775253296,True,,True,1.0,1.0,1.0,1,"Index(['3', '4', '5', '6', '7', '8', '11', '12', '15', '16',
       ...
       '262', '265', '268', '270', '277', '278', '289', '294', '297', '299'],
      dtype='object', length=119)",False,1000,True,2,aafa8cb613,1.0,1.0
./expes/v3_2021-02-05_di_300-prng-1-w1-p2,daily_issda-300,300,first-300,126,42,rng,num-start-251,251,536,classic,8.512498617172241,True,,True,1.0,1.0,1.0,1,"Index(['1', '3', '5', '11', '13', '15', '16', '17', '19', '21',
       ...
       '272', '279', '283', '286', '287', '288', '291', '295', '298', '300'],
      dtype='object', length=126)",False,1000,True,2,a08df8eb57,1.0,1.0
./expes/v3_2021-02-05_di_300-prng-1-w1-p2,daily_issda-300,300,first-300,28,9,rng,num-start-11,11,536,classic,1000.4483096599579,False,,False,0,,,0,"Index(['2', '5', '12', '14', '15', '16', '33', '49', '53', '61', '69', '108',
       '111', '118', '131', '137', '163', '195', '196', '200', '222', '229',
       '231', '242', '250', '254', '278', '292'],
      dtype='object')",True,1000,True,2,c3f0f68898,0.0,0.0
./expes/v3_2021-02-05_di_300-prng-1-w1-p2,daily_issda-300,300,first-300,77,25,rng,num-start-271,271,536,classic,9.511956930160522,True,,True,1.0,1.0,1.0,1,"Index(['6', '10', '15', '35', '36', '38', '43', '46', '48', '49', '53', '55',
       '58', '59', '61', '63', '74', '77', '83', '85', '87', '93', '100',
       '105', '112', '115', '121', '127', '131', '132', '134', '135', '137',
       '139', '141', '143', '144', '145', '150', '156', '159', '162', '173',
       '184', '185', '187', '196', '198', '202', '204', '207', '211', '214',
       '218', '224', '225', '226', '231', '232', '234', '236', '239', '243',
       '246', '249', '250', '251', '257', '264', '265', '270', '274', '283',
       '292', '293', '297', '299'],
      dtype='object')",False,1000,True,2,bb4e99d7f4,1.0,1.0
./expes/v3_2021-02-05_di_300-prng-1-w1-p2,daily_issda-300,300,first-300,14,4,rng,num-start-191,191,536,classic,6.464956045150757,True,,True,1.0,1.0,1.0,1,"Index(['6', '9', '19', '29', '60', '76', '81', '107', '123', '174', '183',
       '189', '239', '267'],
      dtype='object')",False,1000,True,2,eac0cf0f2d,1.0,1.0
./expes/v3_2021-02-05_di_300-prng-1-w1-p2,daily_issda-300,300,first-300,119,39,rng,num-start-241,241,536,classic,8.187588691711426,True,,True,1.0,1.0,1.0,1,"Index(['3', '4', '5', '6', '7', '8', '11', '12', '15', '16',
       ...
       '262', '265', '268', '270', '277', '278', '289', '294', '297', '299'],
      dtype='object', length=119)",False,1000,True,2,daabeb24ce,1.0,1.0
./expes/v3_2021-02-05_di_300-prng-1-w1-p2,daily_issda-300,300,first-300,77,25,rng,num-start-11,11,536,classic,1000.3611407279968,False,,False,0,,,0,"Index(['1', '8', '17', '21', '32', '33', '36', '38', '42', '46', '47', '48',
       '49', '51', '52', '56', '64', '67', '72', '73', '76', '77', '95', '96',
       '97', '98', '105', '112', '114', '123', '124', '125', '129', '133',
       '134', '145', '148', '149', '150', '155', '156', '159', '162', '163',
       '164', '167', '170', '171', '182', '184', '198', '205', '208', '216',
       '223', '227', '228', '230', '242', '244', '245', '249', '251', '253',
       '259', '261', '262', '267', '273', '277', '279', '281', '283', '287',
       '291', '295', '299'],
      dtype='object')",True,1000,True,2,b505f2173e,0.0,0.0
./expes/v3_2021-02-05_di_300-prng-1-w1-p2,daily_issda-300,300,first-300,77,25,rng,num-start-41,41,536,classic,1001.2776634693146,False,,False,0,,,0,"Index(['2', '4', '9', '12', '14', '23', '37', '38', '47', '51', '54', '56',
       '59', '62', '66', '69', '71', '76', '82', '88', '94', '99', '103',
       '104', '107', '120', '126', '134', '135', '138', '146', '149', '151',
       '154', '155', '158', '160', '167', '168', '178', '189', '193', '199',
       '200', '202', '203', '207', '209', '211', '213', '217', '220', '225',
       '226', '231', '232', '233', '234', '235', '237', '239', '244', '246',
       '253', '257', '258', '262', '267', '271', '278', '280', '281', '292',
       '293', '296', '297', '300'],
      dtype='object')",True,1000,True,2,d492ea075f,0.0,0.0
./expes/v3_2021-02-05_di_300-prng-1-w1-p2,daily_issda-300,300,first-300,140,46,rng,num-start-281,281,536,classic,9.977139949798584,True,,True,1.0,1.0,1.0,1,"Index(['1', '2', '3', '5', '7', '8', '9', '12', '13', '14',
       ...
       '281', '282', '283', '284', '285', '288', '292', '296', '297', '300'],
      dtype='object', length=140)",False,1000,True,2,d52b734c55,1.0,1.0
./expes/v3_2021-02-05_di_300-prng-1-w1-p2,daily_issda-300,300,first-300,28,9,rng,num-start-51,51,536,classic,29.354755401611328,True,,True,1.0,1.0,1.0,1,"Index(['8', '16', '37', '44', '65', '67', '72', '76', '96', '110', '116',
       '119', '120', '132', '133', '135', '142', '149', '151', '183', '220',
       '221', '224', '231', '250', '273', '282', '289'],
      dtype='object')",False,1000,True,2,99d5643d0d,1.0,1.0
./expes/v3_2021-02-05_di_300-prng-1-w1-p2,daily_issda-300,300,first-300,35,11,rng,num-start-11,11,536,classic,1000.4126489162445,False,,False,0,,,0,"Index(['4', '61', '63', '87', '90', '93', '94', '101', '102', '103', '104',
       '111', '113', '121', '122', '123', '130', '136', '152', '154', '167',
       '172', '176', '178', '188', '208', '230', '235', '246', '251', '253',
       '260', '268', '276', '295'],
      dtype='object')",True,1000,True,2,da5b04a396,0.0,0.0
./expes/v3_2021-02-05_di_300-prng-1-w1-p2,daily_issda-300,300,first-300,140,46,rng,num-start-151,151,536,classic,11.662761449813843,True,,True,1.0,1.0,1.0,1,"Index(['1', '3', '7', '12', '14', '20', '21', '24', '25', '26',
       ...
       '290', '291', '293', '294', '295', '296', '297', '298', '299', '300'],
      dtype='object', length=140)",False,1000,True,2,88ba9ce72d,1.0,1.0
./expes/v3_2021-02-05_di_300-prng-1-w1-p2,daily_issda-300,300,first-300,35,11,rng,num-start-91,91,536,classic,5.331494569778442,True,,True,1.0,1.0,1.0,1,"Index(['3', '8', '17', '18', '23', '39', '69', '72', '83', '90', '106', '123',
       '128', '135', '143', '146', '156', '168', '182', '185', '186', '193',
       '196', '216', '220', '226', '234', '237', '248', '251', '252', '267',
       '293', '296', '299'],
      dtype='object')",False,1000,True,2,49342ed3ff,1.0,1.0
./expes/v3_2021-02-05_di_300-prng-1-w1-p2,daily_issda-300,300,first-300,7,2,rng,num-start-181,181,536,classic,6.09342098236084,True,,True,1.0,1.0,1.0,1,"Index(['63', '93', '102', '123', '172', '230', '251'], dtype='object')",False,1000,True,2,06d43ce396,1.0,1.0
./expes/v3_2021-02-05_di_300-prng-1-w1-p2,daily_issda-300,300,first-300,105,35,rng,num-start-161,161,536,classic,5.924112796783447,True,,True,1.0,1.0,1.0,1,"Index(['1', '3', '5', '6', '8', '9', '11', '16', '19', '22',
       ...
       '266', '271', '276', '283', '287', '289', '290', '295', '296', '299'],
      dtype='object', length=105)",False,1000,True,2,99b7678690,1.0,1.0
./expes/v3_2021-02-05_di_300-prng-1-w1-p2,daily_issda-300,300,first-300,77,25,rng,num-start-181,181,536,classic,6.418859004974365,True,,True,1.0,1.0,1.0,1,"Index(['2', '3', '4', '5', '9', '13', '18', '21', '22', '23', '27', '28', '29',
       '33', '36', '42', '43', '44', '45', '48', '53', '57', '58', '63', '68',
       '69', '71', '72', '75', '77', '81', '83', '87', '89', '96', '99', '102',
       '103', '104', '105', '108', '115', '122', '137', '138', '139', '144',
       '150', '170', '172', '174', '175', '192', '194', '195', '197', '204',
       '207', '211', '216', '217', '218', '232', '238', '252', '255', '257',
       '258', '259', '260', '276', '277', '284', '285', '294', '295', '297'],
      dtype='object')",False,1000,True,2,a44df32133,1.0,1.0
./expes/v3_2021-02-05_di_300-prng-1-w1-p2,daily_issda-300,300,first-300,126,42,rng,num-start-11,11,536,classic,1000.3899569511414,False,,False,0,,,0,"Index(['4', '5', '10', '11', '14', '19', '21', '22', '23', '24',
       ...
       '271', '274', '275', '280', '281', '282', '286', '293', '294', '299'],
      dtype='object', length=126)",True,1000,True,2,deba9c4846,0.0,0.0
./expes/v3_2021-02-05_di_300-prng-1-w1-p2,daily_issda-300,300,first-300,7,2,rng,num-start-151,151,536,classic,4.935612678527832,True,,True,1.0,1.0,1.0,1,"Index(['6', '74', '138', '180', '196', '243', '271'], dtype='object')",False,1000,True,2,9cf0757e93,1.0,1.0
./expes/v3_2021-02-05_di_300-prng-1-w1-p2,daily_issda-300,300,first-300,112,37,rng,num-start-251,251,536,classic,8.5714852809906,True,,True,1.0,1.0,1.0,1,"Index(['7', '9', '11', '14', '16', '18', '20', '23', '30', '33',
       ...
       '273', '277', '280', '286', '289', '292', '294', '297', '298', '300'],
      dtype='object', length=112)",False,1000,True,2,b19b3798c7,1.0,1.0
./expes/v3_2021-02-05_di_300-prng-1-w1-p2,daily_issda-300,300,first-300,35,11,rng,num-start-21,21,536,classic,1000.673065662384,False,,False,0,,,0,"Index(['6', '15', '36', '38', '43', '55', '61', '63', '77', '83', '85', '105',
       '115', '127', '131', '134', '135', '139', '141', '150', '156', '162',
       '173', '184', '185', '196', '202', '204', '207', '231', '239', '265',
       '270', '283', '299'],
      dtype='object')",True,1000,True,2,06ee05cb35,0.0,0.0
./expes/v3_2021-02-05_di_300-prng-1-w1-p2,daily_issda-300,300,first-300,105,35,rng,num-start-121,121,536,classic,8.619415521621704,True,,True,1.0,1.0,1.0,1,"Index(['2', '3', '8', '17', '18', '19', '23', '33', '34', '37',
       ...
       '276', '278', '279', '282', '287', '291', '293', '296', '299', '300'],
      dtype='object', length=105)",False,1000,True,2,a1ac8fba56,1.0,1.0
./expes/v3_2021-02-05_di_300-prng-1-w1-p2,daily_issda-300,300,first-300,70,23,rng,num-start-251,251,536,classic,8.415616273880005,True,,True,1.0,1.0,1.0,1,"Index(['3', '4', '6', '7', '8', '11', '12', '15', '17', '23', '34', '41', '43',
       '45', '63', '73', '74', '79', '80', '85', '89', '113', '114', '115',
       '117', '119', '121', '122', '130', '133', '145', '146', '151', '152',
       '155', '156', '159', '163', '164', '172', '179', '186', '190', '192',
       '205', '208', '210', '214', '216', '217', '228', '229', '233', '234',
       '236', '238', '241', '244', '245', '247', '251', '252', '254', '256',
       '262', '265', '268', '277', '289', '297'],
      dtype='object')",False,1000,True,2,14f047900f,1.0,1.0
./expes/v3_2021-02-05_di_300-prng-1-w1-p2,daily_issda-300,300,first-300,98,32,rng,num-start-211,211,536,classic,7.282247543334961,True,,True,1.0,1.0,1.0,1,"Index(['1', '3', '5', '6', '8', '9', '11', '16', '19', '22', '27', '31', '33',
       '35', '36', '38', '39', '43', '44', '45', '47', '49', '52', '56', '60',
       '61', '68', '69', '73', '75', '81', '91', '95', '96', '97', '98', '101',
       '102', '107', '108', '109', '110', '118', '120', '124', '125', '127',
       '131', '133', '139', '143', '148', '149', '151', '152', '156', '160',
       '162', '168', '169', '171', '173', '189', '191', '193', '197', '198',
       '202', '203', '204', '206', '209', '210', '215', '216', '226', '227',
       '229', '230', '232', '235', '238', '239', '241', '244', '250', '256',
       '261', '263', '266', '271', '276', '283', '287', '289', '290', '296',
       '299'],
      dtype='object')",False,1000,True,2,8004aed213,1.0,1.0
./expes/v3_2021-02-05_di_300-prng-1-w1-p2,daily_issda-300,300,first-300,105,35,rng,num-start-111,111,536,classic,11.289669513702393,True,,True,1.0,1.0,1.0,1,"Index(['2', '3', '8', '16', '19', '20', '22', '23', '36', '37',
       ...
       '282', '284', '285', '287', '289', '290', '292', '296', '298', '299'],
      dtype='object', length=105)",False,1000,True,2,e075b860b2,1.0,1.0
./expes/v3_2021-02-05_di_300-prng-1-w1-p2,daily_issda-300,300,first-300,28,9,rng,num-start-61,61,536,classic,4.243952751159668,True,,True,1.0,1.0,1.0,1,"Index(['11', '16', '23', '44', '46', '65', '71', '99', '108', '117', '120',
       '127', '137', '190', '193', '200', '206', '207', '209', '233', '236',
       '243', '249', '250', '254', '260', '267', '294'],
      dtype='object')",False,1000,True,2,035b9988b8,1.0,1.0
./expes/v3_2021-02-05_di_300-prng-1-w1-p2,daily_issda-300,300,first-300,7,2,rng,num-start-41,41,536,classic,1.5959904193878174,True,,True,1.0,1.0,1.0,1,"Index(['95', '98', '232', '239', '261', '263', '287'], dtype='object')",False,1000,True,2,9df3bb3581,1.0,1.0
./expes/v3_2021-02-05_di_300-prng-1-w1-p2,daily_issda-300,300,first-300,35,11,rng,num-start-211,211,536,classic,7.3803629875183105,True,,True,1.0,1.0,1.0,1,"Index(['14', '32', '36', '42', '57', '64', '71', '72', '73', '78', '90', '101',
       '108', '128', '130', '143', '149', '156', '159', '163', '170', '188',
       '197', '206', '210', '213', '215', '243', '257', '260', '268', '273',
       '277', '283', '287'],
      dtype='object')",False,1000,True,2,28b4682e92,1.0,1.0
./expes/v3_2021-02-05_di_300-prng-1-w1-p2,daily_issda-300,300,first-300,119,39,rng,num-start-111,111,536,classic,1003.3311409950256,False,,False,0,,,0,"Index(['1', '8', '9', '12', '14', '17', '19', '20', '21', '24',
       ...
       '277', '279', '281', '283', '287', '291', '294', '295', '297', '299'],
      dtype='object', length=119)",True,1000,True,2,e11290410a,0.0,0.0
./expes/v3_2021-02-05_di_300-prng-1-w1-p2,daily_issda-300,300,first-300,28,9,rng,num-start-21,21,536,classic,1000.6711087226868,False,,False,0,,,0,"Index(['20', '25', '30', '31', '32', '36', '38', '45', '47', '49', '64', '78',
       '110', '115', '124', '166', '188', '203', '215', '218', '223', '260',
       '275', '283', '290', '296', '299', '300'],
      dtype='object')",True,1000,True,2,043a05ca9b,0.0,0.0
./expes/v3_2021-02-05_di_300-prng-1-w1-p2,daily_issda-300,300,first-300,42,14,rng,num-start-61,61,536,classic,1001.8098740577698,False,,False,0,,,0,"Index(['4', '59', '61', '63', '87', '90', '93', '94', '101', '102', '103',
       '104', '111', '113', '121', '122', '123', '130', '136', '139', '140',
       '152', '154', '156', '167', '172', '176', '178', '188', '208', '230',
       '235', '246', '251', '253', '260', '268', '270', '276', '283', '294',
       '295'],
      dtype='object')",True,1000,True,2,c6e5962a78,0.0,0.0
./expes/v3_2021-02-05_di_300-prng-1-w1-p2,daily_issda-300,300,first-300,140,46,rng,num-start-101,101,536,classic,1002.9360678195953,False,,False,0,,,0,"Index(['2', '3', '8', '13', '17', '18', '19', '23', '24', '26',
       ...
       '278', '279', '282', '287', '291', '293', '295', '296', '299', '300'],
      dtype='object', length=140)",True,1000,True,2,d154b87fff,0.0,0.0
./expes/v3_2021-02-05_di_300-prng-1-w1-p2,daily_issda-300,300,first-300,21,7,rng,num-start-201,201,536,classic,7.5806756019592285,True,,True,1.0,1.0,1.0,1,"Index(['7', '15', '27', '53', '58', '81', '94', '111', '127', '128', '131',
       '144', '184', '191', '195', '209', '239', '241', '272', '279', '294'],
      dtype='object')",False,1000,True,2,8400614689,1.0,1.0
./expes/v3_2021-02-05_di_300-prng-1-w1-p2,daily_issda-300,300,first-300,56,18,rng,num-start-31,31,536,classic,1000.9507789611816,False,,False,0,,,0,"Index(['4', '52', '59', '61', '63', '68', '75', '83', '87', '90', '93', '94',
       '98', '101', '102', '103', '104', '106', '111', '113', '121', '122',
       '123', '130', '136', '139', '140', '145', '152', '154', '156', '167',
       '172', '176', '178', '188', '208', '209', '224', '230', '235', '245',
       '246', '251', '253', '254', '257', '260', '263', '268', '270', '276',
       '283', '291', '294', '295'],
      dtype='object')",True,1000,True,2,a80418120a,0.0,0.0
