expe,clients,clients_size,clients_subset,agg_size,method,days,days_size,days_total,time,valid,valid_sum,success,nsols,wall_hit,wall_time,pooled,valid_sums
./expes/v2_2020-11-23_di_150-prng-1,daily_issda_150,150,rng-150,51,rng,num-start-231,231,536,3.8786303997039795,True,,True,1,False,1000,True,1.0
./expes/v2_2020-11-23_di_150-prng-1,daily_issda_150,150,rng-150,1,rng,num-start-21,21,536,0.2320694923400879,True,,True,1,False,1000,True,1.0
./expes/v2_2020-11-23_di_150-prng-1,daily_issda_150,150,rng-150,1,rng,num-start-181,181,536,1.6843507289886475,True,,True,1,False,1000,True,1.0
./expes/v2_2020-11-23_di_150-prng-1,daily_issda_150,150,rng-150,51,rng,num-start-201,201,536,3.024320602416992,True,,True,1,False,1000,True,1.0
./expes/v2_2020-11-23_di_150-prng-1,daily_issda_150,150,rng-150,41,rng,num-start-201,201,536,2.700021266937256,True,,True,1,False,1000,True,1.0
./expes/v2_2020-11-23_di_150-prng-1,daily_issda_150,150,rng-150,71,rng,num-start-151,151,536,2.1620001792907715,True,,True,1,False,1000,True,1.0
./expes/v2_2020-11-23_di_150-prng-1,daily_issda_150,150,rng-150,131,rng,num-start-201,201,536,2.5245203971862793,True,,True,1,False,1000,True,1.0
./expes/v2_2020-11-23_di_150-prng-1,daily_issda_150,150,rng-150,31,rng,num-start-51,51,536,1.114020824432373,True,,True,1,False,1000,True,1.0
./expes/v2_2020-11-23_di_150-prng-1,daily_issda_150,150,rng-150,91,rng,num-start-161,161,536,2.1610639095306396,True,,True,1,False,1000,True,1.0
./expes/v2_2020-11-23_di_150-prng-1,daily_issda_150,150,rng-150,41,rng,num-start-31,31,536,1000.8325800895691,False,,False,0,True,1000,True,0.0
./expes/v2_2020-11-23_di_150-prng-1,daily_issda_150,150,rng-150,91,rng,num-start-61,61,536,1.6482210159301758,True,,True,1,False,1000,True,1.0
./expes/v2_2020-11-23_di_150-prng-1,daily_issda_150,150,rng-150,141,rng,num-start-231,231,536,2.910120725631714,True,,True,1,False,1000,True,1.0
./expes/v2_2020-11-23_di_150-prng-1,daily_issda_150,150,rng-150,1,rng,num-start-281,281,536,2.9052114486694336,True,,True,1,False,1000,True,1.0
./expes/v2_2020-11-23_di_150-prng-1,daily_issda_150,150,rng-150,141,rng,num-start-161,161,536,2.3851678371429443,True,,True,1,False,1000,True,1.0
./expes/v2_2020-11-23_di_150-prng-1,daily_issda_150,150,rng-150,91,rng,num-start-201,201,536,2.898301601409912,True,,True,1,False,1000,True,1.0
./expes/v2_2020-11-23_di_150-prng-1,daily_issda_150,150,rng-150,1,rng,num-start-291,291,536,2.942969799041748,True,,True,1,False,1000,True,1.0
./expes/v2_2020-11-23_di_150-prng-1,daily_issda_150,150,rng-150,21,rng,num-start-101,101,536,1.5081446170806885,True,,True,1,False,1000,True,1.0
./expes/v2_2020-11-23_di_150-prng-1,daily_issda_150,150,rng-150,1,rng,num-start-261,261,536,2.6165807247161865,True,,True,1,False,1000,True,1.0
./expes/v2_2020-11-23_di_150-prng-1,daily_issda_150,150,rng-150,41,rng,num-start-151,151,536,2.1593620777130127,True,,True,1,False,1000,True,1.0
./expes/v2_2020-11-23_di_150-prng-1,daily_issda_150,150,rng-150,101,rng,num-start-71,71,536,1.0160706043243408,True,,True,1,False,1000,True,1.0
./expes/v2_2020-11-23_di_150-prng-1,daily_issda_150,150,rng-150,111,rng,num-start-121,121,536,1.7044060230255127,True,,True,1,False,1000,True,1.0
./expes/v2_2020-11-23_di_150-prng-1,daily_issda_150,150,rng-150,121,rng,num-start-91,91,536,1.4637236595153809,True,,True,1,False,1000,True,1.0
./expes/v2_2020-11-23_di_150-prng-1,daily_issda_150,150,rng-150,141,rng,num-start-291,291,536,3.1889193058013916,True,,True,1,False,1000,True,1.0
./expes/v2_2020-11-23_di_150-prng-1,daily_issda_150,150,rng-150,111,rng,num-start-261,261,536,3.318514585494995,True,,True,1,False,1000,True,1.0
./expes/v2_2020-11-23_di_150-prng-1,daily_issda_150,150,rng-150,131,rng,num-start-151,151,536,2.1422080993652344,True,,True,1,False,1000,True,1.0
./expes/v2_2020-11-23_di_150-prng-1,daily_issda_150,150,rng-150,11,rng,num-start-1,1,536,0.5611910820007324,False,,False,2,False,1000,True,1.0
./expes/v2_2020-11-23_di_150-prng-1,daily_issda_150,150,rng-150,51,rng,num-start-131,131,536,1.9510200023651123,True,,True,1,False,1000,True,1.0
./expes/v2_2020-11-23_di_150-prng-1,daily_issda_150,150,rng-150,141,rng,num-start-121,121,536,1.7213659286499023,True,,True,1,False,1000,True,1.0
./expes/v2_2020-11-23_di_150-prng-1,daily_issda_150,150,rng-150,121,rng,num-start-291,291,536,3.376176118850708,True,,True,1,False,1000,True,1.0
./expes/v2_2020-11-23_di_150-prng-1,daily_issda_150,150,rng-150,111,rng,num-start-271,271,536,3.305187463760376,True,,True,1,False,1000,True,1.0
./expes/v2_2020-11-23_di_150-prng-1,daily_issda_150,150,rng-150,91,rng,num-start-141,141,536,2.194758653640747,True,,True,1,False,1000,True,1.0
./expes/v2_2020-11-23_di_150-prng-1,daily_issda_150,150,rng-150,11,rng,num-start-251,251,536,3.1169278621673584,True,,True,1,False,1000,True,1.0
./expes/v2_2020-11-23_di_150-prng-1,daily_issda_150,150,rng-150,31,rng,num-start-271,271,536,3.234813928604126,True,,True,1,False,1000,True,1.0
./expes/v2_2020-11-23_di_150-prng-1,daily_issda_150,150,rng-150,1,rng,num-start-81,81,536,0.8187880516052246,True,,True,1,False,1000,True,1.0
./expes/v2_2020-11-23_di_150-prng-1,daily_issda_150,150,rng-150,1,rng,num-start-161,161,536,1.621614933013916,True,,True,1,False,1000,True,1.0
./expes/v2_2020-11-23_di_150-prng-1,daily_issda_150,150,rng-150,101,rng,num-start-71,71,536,1.134108304977417,True,,True,1,False,1000,True,1.0
./expes/v2_2020-11-23_di_150-prng-1,daily_issda_150,150,rng-150,1,rng,num-start-131,131,536,1.3435912132263184,True,,True,1,False,1000,True,1.0
./expes/v2_2020-11-23_di_150-prng-1,daily_issda_150,150,rng-150,111,rng,num-start-191,191,536,2.685868740081787,True,,True,1,False,1000,True,1.0
./expes/v2_2020-11-23_di_150-prng-1,daily_issda_150,150,rng-150,91,rng,num-start-231,231,536,3.4918317794799805,True,,True,1,False,1000,True,1.0
./expes/v2_2020-11-23_di_150-prng-1,daily_issda_150,150,rng-150,111,rng,num-start-141,141,536,2.0337226390838623,True,,True,1,False,1000,True,1.0
./expes/v2_2020-11-23_di_150-prng-1,daily_issda_150,150,rng-150,101,rng,num-start-261,261,536,3.417064905166626,True,,True,1,False,1000,True,1.0
./expes/v2_2020-11-23_di_150-prng-1,daily_issda_150,150,rng-150,11,rng,num-start-21,21,536,0.8714699745178223,True,,True,1,False,1000,True,1.0
./expes/v2_2020-11-23_di_150-prng-1,daily_issda_150,150,rng-150,31,rng,num-start-101,101,536,1.5344822406768799,True,,True,1,False,1000,True,1.0
./expes/v2_2020-11-23_di_150-prng-1,daily_issda_150,150,rng-150,31,rng,num-start-51,51,536,1.320763111114502,True,,True,1,False,1000,True,1.0
./expes/v2_2020-11-23_di_150-prng-1,daily_issda_150,150,rng-150,101,rng,num-start-91,91,536,1.2915008068084717,True,,True,1,False,1000,True,1.0
./expes/v2_2020-11-23_di_150-prng-1,daily_issda_150,150,rng-150,91,rng,num-start-221,221,536,3.126354932785034,True,,True,1,False,1000,True,1.0
./expes/v2_2020-11-23_di_150-prng-1,daily_issda_150,150,rng-150,131,rng,num-start-291,291,536,3.7741384506225586,True,,True,1,False,1000,True,1.0
./expes/v2_2020-11-23_di_150-prng-1,daily_issda_150,150,rng-150,1,rng,num-start-111,111,536,1.1099205017089844,True,,True,1,False,1000,True,1.0
./expes/v2_2020-11-23_di_150-prng-1,daily_issda_150,150,rng-150,91,rng,num-start-181,181,536,2.598361015319824,True,,True,1,False,1000,True,1.0
./expes/v2_2020-11-23_di_150-prng-1,daily_issda_150,150,rng-150,11,rng,num-start-271,271,536,3.5895626544952393,True,,True,1,False,1000,True,1.0
./expes/v2_2020-11-23_di_150-prng-1,daily_issda_150,150,rng-150,101,rng,num-start-191,191,536,2.8673462867736816,True,,True,1,False,1000,True,1.0
./expes/v2_2020-11-23_di_150-prng-1,daily_issda_150,150,rng-150,71,rng,num-start-171,171,536,2.498216152191162,True,,True,1,False,1000,True,1.0
./expes/v2_2020-11-23_di_150-prng-1,daily_issda_150,150,rng-150,121,rng,num-start-121,121,536,1.7205734252929688,True,,True,1,False,1000,True,1.0
./expes/v2_2020-11-23_di_150-prng-1,daily_issda_150,150,rng-150,91,rng,num-start-101,101,536,1.6849844455718994,True,,True,1,False,1000,True,1.0
./expes/v2_2020-11-23_di_150-prng-1,daily_issda_150,150,rng-150,141,rng,num-start-71,71,536,0.9579854011535645,True,,True,1,False,1000,True,1.0
./expes/v2_2020-11-23_di_150-prng-1,daily_issda_150,150,rng-150,11,rng,num-start-101,101,536,1.5228090286254883,True,,True,1,False,1000,True,1.0
./expes/v2_2020-11-23_di_150-prng-1,daily_issda_150,150,rng-150,71,rng,num-start-271,271,536,3.984863042831421,True,,True,1,False,1000,True,1.0
./expes/v2_2020-11-23_di_150-prng-1,daily_issda_150,150,rng-150,101,rng,num-start-231,231,536,2.861067533493042,True,,True,1,False,1000,True,1.0
./expes/v2_2020-11-23_di_150-prng-1,daily_issda_150,150,rng-150,101,rng,num-start-111,111,536,1.756042242050171,True,,True,1,False,1000,True,1.0
./expes/v2_2020-11-23_di_150-prng-1,daily_issda_150,150,rng-150,141,rng,num-start-31,31,536,0.5050342082977295,True,,True,1,False,1000,True,1.0
./expes/v2_2020-11-23_di_150-prng-1,daily_issda_150,150,rng-150,41,rng,num-start-281,281,536,3.4586920738220215,True,,True,1,False,1000,True,1.0
./expes/v2_2020-11-23_di_150-prng-1,daily_issda_150,150,rng-150,1,rng,num-start-291,291,536,3.0149998664855957,True,,True,1,False,1000,True,1.0
./expes/v2_2020-11-23_di_150-prng-1,daily_issda_150,150,rng-150,51,rng,num-start-261,261,536,3.967905044555664,True,,True,1,False,1000,True,1.0
./expes/v2_2020-11-23_di_150-prng-1,daily_issda_150,150,rng-150,91,rng,num-start-221,221,536,3.213252067565918,True,,True,1,False,1000,True,1.0
./expes/v2_2020-11-23_di_150-prng-1,daily_issda_150,150,rng-150,51,rng,num-start-91,91,536,1.381544828414917,True,,True,1,False,1000,True,1.0
./expes/v2_2020-11-23_di_150-prng-1,daily_issda_150,150,rng-150,41,rng,num-start-31,31,536,1004.1386470794678,False,,False,0,True,1000,True,0.0
./expes/v2_2020-11-23_di_150-prng-1,daily_issda_150,150,rng-150,141,rng,num-start-61,61,536,0.9121012687683105,True,,True,1,False,1000,True,1.0
./expes/v2_2020-11-23_di_150-prng-1,daily_issda_150,150,rng-150,71,rng,num-start-181,181,536,2.6036481857299805,True,,True,1,False,1000,True,1.0
./expes/v2_2020-11-23_di_150-prng-1,daily_issda_150,150,rng-150,121,rng,num-start-161,161,536,2.085585355758667,True,,True,1,False,1000,True,1.0
./expes/v2_2020-11-23_di_150-prng-1,daily_issda_150,150,rng-150,41,rng,num-start-131,131,536,1.7917871475219727,True,,True,1,False,1000,True,1.0
./expes/v2_2020-11-23_di_150-prng-1,daily_issda_150,150,rng-150,1,rng,num-start-71,71,536,0.7266039848327637,True,,True,1,False,1000,True,1.0
./expes/v2_2020-11-23_di_150-prng-1,daily_issda_150,150,rng-150,21,rng,num-start-241,241,536,3.3711438179016113,True,,True,1,False,1000,True,1.0
./expes/v2_2020-11-23_di_150-prng-1,daily_issda_150,150,rng-150,141,rng,num-start-191,191,536,2.56852126121521,True,,True,1,False,1000,True,1.0
./expes/v2_2020-11-23_di_150-prng-1,daily_issda_150,150,rng-150,91,rng,num-start-171,171,536,2.369429111480713,True,,True,1,False,1000,True,1.0
./expes/v2_2020-11-23_di_150-prng-1,daily_issda_150,150,rng-150,81,rng,num-start-121,121,536,1.812133550643921,True,,True,1,False,1000,True,1.0
./expes/v2_2020-11-23_di_150-prng-1,daily_issda_150,150,rng-150,31,rng,num-start-91,91,536,1.2667236328125,True,,True,1,False,1000,True,1.0
./expes/v2_2020-11-23_di_150-prng-1,daily_issda_150,150,rng-150,21,rng,num-start-101,101,536,1.4630494117736816,True,,True,1,False,1000,True,1.0
./expes/v2_2020-11-23_di_150-prng-1,daily_issda_150,150,rng-150,121,rng,num-start-281,281,536,3.6410577297210693,True,,True,1,False,1000,True,1.0
./expes/v2_2020-11-23_di_150-prng-1,daily_issda_150,150,rng-150,71,rng,num-start-51,51,536,1.5011179447174072,True,,True,1,False,1000,True,1.0
./expes/v2_2020-11-23_di_150-prng-1,daily_issda_150,150,rng-150,21,rng,num-start-151,151,536,2.0503358840942383,True,,True,1,False,1000,True,1.0
./expes/v2_2020-11-23_di_150-prng-1,daily_issda_150,150,rng-150,51,rng,num-start-21,21,536,1000.4916906356812,False,,False,0,True,1000,True,0.0
./expes/v2_2020-11-23_di_150-prng-1,daily_issda_150,150,rng-150,41,rng,num-start-221,221,536,2.8844146728515625,True,,True,1,False,1000,True,1.0
./expes/v2_2020-11-23_di_150-prng-1,daily_issda_150,150,rng-150,61,rng,num-start-291,291,536,4.526551961898804,True,,True,1,False,1000,True,1.0
./expes/v2_2020-11-23_di_150-prng-1,daily_issda_150,150,rng-150,141,rng,num-start-181,181,536,2.30403995513916,True,,True,1,False,1000,True,1.0
./expes/v2_2020-11-23_di_150-prng-1,daily_issda_150,150,rng-150,1,rng,num-start-181,181,536,1.791595697402954,True,,True,1,False,1000,True,1.0
./expes/v2_2020-11-23_di_150-prng-1,daily_issda_150,150,rng-150,71,rng,num-start-31,31,536,1000.6156022548676,False,,False,0,True,1000,True,0.0
./expes/v2_2020-11-23_di_150-prng-1,daily_issda_150,150,rng-150,121,rng,num-start-1,1,536,0.5652821063995361,False,,False,2,False,1000,True,1.0
./expes/v2_2020-11-23_di_150-prng-1,daily_issda_150,150,rng-150,51,rng,num-start-91,91,536,1.3047633171081543,True,,True,1,False,1000,True,1.0
./expes/v2_2020-11-23_di_150-prng-1,daily_issda_150,150,rng-150,91,rng,num-start-1,1,536,1.4294617176055908,False,,False,2,False,1000,True,0.0
./expes/v2_2020-11-23_di_150-prng-1,daily_issda_150,150,rng-150,91,rng,num-start-291,291,536,3.7244906425476074,True,,True,1,False,1000,True,1.0
./expes/v2_2020-11-23_di_150-prng-1,daily_issda_150,150,rng-150,61,rng,num-start-71,71,536,1.7703273296356201,True,,True,1,False,1000,True,1.0
./expes/v2_2020-11-23_di_150-prng-1,daily_issda_150,150,rng-150,31,rng,num-start-131,131,536,1.8382093906402588,True,,True,1,False,1000,True,1.0
./expes/v2_2020-11-23_di_150-prng-1,daily_issda_150,150,rng-150,141,rng,num-start-71,71,536,1.2081918716430664,True,,True,1,False,1000,True,1.0
./expes/v2_2020-11-23_di_150-prng-1,daily_issda_150,150,rng-150,1,rng,num-start-121,121,536,1.1886544227600098,True,,True,1,False,1000,True,1.0
./expes/v2_2020-11-23_di_150-prng-1,daily_issda_150,150,rng-150,61,rng,num-start-61,61,536,1.893570899963379,True,,True,1,False,1000,True,1.0
./expes/v2_2020-11-23_di_150-prng-1,daily_issda_150,150,rng-150,81,rng,num-start-271,271,536,3.5180230140686035,True,,True,1,False,1000,True,1.0
./expes/v2_2020-11-23_di_150-prng-1,daily_issda_150,150,rng-150,121,rng,num-start-41,41,536,1.0255494117736816,True,,True,1,False,1000,True,1.0
./expes/v2_2020-11-23_di_150-prng-1,daily_issda_150,150,rng-150,31,rng,num-start-61,61,536,0.8937685489654541,True,,True,1,False,1000,True,1.0
./expes/v2_2020-11-23_di_150-prng-1,daily_issda_150,150,rng-150,41,rng,num-start-281,281,536,3.503765821456909,True,,True,1,False,1000,True,1.0
./expes/v2_2020-11-23_di_150-prng-1,daily_issda_150,150,rng-150,1,rng,num-start-201,201,536,2.0340044498443604,True,,True,1,False,1000,True,1.0
./expes/v2_2020-11-23_di_150-prng-1,daily_issda_150,150,rng-150,111,rng,num-start-171,171,536,2.2699129581451416,True,,True,1,False,1000,True,1.0
./expes/v2_2020-11-23_di_150-prng-1,daily_issda_150,150,rng-150,31,rng,num-start-221,221,536,3.060734272003174,True,,True,1,False,1000,True,1.0
./expes/v2_2020-11-23_di_150-prng-1,daily_issda_150,150,rng-150,131,rng,num-start-51,51,536,0.7798318862915039,True,,True,1,False,1000,True,1.0
./expes/v2_2020-11-23_di_150-prng-1,daily_issda_150,150,rng-150,91,rng,num-start-111,111,536,1.6439647674560547,True,,True,1,False,1000,True,1.0
./expes/v2_2020-11-23_di_150-prng-1,daily_issda_150,150,rng-150,111,rng,num-start-131,131,536,2.0907530784606934,True,,True,1,False,1000,True,1.0
./expes/v2_2020-11-23_di_150-prng-1,daily_issda_150,150,rng-150,11,rng,num-start-181,181,536,2.298588514328003,True,,True,1,False,1000,True,1.0
./expes/v2_2020-11-23_di_150-prng-1,daily_issda_150,150,rng-150,71,rng,num-start-1,1,536,1.9136552810668945,False,,False,2,False,1000,True,1.0
./expes/v2_2020-11-23_di_150-prng-1,daily_issda_150,150,rng-150,131,rng,num-start-271,271,536,3.069671154022217,True,,True,1,False,1000,True,1.0
./expes/v2_2020-11-23_di_150-prng-1,daily_issda_150,150,rng-150,1,rng,num-start-131,131,536,1.3142075538635254,True,,True,1,False,1000,True,1.0
./expes/v2_2020-11-23_di_150-prng-1,daily_issda_150,150,rng-150,111,rng,num-start-11,11,536,1000.7755215167999,False,,False,0,True,1000,True,0.0
./expes/v2_2020-11-23_di_150-prng-1,daily_issda_150,150,rng-150,21,rng,num-start-121,121,536,1.8126606941223145,True,,True,1,False,1000,True,1.0
./expes/v2_2020-11-23_di_150-prng-1,daily_issda_150,150,rng-150,131,rng,num-start-21,21,536,1020.2247312068939,False,,False,0,True,1000,True,0.0
./expes/v2_2020-11-23_di_150-prng-1,daily_issda_150,150,rng-150,51,rng,num-start-281,281,536,3.6633498668670654,True,,True,1,False,1000,True,1.0
./expes/v2_2020-11-23_di_150-prng-1,daily_issda_150,150,rng-150,71,rng,num-start-141,141,536,2.0283968448638916,True,,True,1,False,1000,True,1.0
./expes/v2_2020-11-23_di_150-prng-1,daily_issda_150,150,rng-150,51,rng,num-start-61,61,536,1.4609861373901367,True,,True,1,False,1000,True,1.0
./expes/v2_2020-11-23_di_150-prng-1,daily_issda_150,150,rng-150,11,rng,num-start-71,71,536,1.1090819835662842,True,,True,1,False,1000,True,1.0
./expes/v2_2020-11-23_di_150-prng-1,daily_issda_150,150,rng-150,141,rng,num-start-51,51,536,0.6717228889465332,True,,True,1,False,1000,True,1.0
./expes/v2_2020-11-23_di_150-prng-1,daily_issda_150,150,rng-150,121,rng,num-start-181,181,536,2.5801329612731934,True,,True,1,False,1000,True,1.0
./expes/v2_2020-11-23_di_150-prng-1,daily_issda_150,150,rng-150,121,rng,num-start-151,151,536,2.099513292312622,True,,True,1,False,1000,True,1.0
./expes/v2_2020-11-23_di_150-prng-1,daily_issda_150,150,rng-150,111,rng,num-start-281,281,536,3.319181442260742,True,,True,1,False,1000,True,1.0
./expes/v2_2020-11-23_di_150-prng-1,daily_issda_150,150,rng-150,31,rng,num-start-261,261,536,3.3159561157226562,True,,True,1,False,1000,True,1.0
./expes/v2_2020-11-23_di_150-prng-1,daily_issda_150,150,rng-150,11,rng,num-start-1,1,536,2.3154244422912598,False,,False,2,False,1000,True,1.0
./expes/v2_2020-11-23_di_150-prng-1,daily_issda_150,150,rng-150,31,rng,num-start-51,51,536,0.9310722351074219,True,,True,1,False,1000,True,1.0
./expes/v2_2020-11-23_di_150-prng-1,daily_issda_150,150,rng-150,31,rng,num-start-51,51,536,1.2547950744628906,True,,True,1,False,1000,True,1.0
./expes/v2_2020-11-23_di_150-prng-1,daily_issda_150,150,rng-150,21,rng,num-start-141,141,536,1.9662785530090332,True,,True,1,False,1000,True,1.0
./expes/v2_2020-11-23_di_150-prng-1,daily_issda_150,150,rng-150,11,rng,num-start-11,11,536,1000.1756057739258,False,,False,0,True,1000,True,0.0
./expes/v2_2020-11-23_di_150-prng-1,daily_issda_150,150,rng-150,121,rng,num-start-241,241,536,3.1145756244659424,True,,True,1,False,1000,True,1.0
./expes/v2_2020-11-23_di_150-prng-1,daily_issda_150,150,rng-150,41,rng,num-start-221,221,536,3.065009832382202,True,,True,1,False,1000,True,1.0
./expes/v2_2020-11-23_di_150-prng-1,daily_issda_150,150,rng-150,131,rng,num-start-31,31,536,1.3718786239624023,True,,True,1,False,1000,True,1.0
./expes/v2_2020-11-23_di_150-prng-1,daily_issda_150,150,rng-150,141,rng,num-start-111,111,536,1.4036712646484375,True,,True,1,False,1000,True,1.0
./expes/v2_2020-11-23_di_150-prng-1,daily_issda_150,150,rng-150,11,rng,num-start-71,71,536,0.923555850982666,True,,True,1,False,1000,True,1.0
./expes/v2_2020-11-23_di_150-prng-1,daily_issda_150,150,rng-150,111,rng,num-start-1,1,536,0.6219966411590576,False,,False,2,False,1000,True,1.0
./expes/v2_2020-11-23_di_150-prng-1,daily_issda_150,150,rng-150,111,rng,num-start-161,161,536,2.14974308013916,True,,True,1,False,1000,True,1.0
./expes/v2_2020-11-23_di_150-prng-1,daily_issda_150,150,rng-150,41,rng,num-start-251,251,536,3.279506206512451,True,,True,1,False,1000,True,1.0
./expes/v2_2020-11-23_di_150-prng-1,daily_issda_150,150,rng-150,31,rng,num-start-291,291,536,3.6331377029418945,True,,True,1,False,1000,True,1.0
./expes/v2_2020-11-23_di_150-prng-1,daily_issda_150,150,rng-150,11,rng,num-start-121,121,536,1.5866789817810059,True,,True,1,False,1000,True,1.0
./expes/v2_2020-11-23_di_150-prng-1,daily_issda_150,150,rng-150,1,rng,num-start-171,171,536,1.7243154048919678,True,,True,1,False,1000,True,1.0
./expes/v2_2020-11-23_di_150-prng-1,daily_issda_150,150,rng-150,71,rng,num-start-151,151,536,2.1999409198760986,True,,True,1,False,1000,True,1.0
./expes/v2_2020-11-23_di_150-prng-1,daily_issda_150,150,rng-150,61,rng,num-start-161,161,536,2.165496587753296,True,,True,1,False,1000,True,1.0
./expes/v2_2020-11-23_di_150-prng-1,daily_issda_150,150,rng-150,41,rng,num-start-201,201,536,2.72062611579895,True,,True,1,False,1000,True,1.0
./expes/v2_2020-11-23_di_150-prng-1,daily_issda_150,150,rng-150,111,rng,num-start-131,131,536,1.8373198509216309,True,,True,1,False,1000,True,1.0
./expes/v2_2020-11-23_di_150-prng-1,daily_issda_150,150,rng-150,61,rng,num-start-51,51,536,1.497734785079956,True,,True,1,False,1000,True,1.0
./expes/v2_2020-11-23_di_150-prng-1,daily_issda_150,150,rng-150,61,rng,num-start-11,11,536,1000.1868660449982,False,,False,0,True,1000,True,0.0
./expes/v2_2020-11-23_di_150-prng-1,daily_issda_150,150,rng-150,101,rng,num-start-241,241,536,3.1917378902435303,True,,True,1,False,1000,True,1.0
./expes/v2_2020-11-23_di_150-prng-1,daily_issda_150,150,rng-150,31,rng,num-start-271,271,536,3.2083899974823,True,,True,1,False,1000,True,1.0
./expes/v2_2020-11-23_di_150-prng-1,daily_issda_150,150,rng-150,61,rng,num-start-261,261,536,3.334726572036743,True,,True,1,False,1000,True,1.0
./expes/v2_2020-11-23_di_150-prng-1,daily_issda_150,150,rng-150,141,rng,num-start-171,171,536,2.2685744762420654,True,,True,1,False,1000,True,1.0
./expes/v2_2020-11-23_di_150-prng-1,daily_issda_150,150,rng-150,101,rng,num-start-291,291,536,4.026552677154541,True,,True,1,False,1000,True,1.0
./expes/v2_2020-11-23_di_150-prng-1,daily_issda_150,150,rng-150,121,rng,num-start-201,201,536,2.619779109954834,True,,True,1,False,1000,True,1.0
./expes/v2_2020-11-23_di_150-prng-1,daily_issda_150,150,rng-150,71,rng,num-start-71,71,536,1.0137169361114502,True,,True,1,False,1000,True,1.0
./expes/v2_2020-11-23_di_150-prng-1,daily_issda_150,150,rng-150,71,rng,num-start-61,61,536,1.7387447357177734,True,,True,1,False,1000,True,1.0
./expes/v2_2020-11-23_di_150-prng-1,daily_issda_150,150,rng-150,131,rng,num-start-241,241,536,2.8601083755493164,True,,True,1,False,1000,True,1.0
./expes/v2_2020-11-23_di_150-prng-1,daily_issda_150,150,rng-150,131,rng,num-start-171,171,536,2.2557692527770996,True,,True,1,False,1000,True,1.0
./expes/v2_2020-11-23_di_150-prng-1,daily_issda_150,150,rng-150,31,rng,num-start-221,221,536,2.769510507583618,True,,True,1,False,1000,True,1.0
./expes/v2_2020-11-23_di_150-prng-1,daily_issda_150,150,rng-150,1,rng,num-start-71,71,536,0.7082464694976807,True,,True,1,False,1000,True,1.0
./expes/v2_2020-11-23_di_150-prng-1,daily_issda_150,150,rng-150,1,rng,num-start-131,131,536,1.3643872737884521,True,,True,1,False,1000,True,1.0
./expes/v2_2020-11-23_di_150-prng-1,daily_issda_150,150,rng-150,81,rng,num-start-191,191,536,2.6117682456970215,True,,True,1,False,1000,True,1.0
./expes/v2_2020-11-23_di_150-prng-1,daily_issda_150,150,rng-150,41,rng,num-start-131,131,536,1.8352832794189453,True,,True,1,False,1000,True,1.0
./expes/v2_2020-11-23_di_150-prng-1,daily_issda_150,150,rng-150,101,rng,num-start-271,271,536,3.5490005016326904,True,,True,1,False,1000,True,1.0
./expes/v2_2020-11-23_di_150-prng-1,daily_issda_150,150,rng-150,81,rng,num-start-101,101,536,1.5555906295776367,True,,True,1,False,1000,True,1.0
./expes/v2_2020-11-23_di_150-prng-1,daily_issda_150,150,rng-150,121,rng,num-start-91,91,536,1.251265048980713,True,,True,1,False,1000,True,1.0
./expes/v2_2020-11-23_di_150-prng-1,daily_issda_150,150,rng-150,81,rng,num-start-251,251,536,3.365480422973633,True,,True,1,False,1000,True,1.0
./expes/v2_2020-11-23_di_150-prng-1,daily_issda_150,150,rng-150,21,rng,num-start-81,81,536,1.1382126808166504,True,,True,1,False,1000,True,1.0
./expes/v2_2020-11-23_di_150-prng-1,daily_issda_150,150,rng-150,41,rng,num-start-91,91,536,1.2326505184173584,True,,True,1,False,1000,True,1.0
./expes/v2_2020-11-23_di_150-prng-1,daily_issda_150,150,rng-150,101,rng,num-start-221,221,536,2.6551384925842285,True,,True,1,False,1000,True,1.0
./expes/v2_2020-11-23_di_150-prng-1,daily_issda_150,150,rng-150,71,rng,num-start-61,61,536,1.653273344039917,True,,True,1,False,1000,True,1.0
./expes/v2_2020-11-23_di_150-prng-1,daily_issda_150,150,rng-150,71,rng,num-start-31,31,536,1000.4470932483673,False,,False,0,True,1000,True,0.0
./expes/v2_2020-11-23_di_150-prng-1,daily_issda_150,150,rng-150,11,rng,num-start-81,81,536,1.1267824172973633,True,,True,1,False,1000,True,1.0
./expes/v2_2020-11-23_di_150-prng-1,daily_issda_150,150,rng-150,131,rng,num-start-291,291,536,3.1540627479553223,True,,True,1,False,1000,True,1.0
./expes/v2_2020-11-23_di_150-prng-1,daily_issda_150,150,rng-150,21,rng,num-start-221,221,536,2.654195547103882,True,,True,1,False,1000,True,1.0
./expes/v2_2020-11-23_di_150-prng-1,daily_issda_150,150,rng-150,41,rng,num-start-181,181,536,2.36787486076355,True,,True,1,False,1000,True,1.0
./expes/v2_2020-11-23_di_150-prng-1,daily_issda_150,150,rng-150,71,rng,num-start-81,81,536,1.0604984760284424,True,,True,1,False,1000,True,1.0
./expes/v2_2020-11-23_di_150-prng-1,daily_issda_150,150,rng-150,81,rng,num-start-81,81,536,1.287904977798462,True,,True,1,False,1000,True,1.0
./expes/v2_2020-11-23_di_150-prng-1,daily_issda_150,150,rng-150,121,rng,num-start-91,91,536,1.232100248336792,True,,True,1,False,1000,True,1.0
./expes/v2_2020-11-23_di_150-prng-1,daily_issda_150,150,rng-150,21,rng,num-start-11,11,536,1002.7459666728973,False,,False,0,True,1000,True,0.0
