expe,clients,clients_size,clients_subset,agg_size,method,days,days_size,days_total,time,valid,valid_sum,success,nsols,wall_hit,wall_time,pooled,valid_sums
./expes/v2_2020-11-23_di_150-prng-1,daily_issda_150,150,rng-150,81,rng,num-start-271,271,536,2.55053448677063,True,,True,1,False,1000,True,1.0
./expes/v2_2020-11-23_di_150-prng-1,daily_issda_150,150,rng-150,91,rng,num-start-151,151,536,1.490015983581543,True,,True,1,False,1000,True,1.0
./expes/v2_2020-11-23_di_150-prng-1,daily_issda_150,150,rng-150,111,rng,num-start-41,41,536,31.072635412216187,True,,True,1,False,1000,True,1.0
./expes/v2_2020-11-23_di_150-prng-1,daily_issda_150,150,rng-150,21,rng,num-start-271,271,536,2.358510732650757,True,,True,1,False,1000,True,1.0
./expes/v2_2020-11-23_di_150-prng-1,daily_issda_150,150,rng-150,101,rng,num-start-121,121,536,1.4621617794036865,True,,True,1,False,1000,True,1.0
./expes/v2_2020-11-23_di_150-prng-1,daily_issda_150,150,rng-150,11,rng,num-start-261,261,536,2.3766283988952637,True,,True,1,False,1000,True,1.0
./expes/v2_2020-11-23_di_150-prng-1,daily_issda_150,150,rng-150,131,rng,num-start-131,131,536,1.4208357334136963,True,,True,1,False,1000,True,1.0
./expes/v2_2020-11-23_di_150-prng-1,daily_issda_150,150,rng-150,121,rng,num-start-271,271,536,2.5730836391448975,True,,True,1,False,1000,True,1.0
./expes/v2_2020-11-23_di_150-prng-1,daily_issda_150,150,rng-150,131,rng,num-start-141,141,536,1.364647388458252,True,,True,1,False,1000,True,1.0
./expes/v2_2020-11-23_di_150-prng-1,daily_issda_150,150,rng-150,51,rng,num-start-51,51,536,1.549095869064331,True,,True,1,False,1000,True,1.0
./expes/v2_2020-11-23_di_150-prng-1,daily_issda_150,150,rng-150,101,rng,num-start-41,41,536,1005.271235704422,False,,False,1,True,1000,True,0.0
./expes/v2_2020-11-23_di_150-prng-1,daily_issda_150,150,rng-150,81,rng,num-start-141,141,536,1.3449170589447021,True,,True,1,False,1000,True,1.0
./expes/v2_2020-11-23_di_150-prng-1,daily_issda_150,150,rng-150,141,rng,num-start-11,11,536,7.607036113739014,True,,True,1,False,1000,True,1.0
./expes/v2_2020-11-23_di_150-prng-1,daily_issda_150,150,rng-150,61,rng,num-start-161,161,536,1.5673553943634033,True,,True,1,False,1000,True,1.0
./expes/v2_2020-11-23_di_150-prng-1,daily_issda_150,150,rng-150,11,rng,num-start-111,111,536,1.1118011474609375,True,,True,1,False,1000,True,1.0
./expes/v2_2020-11-23_di_150-prng-1,daily_issda_150,150,rng-150,11,rng,num-start-191,191,536,1.7698898315429688,True,,True,1,False,1000,True,1.0
./expes/v2_2020-11-23_di_150-prng-1,daily_issda_150,150,rng-150,11,rng,num-start-11,11,536,1008.037579536438,False,,False,1,True,1000,True,0.0
./expes/v2_2020-11-23_di_150-prng-1,daily_issda_150,150,rng-150,121,rng,num-start-141,141,536,1.6807889938354492,True,,True,1,False,1000,True,1.0
./expes/v2_2020-11-23_di_150-prng-1,daily_issda_150,150,rng-150,111,rng,num-start-191,191,536,1.9155008792877197,True,,True,1,False,1000,True,1.0
./expes/v2_2020-11-23_di_150-prng-1,daily_issda_150,150,rng-150,21,rng,num-start-111,111,536,1.0814766883850098,True,,True,1,False,1000,True,1.0
./expes/v2_2020-11-23_di_150-prng-1,daily_issda_150,150,rng-150,91,rng,num-start-201,201,536,2.011784076690674,True,,True,1,False,1000,True,1.0
./expes/v2_2020-11-23_di_150-prng-1,daily_issda_150,150,rng-150,41,rng,num-start-251,251,536,2.1644883155822754,True,,True,1,False,1000,True,1.0
./expes/v2_2020-11-23_di_150-prng-1,daily_issda_150,150,rng-150,21,rng,num-start-261,261,536,2.1758651733398438,True,,True,1,False,1000,True,1.0
./expes/v2_2020-11-23_di_150-prng-1,daily_issda_150,150,rng-150,81,rng,num-start-121,121,536,1.2636079788208008,True,,True,1,False,1000,True,1.0
./expes/v2_2020-11-23_di_150-prng-1,daily_issda_150,150,rng-150,11,rng,num-start-131,131,536,1.2592520713806152,True,,True,1,False,1000,True,1.0
./expes/v2_2020-11-23_di_150-prng-1,daily_issda_150,150,rng-150,81,rng,num-start-101,101,536,1.0347931385040283,True,,True,1,False,1000,True,1.0
./expes/v2_2020-11-23_di_150-prng-1,daily_issda_150,150,rng-150,31,rng,num-start-181,181,536,1.8214926719665527,True,,True,1,False,1000,True,1.0
./expes/v2_2020-11-23_di_150-prng-1,daily_issda_150,150,rng-150,1,rng,num-start-211,211,536,1.4589271545410156,True,,True,1,False,1000,True,1.0
./expes/v2_2020-11-23_di_150-prng-1,daily_issda_150,150,rng-150,41,rng,num-start-161,161,536,1.6506175994873047,True,,True,1,False,1000,True,1.0
./expes/v2_2020-11-23_di_150-prng-1,daily_issda_150,150,rng-150,141,rng,num-start-31,31,536,0.42386937141418457,True,,True,1,False,1000,True,1.0
./expes/v2_2020-11-23_di_150-prng-1,daily_issda_150,150,rng-150,51,rng,num-start-241,241,536,2.510241746902466,True,,True,1,False,1000,True,1.0
./expes/v2_2020-11-23_di_150-prng-1,daily_issda_150,150,rng-150,141,rng,num-start-251,251,536,2.1789028644561768,True,,True,1,False,1000,True,1.0
./expes/v2_2020-11-23_di_150-prng-1,daily_issda_150,150,rng-150,111,rng,num-start-31,31,536,105.18539142608643,True,,True,1,False,1000,True,1.0
./expes/v2_2020-11-23_di_150-prng-1,daily_issda_150,150,rng-150,71,rng,num-start-221,221,536,2.4543259143829346,True,,True,1,False,1000,True,1.0
./expes/v2_2020-11-23_di_150-prng-1,daily_issda_150,150,rng-150,61,rng,num-start-211,211,536,2.2191162109375,True,,True,1,False,1000,True,1.0
./expes/v2_2020-11-23_di_150-prng-1,daily_issda_150,150,rng-150,41,rng,num-start-181,181,536,2.097642183303833,True,,True,1,False,1000,True,1.0
./expes/v2_2020-11-23_di_150-prng-1,daily_issda_150,150,rng-150,131,rng,num-start-261,261,536,2.425548791885376,True,,True,1,False,1000,True,1.0
./expes/v2_2020-11-23_di_150-prng-1,daily_issda_150,150,rng-150,31,rng,num-start-231,231,536,2.0301666259765625,True,,True,1,False,1000,True,1.0
./expes/v2_2020-11-23_di_150-prng-1,daily_issda_150,150,rng-150,111,rng,num-start-121,121,536,1.5130932331085205,True,,True,1,False,1000,True,1.0
./expes/v2_2020-11-23_di_150-prng-1,daily_issda_150,150,rng-150,131,rng,num-start-271,271,536,2.4335200786590576,True,,True,1,False,1000,True,1.0
./expes/v2_2020-11-23_di_150-prng-1,daily_issda_150,150,rng-150,131,rng,num-start-11,11,536,1003.2438716888428,False,,False,0,True,1000,True,0.0
./expes/v2_2020-11-23_di_150-prng-1,daily_issda_150,150,rng-150,141,rng,num-start-11,11,536,0.889080286026001,True,,True,1,False,1000,True,1.0
./expes/v2_2020-11-23_di_150-prng-1,daily_issda_150,150,rng-150,111,rng,num-start-201,201,536,1.8853838443756104,True,,True,1,False,1000,True,1.0
./expes/v2_2020-11-23_di_150-prng-1,daily_issda_150,150,rng-150,21,rng,num-start-231,231,536,2.4634146690368652,True,,True,1,False,1000,True,1.0
./expes/v2_2020-11-23_di_150-prng-1,daily_issda_150,150,rng-150,71,rng,num-start-41,41,536,1002.3824079036713,False,,False,0,True,1000,True,0.0
./expes/v2_2020-11-23_di_150-prng-1,daily_issda_150,150,rng-150,1,rng,num-start-141,141,536,0.9943797588348389,True,,True,1,False,1000,True,1.0
./expes/v2_2020-11-23_di_150-prng-1,daily_issda_150,150,rng-150,141,rng,num-start-21,21,536,0.7494244575500488,True,,True,1,False,1000,True,1.0
./expes/v2_2020-11-23_di_150-prng-1,daily_issda_150,150,rng-150,51,rng,num-start-1,1,536,0.6965522766113281,False,,False,2,False,1000,True,1.0
./expes/v2_2020-11-23_di_150-prng-1,daily_issda_150,150,rng-150,81,rng,num-start-21,21,536,1000.7791836261749,False,,False,0,True,1000,True,0.0
./expes/v2_2020-11-23_di_150-prng-1,daily_issda_150,150,rng-150,11,rng,num-start-271,271,536,2.415354013442993,True,,True,1,False,1000,True,1.0
./expes/v2_2020-11-23_di_150-prng-1,daily_issda_150,150,rng-150,131,rng,num-start-51,51,536,0.6732566356658936,True,,True,1,False,1000,True,1.0
./expes/v2_2020-11-23_di_150-prng-1,daily_issda_150,150,rng-150,31,rng,num-start-1,1,536,1.2116549015045166,False,,False,2,False,1000,True,1.0
./expes/v2_2020-11-23_di_150-prng-1,daily_issda_150,150,rng-150,111,rng,num-start-171,171,536,1.6167495250701904,True,,True,1,False,1000,True,1.0
./expes/v2_2020-11-23_di_150-prng-1,daily_issda_150,150,rng-150,1,rng,num-start-121,121,536,0.8737947940826416,True,,True,1,False,1000,True,1.0
./expes/v2_2020-11-23_di_150-prng-1,daily_issda_150,150,rng-150,121,rng,num-start-211,211,536,1.8898608684539795,True,,True,1,False,1000,True,1.0
./expes/v2_2020-11-23_di_150-prng-1,daily_issda_150,150,rng-150,11,rng,num-start-291,291,536,2.575129747390747,True,,True,1,False,1000,True,1.0
./expes/v2_2020-11-23_di_150-prng-1,daily_issda_150,150,rng-150,51,rng,num-start-251,251,536,2.391447067260742,True,,True,1,False,1000,True,1.0
./expes/v2_2020-11-23_di_150-prng-1,daily_issda_150,150,rng-150,21,rng,num-start-231,231,536,2.244565486907959,True,,True,1,False,1000,True,1.0
./expes/v2_2020-11-23_di_150-prng-1,daily_issda_150,150,rng-150,141,rng,num-start-181,181,536,1.7858409881591797,True,,True,1,False,1000,True,1.0
./expes/v2_2020-11-23_di_150-prng-1,daily_issda_150,150,rng-150,101,rng,num-start-181,181,536,1.9329800605773926,True,,True,1,False,1000,True,1.0
./expes/v2_2020-11-23_di_150-prng-1,daily_issda_150,150,rng-150,121,rng,num-start-141,141,536,1.632279872894287,True,,True,1,False,1000,True,1.0
./expes/v2_2020-11-23_di_150-prng-1,daily_issda_150,150,rng-150,111,rng,num-start-41,41,536,1.233232021331787,True,,True,1,False,1000,True,1.0
./expes/v2_2020-11-23_di_150-prng-1,daily_issda_150,150,rng-150,91,rng,num-start-211,211,536,2.047245979309082,True,,True,1,False,1000,True,1.0
./expes/v2_2020-11-23_di_150-prng-1,daily_issda_150,150,rng-150,71,rng,num-start-281,281,536,2.886672258377075,True,,True,1,False,1000,True,1.0
./expes/v2_2020-11-23_di_150-prng-1,daily_issda_150,150,rng-150,71,rng,num-start-1,1,536,0.7199544906616211,False,,False,2,False,1000,True,1.0
./expes/v2_2020-11-23_di_150-prng-1,daily_issda_150,150,rng-150,111,rng,num-start-71,71,536,0.7457239627838135,True,,True,1,False,1000,True,1.0
./expes/v2_2020-11-23_di_150-prng-1,daily_issda_150,150,rng-150,71,rng,num-start-61,61,536,1.5606262683868408,True,,True,1,False,1000,True,1.0
./expes/v2_2020-11-23_di_150-prng-1,daily_issda_150,150,rng-150,71,rng,num-start-131,131,536,1.2312188148498535,True,,True,1,False,1000,True,1.0
./expes/v2_2020-11-23_di_150-prng-1,daily_issda_150,150,rng-150,111,rng,num-start-91,91,536,0.9418299198150635,True,,True,1,False,1000,True,1.0
./expes/v2_2020-11-23_di_150-prng-1,daily_issda_150,150,rng-150,111,rng,num-start-191,191,536,1.8002674579620361,True,,True,1,False,1000,True,1.0
./expes/v2_2020-11-23_di_150-prng-1,daily_issda_150,150,rng-150,111,rng,num-start-291,291,536,2.726391315460205,True,,True,1,False,1000,True,1.0
./expes/v2_2020-11-23_di_150-prng-1,daily_issda_150,150,rng-150,21,rng,num-start-121,121,536,1.2413246631622314,True,,True,1,False,1000,True,1.0
./expes/v2_2020-11-23_di_150-prng-1,daily_issda_150,150,rng-150,91,rng,num-start-231,231,536,2.3748795986175537,True,,True,1,False,1000,True,1.0
./expes/v2_2020-11-23_di_150-prng-1,daily_issda_150,150,rng-150,21,rng,num-start-31,31,536,1.121852159500122,True,,True,1,False,1000,True,1.0
./expes/v2_2020-11-23_di_150-prng-1,daily_issda_150,150,rng-150,31,rng,num-start-51,51,536,1.1666934490203857,True,,True,1,False,1000,True,1.0
./expes/v2_2020-11-23_di_150-prng-1,daily_issda_150,150,rng-150,121,rng,num-start-151,151,536,1.6444530487060547,True,,True,1,False,1000,True,1.0
./expes/v2_2020-11-23_di_150-prng-1,daily_issda_150,150,rng-150,81,rng,num-start-201,201,536,1.9329833984375,True,,True,1,False,1000,True,1.0
./expes/v2_2020-11-23_di_150-prng-1,daily_issda_150,150,rng-150,51,rng,num-start-181,181,536,2.004696846008301,True,,True,1,False,1000,True,1.0
./expes/v2_2020-11-23_di_150-prng-1,daily_issda_150,150,rng-150,61,rng,num-start-11,11,536,1000.3485281467438,False,,False,0,True,1000,True,0.0
./expes/v2_2020-11-23_di_150-prng-1,daily_issda_150,150,rng-150,61,rng,num-start-41,41,536,1004.7096514701843,False,,False,0,True,1000,True,0.0
./expes/v2_2020-11-23_di_150-prng-1,daily_issda_150,150,rng-150,131,rng,num-start-191,191,536,1.8394033908843994,True,,True,1,False,1000,True,1.0
./expes/v2_2020-11-23_di_150-prng-1,daily_issda_150,150,rng-150,101,rng,num-start-131,131,536,1.2337062358856201,True,,True,1,False,1000,True,1.0
./expes/v2_2020-11-23_di_150-prng-1,daily_issda_150,150,rng-150,111,rng,num-start-151,151,536,1.641479253768921,True,,True,1,False,1000,True,1.0
./expes/v2_2020-11-23_di_150-prng-1,daily_issda_150,150,rng-150,61,rng,num-start-231,231,536,2.372330665588379,True,,True,1,False,1000,True,1.0
./expes/v2_2020-11-23_di_150-prng-1,daily_issda_150,150,rng-150,21,rng,num-start-281,281,536,2.423557758331299,True,,True,1,False,1000,True,1.0
./expes/v2_2020-11-23_di_150-prng-1,daily_issda_150,150,rng-150,141,rng,num-start-121,121,536,1.2345373630523682,True,,True,1,False,1000,True,1.0
./expes/v2_2020-11-23_di_150-prng-1,daily_issda_150,150,rng-150,101,rng,num-start-241,241,536,2.5344350337982178,True,,True,1,False,1000,True,1.0
./expes/v2_2020-11-23_di_150-prng-1,daily_issda_150,150,rng-150,1,rng,num-start-221,221,536,1.671203374862671,True,,True,1,False,1000,True,1.0
./expes/v2_2020-11-23_di_150-prng-1,daily_issda_150,150,rng-150,111,rng,num-start-161,161,536,1.6351292133331299,True,,True,1,False,1000,True,1.0
./expes/v2_2020-11-23_di_150-prng-1,daily_issda_150,150,rng-150,1,rng,num-start-41,41,536,0.320420503616333,True,,True,1,False,1000,True,1.0
./expes/v2_2020-11-23_di_150-prng-1,daily_issda_150,150,rng-150,61,rng,num-start-261,261,536,2.741546154022217,True,,True,1,False,1000,True,1.0
./expes/v2_2020-11-23_di_150-prng-1,daily_issda_150,150,rng-150,131,rng,num-start-131,131,536,1.3790242671966553,True,,True,1,False,1000,True,1.0
./expes/v2_2020-11-23_di_150-prng-1,daily_issda_150,150,rng-150,61,rng,num-start-151,151,536,1.780644416809082,True,,True,1,False,1000,True,1.0
./expes/v2_2020-11-23_di_150-prng-1,daily_issda_150,150,rng-150,101,rng,num-start-181,181,536,1.8416404724121094,True,,True,1,False,1000,True,1.0
./expes/v2_2020-11-23_di_150-prng-1,daily_issda_150,150,rng-150,121,rng,num-start-171,171,536,1.7130162715911865,True,,True,1,False,1000,True,1.0
./expes/v2_2020-11-23_di_150-prng-1,daily_issda_150,150,rng-150,61,rng,num-start-151,151,536,1.6127967834472656,True,,True,1,False,1000,True,1.0
./expes/v2_2020-11-23_di_150-prng-1,daily_issda_150,150,rng-150,21,rng,num-start-241,241,536,2.4140193462371826,True,,True,1,False,1000,True,1.0
./expes/v2_2020-11-23_di_150-prng-1,daily_issda_150,150,rng-150,121,rng,num-start-11,11,536,1000.6470637321472,False,,False,0,True,1000,True,0.0
./expes/v2_2020-11-23_di_150-prng-1,daily_issda_150,150,rng-150,101,rng,num-start-111,111,536,1.3296854496002197,True,,True,1,False,1000,True,1.0
./expes/v2_2020-11-23_di_150-prng-1,daily_issda_150,150,rng-150,11,rng,num-start-211,211,536,2.073150873184204,True,,True,1,False,1000,True,1.0
./expes/v2_2020-11-23_di_150-prng-1,daily_issda_150,150,rng-150,1,rng,num-start-201,201,536,1.4374513626098633,True,,True,1,False,1000,True,1.0
./expes/v2_2020-11-23_di_150-prng-1,daily_issda_150,150,rng-150,111,rng,num-start-91,91,536,1.0327939987182617,True,,True,1,False,1000,True,1.0
./expes/v2_2020-11-23_di_150-prng-1,daily_issda_150,150,rng-150,121,rng,num-start-291,291,536,2.433220148086548,True,,True,1,False,1000,True,1.0
./expes/v2_2020-11-23_di_150-prng-1,daily_issda_150,150,rng-150,31,rng,num-start-91,91,536,0.9326465129852295,True,,True,1,False,1000,True,1.0
./expes/v2_2020-11-23_di_150-prng-1,daily_issda_150,150,rng-150,71,rng,num-start-61,61,536,1.2528817653656006,True,,True,1,False,1000,True,1.0
./expes/v2_2020-11-23_di_150-prng-1,daily_issda_150,150,rng-150,41,rng,num-start-281,281,536,2.363415002822876,True,,True,1,False,1000,True,1.0
./expes/v2_2020-11-23_di_150-prng-1,daily_issda_150,150,rng-150,71,rng,num-start-101,101,536,1.1141912937164307,True,,True,1,False,1000,True,1.0
./expes/v2_2020-11-23_di_150-prng-1,daily_issda_150,150,rng-150,41,rng,num-start-21,21,536,1000.222058057785,False,,False,0,True,1000,True,0.0
./expes/v2_2020-11-23_di_150-prng-1,daily_issda_150,150,rng-150,91,rng,num-start-101,101,536,1.257976770401001,True,,True,1,False,1000,True,1.0
./expes/v2_2020-11-23_di_150-prng-1,daily_issda_150,150,rng-150,91,rng,num-start-191,191,536,1.8932664394378662,True,,True,1,False,1000,True,1.0
./expes/v2_2020-11-23_di_150-prng-1,daily_issda_150,150,rng-150,41,rng,num-start-1,1,536,0.9826381206512451,False,,False,2,False,1000,True,1.0
./expes/v2_2020-11-23_di_150-prng-1,daily_issda_150,150,rng-150,101,rng,num-start-191,191,536,2.2485647201538086,True,,True,1,False,1000,True,1.0
./expes/v2_2020-11-23_di_150-prng-1,daily_issda_150,150,rng-150,101,rng,num-start-281,281,536,2.358708143234253,True,,True,1,False,1000,True,1.0
./expes/v2_2020-11-23_di_150-prng-1,daily_issda_150,150,rng-150,41,rng,num-start-241,241,536,2.615037441253662,True,,True,1,False,1000,True,1.0
./expes/v2_2020-11-23_di_150-prng-1,daily_issda_150,150,rng-150,11,rng,num-start-51,51,536,0.6769583225250244,True,,True,1,False,1000,True,1.0
./expes/v2_2020-11-23_di_150-prng-1,daily_issda_150,150,rng-150,11,rng,num-start-181,181,536,1.8308565616607666,True,,True,1,False,1000,True,1.0
./expes/v2_2020-11-23_di_150-prng-1,daily_issda_150,150,rng-150,11,rng,num-start-201,201,536,2.048123359680176,True,,True,1,False,1000,True,1.0
./expes/v2_2020-11-23_di_150-prng-1,daily_issda_150,150,rng-150,51,rng,num-start-241,241,536,2.203970432281494,True,,True,1,False,1000,True,1.0
./expes/v2_2020-11-23_di_150-prng-1,daily_issda_150,150,rng-150,61,rng,num-start-241,241,536,2.1924591064453125,True,,True,1,False,1000,True,1.0
./expes/v2_2020-11-23_di_150-prng-1,daily_issda_150,150,rng-150,81,rng,num-start-211,211,536,2.055586576461792,True,,True,1,False,1000,True,1.0
./expes/v2_2020-11-23_di_150-prng-1,daily_issda_150,150,rng-150,61,rng,num-start-71,71,536,0.8563535213470459,True,,True,1,False,1000,True,1.0
./expes/v2_2020-11-23_di_150-prng-1,daily_issda_150,150,rng-150,11,rng,num-start-51,51,536,0.639704704284668,True,,True,1,False,1000,True,1.0
./expes/v2_2020-11-23_di_150-prng-1,daily_issda_150,150,rng-150,51,rng,num-start-151,151,536,1.6382529735565186,True,,True,1,False,1000,True,1.0
./expes/v2_2020-11-23_di_150-prng-1,daily_issda_150,150,rng-150,51,rng,num-start-111,111,536,1.199845552444458,True,,True,1,False,1000,True,1.0
./expes/v2_2020-11-23_di_150-prng-1,daily_issda_150,150,rng-150,71,rng,num-start-151,151,536,1.5311050415039062,True,,True,1,False,1000,True,1.0
./expes/v2_2020-11-23_di_150-prng-1,daily_issda_150,150,rng-150,81,rng,num-start-71,71,536,0.845778226852417,True,,True,1,False,1000,True,1.0
./expes/v2_2020-11-23_di_150-prng-1,daily_issda_150,150,rng-150,131,rng,num-start-21,21,536,1.8606953620910645,True,,True,1,False,1000,True,1.0
./expes/v2_2020-11-23_di_150-prng-1,daily_issda_150,150,rng-150,21,rng,num-start-31,31,536,17.01971697807312,True,,True,1,False,1000,True,1.0
./expes/v2_2020-11-23_di_150-prng-1,daily_issda_150,150,rng-150,21,rng,num-start-61,61,536,0.7172031402587891,True,,True,1,False,1000,True,1.0
./expes/v2_2020-11-23_di_150-prng-1,daily_issda_150,150,rng-150,101,rng,num-start-201,201,536,2.1576640605926514,True,,True,1,False,1000,True,1.0
./expes/v2_2020-11-23_di_150-prng-1,daily_issda_150,150,rng-150,141,rng,num-start-231,231,536,2.0631041526794434,True,,True,1,False,1000,True,1.0
./expes/v2_2020-11-23_di_150-prng-1,daily_issda_150,150,rng-150,41,rng,num-start-221,221,536,2.491802215576172,True,,True,1,False,1000,True,1.0
./expes/v2_2020-11-23_di_150-prng-1,daily_issda_150,150,rng-150,131,rng,num-start-181,181,536,1.6761252880096436,True,,True,1,False,1000,True,1.0
./expes/v2_2020-11-23_di_150-prng-1,daily_issda_150,150,rng-150,121,rng,num-start-141,141,536,1.3963325023651123,True,,True,1,False,1000,True,1.0
./expes/v2_2020-11-23_di_150-prng-1,daily_issda_150,150,rng-150,91,rng,num-start-11,11,536,1000.2136301994324,False,,False,0,True,1000,True,0.0
