expe,clients,clients_size,clients_subset,agg_size,agg_size_pc,method,days,days_size,days_total,noise_method,time,valid,valid_sum,success,score_avg,score_min,score_max,nsols,oracle,wall_hit,wall_time,pooled,pool_size,uuid,infeasible,optimal,valid_sums
./expes/v2_2021-03-23_issda-30_2000-prng-1-w1-p2,30_issda-2000,2000,first-2000,100,5,rng,num-start-3600,3600,25726,classic,1508.271077632904,True,,False,1.0,1.0,1.0,1,"['24', '35', '36', '39', '75', '98', '113', '135', '151', '162', '205', '239', '240', '288', '302', '311', '324', '353', '401', '423', '428', '458', '469', '474', '490', '491', '540', '575', '587', '606', '626', '642', '646', '693', '706', '728', '729', '738', '753', '804', '810', '823', '830', '860', '862', '900', '923', '933', '945', '956', '960', '1003', '1005', '1014', '1048', '1068', '1086', '1094', '1137', '1157', '1167', '1183', '1258', '1323', '1396', '1415', '1422', '1423', '1451', '1473', '1486', '1489', '1508', '1592', '1608', '1634', '1637', '1649', '1659', '1718', '1722', '1729', '1753', '1756', '1757', '1769', '1792', '1802', '1817', '1827', '1870', '1888', '1890', '1895', '1906', '1915', '1922', '1936', '1965', '1977']",True,1000,True,2,ec43286132,0.0,0.0,1.0
./expes/v2_2021-03-23_issda-30_2000-prng-1-w1-p2,30_issda-2000,2000,first-2000,1000,50,rng,num-start-400,400,25726,classic,1054.0867657661438,False,,False,0,,,0,"['6', '7', '8', '9', '11', '12', '15', '16', '21', '25', '26', '28', '29', '30', '31', '33', '34', '36', '39', '46', '48', '52', '54', '56', '57', '59', '64', '65', '66', '67', '68', '69', '71', '73', '74', '75', '76', '77', '85', '86', '87', '88', '89', '90', '91', '92', '95', '98', '99', '100', '102', '103', '104', '107', '108', '109', '110', '113', '114', '116', '118', '120', '121', '122', '123', '124', '129', '133', '134', '135', '136', '139', '140', '143', '144', '145', '147', '148', '151', '152', '154', '156', '159', '160', '161', '164', '165', '166', '167', '170', '172', '175', '177', '181', '182', '183', '186', '187', '190', '194', '196', '197', '198', '199', '203', '205', '211', '215', '217', '219', '220', '223', '224', '232', '235', '237', '238', '239', '241', '243', '245', '246', '247', '248', '253', '256', '257', '260', '261', '262', '263', '267', '268', '273', '275', '278', '279', '285', '286', '289', '290', '291', '294', '299', '301', '306', '307', '308', '310', '312', '313', '314', '315', '316', '317', '318', '320', '321', '324', '325', '329', '331', '334', '335', '337', '338', '339', '340', '341', '342', '345', '346', '347', '348', '350', '351', '352', '355', '357', '358', '359', '360', '361', '362', '364', '365', '366', '367', '374', '375', '377', '381', '382', '384', '387', '388', '390', '391', '392', '393', '394', '395', '397', '399', '400', '401', '407', '408', '410', '413', '415', '422', '423', '426', '428', '429', '430', '433', '434', '439', '447', '451', '453', '454', '457', '458', '459', '460', '465', '466', '469', '470', '474', '481', '482', '483', '487', '489', '490', '491', '492', '494', '495', '496', '497', '501', '502', '503', '505', '506', '508', '509', '512', '518', '519', '522', '524', '526', '531', '532', '533', '534', '537', '538', '540', '544', '545', '547', '552', '554', '557', '562', '563', '568', '569', '570', '579', '581', '582', '585', '587', '589', '590', '591', '593', '594', '596', '599', '600', '601', '603', '604', '607', '608', '612', '613', '614', '617', '619', '620', '621', '622', '627', '628', '630', '631', '632', '636', '637', '638', '642', '644', '646', '649', '650', '655', '656', '659', '660', '662', '665', '667', '670', '671', '672', '673', '674', '680', '682', '684', '686', '688', '694', '695', '698', '700', '702', '703', '704', '708', '712', '713', '714', '715', '716', '717', '718', '719', '721', '724', '725', '728', '729', '730', '731', '732', '735', '737', '738', '739', '740', '743', '747', '750', '751', '752', '753', '755', '766', '767', '769', '771', '772', '776', '778', '779', '782', '783', '788', '790', '791', '792', '795', '796', '797', '798', '800', '803', '804', '806', '807', '811', '812', '813', '814', '817', '818', '819', '820', '821', '822', '825', '827', '829', '830', '831', '833', '834', '836', '837', '841', '846', '848', '849', '851', '852', '854', '857', '858', '860', '861', '862', '863', '864', '866', '867', '868', '869', '874', '876', '877', '879', '880', '881', '882', '887', '888', '889', '891', '892', '893', '894', '896', '897', '899', '900', '901', '904', '905', '906', '910', '911', '913', '915', '916', '917', '918', '921', '923', '924', '925', '930', '931', '933', '934', '936', '938', '939', '940', '941', '942', '944', '946', '947', '948', '949', '950', '951', '952', '956', '957', '958', '959', '962', '963', '965', '968', '970', '972', '974', '975', '976', '977', '978', '979', '981', '983', '984', '986', '988', '989', '990', '993', '994', '996', '1001', '1002', '1003', '1004', '1005', '1007', '1010', '1014', '1016', '1018', '1023', '1024', '1026', '1027', '1028', '1030', '1033', '1038', '1040', '1041', '1044', '1046', '1047', '1051', '1052', '1056', '1058', '1059', '1060', '1065', '1066', '1067', '1069', '1070', '1071', '1072', '1075', '1076', '1082', '1087', '1088', '1089', '1091', '1093', '1096', '1097', '1099', '1100', '1103', '1104', '1106', '1107', '1108', '1109', '1110', '1113', '1116', '1117', '1125', '1126', '1128', '1129', '1130', '1131', '1138', '1139', '1140', '1144', '1145', '1146', '1147', '1151', '1153', '1156', '1157', '1158', '1160', '1161', '1162', '1164', '1167', '1168', '1169', '1171', '1172', '1173', '1177', '1179', '1180', '1182', '1184', '1185', '1188', '1190', '1191', '1193', '1194', '1198', '1200', '1203', '1206', '1207', '1210', '1212', '1213', '1216', '1219', '1220', '1222', '1224', '1225', '1226', '1232', '1233', '1234', '1235', '1236', '1238', '1240', '1241', '1242', '1243', '1245', '1246', '1247', '1248', '1249', '1250', '1256', '1257', '1259', '1265', '1267', '1268', '1270', '1275', '1279', '1281', '1282', '1283', '1284', '1285', '1286', '1288', '1291', '1293', '1295', '1297', '1299', '1301', '1303', '1305', '1308', '1309', '1310', '1311', '1314', '1315', '1317', '1324', '1325', '1326', '1329', '1331', '1335', '1336', '1337', '1338', '1339', '1340', '1345', '1346', '1347', '1348', '1349', '1351', '1353', '1356', '1359', '1361', '1363', '1364', '1366', '1371', '1373', '1380', '1381', '1383', '1387', '1392', '1394', '1395', '1396', '1400', '1402', '1405', '1406', '1408', '1413', '1415', '1416', '1418', '1420', '1421', '1424', '1425', '1428', '1430', '1431', '1434', '1435', '1436', '1437', '1438', '1440', '1441', '1444', '1445', '1447', '1453', '1455', '1458', '1459', '1460', '1461', '1462', '1463', '1464', '1466', '1471', '1473', '1474', '1475', '1476', '1478', '1479', '1480', '1481', '1482', '1484', '1488', '1489', '1490', '1494', '1495', '1502', '1503', '1508', '1513', '1515', '1517', '1522', '1523', '1524', '1526', '1527', '1528', '1535', '1539', '1541', '1543', '1544', '1545', '1546', '1550', '1551', '1555', '1556', '1559', '1560', '1561', '1563', '1564', '1565', '1570', '1571', '1572', '1573', '1575', '1577', '1579', '1580', '1582', '1583', '1584', '1587', '1589', '1590', '1592', '1593', '1595', '1597', '1604', '1612', '1613', '1615', '1616', '1617', '1620', '1624', '1626', '1631', '1632', '1633', '1638', '1639', '1641', '1643', '1645', '1648', '1650', '1653', '1654', '1655', '1656', '1657', '1659', '1661', '1662', '1664', '1666', '1667', '1670', '1671', '1673', '1674', '1675', '1676', '1679', '1680', '1681', '1682', '1685', '1686', '1687', '1688', '1689', '1690', '1691', '1694', '1695', '1698', '1699', '1700', '1705', '1707', '1708', '1709', '1710', '1712', '1713', '1714', '1715', '1717', '1718', '1725', '1729', '1735', '1736', '1737', '1740', '1741', '1742', '1743', '1744', '1746', '1748', '1749', '1750', '1751', '1752', '1756', '1759', '1761', '1762', '1763', '1766', '1768', '1771', '1772', '1773', '1776', '1781', '1783', '1785', '1786', '1790', '1791', '1792', '1794', '1795', '1796', '1797', '1800', '1802', '1803', '1805', '1808', '1813', '1815', '1818', '1819', '1821', '1822', '1823', '1825', '1826', '1830', '1831', '1835', '1837', '1839', '1840', '1841', '1842', '1845', '1846', '1847', '1851', '1852', '1853', '1856', '1858', '1860', '1862', '1863', '1864', '1865', '1866', '1870', '1871', '1872', '1874', '1875', '1878', '1881', '1882', '1883', '1884', '1886', '1887', '1889', '1890', '1893', '1896', '1897', '1900', '1903', '1905', '1907', '1910', '1911', '1912', '1916', '1917', '1918', '1921', '1923', '1927', '1928', '1930', '1932', '1935', '1936', '1937', '1941', '1943', '1946', '1948', '1949', '1951', '1952', '1955', '1956', '1958', '1959', '1962', '1965', '1966', '1967', '1968', '1969', '1971', '1973', '1974', '1976', '1984', '1985', '1986', '1987', '1988', '1993', '1995', '1997', '1999']",True,1000,True,2,8dadfdf721,0.0,0.0,0.0
./expes/v2_2021-03-23_issda-30_2000-prng-1-w1-p2,30_issda-2000,2000,first-2000,900,45,rng,num-start-2000,2000,25726,classic,1263.4090549945831,True,,False,1.0,1.0,1.0,1,"['7', '10', '11', '12', '15', '16', '17', '19', '20', '22', '24', '25', '32', '35', '37', '38', '40', '43', '49', '54', '55', '56', '57', '59', '61', '62', '63', '64', '67', '69', '70', '73', '74', '77', '80', '83', '84', '90', '94', '97', '101', '102', '103', '104', '105', '106', '107', '108', '110', '111', '114', '116', '117', '118', '120', '123', '124', '128', '131', '132', '135', '142', '145', '146', '147', '150', '151', '152', '154', '158', '159', '162', '163', '166', '168', '171', '174', '175', '178', '179', '180', '182', '183', '184', '191', '192', '193', '197', '201', '202', '203', '204', '206', '210', '213', '214', '216', '217', '218', '221', '222', '225', '226', '227', '232', '233', '234', '236', '240', '241', '250', '251', '252', '253', '255', '256', '257', '261', '263', '264', '265', '266', '269', '273', '277', '281', '282', '284', '287', '288', '289', '291', '293', '294', '295', '301', '305', '307', '308', '309', '310', '311', '314', '316', '319', '322', '331', '332', '333', '334', '335', '336', '337', '344', '346', '347', '349', '350', '353', '354', '355', '356', '357', '358', '359', '367', '376', '377', '383', '386', '387', '388', '392', '393', '394', '395', '396', '401', '402', '403', '404', '405', '407', '408', '411', '415', '417', '418', '420', '427', '430', '431', '433', '435', '437', '438', '439', '443', '444', '446', '448', '450', '452', '453', '455', '456', '461', '464', '466', '467', '470', '472', '474', '475', '479', '483', '484', '486', '489', '490', '496', '497', '499', '500', '508', '509', '510', '511', '512', '513', '514', '515', '517', '523', '526', '528', '529', '531', '532', '533', '535', '536', '538', '540', '541', '542', '543', '544', '545', '548', '549', '550', '552', '554', '559', '561', '563', '565', '566', '570', '574', '577', '581', '582', '584', '587', '591', '592', '594', '597', '599', '601', '602', '603', '604', '605', '607', '608', '609', '616', '618', '620', '621', '622', '623', '625', '630', '631', '632', '633', '634', '635', '636', '638', '639', '642', '645', '647', '648', '650', '651', '652', '654', '655', '658', '659', '660', '662', '663', '664', '667', '669', '670', '674', '675', '677', '678', '679', '681', '684', '685', '686', '687', '689', '691', '695', '696', '698', '703', '712', '713', '714', '720', '721', '726', '727', '728', '729', '731', '733', '734', '737', '741', '743', '746', '749', '752', '754', '757', '758', '762', '763', '768', '769', '770', '775', '776', '778', '781', '783', '784', '786', '787', '791', '792', '794', '796', '801', '802', '803', '805', '807', '817', '820', '823', '826', '827', '828', '829', '830', '831', '833', '834', '836', '837', '840', '842', '846', '848', '849', '850', '854', '858', '859', '860', '862', '865', '866', '867', '875', '876', '877', '878', '882', '887', '889', '893', '894', '895', '896', '897', '901', '904', '905', '907', '908', '912', '913', '915', '916', '920', '921', '924', '927', '928', '930', '933', '940', '941', '942', '945', '948', '950', '952', '954', '957', '958', '959', '962', '965', '967', '969', '970', '971', '972', '973', '974', '975', '978', '981', '984', '987', '989', '990', '992', '994', '996', '997', '998', '1001', '1002', '1003', '1008', '1010', '1011', '1012', '1013', '1016', '1018', '1021', '1025', '1026', '1027', '1028', '1029', '1033', '1034', '1037', '1039', '1040', '1042', '1053', '1054', '1056', '1057', '1060', '1061', '1063', '1064', '1065', '1068', '1070', '1072', '1075', '1076', '1077', '1080', '1082', '1083', '1087', '1089', '1090', '1091', '1092', '1095', '1096', '1099', '1100', '1103', '1104', '1105', '1106', '1107', '1109', '1111', '1113', '1114', '1115', '1116', '1121', '1122', '1126', '1129', '1132', '1133', '1134', '1135', '1138', '1139', '1141', '1143', '1145', '1146', '1147', '1153', '1154', '1155', '1156', '1161', '1164', '1166', '1171', '1172', '1178', '1180', '1182', '1184', '1185', '1188', '1190', '1191', '1192', '1193', '1197', '1200', '1201', '1202', '1209', '1211', '1212', '1213', '1215', '1226', '1227', '1228', '1229', '1231', '1234', '1237', '1238', '1241', '1243', '1245', '1247', '1250', '1252', '1253', '1254', '1255', '1256', '1262', '1264', '1265', '1267', '1271', '1272', '1280', '1281', '1282', '1283', '1284', '1288', '1295', '1296', '1297', '1298', '1300', '1302', '1304', '1309', '1312', '1315', '1320', '1324', '1325', '1326', '1327', '1330', '1332', '1333', '1339', '1340', '1345', '1347', '1348', '1349', '1350', '1353', '1355', '1359', '1365', '1367', '1383', '1386', '1388', '1390', '1393', '1395', '1398', '1402', '1403', '1404', '1405', '1412', '1416', '1419', '1433', '1434', '1435', '1442', '1443', '1445', '1446', '1447', '1449', '1453', '1455', '1456', '1458', '1459', '1460', '1462', '1464', '1465', '1466', '1472', '1476', '1478', '1482', '1484', '1485', '1489', '1493', '1497', '1499', '1505', '1507', '1508', '1510', '1511', '1513', '1514', '1522', '1523', '1525', '1526', '1529', '1531', '1532', '1533', '1534', '1535', '1537', '1540', '1541', '1543', '1546', '1547', '1550', '1552', '1553', '1554', '1556', '1557', '1561', '1563', '1564', '1565', '1566', '1567', '1568', '1569', '1572', '1573', '1575', '1579', '1581', '1582', '1584', '1585', '1586', '1591', '1594', '1598', '1600', '1602', '1603', '1604', '1607', '1610', '1611', '1613', '1614', '1618', '1619', '1622', '1626', '1627', '1628', '1630', '1635', '1636', '1637', '1640', '1642', '1643', '1644', '1645', '1647', '1649', '1653', '1655', '1657', '1658', '1659', '1661', '1662', '1664', '1665', '1666', '1668', '1669', '1670', '1671', '1673', '1676', '1679', '1680', '1682', '1684', '1688', '1689', '1692', '1693', '1696', '1698', '1699', '1702', '1703', '1705', '1710', '1711', '1715', '1718', '1719', '1724', '1725', '1727', '1731', '1732', '1734', '1738', '1742', '1744', '1745', '1746', '1747', '1749', '1753', '1755', '1756', '1757', '1759', '1761', '1769', '1772', '1774', '1776', '1777', '1778', '1779', '1780', '1783', '1786', '1789', '1791', '1793', '1794', '1795', '1800', '1804', '1805', '1808', '1813', '1814', '1815', '1819', '1821', '1822', '1823', '1829', '1830', '1835', '1837', '1838', '1840', '1841', '1842', '1844', '1845', '1847', '1848', '1849', '1856', '1857', '1858', '1859', '1861', '1862', '1864', '1870', '1872', '1878', '1880', '1881', '1884', '1885', '1888', '1891', '1892', '1893', '1897', '1898', '1900', '1903', '1904', '1905', '1907', '1911', '1917', '1920', '1923', '1924', '1925', '1926', '1927', '1930', '1931', '1936', '1943', '1944', '1948', '1949', '1951', '1952', '1955', '1957', '1958', '1960', '1961', '1962', '1964', '1966', '1968', '1970', '1971', '1974', '1975', '1976', '1978', '1981', '1982', '1987', '1990', '1992', '1994', '1995', '1996', '1997', '1998']",True,1000,True,2,de8a98c614,0.0,0.0,1.0
./expes/v2_2021-03-23_issda-30_2000-prng-1-w1-p2,30_issda-2000,2000,first-2000,700,35,rng,num-start-3200,3200,25726,classic,1427.210521697998,True,,False,1.0,1.0,1.0,1,"['1', '2', '4', '6', '7', '11', '19', '21', '24', '27', '28', '30', '34', '38', '39', '41', '45', '47', '49', '53', '55', '57', '60', '61', '66', '68', '71', '74', '75', '76', '81', '82', '86', '90', '96', '100', '101', '107', '110', '111', '115', '117', '118', '121', '129', '130', '134', '136', '138', '141', '148', '161', '162', '166', '172', '175', '183', '187', '188', '189', '195', '199', '205', '209', '219', '221', '222', '227', '228', '231', '232', '236', '238', '243', '244', '250', '251', '253', '256', '259', '260', '265', '268', '269', '271', '272', '273', '274', '276', '280', '284', '285', '287', '289', '290', '291', '292', '293', '294', '299', '301', '304', '305', '306', '307', '309', '310', '315', '317', '322', '326', '327', '328', '331', '339', '340', '341', '346', '347', '352', '354', '361', '364', '366', '368', '369', '370', '371', '372', '373', '375', '379', '380', '382', '392', '397', '401', '403', '404', '407', '408', '415', '419', '420', '425', '427', '429', '434', '437', '441', '442', '444', '449', '452', '457', '464', '472', '481', '482', '483', '487', '488', '489', '499', '503', '504', '505', '511', '513', '514', '515', '517', '521', '524', '525', '533', '540', '541', '543', '548', '549', '555', '558', '561', '562', '565', '571', '573', '574', '576', '579', '580', '581', '586', '587', '592', '593', '594', '595', '597', '600', '601', '602', '604', '605', '606', '607', '608', '612', '616', '617', '618', '620', '622', '627', '628', '630', '634', '635', '637', '640', '643', '645', '647', '649', '650', '651', '654', '663', '667', '668', '678', '680', '683', '685', '689', '693', '694', '696', '697', '698', '700', '705', '706', '708', '713', '714', '715', '717', '718', '720', '721', '724', '726', '727', '728', '729', '731', '733', '734', '735', '740', '742', '743', '745', '747', '750', '753', '757', '761', '762', '764', '766', '767', '770', '771', '773', '775', '777', '778', '779', '780', '783', '784', '785', '787', '788', '790', '791', '797', '798', '799', '803', '804', '811', '817', '827', '828', '830', '831', '832', '836', '837', '839', '840', '848', '850', '851', '854', '858', '859', '862', '864', '872', '875', '876', '878', '880', '885', '887', '888', '890', '897', '904', '909', '912', '922', '928', '929', '934', '946', '947', '948', '949', '951', '953', '954', '958', '961', '963', '966', '968', '972', '973', '975', '977', '978', '980', '982', '983', '984', '985', '986', '987', '989', '991', '995', '997', '1000', '1003', '1004', '1007', '1008', '1009', '1011', '1017', '1020', '1023', '1025', '1030', '1036', '1038', '1050', '1051', '1056', '1058', '1059', '1060', '1062', '1070', '1075', '1085', '1086', '1087', '1090', '1091', '1093', '1102', '1103', '1105', '1109', '1111', '1114', '1117', '1118', '1121', '1123', '1125', '1127', '1130', '1133', '1134', '1137', '1138', '1146', '1148', '1155', '1156', '1159', '1165', '1170', '1174', '1175', '1176', '1179', '1185', '1190', '1193', '1200', '1201', '1202', '1204', '1208', '1209', '1210', '1214', '1217', '1219', '1221', '1230', '1231', '1236', '1237', '1246', '1247', '1251', '1253', '1257', '1259', '1260', '1264', '1265', '1266', '1269', '1271', '1272', '1274', '1275', '1276', '1278', '1279', '1280', '1282', '1284', '1285', '1290', '1292', '1293', '1295', '1305', '1308', '1316', '1320', '1321', '1323', '1326', '1327', '1328', '1329', '1330', '1331', '1332', '1334', '1336', '1342', '1344', '1352', '1353', '1355', '1356', '1357', '1360', '1363', '1364', '1368', '1369', '1374', '1376', '1380', '1389', '1395', '1397', '1398', '1404', '1405', '1408', '1410', '1411', '1412', '1415', '1417', '1423', '1424', '1427', '1429', '1437', '1439', '1443', '1444', '1445', '1446', '1450', '1451', '1460', '1461', '1467', '1471', '1472', '1474', '1475', '1476', '1477', '1478', '1480', '1481', '1485', '1495', '1496', '1498', '1499', '1501', '1509', '1512', '1516', '1517', '1518', '1520', '1521', '1523', '1526', '1527', '1533', '1536', '1538', '1548', '1553', '1555', '1556', '1558', '1561', '1569', '1577', '1585', '1587', '1589', '1590', '1595', '1596', '1599', '1600', '1601', '1602', '1610', '1614', '1622', '1627', '1629', '1631', '1632', '1633', '1634', '1636', '1642', '1643', '1648', '1654', '1655', '1663', '1665', '1666', '1673', '1675', '1677', '1679', '1681', '1682', '1684', '1689', '1693', '1694', '1697', '1700', '1703', '1706', '1711', '1712', '1713', '1714', '1718', '1722', '1723', '1724', '1725', '1727', '1729', '1731', '1738', '1745', '1746', '1749', '1751', '1753', '1759', '1761', '1769', '1775', '1776', '1777', '1778', '1779', '1782', '1785', '1787', '1795', '1796', '1800', '1804', '1819', '1821', '1822', '1823', '1826', '1827', '1829', '1830', '1831', '1833', '1837', '1841', '1846', '1848', '1850', '1865', '1866', '1867', '1868', '1872', '1874', '1877', '1878', '1881', '1888', '1889', '1892', '1893', '1904', '1906', '1915', '1916', '1917', '1918', '1920', '1921', '1923', '1924', '1928', '1930', '1931', '1932', '1935', '1936', '1937', '1945', '1946', '1948', '1950', '1951', '1953', '1955', '1957', '1959', '1960', '1961', '1963', '1966', '1967', '1968', '1969', '1970', '1973', '1976', '1977', '1980', '1983', '1984', '1992', '1993', '1998', '1999', '2000']",True,1000,True,2,c96866ab0c,0.0,0.0,1.0
./expes/v2_2021-03-23_issda-30_2000-prng-1-w1-p2,30_issda-2000,2000,first-2000,300,15,rng,num-start-2400,2400,25726,classic,1309.0765011310577,True,,False,1.0,1.0,1.0,1,"['1', '4', '22', '36', '40', '43', '52', '57', '58', '65', '72', '88', '95', '105', '106', '112', '127', '137', '141', '144', '149', '158', '171', '184', '185', '191', '194', '195', '196', '199', '201', '210', '212', '218', '219', '229', '234', '236', '243', '249', '252', '258', '264', '267', '289', '294', '300', '301', '307', '325', '330', '332', '338', '345', '350', '353', '372', '374', '387', '395', '397', '405', '408', '411', '419', '426', '434', '447', '455', '456', '458', '472', '484', '502', '506', '507', '510', '513', '516', '522', '524', '525', '526', '530', '534', '539', '540', '542', '545', '547', '555', '556', '562', '564', '571', '575', '577', '579', '597', '620', '621', '634', '640', '644', '647', '661', '680', '691', '696', '712', '724', '729', '734', '739', '746', '749', '751', '754', '755', '756', '780', '783', '787', '792', '795', '807', '808', '813', '827', '831', '833', '844', '856', '858', '867', '871', '874', '880', '896', '899', '904', '912', '917', '921', '922', '927', '933', '942', '956', '960', '961', '962', '963', '965', '972', '984', '993', '994', '997', '998', '1000', '1002', '1005', '1025', '1026', '1038', '1041', '1053', '1058', '1069', '1077', '1080', '1086', '1096', '1109', '1111', '1116', '1119', '1130', '1134', '1142', '1147', '1150', '1166', '1167', '1171', '1184', '1186', '1195', '1201', '1207', '1219', '1220', '1221', '1237', '1245', '1255', '1261', '1262', '1279', '1287', '1294', '1296', '1298', '1306', '1313', '1315', '1318', '1321', '1322', '1325', '1327', '1335', '1336', '1345', '1346', '1349', '1360', '1363', '1369', '1377', '1393', '1402', '1404', '1406', '1407', '1418', '1439', '1441', '1442', '1444', '1454', '1478', '1486', '1504', '1506', '1517', '1519', '1530', '1547', '1551', '1560', '1585', '1588', '1593', '1608', '1613', '1634', '1635', '1648', '1654', '1655', '1656', '1676', '1680', '1686', '1687', '1691', '1694', '1698', '1720', '1724', '1750', '1762', '1770', '1772', '1773', '1776', '1784', '1788', '1791', '1792', '1815', '1835', '1836', '1837', '1847', '1861', '1862', '1864', '1875', '1879', '1886', '1888', '1902', '1908', '1911', '1912', '1913', '1914', '1918', '1924', '1926', '1930', '1934', '1951', '1959', '1965', '1967', '1995']",True,1000,True,2,fc2d31e32d,0.0,0.0,1.0
./expes/v2_2021-03-23_issda-30_2000-prng-1-w1-p2,30_issda-2000,2000,first-2000,800,40,rng,num-start-1600,1600,25726,classic,1214.2519149780273,True,,False,1.0,1.0,1.0,1,"['7', '11', '12', '15', '16', '17', '20', '22', '24', '25', '32', '35', '37', '38', '40', '43', '49', '54', '56', '57', '59', '62', '63', '64', '67', '69', '70', '73', '74', '80', '83', '84', '90', '94', '97', '101', '102', '103', '104', '105', '106', '107', '108', '110', '111', '114', '116', '118', '120', '123', '124', '128', '132', '135', '142', '145', '146', '147', '150', '151', '154', '158', '159', '162', '163', '166', '168', '171', '175', '178', '180', '182', '184', '191', '192', '193', '197', '201', '202', '203', '204', '210', '213', '214', '216', '217', '218', '221', '222', '225', '226', '227', '232', '233', '236', '240', '241', '250', '251', '252', '253', '255', '256', '257', '261', '263', '264', '265', '266', '269', '281', '282', '284', '287', '288', '289', '291', '293', '294', '295', '301', '305', '307', '308', '309', '310', '311', '314', '316', '322', '331', '332', '333', '334', '335', '337', '346', '347', '349', '350', '353', '354', '355', '356', '358', '359', '367', '376', '377', '386', '387', '388', '392', '393', '394', '395', '401', '402', '403', '404', '405', '407', '408', '411', '415', '417', '418', '420', '427', '430', '431', '433', '435', '437', '438', '439', '444', '448', '450', '452', '453', '455', '456', '461', '466', '467', '470', '472', '474', '475', '483', '484', '486', '489', '490', '496', '497', '499', '500', '508', '510', '511', '512', '513', '514', '515', '517', '523', '526', '528', '529', '531', '532', '533', '535', '536', '538', '540', '542', '544', '545', '548', '549', '550', '552', '554', '559', '563', '565', '570', '574', '577', '581', '584', '591', '592', '594', '597', '602', '603', '604', '605', '607', '608', '609', '616', '618', '620', '621', '622', '625', '630', '631', '632', '633', '634', '635', '636', '638', '639', '642', '645', '647', '648', '650', '651', '652', '654', '659', '660', '662', '663', '664', '667', '669', '670', '674', '675', '678', '679', '681', '685', '686', '687', '689', '691', '695', '696', '712', '713', '714', '720', '721', '726', '727', '728', '729', '731', '733', '734', '737', '741', '743', '746', '749', '752', '754', '757', '762', '763', '768', '769', '770', '775', '776', '778', '781', '783', '784', '786', '787', '791', '792', '796', '801', '802', '803', '805', '807', '817', '820', '823', '826', '827', '828', '829', '830', '831', '833', '834', '836', '837', '840', '848', '849', '850', '854', '859', '860', '862', '865', '866', '867', '875', '877', '878', '882', '887', '889', '893', '894', '895', '896', '897', '901', '904', '905', '907', '908', '912', '913', '915', '916', '920', '921', '924', '928', '930', '933', '941', '945', '948', '950', '957', '958', '959', '962', '965', '967', '970', '971', '973', '975', '978', '981', '984', '987', '989', '990', '992', '994', '996', '997', '998', '1001', '1003', '1008', '1010', '1011', '1013', '1016', '1018', '1021', '1026', '1027', '1028', '1029', '1033', '1034', '1037', '1039', '1040', '1042', '1053', '1054', '1056', '1057', '1060', '1061', '1063', '1064', '1068', '1070', '1072', '1076', '1077', '1080', '1082', '1087', '1089', '1091', '1092', '1095', '1096', '1099', '1100', '1103', '1104', '1105', '1106', '1107', '1109', '1111', '1113', '1114', '1116', '1121', '1122', '1126', '1129', '1132', '1134', '1135', '1138', '1139', '1141', '1143', '1145', '1146', '1147', '1153', '1154', '1156', '1164', '1166', '1171', '1172', '1178', '1180', '1182', '1184', '1185', '1188', '1190', '1191', '1193', '1197', '1200', '1201', '1202', '1209', '1212', '1213', '1215', '1226', '1227', '1229', '1231', '1234', '1237', '1238', '1241', '1243', '1245', '1247', '1250', '1252', '1253', '1254', '1255', '1256', '1262', '1264', '1265', '1267', '1271', '1272', '1282', '1283', '1284', '1288', '1295', '1297', '1298', '1300', '1302', '1304', '1309', '1312', '1320', '1324', '1325', '1326', '1327', '1330', '1332', '1333', '1340', '1347', '1348', '1349', '1350', '1353', '1355', '1359', '1365', '1367', '1383', '1386', '1388', '1390', '1393', '1395', '1398', '1402', '1403', '1404', '1405', '1412', '1416', '1419', '1433', '1434', '1435', '1442', '1443', '1445', '1446', '1447', '1449', '1453', '1455', '1456', '1458', '1459', '1460', '1462', '1464', '1465', '1466', '1472', '1478', '1482', '1484', '1485', '1489', '1493', '1497', '1499', '1505', '1507', '1508', '1510', '1511', '1513', '1514', '1522', '1523', '1525', '1526', '1529', '1531', '1533', '1534', '1535', '1537', '1540', '1541', '1543', '1546', '1547', '1550', '1552', '1553', '1554', '1556', '1557', '1561', '1563', '1564', '1566', '1567', '1568', '1569', '1572', '1573', '1579', '1581', '1582', '1584', '1585', '1586', '1591', '1594', '1598', '1600', '1602', '1603', '1604', '1607', '1611', '1613', '1614', '1618', '1619', '1622', '1626', '1627', '1628', '1630', '1635', '1637', '1640', '1642', '1643', '1644', '1645', '1647', '1649', '1653', '1655', '1657', '1658', '1661', '1662', '1664', '1665', '1666', '1668', '1669', '1670', '1673', '1676', '1679', '1680', '1682', '1684', '1689', '1692', '1693', '1698', '1699', '1702', '1703', '1705', '1710', '1715', '1719', '1724', '1725', '1731', '1734', '1738', '1742', '1744', '1745', '1746', '1747', '1749', '1753', '1756', '1757', '1759', '1761', '1769', '1772', '1774', '1776', '1777', '1778', '1779', '1780', '1783', '1786', '1789', '1791', '1793', '1794', '1795', '1800', '1805', '1808', '1813', '1814', '1819', '1821', '1822', '1823', '1829', '1830', '1835', '1837', '1838', '1840', '1841', '1842', '1844', '1845', '1847', '1848', '1856', '1858', '1859', '1861', '1862', '1864', '1870', '1878', '1880', '1881', '1885', '1888', '1891', '1892', '1893', '1897', '1898', '1900', '1903', '1904', '1905', '1907', '1911', '1917', '1920', '1923', '1924', '1925', '1926', '1927', '1930', '1931', '1936', '1943', '1944', '1948', '1949', '1951', '1952', '1955', '1957', '1958', '1960', '1961', '1962', '1964', '1966', '1968', '1970', '1971', '1975', '1976', '1982', '1987', '1990', '1992', '1994', '1996', '1997', '1998']",True,1000,True,2,e2cb35cb5c,0.0,0.0,1.0
./expes/v2_2021-03-23_issda-30_2000-prng-1-w1-p2,30_issda-2000,2000,first-2000,500,25,rng,num-start-1600,1600,25726,classic,1215.0543730258942,True,,False,1.0,1.0,1.0,1,"['11', '15', '16', '17', '20', '22', '25', '32', '37', '40', '43', '54', '56', '57', '59', '62', '69', '73', '101', '102', '103', '104', '106', '107', '110', '111', '120', '123', '124', '128', '132', '135', '142', '145', '150', '151', '154', '158', '159', '162', '166', '168', '171', '175', '178', '191', '192', '193', '202', '203', '214', '217', '226', '227', '232', '240', '241', '251', '252', '253', '256', '261', '263', '264', '266', '281', '282', '284', '287', '291', '293', '294', '305', '307', '309', '310', '311', '316', '331', '333', '335', '337', '346', '347', '349', '350', '353', '358', '367', '376', '377', '386', '387', '388', '392', '394', '395', '401', '403', '407', '411', '417', '418', '427', '431', '433', '435', '437', '438', '444', '448', '455', '456', '461', '470', '474', '483', '484', '486', '490', '496', '497', '499', '500', '510', '512', '513', '514', '515', '517', '523', '528', '529', '532', '538', '540', '544', '545', '548', '552', '554', '559', '565', '570', '577', '581', '584', '591', '592', '594', '602', '603', '605', '608', '618', '620', '622', '625', '630', '631', '632', '634', '635', '636', '639', '642', '647', '648', '650', '651', '652', '654', '659', '667', '674', '678', '681', '685', '687', '689', '691', '695', '696', '712', '713', '721', '727', '729', '731', '737', '743', '746', '749', '754', '757', '763', '768', '769', '775', '786', '787', '796', '802', '805', '820', '823', '826', '827', '828', '829', '831', '834', '836', '837', '840', '849', '850', '854', '859', '860', '862', '866', '867', '875', '877', '882', '887', '889', '893', '894', '897', '907', '908', '912', '913', '920', '921', '928', '933', '941', '948', '950', '957', '958', '967', '971', '973', '978', '984', '989', '990', '994', '997', '1008', '1010', '1011', '1013', '1016', '1028', '1029', '1033', '1034', '1037', '1039', '1053', '1056', '1057', '1061', '1063', '1064', '1070', '1072', '1076', '1077', '1080', '1082', '1091', '1092', '1096', '1099', '1100', '1103', '1104', '1105', '1106', '1107', '1111', '1113', '1114', '1116', '1121', '1126', '1129', '1134', '1135', '1138', '1139', '1141', '1145', '1146', '1156', '1164', '1166', '1171', '1172', '1178', '1180', '1184', '1185', '1188', '1191', '1193', '1201', '1202', '1209', '1212', '1226', '1229', '1237', '1238', '1250', '1254', '1256', '1264', '1272', '1282', '1283', '1284', '1295', '1297', '1302', '1304', '1309', '1312', '1325', '1330', '1332', '1340', '1347', '1349', '1355', '1359', '1367', '1383', '1386', '1395', '1398', '1402', '1403', '1405', '1412', '1416', '1433', '1442', '1443', '1445', '1446', '1455', '1458', '1465', '1466', '1484', '1485', '1489', '1493', '1497', '1499', '1510', '1513', '1514', '1523', '1525', '1526', '1529', '1531', '1533', '1535', '1537', '1540', '1541', '1543', '1546', '1547', '1552', '1553', '1556', '1557', '1564', '1567', '1569', '1579', '1582', '1585', '1586', '1594', '1598', '1600', '1603', '1607', '1611', '1613', '1622', '1626', '1627', '1637', '1642', '1643', '1644', '1645', '1649', '1653', '1661', '1664', '1665', '1666', '1670', '1673', '1676', '1679', '1680', '1682', '1684', '1689', '1693', '1698', '1702', '1705', '1715', '1719', '1725', '1734', '1742', '1749', '1753', '1759', '1761', '1769', '1772', '1777', '1778', '1780', '1789', '1793', '1805', '1808', '1819', '1823', '1829', '1830', '1837', '1838', '1840', '1841', '1844', '1847', '1848', '1856', '1858', '1859', '1861', '1862', '1864', '1870', '1878', '1880', '1885', '1888', '1892', '1893', '1897', '1905', '1907', '1911', '1917', '1923', '1925', '1926', '1927', '1930', '1936', '1944', '1949', '1957', '1958', '1960', '1961', '1962', '1966', '1968', '1970', '1975', '1976', '1982', '1987', '1990', '1992', '1994', '1996', '1997', '1998']",True,1000,True,2,a1b44ea4b0,0.0,0.0,1.0
./expes/v2_2021-03-23_issda-30_2000-prng-1-w1-p2,30_issda-2000,2000,first-2000,300,15,rng,num-start-2800,2800,25726,classic,1377.9109692573547,True,,False,1.0,1.0,1.0,1,"['2', '8', '11', '14', '17', '25', '27', '31', '36', '38', '49', '53', '61', '71', '84', '85', '89', '100', '104', '106', '111', '113', '125', '130', '135', '136', '137', '141', '166', '171', '172', '173', '174', '178', '180', '182', '192', '197', '204', '209', '212', '226', '228', '229', '230', '242', '247', '249', '263', '272', '273', '282', '284', '285', '289', '292', '298', '304', '306', '322', '332', '333', '337', '345', '347', '351', '354', '355', '361', '382', '394', '405', '406', '408', '409', '416', '420', '428', '430', '431', '438', '455', '456', '460', '473', '485', '488', '509', '531', '538', '539', '547', '548', '550', '553', '562', '567', '569', '576', '584', '595', '597', '603', '607', '630', '666', '674', '677', '685', '693', '700', '709', '712', '715', '727', '749', '750', '757', '764', '765', '776', '777', '782', '785', '786', '796', '797', '813', '816', '822', '824', '825', '843', '861', '864', '866', '870', '871', '878', '888', '910', '923', '925', '926', '936', '949', '950', '971', '985', '988', '1008', '1013', '1018', '1019', '1026', '1030', '1035', '1037', '1045', '1060', '1070', '1084', '1097', '1101', '1106', '1118', '1124', '1136', '1137', '1139', '1146', '1148', '1151', '1158', '1160', '1174', '1177', '1179', '1186', '1188', '1197', '1205', '1209', '1210', '1212', '1215', '1223', '1224', '1239', '1242', '1243', '1245', '1247', '1248', '1252', '1253', '1256', '1263', '1290', '1309', '1327', '1334', '1359', '1368', '1381', '1386', '1400', '1409', '1410', '1419', '1426', '1434', '1436', '1441', '1442', '1445', '1452', '1453', '1466', '1474', '1485', '1487', '1492', '1508', '1510', '1511', '1527', '1528', '1529', '1531', '1558', '1566', '1567', '1581', '1583', '1586', '1587', '1593', '1598', '1599', '1606', '1611', '1618', '1625', '1628', '1636', '1638', '1645', '1654', '1658', '1659', '1669', '1681', '1728', '1732', '1733', '1743', '1745', '1746', '1760', '1762', '1770', '1775', '1777', '1780', '1786', '1794', '1801', '1803', '1806', '1816', '1817', '1818', '1822', '1828', '1834', '1835', '1840', '1856', '1857', '1867', '1880', '1883', '1887', '1891', '1893', '1918', '1925', '1928', '1938', '1939', '1940', '1948', '1949', '1958', '1963', '1970', '1975', '1980', '1998']",True,1000,True,2,52fe11b29f,0.0,0.0,1.0
./expes/v2_2021-03-23_issda-30_2000-prng-1-w1-p2,30_issda-2000,2000,first-2000,100,5,rng,num-start-1600,1600,25726,classic,650.7837157249451,True,,True,1.0,1.0,1.0,1,"['1', '45', '59', '76', '94', '166', '181', '184', '191', '193', '200', '240', '245', '299', '396', '397', '404', '406', '408', '412', '502', '513', '536', '544', '559', '597', '624', '655', '688', '732', '739', '741', '742', '765', '840', '848', '870', '881', '912', '964', '994', '997', '1002', '1025', '1032', '1055', '1076', '1103', '1105', '1134', '1154', '1176', '1180', '1202', '1206', '1207', '1233', '1250', '1298', '1301', '1321', '1343', '1358', '1390', '1397', '1405', '1430', '1433', '1436', '1493', '1495', '1505', '1548', '1556', '1562', '1578', '1625', '1632', '1639', '1643', '1646', '1649', '1650', '1684', '1696', '1706', '1730', '1787', '1803', '1828', '1849', '1863', '1865', '1870', '1877', '1911', '1949', '1978', '1987', '2000']",False,1000,True,2,f5837cf6d7,0.0,1.0,1.0
