expe,clients,clients_size,clients_subset,agg_size,agg_size_pc,method,days,days_size,days_total,noise_method,time,valid,valid_sum,success,score_avg,score_min,score_max,nsols,oracle,wall_hit,wall_time,pooled,pool_size,uuid,infeasible,optimal,valid_sums
./expes/v2_2021-03-23_issda-30_2000-prng-1-w1-p2,30_issda-2000,2000,first-2000,300,15,rng,num-start-2000,2000,25726,classic,1177.2330729961395,True,,False,1.0,1.0,1.0,1,"['1', '13', '26', '31', '35', '38', '42', '45', '59', '62', '64', '76', '78', '93', '94', '111', '117', '128', '142', '156', '157', '166', '172', '176', '181', '183', '184', '191', '193', '197', '200', '206', '216', '230', '240', '245', '253', '260', '261', '281', '283', '292', '296', '297', '299', '317', '324', '330', '334', '347', '353', '374', '380', '385', '387', '394', '395', '396', '397', '402', '404', '406', '408', '412', '430', '457', '476', '499', '502', '503', '513', '515', '522', '525', '536', '544', '545', '549', '552', '559', '593', '596', '597', '622', '624', '627', '640', '652', '655', '656', '663', '675', '682', '688', '732', '739', '740', '741', '742', '751', '760', '765', '768', '771', '773', '774', '778', '779', '798', '815', '816', '838', '840', '841', '848', '864', '865', '867', '870', '874', '881', '904', '912', '914', '916', '921', '925', '926', '948', '957', '961', '964', '965', '973', '979', '981', '991', '994', '995', '997', '999', '1000', '1001', '1002', '1007', '1008', '1018', '1019', '1024', '1025', '1030', '1032', '1055', '1059', '1070', '1075', '1076', '1081', '1102', '1103', '1105', '1130', '1134', '1143', '1147', '1154', '1167', '1176', '1180', '1202', '1206', '1207', '1208', '1217', '1224', '1233', '1234', '1236', '1243', '1246', '1250', '1254', '1257', '1263', '1266', '1267', '1269', '1271', '1278', '1282', '1287', '1289', '1293', '1298', '1300', '1301', '1306', '1321', '1323', '1324', '1328', '1340', '1343', '1345', '1351', '1358', '1369', '1373', '1375', '1390', '1391', '1394', '1395', '1397', '1405', '1421', '1423', '1430', '1433', '1436', '1437', '1446', '1463', '1472', '1473', '1478', '1480', '1483', '1493', '1494', '1495', '1505', '1529', '1548', '1556', '1562', '1578', '1585', '1594', '1603', '1606', '1621', '1625', '1631', '1632', '1639', '1643', '1646', '1649', '1650', '1651', '1652', '1667', '1673', '1684', '1696', '1703', '1706', '1709', '1718', '1730', '1748', '1773', '1783', '1787', '1795', '1801', '1803', '1822', '1828', '1830', '1843', '1849', '1853', '1860', '1863', '1865', '1867', '1870', '1871', '1877', '1883', '1891', '1893', '1899', '1900', '1911', '1919', '1922', '1927', '1941', '1949', '1971', '1976', '1977', '1978', '1987', '1989', '1997', '2000']",True,1000,True,2,ed7682f983,0.0,0.0,1.0
./expes/v2_2021-03-23_issda-30_2000-prng-1-w1-p2,30_issda-2000,2000,first-2000,400,20,rng,num-start-3600,3600,25726,classic,1338.8612351417542,True,,False,1.0,1.0,1.0,1,"['12', '13', '14', '18', '23', '27', '30', '36', '38', '43', '47', '60', '94', '115', '120', '125', '133', '136', '137', '156', '157', '162', '171', '179', '181', '182', '184', '190', '192', '208', '218', '220', '236', '242', '252', '259', '265', '267', '270', '273', '280', '281', '287', '294', '298', '300', '303', '309', '310', '312', '329', '333', '334', '335', '342', '344', '347', '350', '353', '358', '361', '362', '366', '372', '375', '386', '389', '390', '402', '406', '411', '413', '414', '418', '424', '433', '438', '442', '443', '449', '452', '461', '472', '473', '481', '484', '487', '491', '497', '505', '512', '520', '525', '528', '532', '533', '538', '542', '543', '547', '550', '553', '555', '558', '560', '561', '564', '565', '575', '577', '582', '588', '599', '606', '609', '613', '615', '618', '621', '632', '644', '646', '665', '671', '673', '686', '688', '694', '696', '702', '709', '712', '718', '722', '733', '739', '745', '748', '749', '755', '766', '767', '780', '790', '806', '813', '814', '820', '824', '826', '828', '829', '831', '832', '834', '836', '839', '844', '850', '851', '853', '865', '868', '870', '874', '889', '890', '895', '897', '915', '920', '930', '931', '933', '939', '940', '955', '958', '962', '967', '973', '978', '979', '980', '983', '984', '1003', '1006', '1007', '1012', '1016', '1023', '1026', '1038', '1039', '1040', '1043', '1049', '1051', '1052', '1054', '1066', '1069', '1070', '1073', '1078', '1079', '1085', '1086', '1091', '1095', '1102', '1104', '1107', '1109', '1114', '1116', '1117', '1124', '1130', '1131', '1140', '1143', '1144', '1145', '1158', '1164', '1166', '1171', '1173', '1174', '1176', '1179', '1183', '1186', '1203', '1206', '1216', '1229', '1235', '1242', '1244', '1251', '1252', '1254', '1255', '1258', '1261', '1267', '1281', '1287', '1290', '1293', '1304', '1309', '1322', '1325', '1326', '1327', '1328', '1336', '1346', '1347', '1354', '1355', '1381', '1383', '1385', '1386', '1388', '1393', '1396', '1401', '1402', '1406', '1412', '1414', '1417', '1422', '1431', '1432', '1438', '1444', '1446', '1449', '1451', '1452', '1453', '1454', '1461', '1462', '1467', '1469', '1474', '1480', '1490', '1496', '1505', '1508', '1513', '1519', '1522', '1526', '1529', '1538', '1549', '1550', '1552', '1553', '1554', '1556', '1562', '1574', '1575', '1578', '1579', '1581', '1584', '1587', '1589', '1594', '1595', '1598', '1605', '1607', '1613', '1620', '1623', '1625', '1626', '1627', '1632', '1639', '1644', '1652', '1654', '1660', '1662', '1663', '1674', '1676', '1688', '1691', '1695', '1697', '1700', '1706', '1708', '1711', '1712', '1713', '1719', '1720', '1728', '1729', '1733', '1736', '1749', '1758', '1760', '1766', '1769', '1774', '1777', '1780', '1783', '1789', '1792', '1795', '1811', '1817', '1818', '1825', '1826', '1827', '1841', '1842', '1854', '1858', '1865', '1869', '1880', '1891', '1895', '1896', '1899', '1905', '1910', '1916', '1919', '1934', '1935', '1938', '1946', '1950', '1962', '1981', '1985', '1993', '1999']",True,1000,True,2,c319ad8795,0.0,0.0,1.0
./expes/v2_2021-03-23_issda-30_2000-prng-1-w1-p2,30_issda-2000,2000,first-2000,300,15,rng,num-start-800,800,25726,classic,1077.1976783275604,True,,False,1.0,1.0,1.0,1,"['1', '2', '10', '20', '23', '31', '32', '34', '35', '37', '41', '44', '61', '62', '69', '72', '74', '80', '86', '87', '96', '98', '108', '122', '123', '124', '130', '137', '138', '141', '142', '144', '150', '151', '152', '153', '154', '161', '171', '175', '179', '185', '186', '189', '193', '206', '207', '213', '221', '222', '224', '239', '242', '259', '261', '269', '270', '276', '278', '280', '284', '288', '291', '300', '316', '323', '325', '360', '361', '364', '375', '379', '382', '384', '386', '389', '390', '391', '401', '403', '407', '418', '428', '430', '432', '435', '436', '437', '438', '468', '471', '479', '489', '496', '498', '505', '511', '521', '523', '527', '529', '552', '553', '570', '574', '578', '592', '596', '601', '603', '607', '622', '623', '637', '638', '639', '646', '654', '669', '674', '678', '682', '690', '733', '742', '756', '762', '769', '786', '791', '792', '796', '803', '808', '809', '812', '814', '821', '834', '840', '843', '859', '860', '862', '864', '903', '905', '913', '915', '917', '923', '926', '927', '928', '929', '937', '951', '953', '954', '963', '973', '975', '982', '988', '989', '991', '998', '1006', '1024', '1041', '1043', '1049', '1050', '1051', '1064', '1066', '1069', '1083', '1088', '1104', '1129', '1135', '1146', '1147', '1154', '1160', '1172', '1177', '1182', '1194', '1197', '1203', '1209', '1211', '1214', '1220', '1222', '1226', '1229', '1232', '1233', '1237', '1250', '1251', '1258', '1259', '1261', '1262', '1275', '1277', '1285', '1289', '1290', '1300', '1303', '1304', '1312', '1315', '1319', '1332', '1339', '1340', '1342', '1346', '1357', '1383', '1397', '1403', '1407', '1416', '1421', '1436', '1443', '1448', '1450', '1452', '1476', '1486', '1497', '1499', '1501', '1514', '1515', '1516', '1534', '1553', '1570', '1576', '1583', '1594', '1595', '1600', '1625', '1633', '1646', '1647', '1659', '1675', '1687', '1701', '1704', '1705', '1721', '1726', '1734', '1736', '1746', '1750', '1752', '1755', '1771', '1774', '1775', '1802', '1807', '1813', '1824', '1825', '1854', '1861', '1865', '1874', '1879', '1890', '1892', '1893', '1899', '1904', '1909', '1926', '1940', '1946', '1963', '1965', '1972', '1975', '1976', '1989', '1993', '1997']",True,1000,True,2,0e931b2962,0.0,0.0,1.0
./expes/v2_2021-03-23_issda-30_2000-prng-1-w1-p2,30_issda-2000,2000,first-2000,1000,50,rng,num-start-1600,1600,25726,classic,1150.795249223709,True,,False,1.0,1.0,1.0,1,"['6', '8', '10', '11', '13', '14', '16', '17', '19', '23', '24', '25', '27', '28', '31', '32', '33', '35', '36', '37', '39', '40', '44', '46', '48', '49', '59', '60', '63', '64', '65', '70', '75', '77', '78', '80', '82', '83', '85', '87', '89', '91', '95', '98', '99', '100', '105', '108', '109', '110', '112', '113', '115', '116', '121', '122', '124', '125', '127', '128', '132', '133', '134', '135', '138', '139', '141', '145', '146', '149', '150', '151', '152', '156', '157', '158', '160', '161', '162', '166', '168', '171', '174', '176', '181', '183', '187', '189', '190', '193', '196', '198', '202', '204', '205', '206', '210', '213', '214', '220', '222', '223', '228', '231', '232', '237', '239', '240', '247', '248', '249', '252', '256', '258', '261', '263', '264', '267', '270', '271', '272', '273', '274', '279', '282', '283', '285', '288', '292', '293', '295', '296', '297', '298', '301', '302', '303', '306', '308', '309', '311', '312', '314', '315', '318', '319', '321', '322', '323', '324', '325', '328', '330', '331', '333', '335', '337', '338', '341', '344', '345', '347', '348', '349', '351', '353', '354', '355', '356', '357', '358', '359', '361', '366', '367', '368', '372', '376', '377', '378', '379', '383', '384', '385', '392', '393', '401', '402', '403', '405', '409', '410', '411', '418', '421', '423', '428', '429', '430', '433', '434', '435', '436', '438', '440', '441', '444', '446', '448', '449', '450', '451', '452', '453', '454', '455', '456', '458', '462', '463', '465', '467', '469', '470', '471', '474', '475', '476', '477', '478', '479', '481', '482', '483', '485', '486', '488', '489', '490', '491', '492', '493', '494', '497', '500', '505', '507', '511', '514', '515', '516', '518', '519', '521', '522', '523', '524', '525', '526', '529', '531', '533', '535', '536', '537', '540', '541', '545', '548', '553', '556', '557', '558', '560', '562', '566', '568', '569', '573', '575', '577', '581', '583', '587', '588', '589', '593', '594', '595', '605', '606', '607', '608', '609', '612', '613', '617', '618', '620', '623', '625', '626', '628', '635', '636', '638', '639', '642', '644', '645', '646', '647', '649', '650', '651', '652', '653', '655', '657', '659', '660', '661', '663', '666', '667', '669', '674', '676', '677', '678', '679', '680', '681', '682', '683', '684', '685', '686', '688', '689', '691', '692', '693', '694', '697', '702', '704', '705', '706', '712', '713', '714', '715', '719', '721', '722', '723', '724', '725', '726', '728', '729', '732', '735', '736', '738', '740', '742', '743', '744', '750', '752', '753', '754', '755', '756', '758', '760', '762', '763', '764', '765', '766', '768', '769', '770', '771', '775', '776', '778', '780', '781', '789', '793', '795', '796', '797', '799', '800', '801', '804', '807', '810', '814', '815', '818', '819', '822', '823', '825', '828', '829', '830', '831', '832', '834', '835', '836', '844', '847', '849', '852', '853', '855', '857', '860', '862', '864', '866', '867', '868', '870', '873', '874', '875', '878', '883', '886', '887', '888', '889', '890', '894', '895', '896', '898', '900', '901', '903', '905', '906', '907', '909', '910', '912', '913', '919', '920', '922', '923', '924', '926', '929', '931', '933', '938', '939', '941', '942', '943', '944', '945', '946', '947', '951', '955', '956', '957', '958', '959', '960', '963', '964', '970', '971', '972', '974', '976', '977', '980', '981', '983', '986', '987', '988', '989', '990', '992', '994', '995', '1003', '1005', '1006', '1008', '1009', '1011', '1012', '1014', '1015', '1017', '1019', '1020', '1021', '1022', '1024', '1025', '1027', '1029', '1033', '1035', '1036', '1037', '1038', '1039', '1040', '1041', '1046', '1047', '1048', '1050', '1052', '1056', '1057', '1058', '1059', '1060', '1061', '1062', '1064', '1065', '1066', '1067', '1068', '1071', '1075', '1077', '1082', '1085', '1086', '1089', '1092', '1094', '1097', '1098', '1100', '1103', '1104', '1110', '1114', '1115', '1118', '1119', '1121', '1122', '1124', '1127', '1130', '1134', '1135', '1137', '1141', '1144', '1147', '1149', '1157', '1158', '1160', '1161', '1162', '1164', '1167', '1168', '1169', '1170', '1171', '1172', '1176', '1178', '1180', '1183', '1184', '1186', '1187', '1188', '1190', '1191', '1193', '1196', '1197', '1199', '1202', '1203', '1204', '1209', '1216', '1220', '1221', '1222', '1225', '1227', '1230', '1236', '1237', '1238', '1239', '1240', '1242', '1245', '1246', '1250', '1251', '1253', '1254', '1257', '1258', '1260', '1261', '1263', '1265', '1267', '1270', '1271', '1273', '1275', '1277', '1280', '1283', '1285', '1286', '1287', '1288', '1293', '1295', '1296', '1300', '1302', '1303', '1306', '1307', '1311', '1314', '1316', '1317', '1318', '1319', '1322', '1323', '1324', '1325', '1326', '1328', '1329', '1330', '1336', '1341', '1342', '1343', '1344', '1345', '1346', '1348', '1349', '1350', '1352', '1357', '1358', '1362', '1363', '1370', '1371', '1375', '1376', '1379', '1386', '1387', '1388', '1390', '1391', '1392', '1393', '1394', '1396', '1398', '1399', '1402', '1404', '1410', '1411', '1412', '1414', '1415', '1417', '1419', '1420', '1422', '1423', '1425', '1426', '1427', '1428', '1435', '1436', '1438', '1445', '1447', '1450', '1451', '1452', '1454', '1455', '1456', '1457', '1459', '1461', '1465', '1472', '1473', '1475', '1476', '1477', '1478', '1482', '1483', '1486', '1488', '1489', '1493', '1496', '1499', '1505', '1506', '1508', '1511', '1512', '1513', '1515', '1516', '1518', '1519', '1520', '1522', '1524', '1526', '1527', '1528', '1534', '1535', '1537', '1538', '1539', '1541', '1542', '1543', '1544', '1546', '1547', '1549', '1551', '1552', '1554', '1557', '1558', '1561', '1568', '1572', '1573', '1574', '1576', '1581', '1582', '1583', '1585', '1586', '1589', '1590', '1591', '1592', '1593', '1595', '1600', '1601', '1602', '1604', '1605', '1606', '1608', '1613', '1614', '1615', '1616', '1623', '1625', '1627', '1629', '1631', '1632', '1633', '1634', '1636', '1637', '1639', '1640', '1641', '1645', '1646', '1647', '1648', '1649', '1650', '1651', '1653', '1655', '1656', '1658', '1659', '1660', '1662', '1663', '1664', '1667', '1671', '1672', '1681', '1683', '1684', '1686', '1690', '1693', '1694', '1695', '1701', '1702', '1705', '1706', '1707', '1708', '1709', '1711', '1713', '1716', '1717', '1718', '1721', '1722', '1724', '1726', '1728', '1729', '1731', '1732', '1735', '1736', '1737', '1738', '1741', '1743', '1744', '1745', '1747', '1748', '1749', '1751', '1752', '1753', '1756', '1757', '1763', '1768', '1769', '1773', '1776', '1777', '1780', '1781', '1782', '1783', '1784', '1785', '1786', '1787', '1788', '1791', '1792', '1793', '1797', '1800', '1801', '1802', '1804', '1806', '1809', '1812', '1813', '1815', '1816', '1817', '1818', '1823', '1824', '1827', '1829', '1830', '1831', '1833', '1835', '1836', '1841', '1842', '1847', '1848', '1849', '1850', '1851', '1854', '1857', '1858', '1859', '1862', '1863', '1867', '1870', '1874', '1875', '1877', '1880', '1884', '1886', '1888', '1889', '1890', '1891', '1893', '1894', '1895', '1896', '1899', '1900', '1901', '1906', '1908', '1911', '1913', '1914', '1915', '1916', '1917', '1918', '1922', '1926', '1927', '1928', '1930', '1931', '1932', '1935', '1936', '1938', '1940', '1942', '1945', '1946', '1947', '1948', '1949', '1950', '1951', '1952', '1953', '1954', '1955', '1958', '1959', '1960', '1964', '1965', '1967', '1971', '1973', '1977', '1979', '1980', '1981', '1982', '1983', '1984', '1985', '1987', '1992', '1998', '2000']",True,1000,True,2,b0b1884aa0,0.0,0.0,1.0
./expes/v2_2021-03-23_issda-30_2000-prng-1-w1-p2,30_issda-2000,2000,first-2000,300,15,rng,num-start-1600,1600,25726,classic,1172.7919974327087,True,,False,1.0,1.0,1.0,1,"['1', '4', '22', '36', '40', '43', '52', '57', '58', '65', '72', '88', '95', '105', '106', '112', '127', '137', '141', '144', '149', '158', '171', '184', '185', '191', '194', '195', '196', '199', '201', '210', '212', '218', '219', '229', '234', '236', '243', '249', '252', '258', '264', '267', '289', '294', '300', '301', '307', '325', '330', '332', '338', '345', '350', '353', '372', '374', '387', '395', '397', '405', '408', '411', '419', '426', '434', '447', '455', '456', '458', '472', '484', '502', '506', '507', '510', '513', '516', '522', '524', '525', '526', '530', '534', '539', '540', '542', '545', '547', '555', '556', '562', '564', '571', '575', '577', '579', '597', '620', '621', '634', '640', '644', '647', '661', '680', '691', '696', '712', '724', '729', '734', '739', '746', '749', '751', '754', '755', '756', '780', '783', '787', '792', '795', '807', '808', '813', '827', '831', '833', '844', '856', '858', '867', '871', '874', '880', '896', '899', '904', '912', '917', '921', '922', '927', '933', '942', '956', '960', '961', '962', '963', '965', '972', '984', '993', '994', '997', '998', '1000', '1002', '1005', '1025', '1026', '1038', '1041', '1053', '1058', '1069', '1077', '1080', '1086', '1096', '1109', '1111', '1116', '1119', '1130', '1134', '1142', '1147', '1150', '1166', '1167', '1171', '1184', '1186', '1195', '1201', '1207', '1219', '1220', '1221', '1237', '1245', '1255', '1261', '1262', '1279', '1287', '1294', '1296', '1298', '1306', '1313', '1315', '1318', '1321', '1322', '1325', '1327', '1335', '1336', '1345', '1346', '1349', '1360', '1363', '1369', '1377', '1393', '1402', '1404', '1406', '1407', '1418', '1439', '1441', '1442', '1444', '1454', '1478', '1486', '1504', '1506', '1517', '1519', '1530', '1547', '1551', '1560', '1585', '1588', '1593', '1608', '1613', '1634', '1635', '1648', '1654', '1655', '1656', '1676', '1680', '1686', '1687', '1691', '1694', '1698', '1720', '1724', '1750', '1762', '1770', '1772', '1773', '1776', '1784', '1788', '1791', '1792', '1815', '1835', '1836', '1837', '1847', '1861', '1862', '1864', '1875', '1879', '1886', '1888', '1902', '1908', '1911', '1912', '1913', '1914', '1918', '1924', '1926', '1930', '1934', '1951', '1959', '1965', '1967', '1995']",True,1000,True,2,c734470d7c,0.0,0.0,1.0
./expes/v2_2021-03-23_issda-30_2000-prng-1-w1-p2,30_issda-2000,2000,first-2000,800,40,rng,num-start-2400,2400,25726,classic,1232.415457725525,True,,False,1.0,1.0,1.0,1,"['1', '3', '4', '7', '8', '9', '11', '24', '25', '26', '30', '32', '33', '35', '36', '38', '39', '40', '44', '47', '48', '53', '56', '57', '58', '60', '64', '71', '76', '77', '81', '82', '86', '87', '89', '90', '93', '96', '99', '102', '104', '108', '111', '112', '114', '117', '118', '119', '121', '122', '123', '125', '127', '128', '129', '130', '132', '134', '136', '137', '138', '141', '144', '145', '149', '150', '153', '157', '158', '159', '165', '166', '168', '170', '172', '173', '174', '175', '176', '177', '178', '182', '184', '185', '186', '187', '189', '192', '193', '200', '201', '204', '208', '210', '211', '212', '213', '215', '218', '225', '226', '232', '237', '240', '242', '243', '246', '247', '250', '251', '252', '254', '258', '261', '265', '266', '268', '269', '273', '274', '281', '282', '286', '287', '290', '291', '293', '295', '296', '297', '299', '300', '301', '302', '305', '306', '307', '309', '310', '311', '312', '317', '318', '320', '323', '326', '331', '333', '334', '335', '338', '341', '343', '345', '349', '353', '361', '365', '366', '369', '371', '372', '374', '375', '376', '380', '385', '389', '391', '392', '397', '399', '400', '401', '403', '407', '409', '410', '412', '414', '415', '419', '421', '422', '426', '428', '430', '432', '433', '436', '440', '441', '446', '447', '450', '452', '453', '456', '457', '458', '459', '465', '469', '471', '473', '476', '477', '478', '481', '489', '491', '493', '497', '500', '501', '504', '508', '509', '513', '516', '517', '519', '521', '524', '530', '531', '532', '534', '535', '537', '539', '540', '541', '542', '543', '544', '549', '551', '553', '554', '555', '557', '568', '570', '571', '572', '573', '578', '582', '583', '585', '589', '590', '594', '596', '600', '601', '606', '611', '614', '615', '621', '624', '625', '631', '632', '634', '635', '639', '643', '644', '648', '653', '663', '664', '667', '668', '670', '674', '676', '679', '680', '681', '687', '692', '693', '695', '697', '701', '702', '704', '705', '706', '711', '712', '716', '718', '725', '728', '729', '731', '735', '739', '741', '745', '746', '747', '749', '750', '752', '757', '763', '771', '772', '780', '781', '782', '784', '788', '791', '793', '796', '798', '801', '804', '806', '807', '808', '809', '811', '813', '815', '816', '818', '819', '821', '823', '828', '829', '832', '851', '854', '856', '857', '859', '862', '863', '864', '865', '870', '872', '876', '878', '880', '882', '883', '884', '886', '889', '902', '903', '906', '908', '913', '914', '916', '917', '920', '921', '925', '927', '929', '930', '935', '936', '939', '940', '941', '943', '946', '949', '952', '954', '955', '956', '958', '963', '968', '969', '970', '971', '972', '973', '980', '981', '982', '984', '987', '988', '989', '991', '994', '995', '998', '1000', '1002', '1003', '1010', '1012', '1013', '1014', '1017', '1018', '1025', '1027', '1028', '1030', '1031', '1033', '1034', '1036', '1037', '1038', '1040', '1041', '1046', '1049', '1050', '1051', '1054', '1055', '1056', '1058', '1059', '1060', '1061', '1062', '1072', '1073', '1076', '1078', '1079', '1080', '1082', '1084', '1087', '1088', '1089', '1090', '1091', '1093', '1095', '1097', '1098', '1099', '1108', '1110', '1113', '1115', '1119', '1121', '1122', '1123', '1124', '1125', '1126', '1127', '1129', '1133', '1135', '1138', '1140', '1141', '1143', '1144', '1146', '1148', '1151', '1156', '1159', '1160', '1161', '1163', '1165', '1169', '1170', '1174', '1177', '1182', '1184', '1188', '1191', '1192', '1194', '1195', '1197', '1200', '1202', '1207', '1210', '1218', '1221', '1222', '1227', '1229', '1231', '1234', '1240', '1242', '1246', '1247', '1248', '1249', '1250', '1252', '1253', '1255', '1256', '1257', '1258', '1264', '1265', '1268', '1273', '1274', '1278', '1279', '1281', '1283', '1285', '1286', '1288', '1290', '1292', '1296', '1300', '1303', '1304', '1305', '1309', '1317', '1318', '1326', '1331', '1332', '1334', '1335', '1338', '1342', '1344', '1345', '1347', '1349', '1351', '1353', '1357', '1361', '1363', '1368', '1369', '1370', '1372', '1374', '1375', '1377', '1384', '1385', '1394', '1395', '1396', '1397', '1398', '1399', '1401', '1406', '1409', '1410', '1414', '1415', '1418', '1419', '1420', '1424', '1426', '1428', '1432', '1435', '1436', '1437', '1441', '1447', '1448', '1452', '1454', '1457', '1458', '1459', '1465', '1467', '1468', '1476', '1479', '1481', '1484', '1485', '1486', '1488', '1493', '1494', '1498', '1502', '1503', '1509', '1513', '1516', '1517', '1518', '1523', '1528', '1530', '1533', '1535', '1536', '1537', '1538', '1542', '1548', '1550', '1551', '1553', '1554', '1556', '1557', '1565', '1566', '1571', '1572', '1574', '1581', '1582', '1590', '1591', '1592', '1596', '1598', '1603', '1606', '1607', '1615', '1617', '1619', '1627', '1633', '1634', '1635', '1637', '1638', '1641', '1642', '1646', '1648', '1651', '1652', '1654', '1656', '1658', '1662', '1664', '1665', '1670', '1672', '1674', '1676', '1678', '1679', '1680', '1682', '1684', '1690', '1692', '1693', '1694', '1698', '1703', '1705', '1709', '1710', '1711', '1712', '1715', '1721', '1722', '1723', '1732', '1733', '1739', '1740', '1747', '1748', '1754', '1759', '1760', '1767', '1769', '1770', '1783', '1784', '1785', '1786', '1788', '1790', '1791', '1792', '1793', '1795', '1796', '1799', '1801', '1802', '1807', '1808', '1809', '1810', '1811', '1813', '1817', '1821', '1827', '1829', '1831', '1834', '1838', '1839', '1843', '1844', '1852', '1854', '1856', '1861', '1863', '1864', '1865', '1867', '1869', '1873', '1875', '1878', '1880', '1882', '1883', '1890', '1892', '1898', '1901', '1906', '1910', '1912', '1913', '1915', '1918', '1920', '1922', '1925', '1927', '1929', '1930', '1932', '1935', '1937', '1938', '1940', '1941', '1942', '1944', '1947', '1948', '1950', '1951', '1952', '1956', '1957', '1959', '1962', '1966', '1968', '1970', '1971', '1978', '1982', '1983', '1985', '1988', '1989', '1990', '1991', '1992', '1994', '1996', '1999', '2000']",True,1000,True,2,5613c4fd05,0.0,0.0,1.0
./expes/v2_2021-03-23_issda-30_2000-prng-1-w1-p2,30_issda-2000,2000,first-2000,300,15,rng,num-start-2400,2400,25726,classic,1229.102597951889,True,,False,1.0,1.0,1.0,1,"['4', '7', '11', '19', '24', '27', '38', '45', '47', '60', '66', '68', '71', '76', '96', '100', '107', '115', '117', '121', '130', '134', '136', '148', '161', '166', '183', '187', '189', '209', '219', '222', '231', '232', '244', '260', '268', '271', '272', '285', '290', '299', '301', '304', '305', '306', '322', '327', '331', '340', '341', '346', '347', '361', '364', '366', '368', '369', '371', '373', '379', '403', '404', '408', '420', '425', '427', '429', '442', '444', '487', '504', '505', '511', '513', '514', '524', '525', '541', '543', '558', '561', '562', '565', '573', '576', '592', '593', '597', '602', '604', '606', '612', '618', '627', '628', '634', '635', '640', '643', '647', '649', '651', '668', '680', '685', '693', '694', '697', '698', '705', '706', '727', '728', '729', '733', '735', '740', '743', '745', '750', '753', '762', '764', '771', '773', '780', '785', '798', '827', '828', '832', '836', '848', '850', '858', '862', '864', '887', '890', '912', '928', '929', '934', '947', '948', '949', '954', '961', '963', '968', '972', '982', '985', '986', '991', '995', '1000', '1008', '1011', '1023', '1025', '1030', '1050', '1051', '1056', '1070', '1075', '1086', '1090', '1093', '1105', '1114', '1117', '1121', '1123', '1125', '1146', '1156', '1176', '1185', '1190', '1201', '1204', '1208', '1217', '1221', '1231', '1236', '1251', '1265', '1266', '1271', '1276', '1278', '1282', '1284', '1285', '1292', '1308', '1330', '1331', '1334', '1336', '1360', '1369', '1376', '1389', '1405', '1411', '1412', '1415', '1423', '1427', '1439', '1443', '1444', '1450', '1467', '1475', '1477', '1495', '1498', '1499', '1516', '1517', '1520', '1533', '1536', '1548', '1556', '1561', '1569', '1577', '1585', '1587', '1589', '1590', '1600', '1602', '1610', '1614', '1629', '1633', '1636', '1642', '1673', '1675', '1677', '1679', '1684', '1693', '1711', '1718', '1722', '1723', '1724', '1731', '1745', '1746', '1761', '1777', '1778', '1779', '1785', '1787', '1795', '1829', '1831', '1837', '1846', '1848', '1877', '1881', '1889', '1892', '1893', '1904', '1917', '1920', '1924', '1928', '1930', '1931', '1932', '1937', '1945', '1946', '1955', '1957', '1960', '1966', '1967', '1970', '1977', '1980', '1984', '1992', '1998', '1999']",True,1000,True,2,3537f6c932,0.0,0.0,1.0
./expes/v2_2021-03-23_issda-30_2000-prng-1-w1-p2,30_issda-2000,2000,first-2000,200,10,rng,num-start-2400,2400,25726,classic,1235.6047258377075,True,,False,1.0,1.0,1.0,1,"['12', '13', '19', '21', '23', '27', '29', '42', '46', '47', '57', '63', '68', '80', '89', '91', '96', '99', '122', '135', '146', '161', '172', '177', '191', '207', '212', '214', '222', '233', '238', '249', '252', '290', '291', '295', '302', '314', '316', '317', '337', '353', '365', '406', '443', '452', '456', '460', '465', '467', '476', '481', '488', '490', '491', '498', '501', '520', '523', '524', '529', '531', '533', '549', '580', '582', '584', '601', '607', '608', '619', '624', '633', '635', '636', '649', '655', '656', '687', '713', '741', '757', '765', '787', '796', '805', '808', '819', '820', '830', '832', '834', '839', '852', '854', '861', '867', '876', '889', '912', '915', '929', '931', '934', '936', '944', '952', '956', '961', '973', '978', '985', '988', '1004', '1007', '1013', '1023', '1030', '1047', '1059', '1072', '1077', '1105', '1110', '1153', '1186', '1193', '1227', '1234', '1235', '1237', '1242', '1256', '1282', '1284', '1293', '1296', '1301', '1308', '1313', '1317', '1332', '1341', '1343', '1347', '1351', '1366', '1367', '1370', '1395', '1407', '1421', '1432', '1433', '1441', '1449', '1450', '1457', '1491', '1496', '1512', '1523', '1568', '1603', '1604', '1614', '1617', '1619', '1630', '1655', '1664', '1667', '1669', '1674', '1700', '1706', '1721', '1722', '1726', '1727', '1735', '1741', '1750', '1771', '1810', '1830', '1837', '1843', '1882', '1883', '1884', '1895', '1927', '1943', '1950', '1952', '1959', '1981', '1983', '1995']",True,1000,True,2,3b19838717,0.0,0.0,1.0
./expes/v2_2021-03-23_issda-30_2000-prng-1-w1-p2,30_issda-2000,2000,first-2000,100,5,rng,num-start-400,400,25726,classic,916.5377073287964,True,,True,1.0,1.0,1.0,1,"['24', '35', '36', '39', '75', '98', '113', '135', '151', '162', '205', '239', '240', '288', '302', '311', '324', '353', '401', '423', '428', '458', '469', '474', '490', '491', '540', '575', '587', '606', '626', '642', '646', '693', '706', '728', '729', '738', '753', '804', '810', '823', '830', '860', '862', '900', '923', '933', '945', '956', '960', '1003', '1005', '1014', '1048', '1068', '1086', '1094', '1137', '1157', '1167', '1183', '1258', '1323', '1396', '1415', '1422', '1423', '1451', '1473', '1486', '1489', '1508', '1592', '1608', '1634', '1637', '1649', '1659', '1718', '1722', '1729', '1753', '1756', '1757', '1769', '1792', '1802', '1817', '1827', '1870', '1888', '1890', '1895', '1906', '1915', '1922', '1936', '1965', '1977']",False,1000,True,2,584be862b1,0.0,1.0,1.0
./expes/v2_2021-03-23_issda-30_2000-prng-1-w1-p2,30_issda-2000,2000,first-2000,200,10,rng,num-start-2000,2000,25726,classic,1196.1209392547607,True,,True,1.0,1.0,1.0,1,"['11', '20', '37', '40', '43', '56', '101', '102', '103', '104', '106', '111', '120', '128', '132', '142', '154', '168', '175', '191', '193', '226', '227', '240', '253', '266', '282', '284', '287', '291', '309', '310', '331', '335', '350', '358', '376', '395', '401', '403', '407', '431', '435', '438', '461', '490', '496', '510', '513', '514', '515', '517', '529', '544', '548', '559', '565', '570', '594', '605', '622', '625', '630', '634', '635', '639', '647', '648', '651', '654', '678', '681', '687', '689', '713', '727', '737', '749', '763', '768', '787', '802', '823', '826', '827', '831', '837', '840', '849', '859', '860', '887', '957', '971', '978', '984', '994', '997', '1028', '1037', '1039', '1070', '1076', '1080', '1091', '1092', '1100', '1106', '1107', '1111', '1113', '1129', '1134', '1138', '1141', '1145', '1156', '1171', '1178', '1180', '1185', '1188', '1209', '1229', '1237', '1272', '1297', '1304', '1309', '1312', '1347', '1349', '1355', '1386', '1398', '1402', '1405', '1416', '1443', '1445', '1446', '1465', '1466', '1484', '1485', '1493', '1499', '1514', '1526', '1529', '1531', '1533', '1541', '1543', '1569', '1579', '1586', '1603', '1611', '1622', '1642', '1643', '1644', '1649', '1653', '1661', '1664', '1665', '1666', '1670', '1673', '1698', '1719', '1725', '1734', '1759', '1761', '1778', '1793', '1808', '1819', '1823', '1837', '1847', '1859', '1862', '1864', '1878', '1880', '1885', '1897', '1925', '1936', '1949', '1957', '1961', '1962', '1966', '1968', '1994']",False,1000,True,2,6a0eda5155,0.0,1.0,1.0
