expe,clients,clients_size,clients_subset,agg_size,agg_size_pc,method,days,days_size,days_total,noise_method,time,valid,valid_sum,success,score_avg,score_min,score_max,nsols,oracle,wall_hit,wall_time,pooled,pool_size,uuid,infeasible,optimal,valid_sums
./expes/v2_2021-03-23_issda-30_2000-prng-1-w1-p2,30_issda-2000,2000,first-2000,300,15,rng,num-start-4000,4000,25726,classic,1379.811354637146,True,,False,1.0,1.0,1.0,1,"['6', '9', '11', '16', '31', '52', '66', '67', '68', '71', '73', '76', '90', '91', '92', '95', '104', '129', '133', '134', '148', '156', '164', '166', '183', '190', '197', '198', '203', '217', '223', '232', '238', '239', '245', '273', '275', '279', '285', '286', '290', '294', '307', '312', '315', '321', '325', '329', '334', '338', '340', '341', '357', '358', '361', '366', '374', '392', '394', '399', '400', '401', '423', '426', '428', '430', '459', '460', '483', '487', '489', '491', '492', '495', '497', '503', '505', '512', '531', '537', '538', '545', '547', '557', '563', '569', '581', '585', '593', '607', '617', '620', '621', '632', '644', '655', '662', '665', '672', '673', '680', '703', '712', '715', '716', '717', '728', '740', '743', '747', '750', '767', '769', '782', '788', '795', '800', '821', '822', '830', '837', '846', '849', '851', '861', '862', '863', '867', '868', '869', '874', '879', '888', '891', '892', '893', '894', '899', '901', '904', '905', '913', '916', '917', '918', '923', '930', '934', '936', '939', '940', '946', '948', '950', '963', '978', '981', '984', '989', '994', '1003', '1004', '1007', '1016', '1018', '1024', '1027', '1028', '1065', '1066', '1067', '1069', '1070', '1072', '1076', '1093', '1097', '1099', '1104', '1109', '1116', '1125', '1128', '1138', '1145', '1162', '1171', '1179', '1184', '1194', '1198', '1206', '1212', '1219', '1224', '1232', '1234', '1236', '1243', '1246', '1249', '1257', '1265', '1268', '1285', '1288', '1317', '1329', '1331', '1338', '1339', '1348', '1353', '1356', '1361', '1366', '1373', '1380', '1381', '1383', '1395', '1402', '1405', '1408', '1424', '1430', '1438', '1460', '1471', '1480', '1488', '1508', '1515', '1523', '1524', '1527', '1539', '1571', '1573', '1582', '1583', '1584', '1587', '1589', '1593', '1604', '1612', '1616', '1638', '1654', '1661', '1666', '1673', '1676', '1682', '1687', '1694', '1695', '1698', '1699', '1707', '1725', '1729', '1744', '1752', '1759', '1762', '1766', '1768', '1772', '1781', '1786', '1818', '1821', '1830', '1837', '1839', '1840', '1853', '1863', '1865', '1870', '1871', '1884', '1886', '1890', '1893', '1928', '1932', '1937', '1941', '1951', '1952', '1971', '1974', '1984', '1986', '1987', '1988', '1995']",True,1000,True,2,6e26fbdee4,0.0,0.0,1.0
./expes/v2_2021-03-23_issda-30_2000-prng-1-w1-p2,30_issda-2000,2000,first-2000,500,25,rng,num-start-4000,4000,25726,classic,1395.4785676002502,True,,False,1.0,1.0,1.0,1,"['11', '15', '16', '17', '20', '22', '25', '32', '37', '40', '43', '54', '56', '57', '59', '62', '69', '73', '101', '102', '103', '104', '106', '107', '110', '111', '120', '123', '124', '128', '132', '135', '142', '145', '150', '151', '154', '158', '159', '162', '166', '168', '171', '175', '178', '191', '192', '193', '202', '203', '214', '217', '226', '227', '232', '240', '241', '251', '252', '253', '256', '261', '263', '264', '266', '281', '282', '284', '287', '291', '293', '294', '305', '307', '309', '310', '311', '316', '331', '333', '335', '337', '346', '347', '349', '350', '353', '358', '367', '376', '377', '386', '387', '388', '392', '394', '395', '401', '403', '407', '411', '417', '418', '427', '431', '433', '435', '437', '438', '444', '448', '455', '456', '461', '470', '474', '483', '484', '486', '490', '496', '497', '499', '500', '510', '512', '513', '514', '515', '517', '523', '528', '529', '532', '538', '540', '544', '545', '548', '552', '554', '559', '565', '570', '577', '581', '584', '591', '592', '594', '602', '603', '605', '608', '618', '620', '622', '625', '630', '631', '632', '634', '635', '636', '639', '642', '647', '648', '650', '651', '652', '654', '659', '667', '674', '678', '681', '685', '687', '689', '691', '695', '696', '712', '713', '721', '727', '729', '731', '737', '743', '746', '749', '754', '757', '763', '768', '769', '775', '786', '787', '796', '802', '805', '820', '823', '826', '827', '828', '829', '831', '834', '836', '837', '840', '849', '850', '854', '859', '860', '862', '866', '867', '875', '877', '882', '887', '889', '893', '894', '897', '907', '908', '912', '913', '920', '921', '928', '933', '941', '948', '950', '957', '958', '967', '971', '973', '978', '984', '989', '990', '994', '997', '1008', '1010', '1011', '1013', '1016', '1028', '1029', '1033', '1034', '1037', '1039', '1053', '1056', '1057', '1061', '1063', '1064', '1070', '1072', '1076', '1077', '1080', '1082', '1091', '1092', '1096', '1099', '1100', '1103', '1104', '1105', '1106', '1107', '1111', '1113', '1114', '1116', '1121', '1126', '1129', '1134', '1135', '1138', '1139', '1141', '1145', '1146', '1156', '1164', '1166', '1171', '1172', '1178', '1180', '1184', '1185', '1188', '1191', '1193', '1201', '1202', '1209', '1212', '1226', '1229', '1237', '1238', '1250', '1254', '1256', '1264', '1272', '1282', '1283', '1284', '1295', '1297', '1302', '1304', '1309', '1312', '1325', '1330', '1332', '1340', '1347', '1349', '1355', '1359', '1367', '1383', '1386', '1395', '1398', '1402', '1403', '1405', '1412', '1416', '1433', '1442', '1443', '1445', '1446', '1455', '1458', '1465', '1466', '1484', '1485', '1489', '1493', '1497', '1499', '1510', '1513', '1514', '1523', '1525', '1526', '1529', '1531', '1533', '1535', '1537', '1540', '1541', '1543', '1546', '1547', '1552', '1553', '1556', '1557', '1564', '1567', '1569', '1579', '1582', '1585', '1586', '1594', '1598', '1600', '1603', '1607', '1611', '1613', '1622', '1626', '1627', '1637', '1642', '1643', '1644', '1645', '1649', '1653', '1661', '1664', '1665', '1666', '1670', '1673', '1676', '1679', '1680', '1682', '1684', '1689', '1693', '1698', '1702', '1705', '1715', '1719', '1725', '1734', '1742', '1749', '1753', '1759', '1761', '1769', '1772', '1777', '1778', '1780', '1789', '1793', '1805', '1808', '1819', '1823', '1829', '1830', '1837', '1838', '1840', '1841', '1844', '1847', '1848', '1856', '1858', '1859', '1861', '1862', '1864', '1870', '1878', '1880', '1885', '1888', '1892', '1893', '1897', '1905', '1907', '1911', '1917', '1923', '1925', '1926', '1927', '1930', '1936', '1944', '1949', '1957', '1958', '1960', '1961', '1962', '1966', '1968', '1970', '1975', '1976', '1982', '1987', '1990', '1992', '1994', '1996', '1997', '1998']",True,1000,True,2,897b76391c,0.0,0.0,1.0
./expes/v2_2021-03-23_issda-30_2000-prng-1-w1-p2,30_issda-2000,2000,first-2000,700,35,rng,num-start-2400,2400,25726,classic,1239.73623752594,True,,False,1.0,1.0,1.0,1,"['4', '6', '7', '10', '12', '15', '18', '20', '22', '27', '32', '38', '39', '41', '42', '48', '53', '55', '58', '65', '66', '71', '73', '76', '77', '83', '84', '85', '88', '89', '92', '95', '97', '106', '109', '110', '114', '121', '122', '124', '126', '127', '128', '136', '137', '138', '139', '142', '153', '154', '156', '158', '159', '160', '162', '164', '167', '168', '170', '171', '175', '176', '178', '182', '183', '185', '188', '191', '192', '195', '199', '202', '207', '212', '213', '218', '220', '227', '232', '233', '235', '238', '240', '243', '248', '250', '251', '262', '267', '272', '273', '280', '285', '289', '291', '295', '298', '305', '306', '307', '313', '314', '316', '318', '320', '321', '322', '323', '325', '326', '331', '332', '334', '335', '338', '339', '343', '345', '346', '348', '349', '353', '354', '358', '362', '364', '365', '368', '370', '374', '377', '380', '385', '392', '393', '397', '400', '401', '402', '405', '407', '411', '414', '416', '421', '425', '426', '427', '432', '433', '435', '440', '441', '442', '448', '449', '453', '455', '456', '469', '470', '472', '474', '475', '476', '478', '479', '484', '487', '489', '496', '497', '503', '507', '510', '511', '513', '515', '516', '519', '521', '524', '525', '527', '528', '529', '530', '532', '534', '536', '537', '538', '550', '552', '555', '557', '566', '567', '569', '571', '574', '575', '582', '585', '586', '591', '592', '593', '594', '595', '596', '598', '599', '600', '601', '607', '609', '611', '613', '615', '616', '620', '621', '622', '623', '625', '626', '630', '635', '638', '639', '640', '642', '645', '646', '648', '649', '657', '659', '662', '663', '666', '669', '670', '673', '676', '678', '679', '689', '690', '692', '694', '695', '697', '703', '711', '712', '718', '729', '731', '732', '736', '738', '742', '743', '745', '747', '748', '750', '753', '762', '763', '770', '778', '781', '782', '793', '794', '795', '796', '800', '802', '803', '804', '809', '811', '812', '815', '820', '821', '823', '825', '826', '827', '828', '832', '839', '841', '843', '844', '846', '847', '848', '850', '852', '855', '861', '863', '866', '867', '868', '869', '877', '881', '883', '888', '889', '893', '898', '899', '900', '901', '903', '904', '906', '909', '910', '925', '926', '927', '930', '932', '939', '940', '941', '948', '952', '957', '966', '968', '970', '973', '977', '978', '979', '981', '982', '991', '992', '997', '1002', '1004', '1005', '1008', '1013', '1015', '1017', '1022', '1030', '1037', '1038', '1040', '1042', '1048', '1050', '1055', '1063', '1066', '1067', '1072', '1074', '1077', '1078', '1079', '1082', '1084', '1085', '1087', '1091', '1095', '1100', '1101', '1103', '1107', '1110', '1113', '1115', '1117', '1119', '1121', '1122', '1126', '1128', '1132', '1134', '1144', '1147', '1149', '1150', '1152', '1158', '1164', '1166', '1167', '1171', '1173', '1174', '1176', '1180', '1186', '1192', '1193', '1194', '1197', '1203', '1205', '1206', '1211', '1218', '1220', '1223', '1227', '1230', '1231', '1237', '1241', '1243', '1246', '1248', '1249', '1250', '1256', '1260', '1261', '1265', '1266', '1269', '1271', '1272', '1275', '1277', '1281', '1283', '1284', '1285', '1286', '1288', '1292', '1294', '1295', '1296', '1300', '1301', '1305', '1311', '1313', '1316', '1318', '1323', '1325', '1326', '1328', '1335', '1336', '1338', '1340', '1341', '1342', '1346', '1349', '1353', '1354', '1356', '1367', '1369', '1376', '1380', '1383', '1384', '1385', '1386', '1387', '1393', '1395', '1398', '1400', '1405', '1409', '1420', '1421', '1425', '1429', '1431', '1436', '1438', '1441', '1444', '1447', '1448', '1451', '1453', '1456', '1457', '1461', '1466', '1470', '1472', '1474', '1478', '1483', '1498', '1499', '1506', '1510', '1512', '1526', '1527', '1528', '1529', '1530', '1539', '1546', '1548', '1554', '1557', '1568', '1571', '1573', '1577', '1580', '1582', '1585', '1586', '1588', '1591', '1594', '1597', '1603', '1604', '1606', '1607', '1611', '1612', '1613', '1617', '1619', '1620', '1626', '1631', '1634', '1635', '1636', '1638', '1640', '1641', '1642', '1644', '1645', '1648', '1653', '1654', '1657', '1659', '1665', '1669', '1675', '1676', '1677', '1681', '1687', '1691', '1692', '1694', '1695', '1698', '1700', '1702', '1703', '1704', '1708', '1709', '1710', '1714', '1716', '1720', '1722', '1730', '1731', '1736', '1737', '1738', '1747', '1751', '1753', '1754', '1757', '1758', '1759', '1761', '1765', '1766', '1770', '1771', '1773', '1777', '1781', '1782', '1784', '1790', '1791', '1792', '1795', '1796', '1798', '1800', '1801', '1803', '1804', '1805', '1807', '1809', '1814', '1816', '1822', '1823', '1824', '1825', '1827', '1828', '1830', '1832', '1835', '1837', '1838', '1842', '1843', '1845', '1846', '1848', '1850', '1852', '1853', '1854', '1859', '1862', '1865', '1866', '1867', '1868', '1870', '1871', '1875', '1876', '1878', '1880', '1885', '1887', '1889', '1890', '1893', '1894', '1896', '1900', '1901', '1902', '1905', '1906', '1915', '1918', '1919', '1920', '1921', '1925', '1927', '1930', '1932', '1934', '1935', '1942', '1945', '1948', '1951', '1953', '1956', '1959', '1965', '1966', '1967', '1968', '1970', '1972', '1976', '1977', '1979', '1984', '1986', '1988', '1989', '1995', '1998']",True,1000,True,2,eb216f9798,0.0,0.0,1.0
./expes/v2_2021-03-23_issda-30_2000-prng-1-w1-p2,30_issda-2000,2000,first-2000,200,10,rng,num-start-3200,3200,25726,classic,1314.1556997299194,True,,False,1.0,1.0,1.0,1,"['1', '26', '35', '38', '45', '59', '76', '94', '111', '157', '166', '176', '181', '183', '184', '191', '193', '197', '200', '240', '245', '253', '260', '283', '292', '299', '347', '353', '380', '385', '387', '394', '396', '397', '402', '404', '406', '408', '412', '430', '457', '502', '503', '513', '515', '522', '525', '536', '544', '545', '549', '559', '593', '597', '622', '624', '627', '640', '655', '675', '682', '688', '732', '739', '740', '741', '742', '765', '768', '773', '778', '779', '798', '815', '838', '840', '841', '848', '864', '867', '870', '874', '881', '904', '912', '914', '916', '925', '964', '965', '973', '981', '991', '994', '995', '997', '999', '1001', '1002', '1008', '1025', '1030', '1032', '1055', '1059', '1070', '1076', '1081', '1102', '1103', '1105', '1134', '1143', '1154', '1176', '1180', '1202', '1206', '1207', '1208', '1217', '1224', '1233', '1234', '1236', '1246', '1250', '1254', '1267', '1271', '1298', '1301', '1321', '1328', '1343', '1345', '1358', '1373', '1375', '1390', '1391', '1394', '1397', '1405', '1430', '1433', '1436', '1446', '1473', '1478', '1480', '1493', '1495', '1505', '1529', '1548', '1556', '1562', '1578', '1594', '1606', '1625', '1631', '1632', '1639', '1643', '1646', '1649', '1650', '1651', '1673', '1684', '1696', '1703', '1706', '1709', '1730', '1773', '1783', '1787', '1795', '1801', '1803', '1822', '1828', '1849', '1853', '1863', '1865', '1870', '1877', '1899', '1900', '1911', '1927', '1949', '1977', '1978', '1987', '2000']",True,1000,True,2,ff7e88e4f7,0.0,0.0,1.0
./expes/v2_2021-03-23_issda-30_2000-prng-1-w1-p2,30_issda-2000,2000,first-2000,400,20,rng,num-start-3600,3600,25726,classic,1361.8025426864624,True,,False,1.0,1.0,1.0,1,"['7', '15', '20', '22', '27', '38', '41', '53', '55', '65', '71', '73', '76', '83', '84', '85', '88', '89', '92', '95', '106', '110', '114', '121', '122', '124', '127', '128', '137', '153', '154', '159', '160', '162', '164', '167', '170', '175', '178', '183', '185', '191', '195', '199', '207', '212', '218', '232', '233', '235', '238', '240', '251', '262', '280', '285', '291', '298', '307', '314', '318', '322', '326', '331', '332', '338', '339', '343', '346', '348', '354', '364', '365', '377', '385', '392', '393', '397', '400', '401', '407', '411', '414', '416', '421', '425', '426', '427', '432', '433', '440', '441', '442', '448', '449', '455', '456', '469', '475', '478', '479', '484', '487', '496', '497', '507', '510', '511', '513', '519', '521', '527', '528', '532', '534', '536', '537', '550', '552', '557', '566', '567', '569', '574', '575', '586', '591', '592', '593', '594', '595', '596', '598', '599', '600', '601', '607', '609', '615', '622', '625', '635', '638', '639', '645', '646', '657', '659', '662', '663', '666', '670', '678', '679', '690', '692', '694', '703', '711', '729', '732', '738', '743', '745', '748', '750', '763', '781', '782', '794', '795', '796', '800', '804', '809', '811', '812', '820', '823', '826', '827', '839', '841', '846', '848', '852', '855', '861', '863', '868', '869', '877', '881', '883', '889', '893', '899', '900', '901', '904', '909', '910', '925', '930', '932', '941', '948', '952', '966', '968', '970', '979', '981', '997', '1002', '1005', '1008', '1013', '1017', '1022', '1037', '1042', '1050', '1063', '1066', '1072', '1077', '1079', '1082', '1084', '1095', '1100', '1113', '1119', '1122', '1126', '1128', '1144', '1149', '1152', '1158', '1166', '1167', '1171', '1173', '1174', '1193', '1194', '1206', '1218', '1220', '1227', '1241', '1243', '1246', '1250', '1261', '1266', '1269', '1271', '1272', '1283', '1285', '1286', '1296', '1300', '1301', '1313', '1316', '1326', '1328', '1335', '1336', '1338', '1340', '1341', '1346', '1367', '1369', '1376', '1380', '1383', '1387', '1393', '1405', '1409', '1425', '1429', '1436', '1444', '1451', '1470', '1478', '1499', '1506', '1510', '1526', '1529', '1530', '1554', '1568', '1571', '1573', '1577', '1582', '1585', '1586', '1588', '1597', '1604', '1606', '1607', '1613', '1620', '1634', '1635', '1636', '1638', '1640', '1641', '1642', '1648', '1653', '1659', '1665', '1669', '1676', '1677', '1694', '1695', '1698', '1702', '1710', '1716', '1720', '1722', '1731', '1737', '1738', '1751', '1753', '1754', '1757', '1759', '1765', '1766', '1771', '1773', '1777', '1781', '1782', '1784', '1790', '1795', '1798', '1800', '1801', '1803', '1807', '1814', '1822', '1825', '1827', '1832', '1835', '1842', '1843', '1845', '1846', '1853', '1854', '1862', '1871', '1875', '1876', '1878', '1880', '1889', '1890', '1894', '1900', '1901', '1905', '1915', '1930', '1932', '1934', '1935', '1948', '1956', '1959', '1966', '1968', '1970', '1972', '1976', '1979', '1984', '1988', '1989']",True,1000,True,2,c6b40987cd,0.0,0.0,1.0
./expes/v2_2021-03-23_issda-30_2000-prng-1-w1-p2,30_issda-2000,2000,first-2000,500,25,rng,num-start-1600,1600,25726,classic,1159.9867486953735,True,,False,1.0,1.0,1.0,1,"['2', '4', '7', '11', '19', '24', '27', '28', '34', '38', '41', '45', '47', '49', '55', '57', '60', '66', '68', '71', '74', '75', '76', '82', '86', '96', '100', '107', '111', '115', '117', '121', '130', '134', '136', '148', '161', '162', '166', '183', '187', '189', '195', '209', '219', '222', '227', '231', '232', '236', '243', '244', '250', '259', '260', '265', '268', '271', '272', '273', '274', '280', '285', '289', '290', '291', '292', '294', '299', '301', '304', '305', '306', '317', '322', '326', '327', '328', '331', '340', '341', '346', '347', '352', '354', '361', '364', '366', '368', '369', '370', '371', '372', '373', '379', '397', '401', '403', '404', '407', '408', '419', '420', '425', '427', '429', '442', '444', '449', '464', '487', '488', '499', '503', '504', '505', '511', '513', '514', '515', '524', '525', '533', '541', '543', '549', '555', '558', '561', '562', '565', '571', '573', '576', '579', '580', '586', '587', '592', '593', '597', '601', '602', '604', '605', '606', '608', '612', '616', '617', '618', '620', '627', '628', '630', '634', '635', '640', '643', '647', '649', '650', '651', '654', '667', '668', '680', '685', '689', '693', '694', '696', '697', '698', '705', '706', '708', '713', '717', '718', '720', '721', '727', '728', '729', '731', '733', '735', '740', '742', '743', '745', '747', '750', '753', '757', '762', '764', '766', '770', '771', '773', '778', '779', '780', '783', '784', '785', '787', '798', '804', '827', '828', '831', '832', '836', '837', '839', '840', '848', '850', '851', '854', '858', '859', '862', '864', '880', '885', '887', '890', '904', '909', '912', '922', '928', '929', '934', '947', '948', '949', '951', '953', '954', '958', '961', '963', '966', '968', '972', '973', '977', '978', '982', '983', '984', '985', '986', '989', '991', '995', '1000', '1004', '1008', '1009', '1011', '1017', '1023', '1025', '1030', '1050', '1051', '1056', '1058', '1062', '1070', '1075', '1085', '1086', '1090', '1091', '1093', '1103', '1105', '1114', '1117', '1121', '1123', '1125', '1127', '1133', '1146', '1148', '1155', '1156', '1159', '1176', '1185', '1190', '1201', '1202', '1204', '1208', '1209', '1210', '1217', '1221', '1231', '1236', '1237', '1246', '1247', '1251', '1253', '1257', '1260', '1264', '1265', '1266', '1271', '1274', '1276', '1278', '1279', '1282', '1284', '1285', '1290', '1292', '1293', '1305', '1308', '1316', '1320', '1321', '1326', '1330', '1331', '1332', '1334', '1336', '1352', '1356', '1357', '1360', '1364', '1369', '1374', '1376', '1380', '1389', '1397', '1405', '1410', '1411', '1412', '1415', '1417', '1423', '1427', '1439', '1443', '1444', '1450', '1451', '1467', '1471', '1472', '1474', '1475', '1476', '1477', '1478', '1495', '1496', '1498', '1499', '1512', '1516', '1517', '1518', '1520', '1523', '1526', '1533', '1536', '1548', '1555', '1556', '1558', '1561', '1569', '1577', '1585', '1587', '1589', '1590', '1599', '1600', '1601', '1602', '1610', '1614', '1629', '1633', '1634', '1636', '1642', '1665', '1666', '1673', '1675', '1677', '1679', '1682', '1684', '1693', '1694', '1697', '1703', '1711', '1714', '1718', '1722', '1723', '1724', '1727', '1729', '1731', '1745', '1746', '1749', '1751', '1753', '1761', '1769', '1775', '1776', '1777', '1778', '1779', '1782', '1785', '1787', '1795', '1796', '1804', '1826', '1827', '1829', '1830', '1831', '1833', '1837', '1846', '1848', '1850', '1872', '1877', '1881', '1889', '1892', '1893', '1904', '1916', '1917', '1918', '1920', '1921', '1924', '1928', '1930', '1931', '1932', '1936', '1937', '1945', '1946', '1948', '1950', '1955', '1957', '1959', '1960', '1961', '1963', '1966', '1967', '1968', '1969', '1970', '1976', '1977', '1980', '1983', '1984', '1992', '1998', '1999', '2000']",True,1000,True,2,f5ecbe4b2b,0.0,0.0,1.0
./expes/v2_2021-03-23_issda-30_2000-prng-1-w1-p2,30_issda-2000,2000,first-2000,200,10,rng,num-start-4000,4000,25726,classic,1391.2485082149506,True,,False,1.0,1.0,1.0,1,"['1', '2', '10', '20', '23', '31', '32', '35', '41', '61', '62', '74', '86', '87', '108', '122', '123', '130', '137', '144', '150', '151', '153', '171', '175', '179', '185', '186', '193', '206', '207', '221', '222', '239', '242', '261', '269', '276', '278', '291', '300', '316', '323', '364', '375', '379', '382', '384', '386', '389', '390', '391', '401', '407', '428', '430', '432', '436', '437', '438', '471', '479', '496', '498', '505', '521', '529', '553', '570', '592', '596', '603', '607', '622', '623', '638', '646', '669', '674', '682', '690', '756', '762', '769', '786', '791', '792', '808', '809', '812', '814', '821', '834', '840', '859', '860', '862', '903', '905', '915', '917', '926', '927', '928', '929', '937', '951', '953', '954', '963', '975', '991', '998', '1024', '1041', '1043', '1049', '1051', '1064', '1083', '1104', '1129', '1146', '1147', '1154', '1160', '1177', '1182', '1194', '1203', '1211', '1214', '1220', '1229', '1232', '1233', '1250', '1258', '1261', '1275', '1277', '1285', '1290', '1300', '1304', '1312', '1315', '1319', '1332', '1340', '1342', '1357', '1383', '1397', '1403', '1421', '1448', '1450', '1452', '1499', '1514', '1553', '1570', '1576', '1583', '1594', '1595', '1600', '1625', '1633', '1646', '1647', '1659', '1701', '1704', '1705', '1721', '1726', '1734', '1736', '1750', '1752', '1755', '1771', '1774', '1775', '1802', '1813', '1824', '1865', '1890', '1893', '1899', '1909', '1963', '1965', '1975', '1976', '1989', '1997']",True,1000,True,2,5f3842bb65,0.0,0.0,1.0
./expes/v2_2021-03-23_issda-30_2000-prng-1-w1-p2,30_issda-2000,2000,first-2000,700,35,rng,num-start-1600,1600,25726,classic,1158.6557240486145,True,,False,1.0,1.0,1.0,1,"['6', '8', '9', '11', '12', '16', '21', '26', '28', '30', '31', '33', '34', '36', '39', '52', '54', '56', '57', '64', '65', '66', '67', '68', '69', '71', '73', '74', '75', '76', '77', '85', '88', '89', '90', '91', '92', '95', '98', '100', '102', '103', '104', '107', '109', '110', '113', '114', '116', '122', '123', '124', '129', '133', '134', '135', '139', '143', '144', '145', '148', '152', '154', '156', '160', '161', '164', '166', '167', '172', '181', '183', '187', '190', '194', '196', '197', '198', '199', '203', '205', '215', '217', '219', '223', '232', '237', '238', '239', '241', '243', '245', '247', '253', '256', '257', '261', '262', '267', '273', '275', '279', '285', '286', '289', '290', '294', '299', '301', '306', '307', '310', '312', '313', '314', '315', '316', '317', '321', '324', '325', '329', '334', '337', '338', '339', '340', '341', '345', '346', '348', '351', '352', '355', '357', '358', '359', '360', '361', '362', '365', '366', '367', '374', '375', '381', '382', '384', '387', '390', '391', '392', '393', '394', '397', '399', '400', '401', '410', '413', '422', '423', '426', '428', '430', '433', '434', '439', '447', '451', '454', '458', '459', '460', '469', '482', '483', '487', '489', '491', '492', '494', '495', '497', '501', '503', '505', '506', '512', '519', '522', '531', '532', '537', '538', '540', '544', '545', '547', '557', '562', '563', '568', '569', '570', '579', '581', '585', '589', '590', '593', '594', '596', '603', '607', '614', '617', '620', '621', '627', '628', '631', '632', '637', '644', '649', '650', '655', '660', '662', '665', '670', '672', '673', '680', '686', '688', '694', '695', '700', '703', '704', '708', '712', '713', '715', '716', '717', '724', '725', '728', '735', '738', '739', '740', '743', '747', '750', '752', '766', '767', '769', '771', '778', '779', '782', '783', '788', '790', '792', '795', '796', '798', '800', '803', '804', '811', '813', '814', '817', '818', '820', '821', '822', '825', '829', '830', '831', '837', '846', '849', '851', '852', '858', '861', '862', '863', '864', '866', '867', '868', '869', '874', '876', '879', '882', '887', '888', '889', '891', '892', '893', '894', '899', '900', '901', '904', '905', '906', '911', '913', '915', '916', '917', '918', '923', '925', '930', '933', '934', '936', '938', '939', '940', '941', '942', '944', '946', '948', '950', '951', '956', '959', '962', '963', '965', '972', '974', '976', '977', '978', '979', '981', '983', '984', '989', '994', '1002', '1003', '1004', '1007', '1014', '1016', '1018', '1023', '1024', '1027', '1028', '1038', '1040', '1044', '1046', '1047', '1051', '1052', '1058', '1060', '1065', '1066', '1067', '1069', '1070', '1071', '1072', '1075', '1076', '1082', '1088', '1091', '1093', '1097', '1099', '1100', '1104', '1106', '1109', '1116', '1117', '1125', '1128', '1129', '1130', '1138', '1139', '1140', '1144', '1145', '1146', '1153', '1156', '1157', '1158', '1160', '1162', '1167', '1168', '1171', '1172', '1177', '1179', '1180', '1182', '1184', '1185', '1188', '1191', '1194', '1198', '1203', '1206', '1210', '1212', '1216', '1219', '1220', '1224', '1225', '1232', '1234', '1235', '1236', '1238', '1240', '1241', '1242', '1243', '1245', '1246', '1247', '1248', '1249', '1250', '1257', '1259', '1265', '1267', '1268', '1270', '1275', '1279', '1281', '1282', '1285', '1286', '1288', '1299', '1301', '1303', '1305', '1308', '1309', '1310', '1311', '1314', '1315', '1317', '1324', '1329', '1331', '1335', '1336', '1338', '1339', '1345', '1347', '1348', '1351', '1353', '1356', '1361', '1363', '1364', '1366', '1371', '1373', '1380', '1381', '1383', '1387', '1395', '1402', '1405', '1408', '1413', '1416', '1418', '1420', '1421', '1424', '1428', '1430', '1435', '1438', '1440', '1445', '1447', '1453', '1455', '1460', '1461', '1471', '1475', '1476', '1478', '1479', '1480', '1481', '1482', '1488', '1489', '1503', '1508', '1513', '1515', '1517', '1523', '1524', '1526', '1527', '1535', '1539', '1541', '1544', '1556', '1559', '1561', '1564', '1565', '1571', '1572', '1573', '1575', '1579', '1582', '1583', '1584', '1587', '1589', '1590', '1592', '1593', '1604', '1612', '1613', '1616', '1617', '1620', '1626', '1633', '1638', '1641', '1648', '1650', '1653', '1654', '1657', '1659', '1661', '1662', '1664', '1666', '1673', '1674', '1675', '1676', '1681', '1682', '1685', '1687', '1688', '1690', '1691', '1694', '1695', '1698', '1699', '1707', '1708', '1709', '1712', '1713', '1714', '1715', '1718', '1725', '1729', '1736', '1737', '1740', '1742', '1744', '1748', '1751', '1752', '1759', '1761', '1762', '1763', '1766', '1768', '1771', '1772', '1773', '1781', '1783', '1785', '1786', '1790', '1792', '1794', '1800', '1802', '1805', '1808', '1818', '1819', '1821', '1823', '1825', '1826', '1830', '1837', '1839', '1840', '1842', '1846', '1847', '1852', '1853', '1856', '1858', '1860', '1863', '1865', '1866', '1870', '1871', '1872', '1874', '1878', '1882', '1884', '1886', '1887', '1890', '1893', '1907', '1910', '1911', '1912', '1916', '1917', '1918', '1923', '1928', '1932', '1937', '1941', '1946', '1948', '1951', '1952', '1956', '1958', '1959', '1965', '1966', '1967', '1968', '1971', '1973', '1974', '1976', '1984', '1985', '1986', '1987', '1988', '1995', '1997']",True,1000,True,2,6672b6bc91,0.0,0.0,1.0
./expes/v2_2021-03-23_issda-30_2000-prng-1-w1-p2,30_issda-2000,2000,first-2000,600,30,rng,num-start-1200,1200,25726,classic,1117.6423003673553,True,,False,1.0,1.0,1.0,1,"['7', '10', '14', '25', '28', '30', '35', '41', '46', '47', '53', '57', '63', '66', '67', '68', '69', '70', '72', '76', '77', '80', '82', '90', '93', '101', '105', '118', '119', '125', '129', '130', '132', '134', '136', '141', '144', '147', '154', '164', '165', '168', '169', '170', '171', '172', '173', '175', '177', '179', '183', '184', '186', '190', '192', '195', '196', '199', '200', '205', '210', '217', '218', '219', '221', '222', '223', '224', '228', '229', '233', '234', '239', '240', '248', '250', '255', '259', '261', '262', '272', '277', '279', '281', '282', '285', '286', '288', '289', '292', '294', '304', '305', '308', '315', '317', '322', '325', '328', '330', '335', '341', '347', '348', '349', '350', '353', '355', '357', '359', '362', '364', '365', '379', '384', '389', '392', '394', '396', '398', '401', '402', '405', '408', '411', '414', '421', '426', '429', '431', '433', '446', '447', '451', '456', '459', '462', '465', '470', '473', '475', '477', '480', '481', '483', '497', '500', '501', '504', '507', '508', '512', '522', '523', '530', '535', '542', '545', '546', '547', '551', '555', '562', '568', '579', '583', '586', '589', '590', '592', '593', '594', '595', '597', '598', '601', '605', '606', '607', '608', '612', '614', '615', '618', '619', '633', '639', '642', '643', '654', '655', '656', '658', '664', '667', '670', '691', '692', '694', '698', '699', '701', '703', '705', '710', '711', '713', '720', '729', '731', '732', '733', '734', '738', '739', '741', '742', '746', '748', '750', '751', '754', '756', '757', '758', '759', '761', '762', '764', '768', '769', '772', '773', '776', '777', '780', '781', '786', '787', '792', '795', '798', '800', '801', '807', '808', '812', '814', '821', '825', '826', '834', '835', '836', '840', '844', '850', '854', '856', '860', '868', '872', '873', '876', '880', '883', '884', '886', '890', '893', '895', '899', '901', '902', '903', '905', '912', '914', '916', '919', '920', '928', '929', '931', '933', '935', '938', '941', '942', '948', '966', '970', '972', '975', '977', '981', '991', '994', '999', '1000', '1001', '1003', '1004', '1014', '1018', '1019', '1020', '1021', '1022', '1023', '1024', '1025', '1028', '1029', '1030', '1032', '1033', '1034', '1035', '1038', '1039', '1040', '1045', '1049', '1054', '1058', '1059', '1065', '1066', '1067', '1073', '1076', '1077', '1079', '1080', '1082', '1083', '1084', '1090', '1093', '1095', '1106', '1117', '1121', '1139', '1142', '1146', '1150', '1153', '1155', '1156', '1160', '1161', '1165', '1166', '1174', '1175', '1181', '1185', '1186', '1188', '1190', '1191', '1197', '1199', '1200', '1206', '1222', '1229', '1230', '1231', '1232', '1238', '1239', '1240', '1243', '1244', '1249', '1250', '1253', '1256', '1257', '1265', '1271', '1273', '1278', '1280', '1281', '1288', '1289', '1291', '1295', '1296', '1302', '1310', '1315', '1319', '1323', '1324', '1326', '1327', '1331', '1332', '1333', '1335', '1337', '1339', '1340', '1341', '1342', '1344', '1345', '1346', '1347', '1349', '1354', '1358', '1359', '1368', '1371', '1373', '1379', '1385', '1393', '1402', '1403', '1407', '1410', '1414', '1415', '1416', '1418', '1424', '1432', '1436', '1437', '1438', '1444', '1445', '1451', '1454', '1455', '1466', '1469', '1472', '1474', '1477', '1478', '1485', '1486', '1487', '1491', '1492', '1493', '1502', '1505', '1508', '1509', '1510', '1518', '1519', '1522', '1523', '1524', '1525', '1531', '1534', '1535', '1536', '1543', '1548', '1555', '1556', '1561', '1566', '1570', '1571', '1573', '1597', '1598', '1600', '1602', '1605', '1610', '1611', '1616', '1619', '1620', '1625', '1632', '1648', '1653', '1655', '1656', '1661', '1662', '1666', '1668', '1669', '1673', '1678', '1682', '1685', '1690', '1691', '1696', '1697', '1699', '1700', '1701', '1703', '1707', '1709', '1712', '1713', '1716', '1717', '1719', '1724', '1726', '1728', '1729', '1733', '1735', '1742', '1746', '1752', '1755', '1760', '1762', '1772', '1775', '1779', '1780', '1793', '1797', '1799', '1805', '1807', '1809', '1818', '1820', '1824', '1826', '1830', '1834', '1837', '1838', '1840', '1844', '1847', '1848', '1850', '1851', '1854', '1855', '1857', '1858', '1860', '1862', '1864', '1867', '1870', '1877', '1882', '1883', '1884', '1886', '1890', '1895', '1896', '1900', '1902', '1903', '1908', '1910', '1911', '1918', '1919', '1929', '1935', '1937', '1938', '1939', '1942', '1946', '1961', '1964', '1965', '1971', '1976', '1977', '1978', '1981', '1983', '1987', '1989', '1990', '1993', '1997']",True,1000,True,2,20927cf399,0.0,0.0,1.0
