expe,clients,clients_size,clients_subset,agg_size,agg_size_pc,method,days,days_size,days_total,noise_method,time,valid,valid_sum,success,score_avg,score_min,score_max,nsols,oracle,wall_hit,wall_time,pooled,pool_size,uuid,infeasible,optimal,valid_sums
./expes/v3_2021-02-24_hi_1000-prng-1-w1-fpa10-0.3-p100,30_issda-1000,1000,first-1000,250,25,rng,num-start-300,300,25726,fpa-09-10-0.3-20,23.01224422454834,False,,False,0.3796287298613257,0.36249987732832045,0.38162925167632444,100,"['4', '5', '13', '14', '18', '21', '24', '27', '32', '34', '35', '39', '45', '51', '53', '60', '63', '65', '66', '72', '74', '83', '86', '88', '89', '92', '93', '96', '98', '100', '110', '111', '112', '115', '117', '120', '124', '125', '130', '139', '141', '143', '144', '146', '152', '153', '154', '158', '159', '163', '165', '171', '175', '177', '180', '183', '195', '197', '198', '199', '203', '206', '207', '213', '215', '216', '217', '226', '230', '231', '233', '238', '240', '241', '250', '254', '261', '265', '274', '292', '293', '296', '303', '306', '307', '308', '317', '322', '334', '346', '347', '349', '351', '352', '353', '360', '365', '366', '369', '370', '373', '375', '380', '385', '386', '387', '389', '390', '391', '396', '400', '404', '406', '411', '413', '417', '418', '420', '427', '428', '434', '437', '442', '443', '447', '451', '453', '456', '457', '464', '465', '467', '468', '471', '483', '485', '486', '497', '500', '501', '507', '510', '511', '516', '518', '519', '520', '523', '527', '530', '533', '534', '540', '541', '542', '545', '553', '559', '571', '578', '583', '587', '588', '593', '594', '595', '596', '599', '603', '616', '619', '620', '622', '627', '633', '636', '639', '658', '660', '662', '664', '666', '671', '673', '674', '675', '677', '679', '680', '707', '708', '718', '719', '722', '723', '726', '733', '735', '737', '739', '743', '744', '747', '762', '767', '778', '783', '785', '810', '816', '828', '831', '834', '837', '850', '851', '855', '856', '857', '864', '873', '876', '878', '881', '890', '897', '900', '903', '905', '913', '919', '924', '925', '926', '927', '929', '930', '934', '935', '951', '955', '959', '969', '973', '986', '989', '992', '994', '997', '999']",False,1000,True,100,ced68d9f59,0.0,1.0,0.0
./expes/v3_2021-02-24_hi_1000-prng-1-w1-fpa10-0.3-p100,30_issda-1000,1000,first-1000,500,50,rng,num-start-800,800,25726,fpa-09-10-0.3-20,62.704914808273315,False,,False,0.28368399075590994,0.2799177001769044,0.29964973728105837,100,"['2', '4', '5', '6', '8', '12', '14', '16', '19', '21', '22', '23', '25', '27', '28', '29', '30', '32', '33', '34', '35', '36', '37', '38', '44', '45', '46', '47', '48', '51', '52', '53', '55', '57', '62', '63', '65', '66', '68', '69', '70', '71', '74', '79', '80', '82', '86', '88', '89', '91', '95', '99', '100', '102', '103', '105', '106', '107', '108', '110', '111', '112', '117', '118', '122', '123', '124', '125', '126', '127', '128', '129', '130', '131', '132', '133', '134', '135', '137', '138', '140', '142', '147', '153', '155', '156', '160', '161', '164', '165', '167', '168', '174', '176', '182', '183', '184', '185', '188', '190', '191', '192', '196', '197', '203', '204', '205', '217', '223', '224', '227', '228', '230', '231', '233', '238', '240', '241', '242', '244', '245', '246', '248', '251', '255', '256', '258', '259', '265', '266', '269', '270', '271', '272', '274', '276', '277', '278', '281', '286', '287', '292', '294', '296', '298', '299', '301', '306', '307', '308', '309', '311', '312', '318', '321', '322', '323', '324', '327', '328', '330', '331', '333', '334', '335', '336', '337', '339', '341', '342', '345', '348', '349', '350', '353', '354', '355', '359', '360', '361', '362', '369', '370', '373', '375', '377', '379', '382', '383', '384', '385', '386', '387', '390', '396', '397', '399', '400', '404', '405', '407', '410', '411', '418', '420', '421', '423', '424', '426', '427', '429', '430', '431', '432', '434', '436', '437', '438', '439', '441', '442', '445', '446', '447', '448', '449', '454', '456', '462', '466', '468', '472', '476', '478', '481', '482', '485', '486', '488', '489', '493', '494', '495', '496', '500', '502', '507', '509', '510', '513', '515', '516', '518', '520', '523', '524', '525', '528', '530', '531', '532', '533', '534', '536', '538', '540', '542', '543', '545', '547', '548', '549', '550', '554', '555', '557', '558', '562', '563', '564', '565', '567', '568', '569', '570', '573', '578', '581', '582', '583', '585', '586', '588', '589', '591', '593', '594', '595', '599', '600', '601', '602', '603', '604', '605', '606', '607', '610', '614', '615', '616', '619', '620', '621', '624', '626', '627', '630', '631', '633', '635', '636', '638', '641', '642', '643', '644', '648', '649', '650', '651', '652', '655', '658', '659', '660', '662', '663', '666', '670', '672', '676', '679', '684', '688', '689', '690', '691', '692', '693', '695', '696', '698', '699', '701', '703', '707', '708', '711', '712', '713', '714', '715', '716', '717', '720', '724', '730', '731', '732', '733', '734', '735', '736', '737', '738', '741', '746', '750', '752', '753', '756', '760', '764', '766', '767', '771', '772', '775', '777', '779', '780', '786', '788', '791', '793', '794', '796', '798', '799', '802', '806', '807', '808', '810', '811', '812', '813', '815', '818', '820', '821', '823', '824', '826', '827', '830', '831', '832', '833', '837', '840', '844', '848', '852', '853', '854', '857', '858', '859', '862', '864', '865', '871', '873', '875', '876', '877', '878', '879', '882', '883', '884', '885', '887', '888', '889', '891', '892', '894', '900', '901', '902', '903', '905', '907', '908', '909', '911', '912', '919', '920', '922', '926', '927', '931', '935', '938', '939', '940', '943', '944', '945', '947', '949', '950', '952', '957', '959', '962', '964', '966', '972', '973', '974', '976', '978', '981', '982', '984', '987', '988', '989', '990', '991', '993', '995', '996', '997', '999']",False,1000,True,100,1579fca1ca,0.0,1.0,0.0
./expes/v3_2021-02-24_hi_1000-prng-1-w1-fpa10-0.3-p100,30_issda-1000,1000,first-1000,100,10,rng,num-start-1000,1000,25726,fpa-09-10-0.3-20,75.469313621521,False,,False,0.5745139888330344,0.5708331511123159,0.5802665415097622,100,"['3', '8', '18', '24', '45', '73', '76', '94', '101', '102', '108', '111', '117', '123', '124', '138', '142', '152', '163', '188', '197', '205', '207', '208', '213', '239', '251', '267', '268', '275', '297', '307', '319', '334', '336', '356', '378', '398', '400', '403', '406', '417', '422', '425', '434', '439', '451', '466', '467', '470', '492', '506', '513', '515', '524', '533', '542', '555', '556', '559', '561', '583', '585', '591', '593', '599', '609', '610', '633', '642', '653', '675', '694', '723', '746', '749', '752', '774', '792', '794', '804', '811', '821', '823', '845', '854', '855', '874', '887', '901', '912', '917', '918', '919', '928', '937', '943', '977', '980', '992']",False,1000,True,100,ad0721456f,0.0,1.0,0.0
./expes/v3_2021-02-24_hi_1000-prng-1-w1-fpa10-0.3-p100,30_issda-1000,1000,first-1000,200,20,rng,num-start-1000,1000,25726,fpa-09-10-0.3-20,104.36839509010315,False,,False,0.43842284845827684,0.43050520254850055,0.44294496653354765,100,"['2', '7', '9', '12', '20', '25', '27', '29', '32', '34', '38', '41', '45', '53', '54', '61', '63', '77', '80', '85', '86', '90', '94', '106', '116', '117', '119', '121', '139', '147', '149', '159', '167', '168', '172', '176', '183', '184', '187', '194', '197', '205', '210', '214', '216', '226', '228', '229', '234', '236', '241', '246', '248', '254', '259', '268', '269', '275', '276', '281', '284', '287', '289', '318', '321', '331', '344', '346', '348', '350', '353', '359', '363', '365', '370', '372', '373', '377', '378', '381', '384', '391', '394', '395', '398', '411', '415', '429', '434', '438', '441', '444', '451', '455', '456', '460', '467', '471', '472', '476', '481', '486', '488', '489', '493', '495', '502', '511', '513', '514', '515', '516', '520', '522', '524', '526', '527', '532', '540', '542', '553', '555', '560', '563', '564', '569', '572', '587', '591', '611', '616', '617', '622', '623', '624', '634', '637', '640', '643', '653', '655', '657', '659', '674', '677', '678', '680', '683', '685', '690', '692', '698', '701', '704', '707', '708', '713', '714', '744', '757', '767', '772', '784', '785', '790', '791', '803', '807', '815', '818', '821', '830', '836', '839', '840', '843', '852', '863', '877', '880', '886', '887', '904', '907', '916', '928', '934', '937', '938', '941', '947', '950', '964', '970', '971', '979', '982', '991', '995', '1000']",False,1000,True,100,f428f45667,0.0,1.0,0.0
./expes/v3_2021-02-24_hi_1000-prng-1-w1-fpa10-0.3-p100,30_issda-1000,1000,first-1000,300,30,rng,num-start-400,400,25726,fpa-09-10-0.3-20,31.357770204544067,False,,False,0.3510970597473984,0.33183351891430046,0.36249987732832045,100,"['2', '4', '7', '9', '12', '18', '20', '25', '27', '28', '29', '30', '31', '32', '34', '38', '39', '41', '45', '48', '53', '54', '61', '63', '74', '75', '77', '80', '85', '86', '90', '93', '94', '96', '101', '106', '116', '117', '119', '121', '128', '135', '139', '142', '146', '147', '149', '159', '160', '165', '167', '168', '172', '176', '181', '183', '184', '185', '187', '194', '197', '204', '205', '206', '210', '214', '215', '216', '218', '220', '226', '228', '229', '234', '236', '241', '246', '248', '252', '254', '259', '262', '265', '268', '269', '273', '275', '276', '278', '281', '284', '285', '287', '289', '292', '299', '318', '319', '320', '321', '331', '332', '338', '341', '344', '346', '348', '350', '353', '356', '359', '362', '363', '365', '370', '372', '373', '375', '377', '378', '381', '384', '389', '391', '394', '395', '398', '404', '411', '415', '417', '426', '428', '429', '431', '434', '438', '441', '442', '444', '446', '447', '451', '455', '456', '460', '467', '471', '472', '476', '481', '484', '486', '488', '489', '493', '495', '502', '504', '511', '513', '514', '515', '516', '520', '522', '524', '526', '527', '528', '532', '534', '540', '542', '548', '553', '555', '560', '563', '564', '569', '571', '572', '574', '577', '584', '587', '591', '595', '603', '611', '614', '616', '617', '622', '623', '624', '626', '632', '634', '637', '638', '640', '643', '653', '654', '655', '656', '657', '659', '674', '676', '677', '678', '680', '683', '685', '690', '692', '695', '696', '698', '700', '701', '702', '704', '706', '707', '708', '711', '713', '714', '718', '722', '728', '737', '739', '744', '752', '754', '757', '767', '772', '778', '779', '784', '785', '790', '791', '803', '807', '809', '812', '813', '815', '817', '818', '821', '830', '836', '839', '840', '843', '852', '863', '877', '880', '883', '886', '887', '895', '904', '907', '908', '916', '920', '923', '926', '928', '933', '934', '937', '938', '941', '943', '947', '950', '957', '958', '959', '964', '967', '970', '971', '979', '982', '986', '991', '995', '1000']",False,1000,True,100,b2654b1a85,0.0,1.0,0.0
./expes/v3_2021-02-24_hi_1000-prng-1-w1-fpa10-0.3-p100,30_issda-1000,1000,first-1000,100,10,rng,num-start-100,100,25726,fpa-09-10-0.3-20,8.313518047332764,False,,False,0.5774468961224015,0.5708331511123159,0.5899168765138363,100,"['2', '12', '20', '32', '53', '61', '63', '77', '85', '86', '90', '94', '116', '117', '139', '147', '149', '167', '168', '176', '197', '205', '216', '229', '234', '268', '276', '281', '318', '321', '346', '348', '359', '365', '372', '377', '384', '391', '394', '395', '411', '415', '429', '434', '451', '455', '472', '481', '486', '489', '495', '520', '522', '526', '542', '553', '555', '569', '572', '591', '611', '616', '623', '624', '637', '640', '657', '659', '674', '677', '678', '680', '683', '685', '690', '698', '704', '707', '708', '714', '744', '807', '818', '830', '836', '839', '840', '863', '886', '887', '904', '907', '928', '937', '941', '964', '970', '991', '995', '1000']",False,1000,True,100,7053227a3d,0.0,1.0,0.0
./expes/v3_2021-02-24_hi_1000-prng-1-w1-fpa10-0.3-p100,30_issda-1000,1000,first-1000,200,20,rng,num-start-700,700,25726,fpa-09-10-0.3-20,53.86705565452576,False,,False,0.4327134480452734,0.43050520254850055,0.4483621620081665,100,"['6', '7', '10', '11', '12', '14', '15', '21', '23', '24', '29', '32', '34', '40', '45', '46', '48', '50', '61', '68', '73', '81', '86', '89', '96', '104', '106', '107', '111', '117', '119', '125', '126', '129', '135', '145', '146', '148', '151', '157', '158', '159', '169', '177', '183', '190', '203', '222', '226', '228', '230', '231', '233', '234', '238', '241', '244', '245', '246', '249', '251', '260', '262', '265', '266', '267', '275', '290', '291', '292', '301', '304', '310', '312', '317', '318', '325', '328', '344', '357', '371', '379', '383', '394', '398', '403', '404', '406', '410', '414', '415', '416', '417', '420', '426', '427', '431', '434', '438', '444', '445', '456', '458', '465', '466', '467', '468', '472', '476', '478', '481', '487', '489', '493', '494', '502', '504', '507', '512', '514', '515', '524', '530', '536', '539', '553', '555', '577', '593', '597', '614', '617', '618', '619', '621', '628', '641', '642', '647', '648', '651', '654', '657', '659', '666', '671', '672', '674', '676', '683', '684', '685', '698', '704', '711', '716', '717', '721', '725', '729', '746', '748', '756', '762', '784', '802', '807', '809', '810', '815', '828', '832', '834', '835', '837', '850', '853', '861', '863', '864', '868', '871', '875', '886', '898', '905', '915', '919', '922', '941', '942', '948', '964', '972', '975', '976', '980', '991', '992', '998']",False,1000,True,100,f0944d888c,0.0,1.0,0.0
./expes/v3_2021-02-24_hi_1000-prng-1-w1-fpa10-0.3-p100,30_issda-1000,1000,first-1000,400,40,rng,num-start-600,600,25726,fpa-09-10-0.3-20,47.86373472213745,False,,False,0.3118231022895668,0.2939557389947154,0.317016496197407,100,"['2', '4', '7', '8', '9', '12', '18', '20', '25', '27', '28', '29', '30', '31', '32', '34', '38', '39', '41', '45', '48', '51', '53', '54', '55', '59', '61', '63', '74', '75', '77', '80', '85', '86', '90', '93', '94', '96', '100', '101', '106', '109', '113', '116', '117', '119', '121', '128', '129', '135', '138', '139', '140', '142', '146', '147', '149', '151', '152', '159', '160', '165', '167', '168', '172', '174', '175', '176', '181', '183', '184', '185', '187', '188', '194', '197', '204', '205', '206', '207', '210', '211', '214', '215', '216', '218', '220', '226', '228', '229', '230', '232', '233', '234', '236', '241', '245', '246', '248', '252', '254', '256', '258', '259', '261', '262', '265', '266', '268', '269', '270', '273', '275', '276', '278', '281', '284', '285', '287', '289', '290', '292', '293', '299', '304', '315', '318', '319', '320', '321', '329', '330', '331', '332', '336', '338', '341', '344', '346', '348', '350', '353', '356', '359', '362', '363', '365', '368', '369', '370', '372', '373', '374', '375', '376', '377', '378', '381', '384', '388', '389', '391', '394', '395', '398', '399', '404', '405', '410', '411', '415', '417', '418', '419', '423', '426', '428', '429', '431', '434', '435', '438', '440', '441', '442', '443', '444', '446', '447', '451', '455', '456', '460', '467', '468', '471', '472', '476', '481', '484', '486', '488', '489', '493', '495', '498', '500', '502', '504', '505', '507', '511', '512', '513', '514', '515', '516', '520', '522', '524', '526', '527', '528', '529', '532', '534', '536', '540', '542', '548', '551', '553', '555', '558', '560', '563', '564', '568', '569', '571', '572', '574', '577', '584', '585', '587', '591', '595', '603', '609', '611', '614', '616', '617', '622', '623', '624', '626', '632', '633', '634', '637', '638', '640', '643', '648', '653', '654', '655', '656', '657', '659', '669', '674', '675', '676', '677', '678', '680', '683', '684', '685', '690', '692', '695', '696', '698', '700', '701', '702', '704', '705', '706', '707', '708', '711', '713', '714', '715', '716', '718', '722', '723', '728', '733', '737', '739', '744', '750', '752', '753', '754', '757', '760', '767', '772', '778', '779', '780', '781', '784', '785', '788', '790', '791', '794', '803', '804', '805', '807', '808', '809', '811', '812', '813', '815', '816', '817', '818', '821', '823', '827', '830', '833', '835', '836', '839', '840', '841', '843', '852', '856', '863', '864', '870', '876', '877', '880', '883', '886', '887', '890', '895', '904', '906', '907', '908', '909', '916', '918', '919', '920', '923', '925', '926', '928', '933', '934', '937', '938', '941', '943', '947', '950', '957', '958', '959', '963', '964', '967', '970', '971', '979', '982', '986', '988', '991', '995', '996', '1000']",False,1000,True,100,6c5a6c63cf,0.0,1.0,0.0
./expes/v3_2021-02-24_hi_1000-prng-1-w1-fpa10-0.3-p100,30_issda-1000,1000,first-1000,350,35,rng,num-start-100,100,25726,fpa-09-10-0.3-20,8.566678524017334,False,,False,0.31170379965721884,0.3068330067866182,0.317016496197407,100,"['1', '4', '6', '7', '9', '13', '14', '16', '18', '19', '25', '27', '30', '31', '35', '36', '37', '42', '43', '45', '49', '50', '52', '53', '54', '55', '56', '57', '62', '63', '65', '66', '67', '68', '69', '71', '78', '83', '86', '87', '89', '90', '91', '96', '99', '102', '103', '105', '106', '109', '112', '113', '114', '115', '121', '124', '125', '132', '133', '136', '137', '141', '142', '143', '145', '146', '149', '152', '153', '161', '166', '167', '169', '173', '174', '176', '177', '178', '181', '186', '191', '194', '197', '203', '204', '205', '208', '210', '214', '215', '216', '219', '227', '228', '230', '237', '243', '244', '249', '250', '255', '266', '269', '270', '274', '275', '277', '281', '284', '285', '288', '292', '298', '299', '302', '304', '308', '315', '317', '330', '333', '337', '339', '342', '343', '347', '350', '355', '356', '358', '364', '375', '379', '381', '382', '383', '388', '389', '391', '393', '396', '398', '399', '407', '408', '411', '412', '413', '417', '420', '422', '431', '432', '433', '435', '436', '439', '444', '447', '455', '460', '462', '463', '465', '468', '470', '475', '482', '486', '487', '490', '493', '494', '502', '504', '507', '508', '509', '510', '513', '515', '518', '519', '523', '530', '535', '537', '540', '542', '549', '551', '553', '556', '558', '559', '561', '562', '568', '569', '570', '573', '574', '576', '579', '580', '587', '588', '589', '590', '593', '594', '595', '599', '600', '603', '605', '606', '608', '612', '618', '620', '621', '622', '623', '624', '626', '627', '628', '632', '638', '640', '645', '653', '655', '658', '659', '664', '667', '680', '684', '688', '691', '693', '695', '696', '700', '705', '710', '713', '717', '718', '721', '723', '726', '727', '733', '737', '738', '743', '744', '745', '746', '748', '754', '755', '756', '764', '765', '766', '771', '779', '783', '784', '791', '792', '793', '794', '795', '797', '799', '800', '802', '803', '806', '809', '813', '814', '816', '818', '819', '823', '827', '829', '830', '835', '841', '843', '853', '864', '866', '867', '872', '873', '880', '881', '885', '888', '889', '890', '893', '897', '899', '900', '901', '902', '903', '908', '909', '911', '914', '915', '917', '918', '920', '928', '929', '932', '934', '940', '942', '944', '946', '947', '959', '963', '964', '969', '970', '974', '975', '977', '979', '982', '985', '986', '988', '990', '992', '999', '1000']",False,1000,True,100,24be652993,0.0,1.0,0.0
./expes/v3_2021-02-24_hi_1000-prng-1-w1-fpa10-0.3-p100,30_issda-1000,1000,first-1000,50,5,rng,num-start-1000,1000,25726,fpa-09-10-0.3-20,76.73121809959412,False,,False,0.6948928021950261,0.6932523934989971,0.6965332108910564,100,"['7', '42', '53', '65', '83', '105', '114', '136', '142', '161', '173', '174', '191', '210', '244', '274', '299', '343', '347', '383', '389', '393', '433', '463', '475', '515', '519', '568', '605', '620', '628', '632', '693', '705', '717', '721', '743', '746', '765', '793', '809', '888', '893', '909', '920', '942', '947', '959', '969', '975']",False,1000,True,100,3f3736926c,0.0,1.0,0.0
./expes/v3_2021-02-24_hi_1000-prng-1-w1-fpa10-0.3-p100,30_issda-1000,1000,first-1000,350,35,rng,num-start-800,800,25726,fpa-09-10-0.3-20,57.36838936805725,False,,False,0.30271739010497184,0.298221906517101,0.3068330067866182,100,"['1', '6', '7', '10', '11', '12', '14', '15', '18', '21', '23', '24', '29', '32', '34', '39', '40', '44', '45', '46', '48', '50', '54', '57', '60', '61', '67', '68', '73', '79', '81', '82', '83', '86', '89', '92', '93', '95', '96', '100', '103', '104', '106', '107', '110', '111', '112', '117', '118', '119', '121', '125', '126', '127', '129', '135', '137', '140', '145', '146', '148', '151', '155', '157', '158', '159', '160', '162', '169', '176', '177', '179', '183', '187', '190', '191', '195', '196', '198', '199', '203', '209', '211', '212', '214', '215', '217', '218', '222', '224', '226', '227', '228', '229', '230', '231', '233', '234', '236', '238', '241', '244', '245', '246', '248', '249', '251', '260', '262', '265', '266', '267', '275', '276', '290', '291', '292', '294', '301', '303', '304', '310', '312', '313', '317', '318', '321', '325', '328', '342', '343', '344', '353', '357', '358', '363', '371', '372', '374', '379', '383', '384', '393', '394', '396', '398', '401', '403', '404', '405', '406', '410', '413', '414', '415', '416', '417', '418', '420', '422', '423', '426', '427', '428', '431', '434', '437', '438', '444', '445', '447', '452', '453', '456', '458', '465', '466', '467', '468', '472', '473', '474', '476', '478', '481', '483', '484', '487', '489', '493', '494', '500', '502', '503', '504', '507', '508', '509', '511', '512', '514', '515', '516', '523', '524', '526', '527', '530', '536', '539', '545', '548', '549', '553', '555', '567', '577', '581', '587', '588', '593', '595', '597', '604', '608', '610', '614', '617', '618', '619', '621', '622', '626', '628', '630', '639', '641', '642', '644', '647', '648', '651', '654', '656', '657', '659', '660', '666', '670', '671', '672', '674', '675', '676', '677', '679', '683', '684', '685', '696', '698', '699', '704', '706', '708', '709', '711', '716', '717', '721', '725', '729', '732', '736', '739', '742', '743', '744', '746', '748', '755', '756', '761', '762', '767', '770', '771', '774', '777', '780', '782', '784', '792', '799', '802', '803', '806', '807', '808', '809', '810', '815', '818', '824', '826', '828', '832', '834', '835', '837', '846', '847', '850', '853', '861', '863', '864', '866', '868', '871', '875', '882', '886', '898', '905', '907', '915', '919', '922', '925', '929', '938', '941', '942', '948', '953', '954', '958', '964', '967', '971', '972', '975', '976', '977', '980', '991', '992', '994', '998']",False,1000,True,100,2d1819dd99,0.0,1.0,0.0
./expes/v3_2021-02-24_hi_1000-prng-1-w1-fpa10-0.3-p100,30_issda-1000,1000,first-1000,250,25,rng,num-start-600,600,25726,fpa-09-10-0.3-20,50.79720759391785,False,,False,0.41544167583533015,0.3593671797274117,0.4183314188145123,100,"['1', '5', '13', '24', '27', '39', '41', '48', '50', '51', '54', '56', '60', '61', '62', '63', '64', '65', '67', '69', '71', '72', '73', '75', '80', '83', '84', '85', '89', '93', '96', '97', '100', '104', '105', '106', '107', '113', '119', '120', '121', '126', '127', '129', '133', '137', '141', '148', '150', '153', '155', '156', '167', '169', '171', '173', '181', '185', '186', '187', '193', '196', '211', '213', '214', '220', '224', '227', '229', '237', '238', '239', '247', '250', '254', '255', '259', '270', '277', '285', '286', '289', '292', '295', '297', '307', '308', '316', '318', '322', '327', '332', '349', '351', '352', '356', '359', '364', '368', '371', '373', '375', '379', '382', '386', '390', '396', '401', '402', '404', '405', '407', '408', '409', '411', '412', '426', '429', '430', '432', '435', '438', '441', '445', '452', '457', '460', '465', '468', '473', '477', '478', '486', '492', '494', '497', '500', '501', '506', '507', '509', '520', '525', '528', '538', '545', '548', '549', '550', '554', '561', '563', '564', '565', '571', '572', '573', '574', '578', '580', '581', '585', '587', '589', '591', '592', '594', '596', '597', '600', '604', '609', '616', '617', '624', '625', '626', '629', '633', '634', '643', '646', '650', '655', '663', '667', '671', '675', '681', '685', '693', '697', '698', '699', '700', '708', '712', '714', '716', '719', '724', '730', '734', '747', '749', '757', '758', '776', '783', '787', '796', '799', '809', '814', '817', '818', '836', '838', '839', '841', '842', '847', '852', '861', '870', '880', '885', '892', '893', '896', '897', '905', '906', '909', '922', '932', '939', '946', '956', '964', '968', '971', '972', '974', '975', '976', '979', '981', '986', '1000']",False,1000,True,100,efe6805d74,0.0,1.0,0.0
./expes/v3_2021-02-24_hi_1000-prng-1-w1-fpa10-0.3-p100,30_issda-1000,1000,first-1000,450,45,rng,num-start-800,800,25726,fpa-09-10-0.3-20,63.775365114212036,False,,False,0.292273569212543,0.2897151947954225,0.303950803114834,100,"['4', '5', '7', '13', '14', '18', '21', '23', '24', '27', '32', '34', '35', '38', '39', '40', '45', '47', '51', '53', '59', '60', '63', '65', '66', '67', '68', '71', '72', '74', '77', '82', '83', '84', '85', '86', '87', '88', '89', '90', '92', '93', '95', '96', '98', '100', '103', '109', '110', '111', '112', '114', '115', '117', '120', '124', '125', '130', '131', '136', '139', '141', '143', '144', '146', '152', '153', '154', '158', '159', '161', '163', '164', '165', '168', '171', '174', '175', '177', '179', '180', '181', '182', '183', '192', '195', '196', '197', '198', '199', '201', '203', '204', '206', '207', '211', '213', '215', '216', '217', '223', '224', '226', '228', '230', '231', '233', '235', '237', '238', '240', '241', '249', '250', '251', '252', '254', '256', '261', '262', '265', '271', '273', '274', '276', '278', '281', '284', '290', '292', '293', '295', '296', '297', '298', '299', '301', '303', '304', '306', '307', '308', '310', '317', '320', '322', '327', '328', '329', '332', '334', '335', '346', '347', '349', '351', '352', '353', '357', '360', '365', '366', '367', '369', '370', '371', '373', '375', '376', '377', '379', '380', '381', '385', '386', '387', '388', '389', '390', '391', '393', '394', '396', '398', '399', '400', '401', '404', '406', '407', '411', '413', '417', '418', '420', '422', '425', '427', '428', '430', '434', '437', '438', '442', '443', '445', '447', '448', '451', '453', '456', '457', '460', '464', '465', '467', '468', '469', '471', '474', '483', '485', '486', '488', '491', '497', '500', '501', '502', '507', '509', '510', '511', '512', '513', '514', '515', '516', '517', '518', '519', '520', '523', '525', '527', '529', '530', '533', '534', '537', '538', '539', '540', '541', '542', '545', '547', '548', '553', '559', '561', '570', '571', '573', '577', '578', '580', '581', '583', '587', '588', '593', '594', '595', '596', '599', '600', '603', '611', '615', '616', '619', '620', '622', '625', '627', '628', '629', '633', '636', '639', '640', '641', '648', '651', '655', '658', '660', '662', '663', '664', '666', '668', '669', '670', '671', '673', '674', '675', '677', '679', '680', '684', '686', '690', '693', '697', '701', '702', '704', '707', '708', '709', '712', '718', '719', '722', '723', '726', '728', '733', '735', '736', '737', '739', '743', '744', '746', '747', '751', '753', '754', '755', '759', '762', '763', '766', '767', '768', '774', '778', '781', '783', '785', '786', '799', '800', '801', '803', '806', '808', '810', '813', '816', '824', '827', '828', '831', '833', '834', '835', '837', '839', '841', '843', '845', '846', '849', '850', '851', '852', '854', '855', '856', '857', '858', '859', '860', '863', '864', '865', '867', '868', '871', '873', '876', '878', '880', '881', '886', '888', '890', '897', '900', '903', '904', '905', '909', '910', '913', '915', '917', '919', '922', '924', '925', '926', '927', '928', '929', '930', '931', '932', '934', '935', '939', '941', '942', '943', '945', '948', '950', '951', '954', '955', '959', '960', '965', '969', '973', '981', '982', '986', '989', '991', '992', '994', '995', '997', '999']",False,1000,True,100,2395e26165,0.0,1.0,0.0
./expes/v3_2021-02-24_hi_1000-prng-1-w1-fpa10-0.3-p100,30_issda-1000,1000,first-1000,350,35,rng,num-start-700,700,25726,fpa-09-10-0.3-20,56.97689914703369,False,,False,0.3475437755723268,0.3273541403885306,0.35005967779924396,100,"['2', '3', '6', '9', '10', '13', '15', '18', '19', '22', '23', '25', '27', '29', '30', '31', '32', '34', '36', '37', '39', '45', '49', '58', '61', '65', '72', '73', '79', '86', '89', '94', '97', '99', '102', '103', '105', '107', '111', '112', '113', '117', '121', '124', '129', '133', '134', '138', '139', '150', '161', '163', '164', '165', '168', '172', '173', '175', '176', '178', '182', '186', '190', '191', '193', '195', '199', '205', '206', '211', '215', '218', '219', '222', '223', '225', '226', '228', '229', '231', '233', '235', '236', '237', '238', '239', '249', '256', '259', '260', '262', '265', '273', '276', '280', '288', '289', '291', '297', '298', '302', '304', '306', '311', '314', '316', '318', '320', '326', '329', '330', '334', '336', '340', '341', '348', '352', '353', '354', '355', '356', '362', '366', '374', '376', '380', '384', '388', '389', '391', '393', '396', '400', '403', '404', '405', '407', '412', '414', '415', '424', '425', '427', '432', '433', '437', '440', '443', '444', '449', '450', '457', '461', '462', '464', '466', '470', '471', '472', '481', '484', '486', '492', '493', '497', '500', '502', '505', '508', '509', '512', '513', '515', '517', '518', '519', '520', '521', '522', '523', '525', '527', '529', '532', '534', '537', '541', '552', '553', '554', '555', '558', '562', '564', '565', '567', '568', '570', '575', '577', '579', '583', '584', '588', '590', '592', '593', '599', '602', '604', '605', '606', '608', '615', '621', '623', '624', '627', '628', '630', '638', '639', '640', '645', '646', '647', '651', '658', '663', '664', '665', '666', '668', '673', '676', '680', '681', '682', '687', '690', '691', '692', '694', '695', '703', '712', '713', '720', '721', '722', '729', '737', '739', '742', '744', '747', '748', '751', '756', '759', '761', '762', '773', '774', '780', '781', '783', '786', '790', '795', '797', '798', '799', '802', '803', '806', '808', '816', '817', '818', '822', '823', '824', '829', '831', '833', '837', '840', '841', '848', '850', '853', '856', '858', '861', '862', '867', '868', '869', '871', '872', '874', '878', '879', '880', '881', '882', '889', '891', '893', '897', '900', '903', '904', '908', '915', '918', '919', '922', '923', '924', '932', '933', '939', '940', '943', '945', '949', '954', '959', '961', '962', '964', '967', '968', '973', '975', '976', '978', '981', '983', '986', '989', '991', '992', '993', '997', '998', '999', '1000']",False,1000,True,100,7338935c57,0.0,1.0,0.0
./expes/v3_2021-02-24_hi_1000-prng-1-w1-fpa10-0.3-p100,30_issda-1000,1000,first-1000,350,35,rng,num-start-1000,1000,25726,fpa-09-10-0.3-20,95.57959485054016,False,,False,0.3311166963209166,0.3288439447859757,0.33483652953394794,100,"['3', '8', '9', '17', '18', '20', '23', '24', '26', '27', '28', '33', '35', '38', '41', '42', '45', '47', '48', '51', '62', '64', '66', '69', '70', '73', '74', '76', '78', '80', '86', '88', '89', '91', '94', '96', '97', '98', '101', '102', '104', '106', '108', '110', '111', '115', '117', '119', '123', '124', '125', '127', '129', '130', '132', '138', '140', '141', '142', '143', '144', '152', '157', '159', '160', '163', '168', '170', '175', '176', '177', '180', '188', '191', '192', '195', '196', '197', '202', '205', '207', '208', '213', '215', '216', '227', '230', '231', '232', '236', '239', '247', '248', '250', '251', '252', '255', '256', '260', '265', '267', '268', '269', '270', '271', '275', '276', '278', '281', '282', '284', '286', '288', '291', '293', '297', '301', '303', '307', '309', '312', '314', '316', '317', '319', '325', '326', '332', '333', '334', '336', '338', '340', '355', '356', '359', '363', '366', '371', '376', '378', '379', '386', '389', '394', '396', '398', '400', '402', '403', '406', '407', '410', '412', '414', '416', '417', '422', '424', '425', '428', '431', '434', '436', '438', '439', '440', '441', '447', '448', '449', '450', '451', '455', '456', '459', '461', '463', '464', '466', '467', '469', '470', '472', '473', '475', '476', '478', '479', '480', '481', '482', '488', '489', '490', '492', '498', '501', '506', '513', '515', '517', '518', '522', '524', '526', '527', '533', '534', '537', '539', '542', '547', '555', '556', '559', '561', '568', '569', '571', '573', '576', '583', '584', '585', '591', '592', '593', '598', '599', '602', '603', '604', '606', '608', '609', '610', '611', '623', '625', '628', '630', '633', '636', '642', '650', '652', '653', '657', '662', '665', '669', '670', '673', '675', '676', '678', '680', '684', '691', '693', '694', '698', '699', '701', '703', '704', '705', '712', '713', '723', '727', '733', '734', '735', '738', '743', '746', '749', '752', '754', '756', '757', '760', '764', '770', '771', '774', '775', '784', '792', '794', '804', '805', '807', '811', '815', '821', '823', '824', '828', '831', '845', '846', '852', '854', '855', '856', '862', '865', '870', '871', '874', '877', '881', '887', '890', '893', '895', '900', '901', '905', '906', '912', '917', '918', '919', '928', '937', '943', '948', '952', '953', '958', '959', '962', '969', '973', '977', '979', '980', '982', '985', '987', '989', '991', '992', '994', '995', '997']",False,1000,True,100,ecfb9e9233,0.0,1.0,0.0
./expes/v3_2021-02-24_hi_1000-prng-1-w1-fpa10-0.3-p100,30_issda-1000,1000,first-1000,500,50,rng,num-start-800,800,25726,fpa-09-10-0.3-20,62.56769919395447,False,,False,0.2829854202515961,0.2785289191377658,0.2967969749108764,100,"['3', '5', '6', '8', '13', '15', '16', '17', '18', '20', '26', '27', '29', '32', '33', '34', '36', '37', '38', '39', '43', '44', '45', '46', '48', '49', '51', '52', '54', '55', '57', '62', '65', '67', '68', '70', '72', '74', '76', '77', '78', '80', '82', '83', '86', '91', '92', '95', '97', '98', '99', '100', '102', '103', '109', '110', '112', '116', '119', '120', '121', '122', '123', '127', '128', '129', '131', '137', '138', '140', '143', '145', '147', '150', '154', '156', '157', '158', '161', '162', '163', '165', '167', '169', '170', '171', '173', '174', '176', '178', '179', '180', '181', '183', '187', '188', '191', '192', '194', '195', '196', '197', '199', '200', '201', '205', '207', '211', '212', '213', '214', '215', '224', '226', '229', '230', '235', '241', '242', '244', '245', '246', '247', '248', '249', '251', '252', '253', '256', '261', '266', '269', '270', '273', '274', '279', '282', '284', '285', '290', '291', '293', '295', '297', '298', '302', '304', '309', '310', '311', '314', '316', '319', '322', '328', '330', '331', '333', '335', '336', '337', '340', '344', '347', '348', '350', '352', '354', '356', '357', '358', '359', '363', '364', '368', '369', '370', '372', '374', '375', '376', '383', '384', '385', '386', '391', '392', '394', '395', '396', '398', '400', '402', '406', '407', '409', '410', '411', '415', '416', '419', '423', '425', '426', '429', '431', '432', '433', '434', '435', '437', '440', '441', '444', '445', '446', '447', '450', '451', '452', '453', '456', '457', '458', '459', '462', '463', '465', '467', '468', '470', '471', '473', '474', '475', '478', '480', '482', '483', '486', '487', '488', '489', '491', '492', '495', '497', '501', '502', '504', '508', '509', '512', '514', '519', '520', '523', '524', '526', '533', '534', '535', '536', '538', '544', '546', '547', '549', '550', '552', '553', '555', '558', '559', '563', '564', '565', '569', '570', '572', '573', '578', '579', '581', '584', '586', '589', '590', '591', '592', '593', '594', '596', '597', '599', '602', '603', '606', '608', '610', '612', '613', '616', '617', '618', '619', '620', '621', '622', '623', '625', '629', '630', '633', '634', '635', '638', '640', '641', '643', '644', '650', '652', '653', '654', '655', '656', '657', '658', '659', '665', '666', '668', '669', '670', '674', '677', '678', '681', '682', '683', '687', '690', '691', '692', '694', '698', '701', '703', '704', '707', '709', '710', '711', '712', '714', '715', '719', '720', '724', '727', '730', '731', '736', '738', '740', '741', '744', '745', '752', '754', '757', '758', '759', '762', '763', '764', '768', '770', '771', '778', '780', '781', '782', '783', '786', '787', '790', '791', '792', '794', '795', '796', '797', '802', '806', '807', '808', '809', '810', '813', '817', '819', '821', '824', '825', '827', '829', '830', '831', '832', '833', '837', '838', '841', '843', '844', '845', '847', '848', '849', '850', '854', '856', '857', '858', '859', '863', '865', '868', '869', '870', '871', '872', '874', '876', '880', '881', '883', '884', '886', '887', '891', '892', '893', '895', '896', '900', '901', '903', '904', '909', '910', '911', '912', '913', '915', '919', '920', '923', '924', '927', '928', '929', '930', '932', '933', '935', '936', '937', '941', '942', '943', '944', '945', '947', '955', '956', '958', '959', '964', '966', '969', '971', '973', '974', '976', '978', '979', '980', '983', '984', '986', '987', '988', '992', '993', '994', '998', '999']",False,1000,True,100,a3c3f61bbc,0.0,1.0,0.0
./expes/v3_2021-02-24_hi_1000-prng-1-w1-fpa10-0.3-p100,30_issda-1000,1000,first-1000,500,50,rng,num-start-700,700,25726,fpa-09-10-0.3-20,51.51440119743347,False,,False,0.2803524146731123,0.2771428062732427,0.2967969749108764,100,"['2', '4', '7', '8', '9', '12', '13', '14', '18', '20', '22', '23', '25', '26', '27', '28', '29', '30', '31', '32', '34', '38', '39', '41', '44', '45', '48', '51', '53', '54', '55', '58', '59', '61', '63', '64', '74', '75', '77', '80', '85', '86', '87', '90', '93', '94', '96', '100', '101', '105', '106', '109', '111', '113', '116', '117', '119', '121', '126', '127', '128', '129', '130', '133', '135', '138', '139', '140', '141', '142', '146', '147', '149', '151', '152', '159', '160', '165', '167', '168', '172', '174', '175', '176', '181', '183', '184', '185', '187', '188', '189', '194', '195', '197', '200', '201', '202', '203', '204', '205', '206', '207', '210', '211', '212', '214', '215', '216', '217', '218', '220', '226', '228', '229', '230', '232', '233', '234', '235', '236', '238', '241', '245', '246', '248', '252', '254', '256', '258', '259', '261', '262', '265', '266', '268', '269', '270', '273', '275', '276', '278', '281', '284', '285', '286', '287', '289', '290', '292', '293', '299', '301', '304', '306', '313', '315', '316', '318', '319', '320', '321', '324', '326', '329', '330', '331', '332', '336', '338', '341', '344', '345', '346', '348', '349', '350', '351', '353', '356', '357', '359', '362', '363', '365', '368', '369', '370', '371', '372', '373', '374', '375', '376', '377', '378', '381', '384', '388', '389', '391', '394', '395', '398', '399', '401', '403', '404', '405', '410', '411', '415', '416', '417', '418', '419', '423', '425', '426', '428', '429', '431', '434', '435', '438', '440', '441', '442', '443', '444', '446', '447', '451', '455', '456', '460', '467', '468', '471', '472', '476', '479', '481', '484', '486', '487', '488', '489', '493', '495', '497', '498', '499', '500', '502', '504', '505', '507', '511', '512', '513', '514', '515', '516', '518', '520', '522', '524', '526', '527', '528', '529', '530', '532', '534', '536', '540', '541', '542', '548', '550', '551', '553', '555', '557', '558', '560', '562', '563', '564', '568', '569', '571', '572', '574', '577', '579', '584', '585', '587', '591', '595', '602', '603', '608', '609', '611', '614', '615', '616', '617', '622', '623', '624', '626', '631', '632', '633', '634', '637', '638', '640', '643', '645', '648', '650', '651', '653', '654', '655', '656', '657', '659', '666', '668', '669', '672', '674', '675', '676', '677', '678', '680', '683', '684', '685', '686', '690', '692', '695', '696', '698', '699', '700', '701', '702', '703', '704', '705', '706', '707', '708', '711', '713', '714', '715', '716', '718', '722', '723', '728', '733', '734', '737', '739', '744', '749', '750', '752', '753', '754', '757', '760', '765', '767', '772', '775', '776', '778', '779', '780', '781', '784', '785', '788', '790', '791', '793', '794', '803', '804', '805', '807', '808', '809', '811', '812', '813', '815', '816', '817', '818', '820', '821', '823', '826', '827', '829', '830', '831', '833', '835', '836', '839', '840', '841', '843', '846', '851', '852', '854', '856', '857', '860', '861', '863', '864', '866', '870', '874', '876', '877', '880', '881', '883', '884', '886', '887', '890', '894', '895', '901', '903', '904', '906', '907', '908', '909', '915', '916', '918', '919', '920', '923', '925', '926', '928', '933', '934', '937', '938', '939', '941', '943', '946', '947', '948', '949', '950', '956', '957', '958', '959', '963', '964', '967', '970', '971', '973', '976', '979', '980', '982', '984', '986', '988', '989', '991', '995', '996', '1000']",False,1000,True,100,796ec5c32d,0.0,1.0,0.0
./expes/v3_2021-02-24_hi_1000-prng-1-w1-fpa10-0.3-p100,30_issda-1000,1000,first-1000,400,40,rng,num-start-900,900,25726,fpa-09-10-0.3-20,87.98444509506226,False,,False,0.3043312845779733,0.2925394000366518,0.3082786120998726,100,"['2', '3', '6', '9', '10', '13', '15', '18', '19', '22', '23', '25', '27', '29', '30', '31', '32', '34', '36', '37', '39', '41', '42', '45', '47', '49', '58', '61', '65', '67', '72', '73', '75', '79', '84', '86', '87', '89', '94', '97', '99', '102', '103', '105', '107', '111', '112', '113', '117', '118', '121', '124', '129', '133', '134', '137', '138', '139', '150', '151', '161', '163', '164', '165', '168', '171', '172', '173', '174', '175', '176', '178', '182', '186', '190', '191', '193', '195', '199', '205', '206', '211', '215', '218', '219', '222', '223', '225', '226', '228', '229', '230', '231', '233', '235', '236', '237', '238', '239', '241', '249', '256', '259', '260', '262', '265', '273', '274', '275', '276', '280', '284', '288', '289', '291', '297', '298', '299', '302', '303', '304', '306', '311', '314', '316', '318', '320', '326', '329', '330', '334', '336', '340', '341', '347', '348', '349', '350', '352', '353', '354', '355', '356', '362', '366', '374', '376', '377', '380', '384', '388', '389', '390', '391', '393', '396', '400', '403', '404', '405', '407', '412', '414', '415', '417', '424', '425', '427', '432', '433', '437', '440', '443', '444', '449', '450', '457', '461', '462', '464', '466', '469', '470', '471', '472', '481', '484', '486', '492', '493', '497', '500', '501', '502', '505', '508', '509', '512', '513', '515', '517', '518', '519', '520', '521', '522', '523', '525', '527', '529', '532', '534', '537', '541', '546', '548', '552', '553', '554', '555', '558', '561', '562', '564', '565', '567', '568', '570', '575', '577', '578', '579', '580', '583', '584', '585', '588', '590', '592', '593', '594', '599', '602', '604', '605', '606', '608', '615', '619', '621', '623', '624', '627', '628', '629', '630', '638', '639', '640', '645', '646', '647', '651', '658', '663', '664', '665', '666', '668', '673', '676', '680', '681', '682', '687', '690', '691', '692', '694', '695', '703', '704', '712', '713', '720', '721', '722', '729', '733', '737', '739', '742', '743', '744', '747', '748', '751', '756', '759', '761', '762', '773', '774', '778', '780', '781', '783', '786', '787', '789', '790', '795', '797', '798', '799', '801', '802', '803', '806', '808', '816', '817', '818', '822', '823', '824', '829', '831', '833', '837', '840', '841', '848', '849', '850', '853', '856', '858', '861', '862', '867', '868', '869', '871', '872', '874', '878', '879', '880', '881', '882', '887', '889', '891', '893', '897', '900', '903', '904', '908', '909', '913', '915', '918', '919', '922', '923', '924', '932', '933', '937', '939', '940', '943', '945', '948', '949', '954', '955', '959', '961', '962', '964', '967', '968', '973', '975', '976', '978', '981', '983', '986', '989', '991', '992', '993', '997', '998', '999', '1000']",False,1000,True,100,56926a8d35,0.0,1.0,0.0
