expe,clients,clients_size,clients_subset,agg_size,method,days,days_size,days_total,time,valid,valid_sum,success,nsols,wall_hit,wall_time,pooled,valid_sums
./expes/v2_2020-12-03_dh_150-prng-1,30_issda_150,150,rng-150,1,rng,num-start-211,211,25726,3.889829158782959,True,,True,1,False,1000,True,1.0
./expes/v2_2020-12-03_dh_150-prng-1,30_issda_150,150,rng-150,61,rng,num-start-1,1,25726,0.0589597225189209,False,,False,2,False,1000,True,1.0
./expes/v2_2020-12-03_dh_150-prng-1,30_issda_150,150,rng-150,131,rng,num-start-511,511,25726,9.59847903251648,True,,True,1,False,1000,True,1.0
./expes/v2_2020-12-03_dh_150-prng-1,30_issda_150,150,rng-150,111,rng,num-start-291,291,25726,5.744395732879639,True,,True,1,False,1000,True,1.0
./expes/v2_2020-12-03_dh_150-prng-1,30_issda_150,150,rng-150,131,rng,num-start-191,191,25726,3.881472587585449,True,,True,1,False,1000,True,1.0
./expes/v2_2020-12-03_dh_150-prng-1,30_issda_150,150,rng-150,101,rng,num-start-871,871,25726,17.136616706848145,True,,True,1,False,1000,True,1.0
./expes/v2_2020-12-03_dh_150-prng-1,30_issda_150,150,rng-150,101,rng,num-start-961,961,25726,19.496387481689453,True,,True,1,False,1000,True,1.0
./expes/v2_2020-12-03_dh_150-prng-1,30_issda_150,150,rng-150,31,rng,num-start-461,461,25726,9.127362728118896,True,,True,1,False,1000,True,1.0
./expes/v2_2020-12-03_dh_150-prng-1,30_issda_150,150,rng-150,141,rng,num-start-401,401,25726,7.383776426315308,True,,True,1,False,1000,True,1.0
./expes/v2_2020-12-03_dh_150-prng-1,30_issda_150,150,rng-150,131,rng,num-start-691,691,25726,13.988932371139526,True,,True,1,False,1000,True,1.0
./expes/v2_2020-12-03_dh_150-prng-1,30_issda_150,150,rng-150,121,rng,num-start-701,701,25726,13.589110136032104,True,,True,1,False,1000,True,1.0
./expes/v2_2020-12-03_dh_150-prng-1,30_issda_150,150,rng-150,131,rng,num-start-181,181,25726,3.9220340251922607,True,,True,1,False,1000,True,1.0
./expes/v2_2020-12-03_dh_150-prng-1,30_issda_150,150,rng-150,141,rng,num-start-791,791,25726,14.745160341262817,True,,True,1,False,1000,True,1.0
./expes/v2_2020-12-03_dh_150-prng-1,30_issda_150,150,rng-150,71,rng,num-start-161,161,25726,3.420175790786743,True,,True,1,False,1000,True,1.0
./expes/v2_2020-12-03_dh_150-prng-1,30_issda_150,150,rng-150,91,rng,num-start-191,191,25726,4.211944580078125,True,,True,1,False,1000,True,1.0
./expes/v2_2020-12-03_dh_150-prng-1,30_issda_150,150,rng-150,31,rng,num-start-371,371,25726,7.157137870788574,True,,True,1,False,1000,True,1.0
./expes/v2_2020-12-03_dh_150-prng-1,30_issda_150,150,rng-150,101,rng,num-start-141,141,25726,3.1390838623046875,True,,True,1,False,1000,True,1.0
./expes/v2_2020-12-03_dh_150-prng-1,30_issda_150,150,rng-150,31,rng,num-start-331,331,25726,6.806262493133545,True,,True,1,False,1000,True,1.0
./expes/v2_2020-12-03_dh_150-prng-1,30_issda_150,150,rng-150,131,rng,num-start-751,751,25726,15.171393871307373,True,,True,1,False,1000,True,1.0
./expes/v2_2020-12-03_dh_150-prng-1,30_issda_150,150,rng-150,141,rng,num-start-911,911,25726,16.78704810142517,True,,True,1,False,1000,True,1.0
./expes/v2_2020-12-03_dh_150-prng-1,30_issda_150,150,rng-150,131,rng,num-start-801,801,25726,16.47923493385315,True,,True,1,False,1000,True,1.0
./expes/v2_2020-12-03_dh_150-prng-1,30_issda_150,150,rng-150,41,rng,num-start-91,91,25726,1.9944217205047607,True,,True,1,False,1000,True,1.0
./expes/v2_2020-12-03_dh_150-prng-1,30_issda_150,150,rng-150,111,rng,num-start-471,471,25726,9.364398717880249,True,,True,1,False,1000,True,1.0
./expes/v2_2020-12-03_dh_150-prng-1,30_issda_150,150,rng-150,61,rng,num-start-351,351,25726,6.8597798347473145,True,,True,1,False,1000,True,1.0
./expes/v2_2020-12-03_dh_150-prng-1,30_issda_150,150,rng-150,11,rng,num-start-891,891,25726,16.20785617828369,True,,True,1,False,1000,True,1.0
./expes/v2_2020-12-03_dh_150-prng-1,30_issda_150,150,rng-150,81,rng,num-start-311,311,25726,6.149511814117432,True,,True,1,False,1000,True,1.0
./expes/v2_2020-12-03_dh_150-prng-1,30_issda_150,150,rng-150,1,rng,num-start-271,271,25726,4.888091802597046,True,,True,1,False,1000,True,1.0
./expes/v2_2020-12-03_dh_150-prng-1,30_issda_150,150,rng-150,1,rng,num-start-651,651,25726,11.476364612579346,True,,True,1,False,1000,True,1.0
./expes/v2_2020-12-03_dh_150-prng-1,30_issda_150,150,rng-150,51,rng,num-start-311,311,25726,6.537853240966797,True,,True,1,False,1000,True,1.0
./expes/v2_2020-12-03_dh_150-prng-1,30_issda_150,150,rng-150,11,rng,num-start-941,941,25726,17.291844367980957,True,,True,1,False,1000,True,1.0
./expes/v2_2020-12-03_dh_150-prng-1,30_issda_150,150,rng-150,1,rng,num-start-501,501,25726,9.0350182056427,True,,True,1,False,1000,True,1.0
./expes/v2_2020-12-03_dh_150-prng-1,30_issda_150,150,rng-150,31,rng,num-start-321,321,25726,7.3112952709198,True,,True,1,False,1000,True,1.0
./expes/v2_2020-12-03_dh_150-prng-1,30_issda_150,150,rng-150,111,rng,num-start-321,321,25726,6.447139263153076,True,,True,1,False,1000,True,1.0
./expes/v2_2020-12-03_dh_150-prng-1,30_issda_150,150,rng-150,21,rng,num-start-871,871,25726,17.24493932723999,True,,True,1,False,1000,True,1.0
./expes/v2_2020-12-03_dh_150-prng-1,30_issda_150,150,rng-150,31,rng,num-start-121,121,25726,2.576493978500366,True,,True,1,False,1000,True,1.0
./expes/v2_2020-12-03_dh_150-prng-1,30_issda_150,150,rng-150,1,rng,num-start-721,721,25726,12.884486675262451,True,,True,1,False,1000,True,1.0
./expes/v2_2020-12-03_dh_150-prng-1,30_issda_150,150,rng-150,131,rng,num-start-181,181,25726,3.769571304321289,True,,True,1,False,1000,True,1.0
./expes/v2_2020-12-03_dh_150-prng-1,30_issda_150,150,rng-150,111,rng,num-start-681,681,25726,12.765930891036987,True,,True,1,False,1000,True,1.0
./expes/v2_2020-12-03_dh_150-prng-1,30_issda_150,150,rng-150,61,rng,num-start-161,161,25726,3.452258825302124,True,,True,1,False,1000,True,1.0
./expes/v2_2020-12-03_dh_150-prng-1,30_issda_150,150,rng-150,1,rng,num-start-231,231,25726,4.162636756896973,True,,True,1,False,1000,True,1.0
./expes/v2_2020-12-03_dh_150-prng-1,30_issda_150,150,rng-150,51,rng,num-start-871,871,25726,17.7548565864563,True,,True,1,False,1000,True,1.0
./expes/v2_2020-12-03_dh_150-prng-1,30_issda_150,150,rng-150,21,rng,num-start-61,61,25726,1.2925212383270264,True,,True,1,False,1000,True,1.0
./expes/v2_2020-12-03_dh_150-prng-1,30_issda_150,150,rng-150,51,rng,num-start-501,501,25726,9.531094789505005,True,,True,1,False,1000,True,1.0
./expes/v2_2020-12-03_dh_150-prng-1,30_issda_150,150,rng-150,11,rng,num-start-521,521,25726,9.786970138549805,True,,True,1,False,1000,True,1.0
./expes/v2_2020-12-03_dh_150-prng-1,30_issda_150,150,rng-150,91,rng,num-start-121,121,25726,2.642317771911621,True,,True,1,False,1000,True,1.0
./expes/v2_2020-12-03_dh_150-prng-1,30_issda_150,150,rng-150,21,rng,num-start-551,551,25726,11.242823123931885,True,,True,1,False,1000,True,1.0
./expes/v2_2020-12-03_dh_150-prng-1,30_issda_150,150,rng-150,111,rng,num-start-391,391,25726,7.952630281448364,True,,True,1,False,1000,True,1.0
./expes/v2_2020-12-03_dh_150-prng-1,30_issda_150,150,rng-150,141,rng,num-start-811,811,25726,14.573564529418945,True,,True,1,False,1000,True,1.0
./expes/v2_2020-12-03_dh_150-prng-1,30_issda_150,150,rng-150,41,rng,num-start-631,631,25726,14.143700361251831,True,,True,1,False,1000,True,1.0
./expes/v2_2020-12-03_dh_150-prng-1,30_issda_150,150,rng-150,141,rng,num-start-581,581,25726,11.758588075637817,True,,True,1,False,1000,True,1.0
./expes/v2_2020-12-03_dh_150-prng-1,30_issda_150,150,rng-150,121,rng,num-start-171,171,25726,4.081897020339966,True,,True,1,False,1000,True,1.0
./expes/v2_2020-12-03_dh_150-prng-1,30_issda_150,150,rng-150,71,rng,num-start-381,381,25726,8.42275881767273,True,,True,1,False,1000,True,1.0
./expes/v2_2020-12-03_dh_150-prng-1,30_issda_150,150,rng-150,41,rng,num-start-871,871,25726,19.026782274246216,True,,True,1,False,1000,True,1.0
./expes/v2_2020-12-03_dh_150-prng-1,30_issda_150,150,rng-150,121,rng,num-start-931,931,25726,19.56278133392334,True,,True,1,False,1000,True,1.0
./expes/v2_2020-12-03_dh_150-prng-1,30_issda_150,150,rng-150,61,rng,num-start-181,181,25726,4.230797529220581,True,,True,1,False,1000,True,1.0
./expes/v2_2020-12-03_dh_150-prng-1,30_issda_150,150,rng-150,121,rng,num-start-21,21,25726,1000.470433473587,False,,False,0,True,1000,True,0.0
./expes/v2_2020-12-03_dh_150-prng-1,30_issda_150,150,rng-150,1,rng,num-start-31,31,25726,0.6383204460144043,True,,True,1,False,1000,True,1.0
./expes/v2_2020-12-03_dh_150-prng-1,30_issda_150,150,rng-150,51,rng,num-start-561,561,25726,10.955295085906982,True,,True,1,False,1000,True,1.0
./expes/v2_2020-12-03_dh_150-prng-1,30_issda_150,150,rng-150,31,rng,num-start-441,441,25726,8.622002124786377,True,,True,1,False,1000,True,1.0
./expes/v2_2020-12-03_dh_150-prng-1,30_issda_150,150,rng-150,61,rng,num-start-841,841,25726,15.619818449020386,True,,True,1,False,1000,True,1.0
./expes/v2_2020-12-03_dh_150-prng-1,30_issda_150,150,rng-150,111,rng,num-start-381,381,25726,7.374377012252808,True,,True,1,False,1000,True,1.0
./expes/v2_2020-12-03_dh_150-prng-1,30_issda_150,150,rng-150,101,rng,num-start-881,881,25726,16.653854370117188,True,,True,1,False,1000,True,1.0
./expes/v2_2020-12-03_dh_150-prng-1,30_issda_150,150,rng-150,91,rng,num-start-211,211,25726,4.36482310295105,True,,True,1,False,1000,True,1.0
./expes/v2_2020-12-03_dh_150-prng-1,30_issda_150,150,rng-150,1,rng,num-start-481,481,25726,8.312931299209595,True,,True,1,False,1000,True,1.0
./expes/v2_2020-12-03_dh_150-prng-1,30_issda_150,150,rng-150,11,rng,num-start-51,51,25726,1.1615259647369385,True,,True,1,False,1000,True,1.0
./expes/v2_2020-12-03_dh_150-prng-1,30_issda_150,150,rng-150,141,rng,num-start-501,501,25726,8.876752614974976,True,,True,1,False,1000,True,1.0
./expes/v2_2020-12-03_dh_150-prng-1,30_issda_150,150,rng-150,121,rng,num-start-871,871,25726,15.866444826126099,True,,True,1,False,1000,True,1.0
./expes/v2_2020-12-03_dh_150-prng-1,30_issda_150,150,rng-150,111,rng,num-start-571,571,25726,10.926646947860718,True,,True,1,False,1000,True,1.0
./expes/v2_2020-12-03_dh_150-prng-1,30_issda_150,150,rng-150,111,rng,num-start-981,981,25726,18.249982833862305,True,,True,1,False,1000,True,1.0
./expes/v2_2020-12-03_dh_150-prng-1,30_issda_150,150,rng-150,1,rng,num-start-701,701,25726,12.222657680511475,True,,True,1,False,1000,True,1.0
./expes/v2_2020-12-03_dh_150-prng-1,30_issda_150,150,rng-150,71,rng,num-start-31,31,25726,800.205099105835,True,,True,1,False,1000,True,1.0
./expes/v2_2020-12-03_dh_150-prng-1,30_issda_150,150,rng-150,121,rng,num-start-711,711,25726,14.027775049209595,True,,True,1,False,1000,True,1.0
./expes/v2_2020-12-03_dh_150-prng-1,30_issda_150,150,rng-150,11,rng,num-start-281,281,25726,5.142686605453491,True,,True,1,False,1000,True,1.0
./expes/v2_2020-12-03_dh_150-prng-1,30_issda_150,150,rng-150,21,rng,num-start-551,551,25726,10.074290752410889,True,,True,1,False,1000,True,1.0
./expes/v2_2020-12-03_dh_150-prng-1,30_issda_150,150,rng-150,141,rng,num-start-871,871,25726,15.358824491500854,True,,True,1,False,1000,True,1.0
./expes/v2_2020-12-03_dh_150-prng-1,30_issda_150,150,rng-150,81,rng,num-start-611,611,25726,11.832055807113647,True,,True,1,False,1000,True,1.0
./expes/v2_2020-12-03_dh_150-prng-1,30_issda_150,150,rng-150,101,rng,num-start-391,391,25726,7.538973331451416,True,,True,1,False,1000,True,1.0
./expes/v2_2020-12-03_dh_150-prng-1,30_issda_150,150,rng-150,31,rng,num-start-1,1,25726,0.10442185401916504,False,,False,2,False,1000,True,1.0
./expes/v2_2020-12-03_dh_150-prng-1,30_issda_150,150,rng-150,111,rng,num-start-681,681,25726,12.734646797180176,True,,True,1,False,1000,True,1.0
./expes/v2_2020-12-03_dh_150-prng-1,30_issda_150,150,rng-150,81,rng,num-start-1,1,25726,0.1596357822418213,False,,False,2,False,1000,True,1.0
./expes/v2_2020-12-03_dh_150-prng-1,30_issda_150,150,rng-150,51,rng,num-start-1,1,25726,0.0398249626159668,False,,False,2,False,1000,True,1.0
./expes/v2_2020-12-03_dh_150-prng-1,30_issda_150,150,rng-150,121,rng,num-start-891,891,25726,16.770323276519775,True,,True,1,False,1000,True,1.0
./expes/v2_2020-12-03_dh_150-prng-1,30_issda_150,150,rng-150,51,rng,num-start-231,231,25726,4.729926586151123,True,,True,1,False,1000,True,1.0
./expes/v2_2020-12-03_dh_150-prng-1,30_issda_150,150,rng-150,111,rng,num-start-491,491,25726,9.198084831237793,True,,True,1,False,1000,True,1.0
./expes/v2_2020-12-03_dh_150-prng-1,30_issda_150,150,rng-150,101,rng,num-start-981,981,25726,18.879934787750244,True,,True,1,False,1000,True,1.0
./expes/v2_2020-12-03_dh_150-prng-1,30_issda_150,150,rng-150,111,rng,num-start-641,641,25726,12.941286325454712,True,,True,1,False,1000,True,1.0
./expes/v2_2020-12-03_dh_150-prng-1,30_issda_150,150,rng-150,121,rng,num-start-441,441,25726,8.760910272598267,True,,True,1,False,1000,True,1.0
./expes/v2_2020-12-03_dh_150-prng-1,30_issda_150,150,rng-150,61,rng,num-start-921,921,25726,17.515177965164185,True,,True,1,False,1000,True,1.0
./expes/v2_2020-12-03_dh_150-prng-1,30_issda_150,150,rng-150,1,rng,num-start-651,651,25726,11.311535596847534,True,,True,1,False,1000,True,1.0
./expes/v2_2020-12-03_dh_150-prng-1,30_issda_150,150,rng-150,61,rng,num-start-891,891,25726,16.575150728225708,True,,True,1,False,1000,True,1.0
./expes/v2_2020-12-03_dh_150-prng-1,30_issda_150,150,rng-150,121,rng,num-start-961,961,25726,17.72364330291748,True,,True,1,False,1000,True,1.0
./expes/v2_2020-12-03_dh_150-prng-1,30_issda_150,150,rng-150,11,rng,num-start-721,721,25726,13.187573909759521,True,,True,1,False,1000,True,1.0
./expes/v2_2020-12-03_dh_150-prng-1,30_issda_150,150,rng-150,141,rng,num-start-901,901,25726,15.777177095413208,True,,True,1,False,1000,True,1.0
./expes/v2_2020-12-03_dh_150-prng-1,30_issda_150,150,rng-150,81,rng,num-start-771,771,25726,14.783213376998901,True,,True,1,False,1000,True,1.0
./expes/v2_2020-12-03_dh_150-prng-1,30_issda_150,150,rng-150,91,rng,num-start-421,421,25726,8.192206859588623,True,,True,1,False,1000,True,1.0
./expes/v2_2020-12-03_dh_150-prng-1,30_issda_150,150,rng-150,51,rng,num-start-801,801,25726,15.370818138122559,True,,True,1,False,1000,True,1.0
./expes/v2_2020-12-03_dh_150-prng-1,30_issda_150,150,rng-150,21,rng,num-start-481,481,25726,8.948706865310669,True,,True,1,False,1000,True,1.0
./expes/v2_2020-12-03_dh_150-prng-1,30_issda_150,150,rng-150,61,rng,num-start-131,131,25726,2.6577916145324707,True,,True,1,False,1000,True,1.0
./expes/v2_2020-12-03_dh_150-prng-1,30_issda_150,150,rng-150,31,rng,num-start-161,161,25726,3.2894227504730225,True,,True,1,False,1000,True,1.0
./expes/v2_2020-12-03_dh_150-prng-1,30_issda_150,150,rng-150,51,rng,num-start-551,551,25726,10.268687009811401,True,,True,1,False,1000,True,1.0
./expes/v2_2020-12-03_dh_150-prng-1,30_issda_150,150,rng-150,11,rng,num-start-601,601,25726,10.598008155822754,True,,True,1,False,1000,True,1.0
./expes/v2_2020-12-03_dh_150-prng-1,30_issda_150,150,rng-150,131,rng,num-start-821,821,25726,14.979727983474731,True,,True,1,False,1000,True,1.0
./expes/v2_2020-12-03_dh_150-prng-1,30_issda_150,150,rng-150,131,rng,num-start-291,291,25726,5.461096286773682,True,,True,1,False,1000,True,1.0
./expes/v2_2020-12-03_dh_150-prng-1,30_issda_150,150,rng-150,21,rng,num-start-511,511,25726,9.916688442230225,True,,True,1,False,1000,True,1.0
./expes/v2_2020-12-03_dh_150-prng-1,30_issda_150,150,rng-150,131,rng,num-start-551,551,25726,10.276001214981079,True,,True,1,False,1000,True,1.0
./expes/v2_2020-12-03_dh_150-prng-1,30_issda_150,150,rng-150,81,rng,num-start-601,601,25726,13.402636289596558,True,,True,1,False,1000,True,1.0
./expes/v2_2020-12-03_dh_150-prng-1,30_issda_150,150,rng-150,11,rng,num-start-381,381,25726,7.055739879608154,True,,True,1,False,1000,True,1.0
./expes/v2_2020-12-03_dh_150-prng-1,30_issda_150,150,rng-150,21,rng,num-start-591,591,25726,11.211471319198608,True,,True,1,False,1000,True,1.0
./expes/v2_2020-12-03_dh_150-prng-1,30_issda_150,150,rng-150,21,rng,num-start-811,811,25726,16.19593834877014,True,,True,1,False,1000,True,1.0
./expes/v2_2020-12-03_dh_150-prng-1,30_issda_150,150,rng-150,81,rng,num-start-381,381,25726,7.14670205116272,True,,True,1,False,1000,True,1.0
./expes/v2_2020-12-03_dh_150-prng-1,30_issda_150,150,rng-150,71,rng,num-start-541,541,25726,10.475066900253296,True,,True,1,False,1000,True,1.0
./expes/v2_2020-12-03_dh_150-prng-1,30_issda_150,150,rng-150,31,rng,num-start-531,531,25726,10.383782386779785,True,,True,1,False,1000,True,1.0
./expes/v2_2020-12-03_dh_150-prng-1,30_issda_150,150,rng-150,101,rng,num-start-451,451,25726,8.21856427192688,True,,True,1,False,1000,True,1.0
./expes/v2_2020-12-03_dh_150-prng-1,30_issda_150,150,rng-150,41,rng,num-start-311,311,25726,6.162019968032837,True,,True,1,False,1000,True,1.0
./expes/v2_2020-12-03_dh_150-prng-1,30_issda_150,150,rng-150,101,rng,num-start-181,181,25726,3.752102851867676,True,,True,1,False,1000,True,1.0
./expes/v2_2020-12-03_dh_150-prng-1,30_issda_150,150,rng-150,1,rng,num-start-511,511,25726,9.356782674789429,True,,True,1,False,1000,True,1.0
./expes/v2_2020-12-03_dh_150-prng-1,30_issda_150,150,rng-150,81,rng,num-start-411,411,25726,7.909688472747803,True,,True,1,False,1000,True,1.0
./expes/v2_2020-12-03_dh_150-prng-1,30_issda_150,150,rng-150,61,rng,num-start-71,71,25726,2.125709056854248,True,,True,1,False,1000,True,1.0
./expes/v2_2020-12-03_dh_150-prng-1,30_issda_150,150,rng-150,121,rng,num-start-921,921,25726,18.29464626312256,True,,True,1,False,1000,True,1.0
./expes/v2_2020-12-03_dh_150-prng-1,30_issda_150,150,rng-150,111,rng,num-start-471,471,25726,9.32812762260437,True,,True,1,False,1000,True,1.0
./expes/v2_2020-12-03_dh_150-prng-1,30_issda_150,150,rng-150,31,rng,num-start-671,671,25726,13.730254888534546,True,,True,1,False,1000,True,1.0
./expes/v2_2020-12-03_dh_150-prng-1,30_issda_150,150,rng-150,1,rng,num-start-771,771,25726,13.901766061782837,True,,True,1,False,1000,True,1.0
./expes/v2_2020-12-03_dh_150-prng-1,30_issda_150,150,rng-150,101,rng,num-start-481,481,25726,9.71982192993164,True,,True,1,False,1000,True,1.0
./expes/v2_2020-12-03_dh_150-prng-1,30_issda_150,150,rng-150,51,rng,num-start-321,321,25726,6.602686405181885,True,,True,1,False,1000,True,1.0
./expes/v2_2020-12-03_dh_150-prng-1,30_issda_150,150,rng-150,41,rng,num-start-271,271,25726,5.575066804885864,True,,True,1,False,1000,True,1.0
./expes/v2_2020-12-03_dh_150-prng-1,30_issda_150,150,rng-150,91,rng,num-start-991,991,25726,20.312589645385742,True,,True,1,False,1000,True,1.0
./expes/v2_2020-12-03_dh_150-prng-1,30_issda_150,150,rng-150,71,rng,num-start-511,511,25726,9.888978719711304,True,,True,1,False,1000,True,1.0
./expes/v2_2020-12-03_dh_150-prng-1,30_issda_150,150,rng-150,141,rng,num-start-201,201,25726,4.037028789520264,True,,True,1,False,1000,True,1.0
./expes/v2_2020-12-03_dh_150-prng-1,30_issda_150,150,rng-150,31,rng,num-start-401,401,25726,7.8706138134002686,True,,True,1,False,1000,True,1.0
./expes/v2_2020-12-03_dh_150-prng-1,30_issda_150,150,rng-150,91,rng,num-start-121,121,25726,2.6383121013641357,True,,True,1,False,1000,True,1.0
./expes/v2_2020-12-03_dh_150-prng-1,30_issda_150,150,rng-150,41,rng,num-start-191,191,25726,4.077690839767456,True,,True,1,False,1000,True,1.0
./expes/v2_2020-12-03_dh_150-prng-1,30_issda_150,150,rng-150,1,rng,num-start-221,221,25726,3.936870813369751,True,,True,1,False,1000,True,1.0
./expes/v2_2020-12-03_dh_150-prng-1,30_issda_150,150,rng-150,131,rng,num-start-21,21,25726,2.3213272094726562,True,,True,1,False,1000,True,1.0
./expes/v2_2020-12-03_dh_150-prng-1,30_issda_150,150,rng-150,91,rng,num-start-771,771,25726,15.372691869735718,True,,True,1,False,1000,True,1.0
./expes/v2_2020-12-03_dh_150-prng-1,30_issda_150,150,rng-150,141,rng,num-start-651,651,25726,11.373058557510376,True,,True,1,False,1000,True,1.0
./expes/v2_2020-12-03_dh_150-prng-1,30_issda_150,150,rng-150,21,rng,num-start-861,861,25726,16.096741676330566,True,,True,1,False,1000,True,1.0
./expes/v2_2020-12-03_dh_150-prng-1,30_issda_150,150,rng-150,41,rng,num-start-871,871,25726,16.90807557106018,True,,True,1,False,1000,True,1.0
./expes/v2_2020-12-03_dh_150-prng-1,30_issda_150,150,rng-150,61,rng,num-start-81,81,25726,1.7292320728302002,True,,True,1,False,1000,True,1.0
./expes/v2_2020-12-03_dh_150-prng-1,30_issda_150,150,rng-150,61,rng,num-start-971,971,25726,18.78892946243286,True,,True,1,False,1000,True,1.0
./expes/v2_2020-12-03_dh_150-prng-1,30_issda_150,150,rng-150,21,rng,num-start-421,421,25726,7.836374044418335,True,,True,1,False,1000,True,1.0
./expes/v2_2020-12-03_dh_150-prng-1,30_issda_150,150,rng-150,131,rng,num-start-401,401,25726,7.491156816482544,True,,True,1,False,1000,True,1.0
./expes/v2_2020-12-03_dh_150-prng-1,30_issda_150,150,rng-150,1,rng,num-start-291,291,25726,5.132863759994507,True,,True,1,False,1000,True,1.0
./expes/v2_2020-12-03_dh_150-prng-1,30_issda_150,150,rng-150,101,rng,num-start-681,681,25726,12.764341354370117,True,,True,1,False,1000,True,1.0
./expes/v2_2020-12-03_dh_150-prng-1,30_issda_150,150,rng-150,31,rng,num-start-761,761,25726,14.444389581680298,True,,True,1,False,1000,True,1.0
./expes/v2_2020-12-03_dh_150-prng-1,30_issda_150,150,rng-150,121,rng,num-start-241,241,25726,4.668794870376587,True,,True,1,False,1000,True,1.0
./expes/v2_2020-12-03_dh_150-prng-1,30_issda_150,150,rng-150,121,rng,num-start-911,911,25726,16.89390230178833,True,,True,1,False,1000,True,1.0
./expes/v2_2020-12-03_dh_150-prng-1,30_issda_150,150,rng-150,81,rng,num-start-321,321,25726,6.249299764633179,True,,True,1,False,1000,True,1.0
./expes/v2_2020-12-03_dh_150-prng-1,30_issda_150,150,rng-150,141,rng,num-start-521,521,25726,9.094489574432373,True,,True,1,False,1000,True,1.0
./expes/v2_2020-12-03_dh_150-prng-1,30_issda_150,150,rng-150,41,rng,num-start-101,101,25726,2.1102306842803955,True,,True,1,False,1000,True,1.0
./expes/v2_2020-12-03_dh_150-prng-1,30_issda_150,150,rng-150,91,rng,num-start-691,691,25726,13.425647497177124,True,,True,1,False,1000,True,1.0
./expes/v2_2020-12-03_dh_150-prng-1,30_issda_150,150,rng-150,141,rng,num-start-541,541,25726,9.74163556098938,True,,True,1,False,1000,True,1.0
./expes/v2_2020-12-03_dh_150-prng-1,30_issda_150,150,rng-150,121,rng,num-start-441,441,25726,9.019002437591553,True,,True,1,False,1000,True,1.0
./expes/v2_2020-12-03_dh_150-prng-1,30_issda_150,150,rng-150,31,rng,num-start-201,201,25726,4.005618095397949,True,,True,1,False,1000,True,1.0
./expes/v2_2020-12-03_dh_150-prng-1,30_issda_150,150,rng-150,71,rng,num-start-711,711,25726,13.094267129898071,True,,True,1,False,1000,True,1.0
./expes/v2_2020-12-03_dh_150-prng-1,30_issda_150,150,rng-150,11,rng,num-start-51,51,25726,1.0221879482269287,True,,True,1,False,1000,True,1.0
./expes/v2_2020-12-03_dh_150-prng-1,30_issda_150,150,rng-150,131,rng,num-start-261,261,25726,4.843686819076538,True,,True,1,False,1000,True,1.0
./expes/v2_2020-12-03_dh_150-prng-1,30_issda_150,150,rng-150,21,rng,num-start-871,871,25726,17.117894649505615,True,,True,1,False,1000,True,1.0
./expes/v2_2020-12-03_dh_150-prng-1,30_issda_150,150,rng-150,111,rng,num-start-111,111,25726,2.2554545402526855,True,,True,1,False,1000,True,1.0
./expes/v2_2020-12-03_dh_150-prng-1,30_issda_150,150,rng-150,1,rng,num-start-771,771,25726,13.4715416431427,True,,True,1,False,1000,True,1.0
./expes/v2_2020-12-03_dh_150-prng-1,30_issda_150,150,rng-150,101,rng,num-start-781,781,25726,14.393277645111084,True,,True,1,False,1000,True,1.0
./expes/v2_2020-12-03_dh_150-prng-1,30_issda_150,150,rng-150,121,rng,num-start-931,931,25726,17.51691770553589,True,,True,1,False,1000,True,1.0
./expes/v2_2020-12-03_dh_150-prng-1,30_issda_150,150,rng-150,141,rng,num-start-231,231,25726,4.59490180015564,True,,True,1,False,1000,True,1.0
./expes/v2_2020-12-03_dh_150-prng-1,30_issda_150,150,rng-150,21,rng,num-start-921,921,25726,17.427828788757324,True,,True,1,False,1000,True,1.0
./expes/v2_2020-12-03_dh_150-prng-1,30_issda_150,150,rng-150,81,rng,num-start-311,311,25726,5.888604164123535,True,,True,1,False,1000,True,1.0
./expes/v2_2020-12-03_dh_150-prng-1,30_issda_150,150,rng-150,71,rng,num-start-211,211,25726,9.673943042755127,True,,True,1,False,1000,True,1.0
./expes/v2_2020-12-03_dh_150-prng-1,30_issda_150,150,rng-150,1,rng,num-start-991,991,25726,17.40684461593628,True,,True,1,False,1000,True,1.0
./expes/v2_2020-12-03_dh_150-prng-1,30_issda_150,150,rng-150,91,rng,num-start-741,741,25726,14.404358148574829,True,,True,1,False,1000,True,1.0
./expes/v2_2020-12-03_dh_150-prng-1,30_issda_150,150,rng-150,41,rng,num-start-861,861,25726,16.615435123443604,True,,True,1,False,1000,True,1.0
./expes/v2_2020-12-03_dh_150-prng-1,30_issda_150,150,rng-150,91,rng,num-start-31,31,25726,1001.0623865127563,False,,False,0,True,1000,True,0.0
./expes/v2_2020-12-03_dh_150-prng-1,30_issda_150,150,rng-150,1,rng,num-start-901,901,25726,15.80635142326355,True,,True,1,False,1000,True,1.0
./expes/v2_2020-12-03_dh_150-prng-1,30_issda_150,150,rng-150,21,rng,num-start-861,861,25726,17.203808069229126,True,,True,1,False,1000,True,1.0
./expes/v2_2020-12-03_dh_150-prng-1,30_issda_150,150,rng-150,1,rng,num-start-151,151,25726,2.6869795322418213,True,,True,1,False,1000,True,1.0
./expes/v2_2020-12-03_dh_150-prng-1,30_issda_150,150,rng-150,1,rng,num-start-21,21,25726,0.3972306251525879,True,,True,1,False,1000,True,1.0
./expes/v2_2020-12-03_dh_150-prng-1,30_issda_150,150,rng-150,81,rng,num-start-281,281,25726,5.820150375366211,True,,True,1,False,1000,True,1.0
./expes/v2_2020-12-03_dh_150-prng-1,30_issda_150,150,rng-150,131,rng,num-start-161,161,25726,3.275568723678589,True,,True,1,False,1000,True,1.0
./expes/v2_2020-12-03_dh_150-prng-1,30_issda_150,150,rng-150,141,rng,num-start-281,281,25726,5.235103607177734,True,,True,1,False,1000,True,1.0
./expes/v2_2020-12-03_dh_150-prng-1,30_issda_150,150,rng-150,71,rng,num-start-131,131,25726,2.7661795616149902,True,,True,1,False,1000,True,1.0
./expes/v2_2020-12-03_dh_150-prng-1,30_issda_150,150,rng-150,91,rng,num-start-131,131,25726,2.610105037689209,True,,True,1,False,1000,True,1.0
./expes/v2_2020-12-03_dh_150-prng-1,30_issda_150,150,rng-150,111,rng,num-start-631,631,25726,12.394710063934326,True,,True,1,False,1000,True,1.0
./expes/v2_2020-12-03_dh_150-prng-1,30_issda_150,150,rng-150,31,rng,num-start-431,431,25726,8.250978708267212,True,,True,1,False,1000,True,1.0
./expes/v2_2020-12-03_dh_150-prng-1,30_issda_150,150,rng-150,91,rng,num-start-921,921,25726,17.415344953536987,True,,True,1,False,1000,True,1.0
./expes/v2_2020-12-03_dh_150-prng-1,30_issda_150,150,rng-150,121,rng,num-start-1,1,25726,0.05266618728637695,False,,False,2,False,1000,True,1.0
./expes/v2_2020-12-03_dh_150-prng-1,30_issda_150,150,rng-150,141,rng,num-start-391,391,25726,6.867737770080566,True,,True,1,False,1000,True,1.0
./expes/v2_2020-12-03_dh_150-prng-1,30_issda_150,150,rng-150,121,rng,num-start-81,81,25726,1.7315278053283691,True,,True,1,False,1000,True,1.0
./expes/v2_2020-12-03_dh_150-prng-1,30_issda_150,150,rng-150,81,rng,num-start-591,591,25726,11.447575330734253,True,,True,1,False,1000,True,1.0
./expes/v2_2020-12-03_dh_150-prng-1,30_issda_150,150,rng-150,31,rng,num-start-931,931,25726,17.942745447158813,True,,True,1,False,1000,True,1.0
./expes/v2_2020-12-03_dh_150-prng-1,30_issda_150,150,rng-150,71,rng,num-start-361,361,25726,6.755816698074341,True,,True,1,False,1000,True,1.0
./expes/v2_2020-12-03_dh_150-prng-1,30_issda_150,150,rng-150,91,rng,num-start-771,771,25726,14.695672988891602,True,,True,1,False,1000,True,1.0
./expes/v2_2020-12-03_dh_150-prng-1,30_issda_150,150,rng-150,21,rng,num-start-541,541,25726,9.805485725402832,True,,True,1,False,1000,True,1.0
./expes/v2_2020-12-03_dh_150-prng-1,30_issda_150,150,rng-150,41,rng,num-start-171,171,25726,3.5628368854522705,True,,True,1,False,1000,True,1.0
./expes/v2_2020-12-03_dh_150-prng-1,30_issda_150,150,rng-150,131,rng,num-start-761,761,25726,13.772787809371948,True,,True,1,False,1000,True,1.0
./expes/v2_2020-12-03_dh_150-prng-1,30_issda_150,150,rng-150,21,rng,num-start-971,971,25726,18.416373252868652,True,,True,1,False,1000,True,1.0
./expes/v2_2020-12-03_dh_150-prng-1,30_issda_150,150,rng-150,71,rng,num-start-261,261,25726,4.849561929702759,True,,True,1,False,1000,True,1.0
./expes/v2_2020-12-03_dh_150-prng-1,30_issda_150,150,rng-150,91,rng,num-start-241,241,25726,4.880255460739136,True,,True,1,False,1000,True,1.0
./expes/v2_2020-12-03_dh_150-prng-1,30_issda_150,150,rng-150,141,rng,num-start-371,371,25726,6.463003873825073,True,,True,1,False,1000,True,1.0
./expes/v2_2020-12-03_dh_150-prng-1,30_issda_150,150,rng-150,111,rng,num-start-201,201,25726,4.484393119812012,True,,True,1,False,1000,True,1.0
./expes/v2_2020-12-03_dh_150-prng-1,30_issda_150,150,rng-150,101,rng,num-start-991,991,25726,19.142137050628662,True,,True,1,False,1000,True,1.0
./expes/v2_2020-12-03_dh_150-prng-1,30_issda_150,150,rng-150,101,rng,num-start-661,661,25726,12.362859010696411,True,,True,1,False,1000,True,1.0
./expes/v2_2020-12-03_dh_150-prng-1,30_issda_150,150,rng-150,81,rng,num-start-11,11,25726,1000.2517609596252,False,,False,0,True,1000,True,0.0
./expes/v2_2020-12-03_dh_150-prng-1,30_issda_150,150,rng-150,81,rng,num-start-431,431,25726,8.123181104660034,True,,True,1,False,1000,True,1.0
./expes/v2_2020-12-03_dh_150-prng-1,30_issda_150,150,rng-150,71,rng,num-start-291,291,25726,5.828997850418091,True,,True,1,False,1000,True,1.0
./expes/v2_2020-12-03_dh_150-prng-1,30_issda_150,150,rng-150,141,rng,num-start-971,971,25726,17.79413390159607,True,,True,1,False,1000,True,1.0
./expes/v2_2020-12-03_dh_150-prng-1,30_issda_150,150,rng-150,41,rng,num-start-291,291,25726,5.381803035736084,True,,True,1,False,1000,True,1.0
./expes/v2_2020-12-03_dh_150-prng-1,30_issda_150,150,rng-150,101,rng,num-start-731,731,25726,13.640926599502563,True,,True,1,False,1000,True,1.0
./expes/v2_2020-12-03_dh_150-prng-1,30_issda_150,150,rng-150,111,rng,num-start-651,651,25726,12.284354448318481,True,,True,1,False,1000,True,1.0
./expes/v2_2020-12-03_dh_150-prng-1,30_issda_150,150,rng-150,31,rng,num-start-691,691,25726,13.376450300216675,True,,True,1,False,1000,True,1.0
./expes/v2_2020-12-03_dh_150-prng-1,30_issda_150,150,rng-150,111,rng,num-start-211,211,25726,4.1737706661224365,True,,True,1,False,1000,True,1.0
./expes/v2_2020-12-03_dh_150-prng-1,30_issda_150,150,rng-150,11,rng,num-start-501,501,25726,9.407893180847168,True,,True,1,False,1000,True,1.0
./expes/v2_2020-12-03_dh_150-prng-1,30_issda_150,150,rng-150,71,rng,num-start-581,581,25726,11.224311113357544,True,,True,1,False,1000,True,1.0
./expes/v2_2020-12-03_dh_150-prng-1,30_issda_150,150,rng-150,21,rng,num-start-921,921,25726,18.0692400932312,True,,True,1,False,1000,True,1.0
./expes/v2_2020-12-03_dh_150-prng-1,30_issda_150,150,rng-150,81,rng,num-start-61,61,25726,2.286595106124878,True,,True,1,False,1000,True,1.0
./expes/v2_2020-12-03_dh_150-prng-1,30_issda_150,150,rng-150,81,rng,num-start-491,491,25726,9.526746273040771,True,,True,1,False,1000,True,1.0
./expes/v2_2020-12-03_dh_150-prng-1,30_issda_150,150,rng-150,121,rng,num-start-201,201,25726,4.137288808822632,True,,True,1,False,1000,True,1.0
./expes/v2_2020-12-03_dh_150-prng-1,30_issda_150,150,rng-150,81,rng,num-start-791,791,25726,15.414941310882568,True,,True,1,False,1000,True,1.0
./expes/v2_2020-12-03_dh_150-prng-1,30_issda_150,150,rng-150,81,rng,num-start-851,851,25726,17.503637313842773,True,,True,1,False,1000,True,1.0
./expes/v2_2020-12-03_dh_150-prng-1,30_issda_150,150,rng-150,91,rng,num-start-811,811,25726,16.042091846466064,True,,True,1,False,1000,True,1.0
./expes/v2_2020-12-03_dh_150-prng-1,30_issda_150,150,rng-150,41,rng,num-start-541,541,25726,10.79514741897583,True,,True,1,False,1000,True,1.0
./expes/v2_2020-12-03_dh_150-prng-1,30_issda_150,150,rng-150,31,rng,num-start-601,601,25726,11.245986938476562,True,,True,1,False,1000,True,1.0
./expes/v2_2020-12-03_dh_150-prng-1,30_issda_150,150,rng-150,11,rng,num-start-191,191,25726,3.8395495414733887,True,,True,1,False,1000,True,1.0
./expes/v2_2020-12-03_dh_150-prng-1,30_issda_150,150,rng-150,51,rng,num-start-281,281,25726,5.465508699417114,True,,True,1,False,1000,True,1.0
./expes/v2_2020-12-03_dh_150-prng-1,30_issda_150,150,rng-150,41,rng,num-start-681,681,25726,13.492267370223999,True,,True,1,False,1000,True,1.0
./expes/v2_2020-12-03_dh_150-prng-1,30_issda_150,150,rng-150,21,rng,num-start-311,311,25726,6.318533897399902,True,,True,1,False,1000,True,1.0
./expes/v2_2020-12-03_dh_150-prng-1,30_issda_150,150,rng-150,111,rng,num-start-321,321,25726,6.258031606674194,True,,True,1,False,1000,True,1.0
./expes/v2_2020-12-03_dh_150-prng-1,30_issda_150,150,rng-150,121,rng,num-start-351,351,25726,6.676836252212524,True,,True,1,False,1000,True,1.0
./expes/v2_2020-12-03_dh_150-prng-1,30_issda_150,150,rng-150,71,rng,num-start-611,611,25726,11.882230758666992,True,,True,1,False,1000,True,1.0
./expes/v2_2020-12-03_dh_150-prng-1,30_issda_150,150,rng-150,121,rng,num-start-51,51,25726,1.4652273654937744,True,,True,1,False,1000,True,1.0
./expes/v2_2020-12-03_dh_150-prng-1,30_issda_150,150,rng-150,71,rng,num-start-351,351,25726,7.3160927295684814,True,,True,1,False,1000,True,1.0
./expes/v2_2020-12-03_dh_150-prng-1,30_issda_150,150,rng-150,81,rng,num-start-321,321,25726,6.045393228530884,True,,True,1,False,1000,True,1.0
./expes/v2_2020-12-03_dh_150-prng-1,30_issda_150,150,rng-150,41,rng,num-start-991,991,25726,18.931959629058838,True,,True,1,False,1000,True,1.0
./expes/v2_2020-12-03_dh_150-prng-1,30_issda_150,150,rng-150,31,rng,num-start-741,741,25726,13.696166276931763,True,,True,1,False,1000,True,1.0
./expes/v2_2020-12-03_dh_150-prng-1,30_issda_150,150,rng-150,31,rng,num-start-791,791,25726,15.667635202407837,True,,True,1,False,1000,True,1.0
./expes/v2_2020-12-03_dh_150-prng-1,30_issda_150,150,rng-150,121,rng,num-start-651,651,25726,12.04773211479187,True,,True,1,False,1000,True,1.0
./expes/v2_2020-12-03_dh_150-prng-1,30_issda_150,150,rng-150,121,rng,num-start-311,311,25726,6.192372560501099,True,,True,1,False,1000,True,1.0
./expes/v2_2020-12-03_dh_150-prng-1,30_issda_150,150,rng-150,51,rng,num-start-551,551,25726,10.432304382324219,True,,True,1,False,1000,True,1.0
./expes/v2_2020-12-03_dh_150-prng-1,30_issda_150,150,rng-150,31,rng,num-start-701,701,25726,13.094305515289307,True,,True,1,False,1000,True,1.0
./expes/v2_2020-12-03_dh_150-prng-1,30_issda_150,150,rng-150,101,rng,num-start-131,131,25726,2.681236982345581,True,,True,1,False,1000,True,1.0
./expes/v2_2020-12-03_dh_150-prng-1,30_issda_150,150,rng-150,141,rng,num-start-81,81,25726,1.6114881038665771,True,,True,1,False,1000,True,1.0
./expes/v2_2020-12-03_dh_150-prng-1,30_issda_150,150,rng-150,81,rng,num-start-281,281,25726,5.342392683029175,True,,True,1,False,1000,True,1.0
./expes/v2_2020-12-03_dh_150-prng-1,30_issda_150,150,rng-150,141,rng,num-start-41,41,25726,0.9537146091461182,True,,True,1,False,1000,True,1.0
./expes/v2_2020-12-03_dh_150-prng-1,30_issda_150,150,rng-150,81,rng,num-start-1,1,25726,0.09080934524536133,False,,False,2,False,1000,True,1.0
./expes/v2_2020-12-03_dh_150-prng-1,30_issda_150,150,rng-150,11,rng,num-start-451,451,25726,8.720289945602417,True,,True,1,False,1000,True,1.0
./expes/v2_2020-12-03_dh_150-prng-1,30_issda_150,150,rng-150,71,rng,num-start-491,491,25726,11.074231386184692,True,,True,1,False,1000,True,1.0
./expes/v2_2020-12-03_dh_150-prng-1,30_issda_150,150,rng-150,71,rng,num-start-781,781,25726,16.633654832839966,True,,True,1,False,1000,True,1.0
./expes/v2_2020-12-03_dh_150-prng-1,30_issda_150,150,rng-150,101,rng,num-start-51,51,25726,1.7344520092010498,True,,True,1,False,1000,True,1.0
./expes/v2_2020-12-03_dh_150-prng-1,30_issda_150,150,rng-150,21,rng,num-start-841,841,25726,16.229910612106323,True,,True,1,False,1000,True,1.0
./expes/v2_2020-12-03_dh_150-prng-1,30_issda_150,150,rng-150,111,rng,num-start-581,581,25726,10.76773476600647,True,,True,1,False,1000,True,1.0
./expes/v2_2020-12-03_dh_150-prng-1,30_issda_150,150,rng-150,131,rng,num-start-481,481,25726,8.917685508728027,True,,True,1,False,1000,True,1.0
./expes/v2_2020-12-03_dh_150-prng-1,30_issda_150,150,rng-150,71,rng,num-start-781,781,25726,14.339063882827759,True,,True,1,False,1000,True,1.0
./expes/v2_2020-12-03_dh_150-prng-1,30_issda_150,150,rng-150,101,rng,num-start-931,931,25726,17.217665195465088,True,,True,1,False,1000,True,1.0
./expes/v2_2020-12-03_dh_150-prng-1,30_issda_150,150,rng-150,11,rng,num-start-321,321,25726,5.675075531005859,True,,True,1,False,1000,True,1.0
./expes/v2_2020-12-03_dh_150-prng-1,30_issda_150,150,rng-150,81,rng,num-start-881,881,25726,17.05257511138916,True,,True,1,False,1000,True,1.0
./expes/v2_2020-12-03_dh_150-prng-1,30_issda_150,150,rng-150,11,rng,num-start-101,101,25726,2.067558765411377,True,,True,1,False,1000,True,1.0
./expes/v2_2020-12-03_dh_150-prng-1,30_issda_150,150,rng-150,141,rng,num-start-241,241,25726,4.212024927139282,True,,True,1,False,1000,True,1.0
./expes/v2_2020-12-03_dh_150-prng-1,30_issda_150,150,rng-150,111,rng,num-start-791,791,25726,14.677244901657104,True,,True,1,False,1000,True,1.0
./expes/v2_2020-12-03_dh_150-prng-1,30_issda_150,150,rng-150,101,rng,num-start-71,71,25726,1.440211534500122,True,,True,1,False,1000,True,1.0
./expes/v2_2020-12-03_dh_150-prng-1,30_issda_150,150,rng-150,11,rng,num-start-271,271,25726,5.327437162399292,True,,True,1,False,1000,True,1.0
./expes/v2_2020-12-03_dh_150-prng-1,30_issda_150,150,rng-150,131,rng,num-start-851,851,25726,16.305195093154907,True,,True,1,False,1000,True,1.0
./expes/v2_2020-12-03_dh_150-prng-1,30_issda_150,150,rng-150,121,rng,num-start-131,131,25726,2.696354627609253,True,,True,1,False,1000,True,1.0
./expes/v2_2020-12-03_dh_150-prng-1,30_issda_150,150,rng-150,31,rng,num-start-121,121,25726,2.6072633266448975,True,,True,1,False,1000,True,1.0
./expes/v2_2020-12-03_dh_150-prng-1,30_issda_150,150,rng-150,131,rng,num-start-681,681,25726,13.337652444839478,True,,True,1,False,1000,True,1.0
./expes/v2_2020-12-03_dh_150-prng-1,30_issda_150,150,rng-150,11,rng,num-start-811,811,25726,14.547049760818481,True,,True,1,False,1000,True,1.0
./expes/v2_2020-12-03_dh_150-prng-1,30_issda_150,150,rng-150,111,rng,num-start-31,31,25726,475.83746886253357,True,,True,1,False,1000,True,1.0
./expes/v2_2020-12-03_dh_150-prng-1,30_issda_150,150,rng-150,91,rng,num-start-101,101,25726,2.169968366622925,True,,True,1,False,1000,True,1.0
./expes/v2_2020-12-03_dh_150-prng-1,30_issda_150,150,rng-150,11,rng,num-start-61,61,25726,1.2833714485168457,True,,True,1,False,1000,True,1.0
./expes/v2_2020-12-03_dh_150-prng-1,30_issda_150,150,rng-150,71,rng,num-start-721,721,25726,14.157558917999268,True,,True,1,False,1000,True,1.0
./expes/v2_2020-12-03_dh_150-prng-1,30_issda_150,150,rng-150,41,rng,num-start-511,511,25726,10.59857177734375,True,,True,1,False,1000,True,1.0
./expes/v2_2020-12-03_dh_150-prng-1,30_issda_150,150,rng-150,11,rng,num-start-591,591,25726,11.308676958084106,True,,True,1,False,1000,True,1.0
./expes/v2_2020-12-03_dh_150-prng-1,30_issda_150,150,rng-150,21,rng,num-start-191,191,25726,3.8664042949676514,True,,True,1,False,1000,True,1.0
./expes/v2_2020-12-03_dh_150-prng-1,30_issda_150,150,rng-150,71,rng,num-start-901,901,25726,16.913742065429688,True,,True,1,False,1000,True,1.0
./expes/v2_2020-12-03_dh_150-prng-1,30_issda_150,150,rng-150,131,rng,num-start-901,901,25726,16.635207176208496,True,,True,1,False,1000,True,1.0
./expes/v2_2020-12-03_dh_150-prng-1,30_issda_150,150,rng-150,101,rng,num-start-211,211,25726,3.8891046047210693,True,,True,1,False,1000,True,1.0
./expes/v2_2020-12-03_dh_150-prng-1,30_issda_150,150,rng-150,31,rng,num-start-711,711,25726,13.55748438835144,True,,True,1,False,1000,True,1.0
./expes/v2_2020-12-03_dh_150-prng-1,30_issda_150,150,rng-150,61,rng,num-start-341,341,25726,6.448148488998413,True,,True,1,False,1000,True,1.0
./expes/v2_2020-12-03_dh_150-prng-1,30_issda_150,150,rng-150,81,rng,num-start-381,381,25726,7.234670639038086,True,,True,1,False,1000,True,1.0
./expes/v2_2020-12-03_dh_150-prng-1,30_issda_150,150,rng-150,71,rng,num-start-791,791,25726,14.918002605438232,True,,True,1,False,1000,True,1.0
./expes/v2_2020-12-03_dh_150-prng-1,30_issda_150,150,rng-150,101,rng,num-start-311,311,25726,5.831245183944702,True,,True,1,False,1000,True,1.0
./expes/v2_2020-12-03_dh_150-prng-1,30_issda_150,150,rng-150,121,rng,num-start-131,131,25726,2.5849599838256836,True,,True,1,False,1000,True,1.0
./expes/v2_2020-12-03_dh_150-prng-1,30_issda_150,150,rng-150,131,rng,num-start-391,391,25726,7.196853160858154,True,,True,1,False,1000,True,1.0
./expes/v2_2020-12-03_dh_150-prng-1,30_issda_150,150,rng-150,11,rng,num-start-311,311,25726,5.758826732635498,True,,True,1,False,1000,True,1.0
./expes/v2_2020-12-03_dh_150-prng-1,30_issda_150,150,rng-150,51,rng,num-start-411,411,25726,7.862864255905151,True,,True,1,False,1000,True,1.0
./expes/v2_2020-12-03_dh_150-prng-1,30_issda_150,150,rng-150,11,rng,num-start-451,451,25726,7.911677122116089,True,,True,1,False,1000,True,1.0
./expes/v2_2020-12-03_dh_150-prng-1,30_issda_150,150,rng-150,91,rng,num-start-701,701,25726,13.00094747543335,True,,True,1,False,1000,True,1.0
./expes/v2_2020-12-03_dh_150-prng-1,30_issda_150,150,rng-150,61,rng,num-start-771,771,25726,14.425898551940918,True,,True,1,False,1000,True,1.0
./expes/v2_2020-12-03_dh_150-prng-1,30_issda_150,150,rng-150,11,rng,num-start-881,881,25726,15.573627948760986,True,,True,1,False,1000,True,1.0
./expes/v2_2020-12-03_dh_150-prng-1,30_issda_150,150,rng-150,31,rng,num-start-101,101,25726,2.08614444732666,True,,True,1,False,1000,True,1.0
./expes/v2_2020-12-03_dh_150-prng-1,30_issda_150,150,rng-150,131,rng,num-start-781,781,25726,14.52616000175476,True,,True,1,False,1000,True,1.0
./expes/v2_2020-12-03_dh_150-prng-1,30_issda_150,150,rng-150,141,rng,num-start-391,391,25726,6.885409355163574,True,,True,1,False,1000,True,1.0
./expes/v2_2020-12-03_dh_150-prng-1,30_issda_150,150,rng-150,41,rng,num-start-701,701,25726,13.513334035873413,True,,True,1,False,1000,True,1.0
./expes/v2_2020-12-03_dh_150-prng-1,30_issda_150,150,rng-150,51,rng,num-start-501,501,25726,9.238927364349365,True,,True,1,False,1000,True,1.0
./expes/v2_2020-12-03_dh_150-prng-1,30_issda_150,150,rng-150,1,rng,num-start-761,761,25726,13.203565835952759,True,,True,1,False,1000,True,1.0
./expes/v2_2020-12-03_dh_150-prng-1,30_issda_150,150,rng-150,141,rng,num-start-331,331,25726,5.984041452407837,True,,True,1,False,1000,True,1.0
./expes/v2_2020-12-03_dh_150-prng-1,30_issda_150,150,rng-150,31,rng,num-start-991,991,25726,18.91373634338379,True,,True,1,False,1000,True,1.0
./expes/v2_2020-12-03_dh_150-prng-1,30_issda_150,150,rng-150,41,rng,num-start-601,601,25726,11.230431318283081,True,,True,1,False,1000,True,1.0
./expes/v2_2020-12-03_dh_150-prng-1,30_issda_150,150,rng-150,31,rng,num-start-251,251,25726,4.889553785324097,True,,True,1,False,1000,True,1.0
./expes/v2_2020-12-03_dh_150-prng-1,30_issda_150,150,rng-150,11,rng,num-start-401,401,25726,7.266552448272705,True,,True,1,False,1000,True,1.0
./expes/v2_2020-12-03_dh_150-prng-1,30_issda_150,150,rng-150,51,rng,num-start-411,411,25726,7.975417852401733,True,,True,1,False,1000,True,1.0
./expes/v2_2020-12-03_dh_150-prng-1,30_issda_150,150,rng-150,31,rng,num-start-371,371,25726,7.15297532081604,True,,True,1,False,1000,True,1.0
./expes/v2_2020-12-03_dh_150-prng-1,30_issda_150,150,rng-150,31,rng,num-start-711,711,25726,14.001305341720581,True,,True,1,False,1000,True,1.0
./expes/v2_2020-12-03_dh_150-prng-1,30_issda_150,150,rng-150,141,rng,num-start-71,71,25726,1.4003527164459229,True,,True,1,False,1000,True,1.0
./expes/v2_2020-12-03_dh_150-prng-1,30_issda_150,150,rng-150,111,rng,num-start-701,701,25726,13.851401567459106,True,,True,1,False,1000,True,1.0
./expes/v2_2020-12-03_dh_150-prng-1,30_issda_150,150,rng-150,21,rng,num-start-831,831,25726,24.846545934677124,True,,True,1,False,1000,True,1.0
./expes/v2_2020-12-03_dh_150-prng-1,30_issda_150,150,rng-150,111,rng,num-start-721,721,25726,13.477940320968628,True,,True,1,False,1000,True,1.0
./expes/v2_2020-12-03_dh_150-prng-1,30_issda_150,150,rng-150,101,rng,num-start-91,91,25726,1.8653564453125,True,,True,1,False,1000,True,1.0
./expes/v2_2020-12-03_dh_150-prng-1,30_issda_150,150,rng-150,71,rng,num-start-901,901,25726,17.760255813598633,True,,True,1,False,1000,True,1.0
./expes/v2_2020-12-03_dh_150-prng-1,30_issda_150,150,rng-150,121,rng,num-start-771,771,25726,14.97515869140625,True,,True,1,False,1000,True,1.0
./expes/v2_2020-12-03_dh_150-prng-1,30_issda_150,150,rng-150,81,rng,num-start-11,11,25726,1000.2807726860046,False,,False,0,True,1000,True,0.0
./expes/v2_2020-12-03_dh_150-prng-1,30_issda_150,150,rng-150,51,rng,num-start-711,711,25726,13.59917950630188,True,,True,1,False,1000,True,1.0
./expes/v2_2020-12-03_dh_150-prng-1,30_issda_150,150,rng-150,121,rng,num-start-741,741,25726,14.19241976737976,True,,True,1,False,1000,True,1.0
./expes/v2_2020-12-03_dh_150-prng-1,30_issda_150,150,rng-150,121,rng,num-start-491,491,25726,9.162820816040039,True,,True,1,False,1000,True,1.0
./expes/v2_2020-12-03_dh_150-prng-1,30_issda_150,150,rng-150,111,rng,num-start-11,11,25726,1000.5642302036285,False,,False,0,True,1000,True,0.0
./expes/v2_2020-12-03_dh_150-prng-1,30_issda_150,150,rng-150,21,rng,num-start-71,71,25726,1.5439658164978027,True,,True,1,False,1000,True,1.0
./expes/v2_2020-12-03_dh_150-prng-1,30_issda_150,150,rng-150,41,rng,num-start-81,81,25726,1.7305707931518555,True,,True,1,False,1000,True,1.0
./expes/v2_2020-12-03_dh_150-prng-1,30_issda_150,150,rng-150,121,rng,num-start-511,511,25726,10.33774185180664,True,,True,1,False,1000,True,1.0
./expes/v2_2020-12-03_dh_150-prng-1,30_issda_150,150,rng-150,61,rng,num-start-1,1,25726,0.04843640327453613,False,,False,2,False,1000,True,1.0
./expes/v2_2020-12-03_dh_150-prng-1,30_issda_150,150,rng-150,61,rng,num-start-461,461,25726,9.118324279785156,True,,True,1,False,1000,True,1.0
./expes/v2_2020-12-03_dh_150-prng-1,30_issda_150,150,rng-150,121,rng,num-start-251,251,25726,5.048491477966309,True,,True,1,False,1000,True,1.0
./expes/v2_2020-12-03_dh_150-prng-1,30_issda_150,150,rng-150,81,rng,num-start-321,321,25726,6.416800498962402,True,,True,1,False,1000,True,1.0
./expes/v2_2020-12-03_dh_150-prng-1,30_issda_150,150,rng-150,141,rng,num-start-801,801,25726,14.92440390586853,True,,True,1,False,1000,True,1.0
./expes/v2_2020-12-03_dh_150-prng-1,30_issda_150,150,rng-150,31,rng,num-start-631,631,25726,12.155264616012573,True,,True,1,False,1000,True,1.0
./expes/v2_2020-12-03_dh_150-prng-1,30_issda_150,150,rng-150,71,rng,num-start-661,661,25726,12.580142974853516,True,,True,1,False,1000,True,1.0
./expes/v2_2020-12-03_dh_150-prng-1,30_issda_150,150,rng-150,101,rng,num-start-401,401,25726,7.3858397006988525,True,,True,1,False,1000,True,1.0
./expes/v2_2020-12-03_dh_150-prng-1,30_issda_150,150,rng-150,91,rng,num-start-151,151,25726,3.100745916366577,True,,True,1,False,1000,True,1.0
./expes/v2_2020-12-03_dh_150-prng-1,30_issda_150,150,rng-150,31,rng,num-start-561,561,25726,10.33242654800415,True,,True,1,False,1000,True,1.0
./expes/v2_2020-12-03_dh_150-prng-1,30_issda_150,150,rng-150,21,rng,num-start-541,541,25726,10.416394710540771,True,,True,1,False,1000,True,1.0
./expes/v2_2020-12-03_dh_150-prng-1,30_issda_150,150,rng-150,81,rng,num-start-581,581,25726,11.23628830909729,True,,True,1,False,1000,True,1.0
./expes/v2_2020-12-03_dh_150-prng-1,30_issda_150,150,rng-150,81,rng,num-start-141,141,25726,2.9648654460906982,True,,True,1,False,1000,True,1.0
./expes/v2_2020-12-03_dh_150-prng-1,30_issda_150,150,rng-150,41,rng,num-start-651,651,25726,12.829180240631104,True,,True,1,False,1000,True,1.0
./expes/v2_2020-12-03_dh_150-prng-1,30_issda_150,150,rng-150,61,rng,num-start-571,571,25726,10.71629285812378,True,,True,1,False,1000,True,1.0
./expes/v2_2020-12-03_dh_150-prng-1,30_issda_150,150,rng-150,51,rng,num-start-291,291,25726,5.732681751251221,True,,True,1,False,1000,True,1.0
./expes/v2_2020-12-03_dh_150-prng-1,30_issda_150,150,rng-150,11,rng,num-start-421,421,25726,7.344375133514404,True,,True,1,False,1000,True,1.0
./expes/v2_2020-12-03_dh_150-prng-1,30_issda_150,150,rng-150,141,rng,num-start-801,801,25726,14.332416534423828,True,,True,1,False,1000,True,1.0
./expes/v2_2020-12-03_dh_150-prng-1,30_issda_150,150,rng-150,1,rng,num-start-271,271,25726,4.978962182998657,True,,True,1,False,1000,True,1.0
./expes/v2_2020-12-03_dh_150-prng-1,30_issda_150,150,rng-150,41,rng,num-start-431,431,25726,8.86416745185852,True,,True,1,False,1000,True,1.0
./expes/v2_2020-12-03_dh_150-prng-1,30_issda_150,150,rng-150,141,rng,num-start-131,131,25726,2.554683208465576,True,,True,1,False,1000,True,1.0
./expes/v2_2020-12-03_dh_150-prng-1,30_issda_150,150,rng-150,141,rng,num-start-661,661,25726,11.618024587631226,True,,True,1,False,1000,True,1.0
./expes/v2_2020-12-03_dh_150-prng-1,30_issda_150,150,rng-150,121,rng,num-start-61,61,25726,1.192190408706665,True,,True,1,False,1000,True,1.0
./expes/v2_2020-12-03_dh_150-prng-1,30_issda_150,150,rng-150,51,rng,num-start-871,871,25726,16.857950687408447,True,,True,1,False,1000,True,1.0
./expes/v2_2020-12-03_dh_150-prng-1,30_issda_150,150,rng-150,21,rng,num-start-891,891,25726,16.91727089881897,True,,True,1,False,1000,True,1.0
./expes/v2_2020-12-03_dh_150-prng-1,30_issda_150,150,rng-150,51,rng,num-start-11,11,25726,1000.2428333759308,False,,False,0,True,1000,True,0.0
./expes/v2_2020-12-03_dh_150-prng-1,30_issda_150,150,rng-150,81,rng,num-start-251,251,25726,5.148210048675537,True,,True,1,False,1000,True,1.0
./expes/v2_2020-12-03_dh_150-prng-1,30_issda_150,150,rng-150,111,rng,num-start-431,431,25726,8.289487361907959,True,,True,1,False,1000,True,1.0
./expes/v2_2020-12-03_dh_150-prng-1,30_issda_150,150,rng-150,31,rng,num-start-611,611,25726,11.766350984573364,True,,True,1,False,1000,True,1.0
./expes/v2_2020-12-03_dh_150-prng-1,30_issda_150,150,rng-150,41,rng,num-start-361,361,25726,7.543912172317505,True,,True,1,False,1000,True,1.0
./expes/v2_2020-12-03_dh_150-prng-1,30_issda_150,150,rng-150,121,rng,num-start-551,551,25726,10.195874691009521,True,,True,1,False,1000,True,1.0
./expes/v2_2020-12-03_dh_150-prng-1,30_issda_150,150,rng-150,71,rng,num-start-801,801,25726,15.027766466140747,True,,True,1,False,1000,True,1.0
./expes/v2_2020-12-03_dh_150-prng-1,30_issda_150,150,rng-150,141,rng,num-start-891,891,25726,15.578119039535522,True,,True,1,False,1000,True,1.0
./expes/v2_2020-12-03_dh_150-prng-1,30_issda_150,150,rng-150,81,rng,num-start-171,171,25726,3.3785574436187744,True,,True,1,False,1000,True,1.0
./expes/v2_2020-12-03_dh_150-prng-1,30_issda_150,150,rng-150,51,rng,num-start-461,461,25726,8.774442195892334,True,,True,1,False,1000,True,1.0
./expes/v2_2020-12-03_dh_150-prng-1,30_issda_150,150,rng-150,51,rng,num-start-801,801,25726,15.30712366104126,True,,True,1,False,1000,True,1.0
./expes/v2_2020-12-03_dh_150-prng-1,30_issda_150,150,rng-150,91,rng,num-start-281,281,25726,5.846861839294434,True,,True,1,False,1000,True,1.0
./expes/v2_2020-12-03_dh_150-prng-1,30_issda_150,150,rng-150,11,rng,num-start-101,101,25726,2.0811281204223633,True,,True,1,False,1000,True,1.0
./expes/v2_2020-12-03_dh_150-prng-1,30_issda_150,150,rng-150,1,rng,num-start-691,691,25726,12.146294116973877,True,,True,1,False,1000,True,1.0
./expes/v2_2020-12-03_dh_150-prng-1,30_issda_150,150,rng-150,61,rng,num-start-261,261,25726,5.114120006561279,True,,True,1,False,1000,True,1.0
./expes/v2_2020-12-03_dh_150-prng-1,30_issda_150,150,rng-150,101,rng,num-start-891,891,25726,16.733079433441162,True,,True,1,False,1000,True,1.0
./expes/v2_2020-12-03_dh_150-prng-1,30_issda_150,150,rng-150,71,rng,num-start-731,731,25726,13.70163893699646,True,,True,1,False,1000,True,1.0
./expes/v2_2020-12-03_dh_150-prng-1,30_issda_150,150,rng-150,71,rng,num-start-81,81,25726,1.803529977798462,True,,True,1,False,1000,True,1.0
./expes/v2_2020-12-03_dh_150-prng-1,30_issda_150,150,rng-150,21,rng,num-start-121,121,25726,2.5454280376434326,True,,True,1,False,1000,True,1.0
./expes/v2_2020-12-03_dh_150-prng-1,30_issda_150,150,rng-150,71,rng,num-start-861,861,25726,16.32790970802307,True,,True,1,False,1000,True,1.0
./expes/v2_2020-12-03_dh_150-prng-1,30_issda_150,150,rng-150,121,rng,num-start-631,631,25726,11.77735686302185,True,,True,1,False,1000,True,1.0
./expes/v2_2020-12-03_dh_150-prng-1,30_issda_150,150,rng-150,81,rng,num-start-201,201,25726,3.9718782901763916,True,,True,1,False,1000,True,1.0
./expes/v2_2020-12-03_dh_150-prng-1,30_issda_150,150,rng-150,121,rng,num-start-611,611,25726,11.54347848892212,True,,True,1,False,1000,True,1.0
./expes/v2_2020-12-03_dh_150-prng-1,30_issda_150,150,rng-150,111,rng,num-start-541,541,25726,10.306958436965942,True,,True,1,False,1000,True,1.0
./expes/v2_2020-12-03_dh_150-prng-1,30_issda_150,150,rng-150,71,rng,num-start-921,921,25726,17.329376459121704,True,,True,1,False,1000,True,1.0
./expes/v2_2020-12-03_dh_150-prng-1,30_issda_150,150,rng-150,31,rng,num-start-31,31,25726,1007.6730573177338,False,,False,0,True,1000,True,0.0
./expes/v2_2020-12-03_dh_150-prng-1,30_issda_150,150,rng-150,141,rng,num-start-511,511,25726,9.068792581558228,True,,True,1,False,1000,True,1.0
./expes/v2_2020-12-03_dh_150-prng-1,30_issda_150,150,rng-150,81,rng,num-start-671,671,25726,12.808395862579346,True,,True,1,False,1000,True,1.0
./expes/v2_2020-12-03_dh_150-prng-1,30_issda_150,150,rng-150,1,rng,num-start-121,121,25726,2.162149667739868,True,,True,1,False,1000,True,1.0
./expes/v2_2020-12-03_dh_150-prng-1,30_issda_150,150,rng-150,41,rng,num-start-761,761,25726,14.76515245437622,True,,True,1,False,1000,True,1.0
./expes/v2_2020-12-03_dh_150-prng-1,30_issda_150,150,rng-150,61,rng,num-start-591,591,25726,11.206210851669312,True,,True,1,False,1000,True,1.0
./expes/v2_2020-12-03_dh_150-prng-1,30_issda_150,150,rng-150,1,rng,num-start-811,811,25726,14.149632692337036,True,,True,1,False,1000,True,1.0
./expes/v2_2020-12-03_dh_150-prng-1,30_issda_150,150,rng-150,41,rng,num-start-181,181,25726,3.7688755989074707,True,,True,1,False,1000,True,1.0
./expes/v2_2020-12-03_dh_150-prng-1,30_issda_150,150,rng-150,21,rng,num-start-441,441,25726,8.111377716064453,True,,True,1,False,1000,True,1.0
./expes/v2_2020-12-03_dh_150-prng-1,30_issda_150,150,rng-150,111,rng,num-start-491,491,25726,9.003698825836182,True,,True,1,False,1000,True,1.0
./expes/v2_2020-12-03_dh_150-prng-1,30_issda_150,150,rng-150,11,rng,num-start-321,321,25726,5.891374349594116,True,,True,1,False,1000,True,1.0
./expes/v2_2020-12-03_dh_150-prng-1,30_issda_150,150,rng-150,131,rng,num-start-331,331,25726,6.933447599411011,True,,True,1,False,1000,True,1.0
./expes/v2_2020-12-03_dh_150-prng-1,30_issda_150,150,rng-150,11,rng,num-start-371,371,25726,7.164407014846802,True,,True,1,False,1000,True,1.0
./expes/v2_2020-12-03_dh_150-prng-1,30_issda_150,150,rng-150,1,rng,num-start-471,471,25726,8.459785461425781,True,,True,1,False,1000,True,1.0
./expes/v2_2020-12-03_dh_150-prng-1,30_issda_150,150,rng-150,121,rng,num-start-761,761,25726,14.951351881027222,True,,True,1,False,1000,True,1.0
./expes/v2_2020-12-03_dh_150-prng-1,30_issda_150,150,rng-150,71,rng,num-start-181,181,25726,3.8204398155212402,True,,True,1,False,1000,True,1.0
./expes/v2_2020-12-03_dh_150-prng-1,30_issda_150,150,rng-150,141,rng,num-start-921,921,25726,16.71843194961548,True,,True,1,False,1000,True,1.0
./expes/v2_2020-12-03_dh_150-prng-1,30_issda_150,150,rng-150,111,rng,num-start-311,311,25726,6.1633546352386475,True,,True,1,False,1000,True,1.0
./expes/v2_2020-12-03_dh_150-prng-1,30_issda_150,150,rng-150,81,rng,num-start-391,391,25726,7.711529493331909,True,,True,1,False,1000,True,1.0
./expes/v2_2020-12-03_dh_150-prng-1,30_issda_150,150,rng-150,21,rng,num-start-721,721,25726,13.877407312393188,True,,True,1,False,1000,True,1.0
./expes/v2_2020-12-03_dh_150-prng-1,30_issda_150,150,rng-150,1,rng,num-start-891,891,25726,16.080298900604248,True,,True,1,False,1000,True,1.0
./expes/v2_2020-12-03_dh_150-prng-1,30_issda_150,150,rng-150,61,rng,num-start-461,461,25726,9.633642196655273,True,,True,1,False,1000,True,1.0
./expes/v2_2020-12-03_dh_150-prng-1,30_issda_150,150,rng-150,21,rng,num-start-671,671,25726,12.934184789657593,True,,True,1,False,1000,True,1.0
./expes/v2_2020-12-03_dh_150-prng-1,30_issda_150,150,rng-150,71,rng,num-start-851,851,25726,16.5445237159729,True,,True,1,False,1000,True,1.0
./expes/v2_2020-12-03_dh_150-prng-1,30_issda_150,150,rng-150,71,rng,num-start-911,911,25726,18.401458501815796,True,,True,1,False,1000,True,1.0
./expes/v2_2020-12-03_dh_150-prng-1,30_issda_150,150,rng-150,101,rng,num-start-221,221,25726,4.311109304428101,True,,True,1,False,1000,True,1.0
./expes/v2_2020-12-03_dh_150-prng-1,30_issda_150,150,rng-150,81,rng,num-start-141,141,25726,2.9663593769073486,True,,True,1,False,1000,True,1.0
./expes/v2_2020-12-03_dh_150-prng-1,30_issda_150,150,rng-150,41,rng,num-start-721,721,25726,14.10630989074707,True,,True,1,False,1000,True,1.0
./expes/v2_2020-12-03_dh_150-prng-1,30_issda_150,150,rng-150,71,rng,num-start-181,181,25726,3.917224645614624,True,,True,1,False,1000,True,1.0
./expes/v2_2020-12-03_dh_150-prng-1,30_issda_150,150,rng-150,91,rng,num-start-291,291,25726,5.656081199645996,True,,True,1,False,1000,True,1.0
./expes/v2_2020-12-03_dh_150-prng-1,30_issda_150,150,rng-150,41,rng,num-start-351,351,25726,6.7609639167785645,True,,True,1,False,1000,True,1.0
./expes/v2_2020-12-03_dh_150-prng-1,30_issda_150,150,rng-150,11,rng,num-start-551,551,25726,9.937492370605469,True,,True,1,False,1000,True,1.0
./expes/v2_2020-12-03_dh_150-prng-1,30_issda_150,150,rng-150,131,rng,num-start-591,591,25726,11.471426725387573,True,,True,1,False,1000,True,1.0
./expes/v2_2020-12-03_dh_150-prng-1,30_issda_150,150,rng-150,71,rng,num-start-831,831,25726,15.698318719863892,True,,True,1,False,1000,True,1.0
./expes/v2_2020-12-03_dh_150-prng-1,30_issda_150,150,rng-150,71,rng,num-start-31,31,25726,1000.5760955810547,False,,False,1,True,1000,True,0.0
