expe,clients,clients_size,clients_subset,agg_size,agg_size_pc,method,days,days_size,days_total,noise_method,time,valid,valid_sum,success,nsols,wall_hit,wall_time,pooled,valid_sums
./expes/v2_2021-01-07_di_4500-prng-w5-2,daily_issda-4500,4500,rng-4500,336,7,rng,num-start-141,141,536,normal,41.53691864013672,False,,False,2,False,5000,True,0.0
./expes/v2_2021-01-07_di_4500-prng-w5-2,daily_issda-4500,4500,rng-4500,1344,29,rng,num-start-161,161,536,normal,63.24680685997009,False,,False,2,False,5000,True,0.0
./expes/v2_2021-01-07_di_4500-prng-w5-2,daily_issda-4500,4500,rng-4500,1680,37,rng,num-start-51,51,536,normal,18.057010889053345,False,,False,2,False,5000,True,0.0
./expes/v2_2021-01-07_di_4500-prng-w5-2,daily_issda-4500,4500,rng-4500,1232,27,rng,num-start-281,281,536,normal,77.9728136062622,False,,False,2,False,5000,True,0.0
./expes/v2_2021-01-07_di_4500-prng-w5-2,daily_issda-4500,4500,rng-4500,1680,37,rng,num-start-241,241,536,normal,67.36217975616455,False,,False,2,False,5000,True,0.0
./expes/v2_2021-01-07_di_4500-prng-w5-2,daily_issda-4500,4500,rng-4500,1792,39,rng,num-start-51,51,536,normal,17.8416907787323,False,,False,2,False,5000,True,0.0
./expes/v2_2021-01-07_di_4500-prng-w5-2,daily_issda-4500,4500,rng-4500,1568,34,rng,num-start-11,11,536,normal,4.044501781463623,False,,False,2,False,5000,True,0.0
./expes/v2_2021-01-07_di_4500-prng-w5-2,daily_issda-4500,4500,rng-4500,224,4,rng,num-start-141,141,536,normal,40.05880522727966,False,,False,2,False,5000,True,0.0
