{
  "clients": [
    {
      "name": "30_issda-1000",
      "path": "./csv/30_issda.csv",
      "subset": "first-1000",
      "subset_size": 1000,
      "param": null
    }
  ],
  "noise": {
    "name": "fpa-09-1-1-20",
    "method": "fpa",
    "param": {
      "outliers": 0.9,
      "epsilon": 10,
      "k": 20,
      "bound": 1
    }
  },
  "agg_size": [
    25,
    50,
    75,
    100,
    125,
    150,
    175,
    200,
    225,
    250,
    275,
    300,
    325,
    350,
    375,
    400,
    425,
    450,
    475,
    500
  ],
  "methods": [
    {
      "name": "rng",
      "param": 0
    },
    {
      "name": "rng",
      "param": 1
    },
    {
      "name": "rng",
      "param": 2
    },
    {
      "name": "rng",
      "param": 3
    },
    {
      "name": "rng",
      "param": 4
    },
    {
      "name": "rng",
      "param": 5
    },
    {
      "name": "rng",
      "param": 6
    },
    {
      "name": "rng",
      "param": 7
    },
    {
      "name": "rng",
      "param": 8
    },
    {
      "name": "rng",
      "param": 9
    },
    {
      "name": "rng",
      "param": 10
    },
    {
      "name": "rng",
      "param": 11
    },
    {
      "name": "rng",
      "param": 12
    },
    {
      "name": "rng",
      "param": 13
    },
    {
      "name": "rng",
      "param": 14
    },
    {
      "name": "rng",
      "param": 15
    },
    {
      "name": "rng",
      "param": 16
    },
    {
      "name": "rng",
      "param": 17
    },
    {
      "name": "rng",
      "param": 18
    },
    {
      "name": "rng",
      "param": 19
    }
  ],
  "days": [
    {
      "name": "num-start-33",
      "param": 33
    },
    {
      "name": "num-start-66",
      "param": 66
    },
    {
      "name": "num-start-99",
      "param": 99
    },
    {
      "name": "num-start-132",
      "param": 132
    },
    {
      "name": "num-start-165",
      "param": 165
    },
    {
      "name": "num-start-198",
      "param": 198
    },
    {
      "name": "num-start-231",
      "param": 231
    },
    {
      "name": "num-start-264",
      "param": 264
    },
    {
      "name": "num-start-297",
      "param": 297
    },
    {
      "name": "num-start-330",
      "param": 330
    },
    {
      "name": "num-start-363",
      "param": 363
    },
    {
      "name": "num-start-396",
      "param": 396
    },
    {
      "name": "num-start-429",
      "param": 429
    },
    {
      "name": "num-start-462",
      "param": 462
    },
    {
      "name": "num-start-495",
      "param": 495
    },
    {
      "name": "num-start-528",
      "param": 528
    },
    {
      "name": "num-start-561",
      "param": 561
    },
    {
      "name": "num-start-594",
      "param": 594
    },
    {
      "name": "num-start-627",
      "param": 627
    },
    {
      "name": "num-start-660",
      "param": 660
    },
    {
      "name": "num-start-693",
      "param": 693
    },
    {
      "name": "num-start-726",
      "param": 726
    },
    {
      "name": "num-start-759",
      "param": 759
    },
    {
      "name": "num-start-792",
      "param": 792
    },
    {
      "name": "num-start-825",
      "param": 825
    },
    {
      "name": "num-start-858",
      "param": 858
    },
    {
      "name": "num-start-891",
      "param": 891
    },
    {
      "name": "num-start-924",
      "param": 924
    },
    {
      "name": "num-start-957",
      "param": 957
    },
    {
      "name": "num-start-990",
      "param": 990
    },
    {
      "name": "num-start-1023",
      "param": 1023
    },
    {
      "name": "num-start-1056",
      "param": 1056
    },
    {
      "name": "num-start-1089",
      "param": 1089
    },
    {
      "name": "num-start-1122",
      "param": 1122
    },
    {
      "name": "num-start-1155",
      "param": 1155
    },
    {
      "name": "num-start-1188",
      "param": 1188
    },
    {
      "name": "num-start-1221",
      "param": 1221
    },
    {
      "name": "num-start-1254",
      "param": 1254
    },
    {
      "name": "num-start-1287",
      "param": 1287
    },
    {
      "name": "num-start-1320",
      "param": 1320
    },
    {
      "name": "num-start-1353",
      "param": 1353
    },
    {
      "name": "num-start-1386",
      "param": 1386
    },
    {
      "name": "num-start-1419",
      "param": 1419
    },
    {
      "name": "num-start-1452",
      "param": 1452
    },
    {
      "name": "num-start-1485",
      "param": 1485
    },
    {
      "name": "num-start-1518",
      "param": 1518
    },
    {
      "name": "num-start-1551",
      "param": 1551
    },
    {
      "name": "num-start-1584",
      "param": 1584
    },
    {
      "name": "num-start-1617",
      "param": 1617
    },
    {
      "name": "num-start-1650",
      "param": 1650
    },
    {
      "name": "num-start-1683",
      "param": 1683
    },
    {
      "name": "num-start-1716",
      "param": 1716
    },
    {
      "name": "num-start-1749",
      "param": 1749
    },
    {
      "name": "num-start-1782",
      "param": 1782
    },
    {
      "name": "num-start-1815",
      "param": 1815
    },
    {
      "name": "num-start-1848",
      "param": 1848
    },
    {
      "name": "num-start-1881",
      "param": 1881
    },
    {
      "name": "num-start-1914",
      "param": 1914
    },
    {
      "name": "num-start-1947",
      "param": 1947
    },
    {
      "name": "num-start-1980",
      "param": 1980
    }
  ],
  "threads": null,
  "wall_time": 1000,
  "pooled": true,
  "pool_size": 100
}