expe,clients,clients_size,clients_subset,agg_size,method,days,days_size,days_total,time,valid,valid_sum,success,nsols,wall_hit,wall_time,pooled,valid_sums
./expes/v2_2020-11-05_dbh_300-prng-1,daily_base_hphc_300,300,first-300,241,rng,num-start-251,251,365,7.920907735824585,True,,True,1,False,1000,True,1.0
./expes/v2_2020-11-05_dbh_300-prng-1,daily_base_hphc_300,300,first-300,11,rng,num-start-91,91,365,2.4892332553863525,True,,True,1,False,1000,True,1.0
./expes/v2_2020-11-05_dbh_300-prng-1,daily_base_hphc_300,300,first-300,161,rng,num-start-61,61,365,1001.3342316150665,False,,False,0,True,1000,True,0.0
./expes/v2_2020-11-05_dbh_300-prng-1,daily_base_hphc_300,300,first-300,71,rng,num-start-241,241,365,7.52015233039856,True,,True,1,False,1000,True,1.0
./expes/v2_2020-11-05_dbh_300-prng-1,daily_base_hphc_300,300,first-300,181,rng,num-start-291,291,365,9.253287315368652,True,,True,1,False,1000,True,1.0
./expes/v2_2020-11-05_dbh_300-prng-1,daily_base_hphc_300,300,first-300,121,rng,num-start-131,131,365,8.64005994796753,True,,True,1,False,1000,True,1.0
./expes/v2_2020-11-05_dbh_300-prng-1,daily_base_hphc_300,300,first-300,251,rng,num-start-231,231,365,6.075634002685547,True,,True,1,False,1000,True,1.0
./expes/v2_2020-11-05_dbh_300-prng-1,daily_base_hphc_300,300,first-300,21,rng,num-start-141,141,365,4.0884459018707275,True,,True,1,False,1000,True,1.0
./expes/v2_2020-11-05_dbh_300-prng-1,daily_base_hphc_300,300,first-300,201,rng,num-start-1,1,365,0.07834577560424805,False,,False,2,False,1000,True,1.0
./expes/v2_2020-11-05_dbh_300-prng-1,daily_base_hphc_300,300,first-300,151,rng,num-start-121,121,365,20.94879388809204,True,,True,1,False,1000,True,1.0
./expes/v2_2020-11-05_dbh_300-prng-1,daily_base_hphc_300,300,first-300,221,rng,num-start-221,221,365,8.00619101524353,True,,True,1,False,1000,True,1.0
./expes/v2_2020-11-05_dbh_300-prng-1,daily_base_hphc_300,300,first-300,251,rng,num-start-171,171,365,4.995967626571655,True,,True,1,False,1000,True,1.0
./expes/v2_2020-11-05_dbh_300-prng-1,daily_base_hphc_300,300,first-300,41,rng,num-start-181,181,365,5.497595310211182,True,,True,1,False,1000,True,1.0
./expes/v2_2020-11-05_dbh_300-prng-1,daily_base_hphc_300,300,first-300,91,rng,num-start-281,281,365,8.781675577163696,True,,True,1,False,1000,True,1.0
./expes/v2_2020-11-05_dbh_300-prng-1,daily_base_hphc_300,300,first-300,81,rng,num-start-81,81,365,1001.6883354187012,False,,False,0,True,1000,True,0.0
./expes/v2_2020-11-05_dbh_300-prng-1,daily_base_hphc_300,300,first-300,281,rng,num-start-81,81,365,2.271599054336548,True,,True,1,False,1000,True,1.0
./expes/v2_2020-11-05_dbh_300-prng-1,daily_base_hphc_300,300,first-300,1,rng,num-start-31,31,365,0.6856551170349121,True,,True,1,False,1000,True,1.0
./expes/v2_2020-11-05_dbh_300-prng-1,daily_base_hphc_300,300,first-300,291,rng,num-start-211,211,365,5.098679065704346,True,,True,1,False,1000,True,1.0
./expes/v2_2020-11-05_dbh_300-prng-1,daily_base_hphc_300,300,first-300,131,rng,num-start-71,71,365,1001.5401105880737,False,,False,0,True,1000,True,0.0
./expes/v2_2020-11-05_dbh_300-prng-1,daily_base_hphc_300,300,first-300,281,rng,num-start-1,1,365,0.4090149402618408,False,,False,2,False,1000,True,1.0
./expes/v2_2020-11-05_dbh_300-prng-1,daily_base_hphc_300,300,first-300,101,rng,num-start-241,241,365,8.480769634246826,True,,True,1,False,1000,True,1.0
./expes/v2_2020-11-05_dbh_300-prng-1,daily_base_hphc_300,300,first-300,281,rng,num-start-271,271,365,6.863204717636108,True,,True,1,False,1000,True,1.0
./expes/v2_2020-11-05_dbh_300-prng-1,daily_base_hphc_300,300,first-300,151,rng,num-start-261,261,365,9.673604249954224,True,,True,1,False,1000,True,1.0
./expes/v2_2020-11-05_dbh_300-prng-1,daily_base_hphc_300,300,first-300,231,rng,num-start-201,201,365,6.775740385055542,True,,True,1,False,1000,True,1.0
./expes/v2_2020-11-05_dbh_300-prng-1,daily_base_hphc_300,300,first-300,181,rng,num-start-211,211,365,7.313642740249634,True,,True,1,False,1000,True,1.0
./expes/v2_2020-11-05_dbh_300-prng-1,daily_base_hphc_300,300,first-300,11,rng,num-start-111,111,365,3.0461409091949463,True,,True,1,False,1000,True,1.0
./expes/v2_2020-11-05_dbh_300-prng-1,daily_base_hphc_300,300,first-300,271,rng,num-start-231,231,365,6.2019994258880615,True,,True,1,False,1000,True,1.0
./expes/v2_2020-11-05_dbh_300-prng-1,daily_base_hphc_300,300,first-300,291,rng,num-start-101,101,365,2.9393811225891113,True,,True,1,False,1000,True,1.0
./expes/v2_2020-11-05_dbh_300-prng-1,daily_base_hphc_300,300,first-300,131,rng,num-start-41,41,365,1000.8916442394257,False,,False,0,True,1000,True,0.0
./expes/v2_2020-11-05_dbh_300-prng-1,daily_base_hphc_300,300,first-300,151,rng,num-start-201,201,365,6.89393424987793,True,,True,1,False,1000,True,1.0
./expes/v2_2020-11-05_dbh_300-prng-1,daily_base_hphc_300,300,first-300,111,rng,num-start-151,151,365,7.213022470474243,True,,True,1,False,1000,True,1.0
./expes/v2_2020-11-05_dbh_300-prng-1,daily_base_hphc_300,300,first-300,251,rng,num-start-71,71,365,1001.4989032745361,False,,False,1,True,1000,True,0.0
./expes/v2_2020-11-05_dbh_300-prng-1,daily_base_hphc_300,300,first-300,151,rng,num-start-11,11,365,1000.3566014766693,False,,False,0,True,1000,True,0.0
./expes/v2_2020-11-05_dbh_300-prng-1,daily_base_hphc_300,300,first-300,61,rng,num-start-241,241,365,7.443673610687256,True,,True,1,False,1000,True,1.0
./expes/v2_2020-11-05_dbh_300-prng-1,daily_base_hphc_300,300,first-300,31,rng,num-start-171,171,365,5.184739112854004,True,,True,1,False,1000,True,1.0
./expes/v2_2020-11-05_dbh_300-prng-1,daily_base_hphc_300,300,first-300,291,rng,num-start-121,121,365,3.123201608657837,True,,True,1,False,1000,True,1.0
./expes/v2_2020-11-05_dbh_300-prng-1,daily_base_hphc_300,300,first-300,61,rng,num-start-111,111,365,8.411191940307617,True,,True,1,False,1000,True,1.0
./expes/v2_2020-11-05_dbh_300-prng-1,daily_base_hphc_300,300,first-300,191,rng,num-start-251,251,365,7.972615718841553,True,,True,1,False,1000,True,1.0
./expes/v2_2020-11-05_dbh_300-prng-1,daily_base_hphc_300,300,first-300,181,rng,num-start-271,271,365,8.759308099746704,True,,True,1,False,1000,True,1.0
./expes/v2_2020-11-05_dbh_300-prng-1,daily_base_hphc_300,300,first-300,191,rng,num-start-281,281,365,9.438254833221436,True,,True,1,False,1000,True,1.0
./expes/v2_2020-11-05_dbh_300-prng-1,daily_base_hphc_300,300,first-300,211,rng,num-start-71,71,365,1001.4930279254913,False,,False,0,True,1000,True,0.0
./expes/v2_2020-11-05_dbh_300-prng-1,daily_base_hphc_300,300,first-300,221,rng,num-start-281,281,365,8.682867527008057,True,,True,1,False,1000,True,1.0
./expes/v2_2020-11-05_dbh_300-prng-1,daily_base_hphc_300,300,first-300,41,rng,num-start-31,31,365,1000.8021106719971,False,,False,0,True,1000,True,0.0
./expes/v2_2020-11-05_dbh_300-prng-1,daily_base_hphc_300,300,first-300,221,rng,num-start-161,161,365,6.088731050491333,True,,True,1,False,1000,True,1.0
./expes/v2_2020-11-05_dbh_300-prng-1,daily_base_hphc_300,300,first-300,171,rng,num-start-61,61,365,1001.3330073356628,False,,False,0,True,1000,True,0.0
./expes/v2_2020-11-05_dbh_300-prng-1,daily_base_hphc_300,300,first-300,141,rng,num-start-181,181,365,6.334696054458618,True,,True,1,False,1000,True,1.0
./expes/v2_2020-11-05_dbh_300-prng-1,daily_base_hphc_300,300,first-300,111,rng,num-start-181,181,365,6.054150342941284,True,,True,1,False,1000,True,1.0
./expes/v2_2020-11-05_dbh_300-prng-1,daily_base_hphc_300,300,first-300,281,rng,num-start-201,201,365,5.250147342681885,True,,True,1,False,1000,True,1.0
./expes/v2_2020-11-05_dbh_300-prng-1,daily_base_hphc_300,300,first-300,111,rng,num-start-71,71,365,1001.5295069217682,False,,False,0,True,1000,True,0.0
./expes/v2_2020-11-05_dbh_300-prng-1,daily_base_hphc_300,300,first-300,31,rng,num-start-101,101,365,3.2397282123565674,True,,True,1,False,1000,True,1.0
./expes/v2_2020-11-05_dbh_300-prng-1,daily_base_hphc_300,300,first-300,81,rng,num-start-251,251,365,7.876173257827759,True,,True,1,False,1000,True,1.0
./expes/v2_2020-11-05_dbh_300-prng-1,daily_base_hphc_300,300,first-300,31,rng,num-start-241,241,365,6.881347417831421,True,,True,1,False,1000,True,1.0
./expes/v2_2020-11-05_dbh_300-prng-1,daily_base_hphc_300,300,first-300,111,rng,num-start-131,131,365,18.44604754447937,True,,True,1,False,1000,True,1.0
./expes/v2_2020-11-05_dbh_300-prng-1,daily_base_hphc_300,300,first-300,71,rng,num-start-271,271,365,9.432060480117798,True,,True,1,False,1000,True,1.0
./expes/v2_2020-11-05_dbh_300-prng-1,daily_base_hphc_300,300,first-300,211,rng,num-start-261,261,365,9.073472499847412,True,,True,1,False,1000,True,1.0
./expes/v2_2020-11-05_dbh_300-prng-1,daily_base_hphc_300,300,first-300,241,rng,num-start-271,271,365,8.006616592407227,True,,True,1,False,1000,True,1.0
./expes/v2_2020-11-05_dbh_300-prng-1,daily_base_hphc_300,300,first-300,21,rng,num-start-181,181,365,5.226382255554199,True,,True,1,False,1000,True,1.0
./expes/v2_2020-11-05_dbh_300-prng-1,daily_base_hphc_300,300,first-300,221,rng,num-start-121,121,365,7.553367376327515,True,,True,1,False,1000,True,1.0
./expes/v2_2020-11-05_dbh_300-prng-1,daily_base_hphc_300,300,first-300,251,rng,num-start-91,91,365,4.339348554611206,True,,True,1,False,1000,True,1.0
./expes/v2_2020-11-05_dbh_300-prng-1,daily_base_hphc_300,300,first-300,251,rng,num-start-101,101,365,7.958008050918579,True,,True,1,False,1000,True,1.0
./expes/v2_2020-11-05_dbh_300-prng-1,daily_base_hphc_300,300,first-300,131,rng,num-start-1,1,365,0.1676771640777588,False,,False,2,False,1000,True,1.0
./expes/v2_2020-11-05_dbh_300-prng-1,daily_base_hphc_300,300,first-300,231,rng,num-start-101,101,365,13.513438701629639,True,,True,1,False,1000,True,1.0
./expes/v2_2020-11-05_dbh_300-prng-1,daily_base_hphc_300,300,first-300,111,rng,num-start-161,161,365,5.717628717422485,True,,True,1,False,1000,True,1.0
./expes/v2_2020-11-05_dbh_300-prng-1,daily_base_hphc_300,300,first-300,51,rng,num-start-111,111,365,3.1198465824127197,True,,True,1,False,1000,True,1.0
./expes/v2_2020-11-05_dbh_300-prng-1,daily_base_hphc_300,300,first-300,1,rng,num-start-131,131,365,2.5852253437042236,True,,True,1,False,1000,True,1.0
./expes/v2_2020-11-05_dbh_300-prng-1,daily_base_hphc_300,300,first-300,181,rng,num-start-101,101,365,1002.0829334259033,False,,False,0,True,1000,True,0.0
./expes/v2_2020-11-05_dbh_300-prng-1,daily_base_hphc_300,300,first-300,141,rng,num-start-21,21,365,1000.5588471889496,False,,False,0,True,1000,True,0.0
./expes/v2_2020-11-05_dbh_300-prng-1,daily_base_hphc_300,300,first-300,151,rng,num-start-21,21,365,1000.4611966609955,False,,False,0,True,1000,True,0.0
./expes/v2_2020-11-05_dbh_300-prng-1,daily_base_hphc_300,300,first-300,221,rng,num-start-241,241,365,7.429532051086426,True,,True,1,False,1000,True,1.0
./expes/v2_2020-11-05_dbh_300-prng-1,daily_base_hphc_300,300,first-300,91,rng,num-start-131,131,365,8.469753980636597,True,,True,1,False,1000,True,1.0
./expes/v2_2020-11-05_dbh_300-prng-1,daily_base_hphc_300,300,first-300,221,rng,num-start-11,11,365,1000.309271812439,False,,False,0,True,1000,True,0.0
./expes/v2_2020-11-05_dbh_300-prng-1,daily_base_hphc_300,300,first-300,91,rng,num-start-111,111,365,12.362936735153198,True,,True,1,False,1000,True,1.0
./expes/v2_2020-11-05_dbh_300-prng-1,daily_base_hphc_300,300,first-300,51,rng,num-start-181,181,365,5.4988133907318115,True,,True,1,False,1000,True,1.0
./expes/v2_2020-11-05_dbh_300-prng-1,daily_base_hphc_300,300,first-300,31,rng,num-start-131,131,365,3.679091215133667,True,,True,1,False,1000,True,1.0
./expes/v2_2020-11-05_dbh_300-prng-1,daily_base_hphc_300,300,first-300,31,rng,num-start-151,151,365,4.302594184875488,True,,True,1,False,1000,True,1.0
./expes/v2_2020-11-05_dbh_300-prng-1,daily_base_hphc_300,300,first-300,221,rng,num-start-131,131,365,5.317851305007935,True,,True,1,False,1000,True,1.0
./expes/v2_2020-11-05_dbh_300-prng-1,daily_base_hphc_300,300,first-300,191,rng,num-start-21,21,365,1000.6399793624878,False,,False,0,True,1000,True,0.0
./expes/v2_2020-11-05_dbh_300-prng-1,daily_base_hphc_300,300,first-300,171,rng,num-start-241,241,365,8.265220642089844,True,,True,1,False,1000,True,1.0
./expes/v2_2020-11-05_dbh_300-prng-1,daily_base_hphc_300,300,first-300,11,rng,num-start-121,121,365,3.7592124938964844,True,,True,1,False,1000,True,1.0
./expes/v2_2020-11-05_dbh_300-prng-1,daily_base_hphc_300,300,first-300,101,rng,num-start-21,21,365,1000.5248417854309,False,,False,0,True,1000,True,0.0
./expes/v2_2020-11-05_dbh_300-prng-1,daily_base_hphc_300,300,first-300,111,rng,num-start-31,31,365,1000.7818701267242,False,,False,0,True,1000,True,0.0
./expes/v2_2020-11-05_dbh_300-prng-1,daily_base_hphc_300,300,first-300,141,rng,num-start-161,161,365,5.47024130821228,True,,True,1,False,1000,True,1.0
./expes/v2_2020-11-05_dbh_300-prng-1,daily_base_hphc_300,300,first-300,171,rng,num-start-71,71,365,1001.488007068634,False,,False,0,True,1000,True,0.0
./expes/v2_2020-11-05_dbh_300-prng-1,daily_base_hphc_300,300,first-300,161,rng,num-start-101,101,365,1002.1807153224945,False,,False,0,True,1000,True,0.0
./expes/v2_2020-11-05_dbh_300-prng-1,daily_base_hphc_300,300,first-300,31,rng,num-start-261,261,365,7.480048894882202,True,,True,1,False,1000,True,1.0
./expes/v2_2020-11-05_dbh_300-prng-1,daily_base_hphc_300,300,first-300,291,rng,num-start-41,41,365,2.4075348377227783,True,,True,1,False,1000,True,1.0
./expes/v2_2020-11-05_dbh_300-prng-1,daily_base_hphc_300,300,first-300,21,rng,num-start-271,271,365,7.1059370040893555,True,,True,1,False,1000,True,1.0
./expes/v2_2020-11-05_dbh_300-prng-1,daily_base_hphc_300,300,first-300,161,rng,num-start-201,201,365,7.111127853393555,True,,True,1,False,1000,True,1.0
./expes/v2_2020-11-05_dbh_300-prng-1,daily_base_hphc_300,300,first-300,91,rng,num-start-31,31,365,1000.7707822322845,False,,False,0,True,1000,True,0.0
./expes/v2_2020-11-05_dbh_300-prng-1,daily_base_hphc_300,300,first-300,101,rng,num-start-121,121,365,16.981480598449707,True,,True,1,False,1000,True,1.0
./expes/v2_2020-11-05_dbh_300-prng-1,daily_base_hphc_300,300,first-300,211,rng,num-start-281,281,365,9.210256099700928,True,,True,1,False,1000,True,1.0
./expes/v2_2020-11-05_dbh_300-prng-1,daily_base_hphc_300,300,first-300,51,rng,num-start-1,1,365,0.11354422569274902,False,,False,2,False,1000,True,1.0
./expes/v2_2020-11-05_dbh_300-prng-1,daily_base_hphc_300,300,first-300,271,rng,num-start-201,201,365,5.408560514450073,True,,True,1,False,1000,True,1.0
./expes/v2_2020-11-05_dbh_300-prng-1,daily_base_hphc_300,300,first-300,131,rng,num-start-231,231,365,8.16245722770691,True,,True,1,False,1000,True,1.0
./expes/v2_2020-11-05_dbh_300-prng-1,daily_base_hphc_300,300,first-300,261,rng,num-start-211,211,365,5.520629644393921,True,,True,1,False,1000,True,1.0
./expes/v2_2020-11-05_dbh_300-prng-1,daily_base_hphc_300,300,first-300,221,rng,num-start-61,61,365,1001.3281228542328,False,,False,0,True,1000,True,0.0
./expes/v2_2020-11-05_dbh_300-prng-1,daily_base_hphc_300,300,first-300,101,rng,num-start-191,191,365,7.0841851234436035,True,,True,1,False,1000,True,1.0
./expes/v2_2020-11-05_dbh_300-prng-1,daily_base_hphc_300,300,first-300,221,rng,num-start-291,291,365,9.600207328796387,True,,True,1,False,1000,True,1.0
./expes/v2_2020-11-05_dbh_300-prng-1,daily_base_hphc_300,300,first-300,61,rng,num-start-161,161,365,4.793872833251953,True,,True,1,False,1000,True,1.0
./expes/v2_2020-11-05_dbh_300-prng-1,daily_base_hphc_300,300,first-300,201,rng,num-start-31,31,365,1000.7448117733002,False,,False,0,True,1000,True,0.0
./expes/v2_2020-11-05_dbh_300-prng-1,daily_base_hphc_300,300,first-300,61,rng,num-start-11,11,365,1000.2833688259125,False,,False,0,True,1000,True,0.0
./expes/v2_2020-11-05_dbh_300-prng-1,daily_base_hphc_300,300,first-300,41,rng,num-start-151,151,365,4.538423776626587,True,,True,1,False,1000,True,1.0
./expes/v2_2020-11-05_dbh_300-prng-1,daily_base_hphc_300,300,first-300,121,rng,num-start-141,141,365,14.67164134979248,True,,True,1,False,1000,True,1.0
./expes/v2_2020-11-05_dbh_300-prng-1,daily_base_hphc_300,300,first-300,1,rng,num-start-171,171,365,3.418545961380005,True,,True,1,False,1000,True,1.0
./expes/v2_2020-11-05_dbh_300-prng-1,daily_base_hphc_300,300,first-300,251,rng,num-start-71,71,365,20.583340406417847,True,,True,1,False,1000,True,1.0
./expes/v2_2020-11-05_dbh_300-prng-1,daily_base_hphc_300,300,first-300,281,rng,num-start-1,1,365,0.05382251739501953,False,,False,2,False,1000,True,1.0
./expes/v2_2020-11-05_dbh_300-prng-1,daily_base_hphc_300,300,first-300,221,rng,num-start-81,81,365,1001.7432675361633,False,,False,0,True,1000,True,0.0
./expes/v2_2020-11-05_dbh_300-prng-1,daily_base_hphc_300,300,first-300,211,rng,num-start-171,171,365,6.172559499740601,True,,True,1,False,1000,True,1.0
./expes/v2_2020-11-05_dbh_300-prng-1,daily_base_hphc_300,300,first-300,51,rng,num-start-291,291,365,8.967517375946045,True,,True,1,False,1000,True,1.0
./expes/v2_2020-11-05_dbh_300-prng-1,daily_base_hphc_300,300,first-300,251,rng,num-start-11,11,365,1000.2514111995697,False,,False,0,True,1000,True,0.0
./expes/v2_2020-11-05_dbh_300-prng-1,daily_base_hphc_300,300,first-300,241,rng,num-start-131,131,365,3.987586736679077,True,,True,1,False,1000,True,1.0
./expes/v2_2020-11-05_dbh_300-prng-1,daily_base_hphc_300,300,first-300,151,rng,num-start-101,101,365,1002.1730041503906,False,,False,0,True,1000,True,0.0
./expes/v2_2020-11-05_dbh_300-prng-1,daily_base_hphc_300,300,first-300,161,rng,num-start-151,151,365,5.227708339691162,True,,True,1,False,1000,True,1.0
./expes/v2_2020-11-05_dbh_300-prng-1,daily_base_hphc_300,300,first-300,61,rng,num-start-71,71,365,45.14422106742859,True,,True,1,False,1000,True,1.0
./expes/v2_2020-11-05_dbh_300-prng-1,daily_base_hphc_300,300,first-300,141,rng,num-start-241,241,365,8.326250791549683,True,,True,1,False,1000,True,1.0
./expes/v2_2020-11-05_dbh_300-prng-1,daily_base_hphc_300,300,first-300,191,rng,num-start-141,141,365,9.282895803451538,True,,True,1,False,1000,True,1.0
./expes/v2_2020-11-05_dbh_300-prng-1,daily_base_hphc_300,300,first-300,131,rng,num-start-251,251,365,8.591477394104004,True,,True,1,False,1000,True,1.0
./expes/v2_2020-11-05_dbh_300-prng-1,daily_base_hphc_300,300,first-300,221,rng,num-start-91,91,365,108.30325245857239,True,,True,1,False,1000,True,1.0
./expes/v2_2020-11-05_dbh_300-prng-1,daily_base_hphc_300,300,first-300,231,rng,num-start-101,101,365,4.971700429916382,True,,True,1,False,1000,True,1.0
./expes/v2_2020-11-05_dbh_300-prng-1,daily_base_hphc_300,300,first-300,241,rng,num-start-1,1,365,0.06188607215881348,False,,False,2,False,1000,True,1.0
./expes/v2_2020-11-05_dbh_300-prng-1,daily_base_hphc_300,300,first-300,291,rng,num-start-91,91,365,2.1616480350494385,True,,True,1,False,1000,True,1.0
./expes/v2_2020-11-05_dbh_300-prng-1,daily_base_hphc_300,300,first-300,51,rng,num-start-1,1,365,0.08510112762451172,False,,False,2,False,1000,True,1.0
./expes/v2_2020-11-05_dbh_300-prng-1,daily_base_hphc_300,300,first-300,281,rng,num-start-1,1,365,0.03798222541809082,False,,False,2,False,1000,True,1.0
./expes/v2_2020-11-05_dbh_300-prng-1,daily_base_hphc_300,300,first-300,181,rng,num-start-141,141,365,5.5019214153289795,True,,True,1,False,1000,True,1.0
./expes/v2_2020-11-05_dbh_300-prng-1,daily_base_hphc_300,300,first-300,51,rng,num-start-141,141,365,3.9528608322143555,True,,True,1,False,1000,True,1.0
./expes/v2_2020-11-05_dbh_300-prng-1,daily_base_hphc_300,300,first-300,211,rng,num-start-191,191,365,6.926579475402832,True,,True,1,False,1000,True,1.0
./expes/v2_2020-11-05_dbh_300-prng-1,daily_base_hphc_300,300,first-300,41,rng,num-start-231,231,365,6.547412157058716,True,,True,1,False,1000,True,1.0
./expes/v2_2020-11-05_dbh_300-prng-1,daily_base_hphc_300,300,first-300,21,rng,num-start-101,101,365,2.8610751628875732,True,,True,1,False,1000,True,1.0
./expes/v2_2020-11-05_dbh_300-prng-1,daily_base_hphc_300,300,first-300,211,rng,num-start-151,151,365,4.277387619018555,True,,True,1,False,1000,True,1.0
./expes/v2_2020-11-05_dbh_300-prng-1,daily_base_hphc_300,300,first-300,111,rng,num-start-71,71,365,1001.5455141067505,False,,False,0,True,1000,True,0.0
./expes/v2_2020-11-05_dbh_300-prng-1,daily_base_hphc_300,300,first-300,61,rng,num-start-241,241,365,8.3548264503479,True,,True,1,False,1000,True,1.0
./expes/v2_2020-11-05_dbh_300-prng-1,daily_base_hphc_300,300,first-300,161,rng,num-start-201,201,365,6.512281894683838,True,,True,1,False,1000,True,1.0
./expes/v2_2020-11-05_dbh_300-prng-1,daily_base_hphc_300,300,first-300,1,rng,num-start-171,171,365,3.4774162769317627,True,,True,1,False,1000,True,1.0
./expes/v2_2020-11-05_dbh_300-prng-1,daily_base_hphc_300,300,first-300,101,rng,num-start-31,31,365,1001.0121624469757,False,,False,0,True,1000,True,0.0
./expes/v2_2020-11-05_dbh_300-prng-1,daily_base_hphc_300,300,first-300,71,rng,num-start-121,121,365,9.070279598236084,True,,True,1,False,1000,True,1.0
./expes/v2_2020-11-05_dbh_300-prng-1,daily_base_hphc_300,300,first-300,221,rng,num-start-261,261,365,7.3698389530181885,True,,True,1,False,1000,True,1.0
./expes/v2_2020-11-05_dbh_300-prng-1,daily_base_hphc_300,300,first-300,191,rng,num-start-151,151,365,5.280842542648315,True,,True,1,False,1000,True,1.0
./expes/v2_2020-11-05_dbh_300-prng-1,daily_base_hphc_300,300,first-300,91,rng,num-start-71,71,365,1001.4457647800446,False,,False,0,True,1000,True,0.0
./expes/v2_2020-11-05_dbh_300-prng-1,daily_base_hphc_300,300,first-300,231,rng,num-start-31,31,365,1000.8167054653168,False,,False,0,True,1000,True,0.0
./expes/v2_2020-11-05_dbh_300-prng-1,daily_base_hphc_300,300,first-300,191,rng,num-start-211,211,365,6.826776027679443,True,,True,1,False,1000,True,1.0
./expes/v2_2020-11-05_dbh_300-prng-1,daily_base_hphc_300,300,first-300,21,rng,num-start-181,181,365,5.041239500045776,True,,True,1,False,1000,True,1.0
./expes/v2_2020-11-05_dbh_300-prng-1,daily_base_hphc_300,300,first-300,141,rng,num-start-31,31,365,1000.7230479717255,False,,False,0,True,1000,True,0.0
./expes/v2_2020-11-05_dbh_300-prng-1,daily_base_hphc_300,300,first-300,71,rng,num-start-201,201,365,6.400643348693848,True,,True,1,False,1000,True,1.0
./expes/v2_2020-11-05_dbh_300-prng-1,daily_base_hphc_300,300,first-300,241,rng,num-start-101,101,365,12.966301202774048,True,,True,1,False,1000,True,1.0
./expes/v2_2020-11-05_dbh_300-prng-1,daily_base_hphc_300,300,first-300,101,rng,num-start-291,291,365,9.359001636505127,True,,True,1,False,1000,True,1.0
./expes/v2_2020-11-05_dbh_300-prng-1,daily_base_hphc_300,300,first-300,201,rng,num-start-131,131,365,7.479032754898071,True,,True,1,False,1000,True,1.0
./expes/v2_2020-11-05_dbh_300-prng-1,daily_base_hphc_300,300,first-300,51,rng,num-start-71,71,365,4.487195253372192,True,,True,1,False,1000,True,1.0
./expes/v2_2020-11-05_dbh_300-prng-1,daily_base_hphc_300,300,first-300,101,rng,num-start-211,211,365,6.977865695953369,True,,True,1,False,1000,True,1.0
./expes/v2_2020-11-05_dbh_300-prng-1,daily_base_hphc_300,300,first-300,281,rng,num-start-111,111,365,2.71921968460083,True,,True,1,False,1000,True,1.0
./expes/v2_2020-11-05_dbh_300-prng-1,daily_base_hphc_300,300,first-300,191,rng,num-start-71,71,365,1001.5074410438538,False,,False,0,True,1000,True,0.0
./expes/v2_2020-11-05_dbh_300-prng-1,daily_base_hphc_300,300,first-300,171,rng,num-start-231,231,365,8.120237588882446,True,,True,1,False,1000,True,1.0
./expes/v2_2020-11-05_dbh_300-prng-1,daily_base_hphc_300,300,first-300,271,rng,num-start-91,91,365,2.4620559215545654,True,,True,1,False,1000,True,1.0
./expes/v2_2020-11-05_dbh_300-prng-1,daily_base_hphc_300,300,first-300,141,rng,num-start-1,1,365,0.08445239067077637,False,,False,2,False,1000,True,1.0
./expes/v2_2020-11-05_dbh_300-prng-1,daily_base_hphc_300,300,first-300,91,rng,num-start-51,51,365,1001.0964007377625,False,,False,0,True,1000,True,0.0
./expes/v2_2020-11-05_dbh_300-prng-1,daily_base_hphc_300,300,first-300,1,rng,num-start-31,31,365,0.6224179267883301,True,,True,1,False,1000,True,1.0
./expes/v2_2020-11-05_dbh_300-prng-1,daily_base_hphc_300,300,first-300,151,rng,num-start-251,251,365,7.912731170654297,True,,True,1,False,1000,True,1.0
./expes/v2_2020-11-05_dbh_300-prng-1,daily_base_hphc_300,300,first-300,271,rng,num-start-281,281,365,7.299694061279297,True,,True,1,False,1000,True,1.0
./expes/v2_2020-11-05_dbh_300-prng-1,daily_base_hphc_300,300,first-300,81,rng,num-start-81,81,365,1001.6885690689087,False,,False,0,True,1000,True,0.0
./expes/v2_2020-11-05_dbh_300-prng-1,daily_base_hphc_300,300,first-300,201,rng,num-start-191,191,365,6.522862434387207,True,,True,1,False,1000,True,1.0
./expes/v2_2020-11-05_dbh_300-prng-1,daily_base_hphc_300,300,first-300,281,rng,num-start-211,211,365,5.270513296127319,True,,True,1,False,1000,True,1.0
./expes/v2_2020-11-05_dbh_300-prng-1,daily_base_hphc_300,300,first-300,241,rng,num-start-201,201,365,5.6941142082214355,True,,True,1,False,1000,True,1.0
./expes/v2_2020-11-05_dbh_300-prng-1,daily_base_hphc_300,300,first-300,141,rng,num-start-181,181,365,6.366318941116333,True,,True,1,False,1000,True,1.0
./expes/v2_2020-11-05_dbh_300-prng-1,daily_base_hphc_300,300,first-300,31,rng,num-start-61,61,365,3.5787529945373535,True,,True,1,False,1000,True,1.0
./expes/v2_2020-11-05_dbh_300-prng-1,daily_base_hphc_300,300,first-300,181,rng,num-start-101,101,365,1002.0653605461121,False,,False,0,True,1000,True,0.0
./expes/v2_2020-11-05_dbh_300-prng-1,daily_base_hphc_300,300,first-300,231,rng,num-start-31,31,365,1000.7884864807129,False,,False,0,True,1000,True,0.0
./expes/v2_2020-11-05_dbh_300-prng-1,daily_base_hphc_300,300,first-300,61,rng,num-start-261,261,365,7.4006733894348145,True,,True,1,False,1000,True,1.0
./expes/v2_2020-11-05_dbh_300-prng-1,daily_base_hphc_300,300,first-300,41,rng,num-start-271,271,365,7.347058534622192,True,,True,1,False,1000,True,1.0
./expes/v2_2020-11-05_dbh_300-prng-1,daily_base_hphc_300,300,first-300,161,rng,num-start-181,181,365,6.131309747695923,True,,True,1,False,1000,True,1.0
./expes/v2_2020-11-05_dbh_300-prng-1,daily_base_hphc_300,300,first-300,91,rng,num-start-291,291,365,9.674893617630005,True,,True,1,False,1000,True,1.0
./expes/v2_2020-11-05_dbh_300-prng-1,daily_base_hphc_300,300,first-300,111,rng,num-start-241,241,365,8.173413276672363,True,,True,1,False,1000,True,1.0
./expes/v2_2020-11-05_dbh_300-prng-1,daily_base_hphc_300,300,first-300,281,rng,num-start-191,191,365,4.902672052383423,True,,True,1,False,1000,True,1.0
./expes/v2_2020-11-05_dbh_300-prng-1,daily_base_hphc_300,300,first-300,171,rng,num-start-241,241,365,7.821726083755493,True,,True,1,False,1000,True,1.0
./expes/v2_2020-11-05_dbh_300-prng-1,daily_base_hphc_300,300,first-300,121,rng,num-start-51,51,365,1001.1516134738922,False,,False,0,True,1000,True,0.0
./expes/v2_2020-11-05_dbh_300-prng-1,daily_base_hphc_300,300,first-300,51,rng,num-start-281,281,365,8.568008184432983,True,,True,1,False,1000,True,1.0
./expes/v2_2020-11-05_dbh_300-prng-1,daily_base_hphc_300,300,first-300,211,rng,num-start-141,141,365,4.938396215438843,True,,True,1,False,1000,True,1.0
./expes/v2_2020-11-05_dbh_300-prng-1,daily_base_hphc_300,300,first-300,141,rng,num-start-121,121,365,1002.5047643184662,False,,False,0,True,1000,True,0.0
./expes/v2_2020-11-05_dbh_300-prng-1,daily_base_hphc_300,300,first-300,71,rng,num-start-161,161,365,5.110058784484863,True,,True,1,False,1000,True,1.0
./expes/v2_2020-11-05_dbh_300-prng-1,daily_base_hphc_300,300,first-300,31,rng,num-start-11,11,365,1000.2558419704437,False,,False,0,True,1000,True,0.0
./expes/v2_2020-11-05_dbh_300-prng-1,daily_base_hphc_300,300,first-300,161,rng,num-start-51,51,365,1001.182523727417,False,,False,0,True,1000,True,0.0
./expes/v2_2020-11-05_dbh_300-prng-1,daily_base_hphc_300,300,first-300,1,rng,num-start-121,121,365,2.4679980278015137,True,,True,1,False,1000,True,1.0
./expes/v2_2020-11-05_dbh_300-prng-1,daily_base_hphc_300,300,first-300,131,rng,num-start-181,181,365,6.665936231613159,True,,True,1,False,1000,True,1.0
./expes/v2_2020-11-05_dbh_300-prng-1,daily_base_hphc_300,300,first-300,21,rng,num-start-151,151,365,4.219747304916382,True,,True,1,False,1000,True,1.0
./expes/v2_2020-11-05_dbh_300-prng-1,daily_base_hphc_300,300,first-300,211,rng,num-start-61,61,365,1001.3214318752289,False,,False,0,True,1000,True,0.0
./expes/v2_2020-11-05_dbh_300-prng-1,daily_base_hphc_300,300,first-300,161,rng,num-start-171,171,365,6.055173873901367,True,,True,1,False,1000,True,1.0
./expes/v2_2020-11-05_dbh_300-prng-1,daily_base_hphc_300,300,first-300,131,rng,num-start-231,231,365,8.094934463500977,True,,True,1,False,1000,True,1.0
./expes/v2_2020-11-05_dbh_300-prng-1,daily_base_hphc_300,300,first-300,221,rng,num-start-1,1,365,0.05298328399658203,False,,False,2,False,1000,True,1.0
./expes/v2_2020-11-05_dbh_300-prng-1,daily_base_hphc_300,300,first-300,241,rng,num-start-291,291,365,8.56929349899292,True,,True,1,False,1000,True,1.0
./expes/v2_2020-11-05_dbh_300-prng-1,daily_base_hphc_300,300,first-300,141,rng,num-start-51,51,365,1001.1604902744293,False,,False,0,True,1000,True,0.0
./expes/v2_2020-11-05_dbh_300-prng-1,daily_base_hphc_300,300,first-300,41,rng,num-start-121,121,365,3.854379653930664,True,,True,1,False,1000,True,1.0
./expes/v2_2020-11-05_dbh_300-prng-1,daily_base_hphc_300,300,first-300,201,rng,num-start-271,271,365,7.608469009399414,True,,True,1,False,1000,True,1.0
./expes/v2_2020-11-05_dbh_300-prng-1,daily_base_hphc_300,300,first-300,171,rng,num-start-211,211,365,7.042372465133667,True,,True,1,False,1000,True,1.0
./expes/v2_2020-11-05_dbh_300-prng-1,daily_base_hphc_300,300,first-300,31,rng,num-start-261,261,365,8.228590965270996,True,,True,1,False,1000,True,1.0
./expes/v2_2020-11-05_dbh_300-prng-1,daily_base_hphc_300,300,first-300,161,rng,num-start-41,41,365,1000.9467329978943,False,,False,0,True,1000,True,0.0
./expes/v2_2020-11-05_dbh_300-prng-1,daily_base_hphc_300,300,first-300,271,rng,num-start-91,91,365,2.3582634925842285,True,,True,1,False,1000,True,1.0
./expes/v2_2020-11-05_dbh_300-prng-1,daily_base_hphc_300,300,first-300,201,rng,num-start-151,151,365,5.436023950576782,True,,True,1,False,1000,True,1.0
./expes/v2_2020-11-05_dbh_300-prng-1,daily_base_hphc_300,300,first-300,1,rng,num-start-11,11,365,0.23142123222351074,True,,True,1,False,1000,True,1.0
./expes/v2_2020-11-05_dbh_300-prng-1,daily_base_hphc_300,300,first-300,281,rng,num-start-271,271,365,6.635121583938599,True,,True,1,False,1000,True,1.0
./expes/v2_2020-11-05_dbh_300-prng-1,daily_base_hphc_300,300,first-300,141,rng,num-start-141,141,365,17.200384378433228,True,,True,1,False,1000,True,1.0
./expes/v2_2020-11-05_dbh_300-prng-1,daily_base_hphc_300,300,first-300,1,rng,num-start-181,181,365,3.67454195022583,True,,True,1,False,1000,True,1.0
./expes/v2_2020-11-05_dbh_300-prng-1,daily_base_hphc_300,300,first-300,161,rng,num-start-61,61,365,1001.3353626728058,False,,False,0,True,1000,True,0.0
./expes/v2_2020-11-05_dbh_300-prng-1,daily_base_hphc_300,300,first-300,291,rng,num-start-11,11,365,602.4067702293396,True,,True,1,False,1000,True,1.0
./expes/v2_2020-11-05_dbh_300-prng-1,daily_base_hphc_300,300,first-300,11,rng,num-start-21,21,365,18.00276017189026,True,,True,1,False,1000,True,1.0
./expes/v2_2020-11-05_dbh_300-prng-1,daily_base_hphc_300,300,first-300,11,rng,num-start-151,151,365,3.724309206008911,True,,True,1,False,1000,True,1.0
./expes/v2_2020-11-05_dbh_300-prng-1,daily_base_hphc_300,300,first-300,151,rng,num-start-271,271,365,8.45724892616272,True,,True,1,False,1000,True,1.0
./expes/v2_2020-11-05_dbh_300-prng-1,daily_base_hphc_300,300,first-300,91,rng,num-start-111,111,365,7.927419662475586,True,,True,1,False,1000,True,1.0
./expes/v2_2020-11-05_dbh_300-prng-1,daily_base_hphc_300,300,first-300,51,rng,num-start-31,31,365,1000.7200040817261,False,,False,0,True,1000,True,0.0
./expes/v2_2020-11-05_dbh_300-prng-1,daily_base_hphc_300,300,first-300,11,rng,num-start-241,241,365,6.086978912353516,True,,True,1,False,1000,True,1.0
./expes/v2_2020-11-05_dbh_300-prng-1,daily_base_hphc_300,300,first-300,251,rng,num-start-11,11,365,1000.3561336994171,False,,False,0,True,1000,True,0.0
./expes/v2_2020-11-05_dbh_300-prng-1,daily_base_hphc_300,300,first-300,271,rng,num-start-241,241,365,6.306044101715088,True,,True,1,False,1000,True,1.0
./expes/v2_2020-11-05_dbh_300-prng-1,daily_base_hphc_300,300,first-300,61,rng,num-start-121,121,365,4.192774772644043,True,,True,1,False,1000,True,1.0
./expes/v2_2020-11-05_dbh_300-prng-1,daily_base_hphc_300,300,first-300,131,rng,num-start-241,241,365,8.03566598892212,True,,True,1,False,1000,True,1.0
./expes/v2_2020-11-05_dbh_300-prng-1,daily_base_hphc_300,300,first-300,171,rng,num-start-291,291,365,9.926098585128784,True,,True,1,False,1000,True,1.0
./expes/v2_2020-11-05_dbh_300-prng-1,daily_base_hphc_300,300,first-300,81,rng,num-start-231,231,365,7.084306001663208,True,,True,1,False,1000,True,1.0
./expes/v2_2020-11-05_dbh_300-prng-1,daily_base_hphc_300,300,first-300,111,rng,num-start-231,231,365,7.412153005599976,True,,True,1,False,1000,True,1.0
./expes/v2_2020-11-05_dbh_300-prng-1,daily_base_hphc_300,300,first-300,211,rng,num-start-71,71,365,1001.8314142227173,False,,False,0,True,1000,True,0.0
./expes/v2_2020-11-05_dbh_300-prng-1,daily_base_hphc_300,300,first-300,291,rng,num-start-71,71,365,1.8958990573883057,True,,True,1,False,1000,True,1.0
./expes/v2_2020-11-05_dbh_300-prng-1,daily_base_hphc_300,300,first-300,91,rng,num-start-231,231,365,6.902887344360352,True,,True,1,False,1000,True,1.0
./expes/v2_2020-11-05_dbh_300-prng-1,daily_base_hphc_300,300,first-300,151,rng,num-start-121,121,365,19.715683937072754,True,,True,1,False,1000,True,1.0
./expes/v2_2020-11-05_dbh_300-prng-1,daily_base_hphc_300,300,first-300,41,rng,num-start-171,171,365,5.282634496688843,True,,True,1,False,1000,True,1.0
./expes/v2_2020-11-05_dbh_300-prng-1,daily_base_hphc_300,300,first-300,71,rng,num-start-191,191,365,6.7290027141571045,True,,True,1,False,1000,True,1.0
./expes/v2_2020-11-05_dbh_300-prng-1,daily_base_hphc_300,300,first-300,271,rng,num-start-81,81,365,3.3225924968719482,True,,True,1,False,1000,True,1.0
./expes/v2_2020-11-05_dbh_300-prng-1,daily_base_hphc_300,300,first-300,81,rng,num-start-111,111,365,9.78585410118103,True,,True,1,False,1000,True,1.0
./expes/v2_2020-11-05_dbh_300-prng-1,daily_base_hphc_300,300,first-300,161,rng,num-start-171,171,365,5.613485097885132,True,,True,1,False,1000,True,1.0
./expes/v2_2020-11-05_dbh_300-prng-1,daily_base_hphc_300,300,first-300,281,rng,num-start-221,221,365,5.928573369979858,True,,True,1,False,1000,True,1.0
./expes/v2_2020-11-05_dbh_300-prng-1,daily_base_hphc_300,300,first-300,151,rng,num-start-221,221,365,7.764969348907471,True,,True,1,False,1000,True,1.0
./expes/v2_2020-11-05_dbh_300-prng-1,daily_base_hphc_300,300,first-300,261,rng,num-start-261,261,365,6.972391366958618,True,,True,1,False,1000,True,1.0
./expes/v2_2020-11-05_dbh_300-prng-1,daily_base_hphc_300,300,first-300,271,rng,num-start-251,251,365,6.333203315734863,True,,True,1,False,1000,True,1.0
./expes/v2_2020-11-05_dbh_300-prng-1,daily_base_hphc_300,300,first-300,71,rng,num-start-61,61,365,1001.3616111278534,False,,False,0,True,1000,True,0.0
./expes/v2_2020-11-05_dbh_300-prng-1,daily_base_hphc_300,300,first-300,171,rng,num-start-1,1,365,0.1727757453918457,False,,False,2,False,1000,True,1.0
./expes/v2_2020-11-05_dbh_300-prng-1,daily_base_hphc_300,300,first-300,261,rng,num-start-101,101,365,2.7565836906433105,True,,True,1,False,1000,True,1.0
./expes/v2_2020-11-05_dbh_300-prng-1,daily_base_hphc_300,300,first-300,1,rng,num-start-31,31,365,0.5914599895477295,True,,True,1,False,1000,True,1.0
./expes/v2_2020-11-05_dbh_300-prng-1,daily_base_hphc_300,300,first-300,131,rng,num-start-161,161,365,5.699479818344116,True,,True,1,False,1000,True,1.0
./expes/v2_2020-11-05_dbh_300-prng-1,daily_base_hphc_300,300,first-300,51,rng,num-start-71,71,365,1001.5272266864777,False,,False,0,True,1000,True,0.0
./expes/v2_2020-11-05_dbh_300-prng-1,daily_base_hphc_300,300,first-300,201,rng,num-start-191,191,365,6.554289817810059,True,,True,1,False,1000,True,1.0
./expes/v2_2020-11-05_dbh_300-prng-1,daily_base_hphc_300,300,first-300,91,rng,num-start-141,141,365,4.6078081130981445,True,,True,1,False,1000,True,1.0
./expes/v2_2020-11-05_dbh_300-prng-1,daily_base_hphc_300,300,first-300,21,rng,num-start-61,61,365,2.0993127822875977,True,,True,1,False,1000,True,1.0
./expes/v2_2020-11-05_dbh_300-prng-1,daily_base_hphc_300,300,first-300,51,rng,num-start-41,41,365,1000.8423955440521,False,,False,0,True,1000,True,0.0
./expes/v2_2020-11-05_dbh_300-prng-1,daily_base_hphc_300,300,first-300,241,rng,num-start-291,291,365,8.843101978302002,True,,True,1,False,1000,True,1.0
./expes/v2_2020-11-05_dbh_300-prng-1,daily_base_hphc_300,300,first-300,231,rng,num-start-21,21,365,1000.5403084754944,False,,False,0,True,1000,True,0.0
./expes/v2_2020-11-05_dbh_300-prng-1,daily_base_hphc_300,300,first-300,21,rng,num-start-181,181,365,4.883958578109741,True,,True,1,False,1000,True,1.0
./expes/v2_2020-11-05_dbh_300-prng-1,daily_base_hphc_300,300,first-300,101,rng,num-start-151,151,365,5.008976697921753,True,,True,1,False,1000,True,1.0
./expes/v2_2020-11-05_dbh_300-prng-1,daily_base_hphc_300,300,first-300,221,rng,num-start-11,11,365,1000.3272142410278,False,,False,0,True,1000,True,0.0
./expes/v2_2020-11-05_dbh_300-prng-1,daily_base_hphc_300,300,first-300,21,rng,num-start-101,101,365,3.1189513206481934,True,,True,1,False,1000,True,1.0
./expes/v2_2020-11-05_dbh_300-prng-1,daily_base_hphc_300,300,first-300,211,rng,num-start-91,91,365,1002.0302755832672,False,,False,0,True,1000,True,0.0
./expes/v2_2020-11-05_dbh_300-prng-1,daily_base_hphc_300,300,first-300,11,rng,num-start-111,111,365,2.790658712387085,True,,True,1,False,1000,True,1.0
./expes/v2_2020-11-05_dbh_300-prng-1,daily_base_hphc_300,300,first-300,91,rng,num-start-281,281,365,8.216639280319214,True,,True,1,False,1000,True,1.0
./expes/v2_2020-11-05_dbh_300-prng-1,daily_base_hphc_300,300,first-300,151,rng,num-start-221,221,365,7.587385654449463,True,,True,1,False,1000,True,1.0
./expes/v2_2020-11-05_dbh_300-prng-1,daily_base_hphc_300,300,first-300,281,rng,num-start-61,61,365,1.864074945449829,True,,True,1,False,1000,True,1.0
./expes/v2_2020-11-05_dbh_300-prng-1,daily_base_hphc_300,300,first-300,21,rng,num-start-231,231,365,6.451547145843506,True,,True,1,False,1000,True,1.0
./expes/v2_2020-11-05_dbh_300-prng-1,daily_base_hphc_300,300,first-300,121,rng,num-start-291,291,365,9.885810136795044,True,,True,1,False,1000,True,1.0
./expes/v2_2020-11-05_dbh_300-prng-1,daily_base_hphc_300,300,first-300,61,rng,num-start-221,221,365,6.4315505027771,True,,True,1,False,1000,True,1.0
./expes/v2_2020-11-05_dbh_300-prng-1,daily_base_hphc_300,300,first-300,261,rng,num-start-131,131,365,3.802093744277954,True,,True,1,False,1000,True,1.0
./expes/v2_2020-11-05_dbh_300-prng-1,daily_base_hphc_300,300,first-300,171,rng,num-start-121,121,365,31.48418927192688,True,,True,1,False,1000,True,1.0
./expes/v2_2020-11-05_dbh_300-prng-1,daily_base_hphc_300,300,first-300,251,rng,num-start-271,271,365,7.641454219818115,True,,True,1,False,1000,True,1.0
./expes/v2_2020-11-05_dbh_300-prng-1,daily_base_hphc_300,300,first-300,51,rng,num-start-201,201,365,5.328895092010498,True,,True,1,False,1000,True,1.0
./expes/v2_2020-11-05_dbh_300-prng-1,daily_base_hphc_300,300,first-300,21,rng,num-start-161,161,365,4.679948568344116,True,,True,1,False,1000,True,1.0
./expes/v2_2020-11-05_dbh_300-prng-1,daily_base_hphc_300,300,first-300,211,rng,num-start-31,31,365,1000.7221961021423,False,,False,0,True,1000,True,0.0
./expes/v2_2020-11-05_dbh_300-prng-1,daily_base_hphc_300,300,first-300,171,rng,num-start-11,11,365,1000.3383629322052,False,,False,0,True,1000,True,0.0
./expes/v2_2020-11-05_dbh_300-prng-1,daily_base_hphc_300,300,first-300,71,rng,num-start-141,141,365,4.758840322494507,True,,True,1,False,1000,True,1.0
./expes/v2_2020-11-05_dbh_300-prng-1,daily_base_hphc_300,300,first-300,51,rng,num-start-91,91,365,4.2565062046051025,True,,True,1,False,1000,True,1.0
./expes/v2_2020-11-05_dbh_300-prng-1,daily_base_hphc_300,300,first-300,151,rng,num-start-131,131,365,8.597126007080078,True,,True,1,False,1000,True,1.0
./expes/v2_2020-11-05_dbh_300-prng-1,daily_base_hphc_300,300,first-300,91,rng,num-start-141,141,365,4.9078967571258545,True,,True,1,False,1000,True,1.0
./expes/v2_2020-11-05_dbh_300-prng-1,daily_base_hphc_300,300,first-300,201,rng,num-start-201,201,365,7.260994911193848,True,,True,1,False,1000,True,1.0
./expes/v2_2020-11-05_dbh_300-prng-1,daily_base_hphc_300,300,first-300,51,rng,num-start-51,51,365,1001.1716108322144,False,,False,0,True,1000,True,0.0
./expes/v2_2020-11-05_dbh_300-prng-1,daily_base_hphc_300,300,first-300,91,rng,num-start-191,191,365,6.396338939666748,True,,True,1,False,1000,True,1.0
./expes/v2_2020-11-05_dbh_300-prng-1,daily_base_hphc_300,300,first-300,171,rng,num-start-91,91,365,1001.9424109458923,False,,False,0,True,1000,True,0.0
./expes/v2_2020-11-05_dbh_300-prng-1,daily_base_hphc_300,300,first-300,41,rng,num-start-231,231,365,7.108971118927002,True,,True,1,False,1000,True,1.0
./expes/v2_2020-11-05_dbh_300-prng-1,daily_base_hphc_300,300,first-300,151,rng,num-start-111,111,365,74.88990616798401,True,,True,1,False,1000,True,1.0
./expes/v2_2020-11-05_dbh_300-prng-1,daily_base_hphc_300,300,first-300,211,rng,num-start-191,191,365,6.805711030960083,True,,True,1,False,1000,True,1.0
./expes/v2_2020-11-05_dbh_300-prng-1,daily_base_hphc_300,300,first-300,281,rng,num-start-241,241,365,6.084688186645508,True,,True,1,False,1000,True,1.0
./expes/v2_2020-11-05_dbh_300-prng-1,daily_base_hphc_300,300,first-300,141,rng,num-start-21,21,365,1000.5039160251617,False,,False,0,True,1000,True,0.0
./expes/v2_2020-11-05_dbh_300-prng-1,daily_base_hphc_300,300,first-300,211,rng,num-start-21,21,365,1000.4476726055145,False,,False,0,True,1000,True,0.0
./expes/v2_2020-11-05_dbh_300-prng-1,daily_base_hphc_300,300,first-300,251,rng,num-start-231,231,365,6.569571018218994,True,,True,1,False,1000,True,1.0
./expes/v2_2020-11-05_dbh_300-prng-1,daily_base_hphc_300,300,first-300,131,rng,num-start-131,131,365,11.434779644012451,True,,True,1,False,1000,True,1.0
./expes/v2_2020-11-05_dbh_300-prng-1,daily_base_hphc_300,300,first-300,61,rng,num-start-21,21,365,1000.5647132396698,False,,False,0,True,1000,True,0.0
./expes/v2_2020-11-05_dbh_300-prng-1,daily_base_hphc_300,300,first-300,81,rng,num-start-241,241,365,7.986706972122192,True,,True,1,False,1000,True,1.0
./expes/v2_2020-11-05_dbh_300-prng-1,daily_base_hphc_300,300,first-300,81,rng,num-start-121,121,365,7.692712306976318,True,,True,1,False,1000,True,1.0
./expes/v2_2020-11-05_dbh_300-prng-1,daily_base_hphc_300,300,first-300,181,rng,num-start-291,291,365,9.568277597427368,True,,True,1,False,1000,True,1.0
./expes/v2_2020-11-05_dbh_300-prng-1,daily_base_hphc_300,300,first-300,231,rng,num-start-221,221,365,7.321083307266235,True,,True,1,False,1000,True,1.0
./expes/v2_2020-11-05_dbh_300-prng-1,daily_base_hphc_300,300,first-300,121,rng,num-start-91,91,365,1001.9223575592041,False,,False,0,True,1000,True,0.0
./expes/v2_2020-11-05_dbh_300-prng-1,daily_base_hphc_300,300,first-300,201,rng,num-start-61,61,365,1001.3547155857086,False,,False,0,True,1000,True,0.0
./expes/v2_2020-11-05_dbh_300-prng-1,daily_base_hphc_300,300,first-300,221,rng,num-start-241,241,365,7.7734808921813965,True,,True,1,False,1000,True,1.0
./expes/v2_2020-11-05_dbh_300-prng-1,daily_base_hphc_300,300,first-300,71,rng,num-start-11,11,365,1000.2609724998474,False,,False,0,True,1000,True,0.0
