expe,clients,clients_size,clients_subset,agg_size,method,days,days_size,days_total,time,valid,valid_sum,success,nsols,wall_hit,wall_time,pooled,valid_sums
./expes/v2_2020-11-05_dbh_300-prng-1,daily_base_hphc_300,300,first-300,1,rng,num-start-51,51,365,1.6749091148376465,True,,True,1,False,1000,True,1.0
./expes/v2_2020-11-05_dbh_300-prng-1,daily_base_hphc_300,300,first-300,61,rng,num-start-271,271,365,9.43468976020813,True,,True,1,False,1000,True,1.0
./expes/v2_2020-11-05_dbh_300-prng-1,daily_base_hphc_300,300,first-300,1,rng,num-start-121,121,365,2.5070385932922363,True,,True,1,False,1000,True,1.0
./expes/v2_2020-11-05_dbh_300-prng-1,daily_base_hphc_300,300,first-300,181,rng,num-start-171,171,365,6.133018493652344,True,,True,1,False,1000,True,1.0
./expes/v2_2020-11-05_dbh_300-prng-1,daily_base_hphc_300,300,first-300,291,rng,num-start-111,111,365,3.2231321334838867,True,,True,1,False,1000,True,1.0
./expes/v2_2020-11-05_dbh_300-prng-1,daily_base_hphc_300,300,first-300,71,rng,num-start-51,51,365,1001.1630074977875,False,,False,0,True,1000,True,0.0
./expes/v2_2020-11-05_dbh_300-prng-1,daily_base_hphc_300,300,first-300,291,rng,num-start-111,111,365,3.183025598526001,True,,True,1,False,1000,True,1.0
./expes/v2_2020-11-05_dbh_300-prng-1,daily_base_hphc_300,300,first-300,231,rng,num-start-191,191,365,5.764827013015747,True,,True,1,False,1000,True,1.0
./expes/v2_2020-11-05_dbh_300-prng-1,daily_base_hphc_300,300,first-300,201,rng,num-start-261,261,365,9.620767593383789,True,,True,1,False,1000,True,1.0
./expes/v2_2020-11-05_dbh_300-prng-1,daily_base_hphc_300,300,first-300,281,rng,num-start-211,211,365,5.82807469367981,True,,True,1,False,1000,True,1.0
./expes/v2_2020-11-05_dbh_300-prng-1,daily_base_hphc_300,300,first-300,101,rng,num-start-181,181,365,6.154466867446899,True,,True,1,False,1000,True,1.0
./expes/v2_2020-11-05_dbh_300-prng-1,daily_base_hphc_300,300,first-300,151,rng,num-start-51,51,365,1001.2260529994965,False,,False,0,True,1000,True,0.0
./expes/v2_2020-11-05_dbh_300-prng-1,daily_base_hphc_300,300,first-300,211,rng,num-start-61,61,365,1001.3666262626648,False,,False,0,True,1000,True,0.0
./expes/v2_2020-11-05_dbh_300-prng-1,daily_base_hphc_300,300,first-300,291,rng,num-start-161,161,365,4.014708757400513,True,,True,1,False,1000,True,1.0
./expes/v2_2020-11-05_dbh_300-prng-1,daily_base_hphc_300,300,first-300,171,rng,num-start-201,201,365,7.09023642539978,True,,True,1,False,1000,True,1.0
./expes/v2_2020-11-05_dbh_300-prng-1,daily_base_hphc_300,300,first-300,161,rng,num-start-291,291,365,10.0496244430542,True,,True,1,False,1000,True,1.0
./expes/v2_2020-11-05_dbh_300-prng-1,daily_base_hphc_300,300,first-300,111,rng,num-start-131,131,365,12.60964059829712,True,,True,1,False,1000,True,1.0
./expes/v2_2020-11-05_dbh_300-prng-1,daily_base_hphc_300,300,first-300,201,rng,num-start-191,191,365,6.598396062850952,True,,True,1,False,1000,True,1.0
./expes/v2_2020-11-05_dbh_300-prng-1,daily_base_hphc_300,300,first-300,221,rng,num-start-31,31,365,1000.7293300628662,False,,False,0,True,1000,True,0.0
./expes/v2_2020-11-05_dbh_300-prng-1,daily_base_hphc_300,300,first-300,261,rng,num-start-101,101,365,2.699754476547241,True,,True,1,False,1000,True,1.0
./expes/v2_2020-11-05_dbh_300-prng-1,daily_base_hphc_300,300,first-300,191,rng,num-start-31,31,365,1000.7687020301819,False,,False,0,True,1000,True,0.0
./expes/v2_2020-11-05_dbh_300-prng-1,daily_base_hphc_300,300,first-300,141,rng,num-start-41,41,365,1000.9525656700134,False,,False,0,True,1000,True,0.0
./expes/v2_2020-11-05_dbh_300-prng-1,daily_base_hphc_300,300,first-300,11,rng,num-start-251,251,365,6.469321250915527,True,,True,1,False,1000,True,1.0
./expes/v2_2020-11-05_dbh_300-prng-1,daily_base_hphc_300,300,first-300,81,rng,num-start-151,151,365,4.654122591018677,True,,True,1,False,1000,True,1.0
./expes/v2_2020-11-05_dbh_300-prng-1,daily_base_hphc_300,300,first-300,151,rng,num-start-141,141,365,8.73945140838623,True,,True,1,False,1000,True,1.0
./expes/v2_2020-11-05_dbh_300-prng-1,daily_base_hphc_300,300,first-300,161,rng,num-start-91,91,365,1001.8352282047272,False,,False,0,True,1000,True,0.0
./expes/v2_2020-11-05_dbh_300-prng-1,daily_base_hphc_300,300,first-300,41,rng,num-start-111,111,365,3.3783786296844482,True,,True,1,False,1000,True,1.0
./expes/v2_2020-11-05_dbh_300-prng-1,daily_base_hphc_300,300,first-300,291,rng,num-start-81,81,365,2.154684543609619,True,,True,1,False,1000,True,1.0
./expes/v2_2020-11-05_dbh_300-prng-1,daily_base_hphc_300,300,first-300,111,rng,num-start-41,41,365,1000.9515552520752,False,,False,0,True,1000,True,0.0
./expes/v2_2020-11-05_dbh_300-prng-1,daily_base_hphc_300,300,first-300,221,rng,num-start-21,21,365,1000.4783082008362,False,,False,0,True,1000,True,0.0
./expes/v2_2020-11-05_dbh_300-prng-1,daily_base_hphc_300,300,first-300,161,rng,num-start-151,151,365,5.70053243637085,True,,True,1,False,1000,True,1.0
./expes/v2_2020-11-05_dbh_300-prng-1,daily_base_hphc_300,300,first-300,121,rng,num-start-151,151,365,5.4822986125946045,True,,True,1,False,1000,True,1.0
./expes/v2_2020-11-05_dbh_300-prng-1,daily_base_hphc_300,300,first-300,121,rng,num-start-251,251,365,9.592618942260742,True,,True,1,False,1000,True,1.0
./expes/v2_2020-11-05_dbh_300-prng-1,daily_base_hphc_300,300,first-300,131,rng,num-start-71,71,365,1001.5077903270721,False,,False,0,True,1000,True,0.0
./expes/v2_2020-11-05_dbh_300-prng-1,daily_base_hphc_300,300,first-300,11,rng,num-start-1,1,365,0.05809831619262695,False,,False,2,False,1000,True,1.0
./expes/v2_2020-11-05_dbh_300-prng-1,daily_base_hphc_300,300,first-300,81,rng,num-start-11,11,365,1000.2591969966888,False,,False,0,True,1000,True,0.0
./expes/v2_2020-11-05_dbh_300-prng-1,daily_base_hphc_300,300,first-300,51,rng,num-start-201,201,365,5.8482277393341064,True,,True,1,False,1000,True,1.0
./expes/v2_2020-11-05_dbh_300-prng-1,daily_base_hphc_300,300,first-300,181,rng,num-start-41,41,365,1000.9704282283783,False,,False,0,True,1000,True,0.0
./expes/v2_2020-11-05_dbh_300-prng-1,daily_base_hphc_300,300,first-300,221,rng,num-start-201,201,365,6.323342561721802,True,,True,1,False,1000,True,1.0
./expes/v2_2020-11-05_dbh_300-prng-1,daily_base_hphc_300,300,first-300,161,rng,num-start-211,211,365,7.197009801864624,True,,True,1,False,1000,True,1.0
./expes/v2_2020-11-05_dbh_300-prng-1,daily_base_hphc_300,300,first-300,101,rng,num-start-211,211,365,6.926309823989868,True,,True,1,False,1000,True,1.0
./expes/v2_2020-11-05_dbh_300-prng-1,daily_base_hphc_300,300,first-300,91,rng,num-start-161,161,365,4.950963020324707,True,,True,1,False,1000,True,1.0
./expes/v2_2020-11-05_dbh_300-prng-1,daily_base_hphc_300,300,first-300,221,rng,num-start-191,191,365,6.35167670249939,True,,True,1,False,1000,True,1.0
./expes/v2_2020-11-05_dbh_300-prng-1,daily_base_hphc_300,300,first-300,101,rng,num-start-281,281,365,8.15550422668457,True,,True,1,False,1000,True,1.0
./expes/v2_2020-11-05_dbh_300-prng-1,daily_base_hphc_300,300,first-300,261,rng,num-start-241,241,365,6.4765965938568115,True,,True,1,False,1000,True,1.0
./expes/v2_2020-11-05_dbh_300-prng-1,daily_base_hphc_300,300,first-300,121,rng,num-start-71,71,365,1001.4959280490875,False,,False,0,True,1000,True,0.0
./expes/v2_2020-11-05_dbh_300-prng-1,daily_base_hphc_300,300,first-300,261,rng,num-start-61,61,365,1001.4539501667023,False,,False,0,True,1000,True,0.0
./expes/v2_2020-11-05_dbh_300-prng-1,daily_base_hphc_300,300,first-300,121,rng,num-start-241,241,365,7.9506776332855225,True,,True,1,False,1000,True,1.0
./expes/v2_2020-11-05_dbh_300-prng-1,daily_base_hphc_300,300,first-300,41,rng,num-start-41,41,365,1001.5140864849091,False,,False,0,True,1000,True,0.0
./expes/v2_2020-11-05_dbh_300-prng-1,daily_base_hphc_300,300,first-300,151,rng,num-start-101,101,365,1002.1730682849884,False,,False,0,True,1000,True,0.0
./expes/v2_2020-11-05_dbh_300-prng-1,daily_base_hphc_300,300,first-300,211,rng,num-start-71,71,365,1001.5285670757294,False,,False,0,True,1000,True,0.0
./expes/v2_2020-11-05_dbh_300-prng-1,daily_base_hphc_300,300,first-300,101,rng,num-start-251,251,365,8.781669616699219,True,,True,1,False,1000,True,1.0
./expes/v2_2020-11-05_dbh_300-prng-1,daily_base_hphc_300,300,first-300,31,rng,num-start-11,11,365,1000.2702732086182,False,,False,0,True,1000,True,0.0
./expes/v2_2020-11-05_dbh_300-prng-1,daily_base_hphc_300,300,first-300,11,rng,num-start-121,121,365,3.043450117111206,True,,True,1,False,1000,True,1.0
./expes/v2_2020-11-05_dbh_300-prng-1,daily_base_hphc_300,300,first-300,101,rng,num-start-31,31,365,1000.7334861755371,False,,False,0,True,1000,True,0.0
./expes/v2_2020-11-05_dbh_300-prng-1,daily_base_hphc_300,300,first-300,241,rng,num-start-231,231,365,7.27062463760376,True,,True,1,False,1000,True,1.0
./expes/v2_2020-11-05_dbh_300-prng-1,daily_base_hphc_300,300,first-300,251,rng,num-start-91,91,365,5.030075788497925,True,,True,1,False,1000,True,1.0
./expes/v2_2020-11-05_dbh_300-prng-1,daily_base_hphc_300,300,first-300,221,rng,num-start-251,251,365,7.883490085601807,True,,True,1,False,1000,True,1.0
./expes/v2_2020-11-05_dbh_300-prng-1,daily_base_hphc_300,300,first-300,21,rng,num-start-251,251,365,6.6574318408966064,True,,True,1,False,1000,True,1.0
./expes/v2_2020-11-05_dbh_300-prng-1,daily_base_hphc_300,300,first-300,251,rng,num-start-191,191,365,5.448548078536987,True,,True,1,False,1000,True,1.0
./expes/v2_2020-11-05_dbh_300-prng-1,daily_base_hphc_300,300,first-300,71,rng,num-start-101,101,365,5.1094279289245605,True,,True,1,False,1000,True,1.0
./expes/v2_2020-11-05_dbh_300-prng-1,daily_base_hphc_300,300,first-300,1,rng,num-start-241,241,365,4.934465408325195,True,,True,1,False,1000,True,1.0
./expes/v2_2020-11-05_dbh_300-prng-1,daily_base_hphc_300,300,first-300,121,rng,num-start-141,141,365,4.523623943328857,True,,True,1,False,1000,True,1.0
./expes/v2_2020-11-05_dbh_300-prng-1,daily_base_hphc_300,300,first-300,111,rng,num-start-81,81,365,1001.7833948135376,False,,False,0,True,1000,True,0.0
./expes/v2_2020-11-05_dbh_300-prng-1,daily_base_hphc_300,300,first-300,281,rng,num-start-141,141,365,3.870723247528076,True,,True,1,False,1000,True,1.0
./expes/v2_2020-11-05_dbh_300-prng-1,daily_base_hphc_300,300,first-300,231,rng,num-start-41,41,365,1000.9528019428253,False,,False,0,True,1000,True,0.0
./expes/v2_2020-11-05_dbh_300-prng-1,daily_base_hphc_300,300,first-300,71,rng,num-start-171,171,365,5.6248908042907715,True,,True,1,False,1000,True,1.0
./expes/v2_2020-11-05_dbh_300-prng-1,daily_base_hphc_300,300,first-300,101,rng,num-start-51,51,365,1001.5624434947968,False,,False,0,True,1000,True,0.0
./expes/v2_2020-11-05_dbh_300-prng-1,daily_base_hphc_300,300,first-300,161,rng,num-start-111,111,365,1002.4013817310333,False,,False,0,True,1000,True,0.0
./expes/v2_2020-11-05_dbh_300-prng-1,daily_base_hphc_300,300,first-300,61,rng,num-start-261,261,365,8.493942260742188,True,,True,1,False,1000,True,1.0
./expes/v2_2020-11-05_dbh_300-prng-1,daily_base_hphc_300,300,first-300,111,rng,num-start-291,291,365,10.126924514770508,True,,True,1,False,1000,True,1.0
./expes/v2_2020-11-05_dbh_300-prng-1,daily_base_hphc_300,300,first-300,261,rng,num-start-261,261,365,7.335129261016846,True,,True,1,False,1000,True,1.0
./expes/v2_2020-11-05_dbh_300-prng-1,daily_base_hphc_300,300,first-300,231,rng,num-start-251,251,365,6.839863538742065,True,,True,1,False,1000,True,1.0
./expes/v2_2020-11-05_dbh_300-prng-1,daily_base_hphc_300,300,first-300,101,rng,num-start-21,21,365,1000.4544961452484,False,,False,0,True,1000,True,0.0
./expes/v2_2020-11-05_dbh_300-prng-1,daily_base_hphc_300,300,first-300,51,rng,num-start-181,181,365,5.167578458786011,True,,True,1,False,1000,True,1.0
./expes/v2_2020-11-05_dbh_300-prng-1,daily_base_hphc_300,300,first-300,261,rng,num-start-21,21,365,1000.6971364021301,False,,False,0,True,1000,True,0.0
./expes/v2_2020-11-05_dbh_300-prng-1,daily_base_hphc_300,300,first-300,1,rng,num-start-271,271,365,5.572505712509155,True,,True,1,False,1000,True,1.0
./expes/v2_2020-11-05_dbh_300-prng-1,daily_base_hphc_300,300,first-300,221,rng,num-start-11,11,365,1000.3710832595825,False,,False,0,True,1000,True,0.0
./expes/v2_2020-11-05_dbh_300-prng-1,daily_base_hphc_300,300,first-300,61,rng,num-start-121,121,365,3.859705686569214,True,,True,1,False,1000,True,1.0
./expes/v2_2020-11-05_dbh_300-prng-1,daily_base_hphc_300,300,first-300,1,rng,num-start-1,1,365,0.026637554168701172,True,,True,1,False,1000,True,1.0
./expes/v2_2020-11-05_dbh_300-prng-1,daily_base_hphc_300,300,first-300,81,rng,num-start-141,141,365,5.042653560638428,True,,True,1,False,1000,True,1.0
./expes/v2_2020-11-05_dbh_300-prng-1,daily_base_hphc_300,300,first-300,161,rng,num-start-271,271,365,9.131583213806152,True,,True,1,False,1000,True,1.0
./expes/v2_2020-11-05_dbh_300-prng-1,daily_base_hphc_300,300,first-300,91,rng,num-start-91,91,365,1002.0629351139069,False,,False,0,True,1000,True,0.0
./expes/v2_2020-11-05_dbh_300-prng-1,daily_base_hphc_300,300,first-300,251,rng,num-start-61,61,365,1001.6007149219513,False,,False,0,True,1000,True,0.0
./expes/v2_2020-11-05_dbh_300-prng-1,daily_base_hphc_300,300,first-300,1,rng,num-start-1,1,365,0.029722213745117188,True,,True,1,False,1000,True,1.0
./expes/v2_2020-11-05_dbh_300-prng-1,daily_base_hphc_300,300,first-300,231,rng,num-start-31,31,365,1000.8439884185791,False,,False,0,True,1000,True,0.0
./expes/v2_2020-11-05_dbh_300-prng-1,daily_base_hphc_300,300,first-300,261,rng,num-start-101,101,365,2.8152875900268555,True,,True,1,False,1000,True,1.0
./expes/v2_2020-11-05_dbh_300-prng-1,daily_base_hphc_300,300,first-300,271,rng,num-start-1,1,365,0.09622550010681152,False,,False,2,False,1000,True,1.0
./expes/v2_2020-11-05_dbh_300-prng-1,daily_base_hphc_300,300,first-300,71,rng,num-start-71,71,365,1001.4426653385162,False,,False,0,True,1000,True,0.0
./expes/v2_2020-11-05_dbh_300-prng-1,daily_base_hphc_300,300,first-300,191,rng,num-start-181,181,365,6.306699514389038,True,,True,1,False,1000,True,1.0
./expes/v2_2020-11-05_dbh_300-prng-1,daily_base_hphc_300,300,first-300,221,rng,num-start-51,51,365,1001.1857600212097,False,,False,0,True,1000,True,0.0
./expes/v2_2020-11-05_dbh_300-prng-1,daily_base_hphc_300,300,first-300,221,rng,num-start-241,241,365,6.378751039505005,True,,True,1,False,1000,True,1.0
./expes/v2_2020-11-05_dbh_300-prng-1,daily_base_hphc_300,300,first-300,1,rng,num-start-81,81,365,1.664586067199707,True,,True,1,False,1000,True,1.0
./expes/v2_2020-11-05_dbh_300-prng-1,daily_base_hphc_300,300,first-300,171,rng,num-start-211,211,365,7.225631475448608,True,,True,1,False,1000,True,1.0
./expes/v2_2020-11-05_dbh_300-prng-1,daily_base_hphc_300,300,first-300,81,rng,num-start-121,121,365,9.30264925956726,True,,True,1,False,1000,True,1.0
./expes/v2_2020-11-05_dbh_300-prng-1,daily_base_hphc_300,300,first-300,211,rng,num-start-221,221,365,7.034792184829712,True,,True,1,False,1000,True,1.0
./expes/v2_2020-11-05_dbh_300-prng-1,daily_base_hphc_300,300,first-300,61,rng,num-start-91,91,365,12.502699375152588,True,,True,1,False,1000,True,1.0
./expes/v2_2020-11-05_dbh_300-prng-1,daily_base_hphc_300,300,first-300,181,rng,num-start-1,1,365,0.9070844650268555,False,,False,2,False,1000,True,1.0
./expes/v2_2020-11-05_dbh_300-prng-1,daily_base_hphc_300,300,first-300,191,rng,num-start-121,121,365,8.961653470993042,True,,True,1,False,1000,True,1.0
./expes/v2_2020-11-05_dbh_300-prng-1,daily_base_hphc_300,300,first-300,71,rng,num-start-31,31,365,1000.696161031723,False,,False,0,True,1000,True,0.0
./expes/v2_2020-11-05_dbh_300-prng-1,daily_base_hphc_300,300,first-300,1,rng,num-start-121,121,365,2.4410595893859863,True,,True,1,False,1000,True,1.0
./expes/v2_2020-11-05_dbh_300-prng-1,daily_base_hphc_300,300,first-300,111,rng,num-start-241,241,365,8.238521337509155,True,,True,1,False,1000,True,1.0
./expes/v2_2020-11-05_dbh_300-prng-1,daily_base_hphc_300,300,first-300,131,rng,num-start-291,291,365,9.43730640411377,True,,True,1,False,1000,True,1.0
./expes/v2_2020-11-05_dbh_300-prng-1,daily_base_hphc_300,300,first-300,71,rng,num-start-241,241,365,8.010540008544922,True,,True,1,False,1000,True,1.0
./expes/v2_2020-11-05_dbh_300-prng-1,daily_base_hphc_300,300,first-300,61,rng,num-start-171,171,365,4.728780508041382,True,,True,1,False,1000,True,1.0
./expes/v2_2020-11-05_dbh_300-prng-1,daily_base_hphc_300,300,first-300,171,rng,num-start-71,71,365,1001.5472178459167,False,,False,0,True,1000,True,0.0
./expes/v2_2020-11-05_dbh_300-prng-1,daily_base_hphc_300,300,first-300,31,rng,num-start-11,11,365,1000.3674027919769,False,,False,0,True,1000,True,0.0
./expes/v2_2020-11-05_dbh_300-prng-1,daily_base_hphc_300,300,first-300,61,rng,num-start-201,201,365,6.549182415008545,True,,True,1,False,1000,True,1.0
./expes/v2_2020-11-05_dbh_300-prng-1,daily_base_hphc_300,300,first-300,221,rng,num-start-81,81,365,1001.7228720188141,False,,False,0,True,1000,True,0.0
./expes/v2_2020-11-05_dbh_300-prng-1,daily_base_hphc_300,300,first-300,131,rng,num-start-241,241,365,8.388487577438354,True,,True,1,False,1000,True,1.0
./expes/v2_2020-11-05_dbh_300-prng-1,daily_base_hphc_300,300,first-300,221,rng,num-start-111,111,365,20.366674184799194,True,,True,1,False,1000,True,1.0
./expes/v2_2020-11-05_dbh_300-prng-1,daily_base_hphc_300,300,first-300,251,rng,num-start-201,201,365,5.713330984115601,True,,True,1,False,1000,True,1.0
./expes/v2_2020-11-05_dbh_300-prng-1,daily_base_hphc_300,300,first-300,71,rng,num-start-181,181,365,6.189915418624878,True,,True,1,False,1000,True,1.0
./expes/v2_2020-11-05_dbh_300-prng-1,daily_base_hphc_300,300,first-300,21,rng,num-start-11,11,365,1000.7665314674377,False,,False,0,True,1000,True,0.0
./expes/v2_2020-11-05_dbh_300-prng-1,daily_base_hphc_300,300,first-300,81,rng,num-start-61,61,365,1001.307516336441,False,,False,0,True,1000,True,0.0
./expes/v2_2020-11-05_dbh_300-prng-1,daily_base_hphc_300,300,first-300,121,rng,num-start-281,281,365,9.005738973617554,True,,True,1,False,1000,True,1.0
./expes/v2_2020-11-05_dbh_300-prng-1,daily_base_hphc_300,300,first-300,271,rng,num-start-281,281,365,7.31574010848999,True,,True,1,False,1000,True,1.0
./expes/v2_2020-11-05_dbh_300-prng-1,daily_base_hphc_300,300,first-300,1,rng,num-start-71,71,365,1.4411678314208984,True,,True,1,False,1000,True,1.0
./expes/v2_2020-11-05_dbh_300-prng-1,daily_base_hphc_300,300,first-300,271,rng,num-start-141,141,365,4.058518648147583,True,,True,1,False,1000,True,1.0
./expes/v2_2020-11-05_dbh_300-prng-1,daily_base_hphc_300,300,first-300,81,rng,num-start-91,91,365,429.7003507614136,True,,True,1,False,1000,True,1.0
./expes/v2_2020-11-05_dbh_300-prng-1,daily_base_hphc_300,300,first-300,281,rng,num-start-271,271,365,6.7490620613098145,True,,True,1,False,1000,True,1.0
./expes/v2_2020-11-05_dbh_300-prng-1,daily_base_hphc_300,300,first-300,291,rng,num-start-101,101,365,2.553748369216919,True,,True,1,False,1000,True,1.0
./expes/v2_2020-11-05_dbh_300-prng-1,daily_base_hphc_300,300,first-300,251,rng,num-start-261,261,365,7.786361217498779,True,,True,1,False,1000,True,1.0
./expes/v2_2020-11-05_dbh_300-prng-1,daily_base_hphc_300,300,first-300,221,rng,num-start-191,191,365,6.159745931625366,True,,True,1,False,1000,True,1.0
./expes/v2_2020-11-05_dbh_300-prng-1,daily_base_hphc_300,300,first-300,101,rng,num-start-31,31,365,1000.6556560993195,False,,False,0,True,1000,True,0.0
./expes/v2_2020-11-05_dbh_300-prng-1,daily_base_hphc_300,300,first-300,71,rng,num-start-141,141,365,4.783365726470947,True,,True,1,False,1000,True,1.0
./expes/v2_2020-11-05_dbh_300-prng-1,daily_base_hphc_300,300,first-300,231,rng,num-start-1,1,365,0.08587932586669922,False,,False,2,False,1000,True,1.0
./expes/v2_2020-11-05_dbh_300-prng-1,daily_base_hphc_300,300,first-300,131,rng,num-start-91,91,365,1001.8345053195953,False,,False,0,True,1000,True,0.0
./expes/v2_2020-11-05_dbh_300-prng-1,daily_base_hphc_300,300,first-300,201,rng,num-start-131,131,365,6.720169544219971,True,,True,1,False,1000,True,1.0
./expes/v2_2020-11-05_dbh_300-prng-1,daily_base_hphc_300,300,first-300,121,rng,num-start-11,11,365,1000.2646152973175,False,,False,0,True,1000,True,0.0
./expes/v2_2020-11-05_dbh_300-prng-1,daily_base_hphc_300,300,first-300,71,rng,num-start-271,271,365,8.800235271453857,True,,True,1,False,1000,True,1.0
./expes/v2_2020-11-05_dbh_300-prng-1,daily_base_hphc_300,300,first-300,201,rng,num-start-21,21,365,1000.513377904892,False,,False,0,True,1000,True,0.0
./expes/v2_2020-11-05_dbh_300-prng-1,daily_base_hphc_300,300,first-300,1,rng,num-start-271,271,365,5.5554234981536865,True,,True,1,False,1000,True,1.0
./expes/v2_2020-11-05_dbh_300-prng-1,daily_base_hphc_300,300,first-300,71,rng,num-start-61,61,365,1001.4984893798828,False,,False,0,True,1000,True,0.0
./expes/v2_2020-11-05_dbh_300-prng-1,daily_base_hphc_300,300,first-300,91,rng,num-start-11,11,365,1000.3508179187775,False,,False,0,True,1000,True,0.0
./expes/v2_2020-11-05_dbh_300-prng-1,daily_base_hphc_300,300,first-300,121,rng,num-start-41,41,365,1000.9472515583038,False,,False,0,True,1000,True,0.0
./expes/v2_2020-11-05_dbh_300-prng-1,daily_base_hphc_300,300,first-300,91,rng,num-start-141,141,365,5.309014558792114,True,,True,1,False,1000,True,1.0
./expes/v2_2020-11-05_dbh_300-prng-1,daily_base_hphc_300,300,first-300,41,rng,num-start-231,231,365,6.000237703323364,True,,True,1,False,1000,True,1.0
./expes/v2_2020-11-05_dbh_300-prng-1,daily_base_hphc_300,300,first-300,261,rng,num-start-261,261,365,7.168215036392212,True,,True,1,False,1000,True,1.0
./expes/v2_2020-11-05_dbh_300-prng-1,daily_base_hphc_300,300,first-300,231,rng,num-start-51,51,365,1001.1548759937286,False,,False,0,True,1000,True,0.0
./expes/v2_2020-11-05_dbh_300-prng-1,daily_base_hphc_300,300,first-300,71,rng,num-start-221,221,365,6.941857576370239,True,,True,1,False,1000,True,1.0
./expes/v2_2020-11-05_dbh_300-prng-1,daily_base_hphc_300,300,first-300,201,rng,num-start-191,191,365,6.002631902694702,True,,True,1,False,1000,True,1.0
./expes/v2_2020-11-05_dbh_300-prng-1,daily_base_hphc_300,300,first-300,21,rng,num-start-91,91,365,2.5775671005249023,True,,True,1,False,1000,True,1.0
./expes/v2_2020-11-05_dbh_300-prng-1,daily_base_hphc_300,300,first-300,161,rng,num-start-251,251,365,8.783969163894653,True,,True,1,False,1000,True,1.0
./expes/v2_2020-11-05_dbh_300-prng-1,daily_base_hphc_300,300,first-300,181,rng,num-start-191,191,365,6.489461898803711,True,,True,1,False,1000,True,1.0
./expes/v2_2020-11-05_dbh_300-prng-1,daily_base_hphc_300,300,first-300,211,rng,num-start-141,141,365,4.881330728530884,True,,True,1,False,1000,True,1.0
./expes/v2_2020-11-05_dbh_300-prng-1,daily_base_hphc_300,300,first-300,211,rng,num-start-1,1,365,1.2239832878112793,False,,False,2,False,1000,True,1.0
./expes/v2_2020-11-05_dbh_300-prng-1,daily_base_hphc_300,300,first-300,101,rng,num-start-21,21,365,1000.4891316890717,False,,False,0,True,1000,True,0.0
./expes/v2_2020-11-05_dbh_300-prng-1,daily_base_hphc_300,300,first-300,121,rng,num-start-281,281,365,9.579409122467041,True,,True,1,False,1000,True,1.0
./expes/v2_2020-11-05_dbh_300-prng-1,daily_base_hphc_300,300,first-300,161,rng,num-start-121,121,365,11.729345083236694,True,,True,1,False,1000,True,1.0
./expes/v2_2020-11-05_dbh_300-prng-1,daily_base_hphc_300,300,first-300,81,rng,num-start-71,71,365,1001.5168600082397,False,,False,0,True,1000,True,0.0
./expes/v2_2020-11-05_dbh_300-prng-1,daily_base_hphc_300,300,first-300,141,rng,num-start-111,111,365,1002.3921585083008,False,,False,0,True,1000,True,0.0
./expes/v2_2020-11-05_dbh_300-prng-1,daily_base_hphc_300,300,first-300,221,rng,num-start-211,211,365,6.4969706535339355,True,,True,1,False,1000,True,1.0
./expes/v2_2020-11-05_dbh_300-prng-1,daily_base_hphc_300,300,first-300,41,rng,num-start-191,191,365,6.437561750411987,True,,True,1,False,1000,True,1.0
./expes/v2_2020-11-05_dbh_300-prng-1,daily_base_hphc_300,300,first-300,271,rng,num-start-181,181,365,4.983557939529419,True,,True,1,False,1000,True,1.0
./expes/v2_2020-11-05_dbh_300-prng-1,daily_base_hphc_300,300,first-300,191,rng,num-start-61,61,365,1001.380078792572,False,,False,0,True,1000,True,0.0
./expes/v2_2020-11-05_dbh_300-prng-1,daily_base_hphc_300,300,first-300,211,rng,num-start-221,221,365,6.763277053833008,True,,True,1,False,1000,True,1.0
./expes/v2_2020-11-05_dbh_300-prng-1,daily_base_hphc_300,300,first-300,61,rng,num-start-291,291,365,9.357279539108276,True,,True,1,False,1000,True,1.0
./expes/v2_2020-11-05_dbh_300-prng-1,daily_base_hphc_300,300,first-300,211,rng,num-start-101,101,365,1002.1210882663727,False,,False,0,True,1000,True,0.0
./expes/v2_2020-11-05_dbh_300-prng-1,daily_base_hphc_300,300,first-300,261,rng,num-start-141,141,365,3.774991989135742,True,,True,1,False,1000,True,1.0
./expes/v2_2020-11-05_dbh_300-prng-1,daily_base_hphc_300,300,first-300,1,rng,num-start-51,51,365,1.0144398212432861,True,,True,1,False,1000,True,1.0
./expes/v2_2020-11-05_dbh_300-prng-1,daily_base_hphc_300,300,first-300,71,rng,num-start-221,221,365,6.023611783981323,True,,True,1,False,1000,True,1.0
./expes/v2_2020-11-05_dbh_300-prng-1,daily_base_hphc_300,300,first-300,91,rng,num-start-271,271,365,7.852796316146851,True,,True,1,False,1000,True,1.0
./expes/v2_2020-11-05_dbh_300-prng-1,daily_base_hphc_300,300,first-300,191,rng,num-start-251,251,365,8.289013624191284,True,,True,1,False,1000,True,1.0
./expes/v2_2020-11-05_dbh_300-prng-1,daily_base_hphc_300,300,first-300,291,rng,num-start-201,201,365,4.900803565979004,True,,True,1,False,1000,True,1.0
./expes/v2_2020-11-05_dbh_300-prng-1,daily_base_hphc_300,300,first-300,281,rng,num-start-51,51,365,2.1062734127044678,True,,True,1,False,1000,True,1.0
./expes/v2_2020-11-05_dbh_300-prng-1,daily_base_hphc_300,300,first-300,61,rng,num-start-291,291,365,9.288974046707153,True,,True,1,False,1000,True,1.0
./expes/v2_2020-11-05_dbh_300-prng-1,daily_base_hphc_300,300,first-300,291,rng,num-start-1,1,365,0.045857906341552734,False,,False,2,False,1000,True,1.0
./expes/v2_2020-11-05_dbh_300-prng-1,daily_base_hphc_300,300,first-300,251,rng,num-start-171,171,365,4.8661582469940186,True,,True,1,False,1000,True,1.0
./expes/v2_2020-11-05_dbh_300-prng-1,daily_base_hphc_300,300,first-300,171,rng,num-start-181,181,365,6.304141521453857,True,,True,1,False,1000,True,1.0
./expes/v2_2020-11-05_dbh_300-prng-1,daily_base_hphc_300,300,first-300,291,rng,num-start-121,121,365,3.1545677185058594,True,,True,1,False,1000,True,1.0
./expes/v2_2020-11-05_dbh_300-prng-1,daily_base_hphc_300,300,first-300,261,rng,num-start-191,191,365,5.449063539505005,True,,True,1,False,1000,True,1.0
./expes/v2_2020-11-05_dbh_300-prng-1,daily_base_hphc_300,300,first-300,111,rng,num-start-151,151,365,4.844177722930908,True,,True,1,False,1000,True,1.0
./expes/v2_2020-11-05_dbh_300-prng-1,daily_base_hphc_300,300,first-300,61,rng,num-start-11,11,365,1000.2732436656952,False,,False,0,True,1000,True,0.0
./expes/v2_2020-11-05_dbh_300-prng-1,daily_base_hphc_300,300,first-300,281,rng,num-start-91,91,365,2.651071786880493,True,,True,1,False,1000,True,1.0
./expes/v2_2020-11-05_dbh_300-prng-1,daily_base_hphc_300,300,first-300,61,rng,num-start-161,161,365,5.295565843582153,True,,True,1,False,1000,True,1.0
./expes/v2_2020-11-05_dbh_300-prng-1,daily_base_hphc_300,300,first-300,211,rng,num-start-91,91,365,1001.9399564266205,False,,False,0,True,1000,True,0.0
./expes/v2_2020-11-05_dbh_300-prng-1,daily_base_hphc_300,300,first-300,81,rng,num-start-61,61,365,1001.2890079021454,False,,False,0,True,1000,True,0.0
./expes/v2_2020-11-05_dbh_300-prng-1,daily_base_hphc_300,300,first-300,91,rng,num-start-181,181,365,5.903985023498535,True,,True,1,False,1000,True,1.0
./expes/v2_2020-11-05_dbh_300-prng-1,daily_base_hphc_300,300,first-300,91,rng,num-start-11,11,365,1000.4007377624512,False,,False,0,True,1000,True,0.0
./expes/v2_2020-11-05_dbh_300-prng-1,daily_base_hphc_300,300,first-300,291,rng,num-start-241,241,365,5.790312051773071,True,,True,1,False,1000,True,1.0
./expes/v2_2020-11-05_dbh_300-prng-1,daily_base_hphc_300,300,first-300,21,rng,num-start-291,291,365,8.025336027145386,True,,True,1,False,1000,True,1.0
./expes/v2_2020-11-05_dbh_300-prng-1,daily_base_hphc_300,300,first-300,111,rng,num-start-171,171,365,5.846697092056274,True,,True,1,False,1000,True,1.0
./expes/v2_2020-11-05_dbh_300-prng-1,daily_base_hphc_300,300,first-300,81,rng,num-start-71,71,365,1001.6866230964661,False,,False,0,True,1000,True,0.0
./expes/v2_2020-11-05_dbh_300-prng-1,daily_base_hphc_300,300,first-300,251,rng,num-start-221,221,365,6.181406497955322,True,,True,1,False,1000,True,1.0
./expes/v2_2020-11-05_dbh_300-prng-1,daily_base_hphc_300,300,first-300,251,rng,num-start-151,151,365,4.50596284866333,True,,True,1,False,1000,True,1.0
./expes/v2_2020-11-05_dbh_300-prng-1,daily_base_hphc_300,300,first-300,121,rng,num-start-171,171,365,6.180373191833496,True,,True,1,False,1000,True,1.0
./expes/v2_2020-11-05_dbh_300-prng-1,daily_base_hphc_300,300,first-300,281,rng,num-start-261,261,365,6.713568925857544,True,,True,1,False,1000,True,1.0
./expes/v2_2020-11-05_dbh_300-prng-1,daily_base_hphc_300,300,first-300,291,rng,num-start-41,41,365,1.0628232955932617,True,,True,1,False,1000,True,1.0
./expes/v2_2020-11-05_dbh_300-prng-1,daily_base_hphc_300,300,first-300,181,rng,num-start-61,61,365,1001.4107899665833,False,,False,0,True,1000,True,0.0
./expes/v2_2020-11-05_dbh_300-prng-1,daily_base_hphc_300,300,first-300,21,rng,num-start-281,281,365,7.199350118637085,True,,True,1,False,1000,True,1.0
./expes/v2_2020-11-05_dbh_300-prng-1,daily_base_hphc_300,300,first-300,101,rng,num-start-291,291,365,9.928699016571045,True,,True,1,False,1000,True,1.0
./expes/v2_2020-11-05_dbh_300-prng-1,daily_base_hphc_300,300,first-300,211,rng,num-start-61,61,365,1001.4516491889954,False,,False,0,True,1000,True,0.0
./expes/v2_2020-11-05_dbh_300-prng-1,daily_base_hphc_300,300,first-300,121,rng,num-start-121,121,365,18.339688062667847,True,,True,1,False,1000,True,1.0
./expes/v2_2020-11-05_dbh_300-prng-1,daily_base_hphc_300,300,first-300,151,rng,num-start-261,261,365,8.691189289093018,True,,True,1,False,1000,True,1.0
./expes/v2_2020-11-05_dbh_300-prng-1,daily_base_hphc_300,300,first-300,231,rng,num-start-231,231,365,7.822574138641357,True,,True,1,False,1000,True,1.0
./expes/v2_2020-11-05_dbh_300-prng-1,daily_base_hphc_300,300,first-300,141,rng,num-start-271,271,365,9.509296655654907,True,,True,1,False,1000,True,1.0
./expes/v2_2020-11-05_dbh_300-prng-1,daily_base_hphc_300,300,first-300,281,rng,num-start-101,101,365,2.5576224327087402,True,,True,1,False,1000,True,1.0
./expes/v2_2020-11-05_dbh_300-prng-1,daily_base_hphc_300,300,first-300,161,rng,num-start-141,141,365,5.30181097984314,True,,True,1,False,1000,True,1.0
./expes/v2_2020-11-05_dbh_300-prng-1,daily_base_hphc_300,300,first-300,291,rng,num-start-11,11,365,1000.3061997890472,False,,False,0,True,1000,True,0.0
./expes/v2_2020-11-05_dbh_300-prng-1,daily_base_hphc_300,300,first-300,201,rng,num-start-121,121,365,4.089190721511841,True,,True,1,False,1000,True,1.0
./expes/v2_2020-11-05_dbh_300-prng-1,daily_base_hphc_300,300,first-300,41,rng,num-start-201,201,365,5.376661777496338,True,,True,1,False,1000,True,1.0
./expes/v2_2020-11-05_dbh_300-prng-1,daily_base_hphc_300,300,first-300,231,rng,num-start-61,61,365,1001.2759375572205,False,,False,0,True,1000,True,0.0
./expes/v2_2020-11-05_dbh_300-prng-1,daily_base_hphc_300,300,first-300,271,rng,num-start-91,91,365,2.4688680171966553,True,,True,1,False,1000,True,1.0
./expes/v2_2020-11-05_dbh_300-prng-1,daily_base_hphc_300,300,first-300,111,rng,num-start-81,81,365,1001.8131880760193,False,,False,0,True,1000,True,0.0
./expes/v2_2020-11-05_dbh_300-prng-1,daily_base_hphc_300,300,first-300,101,rng,num-start-181,181,365,6.1060662269592285,True,,True,1,False,1000,True,1.0
./expes/v2_2020-11-05_dbh_300-prng-1,daily_base_hphc_300,300,first-300,211,rng,num-start-121,121,365,7.9097864627838135,True,,True,1,False,1000,True,1.0
./expes/v2_2020-11-05_dbh_300-prng-1,daily_base_hphc_300,300,first-300,151,rng,num-start-291,291,365,10.330124378204346,True,,True,1,False,1000,True,1.0
./expes/v2_2020-11-05_dbh_300-prng-1,daily_base_hphc_300,300,first-300,121,rng,num-start-81,81,365,1001.6941974163055,False,,False,0,True,1000,True,0.0
./expes/v2_2020-11-05_dbh_300-prng-1,daily_base_hphc_300,300,first-300,191,rng,num-start-171,171,365,5.310864210128784,True,,True,1,False,1000,True,1.0
./expes/v2_2020-11-05_dbh_300-prng-1,daily_base_hphc_300,300,first-300,131,rng,num-start-241,241,365,8.047348022460938,True,,True,1,False,1000,True,1.0
./expes/v2_2020-11-05_dbh_300-prng-1,daily_base_hphc_300,300,first-300,131,rng,num-start-271,271,365,9.554222583770752,True,,True,1,False,1000,True,1.0
./expes/v2_2020-11-05_dbh_300-prng-1,daily_base_hphc_300,300,first-300,111,rng,num-start-271,271,365,9.523515939712524,True,,True,1,False,1000,True,1.0
./expes/v2_2020-11-05_dbh_300-prng-1,daily_base_hphc_300,300,first-300,141,rng,num-start-41,41,365,1000.9407894611359,False,,False,0,True,1000,True,0.0
./expes/v2_2020-11-05_dbh_300-prng-1,daily_base_hphc_300,300,first-300,1,rng,num-start-161,161,365,3.2246954441070557,True,,True,1,False,1000,True,1.0
./expes/v2_2020-11-05_dbh_300-prng-1,daily_base_hphc_300,300,first-300,21,rng,num-start-71,71,365,1.9091522693634033,True,,True,1,False,1000,True,1.0
./expes/v2_2020-11-05_dbh_300-prng-1,daily_base_hphc_300,300,first-300,71,rng,num-start-21,21,365,1000.5760185718536,False,,False,0,True,1000,True,0.0
./expes/v2_2020-11-05_dbh_300-prng-1,daily_base_hphc_300,300,first-300,61,rng,num-start-91,91,365,121.54974961280823,True,,True,1,False,1000,True,1.0
./expes/v2_2020-11-05_dbh_300-prng-1,daily_base_hphc_300,300,first-300,171,rng,num-start-81,81,365,1001.7340140342712,False,,False,0,True,1000,True,0.0
