expe,clients,clients_size,clients_subset,agg_size,method,days,days_size,days_total,time,valid,valid_sum,success,nsols,wall_hit,wall_time,pooled,valid_sums
./expes/v2_2020-12-01_di_200-prng-1,daily_issda_200,200,rng-200,61,rng,num-start-211,211,536,4.4295494556427,True,,True,1,False,1000,True,1.0
./expes/v2_2020-12-01_di_200-prng-1,daily_issda_200,200,rng-200,31,rng,num-start-171,171,536,3.75350284576416,True,,True,1,False,1000,True,1.0
./expes/v2_2020-12-01_di_200-prng-1,daily_issda_200,200,rng-200,21,rng,num-start-191,191,536,4.482802629470825,True,,True,1,False,1000,True,1.0
./expes/v2_2020-12-01_di_200-prng-1,daily_issda_200,200,rng-200,141,rng,num-start-151,151,536,3.380072593688965,True,,True,1,False,1000,True,1.0
./expes/v2_2020-12-01_di_200-prng-1,daily_issda_200,200,rng-200,101,rng,num-start-61,61,536,1001.3534138202667,False,,False,0,True,1000,True,0.0
./expes/v2_2020-12-01_di_200-prng-1,daily_issda_200,200,rng-200,81,rng,num-start-1,1,536,0.6189475059509277,False,,False,2,False,1000,True,1.0
./expes/v2_2020-12-01_di_200-prng-1,daily_issda_200,200,rng-200,21,rng,num-start-291,291,536,5.850069999694824,True,,True,1,False,1000,True,1.0
./expes/v2_2020-12-01_di_200-prng-1,daily_issda_200,200,rng-200,101,rng,num-start-101,101,536,2.471029281616211,True,,True,1,False,1000,True,1.0
./expes/v2_2020-12-01_di_200-prng-1,daily_issda_200,200,rng-200,11,rng,num-start-121,121,536,2.7918055057525635,True,,True,1,False,1000,True,1.0
./expes/v2_2020-12-01_di_200-prng-1,daily_issda_200,200,rng-200,41,rng,num-start-131,131,536,3.105679750442505,True,,True,1,False,1000,True,1.0
./expes/v2_2020-12-01_di_200-prng-1,daily_issda_200,200,rng-200,51,rng,num-start-91,91,536,2.256265640258789,True,,True,1,False,1000,True,1.0
./expes/v2_2020-12-01_di_200-prng-1,daily_issda_200,200,rng-200,81,rng,num-start-31,31,536,1000.8708260059357,False,,False,0,True,1000,True,0.0
./expes/v2_2020-12-01_di_200-prng-1,daily_issda_200,200,rng-200,11,rng,num-start-21,21,536,37.55588412284851,True,,True,1,False,1000,True,1.0
./expes/v2_2020-12-01_di_200-prng-1,daily_issda_200,200,rng-200,121,rng,num-start-241,241,536,5.478904724121094,True,,True,1,False,1000,True,1.0
./expes/v2_2020-12-01_di_200-prng-1,daily_issda_200,200,rng-200,1,rng,num-start-211,211,536,4.053514719009399,True,,True,1,False,1000,True,1.0
./expes/v2_2020-12-01_di_200-prng-1,daily_issda_200,200,rng-200,151,rng,num-start-131,131,536,3.060429334640503,True,,True,1,False,1000,True,1.0
./expes/v2_2020-12-01_di_200-prng-1,daily_issda_200,200,rng-200,151,rng,num-start-31,31,536,1002.1339650154114,False,,False,0,True,1000,True,0.0
./expes/v2_2020-12-01_di_200-prng-1,daily_issda_200,200,rng-200,131,rng,num-start-221,221,536,4.936967372894287,True,,True,1,False,1000,True,1.0
./expes/v2_2020-12-01_di_200-prng-1,daily_issda_200,200,rng-200,171,rng,num-start-111,111,536,2.339460849761963,True,,True,1,False,1000,True,1.0
./expes/v2_2020-12-01_di_200-prng-1,daily_issda_200,200,rng-200,161,rng,num-start-61,61,536,5.000768661499023,True,,True,1,False,1000,True,1.0
./expes/v2_2020-12-01_di_200-prng-1,daily_issda_200,200,rng-200,51,rng,num-start-261,261,536,5.762153148651123,True,,True,1,False,1000,True,1.0
./expes/v2_2020-12-01_di_200-prng-1,daily_issda_200,200,rng-200,101,rng,num-start-1,1,536,0.6887733936309814,False,,False,2,False,1000,True,1.0
./expes/v2_2020-12-01_di_200-prng-1,daily_issda_200,200,rng-200,41,rng,num-start-181,181,536,4.0772178173065186,True,,True,1,False,1000,True,1.0
./expes/v2_2020-12-01_di_200-prng-1,daily_issda_200,200,rng-200,161,rng,num-start-261,261,536,5.37524676322937,True,,True,1,False,1000,True,1.0
./expes/v2_2020-12-01_di_200-prng-1,daily_issda_200,200,rng-200,21,rng,num-start-271,271,536,6.011369705200195,True,,True,1,False,1000,True,1.0
./expes/v2_2020-12-01_di_200-prng-1,daily_issda_200,200,rng-200,101,rng,num-start-211,211,536,5.072240591049194,True,,True,1,False,1000,True,1.0
./expes/v2_2020-12-01_di_200-prng-1,daily_issda_200,200,rng-200,131,rng,num-start-261,261,536,5.8549113273620605,True,,True,1,False,1000,True,1.0
./expes/v2_2020-12-01_di_200-prng-1,daily_issda_200,200,rng-200,61,rng,num-start-51,51,536,1001.0838825702667,False,,False,0,True,1000,True,0.0
./expes/v2_2020-12-01_di_200-prng-1,daily_issda_200,200,rng-200,1,rng,num-start-211,211,536,3.854614496231079,True,,True,1,False,1000,True,1.0
./expes/v2_2020-12-01_di_200-prng-1,daily_issda_200,200,rng-200,141,rng,num-start-161,161,536,3.566497802734375,True,,True,1,False,1000,True,1.0
./expes/v2_2020-12-01_di_200-prng-1,daily_issda_200,200,rng-200,51,rng,num-start-291,291,536,6.378656625747681,True,,True,1,False,1000,True,1.0
./expes/v2_2020-12-01_di_200-prng-1,daily_issda_200,200,rng-200,71,rng,num-start-141,141,536,3.193483829498291,True,,True,1,False,1000,True,1.0
./expes/v2_2020-12-01_di_200-prng-1,daily_issda_200,200,rng-200,121,rng,num-start-61,61,536,1001.224936246872,False,,False,0,True,1000,True,0.0
./expes/v2_2020-12-01_di_200-prng-1,daily_issda_200,200,rng-200,121,rng,num-start-121,121,536,2.9506962299346924,True,,True,1,False,1000,True,1.0
./expes/v2_2020-12-01_di_200-prng-1,daily_issda_200,200,rng-200,111,rng,num-start-211,211,536,5.090274333953857,True,,True,1,False,1000,True,1.0
./expes/v2_2020-12-01_di_200-prng-1,daily_issda_200,200,rng-200,11,rng,num-start-161,161,536,3.7099452018737793,True,,True,1,False,1000,True,1.0
./expes/v2_2020-12-01_di_200-prng-1,daily_issda_200,200,rng-200,71,rng,num-start-141,141,536,3.2921786308288574,True,,True,1,False,1000,True,1.0
./expes/v2_2020-12-01_di_200-prng-1,daily_issda_200,200,rng-200,51,rng,num-start-31,31,536,1000.8713300228119,False,,False,0,True,1000,True,0.0
./expes/v2_2020-12-01_di_200-prng-1,daily_issda_200,200,rng-200,181,rng,num-start-261,261,536,5.2789928913116455,True,,True,1,False,1000,True,1.0
./expes/v2_2020-12-01_di_200-prng-1,daily_issda_200,200,rng-200,151,rng,num-start-11,11,536,1000.2859568595886,False,,False,0,True,1000,True,0.0
./expes/v2_2020-12-01_di_200-prng-1,daily_issda_200,200,rng-200,151,rng,num-start-271,271,536,6.121826648712158,True,,True,1,False,1000,True,1.0
./expes/v2_2020-12-01_di_200-prng-1,daily_issda_200,200,rng-200,91,rng,num-start-261,261,536,6.183275938034058,True,,True,1,False,1000,True,1.0
./expes/v2_2020-12-01_di_200-prng-1,daily_issda_200,200,rng-200,131,rng,num-start-121,121,536,2.9420619010925293,True,,True,1,False,1000,True,1.0
./expes/v2_2020-12-01_di_200-prng-1,daily_issda_200,200,rng-200,51,rng,num-start-191,191,536,4.800656318664551,True,,True,1,False,1000,True,1.0
./expes/v2_2020-12-01_di_200-prng-1,daily_issda_200,200,rng-200,111,rng,num-start-221,221,536,4.916259050369263,True,,True,1,False,1000,True,1.0
./expes/v2_2020-12-01_di_200-prng-1,daily_issda_200,200,rng-200,131,rng,num-start-191,191,536,4.528774976730347,True,,True,1,False,1000,True,1.0
./expes/v2_2020-12-01_di_200-prng-1,daily_issda_200,200,rng-200,91,rng,num-start-281,281,536,5.900824546813965,True,,True,1,False,1000,True,1.0
./expes/v2_2020-12-01_di_200-prng-1,daily_issda_200,200,rng-200,171,rng,num-start-231,231,536,5.001004934310913,True,,True,1,False,1000,True,1.0
./expes/v2_2020-12-01_di_200-prng-1,daily_issda_200,200,rng-200,151,rng,num-start-121,121,536,2.803953170776367,True,,True,1,False,1000,True,1.0
./expes/v2_2020-12-01_di_200-prng-1,daily_issda_200,200,rng-200,181,rng,num-start-81,81,536,1.7823121547698975,True,,True,1,False,1000,True,1.0
./expes/v2_2020-12-01_di_200-prng-1,daily_issda_200,200,rng-200,141,rng,num-start-121,121,536,2.8838422298431396,True,,True,1,False,1000,True,1.0
./expes/v2_2020-12-01_di_200-prng-1,daily_issda_200,200,rng-200,51,rng,num-start-171,171,536,4.097470045089722,True,,True,1,False,1000,True,1.0
./expes/v2_2020-12-01_di_200-prng-1,daily_issda_200,200,rng-200,11,rng,num-start-181,181,536,4.0416669845581055,True,,True,1,False,1000,True,1.0
./expes/v2_2020-12-01_di_200-prng-1,daily_issda_200,200,rng-200,151,rng,num-start-121,121,536,2.8306570053100586,True,,True,1,False,1000,True,1.0
./expes/v2_2020-12-01_di_200-prng-1,daily_issda_200,200,rng-200,111,rng,num-start-291,291,536,7.090108633041382,True,,True,1,False,1000,True,1.0
./expes/v2_2020-12-01_di_200-prng-1,daily_issda_200,200,rng-200,181,rng,num-start-161,161,536,3.4130501747131348,True,,True,1,False,1000,True,1.0
./expes/v2_2020-12-01_di_200-prng-1,daily_issda_200,200,rng-200,11,rng,num-start-231,231,536,4.915453672409058,True,,True,1,False,1000,True,1.0
./expes/v2_2020-12-01_di_200-prng-1,daily_issda_200,200,rng-200,181,rng,num-start-101,101,536,2.2914071083068848,True,,True,1,False,1000,True,1.0
./expes/v2_2020-12-01_di_200-prng-1,daily_issda_200,200,rng-200,121,rng,num-start-91,91,536,2.3981399536132812,True,,True,1,False,1000,True,1.0
./expes/v2_2020-12-01_di_200-prng-1,daily_issda_200,200,rng-200,191,rng,num-start-161,161,536,3.411863088607788,True,,True,1,False,1000,True,1.0
./expes/v2_2020-12-01_di_200-prng-1,daily_issda_200,200,rng-200,61,rng,num-start-61,61,536,8.333007574081421,True,,True,1,False,1000,True,1.0
./expes/v2_2020-12-01_di_200-prng-1,daily_issda_200,200,rng-200,191,rng,num-start-121,121,536,2.6339077949523926,True,,True,1,False,1000,True,1.0
./expes/v2_2020-12-01_di_200-prng-1,daily_issda_200,200,rng-200,81,rng,num-start-151,151,536,3.6035854816436768,True,,True,1,False,1000,True,1.0
./expes/v2_2020-12-01_di_200-prng-1,daily_issda_200,200,rng-200,161,rng,num-start-31,31,536,1000.6665496826172,False,,False,0,True,1000,True,0.0
./expes/v2_2020-12-01_di_200-prng-1,daily_issda_200,200,rng-200,21,rng,num-start-191,191,536,4.364159107208252,True,,True,1,False,1000,True,1.0
./expes/v2_2020-12-01_di_200-prng-1,daily_issda_200,200,rng-200,71,rng,num-start-91,91,536,2.826638698577881,True,,True,1,False,1000,True,1.0
./expes/v2_2020-12-01_di_200-prng-1,daily_issda_200,200,rng-200,171,rng,num-start-71,71,536,1.7318384647369385,True,,True,1,False,1000,True,1.0
./expes/v2_2020-12-01_di_200-prng-1,daily_issda_200,200,rng-200,171,rng,num-start-251,251,536,5.416954755783081,True,,True,1,False,1000,True,1.0
./expes/v2_2020-12-01_di_200-prng-1,daily_issda_200,200,rng-200,21,rng,num-start-111,111,536,2.5188217163085938,True,,True,1,False,1000,True,1.0
./expes/v2_2020-12-01_di_200-prng-1,daily_issda_200,200,rng-200,61,rng,num-start-41,41,536,1002.0077667236328,False,,False,0,True,1000,True,0.0
./expes/v2_2020-12-01_di_200-prng-1,daily_issda_200,200,rng-200,151,rng,num-start-271,271,536,5.233764410018921,True,,True,1,False,1000,True,1.0
./expes/v2_2020-12-01_di_200-prng-1,daily_issda_200,200,rng-200,61,rng,num-start-31,31,536,1012.509863615036,False,,False,0,True,1000,True,0.0
./expes/v2_2020-12-01_di_200-prng-1,daily_issda_200,200,rng-200,91,rng,num-start-231,231,536,5.081094741821289,True,,True,1,False,1000,True,1.0
./expes/v2_2020-12-01_di_200-prng-1,daily_issda_200,200,rng-200,61,rng,num-start-61,61,536,4.063405513763428,True,,True,1,False,1000,True,1.0
./expes/v2_2020-12-01_di_200-prng-1,daily_issda_200,200,rng-200,171,rng,num-start-231,231,536,4.479046821594238,True,,True,1,False,1000,True,1.0
./expes/v2_2020-12-01_di_200-prng-1,daily_issda_200,200,rng-200,41,rng,num-start-261,261,536,5.655930042266846,True,,True,1,False,1000,True,1.0
./expes/v2_2020-12-01_di_200-prng-1,daily_issda_200,200,rng-200,41,rng,num-start-41,41,536,1001.2556970119476,False,,False,0,True,1000,True,0.0
./expes/v2_2020-12-01_di_200-prng-1,daily_issda_200,200,rng-200,121,rng,num-start-121,121,536,2.688424587249756,True,,True,1,False,1000,True,1.0
./expes/v2_2020-12-01_di_200-prng-1,daily_issda_200,200,rng-200,71,rng,num-start-191,191,536,4.27465295791626,True,,True,1,False,1000,True,1.0
./expes/v2_2020-12-01_di_200-prng-1,daily_issda_200,200,rng-200,151,rng,num-start-1,1,536,0.827385663986206,False,,False,2,False,1000,True,1.0
./expes/v2_2020-12-01_di_200-prng-1,daily_issda_200,200,rng-200,161,rng,num-start-71,71,536,4.1874895095825195,True,,True,1,False,1000,True,1.0
./expes/v2_2020-12-01_di_200-prng-1,daily_issda_200,200,rng-200,91,rng,num-start-251,251,536,5.783955097198486,True,,True,1,False,1000,True,1.0
./expes/v2_2020-12-01_di_200-prng-1,daily_issda_200,200,rng-200,11,rng,num-start-291,291,536,5.766404390335083,True,,True,1,False,1000,True,1.0
./expes/v2_2020-12-01_di_200-prng-1,daily_issda_200,200,rng-200,41,rng,num-start-201,201,536,4.472375869750977,True,,True,1,False,1000,True,1.0
./expes/v2_2020-12-01_di_200-prng-1,daily_issda_200,200,rng-200,121,rng,num-start-131,131,536,3.008995532989502,True,,True,1,False,1000,True,1.0
./expes/v2_2020-12-01_di_200-prng-1,daily_issda_200,200,rng-200,191,rng,num-start-121,121,536,2.634566068649292,True,,True,1,False,1000,True,1.0
./expes/v2_2020-12-01_di_200-prng-1,daily_issda_200,200,rng-200,121,rng,num-start-221,221,536,4.679763078689575,True,,True,1,False,1000,True,1.0
./expes/v2_2020-12-01_di_200-prng-1,daily_issda_200,200,rng-200,101,rng,num-start-11,11,536,1000.4893848896027,False,,False,0,True,1000,True,0.0
./expes/v2_2020-12-01_di_200-prng-1,daily_issda_200,200,rng-200,141,rng,num-start-141,141,536,3.308439254760742,True,,True,1,False,1000,True,1.0
./expes/v2_2020-12-01_di_200-prng-1,daily_issda_200,200,rng-200,131,rng,num-start-281,281,536,6.1175217628479,True,,True,1,False,1000,True,1.0
./expes/v2_2020-12-01_di_200-prng-1,daily_issda_200,200,rng-200,161,rng,num-start-11,11,536,1002.4010825157166,False,,False,0,True,1000,True,0.0
./expes/v2_2020-12-01_di_200-prng-1,daily_issda_200,200,rng-200,41,rng,num-start-211,211,536,5.144529581069946,True,,True,1,False,1000,True,1.0
./expes/v2_2020-12-01_di_200-prng-1,daily_issda_200,200,rng-200,151,rng,num-start-281,281,536,5.901498556137085,True,,True,1,False,1000,True,1.0
./expes/v2_2020-12-01_di_200-prng-1,daily_issda_200,200,rng-200,1,rng,num-start-101,101,536,1.8399407863616943,True,,True,1,False,1000,True,1.0
./expes/v2_2020-12-01_di_200-prng-1,daily_issda_200,200,rng-200,101,rng,num-start-221,221,536,4.997681617736816,True,,True,1,False,1000,True,1.0
./expes/v2_2020-12-01_di_200-prng-1,daily_issda_200,200,rng-200,111,rng,num-start-111,111,536,2.652423620223999,True,,True,1,False,1000,True,1.0
./expes/v2_2020-12-01_di_200-prng-1,daily_issda_200,200,rng-200,21,rng,num-start-161,161,536,3.6340789794921875,True,,True,1,False,1000,True,1.0
./expes/v2_2020-12-01_di_200-prng-1,daily_issda_200,200,rng-200,111,rng,num-start-111,111,536,2.7849957942962646,True,,True,1,False,1000,True,1.0
./expes/v2_2020-12-01_di_200-prng-1,daily_issda_200,200,rng-200,81,rng,num-start-61,61,536,819.3434264659882,True,,True,1,False,1000,True,1.0
./expes/v2_2020-12-01_di_200-prng-1,daily_issda_200,200,rng-200,31,rng,num-start-101,101,536,2.1981706619262695,True,,True,1,False,1000,True,1.0
./expes/v2_2020-12-01_di_200-prng-1,daily_issda_200,200,rng-200,151,rng,num-start-251,251,536,5.430443286895752,True,,True,1,False,1000,True,1.0
./expes/v2_2020-12-01_di_200-prng-1,daily_issda_200,200,rng-200,191,rng,num-start-201,201,536,4.2115418910980225,True,,True,1,False,1000,True,1.0
./expes/v2_2020-12-01_di_200-prng-1,daily_issda_200,200,rng-200,81,rng,num-start-281,281,536,6.228198766708374,True,,True,1,False,1000,True,1.0
./expes/v2_2020-12-01_di_200-prng-1,daily_issda_200,200,rng-200,181,rng,num-start-111,111,536,2.4420981407165527,True,,True,1,False,1000,True,1.0
./expes/v2_2020-12-01_di_200-prng-1,daily_issda_200,200,rng-200,121,rng,num-start-221,221,536,4.773540735244751,True,,True,1,False,1000,True,1.0
./expes/v2_2020-12-01_di_200-prng-1,daily_issda_200,200,rng-200,191,rng,num-start-51,51,536,1.1181888580322266,True,,True,1,False,1000,True,1.0
./expes/v2_2020-12-01_di_200-prng-1,daily_issda_200,200,rng-200,11,rng,num-start-221,221,536,4.661808490753174,True,,True,1,False,1000,True,1.0
./expes/v2_2020-12-01_di_200-prng-1,daily_issda_200,200,rng-200,191,rng,num-start-151,151,536,3.1415834426879883,True,,True,1,False,1000,True,1.0
./expes/v2_2020-12-01_di_200-prng-1,daily_issda_200,200,rng-200,51,rng,num-start-91,91,536,2.3588216304779053,True,,True,1,False,1000,True,1.0
./expes/v2_2020-12-01_di_200-prng-1,daily_issda_200,200,rng-200,161,rng,num-start-51,51,536,2.390841007232666,True,,True,1,False,1000,True,1.0
./expes/v2_2020-12-01_di_200-prng-1,daily_issda_200,200,rng-200,111,rng,num-start-251,251,536,5.218634605407715,True,,True,1,False,1000,True,1.0
./expes/v2_2020-12-01_di_200-prng-1,daily_issda_200,200,rng-200,161,rng,num-start-111,111,536,2.6485917568206787,True,,True,1,False,1000,True,1.0
./expes/v2_2020-12-01_di_200-prng-1,daily_issda_200,200,rng-200,131,rng,num-start-181,181,536,4.150813102722168,True,,True,1,False,1000,True,1.0
./expes/v2_2020-12-01_di_200-prng-1,daily_issda_200,200,rng-200,121,rng,num-start-21,21,536,1000.483579158783,False,,False,0,True,1000,True,0.0
./expes/v2_2020-12-01_di_200-prng-1,daily_issda_200,200,rng-200,41,rng,num-start-121,121,536,2.8485727310180664,True,,True,1,False,1000,True,1.0
./expes/v2_2020-12-01_di_200-prng-1,daily_issda_200,200,rng-200,181,rng,num-start-121,121,536,2.642552375793457,True,,True,1,False,1000,True,1.0
./expes/v2_2020-12-01_di_200-prng-1,daily_issda_200,200,rng-200,81,rng,num-start-251,251,536,5.636670827865601,True,,True,1,False,1000,True,1.0
./expes/v2_2020-12-01_di_200-prng-1,daily_issda_200,200,rng-200,141,rng,num-start-51,51,536,1001.243901014328,False,,False,0,True,1000,True,0.0
./expes/v2_2020-12-01_di_200-prng-1,daily_issda_200,200,rng-200,41,rng,num-start-41,41,536,1006.3832995891571,False,,False,0,True,1000,True,0.0
./expes/v2_2020-12-01_di_200-prng-1,daily_issda_200,200,rng-200,161,rng,num-start-51,51,536,2.430976152420044,True,,True,1,False,1000,True,1.0
./expes/v2_2020-12-01_di_200-prng-1,daily_issda_200,200,rng-200,151,rng,num-start-281,281,536,6.116885662078857,True,,True,1,False,1000,True,1.0
./expes/v2_2020-12-01_di_200-prng-1,daily_issda_200,200,rng-200,11,rng,num-start-171,171,536,3.86419415473938,True,,True,1,False,1000,True,1.0
./expes/v2_2020-12-01_di_200-prng-1,daily_issda_200,200,rng-200,181,rng,num-start-121,121,536,2.727379322052002,True,,True,1,False,1000,True,1.0
./expes/v2_2020-12-01_di_200-prng-1,daily_issda_200,200,rng-200,41,rng,num-start-271,271,536,5.732499837875366,True,,True,1,False,1000,True,1.0
./expes/v2_2020-12-01_di_200-prng-1,daily_issda_200,200,rng-200,71,rng,num-start-51,51,536,1003.4068946838379,False,,False,0,True,1000,True,0.0
./expes/v2_2020-12-01_di_200-prng-1,daily_issda_200,200,rng-200,171,rng,num-start-101,101,536,2.1689205169677734,True,,True,1,False,1000,True,1.0
./expes/v2_2020-12-01_di_200-prng-1,daily_issda_200,200,rng-200,51,rng,num-start-181,181,536,4.037597417831421,True,,True,1,False,1000,True,1.0
./expes/v2_2020-12-01_di_200-prng-1,daily_issda_200,200,rng-200,131,rng,num-start-1,1,536,0.9339401721954346,False,,False,2,False,1000,True,1.0
./expes/v2_2020-12-01_di_200-prng-1,daily_issda_200,200,rng-200,51,rng,num-start-21,21,536,1001.1706166267395,False,,False,0,True,1000,True,0.0
./expes/v2_2020-12-01_di_200-prng-1,daily_issda_200,200,rng-200,121,rng,num-start-131,131,536,2.9660749435424805,True,,True,1,False,1000,True,1.0
./expes/v2_2020-12-01_di_200-prng-1,daily_issda_200,200,rng-200,181,rng,num-start-41,41,536,1.3196861743927002,True,,True,1,False,1000,True,1.0
./expes/v2_2020-12-01_di_200-prng-1,daily_issda_200,200,rng-200,141,rng,num-start-201,201,536,4.720008134841919,True,,True,1,False,1000,True,1.0
./expes/v2_2020-12-01_di_200-prng-1,daily_issda_200,200,rng-200,191,rng,num-start-161,161,536,3.4018890857696533,True,,True,1,False,1000,True,1.0
./expes/v2_2020-12-01_di_200-prng-1,daily_issda_200,200,rng-200,21,rng,num-start-261,261,536,5.775979518890381,True,,True,1,False,1000,True,1.0
./expes/v2_2020-12-01_di_200-prng-1,daily_issda_200,200,rng-200,161,rng,num-start-161,161,536,3.574167251586914,True,,True,1,False,1000,True,1.0
./expes/v2_2020-12-01_di_200-prng-1,daily_issda_200,200,rng-200,151,rng,num-start-281,281,536,5.873766660690308,True,,True,1,False,1000,True,1.0
./expes/v2_2020-12-01_di_200-prng-1,daily_issda_200,200,rng-200,181,rng,num-start-201,201,536,4.261053085327148,True,,True,1,False,1000,True,1.0
./expes/v2_2020-12-01_di_200-prng-1,daily_issda_200,200,rng-200,71,rng,num-start-271,271,536,5.895322322845459,True,,True,1,False,1000,True,1.0
./expes/v2_2020-12-01_di_200-prng-1,daily_issda_200,200,rng-200,171,rng,num-start-191,191,536,4.159970998764038,True,,True,1,False,1000,True,1.0
./expes/v2_2020-12-01_di_200-prng-1,daily_issda_200,200,rng-200,131,rng,num-start-201,201,536,4.644141674041748,True,,True,1,False,1000,True,1.0
./expes/v2_2020-12-01_di_200-prng-1,daily_issda_200,200,rng-200,81,rng,num-start-91,91,536,4.1973183155059814,True,,True,1,False,1000,True,1.0
./expes/v2_2020-12-01_di_200-prng-1,daily_issda_200,200,rng-200,61,rng,num-start-211,211,536,4.862361192703247,True,,True,1,False,1000,True,1.0
./expes/v2_2020-12-01_di_200-prng-1,daily_issda_200,200,rng-200,21,rng,num-start-271,271,536,6.004634857177734,True,,True,1,False,1000,True,1.0
./expes/v2_2020-12-01_di_200-prng-1,daily_issda_200,200,rng-200,151,rng,num-start-91,91,536,2.529663324356079,True,,True,1,False,1000,True,1.0
./expes/v2_2020-12-01_di_200-prng-1,daily_issda_200,200,rng-200,51,rng,num-start-141,141,536,3.2332475185394287,True,,True,1,False,1000,True,1.0
./expes/v2_2020-12-01_di_200-prng-1,daily_issda_200,200,rng-200,31,rng,num-start-161,161,536,3.8421194553375244,True,,True,1,False,1000,True,1.0
./expes/v2_2020-12-01_di_200-prng-1,daily_issda_200,200,rng-200,181,rng,num-start-31,31,536,7.031021356582642,True,,True,1,False,1000,True,1.0
./expes/v2_2020-12-01_di_200-prng-1,daily_issda_200,200,rng-200,181,rng,num-start-261,261,536,5.485470294952393,True,,True,1,False,1000,True,1.0
./expes/v2_2020-12-01_di_200-prng-1,daily_issda_200,200,rng-200,81,rng,num-start-241,241,536,5.310956239700317,True,,True,1,False,1000,True,1.0
./expes/v2_2020-12-01_di_200-prng-1,daily_issda_200,200,rng-200,141,rng,num-start-61,61,536,8.973825931549072,True,,True,1,False,1000,True,1.0
./expes/v2_2020-12-01_di_200-prng-1,daily_issda_200,200,rng-200,31,rng,num-start-251,251,536,5.3724000453948975,True,,True,1,False,1000,True,1.0
./expes/v2_2020-12-01_di_200-prng-1,daily_issda_200,200,rng-200,161,rng,num-start-1,1,536,3.132150411605835,False,,False,2,False,1000,True,1.0
./expes/v2_2020-12-01_di_200-prng-1,daily_issda_200,200,rng-200,51,rng,num-start-221,221,536,4.662348031997681,True,,True,1,False,1000,True,1.0
./expes/v2_2020-12-01_di_200-prng-1,daily_issda_200,200,rng-200,91,rng,num-start-31,31,536,1000.7352602481842,False,,False,0,True,1000,True,0.0
./expes/v2_2020-12-01_di_200-prng-1,daily_issda_200,200,rng-200,71,rng,num-start-91,91,536,2.1004819869995117,True,,True,1,False,1000,True,1.0
./expes/v2_2020-12-01_di_200-prng-1,daily_issda_200,200,rng-200,21,rng,num-start-131,131,536,2.872654676437378,True,,True,1,False,1000,True,1.0
./expes/v2_2020-12-01_di_200-prng-1,daily_issda_200,200,rng-200,181,rng,num-start-131,131,536,2.6837024688720703,True,,True,1,False,1000,True,1.0
./expes/v2_2020-12-01_di_200-prng-1,daily_issda_200,200,rng-200,71,rng,num-start-211,211,536,4.664690017700195,True,,True,1,False,1000,True,1.0
./expes/v2_2020-12-01_di_200-prng-1,daily_issda_200,200,rng-200,91,rng,num-start-111,111,536,2.589264392852783,True,,True,1,False,1000,True,1.0
./expes/v2_2020-12-01_di_200-prng-1,daily_issda_200,200,rng-200,111,rng,num-start-31,31,536,1000.6664292812347,False,,False,0,True,1000,True,0.0
./expes/v2_2020-12-01_di_200-prng-1,daily_issda_200,200,rng-200,81,rng,num-start-21,21,536,1000.52960896492,False,,False,0,True,1000,True,0.0
