expe,clients,clients_size,clients_subset,agg_size,agg_size_pc,method,days,days_size,days_total,noise_method,time,valid,valid_sum,success,score_avg,score_min,score_max,nsols,oracle,wall_hit,wall_time,pooled,pool_size,uuid,infeasible,optimal,valid_sums
./expes/v4_2021-03-18_issda_1000-prng-1-w1-p100-ukn95_98,30_issda-1000,992,first-1000,400,40,rng,num-start-1000,1000,25726,ukn-95-98,118.43020915985107,False,,False,0.324334365408384,0.1060241979720572,0.9101520513035235,100,"['1', '2', '5', '13', '15', '20', '22', '24', '27', '28', '29', '30', '39', '41', '48', '50', '51', '54', '56', '60', '61', '62', '63', '64', '65', '67', '69', '71', '72', '73', '75', '80', '83', '84', '85', '87', '88', '89', '93', '94', '96', '97', '100', '104', '105', '106', '107', '113', '119', '120', '121', '123', '124', '126', '127', '129', '131', '133', '134', '135', '137', '141', '143', '145', '148', '150', '151', '153', '154', '155', '156', '160', '163', '166', '167', '169', '171', '172', '173', '175', '177', '181', '183', '185', '186', '187', '188', '193', '196', '199', '200', '202', '205', '210', '211', '213', '214', '217', '218', '220', '224', '226', '227', '229', '233', '237', '238', '239', '246', '247', '250', '254', '255', '258', '259', '266', '268', '270', '272', '277', '285', '286', '287', '289', '292', '295', '297', '300', '306', '307', '308', '316', '318', '320', '322', '327', '332', '334', '338', '341', '346', '349', '351', '352', '353', '356', '358', '359', '363', '364', '365', '368', '371', '373', '374', '375', '376', '379', '382', '386', '390', '396', '398', '401', '402', '404', '405', '406', '407', '408', '409', '411', '412', '426', '429', '430', '431', '432', '435', '438', '441', '445', '451', '452', '457', '458', '460', '465', '468', '470', '473', '475', '477', '478', '482', '484', '485', '486', '490', '491', '492', '494', '495', '496', '497', '500', '501', '505', '506', '507', '509', '514', '515', '520', '523', '525', '528', '529', '530', '531', '537', '538', '540', '541', '545', '546', '548', '549', '550', '554', '555', '557', '558', '561', '562', '563', '564', '565', '571', '572', '573', '574', '578', '580', '581', '585', '587', '589', '591', '592', '594', '596', '597', '598', '600', '601', '604', '605', '609', '611', '616', '617', '620', '624', '625', '626', '627', '628', '629', '633', '634', '640', '643', '646', '650', '652', '655', '659', '663', '666', '667', '669', '671', '672', '674', '675', '677', '679', '681', '685', '693', '697', '698', '699', '700', '707', '708', '709', '710', '712', '713', '714', '716', '719', '724', '729', '730', '734', '740', '741', '743', '744', '747', '749', '757', '758', '759', '762', '768', '769', '776', '777', '783', '787', '791', '795', '796', '798', '799', '802', '808', '809', '810', '814', '817', '818', '819', '821', '823', '826', '828', '831', '835', '836', '838', '839', '841', '842', '846', '847', '849', '852', '855', '861', '866', '870', '874', '880', '885', '892', '893', '894', '895', '896', '897', '900', '905', '906', '909', '911', '920', '922', '926', '927', '931', '932', '937', '939', '940', '946', '956', '957', '960', '964', '968', '969', '970', '971', '972', '974', '975', '976', '978', '979', '980', '981', '986', '995', '998', '1000']",False,1000,True,100,6d1632fb70,0.0,1.0,0.0
./expes/v4_2021-03-18_issda_1000-prng-1-w1-p100-ukn95_98,30_issda-1000,991,first-1000,450,45,rng,num-start-1000,1000,25726,ukn-95-98,107.25119376182556,False,,False,0.3025835819021507,0.05131670194948623,0.9046537410754407,100,"['2', '3', '6', '9', '10', '11', '13', '15', '18', '19', '22', '23', '25', '27', '28', '29', '30', '31', '32', '34', '36', '37', '39', '41', '42', '45', '47', '49', '58', '61', '65', '66', '67', '72', '73', '75', '79', '84', '86', '87', '89', '92', '94', '97', '99', '102', '103', '105', '106', '107', '111', '112', '113', '115', '117', '118', '119', '121', '124', '129', '133', '134', '137', '138', '139', '150', '151', '161', '163', '164', '165', '166', '168', '171', '172', '173', '174', '175', '176', '178', '182', '186', '188', '190', '191', '193', '195', '199', '204', '205', '206', '211', '213', '215', '218', '219', '221', '222', '223', '225', '226', '228', '229', '230', '231', '233', '235', '236', '237', '238', '239', '241', '246', '248', '249', '253', '256', '257', '259', '260', '262', '265', '266', '273', '274', '275', '276', '280', '284', '288', '289', '291', '297', '298', '299', '302', '303', '304', '306', '311', '314', '315', '316', '318', '320', '321', '323', '325', '326', '328', '329', '330', '334', '336', '340', '341', '347', '348', '349', '350', '352', '353', '354', '355', '356', '362', '365', '366', '370', '374', '376', '377', '380', '384', '388', '389', '390', '391', '393', '396', '400', '401', '403', '404', '405', '407', '409', '412', '414', '415', '417', '424', '425', '427', '432', '433', '437', '440', '443', '444', '446', '449', '450', '457', '459', '461', '462', '464', '466', '467', '469', '470', '471', '472', '481', '484', '486', '489', '492', '493', '497', '500', '501', '502', '505', '508', '509', '512', '513', '515', '517', '518', '519', '520', '521', '522', '523', '525', '527', '529', '532', '534', '537', '541', '546', '548', '552', '553', '554', '555', '556', '558', '561', '562', '564', '565', '567', '568', '570', '575', '577', '578', '579', '580', '583', '584', '585', '588', '590', '592', '593', '594', '599', '601', '602', '604', '605', '606', '608', '611', '615', '616', '619', '621', '623', '624', '627', '628', '629', '630', '633', '638', '639', '640', '645', '646', '647', '651', '658', '663', '664', '665', '666', '668', '673', '676', '678', '680', '681', '682', '687', '690', '691', '692', '694', '695', '698', '703', '704', '705', '712', '713', '720', '721', '722', '729', '733', '737', '739', '742', '743', '744', '747', '748', '751', '756', '759', '761', '762', '772', '773', '774', '778', '780', '781', '783', '786', '787', '789', '790', '795', '797', '798', '799', '801', '802', '803', '804', '805', '806', '808', '809', '816', '817', '818', '822', '823', '824', '826', '829', '831', '833', '837', '838', '840', '841', '846', '848', '849', '850', '853', '856', '858', '861', '862', '866', '867', '868', '869', '871', '872', '874', '878', '879', '880', '881', '882', '887', '889', '891', '893', '897', '900', '903', '904', '907', '908', '909', '913', '915', '918', '919', '922', '923', '924', '932', '933', '936', '937', '939', '940', '943', '945', '948', '949', '954', '955', '959', '961', '962', '964', '967', '968', '973', '975', '976', '978', '981', '983', '986', '988', '989', '991', '992', '993', '994', '997', '998', '999', '1000']",False,1000,True,100,4af920d59e,0.0,1.0,0.0
./expes/v4_2021-03-18_issda_1000-prng-1-w1-p100-ukn95_98,30_issda-1000,999,first-1000,50,5,rng,num-start-600,600,25726,ukn-95-98,1058.8147389888763,False,,False,0.7342365474767611,0.7047469751257495,0.9683455531083541,44,"['14', '16', '32', '44', '66', '68', '134', '155', '156', '164', '197', '238', '240', '244', '266', '309', '379', '400', '407', '481', '482', '486', '488', '536', '554', '558', '563', '565', '595', '606', '607', '619', '621', '641', '651', '655', '688', '735', '760', '777', '796', '799', '857', '858', '882', '889', '931', '938', '949', '981']",True,1000,True,100,0c871f14bf,0.0,0.0,0.0
