expe,clients,clients_size,clients_subset,agg_size,agg_size_pc,method,days,days_size,days_total,noise_method,time,valid,valid_sum,success,score_avg,score_min,score_max,nsols,oracle,wall_hit,wall_time,pooled,pool_size,uuid,infeasible,optimal,valid_sums
./expes/v4_2021-03-18_issda_1000-prng-1-w1-p100-ukn95_98,30_issda-1000,998,first-1000,100,10,rng,num-start-100,100,25726,ukn-95-98,10.530535697937012,False,,False,0.5741356943941801,0.5543591273658954,0.9552114070977611,100,"['2', '4', '6', '14', '23', '30', '54', '67', '68', '74', '105', '116', '130', '136', '143', '150', '161', '164', '170', '171', '187', '202', '204', '210', '215', '221', '222', '253', '256', '262', '271', '287', '297', '306', '309', '314', '318', '322', '340', '347', '364', '368', '370', '381', '390', '393', '399', '418', '425', '456', '477', '481', '493', '543', '553', '557', '588', '601', '611', '618', '633', '638', '641', '665', '668', '695', '708', '714', '725', '749', '758', '760', '781', '785', '793', '795', '815', '817', '838', '839', '861', '862', '889', '890', '893', '894', '898', '916', '923', '939', '945', '959', '964', '966', '984', '985', '989', '990', '992', '996']",False,1000,True,100,942e7fb0c5,0.0,1.0,0.0
./expes/v4_2021-03-18_issda_1000-prng-1-w1-p100-ukn95_98,30_issda-1000,999,first-1000,50,5,rng,num-start-800,800,25726,ukn-95-98,159.4016444683075,False,,False,0.711067774420487,0.6914706160484498,0.9683455531083541,100,"['39', '48', '50', '51', '60', '61', '64', '72', '75', '89', '93', '97', '121', '127', '137', '148', '155', '220', '227', '229', '247', '297', '316', '332', '375', '405', '407', '429', '430', '435', '445', '520', '549', '554', '565', '571', '580', '585', '591', '597', '600', '643', '646', '667', '841', '847', '880', '932', '971', '1000']",False,1000,True,100,73ee4b6382,0.0,1.0,0.0
./expes/v4_2021-03-18_issda_1000-prng-1-w1-p100-ukn95_98,30_issda-1000,994,first-1000,300,30,rng,num-start-200,200,25726,ukn-95-98,19.834444284439087,False,,False,0.36011678635692346,0.22657430144955237,0.9222677925663528,100,"['2', '3', '6', '10', '13', '15', '18', '19', '22', '23', '25', '27', '29', '30', '31', '32', '34', '36', '37', '45', '49', '58', '61', '65', '72', '73', '86', '89', '94', '97', '103', '105', '111', '112', '113', '117', '121', '124', '129', '133', '138', '150', '164', '165', '168', '172', '173', '175', '178', '182', '186', '190', '191', '193', '195', '205', '211', '215', '218', '222', '225', '226', '228', '229', '231', '233', '235', '236', '237', '238', '239', '249', '256', '260', '262', '265', '273', '276', '280', '288', '291', '297', '298', '302', '304', '306', '311', '314', '316', '320', '326', '329', '330', '340', '341', '352', '353', '354', '355', '362', '366', '374', '376', '380', '384', '389', '391', '393', '396', '400', '403', '404', '405', '407', '414', '415', '424', '425', '427', '432', '433', '437', '443', '444', '449', '450', '457', '461', '462', '464', '466', '470', '471', '481', '484', '486', '492', '493', '497', '500', '502', '508', '509', '512', '513', '515', '517', '518', '519', '520', '521', '523', '525', '527', '529', '532', '534', '537', '541', '552', '553', '554', '555', '558', '562', '564', '565', '567', '568', '570', '575', '583', '584', '590', '592', '593', '599', '602', '604', '606', '608', '615', '621', '623', '624', '628', '630', '639', '640', '645', '646', '647', '651', '658', '663', '664', '665', '666', '668', '673', '676', '680', '681', '687', '690', '691', '692', '694', '695', '703', '712', '713', '720', '721', '722', '729', '737', '739', '742', '744', '747', '748', '751', '756', '759', '761', '762', '773', '774', '780', '781', '783', '786', '790', '795', '797', '798', '803', '806', '808', '816', '817', '818', '822', '823', '824', '829', '833', '837', '841', '850', '853', '856', '858', '861', '862', '867', '868', '869', '872', '874', '878', '881', '882', '889', '891', '897', '903', '904', '908', '915', '918', '922', '924', '932', '933', '939', '943', '945', '949', '954', '959', '961', '962', '964', '967', '968', '973', '975', '976', '978', '981', '983', '989', '991', '992', '993', '997', '999', '1000']",False,1000,True,100,567bd20eb9,0.0,1.0,0.0
./expes/v4_2021-03-18_issda_1000-prng-1-w1-p100-ukn95_98,30_issda-1000,993,first-1000,350,35,rng,num-start-100,100,25726,ukn-95-98,11.790598154067993,False,,False,0.33598874193352685,0.16418380628428875,0.9159973118709691,100,"['1', '2', '3', '4', '13', '14', '15', '16', '17', '23', '24', '28', '33', '34', '38', '40', '41', '42', '47', '48', '52', '60', '63', '64', '65', '66', '71', '72', '74', '76', '81', '83', '85', '86', '92', '94', '96', '98', '101', '102', '104', '112', '119', '120', '121', '122', '123', '127', '128', '134', '136', '139', '143', '144', '146', '150', '151', '154', '158', '162', '163', '164', '166', '170', '174', '175', '180', '185', '189', '190', '192', '193', '194', '195', '196', '197', '200', '204', '205', '209', '210', '216', '219', '221', '224', '225', '226', '227', '228', '229', '242', '245', '246', '248', '249', '250', '257', '266', '267', '278', '282', '283', '288', '289', '295', '298', '299', '309', '311', '318', '319', '320', '324', '325', '328', '333', '334', '339', '341', '342', '343', '344', '351', '359', '361', '363', '366', '367', '368', '380', '381', '388', '395', '398', '401', '409', '412', '415', '420', '425', '426', '428', '429', '430', '431', '436', '437', '445', '447', '453', '454', '456', '457', '458', '459', '462', '469', '479', '482', '483', '484', '488', '489', '491', '494', '498', '499', '502', '505', '506', '507', '516', '517', '521', '524', '534', '535', '538', '541', '542', '543', '546', '548', '554', '557', '558', '561', '562', '565', '566', '574', '575', '582', '583', '584', '588', '590', '594', '598', '602', '604', '605', '609', '611', '612', '617', '618', '619', '621', '623', '625', '626', '627', '628', '634', '636', '641', '646', '649', '650', '651', '653', '656', '657', '663', '665', '667', '673', '674', '677', '679', '682', '685', '689', '690', '692', '693', '695', '696', '697', '698', '700', '701', '708', '715', '716', '717', '718', '719', '721', '723', '724', '727', '728', '733', '735', '736', '737', '743', '745', '748', '750', '757', '760', '767', '773', '774', '776', '777', '781', '786', '791', '802', '803', '804', '808', '813', '814', '818', '819', '820', '823', '825', '829', '830', '832', '835', '836', '837', '842', '843', '845', '846', '848', '849', '850', '851', '854', '856', '858', '859', '861', '863', '865', '866', '870', '871', '875', '876', '887', '889', '892', '893', '896', '897', '898', '906', '907', '912', '914', '917', '920', '921', '922', '924', '927', '930', '932', '935', '938', '939', '940', '941', '944', '945', '946', '956', '959', '960', '970', '973', '977', '985', '987', '989', '990', '991', '992', '994', '998']",False,1000,True,100,eccd442d5f,0.0,1.0,0.0
./expes/v4_2021-03-18_issda_1000-prng-1-w1-p100-ukn95_98,30_issda-1000,992,first-1000,400,40,rng,num-start-900,900,25726,ukn-95-98,105.19835710525513,False,,False,0.31926992259322035,0.1060241979720572,0.8995469395378823,100,"['1', '5', '7', '10', '13', '16', '18', '19', '21', '23', '30', '31', '32', '33', '34', '35', '38', '39', '41', '47', '54', '56', '59', '61', '63', '64', '66', '71', '76', '77', '78', '79', '80', '83', '86', '88', '91', '92', '96', '97', '99', '100', '103', '108', '115', '117', '118', '120', '123', '127', '129', '130', '131', '132', '138', '139', '140', '141', '142', '146', '148', '149', '150', '153', '154', '155', '159', '162', '165', '167', '168', '169', '174', '177', '178', '187', '189', '190', '191', '193', '194', '197', '198', '199', '201', '202', '203', '204', '206', '215', '227', '229', '238', '240', '245', '247', '250', '251', '252', '256', '257', '258', '261', '263', '268', '272', '273', '275', '276', '279', '280', '281', '283', '284', '287', '289', '293', '297', '298', '299', '311', '312', '314', '320', '325', '326', '328', '332', '334', '338', '341', '344', '345', '352', '359', '366', '369', '370', '371', '373', '376', '377', '380', '381', '382', '383', '384', '386', '387', '389', '390', '391', '394', '396', '398', '399', '408', '410', '419', '420', '421', '424', '430', '432', '433', '434', '435', '437', '441', '442', '444', '451', '452', '455', '456', '457', '458', '461', '463', '474', '476', '479', '481', '482', '483', '484', '485', '487', '489', '490', '491', '496', '497', '498', '499', '500', '501', '504', '507', '509', '510', '512', '513', '515', '516', '520', '528', '530', '533', '535', '538', '539', '541', '544', '549', '551', '552', '553', '554', '557', '561', '565', '567', '572', '574', '575', '577', '578', '583', '584', '587', '588', '590', '594', '601', '603', '604', '609', '612', '617', '618', '620', '622', '623', '625', '627', '629', '632', '633', '634', '635', '636', '639', '641', '644', '645', '647', '649', '650', '651', '653', '654', '655', '661', '662', '664', '667', '670', '672', '673', '676', '678', '679', '683', '685', '687', '688', '690', '693', '695', '696', '697', '698', '699', '703', '707', '708', '711', '712', '713', '715', '717', '718', '719', '723', '726', '729', '730', '731', '732', '733', '734', '736', '737', '739', '740', '742', '747', '748', '750', '753', '757', '758', '761', '764', '765', '770', '774', '776', '778', '779', '781', '784', '789', '793', '797', '798', '802', '803', '806', '811', '813', '816', '820', '822', '823', '825', '826', '834', '836', '837', '838', '842', '848', '852', '853', '855', '859', '865', '866', '871', '874', '876', '879', '887', '892', '894', '898', '901', '902', '907', '911', '914', '915', '922', '925', '927', '930', '931', '932', '933', '934', '935', '936', '939', '942', '945', '946', '947', '950', '956', '957', '960', '961', '963', '964', '967', '968', '971', '973', '975', '986', '988', '989', '990', '994', '995', '996', '999', '1000']",False,1000,True,100,b43089d6d9,0.0,1.0,0.0
