expe,clients,clients_size,clients_subset,agg_size,agg_size_pc,method,days,days_size,days_total,noise_method,time,valid,valid_sum,success,score_avg,score_min,score_max,nsols,oracle,wall_hit,wall_time,pooled,pool_size,uuid,infeasible,optimal,valid_sums
./expes/v4_2021-03-18_issda_1000-prng-1-w1-p100-ukn95_98,30_issda-1000,999,first-1000,50,5,rng,num-start-500,500,25726,ukn-95-98,85.9219126701355,False,,False,0.699876779990772,0.6882398537696726,0.9683455531083541,100,"['1', '23', '38', '83', '91', '96', '97', '150', '198', '203', '268', '272', '280', '328', '344', '371', '383', '420', '424', '435', '482', '497', '501', '552', '553', '567', '577', '588', '601', '625', '679', '699', '703', '717', '747', '748', '753', '778', '781', '789', '813', '820', '822', '823', '825', '842', '865', '894', '933', '989']",False,1000,True,100,6e6643f072,0.0,1.0,0.0
./expes/v4_2021-03-18_issda_1000-prng-1-w1-p100-ukn95_98,30_issda-1000,990,first-1000,500,50,rng,num-start-500,500,25726,ukn-95-98,51.066181659698486,False,,False,0.29660876572038386,-0.0005054334414200667,0.8898479770968952,100,"['1', '4', '6', '7', '8', '9', '10', '12', '13', '14', '16', '18', '19', '20', '21', '23', '25', '27', '28', '30', '31', '35', '36', '37', '40', '42', '43', '44', '45', '49', '50', '52', '53', '54', '55', '56', '57', '60', '61', '62', '63', '65', '66', '67', '68', '69', '71', '74', '77', '78', '81', '83', '84', '85', '86', '87', '88', '89', '90', '91', '94', '95', '96', '97', '99', '102', '103', '105', '106', '107', '109', '112', '113', '114', '115', '121', '123', '124', '125', '132', '133', '136', '137', '138', '139', '141', '142', '143', '145', '146', '148', '149', '151', '152', '153', '161', '166', '167', '168', '169', '173', '174', '175', '176', '177', '178', '181', '183', '184', '186', '187', '191', '192', '194', '197', '203', '204', '205', '206', '207', '208', '210', '211', '214', '215', '216', '217', '219', '222', '226', '227', '228', '230', '233', '237', '238', '242', '243', '244', '249', '250', '254', '255', '258', '260', '263', '266', '269', '270', '274', '275', '277', '280', '281', '282', '284', '285', '286', '288', '292', '298', '299', '302', '304', '308', '309', '310', '314', '315', '317', '323', '326', '329', '330', '332', '333', '337', '338', '339', '342', '343', '344', '346', '347', '349', '350', '353', '355', '356', '358', '362', '364', '366', '368', '374', '375', '379', '381', '382', '383', '388', '389', '391', '393', '395', '396', '398', '399', '405', '407', '408', '409', '411', '412', '413', '414', '417', '420', '422', '427', '428', '431', '432', '433', '435', '436', '438', '439', '441', '444', '447', '450', '451', '455', '458', '460', '462', '463', '465', '467', '468', '470', '473', '475', '478', '479', '482', '486', '487', '490', '491', '493', '494', '502', '504', '507', '508', '509', '510', '513', '515', '518', '519', '521', '522', '523', '527', '528', '530', '531', '532', '535', '536', '537', '540', '542', '547', '549', '551', '553', '555', '556', '557', '558', '559', '561', '562', '566', '568', '569', '570', '573', '574', '576', '577', '579', '580', '581', '583', '585', '587', '588', '589', '590', '593', '594', '595', '599', '600', '601', '603', '605', '606', '608', '612', '614', '616', '618', '619', '620', '621', '622', '623', '624', '626', '627', '628', '632', '638', '640', '641', '642', '645', '650', '653', '655', '658', '659', '661', '664', '665', '667', '675', '680', '684', '686', '687', '688', '691', '693', '694', '695', '696', '697', '698', '700', '701', '705', '707', '710', '711', '713', '714', '717', '718', '721', '723', '726', '727', '729', '733', '735', '737', '738', '743', '744', '745', '746', '748', '752', '754', '755', '756', '759', '762', '764', '765', '766', '767', '771', '773', '779', '780', '781', '782', '783', '784', '790', '791', '792', '793', '794', '795', '796', '797', '798', '799', '800', '802', '803', '806', '809', '813', '814', '816', '818', '819', '820', '823', '827', '829', '830', '835', '841', '843', '844', '853', '854', '858', '860', '864', '866', '867', '872', '873', '880', '881', '885', '887', '888', '889', '890', '893', '896', '897', '898', '899', '900', '901', '902', '903', '905', '908', '909', '910', '911', '914', '915', '917', '918', '919', '920', '921', '924', '925', '928', '929', '931', '932', '934', '937', '940', '942', '943', '944', '946', '947', '952', '954', '959', '961', '963', '964', '967', '969', '970', '974', '975', '977', '979', '982', '984', '985', '986', '988', '990', '991', '992', '999', '1000']",False,1000,True,100,a385c95e8c,0.0,1.0,0.0
./expes/v4_2021-03-18_issda_1000-prng-1-w1-p100-ukn95_98,30_issda-1000,998,first-1000,100,10,rng,num-start-200,200,25726,ukn-95-98,20.679057359695435,False,,False,0.5847581426921579,0.5543591273658954,0.9552114070977611,100,"['1', '23', '30', '38', '47', '83', '91', '92', '96', '97', '100', '120', '123', '150', '198', '199', '202', '203', '204', '206', '251', '257', '268', '272', '275', '280', '299', '312', '328', '344', '366', '370', '371', '383', '420', '424', '435', '441', '456', '482', '497', '499', '501', '513', '516', '528', '538', '552', '553', '567', '577', '588', '590', '601', '603', '604', '617', '623', '625', '649', '651', '661', '672', '679', '695', '699', '703', '715', '717', '718', '747', '748', '753', '774', '778', '781', '789', '813', '816', '820', '822', '823', '825', '842', '848', '853', '865', '894', '902', '914', '925', '932', '933', '935', '939', '956', '975', '989', '994', '1000']",False,1000,True,100,aa8d4cf586,0.0,1.0,0.0
./expes/v4_2021-03-18_issda_1000-prng-1-w1-p100-ukn95_98,30_issda-1000,990,first-1000,500,50,rng,num-start-1000,1000,25726,ukn-95-98,102.18281650543213,False,,False,0.2978210842847193,-0.0005054334414200667,0.8898479770968952,100,"['2', '4', '5', '6', '8', '12', '14', '16', '19', '21', '22', '23', '25', '27', '28', '29', '30', '32', '33', '34', '35', '36', '37', '38', '44', '45', '46', '47', '48', '51', '52', '53', '55', '57', '62', '63', '65', '66', '68', '69', '70', '71', '74', '79', '80', '82', '86', '88', '89', '91', '95', '99', '100', '102', '103', '105', '106', '107', '108', '110', '111', '112', '117', '118', '122', '123', '124', '125', '126', '127', '128', '129', '130', '131', '132', '133', '134', '135', '137', '138', '140', '142', '147', '153', '155', '156', '160', '161', '164', '165', '167', '168', '174', '176', '182', '183', '184', '185', '188', '190', '191', '192', '196', '197', '203', '204', '205', '217', '223', '224', '227', '228', '230', '231', '233', '238', '240', '241', '242', '244', '245', '246', '248', '251', '255', '256', '258', '259', '265', '266', '269', '270', '271', '272', '274', '276', '277', '278', '281', '286', '287', '292', '294', '296', '298', '299', '301', '306', '307', '308', '309', '311', '312', '318', '321', '322', '323', '324', '327', '328', '330', '331', '333', '334', '335', '336', '337', '339', '341', '342', '345', '348', '349', '350', '353', '354', '355', '359', '360', '361', '362', '369', '370', '373', '375', '377', '379', '382', '383', '384', '385', '386', '387', '390', '396', '397', '399', '400', '404', '405', '407', '410', '411', '418', '420', '421', '423', '424', '426', '427', '429', '430', '431', '432', '434', '436', '437', '438', '439', '441', '442', '445', '446', '447', '448', '449', '454', '456', '462', '466', '468', '472', '476', '478', '481', '482', '485', '486', '488', '489', '493', '494', '495', '496', '500', '502', '507', '509', '510', '513', '515', '516', '518', '520', '523', '524', '525', '528', '530', '531', '532', '533', '534', '536', '538', '540', '542', '543', '545', '547', '548', '549', '550', '554', '555', '557', '558', '562', '563', '564', '565', '567', '568', '569', '570', '573', '578', '581', '582', '583', '585', '586', '588', '589', '591', '593', '594', '595', '599', '600', '601', '602', '603', '604', '605', '606', '607', '610', '614', '615', '616', '619', '620', '621', '624', '626', '627', '630', '631', '633', '635', '636', '638', '641', '642', '643', '644', '648', '649', '650', '651', '652', '655', '658', '659', '660', '662', '663', '666', '670', '672', '676', '679', '684', '688', '689', '690', '691', '692', '693', '695', '696', '698', '699', '701', '703', '707', '708', '711', '712', '713', '714', '715', '716', '717', '720', '724', '730', '731', '732', '733', '734', '735', '736', '737', '738', '741', '746', '750', '752', '753', '756', '760', '764', '766', '767', '771', '772', '775', '777', '779', '780', '786', '788', '791', '793', '794', '796', '798', '799', '802', '806', '807', '808', '810', '811', '812', '813', '815', '818', '820', '821', '823', '824', '826', '827', '830', '831', '832', '833', '837', '840', '844', '848', '852', '853', '854', '857', '858', '859', '862', '864', '865', '871', '873', '875', '876', '877', '878', '879', '882', '883', '884', '885', '887', '888', '889', '891', '892', '894', '900', '901', '902', '903', '905', '907', '908', '909', '911', '912', '919', '920', '922', '926', '927', '931', '935', '938', '939', '940', '943', '944', '945', '947', '949', '950', '952', '957', '959', '962', '964', '966', '972', '973', '974', '976', '978', '981', '982', '984', '987', '988', '989', '990', '991', '993', '995', '996', '997', '999']",False,1000,True,100,3473f11544,0.0,1.0,0.0
