expe,clients,clients_size,clients_subset,agg_size,agg_size_pc,method,days,days_size,days_total,noise_method,time,valid,valid_sum,success,score_avg,score_min,score_max,nsols,oracle,wall_hit,wall_time,pooled,pool_size,uuid,infeasible,optimal,valid_sums
./expes/v4_2021-03-18_issda_1000-prng-1-w1-p100-ukn95_98,30_issda-1000,994,first-1000,300,30,rng,num-start-100,100,25726,ukn-95-98,8.657356977462769,False,,False,0.3735617276302447,0.22657430144955237,0.9222677925663528,100,"['2', '13', '14', '15', '17', '23', '24', '28', '34', '38', '40', '41', '42', '47', '60', '63', '64', '65', '71', '72', '74', '76', '81', '83', '85', '92', '94', '96', '98', '102', '104', '112', '119', '120', '121', '123', '127', '128', '134', '136', '139', '143', '144', '146', '150', '151', '154', '158', '163', '166', '174', '175', '180', '185', '189', '190', '192', '194', '195', '196', '200', '205', '209', '210', '216', '221', '224', '225', '226', '227', '228', '242', '245', '246', '248', '249', '250', '257', '266', '267', '278', '282', '283', '288', '289', '295', '298', '299', '309', '311', '318', '319', '324', '325', '328', '333', '334', '339', '341', '342', '344', '351', '359', '361', '363', '366', '367', '368', '380', '381', '395', '398', '401', '409', '415', '420', '425', '430', '431', '436', '437', '445', '447', '453', '454', '456', '459', '462', '469', '479', '482', '483', '484', '488', '489', '491', '494', '498', '499', '502', '505', '506', '516', '517', '521', '524', '534', '535', '538', '543', '546', '548', '554', '557', '558', '561', '562', '565', '566', '574', '575', '582', '583', '584', '588', '590', '594', '598', '602', '604', '605', '609', '611', '612', '617', '618', '621', '625', '626', '627', '628', '634', '636', '641', '646', '649', '650', '651', '656', '657', '663', '665', '667', '673', '674', '677', '682', '685', '689', '690', '693', '696', '697', '698', '700', '701', '708', '715', '717', '718', '721', '723', '724', '728', '733', '736', '737', '745', '748', '750', '757', '760', '767', '774', '776', '777', '781', '786', '802', '803', '804', '808', '813', '814', '818', '819', '820', '823', '825', '830', '832', '835', '836', '837', '842', '845', '846', '848', '849', '850', '851', '854', '856', '858', '859', '861', '863', '865', '866', '870', '871', '875', '876', '887', '889', '892', '896', '897', '898', '912', '914', '917', '920', '921', '922', '924', '927', '930', '932', '935', '938', '939', '940', '941', '944', '945', '946', '956', '959', '960', '970', '973', '977', '985', '987', '989', '990', '991', '992', '994']",False,1000,True,100,cb6b69e23d,0.0,1.0,0.0
./expes/v4_2021-03-18_issda_1000-prng-1-w1-p100-ukn95_98,30_issda-1000,993,first-1000,350,35,rng,num-start-1000,1000,25726,ukn-95-98,101.51721787452698,False,,False,0.39866212229521447,0.16418380628428875,0.9159973118709691,100,"['1', '2', '3', '4', '13', '14', '15', '16', '17', '23', '24', '28', '33', '34', '38', '40', '41', '42', '47', '48', '52', '60', '63', '64', '65', '66', '71', '72', '74', '76', '81', '83', '85', '86', '92', '94', '96', '98', '101', '102', '104', '112', '119', '120', '121', '122', '123', '127', '128', '134', '136', '139', '143', '144', '146', '150', '151', '154', '158', '162', '163', '164', '166', '170', '174', '175', '180', '185', '189', '190', '192', '193', '194', '195', '196', '197', '200', '204', '205', '209', '210', '216', '219', '221', '224', '225', '226', '227', '228', '229', '242', '245', '246', '248', '249', '250', '257', '266', '267', '278', '282', '283', '288', '289', '295', '298', '299', '309', '311', '318', '319', '320', '324', '325', '328', '333', '334', '339', '341', '342', '343', '344', '351', '359', '361', '363', '366', '367', '368', '380', '381', '388', '395', '398', '401', '409', '412', '415', '420', '425', '426', '428', '429', '430', '431', '436', '437', '445', '447', '453', '454', '456', '457', '458', '459', '462', '469', '479', '482', '483', '484', '488', '489', '491', '494', '498', '499', '502', '505', '506', '507', '516', '517', '521', '524', '534', '535', '538', '541', '542', '543', '546', '548', '554', '557', '558', '561', '562', '565', '566', '574', '575', '582', '583', '584', '588', '590', '594', '598', '602', '604', '605', '609', '611', '612', '617', '618', '619', '621', '623', '625', '626', '627', '628', '634', '636', '641', '646', '649', '650', '651', '653', '656', '657', '663', '665', '667', '673', '674', '677', '679', '682', '685', '689', '690', '692', '693', '695', '696', '697', '698', '700', '701', '708', '715', '716', '717', '718', '719', '721', '723', '724', '727', '728', '733', '735', '736', '737', '743', '745', '748', '750', '757', '760', '767', '773', '774', '776', '777', '781', '786', '791', '802', '803', '804', '808', '813', '814', '818', '819', '820', '823', '825', '829', '830', '832', '835', '836', '837', '842', '843', '845', '846', '848', '849', '850', '851', '854', '856', '858', '859', '861', '863', '865', '866', '870', '871', '875', '876', '887', '889', '892', '893', '896', '897', '898', '906', '907', '912', '914', '917', '920', '921', '922', '924', '927', '930', '932', '935', '938', '939', '940', '941', '944', '945', '946', '956', '959', '960', '970', '973', '977', '985', '987', '989', '990', '991', '992', '994', '998']",False,1000,True,100,c2f105135d,0.0,1.0,0.0
./expes/v4_2021-03-18_issda_1000-prng-1-w1-p100-ukn95_98,30_issda-1000,998,first-1000,100,10,rng,num-start-500,500,25726,ukn-95-98,37.00798583030701,False,,False,0.586742602649719,0.5543591273658954,0.9552114070977611,100,"['14', '16', '30', '32', '37', '44', '66', '68', '100', '134', '138', '140', '155', '156', '164', '197', '223', '238', '240', '244', '265', '266', '276', '309', '345', '360', '375', '379', '396', '397', '400', '405', '407', '418', '432', '438', '447', '456', '481', '482', '485', '486', '488', '507', '520', '536', '547', '554', '558', '563', '565', '588', '591', '595', '599', '600', '606', '607', '610', '619', '621', '641', '642', '651', '655', '688', '689', '699', '732', '735', '737', '746', '760', '777', '796', '798', '799', '808', '821', '844', '854', '857', '858', '876', '877', '882', '887', '889', '900', '926', '931', '938', '943', '944', '949', '952', '959', '981', '988', '989']",False,1000,True,100,83dd0cf38f,0.0,1.0,0.0
./expes/v4_2021-03-18_issda_1000-prng-1-w1-p100-ukn95_98,30_issda-1000,998,first-1000,100,10,rng,num-start-900,900,25726,ukn-95-98,122.86000394821167,False,,False,0.585330735377346,0.5680744519745199,0.9552114070977611,100,"['8', '21', '27', '45', '48', '61', '69', '84', '89', '92', '93', '106', '109', '159', '166', '169', '177', '183', '199', '200', '220', '228', '239', '242', '254', '255', '266', '267', '269', '279', '284', '287', '288', '296', '297', '299', '308', '311', '313', '318', '320', '346', '369', '382', '398', '406', '412', '424', '434', '442', '463', '474', '483', '485', '491', '519', '521', '532', '533', '548', '550', '561', '563', '587', '614', '621', '642', '643', '657', '664', '688', '718', '722', '739', '750', '784', '799', '817', '820', '827', '833', '838', '847', '849', '861', '866', '869', '876', '887', '889', '902', '904', '931', '940', '950', '958', '965', '966', '968', '984']",False,1000,True,100,bd8ac5a030,0.0,1.0,0.0
./expes/v4_2021-03-18_issda_1000-prng-1-w1-p100-ukn95_98,30_issda-1000,996,first-1000,200,20,rng,num-start-700,700,25726,ukn-95-98,58.72322916984558,False,,False,0.4381506053660907,0.4241021866187662,0.9365957375051759,100,"['2', '15', '17', '34', '40', '42', '47', '64', '65', '71', '76', '83', '85', '92', '94', '96', '98', '102', '104', '112', '119', '120', '128', '134', '143', '144', '146', '150', '151', '154', '175', '189', '192', '194', '195', '196', '209', '210', '221', '224', '225', '226', '228', '242', '245', '248', '249', '250', '257', '266', '267', '278', '282', '283', '289', '295', '298', '299', '309', '311', '318', '324', '325', '328', '333', '334', '339', '341', '342', '344', '363', '366', '367', '381', '395', '401', '409', '415', '430', '431', '437', '445', '454', '456', '459', '462', '484', '488', '489', '498', '499', '502', '505', '506', '517', '521', '524', '534', '535', '538', '546', '554', '557', '561', '562', '565', '566', '574', '582', '588', '590', '594', '598', '602', '604', '611', '617', '618', '626', '627', '628', '634', '641', '646', '650', '656', '657', '673', '677', '685', '696', '700', '701', '715', '717', '718', '721', '723', '724', '728', '737', '748', '750', '774', '776', '777', '802', '803', '804', '813', '814', '818', '819', '823', '825', '830', '832', '835', '836', '837', '842', '845', '846', '848', '850', '858', '861', '863', '865', '866', '870', '871', '876', '887', '889', '892', '897', '898', '912', '914', '917', '920', '921', '924', '930', '932', '935', '938', '939', '940', '941', '945', '946', '956', '973', '987', '989', '990', '991', '992']",False,1000,True,100,a3bfd8329f,0.0,1.0,0.0
