expe,clients,clients_size,clients_subset,agg_size,agg_size_pc,method,days,days_size,days_total,noise_method,time,valid,valid_sum,success,score_avg,score_min,score_max,nsols,oracle,wall_hit,wall_time,pooled,pool_size,uuid,infeasible,optimal,valid_sums
./expes/v2_2021-04-10_issda-daily_500-prng-1-w1-p2,daily_issda-500,500,first-500,250,50,rng,num-start-400,400,536,classic,34.432936668395996,True,,True,1.0,1.0,1.0,1,"['1', '3', '5', '10', '11', '13', '15', '16', '17', '18', '19', '21', '23', '24', '26', '29', '30', '31', '35', '38', '39', '42', '43', '44', '45', '47', '48', '50', '52', '53', '54', '55', '57', '58', '59', '66', '68', '70', '72', '74', '78', '79', '81', '82', '83', '85', '86', '87', '88', '89', '91', '94', '95', '98', '107', '108', '109', '112', '114', '116', '117', '119', '120', '121', '124', '126', '127', '128', '129', '130', '131', '132', '133', '135', '136', '137', '138', '140', '143', '147', '156', '158', '159', '160', '162', '164', '167', '168', '173', '175', '177', '180', '182', '185', '186', '187', '188', '191', '192', '195', '197', '198', '202', '205', '206', '209', '210', '213', '215', '217', '221', '228', '229', '230', '233', '234', '237', '239', '243', '246', '250', '251', '256', '257', '258', '259', '260', '261', '262', '263', '264', '266', '267', '268', '269', '270', '272', '279', '283', '286', '287', '288', '291', '295', '298', '300', '302', '303', '304', '310', '311', '316', '319', '320', '322', '326', '327', '334', '335', '336', '338', '339', '343', '344', '345', '346', '349', '350', '351', '352', '355', '359', '362', '363', '364', '366', '367', '368', '371', '372', '374', '375', '377', '379', '381', '382', '383', '385', '387', '389', '391', '393', '396', '400', '402', '404', '405', '406', '407', '408', '410', '412', '415', '417', '418', '421', '423', '426', '428', '430', '435', '438', '440', '441', '442', '446', '448', '449', '451', '452', '453', '457', '458', '460', '461', '462', '463', '465', '466', '467', '469', '470', '471', '472', '474', '478', '479', '480', '481', '482', '484', '486', '487', '489', '490', '491', '492', '493', '497', '498']",False,1000,True,2,27057a5359,0.0,1.0,1.0
./expes/v2_2021-04-10_issda-daily_500-prng-1-w1-p2,daily_issda-500,500,first-500,100,20,rng,num-start-250,250,536,classic,14.640361070632935,True,,True,1.0,1.0,1.0,1,"['2', '5', '12', '14', '15', '16', '18', '33', '49', '52', '53', '61', '62', '69', '96', '98', '108', '111', '113', '114', '118', '119', '120', '131', '137', '146', '149', '152', '156', '163', '171', '177', '195', '196', '200', '202', '214', '217', '222', '225', '229', '231', '236', '242', '250', '254', '256', '257', '259', '260', '271', '278', '284', '285', '292', '301', '302', '303', '312', '323', '329', '333', '334', '344', '347', '352', '357', '365', '370', '371', '372', '381', '390', '391', '392', '393', '404', '411', '425', '428', '429', '434', '437', '441', '452', '458', '459', '462', '467', '470', '473', '475', '480', '481', '482', '484', '488', '496', '497', '499']",False,1000,True,2,f01bdaf8c0,0.0,1.0,1.0
