expe,clients,clients_size,clients_subset,agg_size,agg_size_pc,method,days,days_size,days_total,noise_method,time,valid,valid_sum,success,score_avg,score_min,score_max,nsols,oracle,wall_hit,wall_time,pooled,pool_size,uuid,infeasible,optimal,valid_sums
./expes/v2_2021-04-10_issda-daily_500-prng-1-w1-p2,daily_issda-500,500,first-500,250,50,rng,num-start-250,250,536,classic,12.676294088363647,True,,True,1.0,1.0,1.0,1,"['4', '6', '7', '8', '11', '12', '14', '15', '16', '17', '18', '19', '22', '23', '24', '31', '32', '33', '34', '35', '40', '41', '44', '46', '50', '53', '54', '56', '61', '62', '64', '67', '68', '69', '70', '71', '78', '80', '82', '84', '87', '91', '94', '95', '96', '98', '99', '102', '109', '112', '114', '115', '116', '119', '120', '121', '122', '123', '129', '133', '135', '136', '137', '138', '139', '143', '144', '146', '149', '150', '151', '153', '154', '155', '156', '159', '161', '162', '164', '165', '168', '170', '171', '173', '174', '175', '177', '178', '180', '181', '185', '187', '188', '190', '193', '194', '198', '199', '200', '203', '204', '209', '211', '213', '214', '216', '219', '221', '223', '224', '225', '228', '231', '234', '236', '238', '239', '241', '243', '244', '247', '248', '251', '254', '257', '259', '260', '266', '267', '268', '272', '274', '275', '277', '278', '279', '281', '282', '283', '287', '292', '293', '294', '295', '296', '297', '298', '300', '301', '302', '303', '304', '305', '308', '310', '311', '312', '313', '315', '316', '318', '321', '322', '324', '325', '326', '328', '329', '330', '333', '335', '336', '344', '345', '346', '347', '348', '349', '350', '351', '354', '357', '358', '362', '366', '367', '368', '369', '373', '377', '378', '380', '389', '390', '394', '396', '398', '399', '400', '403', '404', '407', '410', '411', '412', '413', '414', '415', '416', '417', '422', '424', '426', '427', '429', '430', '433', '436', '438', '439', '441', '442', '443', '444', '445', '446', '447', '450', '452', '454', '460', '463', '464', '466', '469', '470', '472', '473', '475', '476', '480', '482', '486', '489', '491', '492', '494', '495', '498', '499']",False,1000,True,2,41718d3242,0.0,1.0,1.0
./expes/v2_2021-04-10_issda-daily_500-prng-1-w1-p2,daily_issda-500,500,first-500,100,20,rng,num-start-200,200,536,classic,11.758539915084839,True,,True,1.0,1.0,1.0,1,"['7', '8', '15', '16', '19', '22', '33', '34', '50', '67', '69', '70', '78', '82', '84', '99', '112', '119', '120', '122', '133', '138', '144', '155', '168', '173', '180', '188', '190', '198', '199', '200', '203', '204', '209', '216', '219', '224', '228', '241', '243', '244', '254', '260', '268', '274', '277', '278', '279', '282', '283', '293', '294', '296', '298', '300', '303', '304', '305', '310', '311', '321', '326', '328', '344', '345', '350', '357', '358', '366', '368', '369', '373', '380', '389', '398', '399', '400', '404', '411', '422', '427', '429', '438', '439', '441', '444', '445', '450', '463', '464', '466', '469', '472', '475', '476', '480', '491', '494', '495']",False,1000,True,2,7bcc57bd0f,0.0,1.0,1.0
