expe,clients,clients_size,clients_subset,agg_size,agg_size_pc,method,days,days_size,days_total,noise_method,time,valid,valid_sum,success,score_avg,score_min,score_max,nsols,oracle,wall_hit,wall_time,pooled,pool_size,uuid,infeasible,optimal,valid_sums
./expes/v2_2021-03-23_issda-30_2000-prng-1-w8-p2,30_issda-2000,2000,first-2000,100,5,rng,num-start-2800,2800,25726,classic,1419.2719020843506,True,,True,1.0,1.0,1.0,1,"['8', '11', '14', '17', '49', '84', '89', '106', '113', '130', '166', '172', '180', '209', '228', '230', '249', '272', '284', '285', '322', '345', '347', '382', '405', '409', '416', '420', '430', '460', '485', '488', '547', '548', '576', '597', '677', '685', '693', '700', '765', '776', '777', '786', '813', '843', '864', '866', '870', '926', '949', '950', '1008', '1030', '1037', '1136', '1186', '1210', '1223', '1239', '1256', '1263', '1381', '1386', '1410', '1434', '1441', '1452', '1485', '1487', '1492', '1508', '1529', '1566', '1583', '1586', '1618', '1625', '1658', '1733', '1743', '1746', '1775', '1786', '1801', '1816', '1818', '1822', '1828', '1834', '1835', '1840', '1857', '1867', '1883', '1893', '1918', '1938', '1949', '1975']",False,8000,True,2,66d9725250,0.0,1.0,1.0
./expes/v2_2021-03-23_issda-30_2000-prng-1-w8-p2,30_issda-2000,2000,first-2000,200,10,rng,num-start-2800,2800,25726,classic,1637.442370414734,True,,True,1.0,1.0,1.0,1,"['12', '13', '14', '18', '38', '162', '179', '182', '190', '208', '236', '242', '252', '259', '265', '270', '273', '294', '298', '300', '303', '312', '329', '334', '347', '358', '372', '375', '389', '402', '406', '411', '413', '414', '418', '424', '443', '452', '481', '487', '491', '512', '520', '528', '532', '542', '543', '553', '555', '558', '577', '606', '613', '618', '621', '665', '686', '688', '694', '696', '702', '709', '722', '739', '749', '790', '806', '813', '820', '828', '829', '831', '832', '834', '851', '853', '865', '868', '874', '889', '895', '920', '939', '940', '962', '967', '978', '979', '980', '983', '984', '1003', '1007', '1012', '1016', '1026', '1040', '1052', '1054', '1070', '1079', '1091', '1095', '1102', '1109', '1114', '1116', '1124', '1131', '1140', '1144', '1145', '1164', '1171', '1174', '1176', '1179', '1186', '1206', '1216', '1229', '1244', '1251', '1252', '1261', '1287', '1290', '1293', '1326', '1328', '1336', '1347', '1355', '1383', '1388', '1393', '1396', '1401', '1406', '1412', '1417', '1432', '1438', '1444', '1449', '1452', '1467', '1490', '1496', '1505', '1513', '1522', '1549', '1553', '1562', '1574', '1575', '1578', '1581', '1584', '1605', '1613', '1620', '1623', '1625', '1627', '1652', '1654', '1660', '1662', '1663', '1674', '1676', '1688', '1691', '1695', '1706', '1712', '1713', '1729', '1733', '1736', '1769', '1774', '1780', '1789', '1811', '1817', '1825', '1827', '1841', '1842', '1865', '1869', '1891', '1910', '1934', '1950', '1981', '1999']",False,8000,True,2,4b16cc6daf,0.0,1.0,1.0
./expes/v2_2021-03-23_issda-30_2000-prng-1-w8-p2,30_issda-2000,2000,first-2000,900,45,rng,num-start-3400,3400,25726,classic,3349.1819162368774,True,,True,1.0,1.0,1.0,1,"['2', '4', '6', '7', '10', '12', '15', '17', '18', '20', '22', '27', '32', '37', '38', '39', '41', '42', '44', '47', '48', '53', '55', '56', '58', '61', '62', '65', '66', '70', '71', '72', '73', '75', '76', '77', '78', '79', '80', '83', '84', '85', '88', '89', '92', '95', '97', '102', '106', '109', '110', '112', '114', '118', '121', '122', '124', '126', '127', '128', '131', '136', '137', '138', '139', '142', '147', '153', '154', '156', '158', '159', '160', '161', '162', '164', '167', '168', '170', '171', '175', '176', '178', '182', '183', '185', '188', '189', '191', '192', '195', '196', '199', '202', '207', '212', '213', '214', '218', '220', '227', '230', '232', '233', '234', '235', '236', '238', '240', '242', '243', '248', '250', '251', '262', '267', '272', '273', '280', '283', '284', '285', '286', '289', '291', '295', '297', '298', '305', '306', '307', '309', '313', '314', '316', '318', '320', '321', '322', '323', '325', '326', '329', '331', '332', '333', '334', '335', '336', '338', '339', '340', '341', '343', '345', '346', '348', '349', '352', '353', '354', '355', '358', '359', '362', '363', '364', '365', '368', '370', '371', '372', '374', '377', '379', '380', '385', '391', '392', '393', '397', '399', '400', '401', '402', '405', '407', '409', '411', '412', '414', '416', '418', '421', '423', '425', '426', '427', '431', '432', '433', '434', '435', '436', '437', '440', '441', '442', '443', '448', '449', '450', '453', '455', '456', '460', '464', '469', '470', '472', '474', '475', '476', '478', '479', '484', '487', '488', '489', '494', '496', '497', '501', '503', '507', '510', '511', '512', '513', '515', '516', '519', '520', '521', '524', '525', '527', '528', '529', '530', '532', '534', '536', '537', '538', '539', '540', '550', '552', '555', '557', '562', '566', '567', '569', '571', '573', '574', '575', '580', '582', '585', '586', '589', '591', '592', '593', '594', '595', '596', '598', '599', '600', '601', '606', '607', '608', '609', '611', '612', '613', '615', '616', '620', '621', '622', '623', '625', '626', '628', '630', '632', '635', '638', '639', '640', '641', '642', '645', '646', '648', '649', '657', '658', '659', '660', '661', '662', '663', '665', '666', '669', '670', '673', '676', '677', '678', '679', '682', '689', '690', '692', '694', '695', '697', '698', '703', '705', '707', '711', '712', '714', '718', '719', '724', '729', '731', '732', '734', '736', '737', '738', '742', '743', '745', '747', '748', '750', '753', '762', '763', '770', '778', '781', '782', '784', '786', '793', '794', '795', '796', '800', '802', '803', '804', '805', '809', '811', '812', '815', '820', '821', '823', '825', '826', '827', '828', '832', '834', '839', '841', '843', '844', '845', '846', '847', '848', '850', '852', '855', '857', '861', '863', '866', '867', '868', '869', '877', '881', '883', '888', '889', '893', '895', '896', '898', '899', '900', '901', '903', '904', '906', '909', '910', '915', '917', '925', '926', '927', '930', '932', '934', '939', '940', '941', '948', '950', '952', '957', '966', '968', '970', '973', '976', '977', '978', '979', '980', '981', '982', '987', '991', '992', '997', '1002', '1004', '1005', '1008', '1012', '1013', '1015', '1016', '1017', '1019', '1021', '1022', '1023', '1030', '1037', '1038', '1040', '1042', '1043', '1044', '1046', '1047', '1048', '1050', '1055', '1063', '1064', '1066', '1067', '1072', '1074', '1077', '1078', '1079', '1080', '1082', '1084', '1085', '1087', '1091', '1095', '1097', '1100', '1101', '1103', '1107', '1108', '1109', '1110', '1113', '1115', '1117', '1118', '1119', '1121', '1122', '1126', '1128', '1132', '1134', '1144', '1147', '1149', '1150', '1152', '1158', '1162', '1164', '1166', '1167', '1168', '1171', '1173', '1174', '1176', '1180', '1186', '1192', '1193', '1194', '1197', '1199', '1203', '1205', '1206', '1211', '1216', '1218', '1220', '1223', '1224', '1225', '1227', '1228', '1229', '1230', '1231', '1232', '1233', '1237', '1239', '1241', '1243', '1246', '1248', '1249', '1250', '1256', '1260', '1261', '1265', '1266', '1269', '1270', '1271', '1272', '1274', '1275', '1277', '1280', '1281', '1283', '1284', '1285', '1286', '1288', '1292', '1294', '1295', '1296', '1300', '1301', '1305', '1311', '1313', '1314', '1316', '1318', '1322', '1323', '1325', '1326', '1328', '1335', '1336', '1338', '1340', '1341', '1342', '1346', '1349', '1353', '1354', '1356', '1367', '1369', '1370', '1373', '1376', '1379', '1380', '1383', '1384', '1385', '1386', '1387', '1388', '1393', '1395', '1398', '1400', '1402', '1405', '1409', '1414', '1415', '1420', '1421', '1425', '1427', '1429', '1430', '1431', '1436', '1438', '1441', '1443', '1444', '1447', '1448', '1451', '1453', '1456', '1457', '1461', '1462', '1466', '1467', '1470', '1472', '1473', '1474', '1478', '1483', '1485', '1498', '1499', '1500', '1502', '1506', '1508', '1510', '1512', '1513', '1523', '1524', '1526', '1527', '1528', '1529', '1530', '1533', '1537', '1539', '1545', '1546', '1548', '1549', '1553', '1554', '1557', '1566', '1568', '1571', '1573', '1577', '1578', '1580', '1582', '1585', '1586', '1588', '1591', '1594', '1597', '1601', '1603', '1604', '1606', '1607', '1611', '1612', '1613', '1616', '1617', '1619', '1620', '1626', '1631', '1634', '1635', '1636', '1638', '1640', '1641', '1642', '1643', '1644', '1645', '1648', '1653', '1654', '1657', '1659', '1665', '1669', '1671', '1675', '1676', '1677', '1681', '1687', '1690', '1691', '1692', '1694', '1695', '1698', '1700', '1702', '1703', '1704', '1708', '1709', '1710', '1711', '1714', '1716', '1718', '1719', '1720', '1722', '1725', '1727', '1729', '1730', '1731', '1735', '1736', '1737', '1738', '1747', '1751', '1753', '1754', '1757', '1758', '1759', '1761', '1765', '1766', '1767', '1770', '1771', '1773', '1777', '1781', '1782', '1784', '1790', '1791', '1792', '1795', '1796', '1798', '1800', '1801', '1803', '1804', '1805', '1807', '1809', '1814', '1816', '1817', '1821', '1822', '1823', '1824', '1825', '1827', '1828', '1830', '1832', '1833', '1835', '1837', '1838', '1842', '1843', '1845', '1846', '1848', '1850', '1851', '1852', '1853', '1854', '1858', '1859', '1861', '1862', '1865', '1866', '1867', '1868', '1870', '1871', '1873', '1875', '1876', '1878', '1880', '1882', '1885', '1887', '1889', '1890', '1893', '1894', '1896', '1900', '1901', '1902', '1903', '1905', '1906', '1909', '1911', '1914', '1915', '1916', '1918', '1919', '1920', '1921', '1922', '1924', '1925', '1927', '1928', '1930', '1932', '1934', '1935', '1942', '1945', '1946', '1947', '1948', '1949', '1951', '1953', '1955', '1956', '1957', '1959', '1965', '1966', '1967', '1968', '1970', '1972', '1976', '1977', '1979', '1984', '1986', '1988', '1989', '1990', '1991', '1994', '1995', '1997', '1998']",False,8000,True,2,b9f01dc374,0.0,1.0,1.0
