expe,clients,clients_size,clients_subset,agg_size,agg_size_pc,method,days,days_size,days_total,noise_method,time,valid,valid_sum,success,score_avg,score_min,score_max,nsols,oracle,wall_hit,wall_time,pooled,pool_size,uuid,infeasible,optimal,valid_sums
./expes/v2_2021-03-23_issda-30_2000-prng-1-w8-p2,30_issda-2000,2000,first-2000,400,20,rng,num-start-3400,3400,25726,classic,2801.161385536194,True,,True,1.0,1.0,1.0,1,"['11', '16', '17', '20', '22', '25', '32', '37', '40', '43', '54', '56', '57', '59', '62', '69', '101', '102', '103', '104', '106', '107', '110', '111', '120', '123', '128', '132', '135', '142', '151', '154', '159', '166', '168', '171', '175', '191', '192', '193', '202', '203', '217', '226', '227', '232', '240', '241', '252', '253', '256', '261', '263', '266', '281', '282', '284', '287', '291', '293', '309', '310', '311', '316', '331', '335', '337', '347', '350', '353', '358', '367', '376', '377', '386', '387', '394', '395', '401', '403', '407', '411', '418', '431', '433', '435', '438', '448', '455', '456', '461', '470', '474', '490', '496', '499', '510', '512', '513', '514', '515', '517', '523', '529', '538', '540', '544', '548', '552', '559', '565', '570', '577', '581', '584', '594', '602', '603', '605', '618', '622', '625', '630', '634', '635', '636', '639', '642', '647', '648', '650', '651', '652', '654', '659', '667', '674', '678', '681', '685', '687', '689', '691', '695', '712', '713', '727', '729', '731', '737', '746', '749', '754', '763', '768', '787', '796', '802', '805', '820', '823', '826', '827', '831', '834', '836', '837', '840', '849', '854', '859', '860', '862', '866', '877', '887', '889', '893', '897', '907', '912', '913', '920', '921', '928', '933', '941', '950', '957', '958', '967', '971', '973', '978', '984', '989', '990', '994', '997', '1011', '1013', '1028', '1033', '1034', '1037', '1039', '1057', '1061', '1063', '1064', '1070', '1072', '1076', '1077', '1080', '1082', '1091', '1092', '1096', '1099', '1100', '1103', '1104', '1105', '1106', '1107', '1111', '1113', '1114', '1126', '1129', '1134', '1135', '1138', '1139', '1141', '1145', '1146', '1156', '1164', '1171', '1172', '1178', '1180', '1184', '1185', '1188', '1191', '1201', '1202', '1209', '1212', '1226', '1229', '1237', '1238', '1254', '1256', '1272', '1283', '1284', '1297', '1304', '1309', '1312', '1330', '1347', '1349', '1355', '1359', '1367', '1386', '1395', '1398', '1402', '1403', '1405', '1416', '1433', '1442', '1443', '1445', '1446', '1455', '1465', '1466', '1484', '1485', '1493', '1497', '1499', '1513', '1514', '1525', '1526', '1529', '1531', '1533', '1535', '1537', '1540', '1541', '1543', '1546', '1552', '1556', '1557', '1567', '1569', '1579', '1586', '1594', '1598', '1600', '1603', '1607', '1611', '1613', '1622', '1627', '1642', '1643', '1644', '1645', '1649', '1653', '1661', '1664', '1665', '1666', '1670', '1673', '1679', '1680', '1682', '1684', '1689', '1693', '1698', '1702', '1705', '1715', '1719', '1725', '1734', '1742', '1753', '1759', '1761', '1772', '1777', '1778', '1789', '1793', '1805', '1808', '1819', '1823', '1830', '1837', '1838', '1841', '1844', '1847', '1856', '1859', '1861', '1862', '1864', '1870', '1878', '1880', '1885', '1892', '1893', '1897', '1905', '1911', '1917', '1925', '1926', '1930', '1936', '1949', '1957', '1958', '1960', '1961', '1962', '1966', '1968', '1970', '1976', '1982', '1987', '1992', '1994', '1996', '1997', '1998']",False,8000,True,2,07bf12891c,0.0,1.0,1.0
./expes/v2_2021-03-23_issda-30_2000-prng-1-w8-p2,30_issda-2000,2000,first-2000,1000,50,rng,num-start-3000,3000,25726,classic,3047.5214421749115,True,,True,1.0,1.0,1.0,1,"['1', '5', '6', '7', '9', '11', '14', '15', '18', '26', '27', '30', '31', '32', '34', '35', '37', '39', '41', '43', '45', '47', '48', '49', '50', '51', '52', '54', '55', '57', '66', '69', '71', '73', '75', '81', '84', '85', '86', '87', '89', '90', '93', '96', '98', '100', '102', '110', '114', '118', '123', '124', '127', '128', '130', '131', '132', '133', '135', '136', '137', '140', '141', '142', '145', '147', '148', '149', '151', '153', '155', '159', '162', '164', '167', '171', '172', '173', '175', '176', '177', '178', '180', '181', '184', '187', '188', '190', '192', '193', '194', '195', '196', '199', '202', '204', '207', '208', '210', '211', '212', '215', '216', '218', '219', '220', '221', '223', '224', '227', '228', '230', '232', '233', '234', '236', '238', '239', '242', '245', '246', '248', '249', '251', '253', '257', '258', '259', '262', '263', '264', '265', '267', '271', '272', '273', '274', '275', '276', '277', '279', '280', '282', '284', '286', '287', '288', '290', '294', '297', '300', '304', '305', '307', '309', '310', '312', '314', '316', '317', '320', '321', '325', '326', '336', '337', '338', '340', '341', '342', '344', '348', '349', '351', '352', '354', '359', '360', '361', '362', '363', '365', '366', '367', '369', '370', '371', '372', '376', '377', '380', '382', '383', '384', '385', '387', '388', '389', '390', '392', '393', '394', '396', '397', '399', '401', '402', '404', '409', '410', '413', '414', '415', '416', '421', '422', '424', '425', '428', '429', '430', '431', '432', '436', '438', '441', '444', '446', '448', '450', '453', '455', '456', '459', '461', '462', '463', '464', '465', '466', '472', '475', '477', '478', '480', '486', '489', '493', '494', '495', '496', '497', '500', '502', '503', '509', '510', '511', '512', '515', '517', '519', '520', '521', '523', '529', '530', '533', '534', '535', '537', '539', '540', '542', '549', '550', '551', '554', '555', '556', '557', '559', '560', '562', '563', '564', '567', '568', '571', '572', '576', '579', '581', '582', '583', '585', '586', '591', '592', '593', '594', '597', '599', '601', '602', '603', '606', '608', '609', '612', '613', '614', '616', '617', '619', '623', '624', '627', '630', '632', '633', '634', '636', '637', '638', '641', '642', '646', '648', '650', '651', '655', '660', '663', '664', '665', '667', '671', '672', '674', '675', '676', '680', '682', '683', '684', '689', '690', '695', '696', '698', '699', '700', '703', '707', '710', '711', '712', '716', '718', '720', '721', '723', '724', '725', '726', '727', '731', '734', '735', '737', '742', '743', '744', '745', '746', '747', '750', '751', '752', '755', '756', '757', '758', '760', '763', '767', '771', '772', '776', '777', '781', '783', '785', '788', '792', '793', '794', '795', '796', '798', '800', '801', '803', '804', '806', '812', '813', '814', '817', '819', '821', '823', '827', '829', '830', '831', '833', '834', '843', '844', '845', '846', '847', '848', '849', '852', '854', '855', '856', '857', '862', '867', '872', '874', '875', '878', '879', '880', '881', '882', '888', '889', '890', '891', '893', '895', '896', '897', '898', '899', '901', '902', '906', '908', '910', '912', '914', '915', '917', '918', '921', '922', '923', '925', '926', '928', '930', '931', '932', '933', '934', '937', '938', '939', '941', '943', '945', '947', '949', '950', '952', '955', '956', '957', '959', '960', '962', '963', '964', '967', '968', '969', '975', '978', '979', '980', '982', '983', '984', '986', '987', '989', '991', '994', '995', '996', '998', '999', '1001', '1002', '1003', '1004', '1006', '1008', '1009', '1011', '1012', '1015', '1018', '1019', '1021', '1022', '1025', '1026', '1028', '1029', '1030', '1034', '1036', '1043', '1045', '1048', '1049', '1050', '1051', '1053', '1054', '1056', '1057', '1058', '1065', '1066', '1067', '1069', '1072', '1073', '1075', '1077', '1078', '1080', '1083', '1084', '1085', '1086', '1087', '1089', '1090', '1094', '1095', '1098', '1099', '1100', '1101', '1102', '1104', '1105', '1106', '1108', '1110', '1111', '1112', '1115', '1117', '1118', '1120', '1121', '1124', '1125', '1126', '1129', '1134', '1135', '1136', '1137', '1141', '1143', '1145', '1151', '1152', '1153', '1155', '1156', '1165', '1166', '1167', '1169', '1175', '1178', '1179', '1181', '1184', '1186', '1188', '1190', '1191', '1193', '1194', '1195', '1198', '1199', '1200', '1202', '1203', '1204', '1206', '1208', '1210', '1211', '1213', '1215', '1216', '1217', '1218', '1219', '1221', '1222', '1223', '1224', '1226', '1227', '1229', '1232', '1240', '1243', '1246', '1248', '1249', '1250', '1251', '1254', '1256', '1259', '1261', '1265', '1267', '1268', '1269', '1270', '1271', '1272', '1274', '1280', '1281', '1282', '1283', '1286', '1287', '1290', '1292', '1293', '1298', '1299', '1301', '1302', '1303', '1305', '1308', '1310', '1311', '1313', '1315', '1320', '1323', '1325', '1329', '1330', '1331', '1333', '1336', '1337', '1339', '1344', '1345', '1347', '1349', '1351', '1352', '1353', '1355', '1356', '1360', '1364', '1367', '1368', '1370', '1371', '1372', '1373', '1374', '1376', '1378', '1380', '1381', '1385', '1387', '1388', '1389', '1391', '1394', '1396', '1397', '1398', '1401', '1405', '1406', '1407', '1408', '1409', '1410', '1411', '1415', '1420', '1423', '1424', '1426', '1427', '1428', '1429', '1432', '1435', '1436', '1437', '1438', '1442', '1445', '1452', '1454', '1461', '1463', '1465', '1467', '1468', '1469', '1470', '1473', '1474', '1475', '1484', '1485', '1486', '1490', '1491', '1497', '1498', '1500', '1501', '1503', '1507', '1509', '1510', '1512', '1513', '1514', '1515', '1519', '1523', '1524', '1525', '1526', '1528', '1532', '1534', '1540', '1541', '1543', '1545', '1546', '1548', '1550', '1553', '1556', '1557', '1559', '1560', '1561', '1565', '1568', '1569', '1570', '1572', '1577', '1584', '1585', '1586', '1587', '1588', '1591', '1594', '1595', '1600', '1601', '1602', '1604', '1605', '1607', '1608', '1609', '1611', '1612', '1614', '1617', '1618', '1622', '1623', '1624', '1625', '1626', '1629', '1630', '1632', '1639', '1642', '1644', '1645', '1646', '1647', '1648', '1653', '1655', '1661', '1662', '1663', '1667', '1670', '1673', '1674', '1675', '1679', '1680', '1684', '1686', '1688', '1689', '1690', '1692', '1696', '1698', '1700', '1702', '1704', '1705', '1708', '1709', '1710', '1712', '1715', '1716', '1720', '1722', '1724', '1729', '1730', '1731', '1732', '1733', '1735', '1737', '1738', '1740', '1741', '1742', '1744', '1745', '1746', '1747', '1748', '1752', '1753', '1754', '1755', '1761', '1762', '1763', '1766', '1767', '1768', '1770', '1774', '1776', '1777', '1779', '1786', '1790', '1795', '1799', '1800', '1801', '1804', '1807', '1809', '1811', '1812', '1814', '1815', '1816', '1820', '1822', '1824', '1831', '1832', '1833', '1834', '1835', '1836', '1837', '1838', '1839', '1843', '1848', '1849', '1850', '1851', '1853', '1854', '1855', '1856', '1859', '1860', '1862', '1863', '1865', '1874', '1876', '1883', '1884', '1885', '1887', '1892', '1893', '1894', '1896', '1897', '1898', '1901', '1903', '1905', '1906', '1907', '1908', '1909', '1911', '1913', '1914', '1915', '1916', '1917', '1918', '1919', '1921', '1924', '1925', '1929', '1932', '1933', '1934', '1936', '1937', '1938', '1941', '1942', '1945', '1946', '1947', '1949', '1952', '1954', '1956', '1957', '1959', '1960', '1963', '1964', '1970', '1973', '1974', '1977', '1978', '1979', '1980', '1981', '1983', '1984', '1987', '1989', '1990', '1991', '1993', '1995', '1999']",False,8000,True,2,36980a2247,0.0,1.0,1.0
./expes/v2_2021-03-23_issda-30_2000-prng-1-w8-p2,30_issda-2000,2000,first-2000,300,15,rng,num-start-3400,3400,25726,classic,2520.2248764038086,True,,True,1.0,1.0,1.0,1,"['1', '2', '10', '20', '23', '31', '32', '34', '35', '37', '41', '44', '61', '62', '69', '72', '74', '80', '86', '87', '96', '98', '108', '122', '123', '124', '130', '137', '138', '141', '142', '144', '150', '151', '152', '153', '154', '161', '171', '175', '179', '185', '186', '189', '193', '206', '207', '213', '221', '222', '224', '239', '242', '259', '261', '269', '270', '276', '278', '280', '284', '288', '291', '300', '316', '323', '325', '360', '361', '364', '375', '379', '382', '384', '386', '389', '390', '391', '401', '403', '407', '418', '428', '430', '432', '435', '436', '437', '438', '468', '471', '479', '489', '496', '498', '505', '511', '521', '523', '527', '529', '552', '553', '570', '574', '578', '592', '596', '601', '603', '607', '622', '623', '637', '638', '639', '646', '654', '669', '674', '678', '682', '690', '733', '742', '756', '762', '769', '786', '791', '792', '796', '803', '808', '809', '812', '814', '821', '834', '840', '843', '859', '860', '862', '864', '903', '905', '913', '915', '917', '923', '926', '927', '928', '929', '937', '951', '953', '954', '963', '973', '975', '982', '988', '989', '991', '998', '1006', '1024', '1041', '1043', '1049', '1050', '1051', '1064', '1066', '1069', '1083', '1088', '1104', '1129', '1135', '1146', '1147', '1154', '1160', '1172', '1177', '1182', '1194', '1197', '1203', '1209', '1211', '1214', '1220', '1222', '1226', '1229', '1232', '1233', '1237', '1250', '1251', '1258', '1259', '1261', '1262', '1275', '1277', '1285', '1289', '1290', '1300', '1303', '1304', '1312', '1315', '1319', '1332', '1339', '1340', '1342', '1346', '1357', '1383', '1397', '1403', '1407', '1416', '1421', '1436', '1443', '1448', '1450', '1452', '1476', '1486', '1497', '1499', '1501', '1514', '1515', '1516', '1534', '1553', '1570', '1576', '1583', '1594', '1595', '1600', '1625', '1633', '1646', '1647', '1659', '1675', '1687', '1701', '1704', '1705', '1721', '1726', '1734', '1736', '1746', '1750', '1752', '1755', '1771', '1774', '1775', '1802', '1807', '1813', '1824', '1825', '1854', '1861', '1865', '1874', '1879', '1890', '1892', '1893', '1899', '1904', '1909', '1926', '1940', '1946', '1963', '1965', '1972', '1975', '1976', '1989', '1993', '1997']",False,8000,True,2,66d7ec21bc,0.0,1.0,1.0
