expe,clients,clients_size,clients_subset,agg_size,agg_size_pc,method,days,days_size,days_total,noise_method,time,valid,valid_sum,success,score_avg,score_min,score_max,nsols,oracle,wall_hit,wall_time,pooled,pool_size,uuid,infeasible,optimal,valid_sums
./expes/v2_2021-03-23_issda-30_2000-prng-1-w8-p2,30_issda-2000,2000,first-2000,300,15,rng,num-start-800,800,25726,classic,766.1516120433807,True,,True,1.0,1.0,1.0,1,"['6', '15', '18', '34', '35', '47', '51', '54', '66', '69', '75', '81', '84', '89', '93', '96', '127', '128', '132', '137', '140', '145', '148', '151', '155', '159', '175', '181', '187', '188', '192', '194', '202', '204', '207', '208', '215', '219', '221', '230', '233', '234', '238', '246', '248', '249', '259', '263', '276', '279', '284', '287', '304', '314', '317', '325', '340', '349', '351', '359', '376', '384', '392', '393', '404', '409', '413', '415', '416', '425', '429', '432', '459', '461', '464', '477', '502', '503', '512', '519', '534', '535', '537', '539', '542', '549', '562', '563', '568', '576', '582', '585', '586', '593', '594', '601', '602', '606', '613', '617', '627', '632', '637', '638', '650', '651', '663', '665', '667', '671', '676', '680', '712', '731', '742', '752', '756', '757', '772', '777', '788', '796', '800', '803', '806', '812', '827', '831', '833', '844', '847', '849', '862', '867', '878', '879', '880', '881', '893', '895', '899', '902', '910', '912', '921', '922', '925', '926', '931', '934', '938', '939', '945', '949', '955', '957', '960', '962', '963', '975', '980', '983', '984', '1011', '1012', '1025', '1029', '1030', '1034', '1036', '1043', '1048', '1051', '1054', '1066', '1073', '1083', '1084', '1110', '1111', '1117', '1118', '1121', '1136', '1152', '1166', '1167', '1169', '1181', '1186', '1198', '1204', '1206', '1208', '1211', '1216', '1217', '1219', '1222', '1256', '1265', '1271', '1272', '1283', '1299', '1303', '1305', '1313', '1323', '1329', '1330', '1337', '1339', '1345', '1349', '1351', '1360', '1368', '1385', '1387', '1388', '1396', '1398', '1401', '1406', '1408', '1423', '1426', '1445', '1454', '1465', '1467', '1468', '1470', '1475', '1485', '1491', '1497', '1498', '1503', '1507', '1512', '1528', '1540', '1541', '1548', '1568', '1584', '1587', '1608', '1622', '1642', '1645', '1646', '1647', '1661', '1689', '1692', '1704', '1708', '1710', '1712', '1724', '1729', '1741', '1747', '1748', '1753', '1762', '1774', '1779', '1786', '1790', '1799', '1800', '1801', '1809', '1812', '1824', '1834', '1836', '1838', '1856', '1874', '1885', '1903', '1905', '1916', '1917', '1938', '1946', '1954', '1957', '1959', '1960', '1963', '1977', '1983', '1989', '1993']",False,8000,True,2,33af72d81c,0.0,1.0,1.0
./expes/v2_2021-03-23_issda-30_2000-prng-1-w8-p2,30_issda-2000,2000,first-2000,100,5,rng,num-start-2200,2200,25726,classic,1450.705839395523,True,,True,1.0,1.0,1.0,1,"['5', '19', '45', '46', '53', '59', '60', '63', '130', '193', '205', '210', '242', '248', '276', '381', '389', '430', '444', '449', '455', '469', '473', '478', '523', '546', '582', '594', '608', '622', '651', '682', '708', '778', '781', '799', '853', '865', '887', '897', '913', '921', '942', '968', '1000', '1015', '1016', '1023', '1026', '1040', '1081', '1109', '1133', '1140', '1166', '1204', '1211', '1245', '1289', '1316', '1331', '1335', '1373', '1387', '1406', '1426', '1457', '1478', '1483', '1487', '1522', '1559', '1562', '1565', '1572', '1616', '1643', '1644', '1700', '1712', '1716', '1734', '1736', '1762', '1805', '1808', '1830', '1835', '1847', '1865', '1877', '1889', '1898', '1918', '1924', '1936', '1951', '1981', '1985', '1994']",False,8000,True,2,8ca6bd0682,0.0,1.0,1.0
./expes/v2_2021-03-23_issda-30_2000-prng-1-w8-p2,30_issda-2000,2000,first-2000,200,10,rng,num-start-4000,4000,25726,classic,2586.5209727287292,True,,True,1.0,1.0,1.0,1,"['2', '8', '11', '14', '17', '36', '38', '49', '53', '71', '84', '85', '89', '106', '111', '113', '130', '141', '166', '172', '174', '178', '180', '182', '192', '209', '212', '226', '228', '229', '230', '249', '272', '273', '284', '285', '298', '306', '322', '332', '345', '347', '354', '382', '394', '405', '406', '408', '409', '416', '420', '430', '431', '438', '455', '460', '485', '488', '509', '547', '548', '550', '553', '576', '584', '597', '630', '666', '674', '677', '685', '693', '700', '709', '712', '749', '750', '765', '776', '777', '782', '786', '813', '816', '824', '825', '843', '861', '864', '866', '870', '878', '888', '910', '925', '926', '949', '950', '1008', '1018', '1019', '1026', '1030', '1035', '1037', '1060', '1070', '1101', '1106', '1136', '1137', '1148', '1158', '1160', '1174', '1177', '1179', '1186', '1188', '1197', '1209', '1210', '1223', '1239', '1242', '1245', '1248', '1252', '1256', '1263', '1290', '1309', '1381', '1386', '1400', '1409', '1410', '1434', '1436', '1441', '1445', '1452', '1453', '1474', '1485', '1487', '1492', '1508', '1510', '1527', '1528', '1529', '1566', '1567', '1583', '1586', '1587', '1593', '1599', '1606', '1618', '1625', '1638', '1654', '1658', '1669', '1732', '1733', '1743', '1745', '1746', '1770', '1775', '1777', '1780', '1786', '1801', '1806', '1816', '1818', '1822', '1828', '1834', '1835', '1840', '1856', '1857', '1867', '1880', '1883', '1887', '1893', '1918', '1925', '1938', '1940', '1948', '1949', '1963', '1975']",False,8000,True,2,60b034e255,0.0,1.0,1.0
./expes/v2_2021-03-23_issda-30_2000-prng-1-w8-p2,30_issda-2000,2000,first-2000,100,5,rng,num-start-4000,4000,25726,classic,1809.8726892471313,True,,True,1.0,1.0,1.0,1,"['15', '41', '53', '89', '95', '121', '137', '167', '178', '183', '185', '212', '218', '318', '331', '338', '354', '365', '397', '400', '440', '455', '478', '484', '507', '510', '532', '534', '537', '557', '567', '574', '575', '591', '593', '594', '598', '615', '622', '625', '635', '639', '692', '738', '763', '795', '812', '823', '848', '868', '883', '925', '948', '970', '981', '1037', '1042', '1063', '1066', '1095', '1100', '1122', '1126', '1173', '1227', '1241', '1283', '1285', '1313', '1328', '1376', '1444', '1478', '1499', '1568', '1597', '1634', '1640', '1653', '1665', '1676', '1694', '1698', '1722', '1731', '1737', '1738', '1751', '1773', '1777', '1803', '1807', '1862', '1880', '1900', '1915', '1930', '1932', '1935', '1968']",False,8000,True,2,869f85af93,0.0,1.0,1.0
./expes/v2_2021-03-23_issda-30_2000-prng-1-w8-p2,30_issda-2000,2000,first-2000,500,25,rng,num-start-1600,1600,25726,classic,1444.7378344535828,True,,True,1.0,1.0,1.0,1,"['2', '4', '7', '11', '19', '24', '27', '28', '34', '38', '41', '45', '47', '49', '55', '57', '60', '66', '68', '71', '74', '75', '76', '82', '86', '96', '100', '107', '111', '115', '117', '121', '130', '134', '136', '148', '161', '162', '166', '183', '187', '189', '195', '209', '219', '222', '227', '231', '232', '236', '243', '244', '250', '259', '260', '265', '268', '271', '272', '273', '274', '280', '285', '289', '290', '291', '292', '294', '299', '301', '304', '305', '306', '317', '322', '326', '327', '328', '331', '340', '341', '346', '347', '352', '354', '361', '364', '366', '368', '369', '370', '371', '372', '373', '379', '397', '401', '403', '404', '407', '408', '419', '420', '425', '427', '429', '442', '444', '449', '464', '487', '488', '499', '503', '504', '505', '511', '513', '514', '515', '524', '525', '533', '541', '543', '549', '555', '558', '561', '562', '565', '571', '573', '576', '579', '580', '586', '587', '592', '593', '597', '601', '602', '604', '605', '606', '608', '612', '616', '617', '618', '620', '627', '628', '630', '634', '635', '640', '643', '647', '649', '650', '651', '654', '667', '668', '680', '685', '689', '693', '694', '696', '697', '698', '705', '706', '708', '713', '717', '718', '720', '721', '727', '728', '729', '731', '733', '735', '740', '742', '743', '745', '747', '750', '753', '757', '762', '764', '766', '770', '771', '773', '778', '779', '780', '783', '784', '785', '787', '798', '804', '827', '828', '831', '832', '836', '837', '839', '840', '848', '850', '851', '854', '858', '859', '862', '864', '880', '885', '887', '890', '904', '909', '912', '922', '928', '929', '934', '947', '948', '949', '951', '953', '954', '958', '961', '963', '966', '968', '972', '973', '977', '978', '982', '983', '984', '985', '986', '989', '991', '995', '1000', '1004', '1008', '1009', '1011', '1017', '1023', '1025', '1030', '1050', '1051', '1056', '1058', '1062', '1070', '1075', '1085', '1086', '1090', '1091', '1093', '1103', '1105', '1114', '1117', '1121', '1123', '1125', '1127', '1133', '1146', '1148', '1155', '1156', '1159', '1176', '1185', '1190', '1201', '1202', '1204', '1208', '1209', '1210', '1217', '1221', '1231', '1236', '1237', '1246', '1247', '1251', '1253', '1257', '1260', '1264', '1265', '1266', '1271', '1274', '1276', '1278', '1279', '1282', '1284', '1285', '1290', '1292', '1293', '1305', '1308', '1316', '1320', '1321', '1326', '1330', '1331', '1332', '1334', '1336', '1352', '1356', '1357', '1360', '1364', '1369', '1374', '1376', '1380', '1389', '1397', '1405', '1410', '1411', '1412', '1415', '1417', '1423', '1427', '1439', '1443', '1444', '1450', '1451', '1467', '1471', '1472', '1474', '1475', '1476', '1477', '1478', '1495', '1496', '1498', '1499', '1512', '1516', '1517', '1518', '1520', '1523', '1526', '1533', '1536', '1548', '1555', '1556', '1558', '1561', '1569', '1577', '1585', '1587', '1589', '1590', '1599', '1600', '1601', '1602', '1610', '1614', '1629', '1633', '1634', '1636', '1642', '1665', '1666', '1673', '1675', '1677', '1679', '1682', '1684', '1693', '1694', '1697', '1703', '1711', '1714', '1718', '1722', '1723', '1724', '1727', '1729', '1731', '1745', '1746', '1749', '1751', '1753', '1761', '1769', '1775', '1776', '1777', '1778', '1779', '1782', '1785', '1787', '1795', '1796', '1804', '1826', '1827', '1829', '1830', '1831', '1833', '1837', '1846', '1848', '1850', '1872', '1877', '1881', '1889', '1892', '1893', '1904', '1916', '1917', '1918', '1920', '1921', '1924', '1928', '1930', '1931', '1932', '1936', '1937', '1945', '1946', '1948', '1950', '1955', '1957', '1959', '1960', '1961', '1963', '1966', '1967', '1968', '1969', '1970', '1976', '1977', '1980', '1983', '1984', '1992', '1998', '1999', '2000']",False,8000,True,2,6c4ec15491,0.0,1.0,1.0
