expe,clients,clients_size,clients_subset,agg_size,agg_size_pc,method,days,days_size,days_total,noise_method,time,valid,valid_sum,success,score_avg,score_min,score_max,nsols,oracle,wall_hit,wall_time,pooled,pool_size,uuid,infeasible,optimal,valid_sums
./expes/v2_2021-03-23_issda-30_2000-prng-1-w8-p2,30_issda-2000,2000,first-2000,200,10,rng,num-start-4000,4000,25726,classic,1947.7597258090973,True,,True,1.0,1.0,1.0,1,"['7', '25', '28', '35', '41', '53', '63', '69', '70', '77', '90', '119', '129', '130', '132', '144', '147', '165', '175', '177', '184', '195', '199', '200', '219', '221', '233', '239', '248', '259', '277', '281', '285', '288', '292', '304', '305', '308', '315', '325', '330', '341', '349', '359', '389', '394', '396', '398', '405', '414', '426', '429', '451', '465', '475', '480', '481', '500', '507', '522', '530', '547', '583', '586', '592', '606', '612', '614', '615', '633', '643', '667', '694', '698', '701', '703', '705', '720', '729', '731', '732', '738', '750', '759', '769', '772', '773', '777', '780', '792', '800', '812', '821', '825', '834', '835', '840', '854', '856', '868', '873', '893', '912', '914', '929', '935', '941', '972', '994', '999', '1000', '1001', '1014', '1020', '1032', '1035', '1038', '1040', '1045', '1059', '1066', '1067', '1080', '1083', '1090', '1106', '1117', '1142', '1156', '1166', '1174', '1175', '1186', '1191', '1197', '1206', '1232', '1238', '1243', '1271', '1278', '1315', '1319', '1323', '1331', '1346', '1347', '1349', '1354', '1358', '1359', '1414', '1416', '1436', '1437', '1438', '1444', '1445', '1451', '1469', '1487', '1493', '1524', '1555', '1566', '1570', '1632', '1655', '1656', '1662', '1668', '1699', '1701', '1709', '1713', '1728', '1746', '1752', '1755', '1762', '1799', '1805', '1826', '1838', '1847', '1848', '1850', '1851', '1854', '1860', '1867', '1870', '1910', '1918', '1938', '1946', '1971', '1977', '1993', '1997']",False,8000,True,2,e57e85ecd7,0.0,1.0,1.0
./expes/v2_2021-03-23_issda-30_2000-prng-1-w8-p2,30_issda-2000,2000,first-2000,300,15,rng,num-start-2000,2000,25726,classic,1125.1762290000916,True,,True,1.0,1.0,1.0,1,"['6', '10', '19', '24', '31', '32', '35', '36', '39', '59', '64', '75', '85', '89', '98', '113', '115', '116', '121', '122', '124', '127', '132', '135', '151', '152', '161', '162', '168', '174', '190', '202', '205', '206', '222', '237', '239', '240', '249', '264', '267', '288', '292', '295', '302', '311', '319', '321', '324', '325', '328', '337', '353', '368', '383', '401', '402', '423', '428', '458', '462', '469', '474', '475', '476', '479', '482', '490', '491', '500', '511', '515', '523', '524', '533', '540', '558', '560', '575', '587', '589', '606', '620', '626', '636', '638', '639', '642', '645', '646', '652', '653', '660', '666', '678', '683', '686', '688', '689', '691', '693', '694', '697', '704', '706', '712', '713', '725', '728', '729', '732', '738', '753', '756', '771', '778', '789', '793', '796', '799', '804', '807', '810', '818', '823', '830', '831', '836', '860', '862', '883', '889', '900', '905', '913', '920', '923', '933', '939', '942', '945', '947', '956', '957', '960', '972', '976', '986', '992', '1003', '1005', '1008', '1009', '1014', '1021', '1022', '1024', '1025', '1029', '1036', '1048', '1050', '1062', '1066', '1068', '1086', '1094', '1114', '1115', '1122', '1124', '1127', '1137', '1141', '1157', '1158', '1161', '1167', '1172', '1180', '1183', '1186', '1191', '1202', '1203', '1216', '1220', '1239', '1251', '1257', '1258', '1263', '1265', '1267', '1283', '1288', '1314', '1323', '1325', '1329', '1343', '1357', '1371', '1386', '1390', '1396', '1402', '1404', '1415', '1419', '1422', '1423', '1438', '1445', '1450', '1451', '1473', '1477', '1482', '1483', '1486', '1489', '1493', '1508', '1511', '1518', '1539', '1544', '1547', '1551', '1557', '1592', '1593', '1595', '1602', '1604', '1608', '1615', '1631', '1634', '1637', '1640', '1649', '1659', '1683', '1686', '1690', '1701', '1711', '1716', '1718', '1721', '1722', '1728', '1729', '1735', '1752', '1753', '1756', '1757', '1763', '1769', '1773', '1781', '1783', '1787', '1792', '1802', '1817', '1827', '1829', '1830', '1831', '1854', '1858', '1859', '1862', '1870', '1874', '1884', '1888', '1890', '1895', '1896', '1900', '1901', '1906', '1915', '1916', '1922', '1935', '1936', '1938', '1942', '1965', '1967', '1971', '1977', '1982', '2000']",False,8000,True,2,6f276f5db3,0.0,1.0,1.0
./expes/v2_2021-03-23_issda-30_2000-prng-1-w8-p2,30_issda-2000,2000,first-2000,1000,50,rng,num-start-3200,3200,25726,classic,2743.968598842621,True,,True,1.0,1.0,1.0,1,"['4', '5', '8', '9', '13', '14', '15', '16', '17', '18', '20', '21', '22', '23', '26', '27', '35', '36', '38', '39', '40', '43', '45', '49', '50', '51', '53', '56', '58', '59', '61', '63', '64', '67', '71', '76', '78', '81', '82', '83', '85', '88', '89', '90', '93', '95', '97', '101', '104', '106', '107', '108', '109', '116', '117', '118', '119', '121', '123', '125', '128', '132', '136', '138', '139', '142', '145', '146', '147', '148', '149', '150', '151', '153', '156', '160', '162', '164', '166', '169', '170', '172', '173', '175', '179', '180', '182', '183', '186', '187', '190', '191', '193', '198', '199', '201', '202', '208', '210', '211', '212', '217', '218', '221', '222', '223', '225', '231', '232', '234', '235', '236', '238', '240', '242', '244', '245', '250', '251', '253', '256', '258', '260', '265', '269', '270', '272', '275', '276', '277', '278', '279', '280', '282', '284', '286', '287', '289', '290', '291', '292', '293', '296', '297', '298', '300', '301', '304', '305', '308', '310', '311', '317', '318', '319', '320', '322', '324', '325', '327', '330', '333', '334', '335', '336', '342', '344', '345', '346', '347', '348', '349', '351', '352', '354', '355', '357', '360', '361', '363', '365', '367', '368', '369', '373', '375', '377', '380', '385', '387', '388', '390', '392', '393', '395', '399', '400', '401', '402', '403', '404', '405', '408', '409', '410', '411', '413', '414', '415', '418', '419', '420', '421', '423', '424', '425', '426', '428', '429', '431', '432', '433', '435', '437', '439', '449', '450', '451', '452', '455', '458', '460', '463', '466', '467', '468', '469', '471', '472', '473', '475', '478', '482', '484', '489', '490', '492', '495', '496', '504', '507', '508', '512', '513', '516', '517', '522', '523', '526', '529', '531', '532', '534', '536', '538', '539', '540', '545', '546', '549', '550', '551', '555', '557', '560', '561', '562', '564', '565', '566', '567', '568', '569', '570', '571', '572', '573', '574', '578', '579', '580', '584', '585', '587', '588', '594', '597', '599', '600', '601', '605', '607', '608', '611', '612', '613', '614', '617', '620', '624', '626', '628', '630', '632', '635', '636', '637', '638', '639', '640', '641', '644', '646', '648', '649', '651', '652', '653', '658', '660', '661', '663', '665', '667', '668', '669', '671', '672', '673', '674', '676', '677', '681', '685', '687', '688', '689', '690', '691', '693', '696', '697', '698', '699', '700', '702', '704', '705', '710', '712', '714', '717', '718', '724', '725', '727', '728', '729', '730', '734', '735', '736', '737', '738', '740', '741', '742', '743', '744', '745', '746', '747', '748', '749', '751', '752', '753', '755', '760', '761', '762', '763', '766', '767', '768', '775', '776', '778', '779', '781', '782', '787', '788', '789', '790', '792', '796', '797', '799', '800', '801', '803', '804', '805', '807', '808', '810', '814', '818', '819', '820', '821', '825', '826', '829', '831', '832', '833', '834', '835', '837', '843', '845', '848', '849', '850', '851', '856', '858', '861', '862', '866', '867', '868', '869', '874', '875', '879', '881', '883', '884', '886', '888', '889', '892', '893', '894', '896', '898', '899', '901', '902', '904', '909', '912', '913', '917', '919', '920', '923', '924', '928', '932', '934', '936', '939', '941', '942', '943', '944', '947', '952', '954', '958', '959', '962', '966', '967', '972', '974', '976', '977', '978', '981', '982', '984', '985', '986', '989', '991', '993', '994', '995', '997', '1000', '1003', '1004', '1005', '1007', '1008', '1009', '1011', '1012', '1013', '1015', '1021', '1022', '1024', '1025', '1026', '1027', '1028', '1029', '1030', '1032', '1033', '1035', '1039', '1043', '1046', '1048', '1049', '1052', '1053', '1054', '1056', '1057', '1058', '1059', '1063', '1065', '1066', '1067', '1068', '1070', '1071', '1074', '1075', '1077', '1078', '1080', '1081', '1083', '1084', '1086', '1088', '1092', '1094', '1095', '1096', '1098', '1099', '1101', '1102', '1104', '1105', '1108', '1109', '1110', '1113', '1115', '1117', '1119', '1120', '1123', '1124', '1125', '1126', '1127', '1129', '1130', '1135', '1137', '1138', '1140', '1141', '1143', '1144', '1146', '1147', '1149', '1151', '1154', '1156', '1157', '1160', '1164', '1166', '1168', '1169', '1170', '1174', '1176', '1181', '1183', '1189', '1190', '1198', '1202', '1203', '1206', '1208', '1209', '1210', '1215', '1217', '1218', '1219', '1221', '1226', '1227', '1230', '1232', '1234', '1235', '1243', '1244', '1245', '1247', '1248', '1249', '1252', '1255', '1256', '1262', '1264', '1265', '1266', '1268', '1269', '1271', '1272', '1273', '1274', '1275', '1276', '1277', '1278', '1279', '1280', '1283', '1285', '1286', '1289', '1291', '1292', '1294', '1295', '1296', '1299', '1302', '1305', '1307', '1310', '1312', '1313', '1316', '1318', '1320', '1327', '1331', '1332', '1334', '1335', '1338', '1340', '1341', '1342', '1344', '1347', '1348', '1349', '1351', '1353', '1354', '1355', '1356', '1357', '1358', '1359', '1360', '1365', '1367', '1369', '1370', '1371', '1372', '1376', '1377', '1380', '1384', '1388', '1389', '1390', '1391', '1392', '1395', '1396', '1398', '1400', '1402', '1403', '1404', '1405', '1407', '1409', '1410', '1411', '1412', '1414', '1415', '1418', '1419', '1421', '1422', '1425', '1426', '1428', '1430', '1432', '1435', '1436', '1437', '1444', '1446', '1447', '1452', '1455', '1462', '1463', '1465', '1466', '1467', '1469', '1473', '1477', '1482', '1487', '1488', '1491', '1496', '1498', '1500', '1504', '1505', '1507', '1510', '1514', '1519', '1520', '1521', '1522', '1523', '1526', '1530', '1533', '1534', '1538', '1540', '1543', '1544', '1548', '1550', '1551', '1552', '1556', '1558', '1560', '1561', '1565', '1567', '1568', '1570', '1574', '1575', '1579', '1581', '1582', '1585', '1588', '1590', '1592', '1593', '1596', '1602', '1605', '1606', '1607', '1609', '1611', '1613', '1616', '1617', '1618', '1621', '1622', '1623', '1625', '1627', '1629', '1631', '1632', '1633', '1634', '1635', '1638', '1639', '1640', '1641', '1642', '1646', '1651', '1652', '1654', '1655', '1657', '1659', '1660', '1662', '1665', '1669', '1671', '1677', '1678', '1679', '1681', '1682', '1685', '1687', '1688', '1690', '1692', '1693', '1701', '1702', '1703', '1704', '1705', '1707', '1710', '1711', '1712', '1714', '1716', '1718', '1719', '1720', '1721', '1722', '1723', '1724', '1725', '1726', '1727', '1728', '1729', '1731', '1732', '1734', '1735', '1739', '1740', '1745', '1747', '1751', '1753', '1757', '1758', '1760', '1761', '1762', '1763', '1766', '1767', '1768', '1771', '1773', '1774', '1779', '1781', '1786', '1788', '1789', '1799', '1800', '1802', '1805', '1806', '1807', '1812', '1813', '1814', '1816', '1818', '1820', '1822', '1823', '1824', '1829', '1830', '1831', '1832', '1835', '1836', '1838', '1839', '1845', '1846', '1847', '1849', '1850', '1851', '1853', '1856', '1857', '1858', '1859', '1860', '1862', '1863', '1865', '1866', '1867', '1868', '1871', '1872', '1874', '1875', '1876', '1877', '1878', '1881', '1882', '1884', '1885', '1888', '1891', '1892', '1893', '1895', '1897', '1899', '1900', '1902', '1908', '1909', '1910', '1911', '1912', '1913', '1915', '1918', '1919', '1920', '1921', '1922', '1925', '1926', '1928', '1933', '1934', '1939', '1941', '1942', '1945', '1951', '1952', '1955', '1958', '1959', '1960', '1964', '1965', '1966', '1967', '1968', '1971', '1972', '1975', '1978', '1979', '1980', '1981', '1982', '1987', '1989', '1990', '1992', '1999', '2000']",False,8000,True,2,ec46282854,0.0,1.0,1.0
./expes/v2_2021-03-23_issda-30_2000-prng-1-w8-p2,30_issda-2000,2000,first-2000,500,25,rng,num-start-3000,3000,25726,classic,1962.7941150665283,True,,True,1.0,1.0,1.0,1,"['6', '8', '10', '19', '24', '31', '32', '35', '36', '39', '49', '59', '63', '64', '70', '75', '85', '89', '98', '113', '115', '116', '121', '122', '124', '127', '132', '135', '138', '141', '145', '150', '151', '152', '161', '162', '168', '174', '190', '198', '202', '204', '205', '206', '222', '223', '237', '239', '240', '247', '249', '256', '264', '267', '270', '288', '292', '295', '301', '302', '306', '311', '312', '319', '321', '322', '324', '325', '328', '330', '331', '335', '337', '341', '347', '349', '351', '353', '355', '361', '367', '368', '379', '383', '401', '402', '421', '423', '428', '436', '438', '440', '441', '444', '450', '451', '453', '458', '462', '463', '467', '469', '470', '474', '475', '476', '479', '481', '482', '490', '491', '493', '497', '500', '507', '511', '514', '515', '516', '521', '523', '524', '526', '533', '537', '540', '553', '556', '558', '560', '562', '575', '587', '588', '589', '595', '606', '620', '623', '626', '628', '636', '638', '639', '642', '645', '646', '652', '653', '659', '660', '663', '666', '674', '677', '678', '679', '681', '683', '685', '686', '688', '689', '691', '693', '694', '697', '702', '704', '706', '712', '713', '723', '725', '728', '729', '732', '738', '753', '755', '756', '760', '763', '771', '775', '778', '781', '789', '793', '796', '799', '800', '804', '807', '810', '818', '823', '825', '829', '830', '831', '835', '836', '849', '857', '860', '862', '867', '878', '883', '886', '889', '900', '905', '906', '910', '912', '913', '920', '922', '923', '924', '926', '931', '933', '939', '942', '945', '947', '951', '955', '956', '957', '958', '959', '960', '963', '964', '970', '972', '976', '981', '983', '986', '987', '992', '995', '1003', '1005', '1008', '1009', '1012', '1014', '1017', '1020', '1021', '1022', '1024', '1025', '1027', '1029', '1036', '1037', '1046', '1048', '1050', '1061', '1062', '1064', '1065', '1066', '1068', '1085', '1086', '1089', '1094', '1097', '1114', '1115', '1122', '1124', '1127', '1130', '1137', '1141', '1147', '1157', '1158', '1161', '1167', '1169', '1170', '1172', '1178', '1180', '1183', '1186', '1191', '1196', '1197', '1202', '1203', '1216', '1220', '1222', '1239', '1251', '1254', '1257', '1258', '1260', '1263', '1265', '1267', '1283', '1286', '1288', '1302', '1314', '1322', '1323', '1324', '1325', '1328', '1329', '1330', '1336', '1342', '1343', '1346', '1349', '1350', '1352', '1357', '1362', '1363', '1370', '1371', '1379', '1386', '1387', '1388', '1390', '1396', '1398', '1402', '1404', '1410', '1412', '1415', '1417', '1419', '1422', '1423', '1425', '1427', '1428', '1436', '1438', '1445', '1450', '1451', '1454', '1473', '1477', '1478', '1482', '1483', '1486', '1489', '1493', '1506', '1508', '1511', '1515', '1518', '1520', '1522', '1526', '1537', '1539', '1544', '1547', '1551', '1554', '1557', '1558', '1585', '1586', '1592', '1593', '1595', '1602', '1604', '1606', '1608', '1615', '1616', '1623', '1627', '1631', '1634', '1637', '1640', '1646', '1648', '1649', '1651', '1659', '1660', '1667', '1683', '1686', '1690', '1695', '1701', '1711', '1716', '1717', '1718', '1721', '1722', '1724', '1728', '1729', '1735', '1737', '1743', '1748', '1752', '1753', '1756', '1757', '1763', '1768', '1769', '1773', '1776', '1777', '1780', '1781', '1783', '1787', '1792', '1793', '1797', '1800', '1802', '1806', '1812', '1813', '1816', '1817', '1823', '1827', '1829', '1830', '1831', '1842', '1847', '1848', '1854', '1858', '1859', '1862', '1867', '1870', '1874', '1877', '1884', '1888', '1889', '1890', '1895', '1896', '1900', '1901', '1906', '1913', '1915', '1916', '1918', '1922', '1935', '1936', '1938', '1940', '1942', '1945', '1947', '1948', '1953', '1958', '1965', '1967', '1971', '1977', '1982', '1992', '2000']",False,8000,True,2,814d678c2d,0.0,1.0,1.0
./expes/v2_2021-03-23_issda-30_2000-prng-1-w8-p2,30_issda-2000,2000,first-2000,100,5,rng,num-start-2400,2400,25726,classic,715.7100687026978,True,,True,1.0,1.0,1.0,1,"['11', '37', '56', '104', '106', '120', '128', '132', '142', '168', '226', '240', '253', '282', '287', '291', '310', '358', '403', '431', '438', '490', '510', '517', '548', '570', '594', '622', '634', '651', '678', '689', '727', '737', '749', '763', '768', '787', '823', '831', '837', '840', '849', '860', '887', '971', '978', '1028', '1037', '1039', '1070', '1080', '1092', '1106', '1107', '1129', '1141', '1145', '1171', '1188', '1229', '1309', '1312', '1355', '1398', '1402', '1405', '1443', '1445', '1446', '1466', '1484', '1514', '1529', '1541', '1569', '1586', '1622', '1643', '1644', '1653', '1664', '1665', '1666', '1670', '1734', '1759', '1761', '1778', '1793', '1808', '1837', '1880', '1885', '1925', '1936', '1957', '1961', '1966', '1968']",False,8000,True,2,8e20009d90,0.0,1.0,1.0
./expes/v2_2021-03-23_issda-30_2000-prng-1-w8-p2,30_issda-2000,2000,first-2000,600,30,rng,num-start-1200,1200,25726,classic,3968.117697238922,True,,True,1.0,1.0,1.0,1,"['4', '8', '13', '14', '16', '18', '23', '26', '27', '35', '36', '39', '43', '45', '49', '51', '53', '56', '58', '59', '61', '63', '64', '67', '76', '78', '81', '82', '88', '90', '95', '101', '106', '107', '108', '109', '116', '117', '121', '125', '128', '132', '147', '148', '150', '153', '160', '169', '170', '172', '173', '179', '186', '187', '191', '199', '201', '202', '210', '211', '212', '218', '222', '225', '231', '232', '234', '238', '242', '245', '251', '253', '256', '258', '260', '265', '270', '276', '277', '279', '280', '282', '284', '291', '292', '293', '298', '301', '304', '318', '319', '330', '333', '335', '344', '348', '349', '351', '354', '361', '365', '368', '369', '373', '375', '377', '387', '388', '390', '393', '399', '401', '404', '405', '408', '409', '410', '411', '413', '419', '421', '424', '428', '429', '431', '433', '435', '439', '451', '452', '455', '458', '460', '463', '466', '467', '469', '471', '473', '475', '482', '489', '492', '495', '496', '504', '507', '512', '516', '517', '522', '523', '529', '532', '536', '538', '540', '545', '546', '549', '550', '551', '555', '561', '562', '567', '569', '570', '571', '572', '573', '578', '580', '584', '585', '597', '601', '607', '608', '611', '626', '630', '632', '635', '637', '638', '639', '640', '641', '648', '651', '658', '660', '661', '663', '671', '676', '681', '687', '690', '691', '696', '697', '699', '700', '702', '704', '705', '712', '714', '717', '718', '724', '725', '729', '730', '735', '738', '740', '741', '742', '743', '744', '745', '746', '747', '748', '749', '751', '753', '755', '761', '768', '776', '778', '781', '782', '788', '789', '790', '796', '797', '801', '805', '808', '810', '819', '821', '829', '831', '832', '834', '835', '837', '845', '850', '851', '856', '858', '861', '867', '868', '869', '875', '879', '881', '884', '886', '888', '892', '893', '901', '902', '909', '912', '919', '920', '934', '936', '941', '942', '943', '944', '952', '958', '962', '967', '972', '974', '976', '977', '978', '986', '989', '994', '995', '997', '1000', '1004', '1007', '1008', '1009', '1013', '1021', '1024', '1025', '1026', '1027', '1029', '1032', '1035', '1039', '1043', '1048', '1052', '1053', '1056', '1058', '1059', '1063', '1067', '1068', '1071', '1080', '1081', '1084', '1095', '1096', '1098', '1099', '1102', '1105', '1108', '1109', '1110', '1113', '1115', '1119', '1120', '1123', '1124', '1125', '1127', '1135', '1137', '1138', '1141', '1143', '1144', '1147', '1154', '1156', '1157', '1168', '1169', '1174', '1181', '1189', '1190', '1202', '1203', '1206', '1215', '1217', '1221', '1227', '1230', '1232', '1234', '1243', '1244', '1245', '1247', '1248', '1252', '1255', '1262', '1264', '1266', '1268', '1269', '1273', '1275', '1276', '1279', '1280', '1285', '1286', '1289', '1295', '1296', '1299', '1302', '1305', '1307', '1310', '1312', '1313', '1318', '1331', '1332', '1335', '1338', '1344', '1347', '1349', '1351', '1354', '1355', '1356', '1359', '1360', '1365', '1367', '1369', '1370', '1371', '1380', '1384', '1390', '1391', '1395', '1396', '1398', '1400', '1402', '1403', '1404', '1405', '1407', '1410', '1411', '1412', '1414', '1415', '1422', '1425', '1426', '1428', '1430', '1432', '1435', '1444', '1446', '1455', '1465', '1466', '1467', '1473', '1477', '1487', '1488', '1498', '1500', '1504', '1505', '1507', '1510', '1514', '1520', '1526', '1530', '1533', '1534', '1543', '1544', '1550', '1551', '1556', '1558', '1560', '1561', '1567', '1568', '1570', '1575', '1579', '1581', '1582', '1585', '1588', '1606', '1607', '1609', '1613', '1616', '1617', '1622', '1623', '1625', '1629', '1631', '1632', '1634', '1635', '1639', '1640', '1641', '1642', '1646', '1651', '1654', '1657', '1660', '1662', '1665', '1669', '1671', '1677', '1678', '1679', '1682', '1685', '1692', '1701', '1704', '1707', '1711', '1712', '1714', '1718', '1719', '1722', '1726', '1727', '1728', '1731', '1732', '1739', '1747', '1751', '1753', '1760', '1761', '1766', '1767', '1771', '1773', '1774', '1779', '1788', '1789', '1802', '1806', '1807', '1812', '1814', '1816', '1818', '1822', '1829', '1832', '1835', '1838', '1839', '1846', '1849', '1851', '1856', '1865', '1866', '1868', '1874', '1875', '1878', '1882', '1885', '1892', '1893', '1895', '1897', '1899', '1900', '1911', '1912', '1913', '1915', '1918', '1925', '1928', '1933', '1934', '1939', '1941', '1945', '1951', '1952', '1958', '1959', '1964', '1968', '1971', '1972', '1975', '1978', '1982', '1989', '1990', '1992', '2000']",False,8000,True,2,164e06fd53,0.0,1.0,1.0
./expes/v2_2021-03-23_issda-30_2000-prng-1-w8-p2,30_issda-2000,2000,first-2000,400,20,rng,num-start-800,800,25726,classic,2030.4567346572876,True,,True,1.0,1.0,1.0,1,"['1', '3', '4', '5', '7', '26', '28', '29', '30', '31', '34', '45', '47', '55', '65', '68', '75', '80', '81', '83', '93', '94', '96', '103', '119', '126', '128', '129', '131', '142', '144', '148', '152', '162', '165', '166', '169', '171', '184', '187', '188', '192', '195', '201', '203', '206', '207', '208', '224', '237', '238', '240', '241', '244', '246', '254', '255', '256', '267', '268', '272', '277', '286', '287', '292', '300', '301', '307', '315', '323', '325', '328', '332', '340', '347', '350', '359', '370', '374', '377', '379', '383', '386', '387', '388', '390', '391', '392', '394', '399', '407', '409', '417', '419', '432', '438', '441', '448', '449', '452', '453', '455', '457', '483', '489', '491', '492', '496', '498', '500', '514', '531', '533', '534', '556', '564', '565', '574', '576', '578', '590', '595', '597', '617', '618', '620', '622', '636', '638', '640', '648', '650', '656', '665', '667', '668', '677', '682', '683', '685', '687', '688', '702', '718', '722', '725', '732', '734', '735', '736', '759', '762', '776', '789', '795', '796', '802', '817', '823', '824', '830', '840', '849', '851', '856', '857', '859', '862', '872', '873', '890', '894', '906', '907', '912', '913', '915', '918', '923', '938', '957', '964', '966', '967', '975', '976', '977', '982', '987', '996', '997', '998', '1003', '1009', '1011', '1013', '1032', '1034', '1041', '1042', '1048', '1068', '1069', '1075', '1081', '1083', '1085', '1091', '1095', '1107', '1108', '1113', '1115', '1121', '1122', '1124', '1129', '1132', '1147', '1149', '1150', '1163', '1164', '1166', '1167', '1176', '1179', '1180', '1188', '1195', '1203', '1204', '1208', '1209', '1218', '1222', '1223', '1233', '1234', '1236', '1237', '1241', '1242', '1246', '1250', '1252', '1254', '1255', '1267', '1271', '1272', '1281', '1291', '1297', '1298', '1299', '1301', '1306', '1312', '1314', '1325', '1330', '1333', '1345', '1347', '1353', '1357', '1364', '1369', '1378', '1380', '1384', '1385', '1390', '1391', '1392', '1394', '1396', '1400', '1401', '1411', '1415', '1429', '1431', '1433', '1435', '1437', '1438', '1442', '1445', '1448', '1453', '1455', '1466', '1470', '1471', '1474', '1486', '1490', '1495', '1496', '1499', '1514', '1519', '1533', '1546', '1548', '1552', '1553', '1561', '1572', '1582', '1604', '1606', '1608', '1616', '1625', '1628', '1635', '1638', '1640', '1645', '1646', '1649', '1657', '1660', '1663', '1664', '1669', '1671', '1674', '1683', '1685', '1690', '1691', '1696', '1698', '1699', '1700', '1701', '1708', '1712', '1716', '1717', '1721', '1726', '1730', '1731', '1732', '1740', '1742', '1749', '1752', '1773', '1777', '1783', '1786', '1790', '1792', '1793', '1796', '1811', '1813', '1824', '1827', '1834', '1840', '1841', '1844', '1848', '1853', '1860', '1864', '1870', '1876', '1878', '1879', '1880', '1881', '1882', '1888', '1889', '1891', '1892', '1911', '1918', '1919', '1940', '1945', '1946', '1953', '1969', '1973', '1974', '1978', '1980', '1982', '1983', '1988', '1996']",False,8000,True,2,3e06247379,0.0,1.0,1.0
./expes/v2_2021-03-23_issda-30_2000-prng-1-w8-p2,30_issda-2000,2000,first-2000,900,45,rng,num-start-3600,3600,25726,classic,6362.388401508331,True,,True,1.0,1.0,1.0,1,"['7', '10', '11', '12', '15', '16', '17', '19', '20', '22', '24', '25', '32', '35', '37', '38', '40', '43', '49', '54', '55', '56', '57', '59', '61', '62', '63', '64', '67', '69', '70', '73', '74', '77', '80', '83', '84', '90', '94', '97', '101', '102', '103', '104', '105', '106', '107', '108', '110', '111', '114', '116', '117', '118', '120', '123', '124', '128', '131', '132', '135', '142', '145', '146', '147', '150', '151', '152', '154', '158', '159', '162', '163', '166', '168', '171', '174', '175', '178', '179', '180', '182', '183', '184', '191', '192', '193', '197', '201', '202', '203', '204', '206', '210', '213', '214', '216', '217', '218', '221', '222', '225', '226', '227', '232', '233', '234', '236', '240', '241', '250', '251', '252', '253', '255', '256', '257', '261', '263', '264', '265', '266', '269', '273', '277', '281', '282', '284', '287', '288', '289', '291', '293', '294', '295', '301', '305', '307', '308', '309', '310', '311', '314', '316', '319', '322', '331', '332', '333', '334', '335', '336', '337', '344', '346', '347', '349', '350', '353', '354', '355', '356', '357', '358', '359', '367', '376', '377', '383', '386', '387', '388', '392', '393', '394', '395', '396', '401', '402', '403', '404', '405', '407', '408', '411', '415', '417', '418', '420', '427', '430', '431', '433', '435', '437', '438', '439', '443', '444', '446', '448', '450', '452', '453', '455', '456', '461', '464', '466', '467', '470', '472', '474', '475', '479', '483', '484', '486', '489', '490', '496', '497', '499', '500', '508', '509', '510', '511', '512', '513', '514', '515', '517', '523', '526', '528', '529', '531', '532', '533', '535', '536', '538', '540', '541', '542', '543', '544', '545', '548', '549', '550', '552', '554', '559', '561', '563', '565', '566', '570', '574', '577', '581', '582', '584', '587', '591', '592', '594', '597', '599', '601', '602', '603', '604', '605', '607', '608', '609', '616', '618', '620', '621', '622', '623', '625', '630', '631', '632', '633', '634', '635', '636', '638', '639', '642', '645', '647', '648', '650', '651', '652', '654', '655', '658', '659', '660', '662', '663', '664', '667', '669', '670', '674', '675', '677', '678', '679', '681', '684', '685', '686', '687', '689', '691', '695', '696', '698', '703', '712', '713', '714', '720', '721', '726', '727', '728', '729', '731', '733', '734', '737', '741', '743', '746', '749', '752', '754', '757', '758', '762', '763', '768', '769', '770', '775', '776', '778', '781', '783', '784', '786', '787', '791', '792', '794', '796', '801', '802', '803', '805', '807', '817', '820', '823', '826', '827', '828', '829', '830', '831', '833', '834', '836', '837', '840', '842', '846', '848', '849', '850', '854', '858', '859', '860', '862', '865', '866', '867', '875', '876', '877', '878', '882', '887', '889', '893', '894', '895', '896', '897', '901', '904', '905', '907', '908', '912', '913', '915', '916', '920', '921', '924', '927', '928', '930', '933', '940', '941', '942', '945', '948', '950', '952', '954', '957', '958', '959', '962', '965', '967', '969', '970', '971', '972', '973', '974', '975', '978', '981', '984', '987', '989', '990', '992', '994', '996', '997', '998', '1001', '1002', '1003', '1008', '1010', '1011', '1012', '1013', '1016', '1018', '1021', '1025', '1026', '1027', '1028', '1029', '1033', '1034', '1037', '1039', '1040', '1042', '1053', '1054', '1056', '1057', '1060', '1061', '1063', '1064', '1065', '1068', '1070', '1072', '1075', '1076', '1077', '1080', '1082', '1083', '1087', '1089', '1090', '1091', '1092', '1095', '1096', '1099', '1100', '1103', '1104', '1105', '1106', '1107', '1109', '1111', '1113', '1114', '1115', '1116', '1121', '1122', '1126', '1129', '1132', '1133', '1134', '1135', '1138', '1139', '1141', '1143', '1145', '1146', '1147', '1153', '1154', '1155', '1156', '1161', '1164', '1166', '1171', '1172', '1178', '1180', '1182', '1184', '1185', '1188', '1190', '1191', '1192', '1193', '1197', '1200', '1201', '1202', '1209', '1211', '1212', '1213', '1215', '1226', '1227', '1228', '1229', '1231', '1234', '1237', '1238', '1241', '1243', '1245', '1247', '1250', '1252', '1253', '1254', '1255', '1256', '1262', '1264', '1265', '1267', '1271', '1272', '1280', '1281', '1282', '1283', '1284', '1288', '1295', '1296', '1297', '1298', '1300', '1302', '1304', '1309', '1312', '1315', '1320', '1324', '1325', '1326', '1327', '1330', '1332', '1333', '1339', '1340', '1345', '1347', '1348', '1349', '1350', '1353', '1355', '1359', '1365', '1367', '1383', '1386', '1388', '1390', '1393', '1395', '1398', '1402', '1403', '1404', '1405', '1412', '1416', '1419', '1433', '1434', '1435', '1442', '1443', '1445', '1446', '1447', '1449', '1453', '1455', '1456', '1458', '1459', '1460', '1462', '1464', '1465', '1466', '1472', '1476', '1478', '1482', '1484', '1485', '1489', '1493', '1497', '1499', '1505', '1507', '1508', '1510', '1511', '1513', '1514', '1522', '1523', '1525', '1526', '1529', '1531', '1532', '1533', '1534', '1535', '1537', '1540', '1541', '1543', '1546', '1547', '1550', '1552', '1553', '1554', '1556', '1557', '1561', '1563', '1564', '1565', '1566', '1567', '1568', '1569', '1572', '1573', '1575', '1579', '1581', '1582', '1584', '1585', '1586', '1591', '1594', '1598', '1600', '1602', '1603', '1604', '1607', '1610', '1611', '1613', '1614', '1618', '1619', '1622', '1626', '1627', '1628', '1630', '1635', '1636', '1637', '1640', '1642', '1643', '1644', '1645', '1647', '1649', '1653', '1655', '1657', '1658', '1659', '1661', '1662', '1664', '1665', '1666', '1668', '1669', '1670', '1671', '1673', '1676', '1679', '1680', '1682', '1684', '1688', '1689', '1692', '1693', '1696', '1698', '1699', '1702', '1703', '1705', '1710', '1711', '1715', '1718', '1719', '1724', '1725', '1727', '1731', '1732', '1734', '1738', '1742', '1744', '1745', '1746', '1747', '1749', '1753', '1755', '1756', '1757', '1759', '1761', '1769', '1772', '1774', '1776', '1777', '1778', '1779', '1780', '1783', '1786', '1789', '1791', '1793', '1794', '1795', '1800', '1804', '1805', '1808', '1813', '1814', '1815', '1819', '1821', '1822', '1823', '1829', '1830', '1835', '1837', '1838', '1840', '1841', '1842', '1844', '1845', '1847', '1848', '1849', '1856', '1857', '1858', '1859', '1861', '1862', '1864', '1870', '1872', '1878', '1880', '1881', '1884', '1885', '1888', '1891', '1892', '1893', '1897', '1898', '1900', '1903', '1904', '1905', '1907', '1911', '1917', '1920', '1923', '1924', '1925', '1926', '1927', '1930', '1931', '1936', '1943', '1944', '1948', '1949', '1951', '1952', '1955', '1957', '1958', '1960', '1961', '1962', '1964', '1966', '1968', '1970', '1971', '1974', '1975', '1976', '1978', '1981', '1982', '1987', '1990', '1992', '1994', '1995', '1996', '1997', '1998']",False,8000,True,2,f557c4a76b,0.0,1.0,1.0
./expes/v2_2021-03-23_issda-30_2000-prng-1-w8-p2,30_issda-2000,2000,first-2000,700,35,rng,num-start-1800,1800,25726,classic,2838.3881797790527,True,,True,1.0,1.0,1.0,1,"['1', '3', '7', '8', '9', '12', '13', '16', '19', '21', '23', '27', '29', '30', '32', '35', '40', '41', '42', '44', '45', '46', '47', '51', '54', '57', '58', '63', '67', '68', '73', '75', '78', '80', '81', '84', '88', '89', '90', '91', '96', '99', '106', '108', '113', '114', '116', '119', '120', '122', '123', '133', '135', '146', '150', '153', '157', '161', '162', '163', '164', '165', '169', '172', '177', '183', '184', '186', '187', '189', '190', '191', '198', '199', '202', '205', '207', '212', '214', '219', '220', '222', '223', '231', '233', '236', '238', '241', '242', '245', '247', '249', '252', '254', '255', '257', '258', '261', '268', '269', '271', '274', '280', '290', '291', '294', '295', '296', '301', '302', '304', '309', '311', '313', '314', '316', '317', '319', '323', '324', '327', '328', '337', '342', '344', '348', '349', '352', '353', '354', '355', '357', '365', '373', '374', '379', '381', '389', '391', '392', '395', '397', '400', '402', '406', '410', '413', '416', '417', '418', '420', '421', '424', '428', '429', '430', '434', '436', '437', '440', '443', '447', '448', '449', '452', '454', '456', '457', '459', '460', '461', '465', '467', '471', '476', '481', '482', '483', '487', '488', '490', '491', '495', '498', '500', '501', '502', '503', '504', '505', '506', '512', '520', '523', '524', '527', '529', '531', '533', '535', '538', '539', '541', '548', '549', '551', '552', '558', '560', '561', '571', '577', '580', '582', '584', '587', '588', '593', '594', '596', '597', '601', '603', '605', '607', '608', '610', '614', '619', '620', '621', '624', '625', '627', '629', '633', '634', '635', '636', '641', '642', '643', '645', '647', '649', '650', '655', '656', '658', '659', '660', '664', '667', '673', '683', '684', '685', '686', '687', '689', '690', '692', '700', '705', '706', '713', '715', '716', '717', '719', '723', '724', '725', '726', '733', '740', '741', '743', '747', '751', '757', '764', '765', '766', '767', '769', '771', '773', '784', '785', '786', '787', '792', '793', '796', '802', '805', '808', '810', '811', '815', '817', '819', '820', '823', '825', '826', '827', '829', '830', '832', '833', '834', '836', '837', '838', '839', '840', '843', '844', '845', '846', '848', '852', '854', '856', '857', '858', '860', '861', '863', '867', '874', '876', '877', '878', '879', '880', '885', '887', '889', '894', '899', '904', '906', '910', '912', '915', '916', '917', '922', '929', '931', '934', '936', '942', '943', '944', '946', '947', '952', '956', '961', '966', '968', '972', '973', '978', '985', '986', '988', '991', '995', '1000', '1004', '1005', '1007', '1012', '1013', '1016', '1017', '1019', '1020', '1022', '1023', '1027', '1030', '1032', '1041', '1044', '1045', '1046', '1047', '1049', '1052', '1053', '1058', '1059', '1062', '1067', '1072', '1073', '1077', '1083', '1089', '1090', '1092', '1095', '1097', '1101', '1103', '1105', '1110', '1129', '1132', '1133', '1134', '1146', '1153', '1157', '1162', '1171', '1173', '1176', '1186', '1189', '1193', '1202', '1203', '1208', '1209', '1211', '1215', '1216', '1219', '1222', '1223', '1224', '1227', '1234', '1235', '1237', '1242', '1243', '1245', '1248', '1250', '1252', '1255', '1256', '1257', '1258', '1260', '1264', '1277', '1280', '1281', '1282', '1284', '1285', '1287', '1288', '1293', '1295', '1296', '1297', '1301', '1305', '1307', '1308', '1312', '1313', '1317', '1318', '1319', '1320', '1321', '1332', '1335', '1337', '1339', '1341', '1342', '1343', '1347', '1349', '1351', '1353', '1355', '1357', '1358', '1364', '1365', '1366', '1367', '1369', '1370', '1392', '1395', '1397', '1407', '1408', '1411', '1413', '1415', '1417', '1421', '1425', '1429', '1430', '1432', '1433', '1434', '1435', '1441', '1448', '1449', '1450', '1452', '1457', '1463', '1472', '1474', '1477', '1480', '1483', '1485', '1487', '1491', '1496', '1497', '1499', '1500', '1506', '1508', '1510', '1511', '1512', '1513', '1516', '1521', '1522', '1523', '1533', '1536', '1540', '1542', '1547', '1553', '1554', '1559', '1564', '1565', '1566', '1568', '1576', '1583', '1584', '1586', '1598', '1599', '1602', '1603', '1604', '1605', '1610', '1612', '1614', '1616', '1617', '1619', '1630', '1631', '1635', '1636', '1645', '1646', '1647', '1650', '1651', '1652', '1655', '1659', '1664', '1667', '1669', '1671', '1674', '1677', '1678', '1686', '1688', '1689', '1692', '1693', '1694', '1696', '1700', '1704', '1706', '1711', '1712', '1714', '1721', '1722', '1724', '1725', '1726', '1727', '1729', '1732', '1735', '1736', '1738', '1741', '1750', '1763', '1770', '1771', '1772', '1773', '1777', '1778', '1784', '1785', '1786', '1788', '1795', '1801', '1806', '1809', '1810', '1811', '1812', '1813', '1814', '1820', '1830', '1831', '1833', '1836', '1837', '1842', '1843', '1848', '1849', '1855', '1857', '1865', '1872', '1875', '1877', '1880', '1882', '1883', '1884', '1886', '1892', '1895', '1896', '1901', '1902', '1905', '1908', '1913', '1915', '1921', '1925', '1927', '1932', '1933', '1940', '1942', '1943', '1947', '1948', '1949', '1950', '1952', '1953', '1954', '1959', '1961', '1962', '1965', '1971', '1976', '1979', '1981', '1983', '1984', '1985', '1986', '1987', '1988', '1989', '1991', '1993', '1995', '1996']",False,8000,True,2,6d9bf21640,0.0,1.0,1.0
