{
  "clients": [
    {
      "name": "30_issda-300",
      "path": "./csv/30_issda.csv",
      "subset": "first-300",
      "subset_size": 300,
      "param": null
    }
  ],
  "noise": {
    "method": "classic",
    "param": null
  },
  "agg_size": [
    7,
    14,
    21,
    28,
    35,
    42,
    49,
    56,
    63,
    70,
    77,
    84,
    91,
    98,
    105,
    112,
    119,
    126,
    133,
    140
  ],
  "methods": [
    {
      "name": "rng",
      "param": 0
    },
    {
      "name": "rng",
      "param": 1
    },
    {
      "name": "rng",
      "param": 2
    },
    {
      "name": "rng",
      "param": 3
    },
    {
      "name": "rng",
      "param": 4
    },
    {
      "name": "rng",
      "param": 5
    },
    {
      "name": "rng",
      "param": 6
    },
    {
      "name": "rng",
      "param": 7
    },
    {
      "name": "rng",
      "param": 8
    },
    {
      "name": "rng",
      "param": 9
    },
    {
      "name": "rng",
      "param": 10
    },
    {
      "name": "rng",
      "param": 11
    },
    {
      "name": "rng",
      "param": 12
    },
    {
      "name": "rng",
      "param": 13
    },
    {
      "name": "rng",
      "param": 14
    },
    {
      "name": "rng",
      "param": 15
    },
    {
      "name": "rng",
      "param": 16
    },
    {
      "name": "rng",
      "param": 17
    },
    {
      "name": "rng",
      "param": 18
    },
    {
      "name": "rng",
      "param": 19
    }
  ],
  "days": [
    {
      "name": "num-start-1",
      "param": 1
    },
    {
      "name": "num-start-11",
      "param": 11
    },
    {
      "name": "num-start-21",
      "param": 21
    },
    {
      "name": "num-start-31",
      "param": 31
    },
    {
      "name": "num-start-41",
      "param": 41
    },
    {
      "name": "num-start-51",
      "param": 51
    },
    {
      "name": "num-start-61",
      "param": 61
    },
    {
      "name": "num-start-71",
      "param": 71
    },
    {
      "name": "num-start-81",
      "param": 81
    },
    {
      "name": "num-start-91",
      "param": 91
    },
    {
      "name": "num-start-101",
      "param": 101
    },
    {
      "name": "num-start-111",
      "param": 111
    },
    {
      "name": "num-start-121",
      "param": 121
    },
    {
      "name": "num-start-131",
      "param": 131
    },
    {
      "name": "num-start-141",
      "param": 141
    },
    {
      "name": "num-start-151",
      "param": 151
    },
    {
      "name": "num-start-161",
      "param": 161
    },
    {
      "name": "num-start-171",
      "param": 171
    },
    {
      "name": "num-start-181",
      "param": 181
    },
    {
      "name": "num-start-191",
      "param": 191
    },
    {
      "name": "num-start-201",
      "param": 201
    },
    {
      "name": "num-start-211",
      "param": 211
    },
    {
      "name": "num-start-221",
      "param": 221
    },
    {
      "name": "num-start-231",
      "param": 231
    },
    {
      "name": "num-start-241",
      "param": 241
    },
    {
      "name": "num-start-251",
      "param": 251
    },
    {
      "name": "num-start-261",
      "param": 261
    },
    {
      "name": "num-start-271",
      "param": 271
    },
    {
      "name": "num-start-281",
      "param": 281
    },
    {
      "name": "num-start-291",
      "param": 291
    },
    {
      "name": "num-start-300",
      "param": 300
    },
    {
      "name": "num-start-800",
      "param": 800
    },
    {
      "name": "num-start-1300",
      "param": 1300
    },
    {
      "name": "num-start-1800",
      "param": 1800
    },
    {
      "name": "num-start-2300",
      "param": 2300
    },
    {
      "name": "num-start-2800",
      "param": 2800
    },
    {
      "name": "num-start-3300",
      "param": 3300
    },
    {
      "name": "num-start-3800",
      "param": 3800
    },
    {
      "name": "num-start-4300",
      "param": 4300
    },
    {
      "name": "num-start-4800",
      "param": 4800
    },
    {
      "name": "num-start-5300",
      "param": 5300
    },
    {
      "name": "num-start-5800",
      "param": 5800
    },
    {
      "name": "num-start-6300",
      "param": 6300
    },
    {
      "name": "num-start-6800",
      "param": 6800
    },
    {
      "name": "num-start-7300",
      "param": 7300
    },
    {
      "name": "num-start-7800",
      "param": 7800
    },
    {
      "name": "num-start-8300",
      "param": 8300
    },
    {
      "name": "num-start-8800",
      "param": 8800
    },
    {
      "name": "num-start-9300",
      "param": 9300
    },
    {
      "name": "num-start-9800",
      "param": 9800
    },
    {
      "name": "num-start-10300",
      "param": 10300
    },
    {
      "name": "num-start-10800",
      "param": 10800
    },
    {
      "name": "num-start-11300",
      "param": 11300
    },
    {
      "name": "num-start-11800",
      "param": 11800
    },
    {
      "name": "num-start-12300",
      "param": 12300
    },
    {
      "name": "num-start-12800",
      "param": 12800
    },
    {
      "name": "num-start-13300",
      "param": 13300
    },
    {
      "name": "num-start-13800",
      "param": 13800
    },
    {
      "name": "num-start-14300",
      "param": 14300
    },
    {
      "name": "num-start-14800",
      "param": 14800
    },
    {
      "name": "num-start-15300",
      "param": 15300
    },
    {
      "name": "num-start-15800",
      "param": 15800
    }
  ],
  "threads": null,
  "wall_time": 1000,
  "pooled": true,
  "pool_size": 100
}