expe,clients,clients_size,clients_subset,agg_size,method,days,days_size,days_total,time,valid,valid_sum,success,nsols,wall_hit,wall_time,pooled,valid_sums
./expes/v2_2020-12-02_dh_150-prng-1,30_issda_150,150,rng-150,101,rng,num-start-12001,12001,25726,161.00314235687256,True,,True,1,False,1000,True,1.0
./expes/v2_2020-12-02_dh_150-prng-1,30_issda_150,150,rng-150,51,rng,num-start-6001,6001,25726,88.91659903526306,True,,True,1,False,1000,True,1.0
./expes/v2_2020-12-02_dh_150-prng-1,30_issda_150,150,rng-150,141,rng,num-start-11001,11001,25726,130.75007224082947,True,,True,1,False,1000,True,1.0
./expes/v2_2020-12-02_dh_150-prng-1,30_issda_150,150,rng-150,41,rng,num-start-6001,6001,25726,85.94207692146301,True,,True,1,False,1000,True,1.0
./expes/v2_2020-12-02_dh_150-prng-1,30_issda_150,150,rng-150,41,rng,num-start-16001,16001,25726,242.24273991584778,True,,True,1,False,1000,True,1.0
./expes/v2_2020-12-02_dh_150-prng-1,30_issda_150,150,rng-150,101,rng,num-start-2001,2001,25726,26.7357394695282,True,,True,1,False,1000,True,1.0
./expes/v2_2020-12-02_dh_150-prng-1,30_issda_150,150,rng-150,141,rng,num-start-13001,13001,25726,150.01191067695618,True,,True,1,False,1000,True,1.0
./expes/v2_2020-12-02_dh_150-prng-1,30_issda_150,150,rng-150,11,rng,num-start-6001,6001,25726,75.93976354598999,True,,True,1,False,1000,True,1.0
./expes/v2_2020-12-02_dh_150-prng-1,30_issda_150,150,rng-150,1,rng,num-start-3001,3001,25726,36.12478947639465,True,,True,1,False,1000,True,1.0
./expes/v2_2020-12-02_dh_150-prng-1,30_issda_150,150,rng-150,61,rng,num-start-1001,1001,25726,13.491854906082153,True,,True,1,False,1000,True,1.0
./expes/v2_2020-12-02_dh_150-prng-1,30_issda_150,150,rng-150,11,rng,num-start-1,1,25726,0.10890746116638184,False,,False,2,False,1000,True,1.0
./expes/v2_2020-12-02_dh_150-prng-1,30_issda_150,150,rng-150,31,rng,num-start-14001,14001,25726,180.19954252243042,True,,True,1,False,1000,True,1.0
./expes/v2_2020-12-02_dh_150-prng-1,30_issda_150,150,rng-150,101,rng,num-start-16001,16001,25726,232.5449559688568,True,,True,1,False,1000,True,1.0
./expes/v2_2020-12-02_dh_150-prng-1,30_issda_150,150,rng-150,11,rng,num-start-5001,5001,25726,62.12036728858948,True,,True,1,False,1000,True,1.0
./expes/v2_2020-12-02_dh_150-prng-1,30_issda_150,150,rng-150,21,rng,num-start-3001,3001,25726,39.248013496398926,True,,True,1,False,1000,True,1.0
./expes/v2_2020-12-02_dh_150-prng-1,30_issda_150,150,rng-150,101,rng,num-start-1,1,25726,0.04317116737365723,False,,False,2,False,1000,True,1.0
./expes/v2_2020-12-02_dh_150-prng-1,30_issda_150,150,rng-150,21,rng,num-start-1,1,25726,0.08433151245117188,False,,False,2,False,1000,True,1.0
