expe,clients,clients_size,clients_subset,agg_size,method,days,days_size,days_total,time,valid,valid_sum,success,nsols,wall_hit,wall_time,pooled,valid_sums
./expes/v2_2020-12-02_dh_150-prng-1,30_issda_150,150,rng-150,11,rng,num-start-5001,5001,25726,60.49344038963318,True,,True,1,False,1000,True,1.0
./expes/v2_2020-12-02_dh_150-prng-1,30_issda_150,150,rng-150,1,rng,num-start-13001,13001,25726,154.42398738861084,True,,True,1,False,1000,True,1.0
./expes/v2_2020-12-02_dh_150-prng-1,30_issda_150,150,rng-150,41,rng,num-start-5001,5001,25726,82.23701763153076,True,,True,1,False,1000,True,1.0
./expes/v2_2020-12-02_dh_150-prng-1,30_issda_150,150,rng-150,31,rng,num-start-5001,5001,25726,75.04373478889465,True,,True,1,False,1000,True,1.0
./expes/v2_2020-12-02_dh_150-prng-1,30_issda_150,150,rng-150,31,rng,num-start-14001,14001,25726,236.93648886680603,True,,True,1,False,1000,True,1.0
./expes/v2_2020-12-02_dh_150-prng-1,30_issda_150,150,rng-150,121,rng,num-start-3001,3001,25726,42.31289339065552,True,,True,1,False,1000,True,1.0
./expes/v2_2020-12-02_dh_150-prng-1,30_issda_150,150,rng-150,91,rng,num-start-6001,6001,25726,88.12376809120178,True,,True,1,False,1000,True,1.0
./expes/v2_2020-12-02_dh_150-prng-1,30_issda_150,150,rng-150,71,rng,num-start-1001,1001,25726,14.038156032562256,True,,True,1,False,1000,True,1.0
./expes/v2_2020-12-02_dh_150-prng-1,30_issda_150,150,rng-150,21,rng,num-start-2001,2001,25726,28.116978645324707,True,,True,1,False,1000,True,1.0
./expes/v2_2020-12-02_dh_150-prng-1,30_issda_150,150,rng-150,1,rng,num-start-1001,1001,25726,12.51797890663147,True,,True,1,False,1000,True,1.0
./expes/v2_2020-12-02_dh_150-prng-1,30_issda_150,150,rng-150,141,rng,num-start-10001,10001,25726,119.57213425636292,True,,True,1,False,1000,True,1.0
./expes/v2_2020-12-02_dh_150-prng-1,30_issda_150,150,rng-150,111,rng,num-start-12001,12001,25726,195.6386604309082,True,,True,1,False,1000,True,1.0
./expes/v2_2020-12-02_dh_150-prng-1,30_issda_150,150,rng-150,31,rng,num-start-16001,16001,25726,206.48685598373413,True,,True,1,False,1000,True,1.0
./expes/v2_2020-12-02_dh_150-prng-1,30_issda_150,150,rng-150,21,rng,num-start-12001,12001,25726,158.33924436569214,True,,True,1,False,1000,True,1.0
./expes/v2_2020-12-02_dh_150-prng-1,30_issda_150,150,rng-150,71,rng,num-start-10001,10001,25726,129.53855395317078,True,,True,1,False,1000,True,1.0
