expe,clients,clients_size,clients_subset,agg_size,method,days,days_size,days_total,time,valid,valid_sum,success,nsols,wall_hit,wall_time,pooled,valid_sums
./expes/v2_2020-12-02_dh_150-prng-1,30_issda_150,150,rng-150,11,rng,num-start-3001,3001,25726,35.97201895713806,True,,True,1,False,1000,True,1.0
./expes/v2_2020-12-02_dh_150-prng-1,30_issda_150,150,rng-150,121,rng,num-start-7001,7001,25726,97.60064053535461,True,,True,1,False,1000,True,1.0
./expes/v2_2020-12-02_dh_150-prng-1,30_issda_150,150,rng-150,81,rng,num-start-1,1,25726,0.03277754783630371,False,,False,2,False,1000,True,1.0
./expes/v2_2020-12-02_dh_150-prng-1,30_issda_150,150,rng-150,141,rng,num-start-10001,10001,25726,117.31996750831604,True,,True,1,False,1000,True,1.0
./expes/v2_2020-12-02_dh_150-prng-1,30_issda_150,150,rng-150,41,rng,num-start-11001,11001,25726,188.2063009738922,True,,True,1,False,1000,True,1.0
./expes/v2_2020-12-02_dh_150-prng-1,30_issda_150,150,rng-150,51,rng,num-start-8001,8001,25726,110.01869630813599,True,,True,1,False,1000,True,1.0
./expes/v2_2020-12-02_dh_150-prng-1,30_issda_150,150,rng-150,41,rng,num-start-1001,1001,25726,14.194884777069092,True,,True,1,False,1000,True,1.0
./expes/v2_2020-12-02_dh_150-prng-1,30_issda_150,150,rng-150,71,rng,num-start-13001,13001,25726,252.4110107421875,True,,True,1,False,1000,True,1.0
./expes/v2_2020-12-02_dh_150-prng-1,30_issda_150,150,rng-150,81,rng,num-start-12001,12001,25726,170.24316143989563,True,,True,1,False,1000,True,1.0
./expes/v2_2020-12-02_dh_150-prng-1,30_issda_150,150,rng-150,1,rng,num-start-12001,12001,25726,143.81562995910645,True,,True,1,False,1000,True,1.0
./expes/v2_2020-12-02_dh_150-prng-1,30_issda_150,150,rng-150,41,rng,num-start-4001,4001,25726,63.41969037055969,True,,True,1,False,1000,True,1.0
./expes/v2_2020-12-02_dh_150-prng-1,30_issda_150,150,rng-150,141,rng,num-start-10001,10001,25726,123.4047532081604,True,,True,1,False,1000,True,1.0
./expes/v2_2020-12-02_dh_150-prng-1,30_issda_150,150,rng-150,51,rng,num-start-15001,15001,25726,216.50099539756775,True,,True,1,False,1000,True,1.0
