expe,clients,clients_size,clients_subset,agg_size,method,days,days_size,days_total,time,valid,valid_sum,success,nsols,wall_hit,wall_time,pooled,valid_sums
./expes/v2_2020-12-02_dh_150-prng-1,30_issda_150,150,rng-150,1,rng,num-start-6001,6001,25726,70.64932608604431,True,,True,1,False,1000,True,1.0
./expes/v2_2020-12-02_dh_150-prng-1,30_issda_150,150,rng-150,101,rng,num-start-8001,8001,25726,107.88866424560547,True,,True,1,False,1000,True,1.0
./expes/v2_2020-12-02_dh_150-prng-1,30_issda_150,150,rng-150,121,rng,num-start-11001,11001,25726,159.6991879940033,True,,True,1,False,1000,True,1.0
./expes/v2_2020-12-02_dh_150-prng-1,30_issda_150,150,rng-150,41,rng,num-start-2001,2001,25726,29.2006196975708,True,,True,1,False,1000,True,1.0
./expes/v2_2020-12-02_dh_150-prng-1,30_issda_150,150,rng-150,111,rng,num-start-6001,6001,25726,89.38645911216736,True,,True,1,False,1000,True,1.0
./expes/v2_2020-12-02_dh_150-prng-1,30_issda_150,150,rng-150,121,rng,num-start-10001,10001,25726,151.33827257156372,True,,True,1,False,1000,True,1.0
./expes/v2_2020-12-02_dh_150-prng-1,30_issda_150,150,rng-150,121,rng,num-start-8001,8001,25726,110.53715395927429,True,,True,1,False,1000,True,1.0
./expes/v2_2020-12-02_dh_150-prng-1,30_issda_150,150,rng-150,81,rng,num-start-14001,14001,25726,221.37177991867065,True,,True,1,False,1000,True,1.0
./expes/v2_2020-12-02_dh_150-prng-1,30_issda_150,150,rng-150,111,rng,num-start-7001,7001,25726,104.84105110168457,True,,True,1,False,1000,True,1.0
./expes/v2_2020-12-02_dh_150-prng-1,30_issda_150,150,rng-150,101,rng,num-start-13001,13001,25726,179.76273584365845,True,,True,1,False,1000,True,1.0
./expes/v2_2020-12-02_dh_150-prng-1,30_issda_150,150,rng-150,71,rng,num-start-15001,15001,25726,209.1990203857422,True,,True,1,False,1000,True,1.0
