expe,clients,clients_size,clients_subset,agg_size,method,days,days_size,days_total,time,valid,valid_sum,success,nsols,wall_hit,wall_time,pooled,valid_sums
./expes/v2_2020-12-01_dh_4000-prng-1,30_issda_4000,4000,rng-4000,3501,rng,num-start-5001,5001,25726,2283.8554632663727,False,,False,1,True,1000,True,0.0
./expes/v2_2020-12-01_dh_4000-prng-1,30_issda_4000,4000,rng-4000,3001,rng,num-start-1,1,25726,1.0238573551177979,False,,False,2,False,1000,True,1.0
./expes/v2_2020-12-01_dh_4000-prng-1,30_issda_4000,4000,rng-4000,2501,rng,num-start-13001,13001,25726,4377.893919944763,False,,False,1,True,1000,True,0.0
./expes/v2_2020-12-01_dh_4000-prng-1,30_issda_4000,4000,rng-4000,2001,rng,num-start-16001,16001,25726,5158.272078990936,False,,False,1,True,1000,True,0.0
./expes/v2_2020-12-01_dh_4000-prng-1,30_issda_4000,4000,rng-4000,501,rng,num-start-4001,4001,25726,2019.5710084438324,False,,False,1,True,1000,True,0.0
./expes/v2_2020-12-01_dh_4000-prng-1,30_issda_4000,4000,rng-4000,1501,rng,num-start-8001,8001,25726,3069.1800158023834,False,,False,1,True,1000,True,0.0
./expes/v2_2020-12-01_dh_4000-prng-1,30_issda_4000,4000,rng-4000,2501,rng,num-start-13001,13001,25726,4378.683096885681,False,,False,1,True,1000,True,0.0
./expes/v2_2020-12-01_dh_4000-prng-1,30_issda_4000,4000,rng-4000,3001,rng,num-start-14001,14001,25726,4609.582707166672,False,,False,1,True,1000,True,0.0
./expes/v2_2020-12-01_dh_4000-prng-1,30_issda_4000,4000,rng-4000,3001,rng,num-start-11001,11001,25726,3858.162176847458,False,,False,1,True,1000,True,0.0
./expes/v2_2020-12-01_dh_4000-prng-1,30_issda_4000,4000,rng-4000,3001,rng,num-start-1001,1001,25726,1256.4687898159027,False,,False,0,True,1000,True,0.0
./expes/v2_2020-12-01_dh_4000-prng-1,30_issda_4000,4000,rng-4000,1501,rng,num-start-11001,11001,25726,3853.8548772335052,False,,False,1,True,1000,True,0.0
./expes/v2_2020-12-01_dh_4000-prng-1,30_issda_4000,4000,rng-4000,1501,rng,num-start-2001,2001,25726,1527.1973764896393,False,,False,1,True,1000,True,0.0
./expes/v2_2020-12-01_dh_4000-prng-1,30_issda_4000,4000,rng-4000,1501,rng,num-start-12001,12001,25726,4115.055972099304,False,,False,1,True,1000,True,0.0
./expes/v2_2020-12-01_dh_4000-prng-1,30_issda_4000,4000,rng-4000,1001,rng,num-start-1001,1001,25726,1262.8903262615204,False,,False,0,True,1000,True,0.0
./expes/v2_2020-12-01_dh_4000-prng-1,30_issda_4000,4000,rng-4000,2501,rng,num-start-2001,2001,25726,1497.9892008304596,False,,False,1,True,1000,True,0.0
./expes/v2_2020-12-01_dh_4000-prng-1,30_issda_4000,4000,rng-4000,1501,rng,num-start-7001,7001,25726,2681.4495244026184,False,,False,1,True,1000,True,0.0
./expes/v2_2020-12-01_dh_4000-prng-1,30_issda_4000,4000,rng-4000,2501,rng,num-start-1,1,25726,2.9109413623809814,False,,False,2,False,1000,True,1.0
./expes/v2_2020-12-01_dh_4000-prng-1,30_issda_4000,4000,rng-4000,3501,rng,num-start-15001,15001,25726,4861.8167951107025,False,,False,1,True,1000,True,0.0
./expes/v2_2020-12-01_dh_4000-prng-1,30_issda_4000,4000,rng-4000,3001,rng,num-start-15001,15001,25726,4884.522433280945,False,,False,1,True,1000,True,0.0
./expes/v2_2020-12-01_dh_4000-prng-1,30_issda_4000,4000,rng-4000,3501,rng,num-start-7001,7001,25726,2798.670197725296,False,,False,1,True,1000,True,0.0
./expes/v2_2020-12-01_dh_4000-prng-1,30_issda_4000,4000,rng-4000,2501,rng,num-start-7001,7001,25726,2723.1177225112915,False,,False,1,True,1000,True,0.0
./expes/v2_2020-12-01_dh_4000-prng-1,30_issda_4000,4000,rng-4000,501,rng,num-start-3001,3001,25726,1733.7788350582123,False,,False,1,True,1000,True,0.0
./expes/v2_2020-12-01_dh_4000-prng-1,30_issda_4000,4000,rng-4000,3001,rng,num-start-8001,8001,25726,2978.7427608966827,False,,False,1,True,1000,True,0.0
./expes/v2_2020-12-01_dh_4000-prng-1,30_issda_4000,4000,rng-4000,3001,rng,num-start-1,1,25726,0.5319905281066895,False,,False,2,False,1000,True,1.0
./expes/v2_2020-12-01_dh_4000-prng-1,30_issda_4000,4000,rng-4000,1501,rng,num-start-10001,10001,25726,3470.7379508018494,False,,False,1,True,1000,True,0.0
./expes/v2_2020-12-01_dh_4000-prng-1,30_issda_4000,4000,rng-4000,1,rng,num-start-1001,1001,25726,256.2076756954193,True,,True,1,False,1000,True,1.0
./expes/v2_2020-12-01_dh_4000-prng-1,30_issda_4000,4000,rng-4000,501,rng,num-start-1,1,25726,4.450459241867065,False,,False,2,False,1000,True,1.0
./expes/v2_2020-12-01_dh_4000-prng-1,30_issda_4000,4000,rng-4000,3001,rng,num-start-9001,9001,25726,3204.662737131119,False,,False,1,True,1000,True,0.0
./expes/v2_2020-12-01_dh_4000-prng-1,30_issda_4000,4000,rng-4000,1001,rng,num-start-1001,1001,25726,1258.707647562027,False,,False,0,True,1000,True,0.0
./expes/v2_2020-12-01_dh_4000-prng-1,30_issda_4000,4000,rng-4000,1501,rng,num-start-2001,2001,25726,1528.3525121212006,False,,False,1,True,1000,True,0.0
./expes/v2_2020-12-01_dh_4000-prng-1,30_issda_4000,4000,rng-4000,2501,rng,num-start-11001,11001,25726,3797.930970430374,False,,False,1,True,1000,True,0.0
./expes/v2_2020-12-01_dh_4000-prng-1,30_issda_4000,4000,rng-4000,1501,rng,num-start-12001,12001,25726,3986.8054502010345,False,,False,1,True,1000,True,0.0
