expe,clients,clients_size,clients_subset,agg_size,method,days,days_size,days_total,time,valid,valid_sum,success,nsols,wall_hit,wall_time,pooled,valid_sums
./expes/v2_2020-12-01_dh_4000-prng-1,30_issda_4000,4000,rng-4000,2501,rng,num-start-7001,7001,25726,2822.5373256206512,False,,False,1,True,1000,True,0.0
./expes/v2_2020-12-01_dh_4000-prng-1,30_issda_4000,4000,rng-4000,3501,rng,num-start-7001,7001,25726,2828.371793270111,False,,False,1,True,1000,True,0.0
./expes/v2_2020-12-01_dh_4000-prng-1,30_issda_4000,4000,rng-4000,3501,rng,num-start-16001,16001,25726,5177.4940729141235,False,,False,1,True,1000,True,0.0
./expes/v2_2020-12-01_dh_4000-prng-1,30_issda_4000,4000,rng-4000,2001,rng,num-start-6001,6001,25726,2569.321981191635,False,,False,1,True,1000,True,0.0
./expes/v2_2020-12-01_dh_4000-prng-1,30_issda_4000,4000,rng-4000,1,rng,num-start-1,1,25726,0.36522388458251953,False,,False,2,False,1000,True,1.0
./expes/v2_2020-12-01_dh_4000-prng-1,30_issda_4000,4000,rng-4000,3501,rng,num-start-6001,6001,25726,2562.7642657756805,False,,False,1,True,1000,True,0.0
./expes/v2_2020-12-01_dh_4000-prng-1,30_issda_4000,4000,rng-4000,1501,rng,num-start-2001,2001,25726,1530.3207092285156,False,,False,1,True,1000,True,0.0
./expes/v2_2020-12-01_dh_4000-prng-1,30_issda_4000,4000,rng-4000,1501,rng,num-start-14001,14001,25726,4680.683820009232,False,,False,1,True,1000,True,0.0
./expes/v2_2020-12-01_dh_4000-prng-1,30_issda_4000,4000,rng-4000,501,rng,num-start-9001,9001,25726,3340.5879468917847,False,,False,1,True,1000,True,0.0
./expes/v2_2020-12-01_dh_4000-prng-1,30_issda_4000,4000,rng-4000,3001,rng,num-start-8001,8001,25726,3070.101321220398,False,,False,1,True,1000,True,0.0
./expes/v2_2020-12-01_dh_4000-prng-1,30_issda_4000,4000,rng-4000,3001,rng,num-start-6001,6001,25726,2591.371795654297,False,,False,1,True,1000,True,0.0
./expes/v2_2020-12-01_dh_4000-prng-1,30_issda_4000,4000,rng-4000,2501,rng,num-start-1001,1001,25726,1262.8285002708435,False,,False,0,True,1000,True,0.0
./expes/v2_2020-12-01_dh_4000-prng-1,30_issda_4000,4000,rng-4000,1501,rng,num-start-10001,10001,25726,3621.427151441574,False,,False,1,True,1000,True,0.0
./expes/v2_2020-12-01_dh_4000-prng-1,30_issda_4000,4000,rng-4000,3501,rng,num-start-16001,16001,25726,5170.310799598694,False,,False,1,True,1000,True,0.0
./expes/v2_2020-12-01_dh_4000-prng-1,30_issda_4000,4000,rng-4000,501,rng,num-start-5001,5001,25726,2325.955409049988,False,,False,1,True,1000,True,0.0
./expes/v2_2020-12-01_dh_4000-prng-1,30_issda_4000,4000,rng-4000,3001,rng,num-start-15001,15001,25726,4815.149674415588,False,,False,1,True,1000,True,0.0
./expes/v2_2020-12-01_dh_4000-prng-1,30_issda_4000,4000,rng-4000,3001,rng,num-start-5001,5001,25726,2331.1186707019806,False,,False,1,True,1000,True,0.0
./expes/v2_2020-12-01_dh_4000-prng-1,30_issda_4000,4000,rng-4000,1,rng,num-start-4001,4001,25726,1012.3332006931305,True,,True,1,False,1000,True,1.0
./expes/v2_2020-12-01_dh_4000-prng-1,30_issda_4000,4000,rng-4000,2501,rng,num-start-16001,16001,25726,5190.448239326477,False,,False,1,True,1000,True,0.0
./expes/v2_2020-12-01_dh_4000-prng-1,30_issda_4000,4000,rng-4000,2001,rng,num-start-7001,7001,25726,2728.959593772888,False,,False,1,True,1000,True,0.0
./expes/v2_2020-12-01_dh_4000-prng-1,30_issda_4000,4000,rng-4000,2501,rng,num-start-15001,15001,25726,4732.5472893714905,False,,False,1,True,1000,True,0.0
./expes/v2_2020-12-01_dh_4000-prng-1,30_issda_4000,4000,rng-4000,2001,rng,num-start-1,1,25726,0.43386244773864746,False,,False,2,False,1000,True,1.0
./expes/v2_2020-12-01_dh_4000-prng-1,30_issda_4000,4000,rng-4000,501,rng,num-start-7001,7001,25726,2875.1843631267548,False,,False,1,True,1000,True,0.0
./expes/v2_2020-12-01_dh_4000-prng-1,30_issda_4000,4000,rng-4000,2001,rng,num-start-5001,5001,25726,2311.412608385086,False,,False,1,True,1000,True,0.0
./expes/v2_2020-12-01_dh_4000-prng-1,30_issda_4000,4000,rng-4000,501,rng,num-start-3001,3001,25726,1740.4246909618378,False,,False,1,True,1000,True,0.0
./expes/v2_2020-12-01_dh_4000-prng-1,30_issda_4000,4000,rng-4000,1001,rng,num-start-10001,10001,25726,3510.5460658073425,False,,False,1,True,1000,True,0.0
./expes/v2_2020-12-01_dh_4000-prng-1,30_issda_4000,4000,rng-4000,1501,rng,num-start-13001,13001,25726,4218.529655218124,False,,False,1,True,1000,True,0.0
./expes/v2_2020-12-01_dh_4000-prng-1,30_issda_4000,4000,rng-4000,1501,rng,num-start-7001,7001,25726,2797.0071754455566,False,,False,1,True,1000,True,0.0
./expes/v2_2020-12-01_dh_4000-prng-1,30_issda_4000,4000,rng-4000,1001,rng,num-start-2001,2001,25726,1488.481518983841,False,,False,1,True,1000,True,0.0
