expe,clients,clients_size,clients_subset,agg_size,agg_size_pc,method,days,days_size,days_total,noise_method,time,valid,valid_sum,success,nsols,wall_hit,wall_time,pooled,valid_sums
./expes/v2_2021-01-07_hi_4500-prng-w5-d500-1,30_issda-4500,4500,rng-4500,2240,49,rng,num-start-11001,11001,25726,normal,3537.498476743698,False,,False,2,False,5000,True,0.0
./expes/v2_2021-01-07_hi_4500-prng-w5-d500-1,30_issda-4500,4500,rng-4500,1344,29,rng,num-start-5001,5001,25726,normal,2684.267837047577,False,,False,2,False,5000,True,0.0
./expes/v2_2021-01-07_hi_4500-prng-w5-d500-1,30_issda-4500,4500,rng-4500,1456,32,rng,num-start-15001,15001,25726,normal,4763.675189733505,False,,False,2,False,5000,True,0.0
./expes/v2_2021-01-07_hi_4500-prng-w5-d500-1,30_issda-4500,4500,rng-4500,1120,24,rng,num-start-1001,1001,25726,normal,282.43774008750916,False,,False,2,False,5000,True,0.0
