expe,clients,clients_size,clients_subset,agg_size,method,days,days_size,days_total,time,valid,valid_sum,success,nsols,wall_hit,wall_time,pooled,valid_sums
./expes/v2_2020-11-04_hbh_100-prng-1,30_base_hphc_100,100,first-100,41,rng,num-start-741,741,17520,17.697025775909424,True,,True,1,False,1000,True,1.0
./expes/v2_2020-11-04_hbh_100-prng-1,30_base_hphc_100,100,first-100,61,rng,num-start-581,581,17520,13.718416690826416,True,,True,1,False,1000,True,1.0
./expes/v2_2020-11-04_hbh_100-prng-1,30_base_hphc_100,100,first-100,31,rng,num-start-911,911,17520,21.030335903167725,True,,True,1,False,1000,True,1.0
./expes/v2_2020-11-04_hbh_100-prng-1,30_base_hphc_100,100,first-100,81,rng,num-start-201,201,17520,4.789206504821777,True,,True,1,False,1000,True,1.0
./expes/v2_2020-11-04_hbh_100-prng-1,30_base_hphc_100,100,first-100,1,rng,num-start-981,981,17520,20.743417501449585,True,,True,1,False,1000,True,1.0
./expes/v2_2020-11-04_hbh_100-prng-1,30_base_hphc_100,100,first-100,31,rng,num-start-51,51,17520,1.4546897411346436,True,,True,1,False,1000,True,1.0
./expes/v2_2020-11-04_hbh_100-prng-1,30_base_hphc_100,100,first-100,31,rng,num-start-401,401,17520,9.27406096458435,True,,True,1,False,1000,True,1.0
./expes/v2_2020-11-04_hbh_100-prng-1,30_base_hphc_100,100,first-100,51,rng,num-start-461,461,17520,10.65271544456482,True,,True,1,False,1000,True,1.0
./expes/v2_2020-11-04_hbh_100-prng-1,30_base_hphc_100,100,first-100,51,rng,num-start-811,811,17520,19.33054804801941,True,,True,1,False,1000,True,1.0
./expes/v2_2020-11-04_hbh_100-prng-1,30_base_hphc_100,100,first-100,31,rng,num-start-431,431,17520,10.078868627548218,True,,True,1,False,1000,True,1.0
