expe,clients,clients_size,clients_subset,agg_size,method,days,days_size,days_total,time,valid,valid_sum,success,nsols,wall_hit,wall_time,pooled,valid_sums
./expes/v2_2020-11-04_hbh_100-prng-1,30_base_hphc_100,100,first-100,11,rng,num-start-441,441,17520,3.22019624710083,True,,True,1,False,1000,True,1.0
./expes/v2_2020-11-04_hbh_100-prng-1,30_base_hphc_100,100,first-100,51,rng,num-start-911,911,17520,6.700719356536865,True,,True,1,False,1000,True,1.0
./expes/v2_2020-11-04_hbh_100-prng-1,30_base_hphc_100,100,first-100,51,rng,num-start-21,21,17520,1012.330480337143,False,,False,0,True,1000,True,0.0
