expe,clients,clients_size,clients_subset,agg_size,method,days,days_size,days_total,time,valid,valid_sum,success,nsols,wall_hit,wall_time,pooled,valid_sums
./expes/v2_2020-11-23_di_100-prng-3,daily_issda_100,100,rng-100,91,rng,num-start-361,361,536,3.7578797340393066,True,,True,1,False,1000,True,1.0
./expes/v2_2020-11-23_di_100-prng-3,daily_issda_100,100,rng-100,21,rng,num-start-81,81,536,0.895911693572998,True,,True,1,False,1000,True,1.0
./expes/v2_2020-11-23_di_100-prng-3,daily_issda_100,100,rng-100,61,rng,num-start-221,221,536,2.318587064743042,True,,True,1,False,1000,True,1.0
./expes/v2_2020-11-23_di_100-prng-3,daily_issda_100,100,rng-100,41,rng,num-start-71,71,536,0.822343111038208,True,,True,1,False,1000,True,1.0
./expes/v2_2020-11-23_di_100-prng-3,daily_issda_100,100,rng-100,51,rng,num-start-171,171,536,1.8516061305999756,True,,True,1,False,1000,True,1.0
./expes/v2_2020-11-23_di_100-prng-3,daily_issda_100,100,rng-100,31,rng,num-start-451,451,536,4.35006046295166,True,,True,1,False,1000,True,1.0
./expes/v2_2020-11-23_di_100-prng-3,daily_issda_100,100,rng-100,91,rng,num-start-451,451,536,4.362596273422241,True,,True,1,False,1000,True,1.0
./expes/v2_2020-11-23_di_100-prng-3,daily_issda_100,100,rng-100,61,rng,num-start-101,101,536,1.101166009902954,True,,True,1,False,1000,True,1.0
./expes/v2_2020-11-23_di_100-prng-3,daily_issda_100,100,rng-100,41,rng,num-start-41,41,536,0.8015191555023193,True,,True,1,False,1000,True,1.0
./expes/v2_2020-11-23_di_100-prng-3,daily_issda_100,100,rng-100,41,rng,num-start-251,251,536,2.540771722793579,True,,True,1,False,1000,True,1.0
./expes/v2_2020-11-23_di_100-prng-3,daily_issda_100,100,rng-100,21,rng,num-start-491,491,536,4.750344514846802,True,,True,1,False,1000,True,1.0
./expes/v2_2020-11-23_di_100-prng-3,daily_issda_100,100,rng-100,1,rng,num-start-151,151,536,1.3688158988952637,True,,True,1,False,1000,True,1.0
./expes/v2_2020-11-23_di_100-prng-3,daily_issda_100,100,rng-100,61,rng,num-start-261,261,536,2.7191264629364014,True,,True,1,False,1000,True,1.0
./expes/v2_2020-11-23_di_100-prng-3,daily_issda_100,100,rng-100,91,rng,num-start-391,391,536,3.805953025817871,True,,True,1,False,1000,True,1.0
./expes/v2_2020-11-23_di_100-prng-3,daily_issda_100,100,rng-100,61,rng,num-start-221,221,536,2.28277325630188,True,,True,1,False,1000,True,1.0
./expes/v2_2020-11-23_di_100-prng-3,daily_issda_100,100,rng-100,21,rng,num-start-51,51,536,0.6047217845916748,True,,True,1,False,1000,True,1.0
./expes/v2_2020-11-23_di_100-prng-3,daily_issda_100,100,rng-100,41,rng,num-start-361,361,536,4.278656005859375,True,,True,1,False,1000,True,1.0
./expes/v2_2020-11-23_di_100-prng-3,daily_issda_100,100,rng-100,51,rng,num-start-311,311,536,3.091817617416382,True,,True,1,False,1000,True,1.0
./expes/v2_2020-11-23_di_100-prng-3,daily_issda_100,100,rng-100,71,rng,num-start-411,411,536,4.152127981185913,True,,True,1,False,1000,True,1.0
./expes/v2_2020-11-23_di_100-prng-3,daily_issda_100,100,rng-100,21,rng,num-start-81,81,536,0.9422173500061035,True,,True,1,False,1000,True,1.0
./expes/v2_2020-11-23_di_100-prng-3,daily_issda_100,100,rng-100,41,rng,num-start-461,461,536,4.555136680603027,True,,True,1,False,1000,True,1.0
./expes/v2_2020-11-23_di_100-prng-3,daily_issda_100,100,rng-100,81,rng,num-start-351,351,536,3.5531275272369385,True,,True,1,False,1000,True,1.0
./expes/v2_2020-11-23_di_100-prng-3,daily_issda_100,100,rng-100,51,rng,num-start-161,161,536,1.7706260681152344,True,,True,1,False,1000,True,1.0
./expes/v2_2020-11-23_di_100-prng-3,daily_issda_100,100,rng-100,41,rng,num-start-441,441,536,4.241671800613403,True,,True,1,False,1000,True,1.0
./expes/v2_2020-11-23_di_100-prng-3,daily_issda_100,100,rng-100,41,rng,num-start-381,381,536,4.016549348831177,True,,True,1,False,1000,True,1.0
./expes/v2_2020-11-23_di_100-prng-3,daily_issda_100,100,rng-100,21,rng,num-start-331,331,536,3.3644304275512695,True,,True,1,False,1000,True,1.0
./expes/v2_2020-11-23_di_100-prng-3,daily_issda_100,100,rng-100,81,rng,num-start-481,481,536,4.746682167053223,True,,True,1,False,1000,True,1.0
./expes/v2_2020-11-23_di_100-prng-3,daily_issda_100,100,rng-100,61,rng,num-start-91,91,536,1.1018462181091309,True,,True,1,False,1000,True,1.0
./expes/v2_2020-11-23_di_100-prng-3,daily_issda_100,100,rng-100,31,rng,num-start-471,471,536,4.825834274291992,True,,True,1,False,1000,True,1.0
./expes/v2_2020-11-23_di_100-prng-3,daily_issda_100,100,rng-100,21,rng,num-start-441,441,536,4.740664720535278,True,,True,1,False,1000,True,1.0
./expes/v2_2020-11-23_di_100-prng-3,daily_issda_100,100,rng-100,1,rng,num-start-1,1,536,0.015124797821044922,True,,True,1,False,1000,True,1.0
./expes/v2_2020-11-23_di_100-prng-3,daily_issda_100,100,rng-100,41,rng,num-start-101,101,536,1.2144358158111572,True,,True,1,False,1000,True,1.0
./expes/v2_2020-11-23_di_100-prng-3,daily_issda_100,100,rng-100,71,rng,num-start-191,191,536,2.1169888973236084,True,,True,1,False,1000,True,1.0
./expes/v2_2020-11-23_di_100-prng-3,daily_issda_100,100,rng-100,41,rng,num-start-91,91,536,1.0841991901397705,True,,True,1,False,1000,True,1.0
./expes/v2_2020-11-23_di_100-prng-3,daily_issda_100,100,rng-100,11,rng,num-start-401,401,536,4.023688793182373,True,,True,1,False,1000,True,1.0
./expes/v2_2020-11-23_di_100-prng-3,daily_issda_100,100,rng-100,11,rng,num-start-381,381,536,3.885850191116333,True,,True,1,False,1000,True,1.0
./expes/v2_2020-11-23_di_100-prng-3,daily_issda_100,100,rng-100,81,rng,num-start-321,321,536,3.239542007446289,True,,True,1,False,1000,True,1.0
./expes/v2_2020-11-23_di_100-prng-3,daily_issda_100,100,rng-100,31,rng,num-start-391,391,536,3.9386978149414062,True,,True,1,False,1000,True,1.0
./expes/v2_2020-11-23_di_100-prng-3,daily_issda_100,100,rng-100,71,rng,num-start-141,141,536,1.6509058475494385,True,,True,1,False,1000,True,1.0
./expes/v2_2020-11-23_di_100-prng-3,daily_issda_100,100,rng-100,11,rng,num-start-341,341,536,3.4557573795318604,True,,True,1,False,1000,True,1.0
./expes/v2_2020-11-23_di_100-prng-3,daily_issda_100,100,rng-100,31,rng,num-start-341,341,536,3.7885615825653076,True,,True,1,False,1000,True,1.0
./expes/v2_2020-11-23_di_100-prng-3,daily_issda_100,100,rng-100,51,rng,num-start-161,161,536,1.895348072052002,True,,True,1,False,1000,True,1.0
./expes/v2_2020-11-23_di_100-prng-3,daily_issda_100,100,rng-100,51,rng,num-start-301,301,536,3.1367897987365723,True,,True,1,False,1000,True,1.0
./expes/v2_2020-11-23_di_100-prng-3,daily_issda_100,100,rng-100,31,rng,num-start-231,231,536,2.616543769836426,True,,True,1,False,1000,True,1.0
./expes/v2_2020-11-23_di_100-prng-3,daily_issda_100,100,rng-100,71,rng,num-start-371,371,536,3.8197052478790283,True,,True,1,False,1000,True,1.0
./expes/v2_2020-11-23_di_100-prng-3,daily_issda_100,100,rng-100,11,rng,num-start-351,351,536,3.5422186851501465,True,,True,1,False,1000,True,1.0
./expes/v2_2020-11-23_di_100-prng-3,daily_issda_100,100,rng-100,1,rng,num-start-21,21,536,0.1993117332458496,True,,True,1,False,1000,True,1.0
./expes/v2_2020-11-23_di_100-prng-3,daily_issda_100,100,rng-100,61,rng,num-start-321,321,536,3.2949886322021484,True,,True,1,False,1000,True,1.0
./expes/v2_2020-11-23_di_100-prng-3,daily_issda_100,100,rng-100,61,rng,num-start-221,221,536,2.2972400188446045,True,,True,1,False,1000,True,1.0
./expes/v2_2020-11-23_di_100-prng-3,daily_issda_100,100,rng-100,81,rng,num-start-61,61,536,0.7076828479766846,True,,True,1,False,1000,True,1.0
./expes/v2_2020-11-23_di_100-prng-3,daily_issda_100,100,rng-100,51,rng,num-start-101,101,536,1.1300573348999023,True,,True,1,False,1000,True,1.0
./expes/v2_2020-11-23_di_100-prng-3,daily_issda_100,100,rng-100,11,rng,num-start-121,121,536,1.4055485725402832,True,,True,1,False,1000,True,1.0
./expes/v2_2020-11-23_di_100-prng-3,daily_issda_100,100,rng-100,81,rng,num-start-71,71,536,0.854783296585083,True,,True,1,False,1000,True,1.0
./expes/v2_2020-11-23_di_100-prng-3,daily_issda_100,100,rng-100,41,rng,num-start-211,211,536,2.206146478652954,True,,True,1,False,1000,True,1.0
./expes/v2_2020-11-23_di_100-prng-3,daily_issda_100,100,rng-100,11,rng,num-start-381,381,536,3.7609145641326904,True,,True,1,False,1000,True,1.0
./expes/v2_2020-11-23_di_100-prng-3,daily_issda_100,100,rng-100,31,rng,num-start-351,351,536,3.6239213943481445,True,,True,1,False,1000,True,1.0
./expes/v2_2020-11-23_di_100-prng-3,daily_issda_100,100,rng-100,1,rng,num-start-271,271,536,2.486976385116577,True,,True,1,False,1000,True,1.0
./expes/v2_2020-11-23_di_100-prng-3,daily_issda_100,100,rng-100,51,rng,num-start-361,361,536,3.686487913131714,True,,True,1,False,1000,True,1.0
./expes/v2_2020-11-23_di_100-prng-3,daily_issda_100,100,rng-100,1,rng,num-start-451,451,536,4.161662817001343,True,,True,1,False,1000,True,1.0
./expes/v2_2020-11-23_di_100-prng-3,daily_issda_100,100,rng-100,41,rng,num-start-121,121,536,1.3878164291381836,True,,True,1,False,1000,True,1.0
./expes/v2_2020-11-23_di_100-prng-3,daily_issda_100,100,rng-100,21,rng,num-start-411,411,536,4.222266674041748,True,,True,1,False,1000,True,1.0
./expes/v2_2020-11-23_di_100-prng-3,daily_issda_100,100,rng-100,61,rng,num-start-301,301,536,3.0684545040130615,True,,True,1,False,1000,True,1.0
./expes/v2_2020-11-23_di_100-prng-3,daily_issda_100,100,rng-100,1,rng,num-start-241,241,536,2.228609323501587,True,,True,1,False,1000,True,1.0
./expes/v2_2020-11-23_di_100-prng-3,daily_issda_100,100,rng-100,91,rng,num-start-281,281,536,2.824455499649048,True,,True,1,False,1000,True,1.0
./expes/v2_2020-11-23_di_100-prng-3,daily_issda_100,100,rng-100,91,rng,num-start-171,171,536,1.8770427703857422,True,,True,1,False,1000,True,1.0
./expes/v2_2020-11-23_di_100-prng-3,daily_issda_100,100,rng-100,81,rng,num-start-211,211,536,2.3641867637634277,True,,True,1,False,1000,True,1.0
./expes/v2_2020-11-23_di_100-prng-3,daily_issda_100,100,rng-100,11,rng,num-start-491,491,536,4.942670822143555,True,,True,1,False,1000,True,1.0
./expes/v2_2020-11-23_di_100-prng-3,daily_issda_100,100,rng-100,81,rng,num-start-41,41,536,0.558403730392456,True,,True,1,False,1000,True,1.0
./expes/v2_2020-11-23_di_100-prng-3,daily_issda_100,100,rng-100,61,rng,num-start-21,21,536,395.61818766593933,True,,True,1,False,1000,True,1.0
./expes/v2_2020-11-23_di_100-prng-3,daily_issda_100,100,rng-100,91,rng,num-start-171,171,536,1.9387025833129883,True,,True,1,False,1000,True,1.0
./expes/v2_2020-11-23_di_100-prng-3,daily_issda_100,100,rng-100,11,rng,num-start-321,321,536,3.1952478885650635,True,,True,1,False,1000,True,1.0
./expes/v2_2020-11-23_di_100-prng-3,daily_issda_100,100,rng-100,71,rng,num-start-361,361,536,3.7667899131774902,True,,True,1,False,1000,True,1.0
./expes/v2_2020-11-23_di_100-prng-3,daily_issda_100,100,rng-100,61,rng,num-start-311,311,536,3.1237025260925293,True,,True,1,False,1000,True,1.0
./expes/v2_2020-11-23_di_100-prng-3,daily_issda_100,100,rng-100,31,rng,num-start-31,31,536,0.647489070892334,True,,True,1,False,1000,True,1.0
./expes/v2_2020-11-23_di_100-prng-3,daily_issda_100,100,rng-100,11,rng,num-start-411,411,536,4.30760645866394,True,,True,1,False,1000,True,1.0
./expes/v2_2020-11-23_di_100-prng-3,daily_issda_100,100,rng-100,71,rng,num-start-41,41,536,0.7899508476257324,True,,True,1,False,1000,True,1.0
./expes/v2_2020-11-23_di_100-prng-3,daily_issda_100,100,rng-100,71,rng,num-start-351,351,536,3.6189355850219727,True,,True,1,False,1000,True,1.0
./expes/v2_2020-11-23_di_100-prng-3,daily_issda_100,100,rng-100,61,rng,num-start-241,241,536,2.4930214881896973,True,,True,1,False,1000,True,1.0
./expes/v2_2020-11-23_di_100-prng-3,daily_issda_100,100,rng-100,51,rng,num-start-461,461,536,4.755886077880859,True,,True,1,False,1000,True,1.0
./expes/v2_2020-11-23_di_100-prng-3,daily_issda_100,100,rng-100,1,rng,num-start-41,41,536,0.38422703742980957,True,,True,1,False,1000,True,1.0
./expes/v2_2020-11-23_di_100-prng-3,daily_issda_100,100,rng-100,51,rng,num-start-361,361,536,3.9624996185302734,True,,True,1,False,1000,True,1.0
./expes/v2_2020-11-23_di_100-prng-3,daily_issda_100,100,rng-100,11,rng,num-start-481,481,536,4.793308973312378,True,,True,1,False,1000,True,1.0
./expes/v2_2020-11-23_di_100-prng-3,daily_issda_100,100,rng-100,51,rng,num-start-331,331,536,3.4354004859924316,True,,True,1,False,1000,True,1.0
./expes/v2_2020-11-23_di_100-prng-3,daily_issda_100,100,rng-100,41,rng,num-start-331,331,536,3.5595598220825195,True,,True,1,False,1000,True,1.0
./expes/v2_2020-11-23_di_100-prng-3,daily_issda_100,100,rng-100,91,rng,num-start-411,411,536,4.350705862045288,True,,True,1,False,1000,True,1.0
./expes/v2_2020-11-23_di_100-prng-3,daily_issda_100,100,rng-100,11,rng,num-start-151,151,536,1.7736215591430664,True,,True,1,False,1000,True,1.0
./expes/v2_2020-11-23_di_100-prng-3,daily_issda_100,100,rng-100,41,rng,num-start-361,361,536,3.7784628868103027,True,,True,1,False,1000,True,1.0
./expes/v2_2020-11-23_di_100-prng-3,daily_issda_100,100,rng-100,61,rng,num-start-11,11,536,1005.7946562767029,False,,False,0,True,1000,True,0.0
./expes/v2_2020-11-23_di_100-prng-3,daily_issda_100,100,rng-100,71,rng,num-start-271,271,536,2.6540420055389404,True,,True,1,False,1000,True,1.0
./expes/v2_2020-11-23_di_100-prng-3,daily_issda_100,100,rng-100,61,rng,num-start-111,111,536,1.243492841720581,True,,True,1,False,1000,True,1.0
./expes/v2_2020-11-23_di_100-prng-3,daily_issda_100,100,rng-100,11,rng,num-start-221,221,536,2.1340091228485107,True,,True,1,False,1000,True,1.0
./expes/v2_2020-11-23_di_100-prng-3,daily_issda_100,100,rng-100,81,rng,num-start-221,221,536,2.175084352493286,True,,True,1,False,1000,True,1.0
./expes/v2_2020-11-23_di_100-prng-3,daily_issda_100,100,rng-100,1,rng,num-start-301,301,536,2.7204551696777344,True,,True,1,False,1000,True,1.0
./expes/v2_2020-11-23_di_100-prng-3,daily_issda_100,100,rng-100,31,rng,num-start-181,181,536,2.012465000152588,True,,True,1,False,1000,True,1.0
./expes/v2_2020-11-23_di_100-prng-3,daily_issda_100,100,rng-100,71,rng,num-start-171,171,536,1.8784534931182861,True,,True,1,False,1000,True,1.0
./expes/v2_2020-11-23_di_100-prng-3,daily_issda_100,100,rng-100,11,rng,num-start-371,371,536,3.6652114391326904,True,,True,1,False,1000,True,1.0
./expes/v2_2020-11-23_di_100-prng-3,daily_issda_100,100,rng-100,51,rng,num-start-21,21,536,1016.0577838420868,False,,False,0,True,1000,True,0.0
./expes/v2_2020-11-23_di_100-prng-3,daily_issda_100,100,rng-100,81,rng,num-start-481,481,536,4.980494499206543,True,,True,1,False,1000,True,1.0
./expes/v2_2020-11-23_di_100-prng-3,daily_issda_100,100,rng-100,51,rng,num-start-381,381,536,3.9555630683898926,True,,True,1,False,1000,True,1.0
./expes/v2_2020-11-23_di_100-prng-3,daily_issda_100,100,rng-100,71,rng,num-start-401,401,536,4.237594366073608,True,,True,1,False,1000,True,1.0
./expes/v2_2020-11-23_di_100-prng-3,daily_issda_100,100,rng-100,81,rng,num-start-91,91,536,1.009300708770752,True,,True,1,False,1000,True,1.0
./expes/v2_2020-11-23_di_100-prng-3,daily_issda_100,100,rng-100,91,rng,num-start-171,171,536,1.8868091106414795,True,,True,1,False,1000,True,1.0
./expes/v2_2020-11-23_di_100-prng-3,daily_issda_100,100,rng-100,61,rng,num-start-341,341,536,3.564634084701538,True,,True,1,False,1000,True,1.0
./expes/v2_2020-11-23_di_100-prng-3,daily_issda_100,100,rng-100,1,rng,num-start-341,341,536,3.188779830932617,True,,True,1,False,1000,True,1.0
./expes/v2_2020-11-23_di_100-prng-3,daily_issda_100,100,rng-100,1,rng,num-start-1,1,536,0.014832735061645508,True,,True,1,False,1000,True,1.0
./expes/v2_2020-11-23_di_100-prng-3,daily_issda_100,100,rng-100,41,rng,num-start-61,61,536,0.8365151882171631,True,,True,1,False,1000,True,1.0
./expes/v2_2020-11-23_di_100-prng-3,daily_issda_100,100,rng-100,31,rng,num-start-241,241,536,2.495478391647339,True,,True,1,False,1000,True,1.0
./expes/v2_2020-11-23_di_100-prng-3,daily_issda_100,100,rng-100,71,rng,num-start-141,141,536,1.5863749980926514,True,,True,1,False,1000,True,1.0
./expes/v2_2020-11-23_di_100-prng-3,daily_issda_100,100,rng-100,41,rng,num-start-171,171,536,2.019806146621704,True,,True,1,False,1000,True,1.0
./expes/v2_2020-11-23_di_100-prng-3,daily_issda_100,100,rng-100,81,rng,num-start-271,271,536,2.9431943893432617,True,,True,1,False,1000,True,1.0
./expes/v2_2020-11-23_di_100-prng-3,daily_issda_100,100,rng-100,31,rng,num-start-421,421,536,4.464101791381836,True,,True,1,False,1000,True,1.0
./expes/v2_2020-11-23_di_100-prng-3,daily_issda_100,100,rng-100,61,rng,num-start-381,381,536,3.8950512409210205,True,,True,1,False,1000,True,1.0
./expes/v2_2020-11-23_di_100-prng-3,daily_issda_100,100,rng-100,81,rng,num-start-321,321,536,3.162414312362671,True,,True,1,False,1000,True,1.0
./expes/v2_2020-11-23_di_100-prng-3,daily_issda_100,100,rng-100,31,rng,num-start-11,11,536,1001.8925611972809,False,,False,0,True,1000,True,0.0
