expe,clients,clients_size,clients_subset,agg_size,method,days,days_size,days_total,time,valid,valid_sum,success,nsols,wall_hit,wall_time,pooled,valid_sums
./expes/v2_2020-11-29_di_4000-prng-1,daily_issda_4000,4000,rng-4000,2501,rng,num-start-101,101,536,1038.419120311737,False,,False,0,True,1000,True,0.0
./expes/v2_2020-11-29_di_4000-prng-1,daily_issda_4000,4000,rng-4000,3501,rng,num-start-41,41,536,1015.4226729869843,False,,False,0,True,1000,True,0.0
./expes/v2_2020-11-29_di_4000-prng-1,daily_issda_4000,4000,rng-4000,1,rng,num-start-41,41,536,15.745305061340332,True,,True,1,False,1000,True,1.0
./expes/v2_2020-11-29_di_4000-prng-1,daily_issda_4000,4000,rng-4000,501,rng,num-start-191,191,536,1084.902055978775,False,,False,0,True,1000,True,0.0
./expes/v2_2020-11-29_di_4000-prng-1,daily_issda_4000,4000,rng-4000,1,rng,num-start-41,41,536,15.247829675674438,True,,True,1,False,1000,True,1.0
./expes/v2_2020-11-29_di_4000-prng-1,daily_issda_4000,4000,rng-4000,3001,rng,num-start-31,31,536,1012.193389415741,False,,False,0,True,1000,True,0.0
./expes/v2_2020-11-29_di_4000-prng-1,daily_issda_4000,4000,rng-4000,3501,rng,num-start-71,71,536,1027.7153096199036,False,,False,0,True,1000,True,0.0
./expes/v2_2020-11-29_di_4000-prng-1,daily_issda_4000,4000,rng-4000,1501,rng,num-start-201,201,536,1080.076916217804,False,,False,0,True,1000,True,0.0
./expes/v2_2020-11-29_di_4000-prng-1,daily_issda_4000,4000,rng-4000,1001,rng,num-start-101,101,536,1039.435721874237,False,,False,0,True,1000,True,0.0
./expes/v2_2020-11-29_di_4000-prng-1,daily_issda_4000,4000,rng-4000,1001,rng,num-start-61,61,536,1024.181692123413,False,,False,0,True,1000,True,0.0
./expes/v2_2020-11-29_di_4000-prng-1,daily_issda_4000,4000,rng-4000,2501,rng,num-start-91,91,536,1035.8685705661774,False,,False,0,True,1000,True,0.0
./expes/v2_2020-11-29_di_4000-prng-1,daily_issda_4000,4000,rng-4000,1501,rng,num-start-31,31,536,1011.6304941177368,False,,False,0,True,1000,True,0.0
./expes/v2_2020-11-29_di_4000-prng-1,daily_issda_4000,4000,rng-4000,1001,rng,num-start-211,211,536,1082.3293797969818,False,,False,0,True,1000,True,0.0
./expes/v2_2020-11-29_di_4000-prng-1,daily_issda_4000,4000,rng-4000,3001,rng,num-start-241,241,536,1093.1599807739258,False,,False,0,True,1000,True,0.0
./expes/v2_2020-11-29_di_4000-prng-1,daily_issda_4000,4000,rng-4000,1501,rng,num-start-201,201,536,1077.186274766922,False,,False,0,True,1000,True,0.0
./expes/v2_2020-11-29_di_4000-prng-1,daily_issda_4000,4000,rng-4000,2501,rng,num-start-291,291,536,1110.825323343277,False,,False,0,True,1000,True,0.0
./expes/v2_2020-11-29_di_4000-prng-1,daily_issda_4000,4000,rng-4000,501,rng,num-start-71,71,536,1027.6594665050507,False,,False,0,True,1000,True,0.0
./expes/v2_2020-11-29_di_4000-prng-1,daily_issda_4000,4000,rng-4000,1501,rng,num-start-61,61,536,1023.8220279216766,False,,False,0,True,1000,True,0.0
./expes/v2_2020-11-29_di_4000-prng-1,daily_issda_4000,4000,rng-4000,3001,rng,num-start-251,251,536,1097.9258663654327,False,,False,0,True,1000,True,0.0
./expes/v2_2020-11-29_di_4000-prng-1,daily_issda_4000,4000,rng-4000,3501,rng,num-start-191,191,536,1073.8797717094421,False,,False,0,True,1000,True,0.0
./expes/v2_2020-11-29_di_4000-prng-1,daily_issda_4000,4000,rng-4000,2001,rng,num-start-291,291,536,1114.1582465171814,False,,False,0,True,1000,True,0.0
./expes/v2_2020-11-29_di_4000-prng-1,daily_issda_4000,4000,rng-4000,1001,rng,num-start-141,141,536,1052.5275511741638,False,,False,0,True,1000,True,0.0
./expes/v2_2020-11-29_di_4000-prng-1,daily_issda_4000,4000,rng-4000,3001,rng,num-start-81,81,536,1031.1641373634338,False,,False,0,True,1000,True,0.0
./expes/v2_2020-11-29_di_4000-prng-1,daily_issda_4000,4000,rng-4000,2001,rng,num-start-251,251,536,1098.8969988822937,False,,False,0,True,1000,True,0.0
./expes/v2_2020-11-29_di_4000-prng-1,daily_issda_4000,4000,rng-4000,1501,rng,num-start-281,281,536,1108.3810138702393,False,,False,0,True,1000,True,0.0
./expes/v2_2020-11-29_di_4000-prng-1,daily_issda_4000,4000,rng-4000,2501,rng,num-start-271,271,536,1107.6499881744385,False,,False,0,True,1000,True,0.0
./expes/v2_2020-11-29_di_4000-prng-1,daily_issda_4000,4000,rng-4000,501,rng,num-start-131,131,536,1051.4522891044617,False,,False,0,True,1000,True,0.0
./expes/v2_2020-11-29_di_4000-prng-1,daily_issda_4000,4000,rng-4000,2001,rng,num-start-41,41,536,1016.0284557342529,False,,False,0,True,1000,True,0.0
./expes/v2_2020-11-29_di_4000-prng-1,daily_issda_4000,4000,rng-4000,501,rng,num-start-161,161,536,1062.2562627792358,False,,False,0,True,1000,True,0.0
./expes/v2_2020-11-29_di_4000-prng-1,daily_issda_4000,4000,rng-4000,501,rng,num-start-131,131,536,1051.8334784507751,False,,False,0,True,1000,True,0.0
./expes/v2_2020-11-29_di_4000-prng-1,daily_issda_4000,4000,rng-4000,3001,rng,num-start-91,91,536,1036.0724928379059,False,,False,0,True,1000,True,0.0
./expes/v2_2020-11-29_di_4000-prng-1,daily_issda_4000,4000,rng-4000,501,rng,num-start-21,21,536,1008.2278537750244,False,,False,0,True,1000,True,0.0
./expes/v2_2020-11-29_di_4000-prng-1,daily_issda_4000,4000,rng-4000,3001,rng,num-start-91,91,536,1035.8375115394592,False,,False,0,True,1000,True,0.0
./expes/v2_2020-11-29_di_4000-prng-1,daily_issda_4000,4000,rng-4000,3501,rng,num-start-91,91,536,1035.1515696048737,False,,False,0,True,1000,True,0.0
./expes/v2_2020-11-29_di_4000-prng-1,daily_issda_4000,4000,rng-4000,3501,rng,num-start-21,21,536,1008.5306627750397,False,,False,0,True,1000,True,0.0
./expes/v2_2020-11-29_di_4000-prng-1,daily_issda_4000,4000,rng-4000,3001,rng,num-start-291,291,536,1112.6839337348938,False,,False,0,True,1000,True,0.0
./expes/v2_2020-11-29_di_4000-prng-1,daily_issda_4000,4000,rng-4000,1501,rng,num-start-201,201,536,1074.2125451564789,False,,False,0,True,1000,True,0.0
./expes/v2_2020-11-29_di_4000-prng-1,daily_issda_4000,4000,rng-4000,2501,rng,num-start-241,241,536,1093.6387226581573,False,,False,0,True,1000,True,0.0
./expes/v2_2020-11-29_di_4000-prng-1,daily_issda_4000,4000,rng-4000,1,rng,num-start-71,71,536,27.822516918182373,True,,True,1,False,1000,True,1.0
./expes/v2_2020-11-29_di_4000-prng-1,daily_issda_4000,4000,rng-4000,2001,rng,num-start-151,151,536,1058.2509529590607,False,,False,0,True,1000,True,0.0
./expes/v2_2020-11-29_di_4000-prng-1,daily_issda_4000,4000,rng-4000,2501,rng,num-start-121,121,536,1045.7171702384949,False,,False,0,True,1000,True,0.0
./expes/v2_2020-11-29_di_4000-prng-1,daily_issda_4000,4000,rng-4000,3501,rng,num-start-231,231,536,1090.6920039653778,False,,False,0,True,1000,True,0.0
./expes/v2_2020-11-29_di_4000-prng-1,daily_issda_4000,4000,rng-4000,501,rng,num-start-1,1,536,13.91323733329773,False,,False,2,False,1000,True,1.0
./expes/v2_2020-11-29_di_4000-prng-1,daily_issda_4000,4000,rng-4000,3001,rng,num-start-101,101,536,1039.7682938575745,False,,False,0,True,1000,True,0.0
./expes/v2_2020-11-29_di_4000-prng-1,daily_issda_4000,4000,rng-4000,2501,rng,num-start-11,11,536,1004.4209260940552,False,,False,0,True,1000,True,0.0
./expes/v2_2020-11-29_di_4000-prng-1,daily_issda_4000,4000,rng-4000,3001,rng,num-start-291,291,536,1113.303968667984,False,,False,0,True,1000,True,0.0
./expes/v2_2020-11-29_di_4000-prng-1,daily_issda_4000,4000,rng-4000,3501,rng,num-start-1,1,536,1.9912865161895752,False,,False,2,False,1000,True,1.0
./expes/v2_2020-11-29_di_4000-prng-1,daily_issda_4000,4000,rng-4000,1,rng,num-start-71,71,536,27.393007278442383,True,,True,1,False,1000,True,1.0
./expes/v2_2020-11-29_di_4000-prng-1,daily_issda_4000,4000,rng-4000,1001,rng,num-start-271,271,536,1102.179835319519,False,,False,0,True,1000,True,0.0
./expes/v2_2020-11-29_di_4000-prng-1,daily_issda_4000,4000,rng-4000,1501,rng,num-start-201,201,536,1078.4287683963776,False,,False,0,True,1000,True,0.0
./expes/v2_2020-11-29_di_4000-prng-1,daily_issda_4000,4000,rng-4000,501,rng,num-start-131,131,536,1051.117650270462,False,,False,0,True,1000,True,0.0
./expes/v2_2020-11-29_di_4000-prng-1,daily_issda_4000,4000,rng-4000,3501,rng,num-start-131,131,536,1051.1988248825073,False,,False,0,True,1000,True,0.0
./expes/v2_2020-11-29_di_4000-prng-1,daily_issda_4000,4000,rng-4000,1001,rng,num-start-291,291,536,1114.7439804077148,False,,False,0,True,1000,True,0.0
./expes/v2_2020-11-29_di_4000-prng-1,daily_issda_4000,4000,rng-4000,1,rng,num-start-171,171,536,65.23790740966797,True,,True,1,False,1000,True,1.0
./expes/v2_2020-11-29_di_4000-prng-1,daily_issda_4000,4000,rng-4000,3001,rng,num-start-231,231,536,1090.11279129982,False,,False,0,True,1000,True,0.0
./expes/v2_2020-11-29_di_4000-prng-1,daily_issda_4000,4000,rng-4000,1,rng,num-start-141,141,536,54.43961524963379,True,,True,1,False,1000,True,1.0
./expes/v2_2020-11-29_di_4000-prng-1,daily_issda_4000,4000,rng-4000,1001,rng,num-start-111,111,536,1043.498643875122,False,,False,0,True,1000,True,0.0
./expes/v2_2020-11-29_di_4000-prng-1,daily_issda_4000,4000,rng-4000,3501,rng,num-start-31,31,536,1012.4780633449554,False,,False,0,True,1000,True,0.0
./expes/v2_2020-11-29_di_4000-prng-1,daily_issda_4000,4000,rng-4000,2001,rng,num-start-81,81,536,1031.306408882141,False,,False,0,True,1000,True,0.0
./expes/v2_2020-11-29_di_4000-prng-1,daily_issda_4000,4000,rng-4000,3501,rng,num-start-151,151,536,1060.4277482032776,False,,False,0,True,1000,True,0.0
./expes/v2_2020-11-29_di_4000-prng-1,daily_issda_4000,4000,rng-4000,3001,rng,num-start-71,71,536,1027.2644290924072,False,,False,0,True,1000,True,0.0
./expes/v2_2020-11-29_di_4000-prng-1,daily_issda_4000,4000,rng-4000,1,rng,num-start-281,281,536,108.57950639724731,True,,True,1,False,1000,True,1.0
./expes/v2_2020-11-29_di_4000-prng-1,daily_issda_4000,4000,rng-4000,501,rng,num-start-271,271,536,1104.591957807541,False,,False,0,True,1000,True,0.0
./expes/v2_2020-11-29_di_4000-prng-1,daily_issda_4000,4000,rng-4000,501,rng,num-start-81,81,536,1030.690805196762,False,,False,0,True,1000,True,0.0
./expes/v2_2020-11-29_di_4000-prng-1,daily_issda_4000,4000,rng-4000,2501,rng,num-start-181,181,536,1070.5094985961914,False,,False,0,True,1000,True,0.0
./expes/v2_2020-11-29_di_4000-prng-1,daily_issda_4000,4000,rng-4000,1001,rng,num-start-71,71,536,1026.6977844238281,False,,False,0,True,1000,True,0.0
