expe,clients,clients_size,clients_subset,agg_size,method,days,days_size,days_total,time,valid,valid_sum,success,nsols,wall_hit,wall_time,pooled,valid_sums
./expes/v2_2020-11-29_di_4000-prng-1,daily_issda_4000,4000,rng-4000,2001,rng,num-start-291,291,536,1056.6814708709717,False,,False,0,True,1000,True,0.0
./expes/v2_2020-11-29_di_4000-prng-1,daily_issda_4000,4000,rng-4000,3001,rng,num-start-81,81,536,1016.9661192893982,False,,False,0,True,1000,True,0.0
./expes/v2_2020-11-29_di_4000-prng-1,daily_issda_4000,4000,rng-4000,501,rng,num-start-201,201,536,1131.9505624771118,False,,False,0,True,1000,True,0.0
./expes/v2_2020-11-29_di_4000-prng-1,daily_issda_4000,4000,rng-4000,501,rng,num-start-221,221,536,1047.222321510315,False,,False,0,True,1000,True,0.0
./expes/v2_2020-11-29_di_4000-prng-1,daily_issda_4000,4000,rng-4000,2001,rng,num-start-1,1,536,3.016653299331665,False,,False,2,False,1000,True,1.0
./expes/v2_2020-11-29_di_4000-prng-1,daily_issda_4000,4000,rng-4000,1,rng,num-start-221,221,536,49.39861226081848,True,,True,1,False,1000,True,1.0
./expes/v2_2020-11-29_di_4000-prng-1,daily_issda_4000,4000,rng-4000,3501,rng,num-start-11,11,536,1002.6164183616638,False,,False,0,True,1000,True,0.0
./expes/v2_2020-11-29_di_4000-prng-1,daily_issda_4000,4000,rng-4000,1501,rng,num-start-281,281,536,1057.8517079353333,False,,False,0,True,1000,True,0.0
./expes/v2_2020-11-29_di_4000-prng-1,daily_issda_4000,4000,rng-4000,1501,rng,num-start-181,181,536,1043.918220281601,False,,False,0,True,1000,True,0.0
./expes/v2_2020-11-29_di_4000-prng-1,daily_issda_4000,4000,rng-4000,3001,rng,num-start-21,21,536,1004.481208562851,False,,False,0,True,1000,True,0.0
./expes/v2_2020-11-29_di_4000-prng-1,daily_issda_4000,4000,rng-4000,1001,rng,num-start-231,231,536,1048.3354403972626,False,,False,0,True,1000,True,0.0
./expes/v2_2020-11-29_di_4000-prng-1,daily_issda_4000,4000,rng-4000,2501,rng,num-start-231,231,536,1048.5575950145721,False,,False,0,True,1000,True,0.0
./expes/v2_2020-11-29_di_4000-prng-1,daily_issda_4000,4000,rng-4000,1501,rng,num-start-21,21,536,1004.3468773365021,False,,False,0,True,1000,True,0.0
./expes/v2_2020-11-29_di_4000-prng-1,daily_issda_4000,4000,rng-4000,1501,rng,num-start-21,21,536,1004.4299364089966,False,,False,0,True,1000,True,0.0
./expes/v2_2020-11-29_di_4000-prng-1,daily_issda_4000,4000,rng-4000,2001,rng,num-start-151,151,536,1029.6257331371307,False,,False,0,True,1000,True,0.0
./expes/v2_2020-11-29_di_4000-prng-1,daily_issda_4000,4000,rng-4000,3001,rng,num-start-211,211,536,1047.7380502223969,False,,False,0,True,1000,True,0.0
./expes/v2_2020-11-29_di_4000-prng-1,daily_issda_4000,4000,rng-4000,1,rng,num-start-151,151,536,31.9543673992157,True,,True,1,False,1000,True,1.0
./expes/v2_2020-11-29_di_4000-prng-1,daily_issda_4000,4000,rng-4000,2501,rng,num-start-251,251,536,1051.5675854682922,False,,False,0,True,1000,True,0.0
./expes/v2_2020-11-29_di_4000-prng-1,daily_issda_4000,4000,rng-4000,501,rng,num-start-281,281,536,1051.673342704773,False,,False,0,True,1000,True,0.0
./expes/v2_2020-11-29_di_4000-prng-1,daily_issda_4000,4000,rng-4000,501,rng,num-start-171,171,536,1036.2936398983002,False,,False,0,True,1000,True,0.0
./expes/v2_2020-11-29_di_4000-prng-1,daily_issda_4000,4000,rng-4000,2001,rng,num-start-81,81,536,1015.0653505325317,False,,False,0,True,1000,True,0.0
./expes/v2_2020-11-29_di_4000-prng-1,daily_issda_4000,4000,rng-4000,2001,rng,num-start-291,291,536,1059.770216703415,False,,False,0,True,1000,True,0.0
./expes/v2_2020-11-29_di_4000-prng-1,daily_issda_4000,4000,rng-4000,3001,rng,num-start-231,231,536,1051.3728594779968,False,,False,0,True,1000,True,0.0
./expes/v2_2020-11-29_di_4000-prng-1,daily_issda_4000,4000,rng-4000,2001,rng,num-start-61,61,536,1013.0217669010162,False,,False,0,True,1000,True,0.0
./expes/v2_2020-11-29_di_4000-prng-1,daily_issda_4000,4000,rng-4000,501,rng,num-start-151,151,536,1030.9770848751068,False,,False,0,True,1000,True,0.0
./expes/v2_2020-11-29_di_4000-prng-1,daily_issda_4000,4000,rng-4000,3001,rng,num-start-151,151,536,1029.9495799541473,False,,False,0,True,1000,True,0.0
./expes/v2_2020-11-29_di_4000-prng-1,daily_issda_4000,4000,rng-4000,1001,rng,num-start-111,111,536,1022.0754380226135,False,,False,0,True,1000,True,0.0
./expes/v2_2020-11-29_di_4000-prng-1,daily_issda_4000,4000,rng-4000,1501,rng,num-start-91,91,536,1019.6709661483765,False,,False,0,True,1000,True,0.0
./expes/v2_2020-11-29_di_4000-prng-1,daily_issda_4000,4000,rng-4000,1,rng,num-start-191,191,536,37.09339189529419,True,,True,1,False,1000,True,1.0
./expes/v2_2020-11-29_di_4000-prng-1,daily_issda_4000,4000,rng-4000,2001,rng,num-start-111,111,536,1023.6710734367371,False,,False,0,True,1000,True,0.0
./expes/v2_2020-11-29_di_4000-prng-1,daily_issda_4000,4000,rng-4000,1001,rng,num-start-61,61,536,1012.3425505161285,False,,False,0,True,1000,True,0.0
./expes/v2_2020-11-29_di_4000-prng-1,daily_issda_4000,4000,rng-4000,3001,rng,num-start-1,1,536,3.590252637863159,False,,False,2,False,1000,True,1.0
./expes/v2_2020-11-29_di_4000-prng-1,daily_issda_4000,4000,rng-4000,3501,rng,num-start-111,111,536,1022.7488090991974,False,,False,0,True,1000,True,0.0
./expes/v2_2020-11-29_di_4000-prng-1,daily_issda_4000,4000,rng-4000,2501,rng,num-start-211,211,536,1049.5777819156647,False,,False,0,True,1000,True,0.0
./expes/v2_2020-11-29_di_4000-prng-1,daily_issda_4000,4000,rng-4000,1501,rng,num-start-181,181,536,1038.1869966983795,False,,False,0,True,1000,True,0.0
./expes/v2_2020-11-29_di_4000-prng-1,daily_issda_4000,4000,rng-4000,2501,rng,num-start-211,211,536,1044.691477060318,False,,False,0,True,1000,True,0.0
./expes/v2_2020-11-29_di_4000-prng-1,daily_issda_4000,4000,rng-4000,1501,rng,num-start-281,281,536,1060.2748391628265,False,,False,0,True,1000,True,0.0
./expes/v2_2020-11-29_di_4000-prng-1,daily_issda_4000,4000,rng-4000,1,rng,num-start-221,221,536,50.0164737701416,True,,True,1,False,1000,True,1.0
./expes/v2_2020-11-29_di_4000-prng-1,daily_issda_4000,4000,rng-4000,501,rng,num-start-221,221,536,1047.0412621498108,False,,False,0,True,1000,True,0.0
./expes/v2_2020-11-29_di_4000-prng-1,daily_issda_4000,4000,rng-4000,2001,rng,num-start-201,201,536,1041.7477881908417,False,,False,0,True,1000,True,0.0
./expes/v2_2020-11-29_di_4000-prng-1,daily_issda_4000,4000,rng-4000,2001,rng,num-start-111,111,536,1023.9354145526886,False,,False,0,True,1000,True,0.0
./expes/v2_2020-11-29_di_4000-prng-1,daily_issda_4000,4000,rng-4000,501,rng,num-start-181,181,536,1042.1149833202362,False,,False,0,True,1000,True,0.0
./expes/v2_2020-11-29_di_4000-prng-1,daily_issda_4000,4000,rng-4000,2001,rng,num-start-11,11,536,1002.5686802864075,False,,False,0,True,1000,True,0.0
./expes/v2_2020-11-29_di_4000-prng-1,daily_issda_4000,4000,rng-4000,3501,rng,num-start-121,121,536,1026.508531332016,False,,False,0,True,1000,True,0.0
./expes/v2_2020-11-29_di_4000-prng-1,daily_issda_4000,4000,rng-4000,1501,rng,num-start-31,31,536,1007.006413936615,False,,False,0,True,1000,True,0.0
./expes/v2_2020-11-29_di_4000-prng-1,daily_issda_4000,4000,rng-4000,3001,rng,num-start-71,71,536,1014.1770548820496,False,,False,0,True,1000,True,0.0
./expes/v2_2020-11-29_di_4000-prng-1,daily_issda_4000,4000,rng-4000,1501,rng,num-start-241,241,536,1047.4233028888702,False,,False,0,True,1000,True,0.0
./expes/v2_2020-11-29_di_4000-prng-1,daily_issda_4000,4000,rng-4000,1,rng,num-start-251,251,536,56.01184034347534,True,,True,1,False,1000,True,1.0
./expes/v2_2020-11-29_di_4000-prng-1,daily_issda_4000,4000,rng-4000,501,rng,num-start-101,101,536,1021.5544638633728,False,,False,0,True,1000,True,0.0
./expes/v2_2020-11-29_di_4000-prng-1,daily_issda_4000,4000,rng-4000,1001,rng,num-start-221,221,536,1045.860899925232,False,,False,0,True,1000,True,0.0
./expes/v2_2020-11-29_di_4000-prng-1,daily_issda_4000,4000,rng-4000,1501,rng,num-start-11,11,536,1002.4823701381683,False,,False,0,True,1000,True,0.0
./expes/v2_2020-11-29_di_4000-prng-1,daily_issda_4000,4000,rng-4000,2501,rng,num-start-91,91,536,1018.3897175788879,False,,False,0,True,1000,True,0.0
./expes/v2_2020-11-29_di_4000-prng-1,daily_issda_4000,4000,rng-4000,2501,rng,num-start-31,31,536,1006.3051934242249,False,,False,0,True,1000,True,0.0
./expes/v2_2020-11-29_di_4000-prng-1,daily_issda_4000,4000,rng-4000,3001,rng,num-start-141,141,536,1028.4578173160553,False,,False,0,True,1000,True,0.0
./expes/v2_2020-11-29_di_4000-prng-1,daily_issda_4000,4000,rng-4000,1001,rng,num-start-201,201,536,1038.5232162475586,False,,False,0,True,1000,True,0.0
./expes/v2_2020-11-29_di_4000-prng-1,daily_issda_4000,4000,rng-4000,1,rng,num-start-201,201,536,37.744282960891724,True,,True,1,False,1000,True,1.0
./expes/v2_2020-11-29_di_4000-prng-1,daily_issda_4000,4000,rng-4000,3501,rng,num-start-151,151,536,1029.8518719673157,False,,False,0,True,1000,True,0.0
./expes/v2_2020-11-29_di_4000-prng-1,daily_issda_4000,4000,rng-4000,1001,rng,num-start-251,251,536,1050.077918767929,False,,False,0,True,1000,True,0.0
./expes/v2_2020-11-29_di_4000-prng-1,daily_issda_4000,4000,rng-4000,3001,rng,num-start-191,191,536,1041.9336876869202,False,,False,0,True,1000,True,0.0
./expes/v2_2020-11-29_di_4000-prng-1,daily_issda_4000,4000,rng-4000,501,rng,num-start-21,21,536,1004.5789201259613,False,,False,0,True,1000,True,0.0
./expes/v2_2020-11-29_di_4000-prng-1,daily_issda_4000,4000,rng-4000,1,rng,num-start-291,291,536,65.99324250221252,True,,True,1,False,1000,True,1.0
./expes/v2_2020-11-29_di_4000-prng-1,daily_issda_4000,4000,rng-4000,2001,rng,num-start-241,241,536,1052.5844366550446,False,,False,0,True,1000,True,0.0
./expes/v2_2020-11-29_di_4000-prng-1,daily_issda_4000,4000,rng-4000,2501,rng,num-start-191,191,536,1041.1937170028687,False,,False,0,True,1000,True,0.0
./expes/v2_2020-11-29_di_4000-prng-1,daily_issda_4000,4000,rng-4000,501,rng,num-start-231,231,536,1048.3451194763184,False,,False,0,True,1000,True,0.0
./expes/v2_2020-11-29_di_4000-prng-1,daily_issda_4000,4000,rng-4000,2501,rng,num-start-231,231,536,1052.6882944107056,False,,False,0,True,1000,True,0.0
./expes/v2_2020-11-29_di_4000-prng-1,daily_issda_4000,4000,rng-4000,2001,rng,num-start-151,151,536,1032.818082332611,False,,False,0,True,1000,True,0.0
./expes/v2_2020-11-29_di_4000-prng-1,daily_issda_4000,4000,rng-4000,1001,rng,num-start-111,111,536,1023.2418580055237,False,,False,0,True,1000,True,0.0
