expe,clients,clients_size,clients_subset,agg_size,agg_size_pc,method,days,days_size,days_total,noise_method,time,valid,valid_sum,success,nsols,wall_hit,wall_time,pooled,valid_sums
./expes/v2_2021-01-07_di_4500-prng-w5-1,issda-4500,4500,rng-4500,1568,34,rng,num-start-221,221,536,normal,68.32693815231323,False,,False,2,False,5000,True,0.0
./expes/v2_2021-01-07_di_4500-prng-w5-1,issda-4500,4500,rng-4500,1120,24,rng,num-start-201,201,536,normal,60.10805869102478,False,,False,2,False,5000,True,0.0
./expes/v2_2021-01-07_di_4500-prng-w5-1,issda-4500,4500,rng-4500,1568,34,rng,num-start-51,51,536,normal,15.770548582077026,False,,False,2,False,5000,True,0.0
./expes/v2_2021-01-07_di_4500-prng-w5-1,issda-4500,4500,rng-4500,2240,49,rng,num-start-11,11,536,normal,3.4268887042999268,False,,False,2,False,5000,True,0.0
./expes/v2_2021-01-07_di_4500-prng-w5-1,issda-4500,4500,rng-4500,224,4,rng,num-start-241,241,536,normal,73.10377073287964,False,,False,2,False,5000,True,0.0
./expes/v2_2021-01-07_di_4500-prng-w5-1,issda-4500,4500,rng-4500,1568,34,rng,num-start-191,191,536,normal,56.789018630981445,False,,False,2,False,5000,True,0.0
./expes/v2_2021-01-07_di_4500-prng-w5-1,issda-4500,4500,rng-4500,1120,24,rng,num-start-121,121,536,normal,37.91788864135742,False,,False,2,False,5000,True,0.0
./expes/v2_2021-01-07_di_4500-prng-w5-1,issda-4500,4500,rng-4500,560,12,rng,num-start-271,271,536,normal,98.82335352897644,False,,False,2,False,5000,True,0.0
