expe,clients,clients_size,clients_subset,agg_size,agg_size_pc,method,days,days_size,days_total,noise_method,time,valid,valid_sum,success,nsols,wall_hit,wall_time,pooled,valid_sums
./expes/v2_2021-01-07_di_4500-prng-w5-1,issda-4500,4500,rng-4500,1904,42,rng,num-start-31,31,536,normal,12.3855299949646,False,,False,2,False,5000,True,0.0
./expes/v2_2021-01-07_di_4500-prng-w5-1,issda-4500,4500,rng-4500,1792,39,rng,num-start-21,21,536,normal,8.334026575088501,False,,False,2,False,5000,True,0.0
./expes/v2_2021-01-07_di_4500-prng-w5-1,issda-4500,4500,rng-4500,1008,22,rng,num-start-201,201,536,normal,79.7063090801239,False,,False,2,False,5000,True,0.0
./expes/v2_2021-01-07_di_4500-prng-w5-1,issda-4500,4500,rng-4500,1680,37,rng,num-start-211,211,536,normal,82.47011017799377,False,,False,2,False,5000,True,0.0
./expes/v2_2021-01-07_di_4500-prng-w5-1,issda-4500,4500,rng-4500,2240,49,rng,num-start-31,31,536,normal,12.631828546524048,False,,False,2,False,5000,True,0.0
./expes/v2_2021-01-07_di_4500-prng-w5-1,issda-4500,4500,rng-4500,1904,42,rng,num-start-61,61,536,normal,24.693778038024902,False,,False,2,False,5000,True,0.0
./expes/v2_2021-01-07_di_4500-prng-w5-1,issda-4500,4500,rng-4500,1232,27,rng,num-start-251,251,536,normal,99.58206415176392,False,,False,2,False,5000,True,0.0
./expes/v2_2021-01-07_di_4500-prng-w5-1,issda-4500,4500,rng-4500,112,2,rng,num-start-291,291,536,normal,122.32501029968262,False,,False,2,False,5000,True,0.0
