expe,clients,clients_size,clients_subset,agg_size,agg_size_pc,method,days,days_size,days_total,noise_method,time,valid,valid_sum,success,score_avg,score_min,score_max,nsols,oracle,wall_hit,wall_time,pooled,pool_size,uuid,infeasible,optimal,valid_sums
./expes/v2_2021-04-05_issda-30_4000-prng-1-w86-p2_3d,30_issda-4000,4000,first-4000,400,10,rng,num-start-3200,3200,25726,classic,15754.148903131485,True,,False,0.9888182623079214,0.9776365246158426,1.0,2,"['1', '5', '7', '51', '55', '58', '67', '89', '94', '110', '130', '136', '150', '159', '160', '162', '166', '186', '188', '192', '205', '238', '251', '255', '256', '258', '262', '283', '287', '295', '303', '304', '324', '329', '330', '331', '338', '342', '368', '374', '375', '376', '383', '389', '405', '413', '414', '416', '447', '473', '476', '480', '481', '491', '508', '510', '512', '534', '543', '553', '571', '573', '584', '600', '602', '613', '629', '646', '649', '656', '664', '679', '694', '699', '717', '739', '754', '758', '765', '771', '773', '776', '780', '783', '788', '798', '817', '833', '834', '838', '863', '882', '895', '897', '904', '905', '909', '914', '965', '978', '981', '984', '992', '996', '1000', '1027', '1028', '1061', '1062', '1065', '1066', '1067', '1111', '1128', '1129', '1151', '1155', '1179', '1180', '1190', '1193', '1234', '1235', '1243', '1271', '1276', '1279', '1296', '1299', '1311', '1329', '1333', '1336', '1353', '1363', '1365', '1370', '1374', '1376', '1403', '1435', '1443', '1450', '1463', '1464', '1467', '1469', '1472', '1517', '1524', '1551', '1577', '1578', '1590', '1592', '1603', '1634', '1648', '1659', '1679', '1698', '1701', '1714', '1718', '1723', '1744', '1746', '1779', '1787', '1812', '1814', '1823', '1825', '1829', '1835', '1836', '1846', '1876', '1913', '1914', '1927', '1932', '1934', '1952', '1953', '1954', '1963', '1974', '1991', '1993', '1996', '2005', '2018', '2022', '2026', '2063', '2068', '2081', '2084', '2095', '2136', '2138', '2149', '2161', '2169', '2182', '2189', '2214', '2215', '2225', '2230', '2242', '2243', '2247', '2248', '2258', '2264', '2293', '2297', '2300', '2325', '2328', '2332', '2334', '2351', '2358', '2360', '2375', '2390', '2405', '2407', '2416', '2418', '2436', '2443', '2444', '2445', '2466', '2467', '2471', '2474', '2481', '2484', '2500', '2503', '2507', '2510', '2533', '2542', '2544', '2562', '2582', '2594', '2596', '2598', '2601', '2611', '2624', '2627', '2650', '2659', '2666', '2690', '2694', '2705', '2713', '2727', '2737', '2756', '2759', '2760', '2770', '2781', '2783', '2784', '2788', '2791', '2800', '2802', '2830', '2858', '2862', '2865', '2869', '2874', '2875', '2883', '2889', '2890', '2895', '2905', '2910', '2932', '2942', '2948', '2979', '2990', '2992', '2997', '3028', '3038', '3066', '3095', '3096', '3104', '3105', '3122', '3144', '3163', '3208', '3211', '3216', '3231', '3250', '3255', '3269', '3275', '3280', '3290', '3291', '3298', '3314', '3319', '3325', '3328', '3337', '3342', '3347', '3365', '3370', '3379', '3381', '3392', '3396', '3398', '3400', '3401', '3416', '3424', '3432', '3434', '3442', '3451', '3459', '3462', '3463', '3480', '3484', '3498', '3504', '3545', '3554', '3566', '3571', '3583', '3584', '3585', '3586', '3592', '3621', '3625', '3647', '3653', '3654', '3667', '3679', '3682', '3687', '3696', '3705', '3720', '3727', '3728', '3740', '3752', '3756', '3757', '3759', '3762', '3763', '3775', '3778', '3781', '3783', '3821', '3836', '3838', '3879', '3891', '3905', '3937', '3945', '3948', '3955', '3959', '3960', '3964', '3965', '3976', '3991']",False,86400,True,2,0c69603dc0,0.0,1.0,1.0
./expes/v2_2021-04-05_issda-30_4000-prng-1-w86-p2_3d,30_issda-4000,4000,first-4000,1400,35,rng,num-start-800,800,25726,classic,86692.50733780861,False,,False,0,,,0,"['3', '4', '7', '9', '11', '14', '15', '20', '22', '23', '24', '30', '33', '36', '39', '44', '49', '54', '58', '63', '73', '74', '75', '76', '78', '81', '82', '83', '87', '94', '95', '106', '107', '109', '111', '112', '115', '122', '124', '130', '131', '132', '133', '135', '140', '141', '143', '146', '147', '149', '151', '152', '153', '156', '157', '160', '166', '168', '170', '175', '176', '177', '178', '179', '182', '183', '184', '185', '190', '191', '193', '203', '208', '211', '217', '219', '223', '227', '232', '235', '236', '242', '244', '248', '251', '253', '254', '255', '256', '259', '260', '262', '265', '266', '272', '273', '275', '278', '283', '288', '289', '293', '296', '303', '305', '307', '311', '315', '316', '317', '319', '322', '324', '327', '328', '330', '331', '333', '334', '336', '339', '342', '349', '352', '355', '356', '364', '365', '366', '370', '374', '375', '378', '379', '381', '382', '383', '384', '390', '391', '393', '394', '396', '397', '398', '399', '404', '412', '414', '422', '423', '425', '427', '435', '439', '454', '456', '459', '463', '466', '467', '468', '469', '471', '475', '479', '483', '485', '486', '490', '496', '499', '501', '507', '508', '517', '521', '523', '533', '540', '543', '544', '545', '546', '549', '555', '557', '559', '565', '567', '569', '571', '572', '573', '576', '577', '578', '581', '587', '590', '594', '595', '610', '612', '613', '618', '624', '625', '626', '627', '632', '635', '639', '640', '642', '643', '644', '646', '650', '651', '652', '658', '661', '664', '666', '667', '669', '670', '671', '672', '676', '678', '680', '682', '686', '689', '691', '692', '695', '697', '698', '699', '704', '705', '706', '707', '708', '709', '713', '716', '717', '721', '722', '723', '726', '728', '729', '732', '735', '736', '739', '742', '743', '748', '750', '753', '754', '756', '757', '758', '759', '766', '769', '770', '781', '783', '784', '785', '793', '795', '796', '797', '800', '802', '803', '804', '807', '808', '809', '814', '815', '818', '820', '821', '823', '827', '828', '831', '835', '842', '845', '848', '849', '851', '852', '853', '857', '861', '864', '866', '867', '869', '871', '874', '879', '880', '881', '882', '884', '886', '896', '898', '899', '901', '906', '910', '911', '912', '913', '920', '921', '927', '932', '938', '939', '944', '945', '948', '949', '951', '953', '955', '956', '957', '958', '967', '973', '976', '977', '988', '991', '993', '995', '1001', '1006', '1014', '1015', '1017', '1019', '1020', '1021', '1024', '1025', '1030', '1031', '1038', '1039', '1042', '1048', '1049', '1053', '1055', '1057', '1060', '1064', '1067', '1072', '1073', '1075', '1077', '1078', '1080', '1082', '1086', '1087', '1099', '1103', '1104', '1109', '1114', '1116', '1122', '1124', '1131', '1132', '1134', '1135', '1137', '1142', '1146', '1147', '1148', '1149', '1151', '1158', '1159', '1162', '1163', '1166', '1169', '1170', '1171', '1172', '1177', '1180', '1181', '1184', '1186', '1187', '1190', '1191', '1192', '1194', '1196', '1197', '1200', '1202', '1210', '1211', '1214', '1215', '1216', '1217', '1222', '1224', '1226', '1230', '1232', '1239', '1241', '1243', '1246', '1247', '1249', '1250', '1252', '1255', '1260', '1264', '1266', '1269', '1270', '1271', '1275', '1277', '1278', '1279', '1282', '1283', '1284', '1288', '1289', '1291', '1292', '1295', '1296', '1297', '1302', '1314', '1316', '1317', '1318', '1319', '1321', '1323', '1326', '1329', '1332', '1338', '1339', '1340', '1344', '1345', '1346', '1351', '1354', '1355', '1357', '1358', '1363', '1365', '1373', '1374', '1378', '1379', '1383', '1384', '1386', '1387', '1390', '1391', '1393', '1395', '1396', '1405', '1406', '1408', '1410', '1413', '1416', '1419', '1420', '1421', '1423', '1425', '1427', '1430', '1432', '1436', '1437', '1442', '1447', '1453', '1458', '1462', '1463', '1465', '1468', '1471', '1472', '1474', '1475', '1476', '1484', '1485', '1486', '1489', '1490', '1493', '1496', '1499', '1503', '1506', '1508', '1510', '1523', '1524', '1526', '1528', '1532', '1539', '1540', '1551', '1555', '1561', '1562', '1564', '1568', '1572', '1576', '1578', '1583', '1585', '1587', '1588', '1589', '1592', '1600', '1603', '1605', '1607', '1608', '1610', '1612', '1618', '1622', '1623', '1630', '1639', '1640', '1641', '1642', '1644', '1645', '1649', '1650', '1651', '1654', '1656', '1663', '1664', '1665', '1668', '1677', '1678', '1682', '1685', '1686', '1688', '1689', '1691', '1694', '1696', '1700', '1704', '1708', '1709', '1712', '1714', '1721', '1726', '1729', '1731', '1733', '1736', '1737', '1739', '1741', '1753', '1762', '1766', '1771', '1773', '1776', '1778', '1779', '1782', '1783', '1786', '1787', '1790', '1791', '1792', '1794', '1796', '1798', '1800', '1801', '1806', '1807', '1808', '1809', '1811', '1817', '1820', '1829', '1833', '1839', '1841', '1849', '1851', '1853', '1854', '1859', '1863', '1867', '1871', '1872', '1877', '1879', '1881', '1883', '1896', '1900', '1903', '1913', '1924', '1930', '1931', '1932', '1935', '1936', '1938', '1940', '1946', '1948', '1951', '1953', '1954', '1955', '1956', '1957', '1959', '1961', '1962', '1963', '1973', '1977', '1981', '1983', '1984', '1993', '1994', '1998', '2003', '2005', '2007', '2008', '2010', '2015', '2023', '2025', '2026', '2029', '2032', '2034', '2038', '2041', '2043', '2045', '2053', '2059', '2073', '2074', '2076', '2079', '2080', '2083', '2085', '2086', '2087', '2092', '2094', '2095', '2100', '2103', '2104', '2109', '2119', '2121', '2122', '2126', '2127', '2130', '2131', '2132', '2133', '2135', '2143', '2144', '2147', '2148', '2150', '2151', '2154', '2156', '2157', '2159', '2163', '2168', '2169', '2170', '2173', '2178', '2181', '2185', '2190', '2194', '2196', '2198', '2199', '2201', '2203', '2206', '2207', '2213', '2215', '2216', '2217', '2220', '2226', '2228', '2229', '2230', '2233', '2234', '2235', '2238', '2242', '2244', '2250', '2251', '2256', '2258', '2263', '2265', '2268', '2277', '2285', '2286', '2287', '2288', '2294', '2298', '2299', '2304', '2311', '2316', '2324', '2328', '2332', '2334', '2336', '2338', '2341', '2344', '2345', '2347', '2348', '2350', '2351', '2353', '2359', '2360', '2365', '2372', '2376', '2377', '2379', '2384', '2385', '2387', '2393', '2398', '2405', '2406', '2409', '2412', '2421', '2425', '2429', '2432', '2436', '2440', '2445', '2446', '2448', '2449', '2451', '2453', '2454', '2455', '2457', '2458', '2459', '2462', '2464', '2465', '2472', '2473', '2474', '2477', '2478', '2479', '2481', '2482', '2485', '2486', '2491', '2492', '2495', '2496', '2497', '2498', '2499', '2511', '2516', '2519', '2520', '2521', '2526', '2529', '2530', '2531', '2537', '2538', '2540', '2541', '2542', '2543', '2544', '2546', '2547', '2549', '2553', '2554', '2559', '2560', '2561', '2566', '2567', '2568', '2569', '2571', '2572', '2575', '2579', '2582', '2583', '2587', '2589', '2590', '2591', '2592', '2599', '2601', '2602', '2609', '2611', '2615', '2622', '2624', '2625', '2627', '2628', '2631', '2632', '2633', '2636', '2637', '2641', '2644', '2645', '2650', '2651', '2652', '2655', '2669', '2670', '2671', '2675', '2679', '2680', '2682', '2684', '2691', '2697', '2701', '2704', '2705', '2706', '2707', '2708', '2711', '2712', '2719', '2724', '2729', '2733', '2736', '2737', '2738', '2740', '2743', '2746', '2751', '2752', '2756', '2758', '2760', '2765', '2766', '2767', '2768', '2769', '2770', '2772', '2773', '2774', '2775', '2776', '2786', '2789', '2795', '2800', '2801', '2802', '2803', '2810', '2812', '2818', '2826', '2827', '2830', '2831', '2836', '2840', '2842', '2844', '2849', '2854', '2856', '2857', '2858', '2859', '2862', '2864', '2865', '2871', '2872', '2876', '2882', '2885', '2886', '2888', '2891', '2894', '2895', '2900', '2901', '2905', '2911', '2912', '2913', '2914', '2917', '2921', '2923', '2930', '2932', '2934', '2937', '2939', '2943', '2944', '2946', '2947', '2955', '2956', '2965', '2969', '2973', '2984', '2990', '2994', '2996', '2998', '2999', '3000', '3003', '3004', '3011', '3015', '3017', '3020', '3022', '3024', '3025', '3031', '3038', '3039', '3041', '3045', '3047', '3051', '3053', '3055', '3057', '3058', '3060', '3066', '3070', '3074', '3078', '3087', '3089', '3091', '3095', '3096', '3097', '3105', '3106', '3107', '3108', '3109', '3111', '3114', '3115', '3122', '3128', '3131', '3135', '3141', '3145', '3153', '3155', '3159', '3160', '3164', '3168', '3169', '3170', '3171', '3172', '3176', '3181', '3182', '3187', '3194', '3202', '3205', '3208', '3211', '3213', '3214', '3216', '3221', '3223', '3226', '3232', '3234', '3238', '3239', '3240', '3243', '3252', '3254', '3260', '3262', '3266', '3267', '3268', '3269', '3270', '3271', '3275', '3279', '3280', '3282', '3283', '3286', '3287', '3289', '3295', '3305', '3307', '3314', '3318', '3329', '3330', '3333', '3338', '3342', '3347', '3349', '3351', '3353', '3354', '3357', '3359', '3362', '3373', '3379', '3381', '3382', '3384', '3387', '3389', '3390', '3395', '3396', '3399', '3403', '3404', '3405', '3408', '3416', '3417', '3418', '3420', '3421', '3427', '3428', '3432', '3433', '3435', '3437', '3438', '3439', '3443', '3449', '3454', '3457', '3459', '3461', '3465', '3469', '3472', '3474', '3476', '3483', '3484', '3493', '3496', '3497', '3501', '3504', '3505', '3508', '3514', '3515', '3517', '3522', '3525', '3529', '3530', '3532', '3534', '3537', '3539', '3542', '3545', '3546', '3547', '3552', '3553', '3554', '3561', '3562', '3563', '3564', '3568', '3580', '3581', '3582', '3584', '3590', '3591', '3593', '3594', '3596', '3598', '3599', '3600', '3601', '3605', '3607', '3609', '3610', '3614', '3615', '3617', '3618', '3619', '3627', '3631', '3634', '3638', '3639', '3641', '3642', '3643', '3645', '3647', '3648', '3650', '3652', '3653', '3656', '3659', '3663', '3665', '3669', '3670', '3674', '3675', '3676', '3683', '3686', '3690', '3691', '3692', '3693', '3695', '3700', '3701', '3704', '3705', '3708', '3716', '3718', '3722', '3723', '3724', '3729', '3732', '3734', '3735', '3739', '3740', '3742', '3743', '3746', '3749', '3750', '3751', '3752', '3755', '3757', '3758', '3760', '3762', '3763', '3764', '3769', '3772', '3773', '3774', '3778', '3780', '3781', '3784', '3785', '3787', '3788', '3792', '3799', '3800', '3801', '3802', '3803', '3805', '3809', '3812', '3817', '3822', '3828', '3829', '3831', '3835', '3837', '3838', '3839', '3842', '3844', '3846', '3847', '3849', '3850', '3854', '3856', '3858', '3859', '3860', '3863', '3864', '3865', '3868', '3869', '3875', '3883', '3885', '3886', '3889', '3891', '3894', '3896', '3898', '3902', '3905', '3910', '3911', '3912', '3913', '3914', '3916', '3917', '3923', '3927', '3930', '3931', '3932', '3933', '3936', '3940', '3944', '3947', '3949', '3951', '3953', '3954', '3957', '3958', '3961', '3962', '3967', '3968', '3972', '3974', '3976', '3978', '3979', '3981', '3988', '3989', '3990', '3993', '3994', '3996', '3997']",True,86400,True,2,1b1f434580,0.0,0.0,0.0
./expes/v2_2021-04-05_issda-30_4000-prng-1-w86-p2_3d,30_issda-4000,4000,first-4000,1400,35,rng,num-start-2400,2400,25726,classic,19872.11528110504,False,,False,0.9888182623079214,0.9776365246158426,1.0,2,"['1', '2', '5', '7', '8', '10', '14', '16', '27', '30', '32', '33', '35', '37', '38', '40', '41', '42', '51', '52', '55', '58', '59', '61', '63', '64', '67', '68', '70', '77', '83', '84', '85', '89', '90', '91', '94', '101', '104', '105', '107', '110', '114', '115', '119', '121', '124', '126', '130', '133', '136', '137', '138', '145', '146', '147', '148', '150', '155', '157', '159', '160', '162', '164', '166', '167', '169', '173', '174', '180', '182', '183', '185', '186', '188', '190', '192', '193', '195', '198', '204', '205', '215', '216', '221', '228', '234', '237', '238', '239', '243', '247', '251', '252', '255', '256', '258', '261', '262', '266', '269', '270', '272', '273', '279', '283', '287', '289', '291', '295', '297', '300', '303', '304', '309', '313', '314', '316', '320', '322', '323', '324', '329', '330', '331', '334', '335', '338', '342', '343', '345', '347', '350', '351', '355', '357', '368', '372', '373', '374', '375', '376', '380', '383', '384', '389', '401', '402', '405', '406', '407', '408', '411', '413', '414', '416', '418', '420', '421', '429', '430', '432', '440', '443', '445', '446', '447', '455', '460', '461', '465', '469', '471', '472', '473', '475', '476', '480', '481', '484', '485', '487', '488', '491', '494', '495', '498', '499', '505', '506', '508', '510', '512', '513', '521', '522', '525', '530', '532', '534', '535', '541', '542', '543', '544', '547', '551', '553', '556', '563', '565', '568', '571', '572', '573', '576', '577', '578', '582', '583', '584', '585', '587', '597', '600', '602', '605', '607', '608', '610', '613', '619', '620', '621', '629', '630', '631', '633', '636', '638', '639', '640', '641', '644', '646', '649', '656', '659', '664', '665', '668', '670', '671', '672', '679', '683', '690', '694', '699', '702', '707', '711', '716', '717', '725', '729', '731', '736', '739', '746', '747', '754', '758', '760', '765', '766', '770', '771', '773', '775', '776', '779', '780', '781', '783', '784', '787', '788', '790', '798', '799', '803', '804', '811', '812', '814', '817', '825', '826', '827', '828', '833', '834', '835', '836', '837', '838', '839', '843', '845', '846', '849', '852', '853', '855', '856', '859', '862', '863', '875', '882', '883', '884', '885', '890', '893', '894', '895', '896', '897', '902', '904', '905', '906', '908', '909', '910', '913', '914', '922', '925', '926', '929', '941', '945', '950', '952', '954', '955', '957', '958', '959', '964', '965', '970', '978', '979', '981', '982', '983', '984', '988', '990', '992', '995', '996', '1000', '1016', '1017', '1019', '1021', '1023', '1027', '1028', '1030', '1035', '1043', '1044', '1047', '1051', '1053', '1058', '1061', '1062', '1064', '1065', '1066', '1067', '1069', '1070', '1074', '1076', '1090', '1105', '1107', '1108', '1111', '1112', '1117', '1126', '1128', '1129', '1135', '1141', '1142', '1143', '1147', '1148', '1151', '1155', '1156', '1159', '1161', '1166', '1170', '1175', '1176', '1179', '1180', '1186', '1187', '1188', '1190', '1193', '1195', '1198', '1199', '1202', '1204', '1206', '1208', '1214', '1216', '1219', '1221', '1223', '1225', '1226', '1227', '1230', '1231', '1234', '1235', '1237', '1239', '1240', '1241', '1243', '1249', '1251', '1252', '1253', '1260', '1261', '1262', '1265', '1271', '1276', '1279', '1286', '1290', '1291', '1294', '1295', '1296', '1297', '1299', '1304', '1307', '1310', '1311', '1314', '1319', '1321', '1323', '1327', '1329', '1330', '1332', '1333', '1336', '1340', '1341', '1344', '1346', '1353', '1355', '1363', '1365', '1366', '1369', '1370', '1373', '1374', '1376', '1381', '1382', '1383', '1384', '1386', '1391', '1393', '1394', '1395', '1403', '1406', '1408', '1409', '1410', '1411', '1415', '1417', '1420', '1422', '1425', '1431', '1433', '1435', '1443', '1444', '1445', '1447', '1448', '1450', '1451', '1453', '1456', '1460', '1461', '1463', '1464', '1467', '1469', '1471', '1472', '1479', '1480', '1482', '1484', '1490', '1499', '1503', '1504', '1505', '1509', '1511', '1512', '1513', '1517', '1521', '1522', '1523', '1524', '1526', '1529', '1539', '1542', '1543', '1549', '1551', '1553', '1563', '1566', '1571', '1572', '1574', '1576', '1577', '1578', '1584', '1588', '1590', '1591', '1592', '1593', '1596', '1602', '1603', '1606', '1614', '1616', '1618', '1619', '1621', '1623', '1625', '1631', '1632', '1634', '1644', '1646', '1648', '1652', '1653', '1659', '1661', '1663', '1672', '1674', '1679', '1683', '1685', '1686', '1689', '1696', '1698', '1699', '1700', '1701', '1703', '1708', '1709', '1711', '1712', '1714', '1718', '1720', '1721', '1722', '1723', '1728', '1729', '1730', '1733', '1734', '1738', '1744', '1745', '1746', '1747', '1748', '1749', '1751', '1753', '1755', '1764', '1766', '1767', '1769', '1778', '1779', '1782', '1783', '1784', '1787', '1795', '1800', '1803', '1805', '1808', '1810', '1812', '1814', '1819', '1820', '1821', '1822', '1823', '1825', '1828', '1829', '1830', '1833', '1835', '1836', '1838', '1840', '1846', '1850', '1856', '1858', '1859', '1860', '1863', '1866', '1867', '1876', '1878', '1879', '1880', '1887', '1888', '1893', '1895', '1910', '1913', '1914', '1917', '1927', '1929', '1931', '1932', '1934', '1937', '1939', '1942', '1949', '1952', '1953', '1954', '1959', '1963', '1968', '1970', '1971', '1972', '1974', '1975', '1976', '1980', '1991', '1992', '1993', '1996', '1999', '2002', '2003', '2004', '2005', '2008', '2009', '2012', '2015', '2016', '2018', '2019', '2022', '2026', '2027', '2029', '2030', '2035', '2037', '2039', '2042', '2043', '2055', '2058', '2063', '2068', '2069', '2077', '2078', '2081', '2083', '2084', '2091', '2095', '2098', '2106', '2111', '2115', '2116', '2118', '2122', '2123', '2126', '2130', '2131', '2134', '2135', '2136', '2138', '2139', '2143', '2144', '2146', '2147', '2149', '2151', '2154', '2155', '2157', '2158', '2161', '2165', '2168', '2169', '2171', '2172', '2177', '2182', '2185', '2186', '2189', '2194', '2196', '2197', '2204', '2210', '2214', '2215', '2217', '2224', '2225', '2227', '2228', '2230', '2234', '2237', '2239', '2240', '2242', '2243', '2247', '2248', '2250', '2256', '2258', '2261', '2264', '2266', '2276', '2280', '2282', '2285', '2287', '2288', '2290', '2293', '2297', '2298', '2300', '2310', '2313', '2319', '2325', '2328', '2332', '2333', '2334', '2336', '2343', '2347', '2350', '2351', '2352', '2358', '2360', '2375', '2380', '2383', '2385', '2388', '2390', '2396', '2398', '2402', '2403', '2405', '2407', '2416', '2418', '2421', '2422', '2430', '2436', '2439', '2442', '2443', '2444', '2445', '2451', '2452', '2459', '2463', '2466', '2467', '2469', '2471', '2474', '2476', '2477', '2478', '2481', '2484', '2489', '2492', '2493', '2496', '2498', '2499', '2500', '2502', '2503', '2506', '2507', '2508', '2509', '2510', '2517', '2519', '2524', '2529', '2533', '2535', '2542', '2544', '2545', '2548', '2554', '2562', '2568', '2569', '2570', '2571', '2572', '2575', '2576', '2577', '2581', '2582', '2583', '2587', '2589', '2590', '2592', '2594', '2596', '2598', '2599', '2600', '2601', '2602', '2605', '2610', '2611', '2614', '2615', '2617', '2623', '2624', '2626', '2627', '2639', '2642', '2643', '2650', '2655', '2657', '2659', '2660', '2665', '2666', '2671', '2674', '2678', '2679', '2682', '2685', '2688', '2690', '2692', '2694', '2695', '2700', '2702', '2703', '2705', '2706', '2707', '2713', '2717', '2727', '2731', '2737', '2738', '2739', '2741', '2745', '2751', '2755', '2756', '2759', '2760', '2764', '2765', '2768', '2770', '2773', '2776', '2778', '2780', '2781', '2783', '2784', '2785', '2788', '2790', '2791', '2796', '2800', '2802', '2812', '2814', '2815', '2816', '2819', '2821', '2825', '2830', '2834', '2846', '2850', '2855', '2856', '2858', '2862', '2864', '2865', '2866', '2868', '2869', '2871', '2873', '2874', '2875', '2876', '2877', '2878', '2882', '2883', '2885', '2888', '2889', '2890', '2891', '2893', '2894', '2895', '2898', '2904', '2905', '2909', '2910', '2913', '2916', '2918', '2919', '2923', '2927', '2932', '2935', '2938', '2939', '2942', '2943', '2948', '2960', '2968', '2972', '2973', '2976', '2979', '2983', '2985', '2987', '2988', '2990', '2992', '2993', '2997', '2999', '3000', '3001', '3002', '3008', '3009', '3010', '3014', '3015', '3020', '3021', '3028', '3031', '3035', '3037', '3038', '3039', '3040', '3041', '3044', '3053', '3055', '3058', '3060', '3061', '3064', '3066', '3069', '3072', '3078', '3079', '3082', '3091', '3092', '3093', '3094', '3095', '3096', '3100', '3104', '3105', '3109', '3113', '3114', '3122', '3134', '3136', '3143', '3144', '3145', '3149', '3160', '3163', '3165', '3170', '3174', '3180', '3181', '3184', '3185', '3188', '3189', '3193', '3201', '3204', '3208', '3209', '3210', '3211', '3212', '3216', '3217', '3218', '3223', '3229', '3230', '3231', '3232', '3234', '3235', '3241', '3242', '3246', '3250', '3253', '3255', '3256', '3259', '3260', '3263', '3267', '3269', '3275', '3277', '3280', '3290', '3291', '3295', '3298', '3302', '3305', '3306', '3309', '3314', '3315', '3317', '3318', '3319', '3325', '3326', '3328', '3337', '3342', '3344', '3347', '3348', '3351', '3352', '3355', '3357', '3365', '3366', '3367', '3370', '3379', '3380', '3381', '3383', '3385', '3388', '3392', '3396', '3397', '3398', '3400', '3401', '3408', '3415', '3416', '3423', '3424', '3430', '3431', '3432', '3434', '3442', '3443', '3445', '3451', '3457', '3459', '3462', '3463', '3464', '3467', '3473', '3479', '3480', '3484', '3487', '3494', '3498', '3504', '3511', '3519', '3520', '3521', '3523', '3525', '3527', '3529', '3531', '3535', '3537', '3538', '3540', '3543', '3545', '3552', '3554', '3559', '3564', '3566', '3568', '3569', '3570', '3571', '3572', '3574', '3577', '3579', '3582', '3583', '3584', '3585', '3586', '3588', '3592', '3595', '3598', '3601', '3604', '3610', '3617', '3620', '3621', '3622', '3624', '3625', '3627', '3632', '3635', '3637', '3640', '3641', '3646', '3647', '3648', '3649', '3653', '3654', '3660', '3664', '3667', '3675', '3677', '3679', '3682', '3683', '3685', '3687', '3690', '3691', '3692', '3693', '3695', '3696', '3698', '3699', '3703', '3705', '3711', '3720', '3722', '3723', '3727', '3728', '3729', '3735', '3740', '3744', '3749', '3750', '3752', '3756', '3757', '3759', '3760', '3762', '3763', '3766', '3768', '3769', '3775', '3778', '3780', '3781', '3783', '3788', '3795', '3803', '3809', '3815', '3821', '3823', '3825', '3826', '3827', '3828', '3832', '3833', '3836', '3838', '3839', '3844', '3851', '3858', '3863', '3866', '3870', '3873', '3874', '3877', '3879', '3883', '3887', '3889', '3890', '3891', '3893', '3901', '3905', '3910', '3911', '3915', '3918', '3923', '3925', '3926', '3927', '3928', '3929', '3931', '3936', '3937', '3938', '3940', '3941', '3942', '3943', '3945', '3948', '3955', '3959', '3960', '3964', '3965', '3968', '3971', '3972', '3976', '3978', '3983', '3984', '3991', '3992', '3997', '3999']",False,86400,True,2,f136b8e426,0.0,1.0,1.0
./expes/v2_2021-04-05_issda-30_4000-prng-1-w86-p2_3d,30_issda-4000,4000,first-4000,200,5,rng,num-start-1600,1600,25726,classic,8170.667000293732,True,,True,1.0,1.0,1.0,1,"['30', '39', '75', '82', '106', '176', '178', '184', '190', '242', '244', '253', '255', '273', '319', '333', '339', '356', '366', '370', '398', '414', '423', '435', '466', '501', '559', '595', '627', '635', '651', '661', '676', '695', '708', '728', '729', '753', '785', '793', '800', '802', '814', '831', '849', '852', '879', '910', '938', '956', '967', '973', '1014', '1020', '1025', '1064', '1067', '1073', '1114', '1132', '1134', '1137', '1147', '1149', '1171', '1181', '1184', '1186', '1187', '1190', '1192', '1196', '1197', '1202', '1230', '1243', '1250', '1270', '1277', '1314', '1318', '1323', '1326', '1340', '1357', '1358', '1383', '1405', '1458', '1463', '1476', '1486', '1489', '1496', '1526', '1564', '1589', '1623', '1645', '1682', '1691', '1696', '1736', '1737', '1766', '1786', '1800', '1807', '1820', '1849', '1863', '1881', '1896', '1931', '1940', '1962', '2073', '2083', '2126', '2132', '2190', '2199', '2244', '2251', '2288', '2341', '2345', '2348', '2385', '2412', '2453', '2454', '2482', '2521', '2531', '2542', '2566', '2569', '2592', '2599', '2602', '2625', '2655', '2671', '2752', '2760', '2766', '2786', '2857', '2871', '2888', '2901', '2955', '2998', '3011', '3060', '3135', '3176', '3194', '3211', '3267', '3279', '3295', '3305', '3329', '3351', '3387', '3396', '3439', '3443', '3461', '3474', '3476', '3501', '3529', '3532', '3546', '3553', '3562', '3605', '3614', '3663', '3670', '3705', '3723', '3742', '3755', '3760', '3799', '3829', '3860', '3863', '3864', '3869', '3911', '3932', '3936', '3940', '3951', '3957']",False,86400,True,2,357b7bb429,0.0,1.0,1.0
./expes/v2_2021-04-05_issda-30_4000-prng-1-w86-p2_3d,30_issda-4000,4000,first-4000,1800,45,rng,num-start-3600,3600,25726,classic,15158.07543349266,True,,True,1.0,1.0,1.0,1,"['3', '4', '5', '7', '9', '11', '12', '14', '15', '19', '20', '22', '23', '24', '26', '30', '31', '33', '36', '38', '39', '44', '49', '54', '58', '63', '71', '73', '74', '75', '76', '78', '81', '82', '83', '87', '91', '94', '95', '106', '107', '109', '111', '112', '115', '118', '122', '124', '128', '130', '131', '132', '133', '135', '136', '140', '141', '142', '143', '146', '147', '149', '150', '151', '152', '153', '156', '157', '159', '160', '164', '166', '168', '170', '175', '176', '177', '178', '179', '182', '183', '184', '185', '190', '191', '193', '197', '203', '208', '211', '212', '217', '219', '223', '226', '227', '232', '234', '235', '236', '237', '242', '244', '245', '247', '248', '251', '252', '253', '254', '255', '256', '257', '258', '259', '260', '262', '265', '266', '272', '273', '275', '278', '283', '287', '288', '289', '293', '295', '296', '297', '303', '305', '307', '311', '312', '315', '316', '317', '319', '320', '322', '324', '327', '328', '330', '331', '333', '334', '336', '339', '342', '348', '349', '352', '353', '355', '356', '364', '365', '366', '370', '374', '375', '378', '379', '381', '382', '383', '384', '385', '390', '391', '393', '394', '396', '397', '398', '399', '400', '404', '408', '412', '414', '415', '416', '418', '421', '422', '423', '424', '425', '427', '435', '439', '441', '448', '454', '456', '459', '463', '466', '467', '468', '469', '471', '475', '478', '479', '483', '485', '486', '489', '490', '496', '499', '501', '507', '508', '514', '517', '520', '521', '523', '524', '528', '530', '532', '533', '540', '542', '543', '544', '545', '546', '549', '555', '557', '559', '560', '565', '566', '567', '569', '571', '572', '573', '574', '576', '577', '578', '581', '587', '590', '592', '594', '595', '602', '607', '609', '610', '611', '612', '613', '618', '624', '625', '626', '627', '630', '632', '635', '639', '640', '642', '643', '644', '646', '648', '649', '650', '651', '652', '658', '661', '664', '666', '667', '669', '670', '671', '672', '676', '678', '680', '682', '684', '686', '688', '689', '691', '692', '693', '695', '696', '697', '698', '699', '700', '701', '704', '705', '706', '707', '708', '709', '711', '713', '716', '717', '721', '722', '723', '725', '726', '727', '728', '729', '732', '734', '735', '736', '739', '740', '742', '743', '748', '750', '753', '754', '756', '757', '758', '759', '761', '766', '769', '770', '771', '774', '775', '779', '780', '781', '783', '784', '785', '793', '795', '796', '797', '800', '802', '803', '804', '806', '807', '808', '809', '814', '815', '818', '820', '821', '823', '824', '827', '828', '831', '835', '837', '842', '845', '848', '849', '851', '852', '853', '857', '861', '864', '866', '867', '869', '871', '874', '878', '879', '880', '881', '882', '884', '886', '896', '898', '899', '901', '903', '906', '909', '910', '911', '912', '913', '920', '921', '927', '932', '938', '939', '944', '945', '948', '949', '951', '953', '955', '956', '957', '958', '967', '972', '973', '976', '977', '985', '988', '991', '993', '995', '1001', '1003', '1006', '1012', '1014', '1015', '1017', '1019', '1020', '1021', '1024', '1025', '1029', '1030', '1031', '1037', '1038', '1039', '1042', '1047', '1048', '1049', '1053', '1055', '1057', '1058', '1060', '1062', '1064', '1066', '1067', '1069', '1070', '1072', '1073', '1075', '1077', '1078', '1080', '1082', '1084', '1086', '1087', '1095', '1099', '1101', '1103', '1104', '1106', '1107', '1109', '1114', '1115', '1116', '1117', '1120', '1121', '1122', '1124', '1131', '1132', '1134', '1135', '1137', '1141', '1142', '1146', '1147', '1148', '1149', '1151', '1158', '1159', '1160', '1162', '1163', '1166', '1169', '1170', '1171', '1172', '1173', '1177', '1180', '1181', '1182', '1183', '1184', '1186', '1187', '1190', '1191', '1192', '1194', '1196', '1197', '1200', '1202', '1210', '1211', '1212', '1214', '1215', '1216', '1217', '1222', '1224', '1226', '1228', '1230', '1232', '1234', '1239', '1241', '1243', '1246', '1247', '1248', '1249', '1250', '1252', '1255', '1260', '1264', '1266', '1268', '1269', '1270', '1271', '1275', '1277', '1278', '1279', '1282', '1283', '1284', '1288', '1289', '1291', '1292', '1294', '1295', '1296', '1297', '1302', '1304', '1307', '1310', '1314', '1316', '1317', '1318', '1319', '1321', '1322', '1323', '1326', '1329', '1331', '1332', '1336', '1338', '1339', '1340', '1344', '1345', '1346', '1347', '1351', '1354', '1355', '1357', '1358', '1361', '1363', '1365', '1368', '1371', '1373', '1374', '1375', '1378', '1379', '1383', '1384', '1386', '1387', '1390', '1391', '1393', '1395', '1396', '1398', '1402', '1405', '1406', '1408', '1410', '1411', '1413', '1416', '1419', '1420', '1421', '1423', '1425', '1427', '1428', '1430', '1432', '1434', '1436', '1437', '1442', '1447', '1453', '1458', '1462', '1463', '1465', '1467', '1468', '1471', '1472', '1474', '1475', '1476', '1479', '1484', '1485', '1486', '1489', '1490', '1493', '1496', '1499', '1501', '1502', '1503', '1506', '1507', '1508', '1510', '1518', '1523', '1524', '1526', '1527', '1528', '1531', '1532', '1534', '1536', '1537', '1539', '1540', '1551', '1555', '1561', '1562', '1564', '1568', '1569', '1572', '1573', '1576', '1578', '1582', '1583', '1585', '1586', '1587', '1588', '1589', '1591', '1592', '1596', '1600', '1603', '1605', '1607', '1608', '1610', '1612', '1618', '1622', '1623', '1630', '1631', '1632', '1634', '1635', '1639', '1640', '1641', '1642', '1644', '1645', '1647', '1649', '1650', '1651', '1654', '1656', '1663', '1664', '1665', '1667', '1668', '1670', '1676', '1677', '1678', '1682', '1685', '1686', '1688', '1689', '1691', '1694', '1696', '1700', '1704', '1706', '1708', '1709', '1712', '1714', '1717', '1721', '1726', '1727', '1729', '1731', '1733', '1736', '1737', '1739', '1741', '1751', '1753', '1754', '1755', '1761', '1762', '1766', '1767', '1771', '1773', '1776', '1778', '1779', '1782', '1783', '1786', '1787', '1790', '1791', '1792', '1794', '1796', '1797', '1798', '1800', '1801', '1802', '1804', '1806', '1807', '1808', '1809', '1811', '1817', '1819', '1820', '1822', '1827', '1829', '1833', '1835', '1838', '1839', '1841', '1849', '1851', '1853', '1854', '1859', '1863', '1867', '1871', '1872', '1874', '1877', '1878', '1879', '1881', '1882', '1883', '1888', '1891', '1896', '1900', '1902', '1903', '1906', '1910', '1913', '1917', '1918', '1919', '1921', '1924', '1930', '1931', '1932', '1934', '1935', '1936', '1938', '1939', '1940', '1946', '1948', '1951', '1952', '1953', '1954', '1955', '1956', '1957', '1959', '1961', '1962', '1963', '1973', '1974', '1977', '1981', '1983', '1984', '1985', '1986', '1993', '1994', '1998', '2003', '2005', '2007', '2008', '2010', '2013', '2015', '2020', '2021', '2023', '2025', '2026', '2028', '2029', '2030', '2032', '2034', '2038', '2041', '2043', '2045', '2046', '2050', '2053', '2059', '2063', '2066', '2068', '2071', '2073', '2074', '2076', '2079', '2080', '2082', '2083', '2085', '2086', '2087', '2089', '2091', '2092', '2094', '2095', '2100', '2101', '2103', '2104', '2105', '2109', '2119', '2121', '2122', '2123', '2126', '2127', '2130', '2131', '2132', '2133', '2135', '2137', '2143', '2144', '2146', '2147', '2148', '2150', '2151', '2154', '2156', '2157', '2158', '2159', '2163', '2168', '2169', '2170', '2173', '2175', '2176', '2178', '2180', '2181', '2182', '2183', '2184', '2185', '2189', '2190', '2194', '2196', '2198', '2199', '2201', '2203', '2206', '2207', '2208', '2213', '2215', '2216', '2217', '2220', '2226', '2228', '2229', '2230', '2233', '2234', '2235', '2236', '2238', '2240', '2242', '2244', '2245', '2250', '2251', '2256', '2258', '2261', '2263', '2265', '2268', '2277', '2279', '2280', '2282', '2285', '2286', '2287', '2288', '2294', '2295', '2298', '2299', '2304', '2308', '2309', '2311', '2316', '2317', '2324', '2328', '2332', '2334', '2336', '2338', '2339', '2341', '2342', '2344', '2345', '2347', '2348', '2350', '2351', '2352', '2353', '2359', '2360', '2362', '2365', '2369', '2372', '2376', '2377', '2379', '2384', '2385', '2387', '2393', '2398', '2405', '2406', '2407', '2409', '2412', '2421', '2425', '2426', '2429', '2432', '2433', '2435', '2436', '2437', '2439', '2440', '2445', '2446', '2448', '2449', '2451', '2453', '2454', '2455', '2456', '2457', '2458', '2459', '2462', '2463', '2464', '2465', '2472', '2473', '2474', '2477', '2478', '2479', '2481', '2482', '2485', '2486', '2491', '2492', '2495', '2496', '2497', '2498', '2499', '2501', '2503', '2511', '2512', '2516', '2519', '2520', '2521', '2526', '2529', '2530', '2531', '2537', '2538', '2540', '2541', '2542', '2543', '2544', '2546', '2547', '2549', '2553', '2554', '2559', '2560', '2561', '2566', '2567', '2568', '2569', '2571', '2572', '2575', '2579', '2582', '2583', '2587', '2589', '2590', '2591', '2592', '2595', '2599', '2601', '2602', '2609', '2611', '2615', '2619', '2622', '2624', '2625', '2627', '2628', '2631', '2632', '2633', '2636', '2637', '2641', '2644', '2645', '2649', '2650', '2651', '2652', '2655', '2660', '2661', '2666', '2669', '2670', '2671', '2675', '2679', '2680', '2682', '2684', '2688', '2691', '2693', '2697', '2701', '2704', '2705', '2706', '2707', '2708', '2711', '2712', '2716', '2719', '2724', '2727', '2729', '2733', '2736', '2737', '2738', '2740', '2743', '2745', '2746', '2751', '2752', '2756', '2757', '2758', '2759', '2760', '2763', '2765', '2766', '2767', '2768', '2769', '2770', '2772', '2773', '2774', '2775', '2776', '2778', '2786', '2789', '2795', '2798', '2800', '2801', '2802', '2803', '2810', '2812', '2813', '2816', '2818', '2825', '2826', '2827', '2828', '2830', '2831', '2835', '2836', '2839', '2840', '2842', '2844', '2845', '2849', '2850', '2854', '2855', '2856', '2857', '2858', '2859', '2861', '2862', '2864', '2865', '2871', '2872', '2876', '2882', '2883', '2885', '2886', '2887', '2888', '2889', '2890', '2891', '2894', '2895', '2897', '2900', '2901', '2903', '2905', '2907', '2910', '2911', '2912', '2913', '2914', '2917', '2919', '2921', '2923', '2929', '2930', '2932', '2934', '2935', '2937', '2938', '2939', '2943', '2944', '2946', '2947', '2949', '2950', '2955', '2956', '2962', '2965', '2969', '2972', '2973', '2984', '2985', '2986', '2988', '2990', '2992', '2994', '2995', '2996', '2998', '2999', '3000', '3002', '3003', '3004', '3008', '3009', '3011', '3015', '3017', '3019', '3020', '3022', '3024', '3025', '3030', '3031', '3037', '3038', '3039', '3041', '3044', '3045', '3047', '3049', '3051', '3053', '3055', '3057', '3058', '3059', '3060', '3062', '3065', '3066', '3069', '3070', '3074', '3078', '3087', '3089', '3091', '3095', '3096', '3097', '3099', '3105', '3106', '3107', '3108', '3109', '3111', '3113', '3114', '3115', '3116', '3122', '3128', '3131', '3132', '3135', '3140', '3141', '3145', '3149', '3153', '3155', '3159', '3160', '3162', '3164', '3168', '3169', '3170', '3171', '3172', '3173', '3176', '3177', '3179', '3181', '3182', '3187', '3189', '3190', '3194', '3202', '3205', '3208', '3211', '3212', '3213', '3214', '3216', '3218', '3221', '3223', '3226', '3232', '3234', '3235', '3238', '3239', '3240', '3242', '3243', '3248', '3252', '3254', '3255', '3257', '3260', '3262', '3263', '3265', '3266', '3267', '3268', '3269', '3270', '3271', '3275', '3279', '3280', '3281', '3282', '3283', '3286', '3287', '3289', '3294', '3295', '3300', '3305', '3307', '3308', '3313', '3314', '3318', '3324', '3325', '3329', '3330', '3333', '3336', '3338', '3342', '3343', '3347', '3349', '3351', '3353', '3354', '3357', '3359', '3360', '3361', '3362', '3370', '3373', '3375', '3376', '3377', '3379', '3381', '3382', '3384', '3387', '3388', '3389', '3390', '3395', '3396', '3397', '3399', '3403', '3404', '3405', '3406', '3408', '3416', '3417', '3418', '3420', '3421', '3426', '3427', '3428', '3430', '3432', '3433', '3434', '3435', '3437', '3438', '3439', '3443', '3449', '3454', '3457', '3459', '3461', '3463', '3465', '3467', '3469', '3471', '3472', '3474', '3476', '3480', '3483', '3484', '3487', '3493', '3494', '3496', '3497', '3501', '3504', '3505', '3506', '3508', '3509', '3514', '3515', '3517', '3521', '3522', '3523', '3525', '3529', '3530', '3532', '3534', '3537', '3539', '3541', '3542', '3545', '3546', '3547', '3552', '3553', '3554', '3561', '3562', '3563', '3564', '3568', '3572', '3580', '3581', '3582', '3584', '3585', '3590', '3591', '3593', '3594', '3596', '3598', '3599', '3600', '3601', '3605', '3607', '3609', '3610', '3614', '3615', '3617', '3618', '3619', '3621', '3622', '3624', '3625', '3627', '3631', '3634', '3635', '3637', '3638', '3639', '3641', '3642', '3643', '3645', '3647', '3648', '3650', '3652', '3653', '3655', '3656', '3659', '3663', '3665', '3669', '3670', '3674', '3675', '3676', '3679', '3683', '3686', '3687', '3688', '3690', '3691', '3692', '3693', '3695', '3696', '3700', '3701', '3704', '3705', '3708', '3711', '3716', '3718', '3720', '3722', '3723', '3724', '3729', '3732', '3733', '3734', '3735', '3739', '3740', '3742', '3743', '3746', '3749', '3750', '3751', '3752', '3753', '3755', '3757', '3758', '3760', '3762', '3763', '3764', '3766', '3769', '3771', '3772', '3773', '3774', '3777', '3778', '3780', '3781', '3783', '3784', '3785', '3786', '3787', '3788', '3792', '3796', '3799', '3800', '3801', '3802', '3803', '3805', '3809', '3812', '3816', '3817', '3819', '3822', '3828', '3829', '3831', '3832', '3833', '3835', '3837', '3838', '3839', '3842', '3844', '3846', '3847', '3849', '3850', '3852', '3854', '3856', '3858', '3859', '3860', '3861', '3862', '3863', '3864', '3865', '3868', '3869', '3875', '3877', '3879', '3880', '3883', '3885', '3886', '3887', '3889', '3891', '3894', '3896', '3897', '3898', '3902', '3905', '3910', '3911', '3912', '3913', '3914', '3916', '3917', '3923', '3927', '3930', '3931', '3932', '3933', '3936', '3939', '3940', '3941', '3942', '3944', '3947', '3949', '3951', '3953', '3954', '3957', '3958', '3961', '3962', '3967', '3968', '3969', '3970', '3972', '3974', '3976', '3978', '3979', '3981', '3984', '3988', '3989', '3990', '3993', '3994', '3996', '3997']",False,86400,True,2,b36e2bf857,0.0,1.0,1.0
./expes/v2_2021-04-05_issda-30_4000-prng-1-w86-p2_3d,30_issda-4000,4000,first-4000,400,10,rng,num-start-400,400,25726,classic,86531.57762217522,False,,False,0,,,0,"['8', '18', '20', '22', '35', '65', '74', '79', '80', '82', '87', '88', '97', '98', '99', '100', '101', '104', '113', '127', '129', '131', '138', '146', '147', '148', '149', '168', '177', '188', '201', '210', '232', '233', '241', '246', '248', '277', '302', '303', '309', '330', '340', '348', '360', '376', '383', '385', '393', '409', '415', '418', '431', '435', '436', '456', '464', '472', '486', '523', '524', '540', '560', '576', '590', '619', '621', '629', '644', '649', '657', '661', '674', '681', '693', '700', '705', '712', '724', '727', '743', '745', '753', '784', '813', '852', '853', '861', '863', '870', '871', '891', '909', '924', '929', '935', '945', '949', '953', '968', '987', '1003', '1011', '1016', '1022', '1024', '1028', '1031', '1037', '1048', '1052', '1062', '1073', '1082', '1089', '1099', '1119', '1142', '1144', '1165', '1172', '1187', '1243', '1253', '1254', '1263', '1264', '1268', '1269', '1278', '1296', '1305', '1330', '1332', '1344', '1382', '1397', '1399', '1410', '1437', '1450', '1474', '1476', '1479', '1483', '1485', '1492', '1500', '1502', '1524', '1525', '1528', '1529', '1557', '1576', '1580', '1610', '1612', '1638', '1646', '1666', '1675', '1683', '1689', '1699', '1713', '1720', '1733', '1736', '1744', '1765', '1777', '1822', '1823', '1826', '1835', '1838', '1850', '1858', '1860', '1863', '1871', '1889', '1890', '1898', '1903', '1905', '1937', '1966', '1991', '1994', '1995', '2002', '2003', '2008', '2041', '2052', '2057', '2066', '2079', '2082', '2086', '2090', '2096', '2097', '2098', '2105', '2109', '2112', '2121', '2123', '2127', '2133', '2140', '2143', '2151', '2152', '2154', '2156', '2173', '2194', '2229', '2259', '2284', '2286', '2294', '2296', '2303', '2326', '2353', '2381', '2382', '2396', '2409', '2412', '2415', '2422', '2423', '2424', '2431', '2479', '2482', '2483', '2486', '2501', '2514', '2521', '2523', '2525', '2547', '2553', '2556', '2557', '2572', '2602', '2611', '2616', '2629', '2669', '2675', '2676', '2683', '2699', '2707', '2711', '2717', '2743', '2744', '2747', '2755', '2756', '2763', '2791', '2796', '2803', '2804', '2805', '2808', '2816', '2828', '2833', '2866', '2890', '2893', '2901', '2907', '2925', '2930', '2937', '2962', '2965', '2974', '2986', '2988', '2994', '3009', '3010', '3015', '3026', '3031', '3042', '3051', '3063', '3075', '3089', '3090', '3096', '3111', '3116', '3125', '3138', '3167', '3176', '3200', '3213', '3230', '3235', '3243', '3253', '3262', '3264', '3274', '3278', '3288', '3292', '3302', '3314', '3327', '3332', '3337', '3339', '3361', '3379', '3381', '3405', '3406', '3421', '3423', '3435', '3444', '3478', '3498', '3519', '3524', '3533', '3536', '3568', '3582', '3584', '3587', '3591', '3607', '3611', '3613', '3617', '3622', '3644', '3653', '3661', '3679', '3686', '3692', '3695', '3700', '3714', '3718', '3719', '3722', '3734', '3752', '3754', '3763', '3770', '3771', '3775', '3789', '3805', '3817', '3820', '3827', '3833', '3834', '3844', '3853', '3865', '3883', '3884', '3889', '3910', '3912', '3916', '3922', '3928', '3929', '3932', '3935', '3940', '3945', '3976', '3977']",True,86400,True,2,5c585905b6,0.0,0.0,0.0
./expes/v2_2021-04-05_issda-30_4000-prng-1-w86-p2_3d,30_issda-4000,4000,first-4000,200,5,rng,num-start-3200,3200,25726,classic,3311.2996830940247,False,,False,0.9888182623079214,0.9776365246158426,1.0,2,"['9', '24', '38', '51', '89', '92', '105', '117', '119', '122', '126', '142', '179', '230', '259', '355', '385', '410', '419', '443', '483', '496', '530', '551', '671', '691', '698', '709', '762', '778', '818', '819', '842', '860', '888', '897', '909', '930', '938', '946', '951', '955', '995', '1045', '1091', '1103', '1164', '1187', '1215', '1243', '1264', '1301', '1363', '1409', '1416', '1448', '1494', '1504', '1518', '1535', '1555', '1562', '1572', '1597', '1611', '1612', '1613', '1656', '1657', '1698', '1705', '1729', '1746', '1773', '1794', '1798', '1825', '1842', '1881', '1883', '1923', '1935', '1968', '1971', '1999', '2006', '2030', '2031', '2046', '2052', '2058', '2068', '2070', '2080', '2083', '2100', '2105', '2125', '2134', '2162', '2211', '2218', '2245', '2246', '2248', '2265', '2271', '2280', '2300', '2332', '2335', '2367', '2369', '2407', '2413', '2422', '2430', '2489', '2495', '2519', '2578', '2631', '2651', '2661', '2669', '2701', '2719', '2723', '2746', '2763', '2773', '2812', '2851', '2880', '2882', '2914', '2956', '2965', '2974', '2988', '3002', '3024', '3034', '3044', '3047', '3117', '3123', '3129', '3143', '3157', '3178', '3185', '3189', '3210', '3231', '3267', '3285', '3287', '3315', '3361', '3400', '3424', '3431', '3441', '3467', '3472', '3475', '3496', '3511', '3523', '3524', '3564', '3610', '3615', '3616', '3630', '3660', '3669', '3693', '3727', '3729', '3754', '3769', '3778', '3795', '3836', '3844', '3847', '3854', '3855', '3872', '3891', '3901', '3902', '3911', '3921', '3962', '3970', '3987', '3988']",False,86400,True,2,8aacd8dbde,0.0,1.0,1.0
./expes/v2_2021-04-05_issda-30_4000-prng-1-w86-p2_3d,30_issda-4000,4000,first-4000,600,15,rng,num-start-2000,2000,25726,classic,17346.89792585373,True,,False,0.9888182623079214,0.9776365246158426,1.0,2,"['8', '15', '20', '21', '30', '31', '47', '54', '63', '74', '82', '83', '88', '91', '97', '105', '111', '116', '118', '128', '129', '133', '136', '139', '144', '146', '147', '148', '149', '174', '176', '178', '182', '185', '190', '203', '205', '209', '218', '219', '225', '247', '249', '251', '252', '260', '263', '269', '273', '279', '281', '294', '316', '317', '328', '351', '353', '363', '364', '377', '398', '400', '407', '410', '418', '421', '423', '427', '430', '438', '443', '445', '466', '472', '488', '489', '492', '495', '496', '497', '498', '501', '505', '507', '510', '511', '514', '520', '523', '527', '532', '534', '535', '539', '546', '550', '557', '567', '588', '617', '618', '622', '639', '640', '644', '653', '669', '694', '702', '704', '727', '732', '734', '737', '740', '752', '759', '768', '782', '783', '786', '809', '813', '818', '865', '889', '894', '896', '905', '910', '912', '920', '922', '932', '950', '952', '960', '967', '974', '975', '977', '978', '980', '981', '992', '1002', '1004', '1017', '1024', '1029', '1035', '1057', '1058', '1063', '1074', '1079', '1082', '1086', '1094', '1101', '1104', '1107', '1109', '1111', '1112', '1122', '1142', '1143', '1144', '1146', '1166', '1168', '1176', '1184', '1190', '1195', '1196', '1204', '1224', '1227', '1229', '1231', '1234', '1242', '1246', '1269', '1270', '1281', '1286', '1289', '1290', '1291', '1294', '1305', '1311', '1319', '1324', '1329', '1334', '1337', '1343', '1347', '1356', '1362', '1368', '1380', '1389', '1392', '1394', '1398', '1399', '1410', '1415', '1419', '1438', '1439', '1442', '1445', '1446', '1476', '1478', '1491', '1498', '1513', '1516', '1526', '1529', '1533', '1540', '1542', '1543', '1544', '1545', '1548', '1558', '1581', '1582', '1588', '1593', '1596', '1598', '1618', '1627', '1640', '1670', '1671', '1678', '1682', '1693', '1695', '1701', '1708', '1714', '1720', '1723', '1726', '1733', '1741', '1745', '1749', '1750', '1756', '1761', '1767', '1768', '1780', '1783', '1787', '1792', '1796', '1822', '1848', '1861', '1870', '1871', '1886', '1888', '1902', '1904', '1910', '1922', '1927', '1937', '1940', '1942', '1952', '1955', '1956', '1971', '1974', '1975', '1978', '1981', '1997', '2006', '2008', '2028', '2033', '2049', '2057', '2062', '2071', '2077', '2078', '2090', '2095', '2099', '2112', '2124', '2126', '2129', '2131', '2135', '2143', '2151', '2160', '2167', '2170', '2172', '2179', '2188', '2190', '2194', '2195', '2200', '2216', '2218', '2220', '2228', '2230', '2247', '2252', '2254', '2257', '2267', '2272', '2276', '2290', '2291', '2309', '2310', '2311', '2312', '2322', '2328', '2329', '2332', '2339', '2343', '2350', '2352', '2355', '2364', '2372', '2376', '2380', '2394', '2397', '2402', '2403', '2408', '2412', '2414', '2415', '2417', '2422', '2428', '2437', '2440', '2457', '2461', '2464', '2474', '2476', '2479', '2481', '2482', '2494', '2501', '2508', '2518', '2523', '2524', '2532', '2537', '2541', '2551', '2552', '2563', '2567', '2570', '2571', '2573', '2575', '2590', '2593', '2595', '2598', '2599', '2601', '2608', '2617', '2618', '2630', '2638', '2646', '2650', '2661', '2664', '2678', '2685', '2701', '2713', '2716', '2735', '2750', '2751', '2753', '2759', '2765', '2769', '2778', '2783', '2790', '2794', '2801', '2826', '2829', '2842', '2844', '2848', '2850', '2853', '2860', '2862', '2879', '2896', '2920', '2924', '2926', '2930', '2932', '2933', '2936', '2938', '2943', '2945', '2951', '2962', '2983', '2997', '3006', '3012', '3023', '3037', '3040', '3053', '3054', '3064', '3068', '3086', '3099', '3106', '3114', '3120', '3144', '3149', '3164', '3172', '3176', '3181', '3184', '3191', '3196', '3205', '3206', '3224', '3225', '3229', '3230', '3240', '3243', '3246', '3252', '3258', '3272', '3280', '3281', '3282', '3289', '3290', '3293', '3302', '3303', '3305', '3307', '3317', '3319', '3324', '3325', '3331', '3346', '3357', '3374', '3392', '3407', '3411', '3414', '3415', '3426', '3427', '3428', '3431', '3435', '3447', '3457', '3481', '3482', '3492', '3498', '3500', '3504', '3505', '3508', '3511', '3515', '3526', '3527', '3529', '3530', '3534', '3538', '3546', '3551', '3555', '3556', '3562', '3564', '3565', '3575', '3600', '3604', '3605', '3607', '3609', '3620', '3625', '3632', '3635', '3636', '3644', '3645', '3673', '3675', '3678', '3686', '3702', '3704', '3706', '3723', '3740', '3751', '3752', '3758', '3769', '3771', '3772', '3773', '3776', '3777', '3785', '3793', '3799', '3805', '3828', '3833', '3836', '3847', '3853', '3864', '3887', '3888', '3892', '3893', '3902', '3912', '3922', '3923', '3927', '3935', '3946', '3949', '3952', '3955', '3969', '3978', '3979', '3982', '3985', '3993']",False,86400,True,2,954fe8fbd4,0.0,1.0,1.0
./expes/v2_2021-04-05_issda-30_4000-prng-1-w86-p2_3d,30_issda-4000,4000,first-4000,200,5,rng,num-start-800,800,25726,classic,4845.284709692001,True,,True,1.0,1.0,1.0,1,"['5', '58', '67', '136', '159', '166', '256', '258', '283', '303', '329', '330', '338', '368', '374', '376', '383', '389', '405', '413', '447', '473', '480', '512', '534', '571', '573', '584', '602', '613', '754', '765', '776', '780', '783', '833', '838', '882', '895', '909', '965', '978', '992', '996', '1000', '1027', '1061', '1066', '1067', '1111', '1128', '1129', '1155', '1179', '1190', '1193', '1235', '1243', '1271', '1296', '1299', '1311', '1329', '1333', '1353', '1363', '1365', '1374', '1450', '1464', '1467', '1577', '1578', '1603', '1634', '1659', '1718', '1723', '1779', '1814', '1823', '1835', '1846', '1934', '1952', '1953', '1954', '1991', '1993', '2005', '2018', '2022', '2068', '2081', '2095', '2136', '2138', '2149', '2182', '2214', '2215', '2225', '2242', '2243', '2248', '2258', '2264', '2293', '2325', '2358', '2375', '2390', '2405', '2407', '2416', '2443', '2466', '2471', '2503', '2507', '2510', '2533', '2562', '2582', '2624', '2627', '2690', '2705', '2737', '2781', '2784', '2800', '2802', '2865', '2869', '2883', '2889', '2890', '2895', '2910', '2948', '2990', '2992', '2997', '3096', '3104', '3105', '3211', '3216', '3250', '3269', '3275', '3290', '3291', '3298', '3319', '3325', '3337', '3365', '3379', '3381', '3392', '3398', '3400', '3432', '3442', '3451', '3459', '3462', '3480', '3484', '3545', '3554', '3566', '3585', '3592', '3647', '3653', '3667', '3679', '3682', '3696', '3720', '3727', '3740', '3752', '3756', '3757', '3762', '3763', '3778', '3781', '3783', '3821', '3891', '3948', '3955', '3960', '3964', '3965']",False,86400,True,2,ccd97e877c,0.0,1.0,1.0
