expe,clients,clients_size,clients_subset,agg_size,agg_size_pc,method,days,days_size,days_total,noise_method,time,valid,valid_sum,success,score_avg,score_min,score_max,nsols,oracle,wall_hit,wall_time,pooled,pool_size,uuid,infeasible,optimal,valid_sums
./expes/v2_2021-04-05_issda-30_2000-prng-1-w86-p2_3d,30_issda-2000,2000,first-2000,500,25,rng,num-start-1400,1400,25726,classic,6476.777904510498,True,,True,1.0,1.0,1.0,1,"['4', '8', '10', '15', '16', '24', '27', '32', '37', '41', '42', '44', '46', '56', '58', '59', '64', '65', '67', '68', '70', '72', '73', '74', '87', '88', '89', '91', '93', '95', '102', '103', '105', '109', '110', '113', '124', '125', '126', '130', '132', '135', '137', '140', '141', '147', '158', '164', '176', '177', '182', '199', '200', '209', '211', '214', '215', '222', '233', '244', '245', '246', '248', '249', '251', '253', '254', '255', '256', '257', '260', '262', '264', '266', '267', '268', '270', '273', '275', '279', '284', '309', '311', '320', '322', '327', '335', '347', '351', '352', '364', '366', '376', '380', '384', '391', '392', '393', '405', '407', '409', '433', '445', '447', '448', '453', '455', '456', '460', '461', '466', '475', '476', '480', '484', '487', '488', '489', '490', '491', '501', '502', '509', '515', '518', '529', '532', '537', '540', '541', '543', '547', '551', '552', '554', '555', '556', '561', '571', '572', '573', '584', '588', '592', '595', '598', '602', '612', '615', '616', '617', '621', '623', '635', '641', '643', '645', '646', '647', '656', '660', '662', '667', '669', '672', '674', '678', '681', '684', '690', '695', '696', '697', '699', '700', '705', '708', '710', '719', '720', '721', '723', '738', '739', '746', '749', '757', '758', '763', '765', '767', '772', '773', '774', '779', '791', '794', '798', '799', '809', '814', '820', '835', '836', '839', '841', '847', '848', '851', '854', '857', '860', '862', '863', '867', '871', '873', '875', '878', '881', '884', '890', '892', '894', '896', '898', '911', '924', '935', '936', '943', '944', '951', '952', '955', '961', '964', '969', '971', '976', '978', '986', '988', '989', '991', '999', '1003', '1004', '1014', '1017', '1025', '1029', '1031', '1036', '1039', '1045', '1050', '1056', '1062', '1063', '1065', '1066', '1068', '1072', '1076', '1080', '1085', '1094', '1095', '1097', '1098', '1100', '1108', '1109', '1110', '1114', '1115', '1124', '1126', '1129', '1138', '1145', '1146', '1161', '1164', '1165', '1166', '1170', '1172', '1175', '1176', '1178', '1182', '1188', '1190', '1197', '1199', '1201', '1202', '1206', '1207', '1208', '1209', '1211', '1214', '1219', '1220', '1229', '1231', '1232', '1237', '1238', '1240', '1241', '1247', '1251', '1254', '1259', '1262', '1266', '1269', '1271', '1276', '1282', '1284', '1285', '1286', '1287', '1288', '1295', '1297', '1298', '1299', '1300', '1301', '1304', '1309', '1315', '1319', '1325', '1331', '1332', '1339', '1343', '1358', '1375', '1376', '1377', '1383', '1385', '1389', '1392', '1395', '1397', '1401', '1413', '1415', '1421', '1422', '1424', '1425', '1430', '1431', '1440', '1448', '1460', '1462', '1463', '1466', '1467', '1469', '1472', '1473', '1476', '1481', '1492', '1506', '1512', '1519', '1520', '1527', '1532', '1543', '1550', '1553', '1557', '1560', '1575', '1582', '1588', '1591', '1592', '1596', '1598', '1603', '1612', '1613', '1615', '1620', '1622', '1626', '1629', '1640', '1641', '1645', '1647', '1651', '1652', '1653', '1654', '1659', '1660', '1662', '1663', '1666', '1673', '1679', '1687', '1696', '1704', '1706', '1707', '1708', '1713', '1714', '1716', '1718', '1729', '1741', '1749', '1750', '1752', '1753', '1754', '1756', '1758', '1763', '1764', '1765', '1767', '1769', '1773', '1776', '1778', '1782', '1783', '1788', '1800', '1802', '1803', '1805', '1810', '1813', '1816', '1818', '1822', '1823', '1837', '1838', '1839', '1843', '1851', '1852', '1853', '1862', '1870', '1876', '1879', '1885', '1886', '1887', '1888', '1889', '1893', '1897', '1900', '1903', '1917', '1918', '1924', '1927', '1932', '1944', '1946', '1947', '1956', '1961', '1962', '1964', '1968', '1973', '1975', '1976', '1978', '1985', '1989', '1990', '1991', '1993', '1997']",False,86400,True,2,4c25308d89,0.0,1.0,1.0
./expes/v2_2021-04-05_issda-30_2000-prng-1-w86-p2_3d,30_issda-2000,2000,first-2000,800,40,rng,num-start-1000,1000,25726,classic,5011.086955547333,True,,True,1.0,1.0,1.0,1,"['1', '3', '4', '5', '7', '15', '17', '19', '20', '21', '26', '28', '29', '30', '31', '32', '34', '39', '42', '45', '47', '51', '55', '57', '58', '61', '62', '63', '65', '67', '68', '69', '73', '74', '75', '78', '79', '80', '81', '82', '83', '84', '85', '87', '92', '93', '94', '96', '97', '99', '103', '114', '119', '124', '126', '128', '129', '131', '135', '136', '142', '144', '145', '146', '148', '152', '155', '157', '161', '162', '165', '166', '167', '168', '169', '171', '172', '173', '174', '179', '184', '186', '187', '188', '192', '195', '201', '203', '204', '206', '207', '208', '211', '215', '216', '223', '224', '228', '231', '233', '236', '237', '238', '240', '241', '244', '246', '249', '253', '254', '255', '256', '257', '261', '266', '267', '268', '272', '274', '277', '284', '286', '287', '289', '291', '292', '294', '299', '300', '301', '304', '305', '307', '310', '311', '315', '317', '319', '320', '321', '323', '325', '328', '330', '332', '336', '340', '342', '347', '350', '359', '365', '366', '368', '370', '373', '374', '377', '379', '383', '386', '387', '388', '390', '391', '392', '394', '399', '400', '406', '407', '409', '414', '417', '419', '420', '422', '423', '425', '426', '427', '432', '438', '441', '443', '445', '448', '449', '451', '452', '453', '455', '457', '461', '471', '473', '477', '479', '483', '485', '489', '490', '491', '492', '496', '498', '500', '514', '518', '522', '524', '526', '527', '529', '531', '532', '533', '534', '535', '537', '553', '556', '563', '564', '565', '571', '574', '576', '578', '588', '590', '593', '594', '595', '597', '600', '601', '602', '603', '607', '613', '616', '617', '618', '619', '620', '621', '622', '626', '631', '636', '638', '640', '645', '647', '648', '650', '652', '656', '660', '661', '664', '665', '667', '668', '670', '673', '677', '678', '682', '683', '685', '687', '688', '691', '692', '693', '697', '702', '704', '706', '708', '710', '711', '713', '718', '722', '723', '725', '731', '732', '734', '735', '736', '740', '741', '742', '750', '752', '753', '755', '756', '759', '761', '762', '763', '770', '772', '775', '776', '777', '783', '786', '787', '789', '792', '794', '795', '796', '802', '803', '807', '809', '813', '816', '817', '823', '824', '826', '830', '832', '836', '840', '843', '849', '850', '851', '852', '855', '856', '857', '859', '861', '862', '865', '867', '872', '873', '874', '883', '884', '890', '892', '894', '906', '907', '911', '912', '913', '915', '918', '919', '923', '925', '928', '930', '933', '938', '939', '940', '944', '955', '957', '964', '965', '966', '967', '970', '971', '975', '976', '977', '980', '982', '986', '987', '988', '996', '997', '998', '1000', '1001', '1003', '1005', '1008', '1009', '1011', '1013', '1015', '1018', '1019', '1020', '1021', '1022', '1029', '1032', '1034', '1035', '1039', '1041', '1042', '1048', '1058', '1061', '1063', '1066', '1067', '1068', '1069', '1072', '1073', '1075', '1076', '1077', '1081', '1083', '1085', '1086', '1091', '1093', '1095', '1097', '1102', '1107', '1108', '1112', '1113', '1115', '1120', '1121', '1122', '1124', '1125', '1129', '1132', '1133', '1140', '1144', '1147', '1149', '1150', '1155', '1157', '1160', '1163', '1164', '1166', '1167', '1168', '1172', '1176', '1179', '1180', '1188', '1190', '1194', '1195', '1198', '1199', '1201', '1203', '1204', '1208', '1209', '1215', '1218', '1222', '1223', '1226', '1230', '1233', '1234', '1235', '1236', '1237', '1239', '1241', '1242', '1245', '1246', '1249', '1250', '1252', '1253', '1254', '1255', '1259', '1265', '1267', '1271', '1272', '1274', '1277', '1281', '1284', '1285', '1286', '1291', '1295', '1297', '1298', '1299', '1301', '1303', '1306', '1308', '1309', '1312', '1313', '1314', '1320', '1321', '1325', '1330', '1333', '1339', '1343', '1344', '1345', '1346', '1347', '1350', '1353', '1357', '1364', '1366', '1369', '1373', '1378', '1380', '1384', '1385', '1387', '1390', '1391', '1392', '1393', '1394', '1395', '1396', '1398', '1400', '1401', '1406', '1408', '1411', '1413', '1415', '1417', '1429', '1431', '1433', '1434', '1435', '1436', '1437', '1438', '1442', '1445', '1446', '1447', '1448', '1449', '1453', '1455', '1459', '1462', '1464', '1466', '1469', '1470', '1471', '1472', '1474', '1480', '1486', '1490', '1493', '1494', '1495', '1496', '1497', '1499', '1500', '1504', '1505', '1514', '1518', '1519', '1528', '1530', '1532', '1533', '1535', '1536', '1541', '1546', '1548', '1550', '1552', '1553', '1555', '1561', '1572', '1582', '1583', '1585', '1590', '1591', '1592', '1593', '1594', '1597', '1602', '1604', '1605', '1606', '1608', '1609', '1615', '1616', '1618', '1621', '1623', '1625', '1627', '1628', '1634', '1635', '1638', '1639', '1640', '1645', '1646', '1648', '1649', '1651', '1653', '1655', '1657', '1659', '1660', '1663', '1664', '1669', '1671', '1674', '1676', '1678', '1679', '1683', '1684', '1685', '1690', '1691', '1692', '1694', '1696', '1698', '1699', '1700', '1701', '1708', '1712', '1716', '1717', '1721', '1723', '1726', '1729', '1730', '1731', '1732', '1734', '1740', '1742', '1744', '1747', '1749', '1752', '1756', '1760', '1762', '1763', '1765', '1766', '1769', '1770', '1772', '1773', '1777', '1780', '1783', '1785', '1786', '1787', '1790', '1791', '1792', '1793', '1794', '1796', '1798', '1799', '1805', '1811', '1812', '1813', '1814', '1819', '1821', '1823', '1824', '1827', '1830', '1832', '1834', '1839', '1840', '1841', '1842', '1844', '1846', '1848', '1849', '1850', '1853', '1856', '1860', '1861', '1864', '1868', '1870', '1872', '1875', '1876', '1878', '1879', '1880', '1881', '1882', '1883', '1884', '1885', '1888', '1889', '1890', '1891', '1892', '1908', '1911', '1913', '1914', '1916', '1917', '1918', '1919', '1920', '1922', '1929', '1932', '1935', '1937', '1939', '1940', '1942', '1945', '1946', '1953', '1955', '1959', '1962', '1963', '1965', '1968', '1969', '1971', '1972', '1973', '1974', '1978', '1980', '1982', '1983', '1984', '1986', '1988', '1992', '1996', '2000']",False,86400,True,2,ab339202d9,0.0,1.0,1.0
./expes/v2_2021-04-05_issda-30_2000-prng-1-w86-p2_3d,30_issda-2000,2000,first-2000,400,20,rng,num-start-1600,1600,25726,classic,3058.6092813014984,True,,True,1.0,1.0,1.0,1,"['10', '15', '24', '27', '32', '41', '42', '44', '46', '56', '59', '64', '65', '67', '70', '72', '73', '74', '87', '88', '91', '93', '102', '110', '124', '125', '126', '130', '132', '135', '137', '140', '158', '164', '176', '182', '199', '200', '209', '211', '214', '215', '222', '233', '244', '245', '246', '248', '251', '255', '257', '266', '268', '270', '273', '275', '279', '284', '309', '311', '320', '327', '335', '347', '351', '352', '364', '376', '380', '384', '391', '393', '405', '407', '409', '433', '445', '447', '453', '455', '456', '460', '461', '466', '475', '476', '480', '484', '487', '488', '489', '490', '491', '501', '515', '518', '529', '532', '540', '541', '547', '552', '555', '556', '561', '571', '572', '573', '584', '588', '592', '595', '598', '602', '612', '615', '616', '617', '621', '635', '641', '643', '645', '646', '656', '660', '669', '672', '678', '681', '684', '690', '695', '696', '697', '699', '700', '705', '708', '710', '719', '721', '723', '738', '746', '749', '757', '758', '772', '773', '774', '791', '794', '799', '809', '814', '835', '836', '839', '841', '847', '848', '851', '854', '860', '863', '875', '881', '884', '890', '892', '894', '896', '898', '911', '924', '935', '936', '943', '952', '955', '961', '964', '969', '971', '976', '978', '986', '988', '991', '1003', '1014', '1025', '1031', '1036', '1039', '1045', '1050', '1062', '1063', '1066', '1068', '1072', '1076', '1085', '1094', '1095', '1097', '1100', '1108', '1110', '1114', '1115', '1124', '1126', '1129', '1145', '1146', '1164', '1165', '1166', '1172', '1175', '1176', '1178', '1182', '1188', '1190', '1197', '1199', '1201', '1206', '1207', '1208', '1211', '1214', '1219', '1220', '1229', '1231', '1232', '1237', '1240', '1241', '1247', '1251', '1254', '1259', '1262', '1269', '1271', '1276', '1282', '1284', '1285', '1287', '1295', '1297', '1298', '1299', '1300', '1301', '1309', '1315', '1319', '1331', '1332', '1339', '1343', '1358', '1375', '1376', '1377', '1383', '1385', '1389', '1392', '1395', '1397', '1401', '1413', '1421', '1425', '1430', '1431', '1448', '1462', '1463', '1466', '1469', '1472', '1473', '1476', '1492', '1506', '1512', '1519', '1520', '1527', '1532', '1543', '1553', '1560', '1575', '1582', '1592', '1596', '1598', '1603', '1612', '1613', '1615', '1622', '1626', '1640', '1641', '1645', '1647', '1652', '1653', '1654', '1659', '1660', '1662', '1663', '1666', '1673', '1687', '1696', '1704', '1706', '1707', '1708', '1713', '1714', '1716', '1718', '1729', '1741', '1749', '1752', '1753', '1754', '1758', '1763', '1764', '1765', '1769', '1773', '1776', '1778', '1782', '1788', '1800', '1803', '1805', '1810', '1813', '1818', '1822', '1823', '1837', '1838', '1843', '1851', '1852', '1853', '1862', '1870', '1876', '1879', '1885', '1886', '1887', '1888', '1889', '1893', '1897', '1900', '1903', '1917', '1918', '1924', '1927', '1932', '1944', '1946', '1956', '1961', '1962', '1964', '1968', '1973', '1975', '1976', '1978', '1989', '1990', '1991', '1993']",False,86400,True,2,eed6c6c6ac,0.0,1.0,1.0
./expes/v2_2021-04-05_issda-30_2000-prng-1-w86-p2_3d,30_issda-2000,2000,first-2000,300,15,rng,num-start-400,400,25726,classic,86438.5615503788,False,,False,0,,,0,"['15', '20', '38', '41', '53', '65', '73', '76', '83', '84', '88', '89', '92', '95', '106', '114', '121', '122', '127', '128', '137', '153', '160', '167', '170', '178', '183', '185', '191', '199', '207', '212', '218', '233', '240', '251', '280', '291', '298', '307', '314', '318', '326', '331', '338', '339', '346', '348', '354', '364', '365', '377', '385', '393', '397', '400', '401', '407', '411', '414', '416', '425', '426', '427', '432', '440', '441', '442', '449', '455', '469', '475', '478', '484', '487', '496', '497', '507', '510', '511', '513', '519', '521', '532', '534', '536', '537', '550', '557', '566', '567', '569', '574', '575', '586', '591', '592', '593', '594', '595', '596', '598', '599', '600', '601', '607', '615', '622', '625', '635', '639', '645', '646', '657', '659', '662', '663', '666', '670', '679', '690', '692', '694', '703', '729', '732', '738', '743', '745', '748', '763', '782', '794', '795', '804', '812', '823', '826', '839', '841', '846', '848', '855', '861', '863', '868', '869', '877', '881', '883', '893', '899', '900', '904', '909', '910', '925', '932', '941', '948', '966', '970', '979', '981', '1005', '1008', '1013', '1017', '1022', '1037', '1042', '1063', '1066', '1077', '1082', '1084', '1095', '1100', '1119', '1122', '1126', '1144', '1158', '1167', '1171', '1173', '1174', '1193', '1194', '1206', '1220', '1227', '1241', '1243', '1261', '1266', '1271', '1283', '1285', '1286', '1296', '1300', '1301', '1313', '1316', '1326', '1328', '1335', '1336', '1338', '1340', '1341', '1346', '1376', '1380', '1383', '1387', '1393', '1405', '1429', '1436', '1444', '1451', '1470', '1478', '1499', '1506', '1510', '1526', '1530', '1568', '1582', '1585', '1588', '1597', '1606', '1620', '1634', '1638', '1640', '1641', '1642', '1648', '1653', '1665', '1669', '1676', '1694', '1698', '1702', '1710', '1720', '1722', '1731', '1737', '1738', '1751', '1759', '1765', '1766', '1773', '1777', '1781', '1782', '1784', '1790', '1803', '1807', '1822', '1825', '1832', '1835', '1843', '1845', '1846', '1853', '1862', '1871', '1878', '1880', '1890', '1894', '1900', '1901', '1905', '1915', '1930', '1932', '1934', '1935', '1956', '1959', '1966', '1968', '1970', '1972', '1976', '1979', '1988', '1989']",True,86400,True,2,9a70f8af99,0.0,0.0,0.0
