expe,clients,clients_size,clients_subset,agg_size,agg_size_pc,method,days,days_size,days_total,noise_method,time,valid,valid_sum,success,score_avg,score_min,score_max,nsols,oracle,wall_hit,wall_time,pooled,pool_size,uuid,infeasible,optimal,valid_sums
./expes/v2_2021-04-05_issda-30_2000-prng-1-w86-p2_3d,30_issda-2000,2000,first-2000,300,15,rng,num-start-2000,2000,25726,classic,1780.9226853847504,True,,True,1.0,1.0,1.0,1,"['3', '26', '28', '29', '34', '45', '47', '55', '68', '75', '80', '81', '83', '93', '119', '126', '128', '129', '142', '144', '148', '152', '165', '169', '184', '187', '188', '192', '195', '203', '207', '208', '224', '237', '238', '240', '241', '246', '254', '255', '256', '267', '286', '287', '292', '300', '301', '307', '315', '325', '332', '347', '350', '359', '370', '377', '379', '383', '387', '388', '390', '392', '399', '409', '417', '419', '432', '441', '448', '449', '452', '453', '455', '483', '489', '496', '498', '500', '514', '531', '533', '534', '556', '564', '565', '578', '590', '595', '597', '617', '618', '622', '636', '638', '648', '650', '656', '665', '667', '677', '682', '683', '687', '702', '718', '725', '732', '734', '735', '759', '762', '789', '796', '802', '817', '830', '840', '859', '862', '872', '873', '890', '894', '906', '907', '912', '918', '923', '938', '957', '964', '966', '967', '976', '977', '982', '996', '997', '1003', '1009', '1011', '1032', '1034', '1041', '1042', '1048', '1068', '1069', '1075', '1085', '1091', '1095', '1107', '1108', '1113', '1115', '1121', '1122', '1124', '1129', '1132', '1147', '1149', '1163', '1166', '1167', '1176', '1179', '1180', '1188', '1195', '1203', '1204', '1208', '1222', '1223', '1233', '1234', '1236', '1241', '1242', '1252', '1254', '1255', '1267', '1271', '1281', '1291', '1299', '1301', '1312', '1314', '1325', '1330', '1345', '1347', '1353', '1364', '1369', '1378', '1385', '1391', '1392', '1394', '1396', '1400', '1401', '1415', '1429', '1433', '1435', '1442', '1445', '1448', '1455', '1471', '1474', '1490', '1495', '1496', '1499', '1519', '1548', '1552', '1553', '1572', '1604', '1606', '1608', '1616', '1625', '1628', '1635', '1638', '1640', '1645', '1646', '1649', '1660', '1663', '1669', '1671', '1674', '1683', '1690', '1691', '1696', '1699', '1700', '1701', '1708', '1712', '1716', '1717', '1721', '1726', '1730', '1731', '1732', '1740', '1742', '1752', '1773', '1777', '1783', '1792', '1793', '1796', '1824', '1827', '1834', '1840', '1841', '1844', '1848', '1853', '1860', '1864', '1870', '1876', '1878', '1879', '1880', '1881', '1882', '1888', '1889', '1891', '1892', '1911', '1918', '1919', '1946', '1969', '1974', '1978', '1980', '1982', '1983', '1988']",False,86400,True,2,0667df3bb8,0.0,1.0,1.0
./expes/v2_2021-04-05_issda-30_2000-prng-1-w86-p2_3d,30_issda-2000,2000,first-2000,400,20,rng,num-start-800,800,25726,classic,3387.861125230789,True,,True,1.0,1.0,1.0,1,"['4', '9', '10', '11', '18', '33', '37', '40', '41', '44', '49', '50', '51', '52', '57', '64', '65', '66', '69', '73', '74', '75', '84', '89', '94', '101', '105', '116', '117', '121', '123', '124', '139', '151', '152', '155', '157', '165', '170', '174', '180', '188', '192', '193', '197', '205', '208', '209', '216', '218', '228', '232', '236', '238', '243', '250', '252', '262', '270', '280', '287', '288', '295', '310', '311', '315', '322', '325', '329', '331', '337', '341', '347', '350', '353', '356', '362', '364', '372', '373', '377', '392', '394', '407', '426', '427', '431', '432', '435', '436', '446', '449', '455', '462', '465', '468', '473', '475', '477', '484', '494', '502', '506', '508', '511', '512', '514', '516', '519', '521', '524', '526', '531', '537', '541', '545', '550', '560', '571', '572', '583', '586', '594', '622', '627', '632', '634', '635', '639', '648', '653', '665', '666', '672', '686', '691', '699', '700', '705', '707', '719', '725', '737', '738', '740', '742', '743', '746', '750', '751', '762', '763', '764', '765', '779', '788', '790', '801', '803', '805', '806', '810', '819', '823', '833', '838', '842', '845', '850', '857', '860', '867', '868', '872', '883', '889', '911', '912', '913', '918', '919', '925', '929', '930', '932', '936', '945', '949', '952', '953', '969', '983', '996', '997', '998', '1001', '1002', '1004', '1005', '1021', '1026', '1029', '1033', '1040', '1041', '1043', '1045', '1048', '1049', '1053', '1055', '1056', '1061', '1062', '1064', '1067', '1070', '1072', '1076', '1077', '1078', '1087', '1097', '1115', '1130', '1142', '1143', '1147', '1148', '1152', '1163', '1171', '1177', '1191', '1198', '1205', '1206', '1208', '1211', '1212', '1216', '1240', '1241', '1242', '1243', '1251', '1257', '1261', '1262', '1263', '1274', '1277', '1278', '1279', '1286', '1301', '1306', '1308', '1313', '1315', '1335', '1338', '1342', '1350', '1354', '1356', '1359', '1372', '1374', '1378', '1382', '1396', '1398', '1402', '1403', '1404', '1408', '1414', '1417', '1433', '1445', '1447', '1451', '1454', '1463', '1465', '1467', '1469', '1481', '1482', '1483', '1487', '1493', '1494', '1497', '1505', '1508', '1513', '1516', '1521', '1526', '1532', '1538', '1544', '1545', '1547', '1548', '1556', '1558', '1563', '1569', '1584', '1588', '1600', '1607', '1615', '1618', '1622', '1627', '1631', '1632', '1637', '1639', '1644', '1646', '1651', '1657', '1664', '1666', '1669', '1670', '1681', '1690', '1691', '1703', '1711', '1712', '1718', '1722', '1739', '1741', '1749', '1760', '1762', '1767', '1768', '1784', '1791', '1792', '1794', '1796', '1804', '1806', '1807', '1809', '1811', '1818', '1822', '1827', '1831', '1840', '1843', '1846', '1848', '1850', '1857', '1859', '1860', '1861', '1867', '1876', '1877', '1882', '1885', '1886', '1888', '1895', '1903', '1909', '1910', '1914', '1916', '1917', '1922', '1927', '1933', '1942', '1945', '1955', '1956', '1958', '1961', '1964', '1965', '1966', '1968', '1970', '1973', '1988', '1989']",False,86400,True,2,ff5823c516,0.0,1.0,1.0
./expes/v2_2021-04-05_issda-30_2000-prng-1-w86-p2_3d,30_issda-2000,2000,first-2000,1000,50,rng,num-start-1400,1400,25726,classic,6808.977270126343,True,,True,1.0,1.0,1.0,1,"['4', '7', '8', '9', '10', '11', '13', '18', '19', '22', '24', '26', '33', '36', '37', '38', '40', '41', '44', '49', '50', '51', '52', '57', '58', '60', '61', '63', '64', '65', '66', '69', '70', '73', '74', '75', '77', '79', '81', '84', '86', '89', '94', '95', '96', '97', '98', '100', '101', '102', '105', '109', '110', '111', '113', '116', '117', '120', '121', '123', '124', '126', '127', '130', '133', '135', '137', '139', '144', '145', '146', '148', '149', '150', '151', '152', '155', '157', '158', '159', '164', '165', '167', '169', '170', '173', '174', '177', '178', '180', '183', '186', '188', '189', '191', '192', '193', '194', '195', '197', '201', '204', '205', '206', '207', '208', '209', '210', '213', '214', '216', '218', '222', '228', '230', '232', '236', '238', '239', '243', '245', '250', '252', '261', '262', '263', '264', '265', '268', '270', '271', '272', '274', '275', '277', '278', '280', '282', '283', '284', '286', '287', '288', '290', '291', '292', '295', '296', '297', '301', '307', '309', '310', '311', '315', '320', '321', '322', '323', '325', '326', '329', '331', '333', '334', '337', '341', '343', '347', '348', '350', '353', '354', '355', '356', '358', '359', '361', '362', '364', '370', '372', '373', '377', '380', '382', '385', '389', '391', '392', '393', '394', '399', '402', '406', '407', '409', '412', '414', '416', '419', '420', '423', '425', '426', '427', '428', '431', '432', '434', '435', '436', '437', '438', '440', '441', '442', '443', '444', '446', '449', '452', '453', '455', '456', '459', '460', '461', '462', '465', '466', '467', '468', '470', '473', '474', '475', '476', '477', '478', '481', '484', '485', '487', '488', '489', '492', '493', '494', '495', '502', '505', '506', '508', '510', '511', '512', '513', '514', '515', '516', '519', '520', '521', '522', '523', '524', '525', '526', '527', '529', '531', '532', '536', '537', '538', '541', '545', '547', '550', '551', '557', '558', '559', '560', '562', '568', '569', '571', '572', '573', '574', '575', '579', '583', '584', '586', '588', '594', '596', '598', '604', '605', '607', '608', '610', '613', '620', '622', '623', '627', '631', '632', '634', '635', '636', '639', '640', '641', '642', '643', '645', '648', '649', '653', '654', '657', '658', '659', '665', '666', '669', '672', '674', '675', '678', '679', '683', '684', '686', '689', '690', '691', '692', '693', '698', '699', '700', '701', '702', '703', '705', '707', '709', '712', '718', '719', '725', '730', '733', '735', '736', '737', '738', '739', '740', '742', '743', '746', '747', '750', '751', '753', '757', '761', '762', '763', '764', '765', '766', '768', '770', '773', '775', '777', '779', '782', '784', '785', '788', '790', '791', '794', '799', '800', '801', '802', '803', '804', '805', '806', '807', '809', '810', '816', '819', '820', '822', '823', '825', '826', '828', '829', '830', '833', '834', '838', '842', '844', '845', '846', '850', '851', '854', '857', '858', '859', '860', '861', '862', '867', '868', '872', '876', '881', '882', '883', '889', '890', '894', '896', '899', '903', '904', '906', '907', '909', '911', '912', '913', '916', '917', '918', '919', '925', '928', '929', '930', '931', '932', '933', '934', '936', '937', '938', '941', '943', '945', '949', '951', '952', '953', '954', '955', '956', '957', '958', '961', '962', '964', '966', '968', '969', '970', '971', '973', '974', '976', '977', '979', '981', '983', '987', '988', '989', '991', '992', '994', '995', '996', '997', '998', '1001', '1002', '1004', '1005', '1008', '1010', '1015', '1016', '1020', '1021', '1023', '1025', '1026', '1029', '1030', '1033', '1034', '1039', '1040', '1041', '1042', '1043', '1045', '1046', '1047', '1048', '1049', '1052', '1053', '1054', '1055', '1056', '1058', '1061', '1062', '1064', '1065', '1067', '1070', '1071', '1072', '1073', '1074', '1075', '1076', '1077', '1078', '1081', '1083', '1087', '1090', '1091', '1092', '1093', '1097', '1102', '1103', '1104', '1106', '1107', '1108', '1109', '1111', '1112', '1114', '1115', '1116', '1117', '1119', '1121', '1122', '1124', '1128', '1130', '1140', '1142', '1143', '1145', '1147', '1148', '1150', '1152', '1156', '1157', '1160', '1163', '1166', '1171', '1175', '1177', '1180', '1182', '1188', '1189', '1190', '1191', '1198', '1200', '1201', '1205', '1206', '1208', '1211', '1212', '1216', '1218', '1219', '1222', '1224', '1225', '1233', '1235', '1240', '1241', '1242', '1243', '1251', '1253', '1254', '1255', '1257', '1260', '1261', '1262', '1263', '1267', '1269', '1273', '1274', '1275', '1276', '1277', '1278', '1279', '1281', '1283', '1285', '1286', '1288', '1290', '1295', '1297', '1298', '1301', '1303', '1304', '1305', '1306', '1307', '1308', '1310', '1313', '1314', '1315', '1317', '1320', '1322', '1324', '1327', '1328', '1329', '1330', '1332', '1335', '1338', '1339', '1340', '1342', '1349', '1350', '1351', '1353', '1354', '1356', '1359', '1361', '1362', '1364', '1366', '1368', '1370', '1371', '1372', '1373', '1374', '1378', '1382', '1383', '1384', '1386', '1390', '1391', '1393', '1394', '1395', '1396', '1397', '1398', '1402', '1403', '1404', '1407', '1408', '1412', '1413', '1414', '1417', '1419', '1420', '1422', '1425', '1432', '1433', '1436', '1439', '1440', '1441', '1442', '1443', '1444', '1445', '1446', '1447', '1449', '1451', '1454', '1456', '1457', '1458', '1460', '1461', '1462', '1463', '1465', '1466', '1467', '1468', '1469', '1470', '1472', '1473', '1474', '1475', '1476', '1477', '1479', '1481', '1482', '1483', '1484', '1487', '1491', '1492', '1493', '1494', '1497', '1498', '1500', '1504', '1505', '1508', '1509', '1513', '1516', '1521', '1525', '1526', '1528', '1532', '1535', '1537', '1538', '1539', '1540', '1541', '1544', '1545', '1546', '1547', '1548', '1556', '1557', '1558', '1560', '1561', '1563', '1566', '1568', '1569', '1570', '1571', '1573', '1574', '1580', '1582', '1584', '1588', '1592', '1595', '1600', '1603', '1604', '1606', '1607', '1611', '1613', '1615', '1616', '1618', '1622', '1623', '1627', '1629', '1630', '1631', '1632', '1634', '1635', '1636', '1637', '1639', '1641', '1642', '1644', '1646', '1647', '1648', '1651', '1652', '1656', '1657', '1659', '1662', '1664', '1666', '1668', '1669', '1670', '1671', '1672', '1675', '1677', '1679', '1680', '1681', '1684', '1685', '1686', '1687', '1688', '1689', '1690', '1691', '1703', '1707', '1708', '1711', '1712', '1713', '1714', '1715', '1716', '1718', '1722', '1732', '1734', '1738', '1739', '1741', '1743', '1746', '1749', '1754', '1755', '1758', '1759', '1760', '1762', '1764', '1766', '1767', '1768', '1770', '1774', '1779', '1781', '1783', '1784', '1785', '1791', '1792', '1794', '1796', '1798', '1799', '1800', '1804', '1805', '1806', '1807', '1809', '1811', '1812', '1813', '1815', '1818', '1819', '1822', '1827', '1831', '1833', '1834', '1840', '1841', '1842', '1843', '1845', '1846', '1848', '1849', '1850', '1852', '1855', '1857', '1859', '1860', '1861', '1865', '1867', '1868', '1873', '1874', '1875', '1876', '1877', '1878', '1880', '1882', '1885', '1886', '1887', '1888', '1889', '1890', '1892', '1895', '1897', '1903', '1904', '1909', '1910', '1914', '1915', '1916', '1917', '1919', '1920', '1922', '1923', '1926', '1927', '1930', '1931', '1932', '1933', '1934', '1935', '1937', '1941', '1942', '1943', '1944', '1945', '1946', '1955', '1956', '1958', '1961', '1962', '1964', '1965', '1966', '1968', '1969', '1970', '1971', '1973', '1976', '1980', '1981', '1983', '1985', '1986', '1988', '1989', '1990', '1992', '1995']",False,86400,True,2,7dc82c167a,0.0,1.0,1.0
./expes/v2_2021-04-05_issda-30_2000-prng-1-w86-p2_3d,30_issda-2000,2000,first-2000,800,40,rng,num-start-600,600,25726,classic,86457.86852788925,False,,False,0,,,0,"['4', '8', '10', '11', '15', '16', '24', '27', '32', '37', '41', '42', '44', '46', '48', '49', '53', '56', '57', '58', '59', '61', '62', '64', '65', '67', '68', '70', '72', '73', '74', '75', '76', '87', '88', '89', '91', '93', '94', '95', '102', '103', '105', '109', '110', '113', '122', '124', '125', '126', '130', '132', '135', '137', '140', '141', '142', '147', '149', '157', '158', '159', '160', '164', '171', '176', '177', '182', '187', '189', '190', '197', '199', '200', '204', '205', '209', '211', '212', '214', '215', '219', '220', '222', '223', '230', '231', '233', '236', '242', '244', '245', '246', '248', '249', '251', '253', '254', '255', '256', '257', '260', '262', '264', '266', '267', '268', '270', '273', '275', '279', '280', '282', '284', '290', '294', '295', '300', '301', '306', '307', '309', '311', '320', '322', '327', '329', '333', '335', '347', '348', '349', '351', '352', '353', '362', '364', '366', '367', '369', '370', '372', '373', '376', '379', '380', '382', '383', '384', '388', '389', '391', '392', '393', '397', '405', '407', '408', '409', '411', '414', '422', '431', '433', '445', '446', '447', '448', '453', '455', '456', '460', '461', '466', '471', '475', '476', '480', '481', '482', '484', '487', '488', '489', '490', '491', '496', '501', '502', '507', '509', '512', '513', '514', '515', '518', '521', '523', '529', '530', '532', '537', '540', '541', '542', '543', '544', '545', '547', '548', '550', '551', '552', '554', '555', '556', '561', '563', '571', '572', '573', '583', '584', '588', '592', '595', '598', '601', '602', '603', '606', '612', '614', '615', '616', '617', '621', '623', '630', '635', '640', '641', '642', '643', '645', '646', '647', '648', '653', '656', '660', '662', '665', '667', '669', '672', '674', '678', '679', '681', '682', '684', '686', '690', '694', '695', '696', '697', '699', '700', '705', '708', '710', '718', '719', '720', '721', '722', '723', '726', '731', '736', '738', '739', '746', '749', '753', '755', '757', '758', '760', '763', '765', '767', '769', '770', '771', '772', '773', '774', '778', '779', '784', '785', '786', '791', '794', '797', '798', '799', '801', '802', '803', '807', '809', '813', '814', '816', '820', '822', '827', '835', '836', '839', '841', '846', '847', '848', '851', '854', '857', '860', '861', '862', '863', '867', '871', '873', '875', '878', '881', '884', '886', '890', '892', '894', '896', '898', '908', '911', '912', '918', '923', '924', '927', '931', '935', '936', '938', '943', '944', '951', '952', '955', '958', '959', '961', '964', '969', '970', '971', '976', '978', '981', '982', '983', '986', '987', '988', '989', '991', '996', '999', '1003', '1004', '1012', '1014', '1017', '1020', '1025', '1029', '1031', '1034', '1036', '1039', '1042', '1045', '1048', '1050', '1055', '1056', '1060', '1062', '1063', '1065', '1066', '1068', '1072', '1076', '1077', '1080', '1081', '1084', '1085', '1086', '1090', '1094', '1095', '1097', '1098', '1099', '1100', '1102', '1108', '1109', '1110', '1113', '1114', '1115', '1116', '1124', '1126', '1127', '1129', '1132', '1134', '1135', '1136', '1137', '1138', '1140', '1141', '1145', '1146', '1147', '1155', '1156', '1160', '1161', '1162', '1164', '1165', '1166', '1168', '1170', '1172', '1175', '1176', '1178', '1180', '1182', '1186', '1188', '1189', '1190', '1195', '1197', '1198', '1199', '1200', '1201', '1202', '1204', '1206', '1207', '1208', '1209', '1211', '1213', '1214', '1219', '1220', '1224', '1227', '1228', '1229', '1231', '1232', '1237', '1238', '1240', '1241', '1245', '1247', '1251', '1254', '1259', '1262', '1266', '1269', '1271', '1274', '1276', '1282', '1284', '1285', '1286', '1287', '1288', '1293', '1295', '1297', '1298', '1299', '1300', '1301', '1304', '1309', '1315', '1317', '1319', '1320', '1321', '1323', '1325', '1327', '1328', '1331', '1332', '1337', '1339', '1340', '1343', '1351', '1357', '1358', '1363', '1366', '1368', '1373', '1375', '1376', '1377', '1378', '1380', '1381', '1383', '1384', '1385', '1389', '1390', '1392', '1395', '1396', '1397', '1401', '1405', '1413', '1415', '1416', '1421', '1422', '1424', '1425', '1427', '1429', '1430', '1431', '1434', '1436', '1437', '1440', '1444', '1445', '1448', '1460', '1462', '1463', '1465', '1466', '1467', '1468', '1469', '1470', '1471', '1472', '1473', '1476', '1477', '1481', '1490', '1491', '1492', '1493', '1496', '1499', '1503', '1504', '1506', '1512', '1515', '1519', '1520', '1521', '1523', '1527', '1531', '1532', '1533', '1534', '1541', '1543', '1544', '1545', '1546', '1549', '1550', '1551', '1553', '1557', '1560', '1572', '1575', '1581', '1582', '1586', '1588', '1589', '1591', '1592', '1596', '1597', '1598', '1601', '1602', '1603', '1604', '1612', '1613', '1615', '1620', '1622', '1623', '1626', '1629', '1635', '1636', '1637', '1640', '1641', '1645', '1647', '1651', '1652', '1653', '1654', '1658', '1659', '1660', '1662', '1663', '1666', '1669', '1671', '1673', '1674', '1679', '1683', '1687', '1696', '1704', '1706', '1707', '1708', '1710', '1713', '1714', '1716', '1718', '1724', '1726', '1728', '1729', '1735', '1741', '1744', '1746', '1749', '1750', '1752', '1753', '1754', '1755', '1756', '1758', '1759', '1761', '1763', '1764', '1765', '1767', '1769', '1770', '1772', '1773', '1776', '1778', '1779', '1781', '1782', '1783', '1787', '1788', '1793', '1800', '1802', '1803', '1804', '1805', '1807', '1810', '1813', '1816', '1817', '1818', '1822', '1823', '1824', '1825', '1826', '1837', '1838', '1839', '1843', '1847', '1851', '1852', '1853', '1856', '1862', '1864', '1866', '1870', '1872', '1876', '1878', '1879', '1885', '1886', '1887', '1888', '1889', '1893', '1897', '1900', '1903', '1904', '1909', '1913', '1914', '1915', '1917', '1918', '1923', '1924', '1927', '1928', '1931', '1932', '1934', '1935', '1936', '1941', '1944', '1945', '1946', '1947', '1948', '1951', '1953', '1956', '1957', '1961', '1962', '1964', '1967', '1968', '1969', '1973', '1975', '1976', '1978', '1980', '1981', '1985', '1989', '1990', '1991', '1993', '1997']",True,86400,True,2,0d537dd159,0.0,0.0,0.0
