expe,clients,clients_size,clients_subset,agg_size,agg_size_pc,method,days,days_size,days_total,noise_method,time,valid,valid_sum,success,score_avg,score_min,score_max,nsols,oracle,wall_hit,wall_time,pooled,pool_size,uuid,infeasible,optimal,valid_sums
./expes/v2_2021-04-05_issda-30_2000-prng-1-w86-p2_3d,30_issda-2000,2000,first-2000,200,10,rng,num-start-600,600,25726,classic,1286.0947082042694,True,,True,1.0,1.0,1.0,1,"['3', '29', '34', '68', '80', '83', '128', '129', '142', '152', '165', '169', '184', '187', '188', '192', '195', '203', '207', '224', '237', '240', '256', '267', '286', '287', '292', '301', '307', '350', '377', '383', '388', '390', '392', '417', '419', '441', '448', '452', '455', '483', '489', '496', '498', '500', '514', '531', '533', '534', '556', '564', '565', '578', '590', '595', '597', '618', '622', '636', '648', '650', '656', '665', '667', '677', '682', '683', '687', '725', '732', '734', '762', '789', '802', '817', '830', '859', '862', '890', '907', '912', '918', '923', '967', '976', '977', '996', '997', '1003', '1009', '1011', '1034', '1041', '1048', '1068', '1069', '1075', '1091', '1107', '1108', '1113', '1121', '1122', '1124', '1129', '1132', '1147', '1163', '1179', '1188', '1195', '1203', '1204', '1208', '1222', '1233', '1236', '1252', '1254', '1255', '1267', '1281', '1291', '1312', '1314', '1345', '1353', '1369', '1391', '1392', '1400', '1401', '1433', '1435', '1442', '1445', '1448', '1455', '1474', '1495', '1496', '1499', '1548', '1552', '1553', '1606', '1608', '1625', '1628', '1635', '1638', '1645', '1646', '1649', '1660', '1663', '1669', '1683', '1690', '1691', '1696', '1699', '1700', '1716', '1721', '1726', '1730', '1731', '1740', '1742', '1773', '1777', '1783', '1793', '1796', '1824', '1827', '1834', '1840', '1841', '1848', '1860', '1864', '1870', '1876', '1878', '1879', '1881', '1882', '1889', '1891', '1892', '1911', '1946', '1974', '1978', '1980', '1982', '1983']",False,86400,True,2,adf9c7669c,0.0,1.0,1.0
./expes/v2_2021-04-05_issda-30_2000-prng-1-w86-p2_3d,30_issda-2000,2000,first-2000,400,20,rng,num-start-400,400,25726,classic,86440.24150657654,False,,False,0,,,0,"['7', '15', '20', '22', '27', '38', '41', '53', '55', '65', '71', '73', '76', '83', '84', '85', '88', '89', '92', '95', '106', '110', '114', '121', '122', '124', '127', '128', '137', '153', '154', '159', '160', '162', '164', '167', '170', '175', '178', '183', '185', '191', '195', '199', '207', '212', '218', '232', '233', '235', '238', '240', '251', '262', '280', '285', '291', '298', '307', '314', '318', '322', '326', '331', '332', '338', '339', '343', '346', '348', '354', '364', '365', '377', '385', '392', '393', '397', '400', '401', '407', '411', '414', '416', '421', '425', '426', '427', '432', '433', '440', '441', '442', '448', '449', '455', '456', '469', '475', '478', '479', '484', '487', '496', '497', '507', '510', '511', '513', '519', '521', '527', '528', '532', '534', '536', '537', '550', '552', '557', '566', '567', '569', '574', '575', '586', '591', '592', '593', '594', '595', '596', '598', '599', '600', '601', '607', '609', '615', '622', '625', '635', '638', '639', '645', '646', '657', '659', '662', '663', '666', '670', '678', '679', '690', '692', '694', '703', '711', '729', '732', '738', '743', '745', '748', '750', '763', '781', '782', '794', '795', '796', '800', '804', '809', '811', '812', '820', '823', '826', '827', '839', '841', '846', '848', '852', '855', '861', '863', '868', '869', '877', '881', '883', '889', '893', '899', '900', '901', '904', '909', '910', '925', '930', '932', '941', '948', '952', '966', '968', '970', '979', '981', '997', '1002', '1005', '1008', '1013', '1017', '1022', '1037', '1042', '1050', '1063', '1066', '1072', '1077', '1079', '1082', '1084', '1095', '1100', '1113', '1119', '1122', '1126', '1128', '1144', '1149', '1152', '1158', '1166', '1167', '1171', '1173', '1174', '1193', '1194', '1206', '1218', '1220', '1227', '1241', '1243', '1246', '1250', '1261', '1266', '1269', '1271', '1272', '1283', '1285', '1286', '1296', '1300', '1301', '1313', '1316', '1326', '1328', '1335', '1336', '1338', '1340', '1341', '1346', '1367', '1369', '1376', '1380', '1383', '1387', '1393', '1405', '1409', '1425', '1429', '1436', '1444', '1451', '1470', '1478', '1499', '1506', '1510', '1526', '1529', '1530', '1554', '1568', '1571', '1573', '1577', '1582', '1585', '1586', '1588', '1597', '1604', '1606', '1607', '1613', '1620', '1634', '1635', '1636', '1638', '1640', '1641', '1642', '1648', '1653', '1659', '1665', '1669', '1676', '1677', '1694', '1695', '1698', '1702', '1710', '1716', '1720', '1722', '1731', '1737', '1738', '1751', '1753', '1754', '1757', '1759', '1765', '1766', '1771', '1773', '1777', '1781', '1782', '1784', '1790', '1795', '1798', '1800', '1801', '1803', '1807', '1814', '1822', '1825', '1827', '1832', '1835', '1842', '1843', '1845', '1846', '1853', '1854', '1862', '1871', '1875', '1876', '1878', '1880', '1889', '1890', '1894', '1900', '1901', '1905', '1915', '1930', '1932', '1934', '1935', '1948', '1956', '1959', '1966', '1968', '1970', '1972', '1976', '1979', '1984', '1988', '1989']",True,86400,True,2,c7746057dc,0.0,0.0,0.0
