expe,clients,clients_size,clients_subset,agg_size,method,days,days_size,days_total,time,valid,valid_sum,success,nsols,wall_hit,wall_time,pooled,valid_sums
./expes/v2_2020-11-09_3bh_100-prng-1,30_base_hphc_100,100,first-100,1,rng,num-start-131,131,17520,2.9985241889953613,True,,True,1,False,1000,True,1.0
./expes/v2_2020-11-09_3bh_100-prng-1,30_base_hphc_100,100,first-100,1,rng,num-start-541,541,17520,11.499733448028564,True,,True,1,False,1000,True,1.0
./expes/v2_2020-11-09_3bh_100-prng-1,30_base_hphc_100,100,first-100,21,rng,num-start-381,381,17520,8.768968105316162,True,,True,1,False,1000,True,1.0
./expes/v2_2020-11-09_3bh_100-prng-1,30_base_hphc_100,100,first-100,71,rng,num-start-311,311,17520,7.239340305328369,True,,True,1,False,1000,True,1.0
./expes/v2_2020-11-09_3bh_100-prng-1,30_base_hphc_100,100,first-100,31,rng,num-start-541,541,17520,12.739930391311646,True,,True,1,False,1000,True,1.0
./expes/v2_2020-11-09_3bh_100-prng-1,30_base_hphc_100,100,first-100,31,rng,num-start-181,181,17520,4.350515127182007,True,,True,1,False,1000,True,1.0
./expes/v2_2020-11-09_3bh_100-prng-1,30_base_hphc_100,100,first-100,21,rng,num-start-271,271,17520,6.438205003738403,True,,True,1,False,1000,True,1.0
./expes/v2_2020-11-09_3bh_100-prng-1,30_base_hphc_100,100,first-100,21,rng,num-start-91,91,17520,2.243649482727051,True,,True,1,False,1000,True,1.0
./expes/v2_2020-11-09_3bh_100-prng-1,30_base_hphc_100,100,first-100,61,rng,num-start-231,231,17520,5.5347676277160645,True,,True,1,False,1000,True,1.0
./expes/v2_2020-11-09_3bh_100-prng-1,30_base_hphc_100,100,first-100,21,rng,num-start-161,161,17520,3.9849190711975098,True,,True,1,False,1000,True,1.0
./expes/v2_2020-11-09_3bh_100-prng-1,30_base_hphc_100,100,first-100,91,rng,num-start-751,751,17520,16.220041513442993,True,,True,1,False,1000,True,1.0
./expes/v2_2020-11-09_3bh_100-prng-1,30_base_hphc_100,100,first-100,51,rng,num-start-181,181,17520,4.4616124629974365,True,,True,1,False,1000,True,1.0
./expes/v2_2020-11-09_3bh_100-prng-1,30_base_hphc_100,100,first-100,11,rng,num-start-361,361,17520,8.292831420898438,True,,True,1,False,1000,True,1.0
./expes/v2_2020-11-09_3bh_100-prng-1,30_base_hphc_100,100,first-100,41,rng,num-start-541,541,17520,12.499868392944336,True,,True,1,False,1000,True,1.0
./expes/v2_2020-11-09_3bh_100-prng-1,30_base_hphc_100,100,first-100,51,rng,num-start-61,61,17520,1.4824891090393066,True,,True,1,False,1000,True,1.0
./expes/v2_2020-11-09_3bh_100-prng-1,30_base_hphc_100,100,first-100,91,rng,num-start-341,341,17520,7.396020412445068,True,,True,1,False,1000,True,1.0
./expes/v2_2020-11-09_3bh_100-prng-1,30_base_hphc_100,100,first-100,41,rng,num-start-171,171,17520,4.033804178237915,True,,True,1,False,1000,True,1.0
./expes/v2_2020-11-09_3bh_100-prng-1,30_base_hphc_100,100,first-100,91,rng,num-start-171,171,17520,3.9477603435516357,True,,True,1,False,1000,True,1.0
./expes/v2_2020-11-09_3bh_100-prng-1,30_base_hphc_100,100,first-100,21,rng,num-start-631,631,17520,14.642932415008545,True,,True,1,False,1000,True,1.0
./expes/v2_2020-11-09_3bh_100-prng-1,30_base_hphc_100,100,first-100,41,rng,num-start-21,21,17520,1001.4037480354309,False,,False,0,True,1000,True,0.0
./expes/v2_2020-11-09_3bh_100-prng-1,30_base_hphc_100,100,first-100,11,rng,num-start-51,51,17520,1.236579179763794,True,,True,1,False,1000,True,1.0
./expes/v2_2020-11-09_3bh_100-prng-1,30_base_hphc_100,100,first-100,71,rng,num-start-651,651,17520,15.271796226501465,True,,True,1,False,1000,True,1.0
./expes/v2_2020-11-09_3bh_100-prng-1,30_base_hphc_100,100,first-100,81,rng,num-start-561,561,17520,12.877465963363647,True,,True,1,False,1000,True,1.0
./expes/v2_2020-11-09_3bh_100-prng-1,30_base_hphc_100,100,first-100,21,rng,num-start-251,251,17520,5.891522407531738,True,,True,1,False,1000,True,1.0
./expes/v2_2020-11-09_3bh_100-prng-1,30_base_hphc_100,100,first-100,91,rng,num-start-581,581,17520,13.0228431224823,True,,True,1,False,1000,True,1.0
./expes/v2_2020-11-09_3bh_100-prng-1,30_base_hphc_100,100,first-100,81,rng,num-start-331,331,17520,7.595311641693115,True,,True,1,False,1000,True,1.0
./expes/v2_2020-11-09_3bh_100-prng-1,30_base_hphc_100,100,first-100,21,rng,num-start-721,721,17520,16.35952877998352,True,,True,1,False,1000,True,1.0
./expes/v2_2020-11-09_3bh_100-prng-1,30_base_hphc_100,100,first-100,91,rng,num-start-241,241,17520,5.282343149185181,True,,True,1,False,1000,True,1.0
./expes/v2_2020-11-09_3bh_100-prng-1,30_base_hphc_100,100,first-100,11,rng,num-start-871,871,17520,19.44294309616089,True,,True,1,False,1000,True,1.0
./expes/v2_2020-11-09_3bh_100-prng-1,30_base_hphc_100,100,first-100,81,rng,num-start-1,1,17520,0.04262685775756836,False,,False,2,False,1000,True,1.0
./expes/v2_2020-11-09_3bh_100-prng-1,30_base_hphc_100,100,first-100,81,rng,num-start-311,311,17520,7.0466628074646,True,,True,1,False,1000,True,1.0
./expes/v2_2020-11-09_3bh_100-prng-1,30_base_hphc_100,100,first-100,41,rng,num-start-781,781,17520,18.957756757736206,True,,True,1,False,1000,True,1.0
./expes/v2_2020-11-09_3bh_100-prng-1,30_base_hphc_100,100,first-100,91,rng,num-start-791,791,17520,17.30056858062744,True,,True,1,False,1000,True,1.0
./expes/v2_2020-11-09_3bh_100-prng-1,30_base_hphc_100,100,first-100,21,rng,num-start-741,741,17520,16.927736043930054,True,,True,1,False,1000,True,1.0
./expes/v2_2020-11-09_3bh_100-prng-1,30_base_hphc_100,100,first-100,1,rng,num-start-31,31,17520,0.6544413566589355,True,,True,1,False,1000,True,1.0
./expes/v2_2020-11-09_3bh_100-prng-1,30_base_hphc_100,100,first-100,51,rng,num-start-631,631,17520,14.93479585647583,True,,True,1,False,1000,True,1.0
./expes/v2_2020-11-09_3bh_100-prng-1,30_base_hphc_100,100,first-100,71,rng,num-start-531,531,17520,12.261204242706299,True,,True,1,False,1000,True,1.0
./expes/v2_2020-11-09_3bh_100-prng-1,30_base_hphc_100,100,first-100,61,rng,num-start-591,591,17520,13.946665525436401,True,,True,1,False,1000,True,1.0
./expes/v2_2020-11-09_3bh_100-prng-1,30_base_hphc_100,100,first-100,21,rng,num-start-631,631,17520,14.392223358154297,True,,True,1,False,1000,True,1.0
./expes/v2_2020-11-09_3bh_100-prng-1,30_base_hphc_100,100,first-100,41,rng,num-start-51,51,17520,1.4305305480957031,True,,True,1,False,1000,True,1.0
./expes/v2_2020-11-09_3bh_100-prng-1,30_base_hphc_100,100,first-100,31,rng,num-start-491,491,17520,11.226782083511353,True,,True,1,False,1000,True,1.0
./expes/v2_2020-11-09_3bh_100-prng-1,30_base_hphc_100,100,first-100,61,rng,num-start-661,661,17520,15.643654346466064,True,,True,1,False,1000,True,1.0
./expes/v2_2020-11-09_3bh_100-prng-1,30_base_hphc_100,100,first-100,41,rng,num-start-721,721,17520,16.559274196624756,True,,True,1,False,1000,True,1.0
./expes/v2_2020-11-09_3bh_100-prng-1,30_base_hphc_100,100,first-100,41,rng,num-start-301,301,17520,6.9454505443573,True,,True,1,False,1000,True,1.0
./expes/v2_2020-11-09_3bh_100-prng-1,30_base_hphc_100,100,first-100,51,rng,num-start-691,691,17520,16.468872547149658,True,,True,1,False,1000,True,1.0
./expes/v2_2020-11-09_3bh_100-prng-1,30_base_hphc_100,100,first-100,41,rng,num-start-871,871,17520,20.215709686279297,True,,True,1,False,1000,True,1.0
./expes/v2_2020-11-09_3bh_100-prng-1,30_base_hphc_100,100,first-100,91,rng,num-start-861,861,17520,18.466577291488647,True,,True,1,False,1000,True,1.0
./expes/v2_2020-11-09_3bh_100-prng-1,30_base_hphc_100,100,first-100,91,rng,num-start-141,141,17520,3.2878081798553467,True,,True,1,False,1000,True,1.0
./expes/v2_2020-11-09_3bh_100-prng-1,30_base_hphc_100,100,first-100,81,rng,num-start-861,861,17520,19.672889471054077,True,,True,1,False,1000,True,1.0
./expes/v2_2020-11-09_3bh_100-prng-1,30_base_hphc_100,100,first-100,31,rng,num-start-691,691,17520,16.259206771850586,True,,True,1,False,1000,True,1.0
./expes/v2_2020-11-09_3bh_100-prng-1,30_base_hphc_100,100,first-100,31,rng,num-start-891,891,17520,20.69630765914917,True,,True,1,False,1000,True,1.0
./expes/v2_2020-11-09_3bh_100-prng-1,30_base_hphc_100,100,first-100,21,rng,num-start-811,811,17520,18.96283197402954,True,,True,1,False,1000,True,1.0
./expes/v2_2020-11-09_3bh_100-prng-1,30_base_hphc_100,100,first-100,21,rng,num-start-621,621,17520,14.113959074020386,True,,True,1,False,1000,True,1.0
./expes/v2_2020-11-09_3bh_100-prng-1,30_base_hphc_100,100,first-100,61,rng,num-start-611,611,17520,14.391993761062622,True,,True,1,False,1000,True,1.0
./expes/v2_2020-11-09_3bh_100-prng-1,30_base_hphc_100,100,first-100,11,rng,num-start-601,601,17520,13.637789964675903,True,,True,1,False,1000,True,1.0
./expes/v2_2020-11-09_3bh_100-prng-1,30_base_hphc_100,100,first-100,61,rng,num-start-511,511,17520,11.713791608810425,True,,True,1,False,1000,True,1.0
./expes/v2_2020-11-09_3bh_100-prng-1,30_base_hphc_100,100,first-100,91,rng,num-start-521,521,17520,11.499681949615479,True,,True,1,False,1000,True,1.0
./expes/v2_2020-11-09_3bh_100-prng-1,30_base_hphc_100,100,first-100,81,rng,num-start-781,781,17520,17.779759883880615,True,,True,1,False,1000,True,1.0
./expes/v2_2020-11-09_3bh_100-prng-1,30_base_hphc_100,100,first-100,1,rng,num-start-771,771,17520,16.307443380355835,True,,True,1,False,1000,True,1.0
./expes/v2_2020-11-09_3bh_100-prng-1,30_base_hphc_100,100,first-100,51,rng,num-start-341,341,17520,7.968418121337891,True,,True,1,False,1000,True,1.0
./expes/v2_2020-11-09_3bh_100-prng-1,30_base_hphc_100,100,first-100,51,rng,num-start-301,301,17520,7.022375106811523,True,,True,1,False,1000,True,1.0
./expes/v2_2020-11-09_3bh_100-prng-1,30_base_hphc_100,100,first-100,41,rng,num-start-871,871,17520,20.148937225341797,True,,True,1,False,1000,True,1.0
./expes/v2_2020-11-09_3bh_100-prng-1,30_base_hphc_100,100,first-100,1,rng,num-start-891,891,17520,18.833070993423462,True,,True,1,False,1000,True,1.0
./expes/v2_2020-11-09_3bh_100-prng-1,30_base_hphc_100,100,first-100,71,rng,num-start-61,61,17520,1.4950480461120605,True,,True,1,False,1000,True,1.0
./expes/v2_2020-11-09_3bh_100-prng-1,30_base_hphc_100,100,first-100,41,rng,num-start-871,871,17520,20.122424125671387,True,,True,1,False,1000,True,1.0
./expes/v2_2020-11-09_3bh_100-prng-1,30_base_hphc_100,100,first-100,31,rng,num-start-31,31,17520,1.3995099067687988,True,,True,1,False,1000,True,1.0
./expes/v2_2020-11-09_3bh_100-prng-1,30_base_hphc_100,100,first-100,51,rng,num-start-541,541,17520,12.65895390510559,True,,True,1,False,1000,True,1.0
./expes/v2_2020-11-09_3bh_100-prng-1,30_base_hphc_100,100,first-100,41,rng,num-start-831,831,17520,19.809931755065918,True,,True,1,False,1000,True,1.0
./expes/v2_2020-11-09_3bh_100-prng-1,30_base_hphc_100,100,first-100,31,rng,num-start-611,611,17520,14.572353839874268,True,,True,1,False,1000,True,1.0
./expes/v2_2020-11-09_3bh_100-prng-1,30_base_hphc_100,100,first-100,91,rng,num-start-351,351,17520,7.892883062362671,True,,True,1,False,1000,True,1.0
./expes/v2_2020-11-09_3bh_100-prng-1,30_base_hphc_100,100,first-100,61,rng,num-start-581,581,17520,13.488313436508179,True,,True,1,False,1000,True,1.0
./expes/v2_2020-11-09_3bh_100-prng-1,30_base_hphc_100,100,first-100,21,rng,num-start-581,581,17520,13.464574337005615,True,,True,1,False,1000,True,1.0
./expes/v2_2020-11-09_3bh_100-prng-1,30_base_hphc_100,100,first-100,41,rng,num-start-461,461,17520,10.728562831878662,True,,True,1,False,1000,True,1.0
./expes/v2_2020-11-09_3bh_100-prng-1,30_base_hphc_100,100,first-100,11,rng,num-start-941,941,17520,20.619375467300415,True,,True,1,False,1000,True,1.0
./expes/v2_2020-11-09_3bh_100-prng-1,30_base_hphc_100,100,first-100,11,rng,num-start-871,871,17520,19.50841474533081,True,,True,1,False,1000,True,1.0
./expes/v2_2020-11-09_3bh_100-prng-1,30_base_hphc_100,100,first-100,11,rng,num-start-791,791,17520,18.30991792678833,True,,True,1,False,1000,True,1.0
./expes/v2_2020-11-09_3bh_100-prng-1,30_base_hphc_100,100,first-100,21,rng,num-start-181,181,17520,4.39061164855957,True,,True,1,False,1000,True,1.0
./expes/v2_2020-11-09_3bh_100-prng-1,30_base_hphc_100,100,first-100,81,rng,num-start-361,361,17520,8.256906032562256,True,,True,1,False,1000,True,1.0
./expes/v2_2020-11-09_3bh_100-prng-1,30_base_hphc_100,100,first-100,61,rng,num-start-591,591,17520,13.853004455566406,True,,True,1,False,1000,True,1.0
./expes/v2_2020-11-09_3bh_100-prng-1,30_base_hphc_100,100,first-100,11,rng,num-start-921,921,17520,20.34187388420105,True,,True,1,False,1000,True,1.0
./expes/v2_2020-11-09_3bh_100-prng-1,30_base_hphc_100,100,first-100,81,rng,num-start-201,201,17520,4.731588125228882,True,,True,1,False,1000,True,1.0
./expes/v2_2020-11-09_3bh_100-prng-1,30_base_hphc_100,100,first-100,1,rng,num-start-891,891,17520,18.840166091918945,True,,True,1,False,1000,True,1.0
./expes/v2_2020-11-09_3bh_100-prng-1,30_base_hphc_100,100,first-100,71,rng,num-start-861,861,17520,20.091495513916016,True,,True,1,False,1000,True,1.0
./expes/v2_2020-11-09_3bh_100-prng-1,30_base_hphc_100,100,first-100,71,rng,num-start-911,911,17520,21.413458108901978,True,,True,1,False,1000,True,1.0
./expes/v2_2020-11-09_3bh_100-prng-1,30_base_hphc_100,100,first-100,81,rng,num-start-561,561,17520,12.81802773475647,True,,True,1,False,1000,True,1.0
./expes/v2_2020-11-09_3bh_100-prng-1,30_base_hphc_100,100,first-100,11,rng,num-start-641,641,17520,14.11927318572998,True,,True,1,False,1000,True,1.0
./expes/v2_2020-11-09_3bh_100-prng-1,30_base_hphc_100,100,first-100,21,rng,num-start-611,611,17520,14.411854028701782,True,,True,1,False,1000,True,1.0
./expes/v2_2020-11-09_3bh_100-prng-1,30_base_hphc_100,100,first-100,11,rng,num-start-871,871,17520,19.970256567001343,True,,True,1,False,1000,True,1.0
./expes/v2_2020-11-09_3bh_100-prng-1,30_base_hphc_100,100,first-100,21,rng,num-start-201,201,17520,4.761685132980347,True,,True,1,False,1000,True,1.0
./expes/v2_2020-11-09_3bh_100-prng-1,30_base_hphc_100,100,first-100,21,rng,num-start-541,541,17520,12.618074655532837,True,,True,1,False,1000,True,1.0
./expes/v2_2020-11-09_3bh_100-prng-1,30_base_hphc_100,100,first-100,61,rng,num-start-131,131,17520,3.077129364013672,True,,True,1,False,1000,True,1.0
./expes/v2_2020-11-09_3bh_100-prng-1,30_base_hphc_100,100,first-100,21,rng,num-start-821,821,17520,19.370161771774292,True,,True,1,False,1000,True,1.0
./expes/v2_2020-11-09_3bh_100-prng-1,30_base_hphc_100,100,first-100,61,rng,num-start-591,591,17520,13.55771517753601,True,,True,1,False,1000,True,1.0
./expes/v2_2020-11-09_3bh_100-prng-1,30_base_hphc_100,100,first-100,61,rng,num-start-811,811,17520,18.840286254882812,True,,True,1,False,1000,True,1.0
./expes/v2_2020-11-09_3bh_100-prng-1,30_base_hphc_100,100,first-100,61,rng,num-start-181,181,17520,4.349653959274292,True,,True,1,False,1000,True,1.0
./expes/v2_2020-11-09_3bh_100-prng-1,30_base_hphc_100,100,first-100,51,rng,num-start-151,151,17520,3.569455862045288,True,,True,1,False,1000,True,1.0
./expes/v2_2020-11-09_3bh_100-prng-1,30_base_hphc_100,100,first-100,1,rng,num-start-561,561,17520,11.847804069519043,True,,True,1,False,1000,True,1.0
./expes/v2_2020-11-09_3bh_100-prng-1,30_base_hphc_100,100,first-100,1,rng,num-start-931,931,17520,19.730056047439575,True,,True,1,False,1000,True,1.0
./expes/v2_2020-11-09_3bh_100-prng-1,30_base_hphc_100,100,first-100,21,rng,num-start-571,571,17520,13.313509464263916,True,,True,1,False,1000,True,1.0
./expes/v2_2020-11-09_3bh_100-prng-1,30_base_hphc_100,100,first-100,11,rng,num-start-121,121,17520,2.8496530055999756,True,,True,1,False,1000,True,1.0
./expes/v2_2020-11-09_3bh_100-prng-1,30_base_hphc_100,100,first-100,11,rng,num-start-571,571,17520,12.923807144165039,True,,True,1,False,1000,True,1.0
./expes/v2_2020-11-09_3bh_100-prng-1,30_base_hphc_100,100,first-100,21,rng,num-start-841,841,17520,19.861501455307007,True,,True,1,False,1000,True,1.0
./expes/v2_2020-11-09_3bh_100-prng-1,30_base_hphc_100,100,first-100,31,rng,num-start-81,81,17520,1.988203763961792,True,,True,1,False,1000,True,1.0
./expes/v2_2020-11-09_3bh_100-prng-1,30_base_hphc_100,100,first-100,61,rng,num-start-841,841,17520,20.09266448020935,True,,True,1,False,1000,True,1.0
./expes/v2_2020-11-09_3bh_100-prng-1,30_base_hphc_100,100,first-100,31,rng,num-start-621,621,17520,14.442360877990723,True,,True,1,False,1000,True,1.0
./expes/v2_2020-11-09_3bh_100-prng-1,30_base_hphc_100,100,first-100,1,rng,num-start-201,201,17520,4.293408155441284,True,,True,1,False,1000,True,1.0
./expes/v2_2020-11-09_3bh_100-prng-1,30_base_hphc_100,100,first-100,1,rng,num-start-421,421,17520,8.865853309631348,True,,True,1,False,1000,True,1.0
./expes/v2_2020-11-09_3bh_100-prng-1,30_base_hphc_100,100,first-100,91,rng,num-start-851,851,17520,18.693017959594727,True,,True,1,False,1000,True,1.0
./expes/v2_2020-11-09_3bh_100-prng-1,30_base_hphc_100,100,first-100,51,rng,num-start-581,581,17520,13.60628342628479,True,,True,1,False,1000,True,1.0
./expes/v2_2020-11-09_3bh_100-prng-1,30_base_hphc_100,100,first-100,11,rng,num-start-961,961,17520,21.206888914108276,True,,True,1,False,1000,True,1.0
./expes/v2_2020-11-09_3bh_100-prng-1,30_base_hphc_100,100,first-100,81,rng,num-start-331,331,17520,7.498120069503784,True,,True,1,False,1000,True,1.0
./expes/v2_2020-11-09_3bh_100-prng-1,30_base_hphc_100,100,first-100,91,rng,num-start-211,211,17520,4.881200075149536,True,,True,1,False,1000,True,1.0
./expes/v2_2020-11-09_3bh_100-prng-1,30_base_hphc_100,100,first-100,81,rng,num-start-931,931,17520,21.416154861450195,True,,True,1,False,1000,True,1.0
./expes/v2_2020-11-09_3bh_100-prng-1,30_base_hphc_100,100,first-100,81,rng,num-start-821,821,17520,18.808268547058105,True,,True,1,False,1000,True,1.0
./expes/v2_2020-11-09_3bh_100-prng-1,30_base_hphc_100,100,first-100,71,rng,num-start-731,731,17520,17.396160125732422,True,,True,1,False,1000,True,1.0
./expes/v2_2020-11-09_3bh_100-prng-1,30_base_hphc_100,100,first-100,21,rng,num-start-371,371,17520,8.523211479187012,True,,True,1,False,1000,True,1.0
./expes/v2_2020-11-09_3bh_100-prng-1,30_base_hphc_100,100,first-100,51,rng,num-start-531,531,17520,12.258903503417969,True,,True,1,False,1000,True,1.0
./expes/v2_2020-11-09_3bh_100-prng-1,30_base_hphc_100,100,first-100,11,rng,num-start-281,281,17520,6.45609974861145,True,,True,1,False,1000,True,1.0
./expes/v2_2020-11-09_3bh_100-prng-1,30_base_hphc_100,100,first-100,91,rng,num-start-551,551,17520,11.835342168807983,True,,True,1,False,1000,True,1.0
./expes/v2_2020-11-09_3bh_100-prng-1,30_base_hphc_100,100,first-100,51,rng,num-start-511,511,17520,11.690202713012695,True,,True,1,False,1000,True,1.0
./expes/v2_2020-11-09_3bh_100-prng-1,30_base_hphc_100,100,first-100,11,rng,num-start-51,51,17520,1.227963924407959,True,,True,1,False,1000,True,1.0
./expes/v2_2020-11-09_3bh_100-prng-1,30_base_hphc_100,100,first-100,61,rng,num-start-831,831,17520,20.247109174728394,True,,True,1,False,1000,True,1.0
./expes/v2_2020-11-09_3bh_100-prng-1,30_base_hphc_100,100,first-100,71,rng,num-start-521,521,17520,12.046107530593872,True,,True,1,False,1000,True,1.0
./expes/v2_2020-11-09_3bh_100-prng-1,30_base_hphc_100,100,first-100,81,rng,num-start-841,841,17520,19.12888741493225,True,,True,1,False,1000,True,1.0
./expes/v2_2020-11-09_3bh_100-prng-1,30_base_hphc_100,100,first-100,71,rng,num-start-361,361,17520,8.307413578033447,True,,True,1,False,1000,True,1.0
./expes/v2_2020-11-09_3bh_100-prng-1,30_base_hphc_100,100,first-100,91,rng,num-start-81,81,17520,1.9458444118499756,True,,True,1,False,1000,True,1.0
./expes/v2_2020-11-09_3bh_100-prng-1,30_base_hphc_100,100,first-100,11,rng,num-start-771,771,17520,17.04162573814392,True,,True,1,False,1000,True,1.0
./expes/v2_2020-11-09_3bh_100-prng-1,30_base_hphc_100,100,first-100,41,rng,num-start-811,811,17520,19.09025239944458,True,,True,1,False,1000,True,1.0
./expes/v2_2020-11-09_3bh_100-prng-1,30_base_hphc_100,100,first-100,31,rng,num-start-981,981,17520,23.279862642288208,True,,True,1,False,1000,True,1.0
./expes/v2_2020-11-09_3bh_100-prng-1,30_base_hphc_100,100,first-100,51,rng,num-start-381,381,17520,8.86851453781128,True,,True,1,False,1000,True,1.0
./expes/v2_2020-11-09_3bh_100-prng-1,30_base_hphc_100,100,first-100,21,rng,num-start-61,61,17520,1.5791127681732178,True,,True,1,False,1000,True,1.0
./expes/v2_2020-11-09_3bh_100-prng-1,30_base_hphc_100,100,first-100,81,rng,num-start-811,811,17520,18.78067970275879,True,,True,1,False,1000,True,1.0
./expes/v2_2020-11-09_3bh_100-prng-1,30_base_hphc_100,100,first-100,21,rng,num-start-221,221,17520,5.1350884437561035,True,,True,1,False,1000,True,1.0
./expes/v2_2020-11-09_3bh_100-prng-1,30_base_hphc_100,100,first-100,81,rng,num-start-751,751,17520,17.166096925735474,True,,True,1,False,1000,True,1.0
./expes/v2_2020-11-09_3bh_100-prng-1,30_base_hphc_100,100,first-100,71,rng,num-start-961,961,17520,22.21326971054077,True,,True,1,False,1000,True,1.0
./expes/v2_2020-11-09_3bh_100-prng-1,30_base_hphc_100,100,first-100,41,rng,num-start-111,111,17520,2.689649820327759,True,,True,1,False,1000,True,1.0
./expes/v2_2020-11-09_3bh_100-prng-1,30_base_hphc_100,100,first-100,21,rng,num-start-101,101,17520,2.417957067489624,True,,True,1,False,1000,True,1.0
./expes/v2_2020-11-09_3bh_100-prng-1,30_base_hphc_100,100,first-100,81,rng,num-start-371,371,17520,8.689202308654785,True,,True,1,False,1000,True,1.0
./expes/v2_2020-11-09_3bh_100-prng-1,30_base_hphc_100,100,first-100,51,rng,num-start-311,311,17520,7.2152793407440186,True,,True,1,False,1000,True,1.0
./expes/v2_2020-11-09_3bh_100-prng-1,30_base_hphc_100,100,first-100,21,rng,num-start-921,921,17520,21.309837579727173,True,,True,1,False,1000,True,1.0
./expes/v2_2020-11-09_3bh_100-prng-1,30_base_hphc_100,100,first-100,11,rng,num-start-481,481,17520,10.96687912940979,True,,True,1,False,1000,True,1.0
./expes/v2_2020-11-09_3bh_100-prng-1,30_base_hphc_100,100,first-100,81,rng,num-start-211,211,17520,4.976351737976074,True,,True,1,False,1000,True,1.0
./expes/v2_2020-11-09_3bh_100-prng-1,30_base_hphc_100,100,first-100,31,rng,num-start-171,171,17520,4.054070949554443,True,,True,1,False,1000,True,1.0
./expes/v2_2020-11-09_3bh_100-prng-1,30_base_hphc_100,100,first-100,91,rng,num-start-791,791,17520,17.38854718208313,True,,True,1,False,1000,True,1.0
./expes/v2_2020-11-09_3bh_100-prng-1,30_base_hphc_100,100,first-100,41,rng,num-start-1,1,17520,0.04425692558288574,False,,False,2,False,1000,True,1.0
./expes/v2_2020-11-09_3bh_100-prng-1,30_base_hphc_100,100,first-100,91,rng,num-start-421,421,17520,9.581968307495117,True,,True,1,False,1000,True,1.0
./expes/v2_2020-11-09_3bh_100-prng-1,30_base_hphc_100,100,first-100,91,rng,num-start-341,341,17520,7.33539080619812,True,,True,1,False,1000,True,1.0
./expes/v2_2020-11-09_3bh_100-prng-1,30_base_hphc_100,100,first-100,81,rng,num-start-81,81,17520,1.905120611190796,True,,True,1,False,1000,True,1.0
./expes/v2_2020-11-09_3bh_100-prng-1,30_base_hphc_100,100,first-100,61,rng,num-start-171,171,17520,4.201294183731079,True,,True,1,False,1000,True,1.0
./expes/v2_2020-11-09_3bh_100-prng-1,30_base_hphc_100,100,first-100,41,rng,num-start-641,641,17520,14.930011987686157,True,,True,1,False,1000,True,1.0
./expes/v2_2020-11-09_3bh_100-prng-1,30_base_hphc_100,100,first-100,11,rng,num-start-311,311,17520,7.265085935592651,True,,True,1,False,1000,True,1.0
./expes/v2_2020-11-09_3bh_100-prng-1,30_base_hphc_100,100,first-100,31,rng,num-start-811,811,17520,18.992766857147217,True,,True,1,False,1000,True,1.0
./expes/v2_2020-11-09_3bh_100-prng-1,30_base_hphc_100,100,first-100,21,rng,num-start-531,531,17520,12.278606176376343,True,,True,1,False,1000,True,1.0
./expes/v2_2020-11-09_3bh_100-prng-1,30_base_hphc_100,100,first-100,11,rng,num-start-561,561,17520,12.774836301803589,True,,True,1,False,1000,True,1.0
./expes/v2_2020-11-09_3bh_100-prng-1,30_base_hphc_100,100,first-100,51,rng,num-start-511,511,17520,12.074806928634644,True,,True,1,False,1000,True,1.0
./expes/v2_2020-11-09_3bh_100-prng-1,30_base_hphc_100,100,first-100,31,rng,num-start-701,701,17520,16.3007709980011,True,,True,1,False,1000,True,1.0
./expes/v2_2020-11-09_3bh_100-prng-1,30_base_hphc_100,100,first-100,31,rng,num-start-531,531,17520,12.296899557113647,True,,True,1,False,1000,True,1.0
./expes/v2_2020-11-09_3bh_100-prng-1,30_base_hphc_100,100,first-100,1,rng,num-start-381,381,17520,8.060220956802368,True,,True,1,False,1000,True,1.0
./expes/v2_2020-11-09_3bh_100-prng-1,30_base_hphc_100,100,first-100,1,rng,num-start-811,811,17520,17.177332162857056,True,,True,1,False,1000,True,1.0
./expes/v2_2020-11-09_3bh_100-prng-1,30_base_hphc_100,100,first-100,71,rng,num-start-711,711,17520,16.439821481704712,True,,True,1,False,1000,True,1.0
./expes/v2_2020-11-09_3bh_100-prng-1,30_base_hphc_100,100,first-100,91,rng,num-start-291,291,17520,6.739345550537109,True,,True,1,False,1000,True,1.0
./expes/v2_2020-11-09_3bh_100-prng-1,30_base_hphc_100,100,first-100,1,rng,num-start-761,761,17520,16.121280431747437,True,,True,1,False,1000,True,1.0
./expes/v2_2020-11-09_3bh_100-prng-1,30_base_hphc_100,100,first-100,61,rng,num-start-131,131,17520,3.224254846572876,True,,True,1,False,1000,True,1.0
./expes/v2_2020-11-09_3bh_100-prng-1,30_base_hphc_100,100,first-100,81,rng,num-start-751,751,17520,17.424336194992065,True,,True,1,False,1000,True,1.0
./expes/v2_2020-11-09_3bh_100-prng-1,30_base_hphc_100,100,first-100,21,rng,num-start-281,281,17520,6.634267568588257,True,,True,1,False,1000,True,1.0
./expes/v2_2020-11-09_3bh_100-prng-1,30_base_hphc_100,100,first-100,81,rng,num-start-471,471,17520,10.722755432128906,True,,True,1,False,1000,True,1.0
./expes/v2_2020-11-09_3bh_100-prng-1,30_base_hphc_100,100,first-100,61,rng,num-start-311,311,17520,7.192098140716553,True,,True,1,False,1000,True,1.0
./expes/v2_2020-11-09_3bh_100-prng-1,30_base_hphc_100,100,first-100,91,rng,num-start-721,721,17520,15.47406268119812,True,,True,1,False,1000,True,1.0
./expes/v2_2020-11-09_3bh_100-prng-1,30_base_hphc_100,100,first-100,61,rng,num-start-461,461,17520,10.689578771591187,True,,True,1,False,1000,True,1.0
./expes/v2_2020-11-09_3bh_100-prng-1,30_base_hphc_100,100,first-100,41,rng,num-start-631,631,17520,14.967191696166992,True,,True,1,False,1000,True,1.0
./expes/v2_2020-11-09_3bh_100-prng-1,30_base_hphc_100,100,first-100,41,rng,num-start-491,491,17520,11.177823543548584,True,,True,1,False,1000,True,1.0
./expes/v2_2020-11-09_3bh_100-prng-1,30_base_hphc_100,100,first-100,91,rng,num-start-331,331,17520,7.523276329040527,True,,True,1,False,1000,True,1.0
./expes/v2_2020-11-09_3bh_100-prng-1,30_base_hphc_100,100,first-100,11,rng,num-start-221,221,17520,5.228559494018555,True,,True,1,False,1000,True,1.0
./expes/v2_2020-11-09_3bh_100-prng-1,30_base_hphc_100,100,first-100,21,rng,num-start-901,901,17520,21.443486213684082,True,,True,1,False,1000,True,1.0
./expes/v2_2020-11-09_3bh_100-prng-1,30_base_hphc_100,100,first-100,31,rng,num-start-581,581,17520,13.618940591812134,True,,True,1,False,1000,True,1.0
./expes/v2_2020-11-09_3bh_100-prng-1,30_base_hphc_100,100,first-100,11,rng,num-start-731,731,17520,17.104005575180054,True,,True,1,False,1000,True,1.0
./expes/v2_2020-11-09_3bh_100-prng-1,30_base_hphc_100,100,first-100,91,rng,num-start-691,691,17520,14.843794822692871,True,,True,1,False,1000,True,1.0
./expes/v2_2020-11-09_3bh_100-prng-1,30_base_hphc_100,100,first-100,41,rng,num-start-321,321,17520,7.511878967285156,True,,True,1,False,1000,True,1.0
./expes/v2_2020-11-09_3bh_100-prng-1,30_base_hphc_100,100,first-100,21,rng,num-start-771,771,17520,17.484990119934082,True,,True,1,False,1000,True,1.0
./expes/v2_2020-11-09_3bh_100-prng-1,30_base_hphc_100,100,first-100,71,rng,num-start-341,341,17520,7.751934766769409,True,,True,1,False,1000,True,1.0
./expes/v2_2020-11-09_3bh_100-prng-1,30_base_hphc_100,100,first-100,1,rng,num-start-231,231,17520,4.91838002204895,True,,True,1,False,1000,True,1.0
./expes/v2_2020-11-09_3bh_100-prng-1,30_base_hphc_100,100,first-100,71,rng,num-start-251,251,17520,5.961035251617432,True,,True,1,False,1000,True,1.0
./expes/v2_2020-11-09_3bh_100-prng-1,30_base_hphc_100,100,first-100,71,rng,num-start-641,641,17520,14.873465538024902,True,,True,1,False,1000,True,1.0
./expes/v2_2020-11-09_3bh_100-prng-1,30_base_hphc_100,100,first-100,51,rng,num-start-111,111,17520,2.7817134857177734,True,,True,1,False,1000,True,1.0
./expes/v2_2020-11-09_3bh_100-prng-1,30_base_hphc_100,100,first-100,51,rng,num-start-491,491,17520,11.430488586425781,True,,True,1,False,1000,True,1.0
./expes/v2_2020-11-09_3bh_100-prng-1,30_base_hphc_100,100,first-100,31,rng,num-start-611,611,17520,14.427157640457153,True,,True,1,False,1000,True,1.0
./expes/v2_2020-11-09_3bh_100-prng-1,30_base_hphc_100,100,first-100,61,rng,num-start-611,611,17520,14.339100122451782,True,,True,1,False,1000,True,1.0
./expes/v2_2020-11-09_3bh_100-prng-1,30_base_hphc_100,100,first-100,71,rng,num-start-521,521,17520,12.240352869033813,True,,True,1,False,1000,True,1.0
./expes/v2_2020-11-09_3bh_100-prng-1,30_base_hphc_100,100,first-100,1,rng,num-start-271,271,17520,5.762299060821533,True,,True,1,False,1000,True,1.0
./expes/v2_2020-11-09_3bh_100-prng-1,30_base_hphc_100,100,first-100,31,rng,num-start-621,621,17520,14.488478899002075,True,,True,1,False,1000,True,1.0
./expes/v2_2020-11-09_3bh_100-prng-1,30_base_hphc_100,100,first-100,21,rng,num-start-321,321,17520,7.367160320281982,True,,True,1,False,1000,True,1.0
