expe,clients,clients_size,clients_subset,agg_size,agg_size_pc,method,days,days_size,days_total,noise_method,time,valid,valid_sum,success,score_avg,score_min,score_max,nsols,oracle,wall_hit,wall_time,pooled,pool_size,uuid,optimal,valid_sums
./expes/v3_2021-02-05_di_300-prng-1-w1-p2,daily_issda-300,300,first-300,56,18,rng,num-start-261,261,536,classic,8.721753120422363,True,,True,1.0,1.0,1.0,1,"Index(['8', '16', '37', '38', '44', '61', '65', '67', '68', '70', '72', '76',
       '91', '92', '96', '100', '104', '110', '116', '119', '120', '121',
       '130', '132', '133', '135', '142', '144', '149', '151', '161', '178',
       '183', '187', '188', '191', '203', '220', '221', '224', '226', '228',
       '230', '231', '236', '238', '250', '252', '268', '273', '275', '282',
       '284', '289', '290', '296'],
      dtype='object')",False,1000,True,2,3315a9d4bb,1.0,1.0
./expes/v3_2021-02-05_di_300-prng-1-w1-p2,daily_issda-300,300,first-300,70,23,rng,num-start-211,211,536,classic,6.981457710266113,True,,True,1.0,1.0,1.0,1,"Index(['11', '16', '20', '23', '30', '33', '37', '44', '45', '46', '50', '56',
       '59', '65', '70', '71', '73', '76', '77', '82', '99', '100', '102',
       '107', '108', '117', '120', '121', '127', '133', '137', '146', '147',
       '159', '161', '174', '183', '190', '193', '194', '195', '198', '200',
       '206', '207', '209', '219', '228', '233', '234', '236', '243', '249',
       '250', '251', '254', '255', '258', '260', '262', '265', '267', '271',
       '273', '277', '286', '294', '297', '298', '300'],
      dtype='object')",False,1000,True,2,9dd59ed927,1.0,1.0
./expes/v3_2021-02-05_di_300-prng-1-w1-p2,daily_issda-300,300,first-300,98,32,rng,num-start-121,121,536,classic,9.293009042739868,True,,True,1.0,1.0,1.0,1,"Index(['2', '3', '5', '7', '12', '14', '15', '16', '18', '23', '29', '33',
       '45', '49', '52', '53', '56', '61', '62', '67', '69', '84', '87', '88',
       '89', '96', '98', '103', '106', '108', '111', '113', '114', '117',
       '118', '119', '120', '125', '131', '137', '138', '146', '149', '152',
       '156', '158', '163', '171', '177', '181', '187', '188', '190', '192',
       '195', '196', '197', '200', '202', '207', '208', '212', '213', '214',
       '217', '219', '222', '225', '229', '231', '236', '241', '242', '246',
       '247', '250', '251', '254', '256', '257', '258', '259', '260', '261',
       '263', '264', '266', '267', '271', '277', '278', '281', '284', '285',
       '288', '292', '296', '297'],
      dtype='object')",False,1000,True,2,b4976e2f2b,1.0,1.0
./expes/v3_2021-02-05_di_300-prng-1-w1-p2,daily_issda-300,300,first-300,119,39,rng,num-start-111,111,536,classic,24.682198762893677,True,,True,1.0,1.0,1.0,1,"Index(['3', '4', '5', '6', '7', '8', '11', '12', '15', '16',
       ...
       '262', '265', '268', '270', '277', '278', '289', '294', '297', '299'],
      dtype='object', length=119)",False,1000,True,2,eb28dc1f20,1.0,1.0
./expes/v3_2021-02-05_di_300-prng-1-w1-p2,daily_issda-300,300,first-300,42,14,rng,num-start-51,51,536,classic,1001.5573945045471,False,,False,0,,,0,"Index(['7', '8', '16', '19', '22', '33', '34', '50', '67', '69', '70', '78',
       '82', '99', '112', '119', '120', '122', '133', '138', '155', '188',
       '190', '199', '200', '203', '204', '216', '219', '224', '228', '241',
       '243', '244', '254', '268', '277', '279', '282', '283', '296', '298'],
      dtype='object')",True,1000,True,2,16d9cf47bc,0.0,0.0
./expes/v3_2021-02-05_di_300-prng-1-w1-p2,daily_issda-300,300,first-300,133,44,rng,num-start-1,1,536,classic,1.5636675357818604,False,,False,0.31087531309324545,0.3060220816405117,0.3157285445459792,2,"Index(['1', '2', '4', '5', '6', '10', '13', '14', '15', '16',
       ...
       '270', '271', '277', '278', '280', '282', '285', '286', '294', '296'],
      dtype='object', length=133)",False,1000,True,2,2c9757b466,1.0,1.0
./expes/v3_2021-02-05_di_300-prng-1-w1-p2,daily_issda-300,300,first-300,105,35,rng,num-start-151,151,536,classic,5.441565752029419,True,,True,1.0,1.0,1.0,1,"Index(['1', '2', '3', '4', '5', '9', '10', '13', '14', '18',
       ...
       '276', '277', '284', '285', '287', '290', '294', '295', '297', '300'],
      dtype='object', length=105)",False,1000,True,2,2677ae0754,1.0,1.0
./expes/v3_2021-02-05_di_300-prng-1-w1-p2,daily_issda-300,300,first-300,91,30,rng,num-start-201,201,536,classic,7.583539009094238,True,,True,1.0,1.0,1.0,1,"Index(['4', '10', '11', '14', '22', '23', '24', '31', '32', '35', '42', '43',
       '45', '46', '47', '52', '53', '55', '63', '75', '79', '80', '83', '85',
       '89', '91', '92', '95', '100', '101', '102', '104', '110', '114', '118',
       '120', '121', '122', '127', '128', '133', '134', '135', '140', '142',
       '143', '144', '147', '148', '149', '150', '154', '156', '157', '159',
       '160', '165', '166', '168', '170', '173', '176', '183', '185', '191',
       '199', '203', '206', '211', '212', '217', '221', '224', '226', '232',
       '236', '237', '242', '243', '246', '260', '261', '266', '267', '274',
       '275', '281', '282', '286', '294', '299'],
      dtype='object')",False,1000,True,2,af455c4da7,1.0,1.0
./expes/v3_2021-02-05_di_300-prng-1-w1-p2,daily_issda-300,300,first-300,133,44,rng,num-start-101,101,536,classic,1003.0277740955353,False,,False,0,,,0,"Index(['3', '4', '5', '6', '10', '24', '30', '34', '40', '41',
       ...
       '283', '285', '286', '287', '290', '291', '293', '294', '295', '297'],
      dtype='object', length=133)",True,1000,True,2,94cef0f8ab,0.0,0.0
./expes/v3_2021-02-05_di_300-prng-1-w1-p2,daily_issda-300,300,first-300,105,35,rng,num-start-11,11,536,classic,1000.3462505340576,False,,False,0,,,0,"Index(['12', '20', '21', '24', '25', '26', '30', '31', '32', '33',
       ...
       '289', '290', '293', '294', '295', '296', '297', '298', '299', '300'],
      dtype='object', length=105)",True,1000,True,2,0608874f79,0.0,0.0
./expes/v3_2021-02-05_di_300-prng-1-w1-p2,daily_issda-300,300,first-300,49,16,rng,num-start-291,291,536,classic,9.690253496170044,True,,True,1.0,1.0,1.0,1,"Index(['2', '3', '4', '13', '21', '23', '27', '29', '33', '42', '45', '53',
       '57', '58', '63', '68', '71', '72', '81', '87', '96', '102', '103',
       '105', '108', '115', '122', '137', '144', '150', '172', '174', '175',
       '192', '194', '195', '197', '204', '211', '216', '217', '218', '232',
       '238', '252', '258', '260', '284', '297'],
      dtype='object')",False,1000,True,2,fff9c492a1,1.0,1.0
./expes/v3_2021-02-05_di_300-prng-1-w1-p2,daily_issda-300,300,first-300,112,37,rng,num-start-141,141,536,classic,5.706081867218018,True,,True,1.0,1.0,1.0,1,"Index(['3', '4', '5', '10', '30', '41', '45', '46', '48', '52',
       ...
       '281', '283', '285', '286', '287', '291', '293', '294', '295', '297'],
      dtype='object', length=112)",False,1000,True,2,c5dcb65969,1.0,1.0
./expes/v3_2021-02-05_di_300-prng-1-w1-p2,daily_issda-300,300,first-300,35,11,rng,num-start-181,181,536,classic,6.624145746231079,True,,True,1.0,1.0,1.0,1,"Index(['8', '16', '37', '44', '61', '65', '67', '70', '72', '76', '96', '110',
       '116', '119', '120', '132', '133', '135', '142', '149', '151', '161',
       '178', '183', '187', '220', '221', '224', '230', '231', '250', '273',
       '282', '284', '289'],
      dtype='object')",False,1000,True,2,2ab685b899,1.0,1.0
./expes/v3_2021-02-05_di_300-prng-1-w1-p2,daily_issda-300,300,first-300,140,46,rng,num-start-111,111,536,classic,599.0031464099884,True,,True,1.0,1.0,1.0,1,"Index(['2', '4', '5', '9', '12', '13', '14', '17', '21', '23',
       ...
       '278', '280', '281', '284', '288', '292', '293', '296', '297', '300'],
      dtype='object', length=140)",False,1000,True,2,55f236c7fe,1.0,1.0
./expes/v3_2021-02-05_di_300-prng-1-w1-p2,daily_issda-300,300,first-300,105,35,rng,num-start-111,111,536,classic,9.93352460861206,True,,True,1.0,1.0,1.0,1,"Index(['2', '4', '5', '9', '12', '14', '21', '23', '24', '35',
       ...
       '267', '271', '278', '280', '281', '292', '293', '296', '297', '300'],
      dtype='object', length=105)",False,1000,True,2,735c5f2097,1.0,1.0
./expes/v3_2021-02-05_di_300-prng-1-w1-p2,daily_issda-300,300,first-300,91,30,rng,num-start-231,231,536,classic,9.245958089828491,True,,True,1.0,1.0,1.0,1,"Index(['3', '5', '10', '11', '14', '26', '27', '28', '30', '32', '33', '36',
       '39', '42', '48', '49', '57', '60', '64', '67', '71', '72', '73', '78',
       '83', '88', '90', '94', '99', '101', '102', '108', '109', '110', '123',
       '128', '129', '130', '133', '137', '140', '142', '143', '149', '156',
       '157', '158', '159', '162', '163', '164', '170', '171', '172', '173',
       '179', '182', '185', '188', '191', '192', '197', '201', '206', '207',
       '208', '210', '213', '215', '222', '240', '243', '245', '249', '257',
       '260', '268', '269', '270', '273', '275', '277', '283', '284', '285',
       '286', '287', '289', '293', '295', '297'],
      dtype='object')",False,1000,True,2,37ac0af100,1.0,1.0
./expes/v3_2021-02-05_di_300-prng-1-w1-p2,daily_issda-300,300,first-300,119,39,rng,num-start-161,161,536,classic,6.051352500915527,True,,True,1.0,1.0,1.0,1,"Index(['1', '2', '3', '5', '7', '10', '12', '15', '17', '19',
       ...
       '269', '272', '274', '277', '279', '280', '282', '289', '294', '297'],
      dtype='object', length=119)",False,1000,True,2,d626d35840,1.0,1.0
./expes/v3_2021-02-05_di_300-prng-1-w1-p2,daily_issda-300,300,first-300,63,21,rng,num-start-21,21,536,classic,1000.6511845588684,False,,False,0,,,0,"Index(['4', '46', '52', '59', '61', '63', '68', '75', '83', '87', '90', '93',
       '94', '98', '101', '102', '103', '104', '106', '111', '113', '121',
       '122', '123', '130', '133', '136', '139', '140', '145', '152', '154',
       '156', '167', '172', '174', '176', '178', '188', '208', '209', '224',
       '230', '235', '241', '245', '246', '251', '252', '253', '254', '257',
       '260', '263', '268', '270', '274', '276', '279', '283', '291', '294',
       '295'],
      dtype='object')",True,1000,True,2,d347d9aa6e,0.0,0.0
./expes/v3_2021-02-05_di_300-prng-1-w1-p2,daily_issda-300,300,first-300,70,23,rng,num-start-151,151,536,classic,5.457973480224609,True,,True,1.0,1.0,1.0,1,"Index(['3', '10', '14', '26', '27', '30', '32', '33', '36', '42', '49', '57',
       '60', '64', '67', '71', '72', '73', '78', '88', '90', '99', '101',
       '108', '110', '123', '128', '129', '130', '137', '142', '143', '149',
       '156', '158', '159', '163', '164', '170', '171', '173', '179', '182',
       '185', '188', '191', '192', '197', '206', '208', '210', '213', '215',
       '222', '243', '245', '257', '260', '268', '270', '273', '277', '283',
       '284', '285', '286', '287', '293', '295', '297'],
      dtype='object')",False,1000,True,2,9ce4ccb2d9,1.0,1.0
./expes/v3_2021-02-05_di_300-prng-1-w1-p2,daily_issda-300,300,first-300,91,30,rng,num-start-201,201,536,classic,7.2164833545684814,True,,True,1.0,1.0,1.0,1,"Index(['3', '4', '5', '6', '7', '8', '11', '12', '15', '17', '23', '24', '25',
       '34', '37', '41', '43', '45', '48', '52', '54', '59', '60', '63', '73',
       '74', '76', '79', '80', '85', '89', '92', '113', '114', '115', '117',
       '119', '121', '122', '123', '125', '126', '130', '131', '133', '138',
       '145', '146', '151', '152', '155', '156', '159', '163', '164', '172',
       '179', '186', '190', '192', '199', '202', '205', '208', '210', '214',
       '216', '217', '228', '229', '233', '234', '236', '238', '241', '244',
       '245', '247', '251', '252', '254', '256', '262', '265', '268', '270',
       '277', '278', '289', '297', '299'],
      dtype='object')",False,1000,True,2,c8656c7348,1.0,1.0
./expes/v3_2021-02-05_di_300-prng-1-w1-p2,daily_issda-300,300,first-300,77,25,rng,num-start-11,11,536,classic,1000.3593137264252,False,,False,0,,,0,"Index(['3', '5', '10', '14', '26', '27', '28', '30', '32', '33', '36', '42',
       '49', '57', '60', '64', '67', '71', '72', '73', '78', '88', '90', '99',
       '101', '102', '108', '110', '123', '128', '129', '130', '133', '137',
       '140', '142', '143', '149', '156', '158', '159', '163', '164', '170',
       '171', '172', '173', '179', '182', '185', '188', '191', '192', '197',
       '206', '208', '210', '213', '215', '222', '240', '243', '245', '257',
       '260', '268', '270', '273', '277', '283', '284', '285', '286', '287',
       '293', '295', '297'],
      dtype='object')",True,1000,True,2,53b47214b9,0.0,0.0
./expes/v3_2021-02-05_di_300-prng-1-w1-p2,daily_issda-300,300,first-300,119,39,rng,num-start-51,51,536,classic,1001.5072166919708,False,,False,0,,,0,"Index(['1', '8', '9', '12', '14', '17', '19', '20', '21', '24',
       ...
       '277', '279', '281', '283', '287', '291', '294', '295', '297', '299'],
      dtype='object', length=119)",True,1000,True,2,c7f58219a5,0.0,0.0
./expes/v3_2021-02-05_di_300-prng-1-w1-p2,daily_issda-300,300,first-300,98,32,rng,num-start-111,111,536,classic,12.802934646606445,True,,True,1.0,1.0,1.0,1,"Index(['2', '8', '16', '19', '20', '22', '23', '36', '37', '38', '40', '44',
       '48', '58', '61', '63', '65', '67', '68', '70', '71', '72', '73', '76',
       '82', '85', '86', '91', '92', '94', '96', '99', '100', '104', '109',
       '110', '116', '119', '120', '121', '122', '129', '130', '132', '133',
       '135', '138', '142', '144', '149', '151', '152', '155', '160', '161',
       '175', '176', '178', '180', '183', '184', '187', '188', '191', '192',
       '200', '203', '209', '212', '218', '220', '221', '224', '226', '228',
       '230', '231', '236', '238', '241', '250', '252', '255', '267', '268',
       '270', '273', '275', '279', '282', '284', '285', '289', '290', '292',
       '296', '298', '299'],
      dtype='object')",False,1000,True,2,ea8cff6929,1.0,1.0
./expes/v3_2021-02-05_di_300-prng-1-w1-p2,daily_issda-300,300,first-300,14,4,rng,num-start-271,271,536,classic,8.713817834854126,True,,True,1.0,1.0,1.0,1,"Index(['15', '33', '49', '61', '69', '108', '131', '195', '200', '231', '242',
       '250', '254', '292'],
      dtype='object')",False,1000,True,2,82e8e6f10f,1.0,1.0
./expes/v3_2021-02-05_di_300-prng-1-w1-p2,daily_issda-300,300,first-300,14,4,rng,num-start-81,81,536,classic,2.925467014312744,True,,True,1.0,1.0,1.0,1,"Index(['3', '6', '114', '117', '122', '133', '146', '152', '186', '210', '214',
       '229', '241', '247'],
      dtype='object')",False,1000,True,2,c7394f691c,1.0,1.0
./expes/v3_2021-02-05_di_300-prng-1-w1-p2,daily_issda-300,300,first-300,28,9,rng,num-start-241,241,536,classic,8.110180139541626,True,,True,1.0,1.0,1.0,1,"Index(['2', '5', '12', '14', '15', '16', '33', '49', '53', '61', '69', '108',
       '111', '118', '131', '137', '163', '195', '196', '200', '222', '229',
       '231', '242', '250', '254', '278', '292'],
      dtype='object')",False,1000,True,2,c1f14394d9,1.0,1.0
./expes/v3_2021-02-05_di_300-prng-1-w1-p2,daily_issda-300,300,first-300,49,16,rng,num-start-31,31,536,classic,1001.005658864975,False,,False,0,,,0,"Index(['2', '3', '4', '13', '21', '23', '27', '29', '33', '42', '45', '53',
       '57', '58', '63', '68', '71', '72', '81', '87', '96', '102', '103',
       '105', '108', '115', '122', '137', '144', '150', '172', '174', '175',
       '192', '194', '195', '197', '204', '211', '216', '217', '218', '232',
       '238', '252', '258', '260', '284', '297'],
      dtype='object')",True,1000,True,2,6c3f4d68fd,0.0,0.0
./expes/v3_2021-02-05_di_300-prng-1-w1-p2,daily_issda-300,300,first-300,133,44,rng,num-start-201,201,536,classic,7.780909538269043,True,,True,1.0,1.0,1.0,1,"Index(['1', '4', '7', '8', '9', '10', '11', '12', '15', '16',
       ...
       '277', '283', '284', '286', '287', '289', '292', '294', '295', '297'],
      dtype='object', length=133)",False,1000,True,2,2dcbc913c9,1.0,1.0
./expes/v3_2021-02-05_di_300-prng-1-w1-p2,daily_issda-300,300,first-300,105,35,rng,num-start-81,81,536,classic,1002.4395017623901,False,,False,0,,,0,"Index(['1', '6', '10', '11', '13', '15', '18', '22', '35', '36',
       ...
       '268', '270', '272', '274', '283', '287', '292', '293', '297', '299'],
      dtype='object', length=105)",True,1000,True,2,b265ff8abe,0.0,0.0
./expes/v3_2021-02-05_di_300-prng-1-w1-p2,daily_issda-300,300,first-300,77,25,rng,num-start-101,101,536,classic,104.54442834854126,True,,True,1.0,1.0,1.0,1,"Index(['1', '6', '10', '14', '15', '16', '17', '23', '27', '31', '32', '39',
       '43', '45', '47', '58', '59', '70', '74', '75', '84', '88', '92', '99',
       '103', '105', '108', '114', '115', '117', '121', '130', '134', '138',
       '141', '159', '161', '172', '173', '174', '180', '183', '186', '187',
       '189', '191', '192', '196', '197', '198', '199', '206', '208', '215',
       '217', '219', '221', '226', '228', '236', '241', '243', '245', '248',
       '257', '260', '261', '262', '263', '266', '271', '277', '278', '285',
       '286', '294', '296'],
      dtype='object')",False,1000,True,2,21d1954ec1,1.0,1.0
./expes/v3_2021-02-05_di_300-prng-1-w1-p2,daily_issda-300,300,first-300,112,37,rng,num-start-221,221,536,classic,7.734919309616089,True,,True,1.0,1.0,1.0,1,"Index(['3', '4', '5', '10', '30', '41', '45', '46', '48', '52',
       ...
       '281', '283', '285', '286', '287', '291', '293', '294', '295', '297'],
      dtype='object', length=112)",False,1000,True,2,4e4ad3a747,1.0,1.0
./expes/v3_2021-02-05_di_300-prng-1-w1-p2,daily_issda-300,300,first-300,84,28,rng,num-start-131,131,536,classic,6.387507677078247,True,,True,1.0,1.0,1.0,1,"Index(['6', '10', '11', '15', '35', '36', '38', '43', '46', '48', '49', '53',
       '55', '58', '59', '61', '63', '74', '77', '83', '85', '87', '93', '100',
       '105', '112', '115', '121', '127', '131', '132', '134', '135', '137',
       '139', '141', '143', '144', '145', '150', '156', '159', '162', '173',
       '178', '183', '184', '185', '187', '189', '196', '198', '202', '204',
       '207', '208', '211', '214', '217', '218', '224', '225', '226', '231',
       '232', '234', '236', '239', '242', '243', '246', '249', '250', '251',
       '257', '264', '265', '270', '274', '283', '292', '293', '297', '299'],
      dtype='object')",False,1000,True,2,e1f7388eae,1.0,1.0
./expes/v3_2021-02-05_di_300-prng-1-w1-p2,daily_issda-300,300,first-300,112,37,rng,num-start-181,181,536,classic,7.062275409698486,True,,True,1.0,1.0,1.0,1,"Index(['3', '5', '10', '11', '14', '26', '27', '28', '30', '32',
       ...
       '279', '283', '284', '285', '286', '287', '289', '293', '295', '297'],
      dtype='object', length=112)",False,1000,True,2,6f3d5c0a8e,1.0,1.0
./expes/v3_2021-02-05_di_300-prng-1-w1-p2,daily_issda-300,300,first-300,7,2,rng,num-start-191,191,536,classic,6.566602945327759,True,,True,1.0,1.0,1.0,1,"Index(['1', '19', '42', '75', '134', '249', '294'], dtype='object')",False,1000,True,2,6d78424039,1.0,1.0
./expes/v3_2021-02-05_di_300-prng-1-w1-p2,daily_issda-300,300,first-300,119,39,rng,num-start-51,51,536,classic,1001.5142660140991,False,,False,0,,,0,"Index(['3', '7', '12', '20', '21', '24', '25', '26', '30', '31',
       ...
       '289', '290', '293', '294', '295', '296', '297', '298', '299', '300'],
      dtype='object', length=119)",True,1000,True,2,2308e0a407,0.0,0.0
./expes/v3_2021-02-05_di_300-prng-1-w1-p2,daily_issda-300,300,first-300,21,7,rng,num-start-21,21,536,classic,1000.725150346756,False,,False,0,,,0,"Index(['20', '25', '30', '36', '38', '45', '47', '49', '78', '110', '124',
       '166', '188', '203', '215', '218', '223', '260', '275', '283', '299'],
      dtype='object')",True,1000,True,2,d317e99142,0.0,0.0
./expes/v3_2021-02-05_di_300-prng-1-w1-p2,daily_issda-300,300,first-300,56,18,rng,num-start-221,221,536,classic,7.724462270736694,True,,True,1.0,1.0,1.0,1,"Index(['3', '8', '17', '18', '19', '23', '34', '37', '39', '69', '72', '81',
       '83', '90', '100', '106', '115', '121', '123', '128', '135', '143',
       '146', '155', '156', '161', '167', '168', '182', '185', '186', '188',
       '193', '196', '212', '216', '220', '224', '226', '231', '234', '237',
       '241', '248', '251', '252', '255', '257', '267', '274', '275', '282',
       '293', '296', '299', '300'],
      dtype='object')",False,1000,True,2,e4f550fbe5,1.0,1.0
./expes/v3_2021-02-05_di_300-prng-1-w1-p2,daily_issda-300,300,first-300,7,2,rng,num-start-61,61,536,classic,2.110872268676758,True,,True,1.0,1.0,1.0,1,"Index(['4', '71', '96', '137', '174', '192', '238'], dtype='object')",False,1000,True,2,6b8c0e3a0c,1.0,1.0
./expes/v3_2021-02-05_di_300-prng-1-w1-p2,daily_issda-300,300,first-300,7,2,rng,num-start-161,161,536,classic,5.42764949798584,True,,True,1.0,1.0,1.0,1,"Index(['6', '74', '138', '180', '196', '243', '271'], dtype='object')",False,1000,True,2,0dfeea34b7,1.0,1.0
./expes/v3_2021-02-05_di_300-prng-1-w1-p2,daily_issda-300,300,first-300,126,42,rng,num-start-21,21,536,classic,1000.6713149547577,False,,False,0,,,0,"Index(['3', '4', '5', '6', '10', '24', '30', '34', '40', '41',
       ...
       '283', '285', '286', '287', '290', '291', '293', '294', '295', '297'],
      dtype='object', length=126)",True,1000,True,2,22ef19f218,0.0,0.0
./expes/v3_2021-02-05_di_300-prng-1-w1-p2,daily_issda-300,300,first-300,49,16,rng,num-start-51,51,536,classic,1001.6606249809265,False,,False,0,,,0,"Index(['1', '8', '21', '32', '33', '38', '48', '49', '51', '52', '72', '76',
       '98', '105', '112', '114', '123', '125', '129', '133', '134', '145',
       '156', '159', '162', '167', '170', '171', '182', '184', '198', '205',
       '208', '216', '223', '227', '242', '245', '249', '253', '259', '262',
       '267', '273', '281', '283', '287', '291', '299'],
      dtype='object')",True,1000,True,2,690ab73daf,0.0,0.0
./expes/v3_2021-02-05_di_300-prng-1-w1-p2,daily_issda-300,300,first-300,91,30,rng,num-start-121,121,536,classic,9.572999954223633,True,,True,1.0,1.0,1.0,1,"Index(['2', '8', '16', '20', '22', '23', '36', '37', '38', '44', '48', '58',
       '61', '65', '67', '68', '70', '71', '72', '73', '76', '82', '85', '86',
       '91', '92', '94', '96', '99', '100', '104', '109', '110', '116', '119',
       '120', '121', '122', '129', '130', '132', '133', '135', '142', '144',
       '149', '151', '152', '160', '161', '175', '176', '178', '180', '183',
       '184', '187', '188', '191', '192', '200', '203', '212', '218', '220',
       '221', '224', '226', '228', '230', '231', '236', '238', '250', '252',
       '255', '267', '268', '270', '273', '275', '279', '282', '284', '285',
       '289', '290', '292', '296', '298', '299'],
      dtype='object')",False,1000,True,2,5599c1eb4d,1.0,1.0
./expes/v3_2021-02-05_di_300-prng-1-w1-p2,daily_issda-300,300,first-300,119,39,rng,num-start-231,231,536,classic,8.184346199035645,True,,True,1.0,1.0,1.0,1,"Index(['1', '4', '7', '8', '9', '10', '12', '15', '16', '19',
       ...
       '271', '276', '277', '284', '286', '287', '289', '292', '294', '295'],
      dtype='object', length=119)",False,1000,True,2,dc81786343,1.0,1.0
./expes/v3_2021-02-05_di_300-prng-1-w1-p2,daily_issda-300,300,first-300,28,9,rng,num-start-101,101,536,classic,3.68440580368042,True,,True,1.0,1.0,1.0,1,"Index(['2', '5', '12', '14', '15', '16', '33', '49', '53', '61', '69', '108',
       '111', '118', '131', '137', '163', '195', '196', '200', '222', '229',
       '231', '242', '250', '254', '278', '292'],
      dtype='object')",False,1000,True,2,72888c631a,1.0,1.0
./expes/v3_2021-02-05_di_300-prng-1-w1-p2,daily_issda-300,300,first-300,84,28,rng,num-start-171,171,536,classic,6.4060118198394775,True,,True,1.0,1.0,1.0,1,"Index(['1', '6', '10', '14', '15', '16', '17', '19', '23', '27', '31', '32',
       '39', '40', '43', '45', '47', '53', '58', '59', '70', '74', '75', '84',
       '88', '92', '99', '103', '105', '108', '113', '114', '115', '117',
       '121', '130', '134', '138', '141', '142', '159', '161', '172', '173',
       '174', '180', '183', '186', '187', '189', '191', '192', '196', '197',
       '198', '199', '206', '208', '215', '217', '219', '221', '222', '226',
       '228', '236', '241', '243', '245', '248', '257', '260', '261', '262',
       '263', '266', '271', '277', '278', '282', '285', '286', '294', '296'],
      dtype='object')",False,1000,True,2,72ae1c010f,1.0,1.0
./expes/v3_2021-02-05_di_300-prng-1-w1-p2,daily_issda-300,300,first-300,140,46,rng,num-start-111,111,536,classic,26.211185693740845,True,,True,1.0,1.0,1.0,1,"Index(['1', '2', '3', '5', '7', '8', '9', '12', '13', '14',
       ...
       '281', '282', '283', '284', '285', '288', '292', '296', '297', '300'],
      dtype='object', length=140)",False,1000,True,2,acdc4bb322,1.0,1.0
./expes/v3_2021-02-05_di_300-prng-1-w1-p2,daily_issda-300,300,first-300,91,30,rng,num-start-21,21,536,classic,1000.6314940452576,False,,False,0,,,0,"Index(['2', '3', '5', '7', '12', '14', '15', '16', '18', '23', '33', '45',
       '49', '52', '53', '56', '61', '62', '67', '69', '84', '87', '88', '89',
       '96', '98', '103', '108', '111', '113', '114', '117', '118', '119',
       '120', '125', '131', '137', '138', '146', '149', '152', '156', '158',
       '163', '171', '177', '181', '188', '190', '192', '195', '196', '197',
       '200', '202', '207', '208', '213', '214', '217', '222', '225', '229',
       '231', '236', '241', '242', '246', '250', '251', '254', '256', '257',
       '258', '259', '260', '261', '263', '264', '266', '267', '271', '277',
       '278', '281', '284', '285', '292', '296', '297'],
      dtype='object')",True,1000,True,2,f0f2533df6,0.0,0.0
./expes/v3_2021-02-05_di_300-prng-1-w1-p2,daily_issda-300,300,first-300,49,16,rng,num-start-261,261,536,classic,9.223618984222412,True,,True,1.0,1.0,1.0,1,"Index(['2', '5', '12', '14', '15', '16', '33', '49', '52', '53', '61', '62',
       '69', '96', '98', '108', '111', '113', '114', '118', '119', '120',
       '131', '137', '149', '152', '163', '171', '177', '195', '196', '200',
       '214', '217', '222', '225', '229', '231', '236', '242', '250', '254',
       '257', '260', '271', '278', '284', '285', '292'],
      dtype='object')",False,1000,True,2,cad0ba1cf6,1.0,1.0
./expes/v3_2021-02-05_di_300-prng-1-w1-p2,daily_issda-300,300,first-300,98,32,rng,num-start-221,221,536,classic,7.683406352996826,True,,True,1.0,1.0,1.0,1,"Index(['4', '7', '8', '11', '15', '16', '17', '19', '22', '23', '24', '33',
       '34', '35', '40', '46', '50', '53', '54', '56', '61', '64', '67', '69',
       '70', '71', '78', '80', '82', '84', '99', '102', '109', '112', '119',
       '120', '121', '122', '133', '135', '137', '138', '143', '144', '146',
       '150', '151', '155', '159', '161', '168', '170', '173', '174', '177',
       '180', '185', '188', '190', '193', '194', '198', '199', '200', '203',
       '204', '209', '211', '213', '216', '219', '224', '228', '236', '241',
       '243', '244', '247', '248', '254', '259', '260', '267', '268', '274',
       '275', '277', '278', '279', '282', '283', '287', '292', '293', '294',
       '296', '298', '300'],
      dtype='object')",False,1000,True,2,9eaf867032,1.0,1.0
./expes/v3_2021-02-05_di_300-prng-1-w1-p2,daily_issda-300,300,first-300,70,23,rng,num-start-41,41,536,classic,1001.2240545749664,False,,False,0,,,0,"Index(['4', '11', '14', '23', '24', '31', '35', '42', '45', '46', '47', '53',
       '55', '75', '80', '83', '85', '89', '92', '95', '100', '101', '104',
       '110', '114', '120', '121', '127', '128', '133', '134', '135', '140',
       '142', '144', '148', '149', '150', '154', '156', '157', '159', '160',
       '173', '176', '183', '185', '191', '199', '203', '206', '212', '217',
       '221', '224', '226', '232', '237', '242', '243', '246', '260', '261',
       '266', '267', '274', '275', '281', '282', '294'],
      dtype='object')",True,1000,True,2,7b1d9a827e,0.0,0.0
./expes/v3_2021-02-05_di_300-prng-1-w1-p2,daily_issda-300,300,first-300,28,9,rng,num-start-281,281,536,classic,9.237105369567871,True,,True,1.0,1.0,1.0,1,"Index(['8', '16', '37', '44', '65', '67', '72', '76', '96', '110', '116',
       '119', '120', '132', '133', '135', '142', '149', '151', '183', '220',
       '221', '224', '231', '250', '273', '282', '289'],
      dtype='object')",False,1000,True,2,a120161370,1.0,1.0
./expes/v3_2021-02-05_di_300-prng-1-w1-p2,daily_issda-300,300,first-300,42,14,rng,num-start-281,281,536,classic,9.605877876281738,True,,True,1.0,1.0,1.0,1,"Index(['1', '12', '15', '19', '24', '42', '46', '48', '49', '50', '75', '99',
       '100', '101', '102', '103', '129', '134', '136', '140', '150', '164',
       '172', '185', '186', '192', '210', '212', '218', '228', '241', '249',
       '250', '251', '258', '264', '276', '277', '284', '289', '294', '295'],
      dtype='object')",False,1000,True,2,c86642c330,1.0,1.0
./expes/v3_2021-02-05_di_300-prng-1-w1-p2,daily_issda-300,300,first-300,140,46,rng,num-start-51,51,536,classic,1001.5727219581604,False,,False,0,,,0,"Index(['1', '2', '3', '4', '5', '7', '8', '9', '10', '13',
       ...
       '277', '284', '285', '287', '288', '290', '294', '295', '297', '300'],
      dtype='object', length=140)",True,1000,True,2,a9afd501aa,0.0,0.0
./expes/v3_2021-02-05_di_300-prng-1-w1-p2,daily_issda-300,300,first-300,49,16,rng,num-start-71,71,536,classic,24.097668886184692,True,,True,1.0,1.0,1.0,1,"Index(['1', '8', '21', '32', '33', '38', '48', '49', '51', '52', '72', '76',
       '98', '105', '112', '114', '123', '125', '129', '133', '134', '145',
       '156', '159', '162', '167', '170', '171', '182', '184', '198', '205',
       '208', '216', '223', '227', '242', '245', '249', '253', '259', '262',
       '267', '273', '281', '283', '287', '291', '299'],
      dtype='object')",False,1000,True,2,be7999b10a,1.0,1.0
./expes/v3_2021-02-05_di_300-prng-1-w1-p2,daily_issda-300,300,first-300,140,46,rng,num-start-171,171,536,classic,6.021777391433716,True,,True,1.0,1.0,1.0,1,"Index(['4', '5', '10', '11', '14', '17', '19', '21', '22', '23',
       ...
       '274', '275', '280', '281', '282', '286', '290', '293', '294', '299'],
      dtype='object', length=140)",False,1000,True,2,f7f698dab5,1.0,1.0
./expes/v3_2021-02-05_di_300-prng-1-w1-p2,daily_issda-300,300,first-300,126,42,rng,num-start-41,41,536,classic,1001.2397480010986,False,,False,0,,,0,"Index(['4', '5', '10', '11', '14', '19', '21', '22', '23', '24',
       ...
       '271', '274', '275', '280', '281', '282', '286', '293', '294', '299'],
      dtype='object', length=126)",True,1000,True,2,df5bae643a,0.0,0.0
./expes/v3_2021-02-05_di_300-prng-1-w1-p2,daily_issda-300,300,first-300,28,9,rng,num-start-281,281,536,classic,9.14307689666748,True,,True,1.0,1.0,1.0,1,"Index(['8', '17', '18', '23', '39', '72', '83', '90', '106', '128', '135',
       '143', '146', '156', '168', '182', '185', '196', '216', '220', '234',
       '237', '248', '251', '252', '267', '293', '296'],
      dtype='object')",False,1000,True,2,372596332e,1.0,1.0
./expes/v3_2021-02-05_di_300-prng-1-w1-p2,daily_issda-300,300,first-300,35,11,rng,num-start-161,161,536,classic,5.673020362854004,True,,True,1.0,1.0,1.0,1,"Index(['1', '12', '19', '24', '42', '46', '48', '49', '50', '75', '99', '101',
       '102', '103', '129', '134', '136', '140', '150', '164', '172', '186',
       '192', '210', '212', '218', '228', '241', '249', '251', '276', '277',
       '284', '289', '294'],
      dtype='object')",False,1000,True,2,c6a1be8917,1.0,1.0
./expes/v3_2021-02-05_di_300-prng-1-w1-p2,daily_issda-300,300,first-300,140,46,rng,num-start-231,231,536,classic,8.28752613067627,True,,True,1.0,1.0,1.0,1,"Index(['1', '2', '3', '5', '7', '8', '9', '12', '13', '14',
       ...
       '281', '282', '283', '284', '285', '288', '292', '296', '297', '300'],
      dtype='object', length=140)",False,1000,True,2,fbb1962836,1.0,1.0
./expes/v3_2021-02-05_di_300-prng-1-w1-p2,daily_issda-300,300,first-300,84,28,rng,num-start-241,241,536,classic,8.258884906768799,True,,True,1.0,1.0,1.0,1,"Index(['20', '21', '24', '25', '26', '30', '31', '32', '33', '34', '36', '38',
       '40', '42', '45', '47', '48', '49', '50', '53', '61', '64', '69', '74',
       '78', '85', '93', '97', '106', '110', '114', '115', '124', '125', '128',
       '139', '148', '149', '154', '158', '159', '161', '166', '175', '176',
       '180', '186', '188', '191', '203', '204', '215', '216', '218', '219',
       '223', '230', '233', '234', '239', '243', '251', '254', '255', '260',
       '263', '269', '273', '275', '277', '281', '283', '286', '287', '289',
       '290', '293', '294', '295', '296', '297', '298', '299', '300'],
      dtype='object')",False,1000,True,2,65ade1dd2f,1.0,1.0
./expes/v3_2021-02-05_di_300-prng-1-w1-p2,daily_issda-300,300,first-300,140,46,rng,num-start-211,211,536,classic,8.105888366699219,True,,True,1.0,1.0,1.0,1,"Index(['1', '2', '3', '5', '7', '10', '12', '15', '17', '18',
       ...
       '274', '277', '279', '280', '281', '282', '287', '289', '294', '297'],
      dtype='object', length=140)",False,1000,True,2,963541ccf8,1.0,1.0
./expes/v3_2021-02-05_di_300-prng-1-w1-p2,daily_issda-300,300,first-300,63,21,rng,num-start-171,171,536,classic,5.99948787689209,True,,True,1.0,1.0,1.0,1,"Index(['1', '7', '9', '12', '15', '19', '24', '42', '46', '48', '49', '50',
       '60', '62', '71', '75', '87', '97', '99', '100', '101', '102', '103',
       '108', '115', '126', '129', '134', '136', '138', '140', '150', '156',
       '160', '164', '171', '172', '183', '185', '186', '192', '195', '210',
       '212', '218', '221', '228', '241', '248', '249', '250', '251', '257',
       '258', '264', '268', '269', '276', '277', '284', '289', '294', '295'],
      dtype='object')",False,1000,True,2,cab4004dbd,1.0,1.0
./expes/v3_2021-02-05_di_300-prng-1-w1-p2,daily_issda-300,300,first-300,28,9,rng,num-start-171,171,536,classic,6.030669927597046,True,,True,1.0,1.0,1.0,1,"Index(['7', '15', '27', '37', '53', '58', '65', '68', '72', '81', '82', '94',
       '111', '127', '128', '131', '144', '184', '191', '195', '200', '209',
       '228', '239', '241', '272', '279', '294'],
      dtype='object')",False,1000,True,2,ec179231ff,1.0,1.0
./expes/v3_2021-02-05_di_300-prng-1-w1-p2,daily_issda-300,300,first-300,126,42,rng,num-start-231,231,536,classic,8.660569429397583,True,,True,1.0,1.0,1.0,1,"Index(['1', '4', '5', '6', '10', '13', '14', '15', '16', '17',
       ...
       '270', '271', '277', '278', '280', '282', '285', '286', '294', '296'],
      dtype='object', length=126)",False,1000,True,2,27712c85f0,1.0,1.0
./expes/v3_2021-02-05_di_300-prng-1-w1-p2,daily_issda-300,300,first-300,91,30,rng,num-start-291,291,536,classic,9.899154424667358,True,,True,1.0,1.0,1.0,1,"Index(['2', '4', '9', '12', '14', '23', '24', '35', '37', '38', '39', '40',
       '44', '47', '51', '52', '54', '56', '59', '62', '66', '69', '71', '76',
       '82', '88', '90', '94', '99', '103', '104', '107', '108', '120', '126',
       '134', '135', '138', '141', '146', '149', '151', '154', '155', '158',
       '160', '167', '168', '178', '189', '193', '199', '200', '202', '203',
       '207', '209', '211', '213', '216', '217', '220', '224', '225', '226',
       '231', '232', '233', '234', '235', '237', '238', '239', '240', '244',
       '246', '253', '257', '258', '259', '262', '267', '271', '278', '280',
       '281', '292', '293', '296', '297', '300'],
      dtype='object')",False,1000,True,2,c430ddbc17,1.0,1.0
./expes/v3_2021-02-05_di_300-prng-1-w1-p2,daily_issda-300,300,first-300,14,4,rng,num-start-291,291,536,classic,9.166481494903564,True,,True,1.0,1.0,1.0,1,"Index(['4', '21', '42', '71', '87', '96', '137', '172', '174', '192', '195',
       '238', '258', '284'],
      dtype='object')",False,1000,True,2,72bcded5fa,1.0,1.0
./expes/v3_2021-02-05_di_300-prng-1-w1-p2,daily_issda-300,300,first-300,49,16,rng,num-start-141,141,536,classic,5.185682535171509,True,,True,1.0,1.0,1.0,1,"Index(['9', '12', '23', '37', '38', '51', '54', '56', '59', '62', '69', '71',
       '76', '82', '99', '103', '104', '107', '120', '134', '138', '149',
       '154', '160', '167', '168', '178', '199', '200', '202', '203', '209',
       '211', '213', '217', '226', '234', '253', '258', '262', '267', '271',
       '278', '280', '292', '293', '296', '297', '300'],
      dtype='object')",False,1000,True,2,f3e4274537,1.0,1.0
./expes/v3_2021-02-05_di_300-prng-1-w1-p2,daily_issda-300,300,first-300,28,9,rng,num-start-151,151,536,classic,5.6760945320129395,True,,True,1.0,1.0,1.0,1,"Index(['6', '9', '19', '29', '60', '76', '81', '106', '107', '115', '118',
       '119', '123', '135', '144', '157', '161', '174', '177', '182', '183',
       '189', '201', '216', '239', '262', '267', '296'],
      dtype='object')",False,1000,True,2,98cd8bd4b2,1.0,1.0
./expes/v3_2021-02-05_di_300-prng-1-w1-p2,daily_issda-300,300,first-300,98,32,rng,num-start-131,131,536,classic,9.084706544876099,True,,True,1.0,1.0,1.0,1,"Index(['1', '2', '3', '5', '7', '10', '12', '15', '19', '24', '27', '30', '34',
       '37', '41', '47', '48', '53', '56', '58', '61', '65', '68', '72', '75',
       '76', '77', '81', '82', '83', '85', '86', '91', '93', '94', '95', '101',
       '102', '105', '107', '108', '111', '126', '127', '128', '129', '131',
       '132', '136', '142', '144', '149', '152', '153', '155', '157', '159',
       '160', '161', '162', '163', '170', '174', '175', '177', '182', '184',
       '185', '186', '188', '189', '191', '193', '195', '197', '200', '207',
       '209', '213', '215', '222', '228', '232', '237', '239', '241', '242',
       '247', '248', '263', '269', '272', '277', '279', '280', '282', '294',
       '297'],
      dtype='object')",False,1000,True,2,445078688b,1.0,1.0
./expes/v3_2021-02-05_di_300-prng-1-w1-p2,daily_issda-300,300,first-300,14,4,rng,num-start-181,181,536,classic,6.308557033538818,True,,True,1.0,1.0,1.0,1,"Index(['3', '6', '114', '117', '122', '133', '146', '152', '186', '210', '214',
       '229', '241', '247'],
      dtype='object')",False,1000,True,2,7e19cb6f17,1.0,1.0
./expes/v3_2021-02-05_di_300-prng-1-w1-p2,daily_issda-300,300,first-300,21,7,rng,num-start-121,121,536,classic,4.400331497192383,True,,True,1.0,1.0,1.0,1,"Index(['16', '23', '44', '46', '65', '71', '99', '108', '117', '127', '190',
       '193', '200', '206', '207', '233', '236', '250', '254', '260', '294'],
      dtype='object')",False,1000,True,2,9d5e193c8c,1.0,1.0
./expes/v3_2021-02-05_di_300-prng-1-w1-p2,daily_issda-300,300,first-300,63,21,rng,num-start-231,231,536,classic,7.933070659637451,True,,True,1.0,1.0,1.0,1,"Index(['7', '8', '15', '16', '19', '22', '33', '34', '50', '54', '64', '67',
       '69', '70', '78', '82', '84', '99', '109', '112', '119', '120', '122',
       '133', '137', '138', '144', '146', '155', '168', '173', '180', '188',
       '190', '198', '199', '200', '203', '204', '209', '216', '219', '224',
       '228', '241', '243', '244', '247', '254', '260', '268', '274', '277',
       '278', '279', '282', '283', '292', '293', '294', '296', '298', '300'],
      dtype='object')",False,1000,True,2,6c2a0423e9,1.0,1.0
./expes/v3_2021-02-05_di_300-prng-1-w1-p2,daily_issda-300,300,first-300,70,23,rng,num-start-191,191,536,classic,6.822527647018433,True,,True,1.0,1.0,1.0,1,"Index(['6', '9', '10', '19', '25', '29', '34', '38', '41', '52', '60', '72',
       '76', '78', '81', '85', '89', '92', '101', '106', '107', '115', '118',
       '119', '121', '123', '135', '144', '147', '152', '157', '159', '160',
       '161', '162', '163', '174', '177', '182', '183', '185', '189', '199',
       '201', '203', '206', '208', '215', '216', '225', '231', '234', '237',
       '239', '240', '244', '251', '252', '254', '257', '258', '262', '267',
       '272', '274', '279', '285', '290', '292', '296'],
      dtype='object')",False,1000,True,2,d3b2fc106e,1.0,1.0
./expes/v3_2021-02-05_di_300-prng-1-w1-p2,daily_issda-300,300,first-300,63,21,rng,num-start-11,11,536,classic,1000.3869304656982,False,,False,0,,,0,"Index(['3', '8', '17', '18', '19', '23', '34', '37', '39', '42', '50', '58',
       '69', '72', '77', '81', '83', '90', '100', '106', '115', '121', '123',
       '128', '135', '143', '146', '155', '156', '161', '167', '168', '182',
       '185', '186', '188', '192', '193', '196', '197', '212', '216', '220',
       '224', '226', '231', '234', '237', '241', '248', '251', '252', '255',
       '257', '267', '274', '275', '282', '291', '293', '296', '299', '300'],
      dtype='object')",True,1000,True,2,814c8f143f,0.0,0.0
./expes/v3_2021-02-05_di_300-prng-1-w1-p2,daily_issda-300,300,first-300,63,21,rng,num-start-111,111,536,classic,5.608998537063599,True,,True,1.0,1.0,1.0,1,"Index(['6', '15', '36', '38', '43', '46', '48', '49', '53', '55', '58', '59',
       '61', '63', '77', '83', '85', '87', '93', '100', '105', '112', '115',
       '127', '131', '134', '135', '139', '141', '143', '144', '145', '150',
       '156', '159', '162', '173', '184', '185', '187', '196', '198', '202',
       '204', '207', '211', '218', '225', '231', '232', '234', '239', '246',
       '249', '250', '257', '264', '265', '270', '274', '283', '297', '299'],
      dtype='object')",False,1000,True,2,cebd7edc77,1.0,1.0
./expes/v3_2021-02-05_di_300-prng-1-w1-p2,daily_issda-300,300,first-300,112,37,rng,num-start-281,281,536,classic,9.415527582168579,True,,True,1.0,1.0,1.0,1,"Index(['1', '8', '9', '12', '14', '17', '19', '20', '21', '24',
       ...
       '277', '279', '281', '283', '287', '291', '294', '295', '297', '299'],
      dtype='object', length=112)",False,1000,True,2,d30462c0a6,1.0,1.0
./expes/v3_2021-02-05_di_300-prng-1-w1-p2,daily_issda-300,300,first-300,42,14,rng,num-start-271,271,536,classic,8.865763902664185,True,,True,1.0,1.0,1.0,1,"Index(['3', '4', '6', '11', '12', '15', '23', '43', '45', '73', '79', '89',
       '113', '114', '115', '117', '122', '130', '133', '145', '146', '151',
       '152', '155', '159', '172', '179', '186', '210', '214', '216', '217',
       '229', '234', '238', '241', '247', '254', '265', '268', '289', '297'],
      dtype='object')",False,1000,True,2,2226380d2f,1.0,1.0
./expes/v3_2021-02-05_di_300-prng-1-w1-p2,daily_issda-300,300,first-300,98,32,rng,num-start-51,51,536,classic,1001.54034948349,False,,False,0,,,0,"Index(['12', '20', '21', '24', '25', '26', '30', '31', '32', '33', '34', '36',
       '38', '40', '42', '45', '47', '48', '49', '50', '53', '60', '61', '64',
       '67', '69', '74', '78', '85', '87', '93', '97', '106', '110', '112',
       '114', '115', '124', '125', '127', '128', '139', '146', '148', '149',
       '154', '158', '159', '161', '166', '175', '176', '178', '180', '182',
       '186', '188', '191', '198', '201', '203', '204', '215', '216', '218',
       '219', '223', '229', '230', '233', '234', '237', '239', '243', '251',
       '253', '254', '255', '260', '263', '269', '273', '275', '277', '281',
       '283', '286', '287', '289', '290', '293', '294', '295', '296', '297',
       '298', '299', '300'],
      dtype='object')",True,1000,True,2,2c412a729b,0.0,0.0
./expes/v3_2021-02-05_di_300-prng-1-w1-p2,daily_issda-300,300,first-300,42,14,rng,num-start-191,191,536,classic,6.677863121032715,True,,True,1.0,1.0,1.0,1,"Index(['13', '15', '19', '29', '44', '47', '70', '82', '85', '87', '89', '91',
       '94', '109', '119', '121', '129', '138', '158', '164', '167', '182',
       '185', '187', '191', '195', '202', '213', '217', '221', '228', '229',
       '239', '258', '261', '262', '264', '269', '270', '279', '287', '298'],
      dtype='object')",False,1000,True,2,a65440c67c,1.0,1.0
./expes/v3_2021-02-05_di_300-prng-1-w1-p2,daily_issda-300,300,first-300,140,46,rng,num-start-121,121,536,classic,11.439131259918213,True,,True,1.0,1.0,1.0,1,"Index(['1', '2', '3', '5', '7', '10', '12', '15', '17', '18',
       ...
       '274', '277', '279', '280', '281', '282', '287', '289', '294', '297'],
      dtype='object', length=140)",False,1000,True,2,9043445b96,1.0,1.0
./expes/v3_2021-02-05_di_300-prng-1-w1-p2,daily_issda-300,300,first-300,112,37,rng,num-start-161,161,536,classic,6.035957098007202,True,,True,1.0,1.0,1.0,1,"Index(['2', '3', '8', '16', '17', '19', '20', '22', '23', '36',
       ...
       '282', '284', '285', '287', '289', '290', '292', '296', '298', '299'],
      dtype='object', length=112)",False,1000,True,2,afd2f5eafe,1.0,1.0
./expes/v3_2021-02-05_di_300-prng-1-w1-p2,daily_issda-300,300,first-300,21,7,rng,num-start-1,1,536,classic,1.0562822818756104,False,,False,0.6297253052056069,0.6252090883909414,0.6342415220202724,2,"Index(['3', '6', '12', '73', '113', '114', '117', '122', '130', '133', '146',
       '152', '155', '159', '172', '186', '210', '214', '229', '241', '247'],
      dtype='object')",False,1000,True,2,a8f727379b,1.0,1.0
./expes/v3_2021-02-05_di_300-prng-1-w1-p2,daily_issda-300,300,first-300,28,9,rng,num-start-21,21,536,classic,1000.838990688324,False,,False,0,,,0,"Index(['3', '6', '11', '12', '15', '73', '79', '113', '114', '115', '117',
       '122', '130', '133', '146', '152', '155', '159', '172', '186', '210',
       '214', '216', '229', '234', '238', '241', '247'],
      dtype='object')",True,1000,True,2,a30e80cf86,0.0,0.0
./expes/v3_2021-02-05_di_300-prng-1-w1-p2,daily_issda-300,300,first-300,77,25,rng,num-start-21,21,536,classic,1000.6660747528076,False,,False,0,,,0,"Index(['3', '8', '17', '18', '19', '23', '34', '37', '39', '42', '50', '58',
       '62', '69', '72', '74', '77', '81', '83', '86', '90', '92', '98', '100',
       '106', '115', '121', '123', '126', '128', '135', '137', '141', '143',
       '146', '155', '156', '161', '167', '168', '179', '182', '185', '186',
       '188', '192', '193', '196', '197', '212', '213', '216', '220', '222',
       '224', '226', '227', '229', '231', '234', '237', '241', '248', '251',
       '252', '255', '257', '267', '268', '274', '275', '282', '291', '293',
       '296', '299', '300'],
      dtype='object')",True,1000,True,2,976a26e55d,0.0,0.0
./expes/v3_2021-02-05_di_300-prng-1-w1-p2,daily_issda-300,300,first-300,21,7,rng,num-start-21,21,536,classic,1000.73078083992,False,,False,0,,,0,"Index(['11', '31', '35', '47', '53', '55', '80', '89', '114', '121', '135',
       '142', '149', '156', '185', '203', '206', '246', '267', '275', '282'],
      dtype='object')",True,1000,True,2,4f57275eef,0.0,0.0
./expes/v3_2021-02-05_di_300-prng-1-w1-p2,daily_issda-300,300,first-300,14,4,rng,num-start-191,191,536,classic,6.627390623092651,True,,True,1.0,1.0,1.0,1,"Index(['8', '17', '18', '83', '106', '143', '220', '237', '248', '251', '252',
       '267', '293', '296'],
      dtype='object')",False,1000,True,2,eabab4dea5,1.0,1.0
./expes/v3_2021-02-05_di_300-prng-1-w1-p2,daily_issda-300,300,first-300,35,11,rng,num-start-271,271,536,classic,8.722843885421753,True,,True,1.0,1.0,1.0,1,"Index(['8', '16', '37', '44', '61', '65', '67', '70', '72', '76', '96', '110',
       '116', '119', '120', '132', '133', '135', '142', '149', '151', '161',
       '178', '183', '187', '220', '221', '224', '230', '231', '250', '273',
       '282', '284', '289'],
      dtype='object')",False,1000,True,2,461814c407,1.0,1.0
./expes/v3_2021-02-05_di_300-prng-1-w1-p2,daily_issda-300,300,first-300,14,4,rng,num-start-71,71,536,classic,2.6095757484436035,True,,True,1.0,1.0,1.0,1,"Index(['14', '57', '90', '128', '130', '143', '149', '156', '188', '197',
       '213', '215', '268', '277'],
      dtype='object')",False,1000,True,2,e21d674150,1.0,1.0
./expes/v3_2021-02-05_di_300-prng-1-w1-p2,daily_issda-300,300,first-300,112,37,rng,num-start-151,151,536,classic,5.497955799102783,True,,True,1.0,1.0,1.0,1,"Index(['1', '2', '3', '5', '7', '12', '14', '15', '16', '17',
       ...
       '281', '282', '283', '284', '285', '288', '292', '296', '297', '300'],
      dtype='object', length=112)",False,1000,True,2,8c5f3ff003,1.0,1.0
./expes/v3_2021-02-05_di_300-prng-1-w1-p2,daily_issda-300,300,first-300,56,18,rng,num-start-271,271,536,classic,9.243362188339233,True,,True,1.0,1.0,1.0,1,"Index(['1', '12', '15', '19', '24', '42', '46', '48', '49', '50', '60', '62',
       '71', '75', '99', '100', '101', '102', '103', '115', '126', '129',
       '134', '136', '138', '140', '150', '156', '160', '164', '172', '183',
       '185', '186', '192', '195', '210', '212', '218', '221', '228', '241',
       '248', '249', '250', '251', '257', '258', '264', '269', '276', '277',
       '284', '289', '294', '295'],
      dtype='object')",False,1000,True,2,39d3960e36,1.0,1.0
./expes/v3_2021-02-05_di_300-prng-1-w1-p2,daily_issda-300,300,first-300,63,21,rng,num-start-121,121,536,classic,8.751893758773804,True,,True,1.0,1.0,1.0,1,"Index(['2', '4', '9', '12', '14', '23', '37', '38', '47', '51', '54', '56',
       '59', '62', '69', '71', '76', '82', '94', '99', '103', '104', '107',
       '120', '126', '134', '138', '149', '154', '160', '167', '168', '178',
       '189', '199', '200', '202', '203', '209', '211', '213', '217', '220',
       '226', '233', '234', '235', '239', '246', '253', '257', '258', '262',
       '267', '271', '278', '280', '281', '292', '293', '296', '297', '300'],
      dtype='object')",False,1000,True,2,54c8e109a4,1.0,1.0
./expes/v3_2021-02-05_di_300-prng-1-w1-p2,daily_issda-300,300,first-300,98,32,rng,num-start-281,281,536,classic,10.779163360595703,True,,True,1.0,1.0,1.0,1,"Index(['12', '20', '21', '24', '25', '26', '30', '31', '32', '33', '34', '36',
       '38', '40', '42', '45', '47', '48', '49', '50', '53', '60', '61', '64',
       '67', '69', '74', '78', '85', '87', '93', '97', '106', '110', '112',
       '114', '115', '124', '125', '127', '128', '139', '146', '148', '149',
       '154', '158', '159', '161', '166', '175', '176', '178', '180', '182',
       '186', '188', '191', '198', '201', '203', '204', '215', '216', '218',
       '219', '223', '229', '230', '233', '234', '237', '239', '243', '251',
       '253', '254', '255', '260', '263', '269', '273', '275', '277', '281',
       '283', '286', '287', '289', '290', '293', '294', '295', '296', '297',
       '298', '299', '300'],
      dtype='object')",False,1000,True,2,0e58ea07ce,1.0,1.0
./expes/v3_2021-02-05_di_300-prng-1-w1-p2,daily_issda-300,300,first-300,98,32,rng,num-start-141,141,536,classic,6.132240533828735,True,,True,1.0,1.0,1.0,1,"Index(['1', '6', '10', '11', '13', '15', '18', '22', '35', '36', '38', '43',
       '46', '48', '49', '51', '53', '55', '58', '59', '61', '63', '74', '77',
       '83', '85', '87', '93', '97', '99', '100', '105', '112', '115', '121',
       '127', '131', '132', '134', '135', '137', '139', '141', '143', '144',
       '145', '150', '155', '156', '159', '160', '162', '173', '178', '183',
       '184', '185', '187', '189', '196', '198', '199', '202', '204', '207',
       '208', '211', '214', '217', '218', '224', '225', '226', '231', '232',
       '234', '236', '239', '241', '242', '243', '246', '249', '250', '251',
       '257', '260', '264', '265', '270', '272', '274', '283', '287', '292',
       '293', '297', '299'],
      dtype='object')",False,1000,True,2,bbc67bbadc,1.0,1.0
./expes/v3_2021-02-05_di_300-prng-1-w1-p2,daily_issda-300,300,first-300,133,44,rng,num-start-71,71,536,classic,1002.2244050502777,False,,False,0,,,0,"Index(['1', '4', '7', '8', '9', '10', '11', '12', '15', '16',
       ...
       '277', '283', '284', '286', '287', '289', '292', '294', '295', '297'],
      dtype='object', length=133)",True,1000,True,2,49c74a2ca9,0.0,0.0
./expes/v3_2021-02-05_di_300-prng-1-w1-p2,daily_issda-300,300,first-300,112,37,rng,num-start-141,141,536,classic,5.421084403991699,True,,True,1.0,1.0,1.0,1,"Index(['2', '4', '5', '9', '12', '13', '14', '21', '23', '24',
       ...
       '269', '271', '278', '280', '281', '292', '293', '296', '297', '300'],
      dtype='object', length=112)",False,1000,True,2,34c3ea03d1,1.0,1.0
./expes/v3_2021-02-05_di_300-prng-1-w1-p2,daily_issda-300,300,first-300,63,21,rng,num-start-111,111,536,classic,8.355147123336792,True,,True,1.0,1.0,1.0,1,"Index(['3', '4', '6', '7', '8', '11', '12', '15', '23', '34', '41', '43', '45',
       '63', '73', '74', '79', '80', '85', '89', '113', '114', '115', '117',
       '119', '121', '122', '130', '133', '145', '146', '151', '152', '155',
       '156', '159', '163', '172', '179', '186', '192', '208', '210', '214',
       '216', '217', '228', '229', '233', '234', '236', '238', '241', '244',
       '247', '251', '252', '254', '256', '265', '268', '289', '297'],
      dtype='object')",False,1000,True,2,6ef9901d0d,1.0,1.0
./expes/v3_2021-02-05_di_300-prng-1-w1-p2,daily_issda-300,300,first-300,49,16,rng,num-start-101,101,536,classic,3.9323129653930664,True,,True,1.0,1.0,1.0,1,"Index(['1', '12', '15', '19', '24', '42', '46', '48', '49', '50', '62', '75',
       '99', '100', '101', '102', '103', '126', '129', '134', '136', '140',
       '150', '156', '164', '172', '183', '185', '186', '192', '210', '212',
       '218', '221', '228', '241', '249', '250', '251', '257', '258', '264',
       '269', '276', '277', '284', '289', '294', '295'],
      dtype='object')",False,1000,True,2,7e57bd9336,1.0,1.0
./expes/v3_2021-02-05_di_300-prng-1-w1-p2,daily_issda-300,300,first-300,56,18,rng,num-start-71,71,536,classic,19.99253487586975,True,,True,1.0,1.0,1.0,1,"Index(['11', '16', '20', '23', '30', '33', '44', '45', '46', '50', '56', '59',
       '65', '71', '73', '76', '99', '100', '107', '108', '117', '120', '121',
       '127', '133', '137', '147', '174', '190', '193', '194', '195', '198',
       '200', '206', '207', '209', '228', '233', '234', '236', '243', '249',
       '250', '251', '254', '255', '260', '265', '267', '277', '286', '294',
       '297', '298', '300'],
      dtype='object')",False,1000,True,2,9579978769,1.0,1.0
./expes/v3_2021-02-05_di_300-prng-1-w1-p2,daily_issda-300,300,first-300,133,44,rng,num-start-161,161,536,classic,6.475774049758911,True,,True,1.0,1.0,1.0,1,"Index(['1', '2', '4', '5', '6', '10', '13', '14', '15', '16',
       ...
       '270', '271', '277', '278', '280', '282', '285', '286', '294', '296'],
      dtype='object', length=133)",False,1000,True,2,5e59076faa,1.0,1.0
./expes/v3_2021-02-05_di_300-prng-1-w1-p2,daily_issda-300,300,first-300,140,46,rng,num-start-241,241,536,classic,8.868587970733643,True,,True,1.0,1.0,1.0,1,"Index(['2', '3', '8', '16', '17', '18', '19', '20', '22', '23',
       ...
       '284', '285', '287', '289', '290', '292', '296', '298', '299', '300'],
      dtype='object', length=140)",False,1000,True,2,26688619b9,1.0,1.0
./expes/v3_2021-02-05_di_300-prng-1-w1-p2,daily_issda-300,300,first-300,133,44,rng,num-start-161,161,536,classic,6.058932065963745,True,,True,1.0,1.0,1.0,1,"Index(['4', '6', '7', '8', '11', '12', '14', '15', '16', '17',
       ...
       '282', '283', '287', '292', '293', '294', '296', '297', '298', '300'],
      dtype='object', length=133)",False,1000,True,2,6c46b7ea65,1.0,1.0
./expes/v3_2021-02-05_di_300-prng-1-w1-p2,daily_issda-300,300,first-300,105,35,rng,num-start-161,161,536,classic,6.387981176376343,True,,True,1.0,1.0,1.0,1,"Index(['4', '5', '10', '11', '14', '22', '23', '24', '31', '32',
       ...
       '266', '267', '274', '275', '281', '282', '286', '293', '294', '299'],
      dtype='object', length=105)",False,1000,True,2,ee864450fa,1.0,1.0
./expes/v3_2021-02-05_di_300-prng-1-w1-p2,daily_issda-300,300,first-300,49,16,rng,num-start-171,171,536,classic,6.087307929992676,True,,True,1.0,1.0,1.0,1,"Index(['1', '3', '7', '12', '15', '27', '34', '37', '53', '58', '65', '68',
       '72', '75', '81', '82', '85', '86', '94', '101', '102', '105', '108',
       '111', '127', '128', '131', '136', '144', '149', '153', '155', '161',
       '170', '184', '185', '191', '195', '197', '200', '209', '213', '228',
       '239', '241', '272', '277', '279', '294'],
      dtype='object')",False,1000,True,2,ba1f6e46ba,1.0,1.0
./expes/v3_2021-02-05_di_300-prng-1-w1-p2,daily_issda-300,300,first-300,140,46,rng,num-start-41,41,536,classic,1001.2916955947876,False,,False,0,,,0,"Index(['3', '5', '6', '7', '10', '11', '14', '15', '26', '27',
       ...
       '284', '285', '286', '287', '289', '291', '293', '295', '296', '297'],
      dtype='object', length=140)",True,1000,True,2,8650a9cac4,0.0,0.0
./expes/v3_2021-02-05_di_300-prng-1-w1-p2,daily_issda-300,300,first-300,28,9,rng,num-start-81,81,536,classic,3.6341185569763184,True,,True,1.0,1.0,1.0,1,"Index(['7', '15', '27', '37', '53', '58', '65', '68', '72', '81', '82', '94',
       '111', '127', '128', '131', '144', '184', '191', '195', '200', '209',
       '228', '239', '241', '272', '279', '294'],
      dtype='object')",False,1000,True,2,92ce1fc74f,1.0,1.0
./expes/v3_2021-02-05_di_300-prng-1-w1-p2,daily_issda-300,300,first-300,84,28,rng,num-start-71,71,536,classic,1002.1801226139069,False,,False,0,,,0,"Index(['2', '8', '16', '20', '22', '23', '37', '38', '44', '58', '61', '65',
       '67', '68', '70', '71', '72', '73', '76', '82', '85', '91', '92', '94',
       '96', '99', '100', '104', '109', '110', '116', '119', '120', '121',
       '122', '129', '130', '132', '133', '135', '142', '144', '149', '151',
       '152', '161', '175', '178', '180', '183', '184', '187', '188', '191',
       '192', '200', '203', '212', '218', '220', '221', '224', '226', '228',
       '230', '231', '236', '238', '250', '252', '255', '267', '268', '273',
       '275', '282', '284', '285', '289', '290', '292', '296', '298', '299'],
      dtype='object')",True,1000,True,2,e7342720ed,0.0,0.0
./expes/v3_2021-02-05_di_300-prng-1-w1-p2,daily_issda-300,300,first-300,105,35,rng,num-start-281,281,536,classic,10.188404321670532,True,,True,1.0,1.0,1.0,1,"Index(['2', '4', '5', '9', '12', '14', '21', '23', '24', '35',
       ...
       '267', '271', '278', '280', '281', '292', '293', '296', '297', '300'],
      dtype='object', length=105)",False,1000,True,2,97c0fa0b53,1.0,1.0
./expes/v3_2021-02-05_di_300-prng-1-w1-p2,daily_issda-300,300,first-300,133,44,rng,num-start-221,221,536,classic,7.705561637878418,True,,True,1.0,1.0,1.0,1,"Index(['1', '3', '5', '10', '11', '13', '15', '16', '17', '18',
       ...
       '272', '279', '283', '286', '287', '288', '291', '295', '298', '300'],
      dtype='object', length=133)",False,1000,True,2,5f83f11325,1.0,1.0
./expes/v3_2021-02-05_di_300-prng-1-w1-p2,daily_issda-300,300,first-300,133,44,rng,num-start-61,61,536,classic,1001.8020882606506,False,,False,0,,,0,"Index(['2', '4', '5', '9', '12', '13', '14', '21', '23', '24',
       ...
       '271', '278', '280', '281', '288', '292', '293', '296', '297', '300'],
      dtype='object', length=133)",True,1000,True,2,745de812f5,0.0,0.0
./expes/v3_2021-02-05_di_300-prng-1-w1-p2,daily_issda-300,300,first-300,42,14,rng,num-start-71,71,536,classic,1002.1493785381317,True,,False,1.0,1.0,1.0,1,"Index(['4', '11', '14', '31', '35', '45', '46', '47', '53', '55', '80', '85',
       '89', '92', '100', '110', '114', '121', '127', '128', '134', '135',
       '140', '142', '144', '149', '154', '156', '159', '173', '185', '191',
       '199', '203', '206', '243', '246', '260', '267', '275', '281', '282'],
      dtype='object')",True,1000,True,2,40b86d6da3,0.0,1.0
./expes/v3_2021-02-05_di_300-prng-1-w1-p2,daily_issda-300,300,first-300,49,16,rng,num-start-31,31,536,classic,1000.9885060787201,False,,False,0,,,0,"Index(['13', '15', '19', '29', '44', '47', '70', '82', '83', '85', '87', '89',
       '91', '94', '109', '119', '121', '128', '129', '138', '158', '164',
       '167', '182', '185', '186', '187', '191', '195', '202', '205', '213',
       '217', '221', '228', '229', '237', '239', '251', '258', '261', '262',
       '264', '269', '270', '272', '279', '287', '298'],
      dtype='object')",True,1000,True,2,b2ff1530aa,0.0,0.0
./expes/v3_2021-02-05_di_300-prng-1-w1-p2,daily_issda-300,300,first-300,42,14,rng,num-start-261,261,536,classic,8.66828203201294,True,,True,1.0,1.0,1.0,1,"Index(['6', '15', '36', '38', '43', '49', '55', '58', '61', '63', '77', '83',
       '85', '93', '105', '115', '127', '131', '134', '135', '139', '141',
       '150', '156', '162', '173', '184', '185', '187', '196', '202', '204',
       '207', '225', '231', '239', '250', '265', '270', '283', '297', '299'],
      dtype='object')",False,1000,True,2,11627373be,1.0,1.0
./expes/v3_2021-02-05_di_300-prng-1-w1-p2,daily_issda-300,300,first-300,112,37,rng,num-start-11,11,536,classic,1000.4159495830536,False,,False,0,,,0,"Index(['2', '4', '5', '9', '12', '13', '14', '21', '23', '24',
       ...
       '269', '271', '278', '280', '281', '292', '293', '296', '297', '300'],
      dtype='object', length=112)",True,1000,True,2,1be099ad7a,0.0,0.0
./expes/v3_2021-02-05_di_300-prng-1-w1-p2,daily_issda-300,300,first-300,70,23,rng,num-start-161,161,536,classic,5.752044916152954,True,,True,1.0,1.0,1.0,1,"Index(['3', '4', '6', '7', '8', '11', '12', '15', '17', '23', '34', '41', '43',
       '45', '63', '73', '74', '79', '80', '85', '89', '113', '114', '115',
       '117', '119', '121', '122', '130', '133', '145', '146', '151', '152',
       '155', '156', '159', '163', '164', '172', '179', '186', '190', '192',
       '205', '208', '210', '214', '216', '217', '228', '229', '233', '234',
       '236', '238', '241', '244', '245', '247', '251', '252', '254', '256',
       '262', '265', '268', '277', '289', '297'],
      dtype='object')",False,1000,True,2,50d7138ef0,1.0,1.0
./expes/v3_2021-02-05_di_300-prng-1-w1-p2,daily_issda-300,300,first-300,126,42,rng,num-start-121,121,536,classic,16.21927046775818,True,,True,1.0,1.0,1.0,1,"Index(['1', '2', '3', '5', '7', '10', '12', '15', '17', '19',
       ...
       '272', '273', '274', '277', '279', '280', '282', '289', '294', '297'],
      dtype='object', length=126)",False,1000,True,2,3126e80774,1.0,1.0
./expes/v3_2021-02-05_di_300-prng-1-w1-p2,daily_issda-300,300,first-300,70,23,rng,num-start-111,111,536,classic,4.107773542404175,True,,True,1.0,1.0,1.0,1,"Index(['1', '7', '9', '12', '15', '19', '24', '42', '46', '48', '49', '50',
       '60', '62', '65', '71', '75', '87', '97', '99', '100', '101', '102',
       '103', '108', '115', '126', '129', '134', '136', '138', '140', '149',
       '150', '156', '157', '160', '164', '171', '172', '183', '185', '186',
       '192', '194', '195', '200', '210', '212', '218', '221', '228', '241',
       '248', '249', '250', '251', '257', '258', '264', '268', '269', '271',
       '276', '277', '284', '286', '289', '294', '295'],
      dtype='object')",False,1000,True,2,1966d61ce4,1.0,1.0
./expes/v3_2021-02-05_di_300-prng-1-w1-p2,daily_issda-300,300,first-300,14,4,rng,num-start-151,151,536,classic,5.261961936950684,True,,True,1.0,1.0,1.0,1,"Index(['38', '55', '61', '127', '131', '135', '139', '150', '156', '202',
       '204', '231', '239', '270'],
      dtype='object')",False,1000,True,2,67ea84bb84,1.0,1.0
./expes/v3_2021-02-05_di_300-prng-1-w1-p2,daily_issda-300,300,first-300,105,35,rng,num-start-81,81,536,classic,1002.3454163074493,False,,False,0,,,0,"Index(['1', '2', '3', '5', '7', '10', '12', '15', '17', '19',
       ...
       '263', '269', '272', '274', '277', '279', '280', '282', '294', '297'],
      dtype='object', length=105)",True,1000,True,2,e2e33e3107,0.0,0.0
./expes/v3_2021-02-05_di_300-prng-1-w1-p2,daily_issda-300,300,first-300,105,35,rng,num-start-251,251,536,classic,8.528350591659546,True,,True,1.0,1.0,1.0,1,"Index(['1', '3', '5', '11', '13', '15', '17', '19', '21', '23',
       ...
       '269', '270', '272', '279', '286', '287', '288', '291', '295', '298'],
      dtype='object', length=105)",False,1000,True,2,4ece03f9da,1.0,1.0
./expes/v3_2021-02-05_di_300-prng-1-w1-p2,daily_issda-300,300,first-300,7,2,rng,num-start-141,141,536,classic,4.9242188930511475,True,,True,1.0,1.0,1.0,1,"Index(['1', '19', '42', '75', '134', '249', '294'], dtype='object')",False,1000,True,2,7f1c54d220,1.0,1.0
./expes/v3_2021-02-05_di_300-prng-1-w1-p2,daily_issda-300,300,first-300,56,18,rng,num-start-51,51,536,classic,1001.5279705524445,False,,False,0,,,0,"Index(['4', '11', '14', '23', '31', '35', '45', '46', '47', '53', '55', '80',
       '83', '85', '89', '92', '100', '110', '114', '120', '121', '127', '128',
       '133', '134', '135', '140', '142', '144', '148', '149', '150', '154',
       '156', '157', '159', '160', '173', '185', '191', '199', '203', '206',
       '212', '217', '221', '232', '243', '246', '260', '261', '267', '275',
       '281', '282', '294'],
      dtype='object')",True,1000,True,2,a26430e7e6,0.0,0.0
./expes/v3_2021-02-05_di_300-prng-1-w1-p2,daily_issda-300,300,first-300,70,23,rng,num-start-241,241,536,classic,8.148324728012085,True,,True,1.0,1.0,1.0,1,"Index(['20', '24', '25', '26', '30', '31', '32', '33', '36', '38', '42', '45',
       '47', '49', '50', '53', '61', '64', '69', '74', '78', '85', '93', '97',
       '106', '110', '114', '115', '124', '125', '128', '148', '149', '154',
       '158', '161', '166', '176', '186', '188', '191', '203', '204', '215',
       '218', '219', '223', '230', '233', '239', '254', '255', '260', '263',
       '269', '273', '275', '277', '281', '283', '286', '287', '289', '290',
       '293', '295', '296', '298', '299', '300'],
      dtype='object')",False,1000,True,2,b00b027cff,1.0,1.0
./expes/v3_2021-02-05_di_300-prng-1-w1-p2,daily_issda-300,300,first-300,35,11,rng,num-start-11,11,536,classic,1000.3749701976776,False,,False,0,,,0,"Index(['13', '15', '19', '29', '44', '47', '70', '82', '85', '87', '89', '91',
       '109', '119', '121', '129', '138', '158', '164', '167', '185', '187',
       '191', '195', '202', '217', '221', '228', '239', '258', '261', '270',
       '279', '287', '298'],
      dtype='object')",True,1000,True,2,13ede2f667,0.0,0.0
./expes/v3_2021-02-05_di_300-prng-1-w1-p2,daily_issda-300,300,first-300,21,7,rng,num-start-131,131,536,classic,4.614895820617676,True,,True,1.0,1.0,1.0,1,"Index(['12', '23', '56', '62', '76', '103', '104', '134', '138', '149', '160',
       '167', '168', '178', '202', '211', '262', '267', '271', '292', '300'],
      dtype='object')",False,1000,True,2,90031103f9,1.0,1.0
./expes/v3_2021-02-05_di_300-prng-1-w1-p2,daily_issda-300,300,first-300,35,11,rng,num-start-101,101,536,classic,4.241293430328369,True,,True,1.0,1.0,1.0,1,"Index(['3', '8', '16', '19', '22', '31', '33', '44', '47', '49', '73', '81',
       '95', '96', '98', '101', '120', '124', '151', '156', '168', '203',
       '226', '229', '232', '238', '239', '244', '256', '261', '263', '266',
       '271', '276', '287'],
      dtype='object')",False,1000,True,2,2228603381,1.0,1.0
./expes/v3_2021-02-05_di_300-prng-1-w1-p2,daily_issda-300,300,first-300,42,14,rng,num-start-1,1,536,classic,1.91581392288208,False,,False,0.4892460815447508,0.4892460815447508,0.4892460815447508,2,"Index(['3', '4', '21', '23', '27', '29', '33', '42', '45', '53', '57', '68',
       '71', '72', '81', '87', '96', '103', '105', '108', '115', '122', '137',
       '144', '150', '172', '174', '175', '192', '194', '195', '197', '204',
       '211', '216', '217', '232', '238', '252', '258', '260', '284'],
      dtype='object')",False,1000,True,2,90f52219d8,1.0,1.0
./expes/v3_2021-02-05_di_300-prng-1-w1-p2,daily_issda-300,300,first-300,84,28,rng,num-start-91,91,536,classic,1002.6941087245941,False,,False,0,,,0,"Index(['1', '8', '17', '20', '21', '32', '33', '36', '38', '42', '46', '47',
       '48', '49', '51', '52', '56', '64', '67', '72', '73', '76', '77', '95',
       '96', '97', '98', '105', '111', '112', '114', '121', '123', '124',
       '125', '129', '133', '134', '142', '145', '148', '149', '150', '155',
       '156', '159', '162', '163', '164', '167', '170', '171', '182', '184',
       '198', '201', '205', '208', '216', '223', '227', '228', '230', '242',
       '244', '245', '249', '251', '253', '259', '261', '262', '267', '268',
       '269', '273', '277', '279', '281', '283', '287', '291', '295', '299'],
      dtype='object')",True,1000,True,2,ba4ba3f44f,0.0,0.0
./expes/v3_2021-02-05_di_300-prng-1-w1-p2,daily_issda-300,300,first-300,105,35,rng,num-start-261,261,536,classic,8.792958974838257,True,,True,1.0,1.0,1.0,1,"Index(['1', '3', '5', '6', '8', '9', '11', '16', '19', '22',
       ...
       '266', '271', '276', '283', '287', '289', '290', '295', '296', '299'],
      dtype='object', length=105)",False,1000,True,2,504b6fdcbd,1.0,1.0
./expes/v3_2021-02-05_di_300-prng-1-w1-p2,daily_issda-300,300,first-300,140,46,rng,num-start-261,261,536,classic,9.051366090774536,True,,True,1.0,1.0,1.0,1,"Index(['2', '7', '9', '11', '14', '16', '17', '18', '20', '23',
       ...
       '273', '277', '280', '286', '289', '292', '294', '297', '298', '300'],
      dtype='object', length=140)",False,1000,True,2,54322ad84d,1.0,1.0
./expes/v3_2021-02-05_di_300-prng-1-w1-p2,daily_issda-300,300,first-300,35,11,rng,num-start-161,161,536,classic,5.558887720108032,True,,True,1.0,1.0,1.0,1,"Index(['1', '3', '7', '15', '27', '37', '53', '58', '65', '68', '72', '81',
       '82', '85', '86', '94', '108', '111', '127', '128', '131', '144', '149',
       '161', '184', '191', '195', '200', '209', '228', '239', '241', '272',
       '279', '294'],
      dtype='object')",False,1000,True,2,598a2b939e,1.0,1.0
./expes/v3_2021-02-05_di_300-prng-1-w1-p2,daily_issda-300,300,first-300,91,30,rng,num-start-171,171,536,classic,6.2198357582092285,True,,True,1.0,1.0,1.0,1,"Index(['4', '10', '41', '45', '46', '48', '52', '59', '61', '63', '65', '67',
       '68', '69', '74', '75', '76', '78', '83', '84', '87', '90', '93', '94',
       '98', '101', '102', '103', '104', '105', '106', '111', '113', '121',
       '122', '123', '128', '130', '133', '136', '139', '140', '145', '152',
       '154', '155', '156', '167', '172', '174', '176', '178', '181', '185',
       '188', '198', '202', '204', '205', '208', '209', '214', '217', '219',
       '223', '224', '230', '235', '241', '245', '246', '251', '252', '253',
       '254', '257', '260', '263', '268', '270', '273', '274', '276', '278',
       '279', '283', '291', '293', '294', '295', '297'],
      dtype='object')",False,1000,True,2,79b32019fc,1.0,1.0
./expes/v3_2021-02-05_di_300-prng-1-w1-p2,daily_issda-300,300,first-300,35,11,rng,num-start-261,261,536,classic,8.663661241531372,True,,True,1.0,1.0,1.0,1,"Index(['6', '15', '36', '38', '43', '55', '61', '63', '77', '83', '85', '105',
       '115', '127', '131', '134', '135', '139', '141', '150', '156', '162',
       '173', '184', '185', '196', '202', '204', '207', '231', '239', '265',
       '270', '283', '299'],
      dtype='object')",False,1000,True,2,9c20af354b,1.0,1.0
./expes/v3_2021-02-05_di_300-prng-1-w1-p2,daily_issda-300,300,first-300,140,46,rng,num-start-161,161,536,classic,5.929935455322266,True,,True,1.0,1.0,1.0,1,"Index(['1', '3', '5', '6', '8', '9', '10', '11', '16', '18',
       ...
       '283', '284', '287', '289', '290', '293', '295', '296', '299', '300'],
      dtype='object', length=140)",False,1000,True,2,513491963b,1.0,1.0
./expes/v3_2021-02-05_di_300-prng-1-w1-p2,daily_issda-300,300,first-300,119,39,rng,num-start-151,151,536,classic,5.911261796951294,True,,True,1.0,1.0,1.0,1,"Index(['2', '4', '5', '9', '12', '13', '14', '21', '23', '24',
       ...
       '271', '278', '280', '281', '288', '292', '293', '296', '297', '300'],
      dtype='object', length=119)",False,1000,True,2,70186cfc73,1.0,1.0
./expes/v3_2021-02-05_di_300-prng-1-w1-p2,daily_issda-300,300,first-300,35,11,rng,num-start-221,221,536,classic,7.745106220245361,True,,True,1.0,1.0,1.0,1,"Index(['11', '14', '31', '35', '45', '47', '53', '55', '80', '85', '89', '92',
       '100', '110', '114', '121', '128', '134', '135', '140', '142', '149',
       '156', '159', '173', '185', '191', '199', '203', '206', '246', '260',
       '267', '275', '282'],
      dtype='object')",False,1000,True,2,f2713e08e5,1.0,1.0
./expes/v3_2021-02-05_di_300-prng-1-w1-p2,daily_issda-300,300,first-300,70,23,rng,num-start-221,221,536,classic,7.862167835235596,True,,True,1.0,1.0,1.0,1,"Index(['6', '15', '36', '38', '43', '46', '48', '49', '53', '55', '58', '59',
       '61', '63', '77', '83', '85', '87', '93', '100', '105', '112', '115',
       '121', '127', '131', '132', '134', '135', '139', '141', '143', '144',
       '145', '150', '156', '159', '162', '173', '184', '185', '187', '196',
       '198', '202', '204', '207', '211', '214', '218', '224', '225', '231',
       '232', '234', '236', '239', '243', '246', '249', '250', '251', '257',
       '264', '265', '270', '274', '283', '297', '299'],
      dtype='object')",False,1000,True,2,8cd1af4a09,1.0,1.0
./expes/v3_2021-02-05_di_300-prng-1-w1-p2,daily_issda-300,300,first-300,14,4,rng,num-start-91,91,536,classic,3.1634726524353027,True,,True,1.0,1.0,1.0,1,"Index(['6', '9', '19', '29', '60', '76', '81', '107', '123', '174', '183',
       '189', '239', '267'],
      dtype='object')",False,1000,True,2,59d65c97ad,1.0,1.0
./expes/v3_2021-02-05_di_300-prng-1-w1-p2,daily_issda-300,300,first-300,98,32,rng,num-start-91,91,536,classic,1002.6818046569824,False,,False,0,,,0,"Index(['1', '8', '9', '17', '20', '21', '32', '33', '36', '38', '42', '43',
       '46', '47', '48', '49', '51', '52', '56', '60', '64', '67', '72', '73',
       '76', '77', '88', '95', '96', '97', '98', '105', '111', '112', '113',
       '114', '121', '123', '124', '125', '129', '133', '134', '139', '141',
       '142', '145', '148', '149', '150', '155', '156', '159', '162', '163',
       '164', '167', '170', '171', '172', '182', '183', '184', '191', '198',
       '201', '205', '208', '215', '216', '223', '227', '228', '230', '231',
       '242', '244', '245', '249', '250', '251', '253', '259', '261', '262',
       '267', '268', '269', '273', '277', '279', '281', '283', '287', '291',
       '295', '297', '299'],
      dtype='object')",True,1000,True,2,a6a5c6e185,0.0,0.0
./expes/v3_2021-02-05_di_300-prng-1-w1-p2,daily_issda-300,300,first-300,7,2,rng,num-start-81,81,536,classic,2.8535680770874023,True,,True,1.0,1.0,1.0,1,"Index(['1', '19', '42', '75', '134', '249', '294'], dtype='object')",False,1000,True,2,c75debadaf,1.0,1.0
./expes/v3_2021-02-05_di_300-prng-1-w1-p2,daily_issda-300,300,first-300,98,32,rng,num-start-21,21,536,classic,1000.7897412776947,False,,False,0,,,0,"Index(['1', '4', '6', '10', '14', '15', '16', '17', '19', '23', '27', '31',
       '32', '39', '40', '43', '45', '47', '53', '58', '59', '70', '74', '75',
       '84', '86', '88', '92', '94', '97', '99', '103', '105', '107', '108',
       '113', '114', '115', '117', '121', '123', '130', '134', '138', '141',
       '142', '145', '159', '161', '172', '173', '174', '177', '180', '183',
       '186', '187', '189', '191', '192', '196', '197', '198', '199', '206',
       '208', '215', '217', '219', '221', '222', '226', '228', '234', '236',
       '238', '241', '243', '244', '245', '247', '248', '256', '257', '260',
       '261', '262', '263', '264', '266', '271', '277', '278', '282', '285',
       '286', '294', '296'],
      dtype='object')",True,1000,True,2,c3a5ff1973,0.0,0.0
./expes/v3_2021-02-05_di_300-prng-1-w1-p2,daily_issda-300,300,first-300,21,7,rng,num-start-61,61,536,classic,2.2092487812042236,True,,True,1.0,1.0,1.0,1,"Index(['1', '12', '19', '42', '49', '75', '99', '102', '134', '140', '164',
       '192', '212', '241', '249', '251', '276', '277', '284', '289', '294'],
      dtype='object')",False,1000,True,2,97849e4ea4,1.0,1.0
./expes/v3_2021-02-05_di_300-prng-1-w1-p2,daily_issda-300,300,first-300,112,37,rng,num-start-131,131,536,classic,8.80626916885376,True,,True,1.0,1.0,1.0,1,"Index(['1', '6', '10', '11', '13', '15', '17', '18', '22', '35',
       ...
       '270', '272', '274', '283', '287', '288', '292', '293', '297', '299'],
      dtype='object', length=112)",False,1000,True,2,58afaedca3,1.0,1.0
./expes/v3_2021-02-05_di_300-prng-1-w1-p2,daily_issda-300,300,first-300,35,11,rng,num-start-91,91,536,classic,3.370229482650757,True,,True,1.0,1.0,1.0,1,"Index(['3', '6', '11', '12', '15', '45', '73', '79', '89', '113', '114', '115',
       '117', '122', '130', '133', '146', '152', '155', '159', '172', '179',
       '186', '210', '214', '216', '217', '229', '234', '238', '241', '247',
       '254', '265', '289'],
      dtype='object')",False,1000,True,2,01d83caf30,1.0,1.0
./expes/v3_2021-02-05_di_300-prng-1-w1-p2,daily_issda-300,300,first-300,140,46,rng,num-start-1,1,536,classic,1.5914607048034668,False,,False,0.3508430988780543,0.3508430988780543,0.3508430988780543,2,"Index(['2', '3', '5', '6', '8', '9', '10', '16', '19', '22',
       ...
       '282', '285', '286', '290', '292', '293', '295', '296', '297', '298'],
      dtype='object', length=140)",False,1000,True,2,c4f34c4bdb,1.0,1.0
./expes/v3_2021-02-05_di_300-prng-1-w1-p2,daily_issda-300,300,first-300,126,42,rng,num-start-101,101,536,classic,1003.001834154129,False,,False,0,,,0,"Index(['3', '4', '5', '6', '10', '24', '30', '34', '40', '41',
       ...
       '283', '285', '286', '287', '290', '291', '293', '294', '295', '297'],
      dtype='object', length=126)",True,1000,True,2,220407757d,0.0,0.0
