expe,clients,clients_size,clients_subset,agg_size,agg_size_pc,method,days,days_size,days_total,noise_method,time,valid,valid_sum,success,score_avg,score_min,score_max,nsols,oracle,wall_hit,wall_time,pooled,pool_size,uuid,optimal,valid_sums
./expes/v3_2021-02-05_di_300-prng-1-w1-p2,daily_issda-300,300,first-300,14,4,rng,num-start-161,161,536,classic,5.998873949050903,True,,True,1.0,1.0,1.0,1,"Index(['38', '55', '61', '127', '131', '135', '139', '150', '156', '202',
       '204', '231', '239', '270'],
      dtype='object')",False,1000,True,2,5ab2c354ea,1.0,1.0
./expes/v3_2021-02-05_di_300-prng-1-w1-p2,daily_issda-300,300,first-300,105,35,rng,num-start-281,281,536,classic,10.29478406906128,True,,True,1.0,1.0,1.0,1,"Index(['7', '11', '14', '16', '18', '20', '23', '30', '33', '36',
       ...
       '273', '277', '280', '286', '289', '292', '294', '297', '298', '300'],
      dtype='object', length=105)",False,1000,True,2,acbad42f99,1.0,1.0
./expes/v3_2021-02-05_di_300-prng-1-w1-p2,daily_issda-300,300,first-300,84,28,rng,num-start-71,71,536,classic,1002.0884590148926,False,,False,0,,,0,"Index(['1', '8', '17', '20', '21', '32', '33', '36', '38', '42', '46', '47',
       '48', '49', '51', '52', '56', '64', '67', '72', '73', '76', '77', '95',
       '96', '97', '98', '105', '111', '112', '114', '121', '123', '124',
       '125', '129', '133', '134', '142', '145', '148', '149', '150', '155',
       '156', '159', '162', '163', '164', '167', '170', '171', '182', '184',
       '198', '201', '205', '208', '216', '223', '227', '228', '230', '242',
       '244', '245', '249', '251', '253', '259', '261', '262', '267', '268',
       '269', '273', '277', '279', '281', '283', '287', '291', '295', '299'],
      dtype='object')",True,1000,True,2,dea033dc3d,0.0,0.0
./expes/v3_2021-02-05_di_300-prng-1-w1-p2,daily_issda-300,300,first-300,14,4,rng,num-start-231,231,536,classic,7.799638509750366,True,,True,1.0,1.0,1.0,1,"Index(['11', '31', '35', '47', '53', '80', '114', '121', '149', '156', '203',
       '206', '246', '282'],
      dtype='object')",False,1000,True,2,6c7d6f3e6b,1.0,1.0
./expes/v3_2021-02-05_di_300-prng-1-w1-p2,daily_issda-300,300,first-300,42,14,rng,num-start-161,161,536,classic,5.987690210342407,True,,True,1.0,1.0,1.0,1,"Index(['4', '59', '61', '63', '87', '90', '93', '94', '101', '102', '103',
       '104', '111', '113', '121', '122', '123', '130', '136', '139', '140',
       '152', '154', '156', '167', '172', '176', '178', '188', '208', '230',
       '235', '246', '251', '253', '260', '268', '270', '276', '283', '294',
       '295'],
      dtype='object')",False,1000,True,2,8934441bdb,1.0,1.0
./expes/v3_2021-02-05_di_300-prng-1-w1-p2,daily_issda-300,300,first-300,133,44,rng,num-start-31,31,536,classic,1000.9052050113678,False,,False,0,,,0,"Index(['1', '3', '5', '10', '11', '13', '15', '16', '17', '18',
       ...
       '272', '279', '283', '286', '287', '288', '291', '295', '298', '300'],
      dtype='object', length=133)",True,1000,True,2,2d3563b932,0.0,0.0
./expes/v3_2021-02-05_di_300-prng-1-w1-p2,daily_issda-300,300,first-300,98,32,rng,num-start-271,271,536,classic,9.530195713043213,True,,True,1.0,1.0,1.0,1,"Index(['1', '6', '10', '11', '13', '15', '18', '22', '35', '36', '38', '43',
       '46', '48', '49', '51', '53', '55', '58', '59', '61', '63', '74', '77',
       '83', '85', '87', '93', '97', '99', '100', '105', '112', '115', '121',
       '127', '131', '132', '134', '135', '137', '139', '141', '143', '144',
       '145', '150', '155', '156', '159', '160', '162', '173', '178', '183',
       '184', '185', '187', '189', '196', '198', '199', '202', '204', '207',
       '208', '211', '214', '217', '218', '224', '225', '226', '231', '232',
       '234', '236', '239', '241', '242', '243', '246', '249', '250', '251',
       '257', '260', '264', '265', '270', '272', '274', '283', '287', '292',
       '293', '297', '299'],
      dtype='object')",False,1000,True,2,bfb3f59d81,1.0,1.0
./expes/v3_2021-02-05_di_300-prng-1-w1-p2,daily_issda-300,300,first-300,91,30,rng,num-start-291,291,536,classic,10.567904710769653,True,,True,1.0,1.0,1.0,1,"Index(['4', '7', '8', '11', '15', '16', '17', '19', '22', '23', '24', '33',
       '34', '35', '40', '46', '50', '54', '56', '61', '64', '67', '69', '70',
       '78', '80', '82', '84', '99', '102', '109', '112', '119', '120', '121',
       '122', '133', '135', '137', '138', '143', '144', '146', '150', '151',
       '155', '159', '161', '168', '170', '173', '174', '177', '180', '188',
       '190', '194', '198', '199', '200', '203', '204', '209', '211', '213',
       '216', '219', '224', '228', '241', '243', '244', '247', '248', '254',
       '259', '260', '268', '274', '275', '277', '278', '279', '282', '283',
       '292', '293', '294', '296', '298', '300'],
      dtype='object')",False,1000,True,2,cdaf3077d8,1.0,1.0
./expes/v3_2021-02-05_di_300-prng-1-w1-p2,daily_issda-300,300,first-300,77,25,rng,num-start-101,101,536,classic,7.444272041320801,True,,True,1.0,1.0,1.0,1,"Index(['2', '3', '4', '5', '9', '13', '18', '21', '22', '23', '27', '28', '29',
       '33', '36', '42', '43', '44', '45', '48', '53', '57', '58', '63', '68',
       '69', '71', '72', '75', '77', '81', '83', '87', '89', '96', '99', '102',
       '103', '104', '105', '108', '115', '122', '137', '138', '139', '144',
       '150', '170', '172', '174', '175', '192', '194', '195', '197', '204',
       '207', '211', '216', '217', '218', '232', '238', '252', '255', '257',
       '258', '259', '260', '276', '277', '284', '285', '294', '295', '297'],
      dtype='object')",False,1000,True,2,9035da1705,1.0,1.0
./expes/v3_2021-02-05_di_300-prng-1-w1-p2,daily_issda-300,300,first-300,21,7,rng,num-start-111,111,536,classic,4.047673940658569,True,,True,1.0,1.0,1.0,1,"Index(['1', '6', '31', '74', '75', '84', '108', '117', '138', '141', '174',
       '180', '189', '192', '196', '226', '236', '243', '248', '271', '286'],
      dtype='object')",False,1000,True,2,c741359b65,1.0,1.0
./expes/v3_2021-02-05_di_300-prng-1-w1-p2,daily_issda-300,300,first-300,70,23,rng,num-start-201,201,536,classic,6.992891550064087,True,,True,1.0,1.0,1.0,1,"Index(['3', '10', '14', '26', '27', '30', '32', '33', '36', '42', '49', '57',
       '60', '64', '67', '71', '72', '73', '78', '88', '90', '99', '101',
       '108', '110', '123', '128', '129', '130', '137', '142', '143', '149',
       '156', '158', '159', '163', '164', '170', '171', '173', '179', '182',
       '185', '188', '191', '192', '197', '206', '208', '210', '213', '215',
       '222', '243', '245', '257', '260', '268', '270', '273', '277', '283',
       '284', '285', '286', '287', '293', '295', '297'],
      dtype='object')",False,1000,True,2,ee8d1c5fde,1.0,1.0
./expes/v3_2021-02-05_di_300-prng-1-w1-p2,daily_issda-300,300,first-300,7,2,rng,num-start-121,121,536,classic,4.243778228759766,True,,True,1.0,1.0,1.0,1,"Index(['117', '146', '186', '214', '229', '241', '247'], dtype='object')",False,1000,True,2,f7698ccdc0,1.0,1.0
./expes/v3_2021-02-05_di_300-prng-1-w1-p2,daily_issda-300,300,first-300,98,32,rng,num-start-271,271,536,classic,9.679510831832886,True,,True,1.0,1.0,1.0,1,"Index(['1', '2', '3', '5', '7', '10', '12', '15', '19', '24', '27', '30', '34',
       '37', '41', '47', '48', '53', '56', '58', '61', '65', '68', '72', '75',
       '76', '77', '81', '82', '83', '85', '86', '91', '93', '94', '95', '101',
       '102', '105', '107', '108', '111', '126', '127', '128', '129', '131',
       '132', '136', '142', '144', '149', '152', '153', '155', '157', '159',
       '160', '161', '162', '163', '170', '174', '175', '177', '182', '184',
       '185', '186', '188', '189', '191', '193', '195', '197', '200', '207',
       '209', '213', '215', '222', '228', '232', '237', '239', '241', '242',
       '247', '248', '263', '269', '272', '277', '279', '280', '282', '294',
       '297'],
      dtype='object')",False,1000,True,2,688e3f173f,1.0,1.0
./expes/v3_2021-02-05_di_300-prng-1-w1-p2,daily_issda-300,300,first-300,21,7,rng,num-start-161,161,536,classic,5.744771718978882,True,,True,1.0,1.0,1.0,1,"Index(['7', '34', '67', '78', '99', '119', '120', '122', '133', '190', '200',
       '204', '241', '243', '244', '268', '277', '279', '282', '283', '298'],
      dtype='object')",False,1000,True,2,bc727d9fa7,1.0,1.0
./expes/v3_2021-02-05_di_300-prng-1-w1-p2,daily_issda-300,300,first-300,63,21,rng,num-start-201,201,536,classic,7.294476509094238,True,,True,1.0,1.0,1.0,1,"Index(['6', '15', '36', '38', '43', '46', '48', '49', '53', '55', '58', '59',
       '61', '63', '77', '83', '85', '87', '93', '100', '105', '112', '115',
       '127', '131', '134', '135', '139', '141', '143', '144', '145', '150',
       '156', '159', '162', '173', '184', '185', '187', '196', '198', '202',
       '204', '207', '211', '218', '225', '231', '232', '234', '239', '246',
       '249', '250', '257', '264', '265', '270', '274', '283', '297', '299'],
      dtype='object')",False,1000,True,2,610e07ee45,1.0,1.0
./expes/v3_2021-02-05_di_300-prng-1-w1-p2,daily_issda-300,300,first-300,112,37,rng,num-start-71,71,536,classic,1002.0787670612335,False,,False,0,,,0,"Index(['1', '4', '7', '9', '10', '12', '15', '16', '19', '24',
       ...
       '271', '276', '277', '284', '286', '287', '289', '292', '294', '295'],
      dtype='object', length=112)",True,1000,True,2,58b6dd48f9,0.0,0.0
./expes/v3_2021-02-05_di_300-prng-1-w1-p2,daily_issda-300,300,first-300,84,28,rng,num-start-261,261,536,classic,9.20161509513855,True,,True,1.0,1.0,1.0,1,"Index(['2', '8', '16', '20', '22', '23', '37', '38', '44', '58', '61', '65',
       '67', '68', '70', '71', '72', '73', '76', '82', '85', '91', '92', '94',
       '96', '99', '100', '104', '109', '110', '116', '119', '120', '121',
       '122', '129', '130', '132', '133', '135', '142', '144', '149', '151',
       '152', '161', '175', '178', '180', '183', '184', '187', '188', '191',
       '192', '200', '203', '212', '218', '220', '221', '224', '226', '228',
       '230', '231', '236', '238', '250', '252', '255', '267', '268', '273',
       '275', '282', '284', '285', '289', '290', '292', '296', '298', '299'],
      dtype='object')",False,1000,True,2,ef41c6468f,1.0,1.0
./expes/v3_2021-02-05_di_300-prng-1-w1-p2,daily_issda-300,300,first-300,56,18,rng,num-start-291,291,536,classic,10.377090692520142,True,,True,1.0,1.0,1.0,1,"Index(['4', '52', '59', '61', '63', '68', '75', '83', '87', '90', '93', '94',
       '98', '101', '102', '103', '104', '106', '111', '113', '121', '122',
       '123', '130', '136', '139', '140', '145', '152', '154', '156', '167',
       '172', '176', '178', '188', '208', '209', '224', '230', '235', '245',
       '246', '251', '253', '254', '257', '260', '263', '268', '270', '276',
       '283', '291', '294', '295'],
      dtype='object')",False,1000,True,2,02fda9af14,1.0,1.0
./expes/v3_2021-02-05_di_300-prng-1-w1-p2,daily_issda-300,300,first-300,98,32,rng,num-start-61,61,536,classic,1001.8129739761353,False,,False,0,,,0,"Index(['3', '5', '10', '11', '14', '26', '27', '28', '30', '32', '33', '36',
       '39', '42', '44', '48', '49', '57', '60', '64', '67', '71', '72', '73',
       '78', '83', '88', '90', '94', '99', '101', '102', '108', '109', '110',
       '116', '123', '124', '128', '129', '130', '133', '137', '140', '142',
       '143', '149', '156', '157', '158', '159', '160', '162', '163', '164',
       '170', '171', '172', '173', '179', '182', '185', '188', '191', '192',
       '197', '201', '206', '207', '208', '210', '213', '215', '222', '240',
       '243', '245', '246', '249', '257', '260', '268', '269', '270', '273',
       '275', '277', '278', '279', '283', '284', '285', '286', '287', '289',
       '293', '295', '297'],
      dtype='object')",True,1000,True,2,8a85ae4a7c,0.0,0.0
./expes/v3_2021-02-05_di_300-prng-1-w1-p2,daily_issda-300,300,first-300,63,21,rng,num-start-61,61,536,classic,1001.8370838165283,False,,False,0,,,0,"Index(['2', '8', '16', '23', '37', '38', '44', '61', '65', '67', '68', '70',
       '72', '73', '76', '82', '91', '92', '96', '100', '104', '110', '116',
       '119', '120', '121', '130', '132', '133', '135', '142', '144', '149',
       '151', '161', '178', '183', '187', '188', '191', '200', '203', '218',
       '220', '221', '224', '226', '228', '230', '231', '236', '238', '250',
       '252', '255', '268', '273', '275', '282', '284', '289', '290', '296'],
      dtype='object')",True,1000,True,2,bdc31f83cd,0.0,0.0
./expes/v3_2021-02-05_di_300-prng-1-w1-p2,daily_issda-300,300,first-300,14,4,rng,num-start-281,281,536,classic,8.932545185089111,True,,True,1.0,1.0,1.0,1,"Index(['15', '33', '49', '61', '69', '108', '131', '195', '200', '231', '242',
       '250', '254', '292'],
      dtype='object')",False,1000,True,2,e1cabb37cb,1.0,1.0
./expes/v3_2021-02-05_di_300-prng-1-w1-p2,daily_issda-300,300,first-300,21,7,rng,num-start-11,11,536,classic,1000.3576049804688,False,,False,0,,,0,"Index(['12', '23', '56', '62', '76', '103', '104', '134', '138', '149', '160',
       '167', '168', '178', '202', '211', '262', '267', '271', '292', '300'],
      dtype='object')",True,1000,True,2,691012df53,0.0,0.0
./expes/v3_2021-02-05_di_300-prng-1-w1-p2,daily_issda-300,300,first-300,119,39,rng,num-start-161,161,536,classic,6.191458463668823,True,,True,1.0,1.0,1.0,1,"Index(['1', '2', '3', '4', '5', '7', '9', '10', '13', '14',
       ...
       '276', '277', '284', '285', '287', '290', '294', '295', '297', '300'],
      dtype='object', length=119)",False,1000,True,2,ae488f51b2,1.0,1.0
./expes/v3_2021-02-05_di_300-prng-1-w1-p2,daily_issda-300,300,first-300,7,2,rng,num-start-61,61,536,classic,2.200563907623291,True,,True,1.0,1.0,1.0,1,"Index(['90', '149', '156', '188', '213', '268', '277'], dtype='object')",False,1000,True,2,11c6cd2a57,1.0,1.0
./expes/v3_2021-02-05_di_300-prng-1-w1-p2,daily_issda-300,300,first-300,126,42,rng,num-start-91,91,536,classic,1002.7466933727264,False,,False,0,,,0,"Index(['1', '4', '7', '8', '9', '10', '12', '15', '16', '19',
       ...
       '276', '277', '283', '284', '286', '287', '289', '292', '294', '295'],
      dtype='object', length=126)",True,1000,True,2,06d346c74e,0.0,0.0
./expes/v3_2021-02-05_di_300-prng-1-w1-p2,daily_issda-300,300,first-300,77,25,rng,num-start-71,71,536,classic,1002.0725922584534,False,,False,0,,,0,"Index(['4', '11', '14', '23', '24', '31', '32', '35', '42', '45', '46', '47',
       '52', '53', '55', '75', '80', '83', '85', '89', '92', '95', '100',
       '101', '102', '104', '110', '114', '118', '120', '121', '127', '128',
       '133', '134', '135', '140', '142', '144', '148', '149', '150', '154',
       '156', '157', '159', '160', '165', '166', '173', '176', '183', '185',
       '191', '199', '203', '206', '212', '217', '221', '224', '226', '232',
       '237', '242', '243', '246', '260', '261', '266', '267', '274', '275',
       '281', '282', '286', '294'],
      dtype='object')",True,1000,True,2,888669b4f7,0.0,0.0
./expes/v3_2021-02-05_di_300-prng-1-w1-p2,daily_issda-300,300,first-300,35,11,rng,num-start-41,41,536,classic,1001.4579846858978,False,,False,0,,,0,"Index(['14', '32', '36', '42', '57', '64', '71', '72', '73', '78', '90', '101',
       '108', '128', '130', '143', '149', '156', '159', '163', '170', '188',
       '197', '206', '210', '213', '215', '243', '257', '260', '268', '273',
       '277', '283', '287'],
      dtype='object')",True,1000,True,2,cc27eb35d5,0.0,0.0
./expes/v3_2021-02-05_di_300-prng-1-w1-p2,daily_issda-300,300,first-300,21,7,rng,num-start-1,1,536,classic,1.8212995529174805,False,,False,0.6342415220202724,0.6342415220202724,0.6342415220202724,2,"Index(['6', '9', '19', '29', '60', '76', '81', '106', '107', '118', '123',
       '135', '144', '174', '177', '182', '183', '189', '201', '239', '267'],
      dtype='object')",False,1000,True,2,95ced0ba0e,1.0,1.0
./expes/v3_2021-02-05_di_300-prng-1-w1-p2,daily_issda-300,300,first-300,49,16,rng,num-start-201,201,536,classic,7.635441780090332,True,,True,1.0,1.0,1.0,1,"Index(['4', '11', '14', '31', '35', '45', '46', '47', '53', '55', '80', '85',
       '89', '92', '100', '110', '114', '121', '127', '128', '134', '135',
       '140', '142', '144', '148', '149', '150', '154', '156', '159', '160',
       '173', '185', '191', '199', '203', '206', '212', '217', '243', '246',
       '260', '261', '267', '275', '281', '282', '294'],
      dtype='object')",False,1000,True,2,c8b4534c7c,1.0,1.0
./expes/v3_2021-02-05_di_300-prng-1-w1-p2,daily_issda-300,300,first-300,84,28,rng,num-start-161,161,536,classic,5.912797689437866,True,,True,1.0,1.0,1.0,1,"Index(['2', '3', '4', '5', '9', '10', '13', '18', '21', '22', '23', '27', '28',
       '29', '33', '36', '42', '43', '44', '45', '48', '53', '57', '58', '63',
       '68', '69', '71', '72', '75', '77', '81', '83', '87', '89', '96', '99',
       '102', '103', '104', '105', '108', '115', '122', '137', '138', '139',
       '144', '150', '170', '172', '174', '175', '178', '188', '192', '194',
       '195', '197', '204', '206', '207', '211', '216', '217', '218', '232',
       '238', '252', '255', '257', '258', '259', '260', '268', '276', '277',
       '284', '285', '290', '294', '295', '297', '300'],
      dtype='object')",False,1000,True,2,a30ad2c8ff,1.0,1.0
./expes/v3_2021-02-05_di_300-prng-1-w1-p2,daily_issda-300,300,first-300,140,46,rng,num-start-11,11,536,classic,1000.3850347995758,False,,False,0,,,0,"Index(['1', '2', '4', '5', '6', '10', '13', '14', '15', '16',
       ...
       '278', '280', '282', '285', '286', '287', '292', '294', '296', '298'],
      dtype='object', length=140)",True,1000,True,2,fbef9ab4bf,0.0,0.0
./expes/v3_2021-02-05_di_300-prng-1-w1-p2,daily_issda-300,300,first-300,14,4,rng,num-start-161,161,536,classic,5.792388200759888,True,,True,1.0,1.0,1.0,1,"Index(['47', '49', '73', '95', '96', '98', '156', '229', '232', '239', '244',
       '261', '263', '287'],
      dtype='object')",False,1000,True,2,9958a3db36,1.0,1.0
./expes/v3_2021-02-05_di_300-prng-1-w1-p2,daily_issda-300,300,first-300,126,42,rng,num-start-161,161,536,classic,6.172959566116333,True,,True,1.0,1.0,1.0,1,"Index(['1', '2', '3', '4', '5', '7', '8', '9', '10', '13',
       ...
       '276', '277', '284', '285', '287', '290', '294', '295', '297', '300'],
      dtype='object', length=126)",False,1000,True,2,b2d40a2cc9,1.0,1.0
./expes/v3_2021-02-05_di_300-prng-1-w1-p2,daily_issda-300,300,first-300,105,35,rng,num-start-161,161,536,classic,5.66394567489624,True,,True,1.0,1.0,1.0,1,"Index(['1', '3', '5', '11', '13', '15', '17', '19', '21', '23',
       ...
       '269', '270', '272', '279', '286', '287', '288', '291', '295', '298'],
      dtype='object', length=105)",False,1000,True,2,a9e2ef7d08,1.0,1.0
./expes/v3_2021-02-05_di_300-prng-1-w1-p2,daily_issda-300,300,first-300,14,4,rng,num-start-281,281,536,classic,8.94788384437561,True,,True,1.0,1.0,1.0,1,"Index(['15', '27', '58', '81', '127', '128', '131', '184', '191', '195', '239',
       '241', '272', '279'],
      dtype='object')",False,1000,True,2,742c1410dc,1.0,1.0
./expes/v3_2021-02-05_di_300-prng-1-w1-p2,daily_issda-300,300,first-300,49,16,rng,num-start-61,61,536,classic,1001.9654774665833,False,,False,0,,,0,"Index(['4', '11', '14', '31', '35', '45', '46', '47', '53', '55', '80', '85',
       '89', '92', '100', '110', '114', '121', '127', '128', '134', '135',
       '140', '142', '144', '148', '149', '150', '154', '156', '159', '160',
       '173', '185', '191', '199', '203', '206', '212', '217', '243', '246',
       '260', '261', '267', '275', '281', '282', '294'],
      dtype='object')",True,1000,True,2,905323b17a,0.0,0.0
./expes/v3_2021-02-05_di_300-prng-1-w1-p2,daily_issda-300,300,first-300,105,35,rng,num-start-41,41,536,classic,1001.2202370166779,False,,False,0,,,0,"Index(['1', '3', '5', '6', '8', '9', '11', '16', '19', '22',
       ...
       '266', '271', '276', '283', '287', '289', '290', '295', '296', '299'],
      dtype='object', length=105)",True,1000,True,2,69dae84df1,0.0,0.0
./expes/v3_2021-02-05_di_300-prng-1-w1-p2,daily_issda-300,300,first-300,42,14,rng,num-start-121,121,536,classic,4.600098133087158,True,,True,1.0,1.0,1.0,1,"Index(['11', '16', '23', '30', '33', '44', '45', '46', '50', '56', '59', '65',
       '71', '99', '108', '117', '120', '121', '127', '133', '137', '174',
       '190', '193', '194', '195', '198', '200', '206', '207', '209', '233',
       '236', '243', '249', '250', '254', '255', '260', '265', '267', '294'],
      dtype='object')",False,1000,True,2,7c1db3963a,1.0,1.0
./expes/v3_2021-02-05_di_300-prng-1-w1-p2,daily_issda-300,300,first-300,119,39,rng,num-start-291,291,536,classic,11.21738314628601,True,,True,1.0,1.0,1.0,1,"Index(['1', '3', '5', '11', '13', '15', '16', '17', '19', '21',
       ...
       '270', '272', '279', '283', '286', '287', '288', '291', '295', '298'],
      dtype='object', length=119)",False,1000,True,2,4f81f1558c,1.0,1.0
./expes/v3_2021-02-05_di_300-prng-1-w1-p2,daily_issda-300,300,first-300,112,37,rng,num-start-281,281,536,classic,10.004129409790039,True,,True,1.0,1.0,1.0,1,"Index(['1', '4', '5', '6', '10', '13', '14', '15', '16', '17',
       ...
       '266', '271', '277', '278', '280', '282', '285', '286', '294', '296'],
      dtype='object', length=112)",False,1000,True,2,9be3d91e08,1.0,1.0
./expes/v3_2021-02-05_di_300-prng-1-w1-p2,daily_issda-300,300,first-300,91,30,rng,num-start-61,61,536,classic,1001.8429117202759,False,,False,0,,,0,"Index(['12', '20', '21', '24', '25', '26', '30', '31', '32', '33', '34', '36',
       '38', '40', '42', '45', '47', '48', '49', '50', '53', '61', '64', '69',
       '74', '78', '85', '93', '97', '106', '110', '114', '115', '124', '125',
       '128', '139', '146', '148', '149', '154', '158', '159', '161', '166',
       '175', '176', '178', '180', '182', '186', '188', '191', '198', '203',
       '204', '215', '216', '218', '219', '223', '229', '230', '233', '234',
       '237', '239', '243', '251', '254', '255', '260', '263', '269', '273',
       '275', '277', '281', '283', '286', '287', '289', '290', '293', '294',
       '295', '296', '297', '298', '299', '300'],
      dtype='object')",True,1000,True,2,58ad6dfce8,0.0,0.0
./expes/v3_2021-02-05_di_300-prng-1-w1-p2,daily_issda-300,300,first-300,70,23,rng,num-start-201,201,536,classic,7.388855457305908,True,,True,1.0,1.0,1.0,1,"Index(['4', '41', '46', '48', '52', '59', '61', '63', '68', '75', '76', '78',
       '83', '87', '90', '93', '94', '98', '101', '102', '103', '104', '105',
       '106', '111', '113', '121', '122', '123', '128', '130', '133', '136',
       '139', '140', '145', '152', '154', '156', '167', '172', '174', '176',
       '178', '181', '188', '208', '209', '224', '230', '235', '241', '245',
       '246', '251', '252', '253', '254', '257', '260', '263', '268', '270',
       '274', '276', '279', '283', '291', '294', '295'],
      dtype='object')",False,1000,True,2,aa4bef1b56,1.0,1.0
./expes/v3_2021-02-05_di_300-prng-1-w1-p2,daily_issda-300,300,first-300,98,32,rng,num-start-161,161,536,classic,6.2866432666778564,True,,True,1.0,1.0,1.0,1,"Index(['2', '8', '16', '19', '20', '22', '23', '36', '37', '38', '40', '44',
       '48', '58', '61', '63', '65', '67', '68', '70', '71', '72', '73', '76',
       '82', '85', '86', '91', '92', '94', '96', '99', '100', '104', '109',
       '110', '116', '119', '120', '121', '122', '129', '130', '132', '133',
       '135', '138', '142', '144', '149', '151', '152', '155', '160', '161',
       '175', '176', '178', '180', '183', '184', '187', '188', '191', '192',
       '200', '203', '209', '212', '218', '220', '221', '224', '226', '228',
       '230', '231', '236', '238', '241', '250', '252', '255', '267', '268',
       '270', '273', '275', '279', '282', '284', '285', '289', '290', '292',
       '296', '298', '299'],
      dtype='object')",False,1000,True,2,dce810bef3,1.0,1.0
./expes/v3_2021-02-05_di_300-prng-1-w1-p2,daily_issda-300,300,first-300,49,16,rng,num-start-221,221,536,classic,7.47413182258606,True,,True,1.0,1.0,1.0,1,"Index(['3', '8', '17', '18', '23', '34', '39', '69', '72', '81', '83', '90',
       '100', '106', '121', '123', '128', '135', '143', '146', '156', '161',
       '167', '168', '182', '185', '186', '188', '193', '196', '216', '220',
       '224', '226', '231', '234', '237', '241', '248', '251', '252', '257',
       '267', '275', '282', '293', '296', '299', '300'],
      dtype='object')",False,1000,True,2,3034e241c8,1.0,1.0
./expes/v3_2021-02-05_di_300-prng-1-w1-p2,daily_issda-300,300,first-300,70,23,rng,num-start-11,11,536,classic,1000.3388047218323,False,,False,0,,,0,"Index(['6', '15', '36', '38', '43', '46', '48', '49', '53', '55', '58', '59',
       '61', '63', '77', '83', '85', '87', '93', '100', '105', '112', '115',
       '121', '127', '131', '132', '134', '135', '139', '141', '143', '144',
       '145', '150', '156', '159', '162', '173', '184', '185', '187', '196',
       '198', '202', '204', '207', '211', '214', '218', '224', '225', '231',
       '232', '234', '236', '239', '243', '246', '249', '250', '251', '257',
       '264', '265', '270', '274', '283', '297', '299'],
      dtype='object')",True,1000,True,2,755fe7c9ba,0.0,0.0
./expes/v3_2021-02-05_di_300-prng-1-w1-p2,daily_issda-300,300,first-300,112,37,rng,num-start-281,281,536,classic,9.552267789840698,True,,True,1.0,1.0,1.0,1,"Index(['1', '3', '5', '11', '13', '15', '16', '17', '19', '21',
       ...
       '270', '272', '279', '283', '286', '287', '288', '291', '295', '298'],
      dtype='object', length=112)",False,1000,True,2,e1e8200d0a,1.0,1.0
./expes/v3_2021-02-05_di_300-prng-1-w1-p2,daily_issda-300,300,first-300,70,23,rng,num-start-231,231,536,classic,8.190888166427612,True,,True,1.0,1.0,1.0,1,"Index(['6', '9', '10', '19', '25', '29', '34', '38', '41', '52', '60', '72',
       '76', '78', '81', '85', '89', '92', '101', '106', '107', '115', '118',
       '119', '121', '123', '135', '144', '147', '152', '157', '159', '160',
       '161', '162', '163', '174', '177', '182', '183', '185', '189', '199',
       '201', '203', '206', '208', '215', '216', '225', '231', '234', '237',
       '239', '240', '244', '251', '252', '254', '257', '258', '262', '267',
       '272', '274', '279', '285', '290', '292', '296'],
      dtype='object')",False,1000,True,2,015f994104,1.0,1.0
./expes/v3_2021-02-05_di_300-prng-1-w1-p2,daily_issda-300,300,first-300,56,18,rng,num-start-281,281,536,classic,9.271782636642456,True,,True,1.0,1.0,1.0,1,"Index(['3', '10', '14', '26', '27', '30', '32', '36', '42', '57', '60', '64',
       '71', '72', '73', '78', '90', '101', '108', '110', '123', '128', '130',
       '137', '143', '149', '156', '159', '163', '170', '173', '182', '185',
       '188', '191', '192', '197', '206', '208', '210', '213', '215', '222',
       '243', '245', '257', '260', '268', '270', '273', '277', '283', '286',
       '287', '293', '297'],
      dtype='object')",False,1000,True,2,079290f6d6,1.0,1.0
./expes/v3_2021-02-05_di_300-prng-1-w1-p2,daily_issda-300,300,first-300,77,25,rng,num-start-281,281,536,classic,9.800964832305908,True,,True,1.0,1.0,1.0,1,"Index(['2', '4', '9', '12', '14', '23', '37', '38', '47', '51', '54', '56',
       '59', '62', '66', '69', '71', '76', '82', '88', '94', '99', '103',
       '104', '107', '120', '126', '134', '135', '138', '146', '149', '151',
       '154', '155', '158', '160', '167', '168', '178', '189', '193', '199',
       '200', '202', '203', '207', '209', '211', '213', '217', '220', '225',
       '226', '231', '232', '233', '234', '235', '237', '239', '244', '246',
       '253', '257', '258', '262', '267', '271', '278', '280', '281', '292',
       '293', '296', '297', '300'],
      dtype='object')",False,1000,True,2,084460f9ef,1.0,1.0
./expes/v3_2021-02-05_di_300-prng-1-w1-p2,daily_issda-300,300,first-300,140,46,rng,num-start-211,211,536,classic,7.241824150085449,True,,True,1.0,1.0,1.0,1,"Index(['2', '3', '8', '13', '17', '18', '19', '23', '24', '26',
       ...
       '278', '279', '282', '287', '291', '293', '295', '296', '299', '300'],
      dtype='object', length=140)",False,1000,True,2,2ee4244d6b,1.0,1.0
./expes/v3_2021-02-05_di_300-prng-1-w1-p2,daily_issda-300,300,first-300,63,21,rng,num-start-191,191,536,classic,7.1683361530303955,True,,True,1.0,1.0,1.0,1,"Index(['7', '8', '15', '16', '19', '22', '33', '34', '50', '54', '64', '67',
       '69', '70', '78', '82', '84', '99', '109', '112', '119', '120', '122',
       '133', '137', '138', '144', '146', '155', '168', '173', '180', '188',
       '190', '198', '199', '200', '203', '204', '209', '216', '219', '224',
       '228', '241', '243', '244', '247', '254', '260', '268', '274', '277',
       '278', '279', '282', '283', '292', '293', '294', '296', '298', '300'],
      dtype='object')",False,1000,True,2,4e45abbcb5,1.0,1.0
./expes/v3_2021-02-05_di_300-prng-1-w1-p2,daily_issda-300,300,first-300,119,39,rng,num-start-151,151,536,classic,5.838492393493652,True,,True,1.0,1.0,1.0,1,"Index(['3', '4', '5', '10', '30', '34', '40', '41', '45', '46',
       ...
       '281', '283', '285', '286', '287', '291', '293', '294', '295', '297'],
      dtype='object', length=119)",False,1000,True,2,83182b9689,1.0,1.0
./expes/v3_2021-02-05_di_300-prng-1-w1-p2,daily_issda-300,300,first-300,28,9,rng,num-start-51,51,536,classic,3.3898019790649414,True,,True,1.0,1.0,1.0,1,"Index(['3', '6', '11', '12', '15', '73', '79', '113', '114', '115', '117',
       '122', '130', '133', '146', '152', '155', '159', '172', '186', '210',
       '214', '216', '229', '234', '238', '241', '247'],
      dtype='object')",False,1000,True,2,78b591724d,1.0,1.0
./expes/v3_2021-02-05_di_300-prng-1-w1-p2,daily_issda-300,300,first-300,133,44,rng,num-start-241,241,536,classic,8.720207929611206,True,,True,1.0,1.0,1.0,1,"Index(['2', '7', '9', '11', '14', '16', '17', '18', '20', '23',
       ...
       '273', '277', '280', '286', '289', '292', '294', '297', '298', '300'],
      dtype='object', length=133)",False,1000,True,2,30b7f2e8e7,1.0,1.0
./expes/v3_2021-02-05_di_300-prng-1-w1-p2,daily_issda-300,300,first-300,35,11,rng,num-start-221,221,536,classic,7.436534643173218,True,,True,1.0,1.0,1.0,1,"Index(['6', '9', '19', '29', '41', '60', '76', '81', '106', '107', '115',
       '118', '119', '123', '135', '144', '157', '161', '174', '177', '182',
       '183', '185', '189', '201', '215', '216', '234', '237', '239', '251',
       '262', '267', '290', '296'],
      dtype='object')",False,1000,True,2,4cb78e01bf,1.0,1.0
./expes/v3_2021-02-05_di_300-prng-1-w1-p2,daily_issda-300,300,first-300,126,42,rng,num-start-161,161,536,classic,6.192163467407227,True,,True,1.0,1.0,1.0,1,"Index(['1', '6', '10', '11', '13', '15', '17', '18', '22', '28',
       ...
       '274', '280', '283', '284', '287', '288', '292', '293', '297', '299'],
      dtype='object', length=126)",False,1000,True,2,c13aee3550,1.0,1.0
./expes/v3_2021-02-05_di_300-prng-1-w1-p2,daily_issda-300,300,first-300,42,14,rng,num-start-161,161,536,classic,6.34023904800415,True,,True,1.0,1.0,1.0,1,"Index(['1', '8', '21', '32', '38', '48', '49', '51', '52', '72', '76', '105',
       '112', '129', '133', '134', '145', '156', '159', '162', '170', '171',
       '182', '184', '198', '205', '208', '216', '223', '227', '242', '245',
       '249', '253', '259', '262', '267', '273', '281', '283', '287', '299'],
      dtype='object')",False,1000,True,2,f0c280cc5b,1.0,1.0
./expes/v3_2021-02-05_di_300-prng-1-w1-p2,daily_issda-300,300,first-300,84,28,rng,num-start-81,81,536,classic,1002.4363749027252,False,,False,0,,,0,"Index(['4', '11', '14', '23', '24', '31', '32', '35', '42', '45', '46', '47',
       '52', '53', '55', '63', '75', '80', '83', '85', '89', '91', '92', '95',
       '100', '101', '102', '104', '110', '114', '118', '120', '121', '122',
       '127', '128', '133', '134', '135', '140', '142', '143', '144', '148',
       '149', '150', '154', '156', '157', '159', '160', '165', '166', '170',
       '173', '176', '183', '185', '191', '199', '203', '206', '212', '217',
       '221', '224', '226', '232', '236', '237', '242', '243', '246', '260',
       '261', '266', '267', '274', '275', '281', '282', '286', '294', '299'],
      dtype='object')",True,1000,True,2,86617f9604,0.0,0.0
./expes/v3_2021-02-05_di_300-prng-1-w1-p2,daily_issda-300,300,first-300,98,32,rng,num-start-31,31,536,classic,1000.9558482170105,False,,False,0,,,0,"Index(['1', '4', '6', '10', '14', '15', '16', '17', '19', '23', '27', '31',
       '32', '39', '40', '43', '45', '47', '53', '58', '59', '70', '74', '75',
       '84', '86', '88', '92', '94', '97', '99', '103', '105', '107', '108',
       '113', '114', '115', '117', '121', '123', '130', '134', '138', '141',
       '142', '145', '159', '161', '172', '173', '174', '177', '180', '183',
       '186', '187', '189', '191', '192', '196', '197', '198', '199', '206',
       '208', '215', '217', '219', '221', '222', '226', '228', '234', '236',
       '238', '241', '243', '244', '245', '247', '248', '256', '257', '260',
       '261', '262', '263', '264', '266', '271', '277', '278', '282', '285',
       '286', '294', '296'],
      dtype='object')",True,1000,True,2,f0cf8ef18e,0.0,0.0
./expes/v3_2021-02-05_di_300-prng-1-w1-p2,daily_issda-300,300,first-300,140,46,rng,num-start-21,21,536,classic,1000.6219313144684,False,,False,0,,,0,"Index(['1', '3', '5', '6', '8', '9', '10', '11', '16', '18',
       ...
       '283', '284', '287', '289', '290', '293', '295', '296', '299', '300'],
      dtype='object', length=140)",True,1000,True,2,e8db35a2d9,0.0,0.0
./expes/v3_2021-02-05_di_300-prng-1-w1-p2,daily_issda-300,300,first-300,21,7,rng,num-start-51,51,536,classic,3.191373348236084,True,,True,1.0,1.0,1.0,1,"Index(['16', '23', '44', '46', '65', '71', '99', '108', '117', '127', '190',
       '193', '200', '206', '207', '233', '236', '250', '254', '260', '294'],
      dtype='object')",False,1000,True,2,ce4f8cbcde,1.0,1.0
./expes/v3_2021-02-05_di_300-prng-1-w1-p2,daily_issda-300,300,first-300,35,11,rng,num-start-261,261,536,classic,8.804325580596924,True,,True,1.0,1.0,1.0,1,"Index(['11', '16', '23', '33', '44', '46', '50', '59', '65', '71', '99', '108',
       '117', '120', '127', '133', '137', '190', '193', '194', '195', '198',
       '200', '206', '207', '209', '233', '236', '243', '249', '250', '254',
       '260', '267', '294'],
      dtype='object')",False,1000,True,2,54a4695303,1.0,1.0
./expes/v3_2021-02-05_di_300-prng-1-w1-p2,daily_issda-300,300,first-300,112,37,rng,num-start-271,271,536,classic,9.17323350906372,True,,True,1.0,1.0,1.0,1,"Index(['3', '4', '5', '6', '7', '8', '11', '12', '15', '16',
       ...
       '258', '262', '265', '268', '270', '277', '278', '289', '297', '299'],
      dtype='object', length=112)",False,1000,True,2,b4472622f8,1.0,1.0
./expes/v3_2021-02-05_di_300-prng-1-w1-p2,daily_issda-300,300,first-300,70,23,rng,num-start-41,41,536,classic,1001.1892056465149,False,,False,0,,,0,"Index(['1', '6', '10', '15', '16', '17', '27', '31', '32', '39', '43', '45',
       '47', '58', '59', '70', '74', '75', '84', '88', '92', '99', '103',
       '108', '115', '117', '121', '130', '134', '138', '141', '159', '161',
       '172', '173', '174', '180', '183', '186', '187', '189', '191', '192',
       '196', '197', '198', '206', '208', '215', '217', '221', '226', '228',
       '236', '241', '243', '245', '248', '257', '260', '261', '262', '263',
       '271', '277', '278', '285', '286', '294', '296'],
      dtype='object')",True,1000,True,2,253a59496d,0.0,0.0
./expes/v3_2021-02-05_di_300-prng-1-w1-p2,daily_issda-300,300,first-300,84,28,rng,num-start-121,121,536,classic,8.411210060119629,True,,True,1.0,1.0,1.0,1,"Index(['1', '2', '3', '5', '7', '10', '12', '15', '19', '24', '27', '30', '34',
       '37', '53', '56', '58', '61', '65', '68', '72', '75', '81', '82', '85',
       '86', '91', '93', '94', '95', '101', '102', '105', '108', '111', '126',
       '127', '128', '129', '131', '132', '136', '144', '149', '152', '153',
       '155', '157', '159', '161', '162', '170', '174', '177', '182', '184',
       '185', '188', '189', '191', '193', '195', '197', '200', '207', '209',
       '213', '215', '222', '228', '232', '237', '239', '241', '242', '247',
       '263', '269', '272', '277', '279', '282', '294', '297'],
      dtype='object')",False,1000,True,2,6724c8804b,1.0,1.0
./expes/v3_2021-02-05_di_300-prng-1-w1-p2,daily_issda-300,300,first-300,21,7,rng,num-start-111,111,536,classic,4.09433126449585,True,,True,1.0,1.0,1.0,1,"Index(['8', '22', '33', '47', '49', '73', '81', '95', '96', '98', '156', '203',
       '229', '232', '239', '244', '261', '263', '271', '276', '287'],
      dtype='object')",False,1000,True,2,0ca3ee2161,1.0,1.0
./expes/v3_2021-02-05_di_300-prng-1-w1-p2,daily_issda-300,300,first-300,35,11,rng,num-start-21,21,536,classic,1000.6266374588013,False,,False,0,,,0,"Index(['4', '61', '63', '87', '90', '93', '94', '101', '102', '103', '104',
       '111', '113', '121', '122', '123', '130', '136', '152', '154', '167',
       '172', '176', '178', '188', '208', '230', '235', '246', '251', '253',
       '260', '268', '276', '295'],
      dtype='object')",True,1000,True,2,5c7a8a76a0,0.0,0.0
./expes/v3_2021-02-05_di_300-prng-1-w1-p2,daily_issda-300,300,first-300,42,14,rng,num-start-41,41,536,classic,1001.2119874954224,False,,False,0,,,0,"Index(['1', '8', '21', '32', '38', '48', '49', '51', '52', '72', '76', '105',
       '112', '129', '133', '134', '145', '156', '159', '162', '170', '171',
       '182', '184', '198', '205', '208', '216', '223', '227', '242', '245',
       '249', '253', '259', '262', '267', '273', '281', '283', '287', '299'],
      dtype='object')",True,1000,True,2,eddc4f7542,0.0,0.0
./expes/v3_2021-02-05_di_300-prng-1-w1-p2,daily_issda-300,300,first-300,112,37,rng,num-start-91,91,536,classic,1002.6703326702118,False,,False,0,,,0,"Index(['7', '12', '20', '21', '24', '25', '26', '30', '31', '32',
       ...
       '289', '290', '293', '294', '295', '296', '297', '298', '299', '300'],
      dtype='object', length=112)",True,1000,True,2,c21d7eb634,0.0,0.0
./expes/v3_2021-02-05_di_300-prng-1-w1-p2,daily_issda-300,300,first-300,77,25,rng,num-start-41,41,536,classic,1001.3535709381104,False,,False,0,,,0,"Index(['1', '2', '3', '5', '7', '10', '12', '15', '24', '27', '30', '34', '37',
       '53', '58', '61', '65', '68', '72', '75', '81', '82', '85', '86', '91',
       '93', '94', '95', '101', '102', '105', '108', '111', '126', '127',
       '128', '131', '132', '136', '144', '149', '153', '155', '157', '159',
       '161', '162', '170', '174', '177', '182', '184', '185', '188', '191',
       '193', '195', '197', '200', '207', '209', '213', '215', '228', '232',
       '237', '239', '241', '242', '247', '263', '272', '277', '279', '282',
       '294', '297'],
      dtype='object')",True,1000,True,2,91f1816973,0.0,0.0
./expes/v3_2021-02-05_di_300-prng-1-w1-p2,daily_issda-300,300,first-300,140,46,rng,num-start-261,261,536,classic,9.540448427200317,True,,True,1.0,1.0,1.0,1,"Index(['3', '4', '5', '6', '10', '24', '30', '34', '39', '40',
       ...
       '283', '285', '286', '287', '290', '291', '293', '294', '295', '297'],
      dtype='object', length=140)",False,1000,True,2,abe71b5b37,1.0,1.0
./expes/v3_2021-02-05_di_300-prng-1-w1-p2,daily_issda-300,300,first-300,105,35,rng,num-start-131,131,536,classic,6.811198472976685,True,,True,1.0,1.0,1.0,1,"Index(['2', '3', '8', '16', '19', '20', '22', '23', '36', '37',
       ...
       '282', '284', '285', '287', '289', '290', '292', '296', '298', '299'],
      dtype='object', length=105)",False,1000,True,2,106fee06ee,1.0,1.0
./expes/v3_2021-02-05_di_300-prng-1-w1-p2,daily_issda-300,300,first-300,42,14,rng,num-start-201,201,536,classic,7.248412370681763,True,,True,1.0,1.0,1.0,1,"Index(['7', '8', '16', '19', '22', '33', '34', '50', '67', '69', '70', '78',
       '82', '99', '112', '119', '120', '122', '133', '138', '155', '188',
       '190', '199', '200', '203', '204', '216', '219', '224', '228', '241',
       '243', '244', '254', '268', '277', '279', '282', '283', '296', '298'],
      dtype='object')",False,1000,True,2,49764a939c,1.0,1.0
./expes/v3_2021-02-05_di_300-prng-1-w1-p2,daily_issda-300,300,first-300,140,46,rng,num-start-251,251,536,classic,9.088932752609253,True,,True,1.0,1.0,1.0,1,"Index(['2', '4', '5', '9', '12', '13', '14', '17', '21', '23',
       ...
       '278', '280', '281', '284', '288', '292', '293', '296', '297', '300'],
      dtype='object', length=140)",False,1000,True,2,f3497ecf01,1.0,1.0
./expes/v3_2021-02-05_di_300-prng-1-w1-p2,daily_issda-300,300,first-300,28,9,rng,num-start-201,201,536,classic,7.061417579650879,True,,True,1.0,1.0,1.0,1,"Index(['8', '16', '37', '44', '65', '67', '72', '76', '96', '110', '116',
       '119', '120', '132', '133', '135', '142', '149', '151', '183', '220',
       '221', '224', '231', '250', '273', '282', '289'],
      dtype='object')",False,1000,True,2,3904c3fd20,1.0,1.0
./expes/v3_2021-02-05_di_300-prng-1-w1-p2,daily_issda-300,300,first-300,42,14,rng,num-start-21,21,536,classic,1000.6669445037842,False,,False,0,,,0,"Index(['3', '4', '21', '23', '27', '29', '33', '42', '45', '53', '57', '68',
       '71', '72', '81', '87', '96', '103', '105', '108', '115', '122', '137',
       '144', '150', '172', '174', '175', '192', '194', '195', '197', '204',
       '211', '216', '217', '232', '238', '252', '258', '260', '284'],
      dtype='object')",True,1000,True,2,c3e2b50e54,0.0,0.0
./expes/v3_2021-02-05_di_300-prng-1-w1-p2,daily_issda-300,300,first-300,77,25,rng,num-start-151,151,536,classic,5.48553466796875,True,,True,1.0,1.0,1.0,1,"Index(['2', '4', '9', '12', '14', '23', '37', '38', '47', '51', '54', '56',
       '59', '62', '66', '69', '71', '76', '82', '88', '94', '99', '103',
       '104', '107', '120', '126', '134', '135', '138', '146', '149', '151',
       '154', '155', '158', '160', '167', '168', '178', '189', '193', '199',
       '200', '202', '203', '207', '209', '211', '213', '217', '220', '225',
       '226', '231', '232', '233', '234', '235', '237', '239', '244', '246',
       '253', '257', '258', '262', '267', '271', '278', '280', '281', '292',
       '293', '296', '297', '300'],
      dtype='object')",False,1000,True,2,eca72f6dc9,1.0,1.0
./expes/v3_2021-02-05_di_300-prng-1-w1-p2,daily_issda-300,300,first-300,133,44,rng,num-start-91,91,536,classic,1002.6811854839325,False,,False,0,,,0,"Index(['4', '6', '7', '8', '11', '12', '14', '15', '16', '17',
       ...
       '282', '283', '287', '292', '293', '294', '296', '297', '298', '300'],
      dtype='object', length=133)",True,1000,True,2,718665ef1c,0.0,0.0
./expes/v3_2021-02-05_di_300-prng-1-w1-p2,daily_issda-300,300,first-300,91,30,rng,num-start-201,201,536,classic,8.35487151145935,True,,True,1.0,1.0,1.0,1,"Index(['6', '8', '9', '10', '19', '22', '23', '25', '29', '31', '32', '33',
       '34', '38', '41', '48', '52', '60', '72', '73', '76', '78', '81', '82',
       '85', '89', '92', '101', '106', '107', '115', '118', '119', '121',
       '123', '131', '134', '135', '140', '144', '147', '148', '152', '157',
       '159', '160', '161', '162', '163', '173', '174', '177', '182', '183',
       '185', '189', '193', '199', '200', '201', '203', '206', '208', '215',
       '216', '225', '227', '231', '234', '237', '239', '240', '243', '244',
       '247', '251', '252', '253', '254', '256', '257', '258', '262', '267',
       '272', '274', '279', '285', '290', '292', '296'],
      dtype='object')",False,1000,True,2,e0bddaf03d,1.0,1.0
./expes/v3_2021-02-05_di_300-prng-1-w1-p2,daily_issda-300,300,first-300,133,44,rng,num-start-61,61,536,classic,1002.0084846019745,False,,False,0,,,0,"Index(['4', '5', '10', '11', '14', '17', '19', '21', '22', '23',
       ...
       '271', '274', '275', '280', '281', '282', '286', '293', '294', '299'],
      dtype='object', length=133)",True,1000,True,2,6dd3e1d419,0.0,0.0
./expes/v3_2021-02-05_di_300-prng-1-w1-p2,daily_issda-300,300,first-300,105,35,rng,num-start-121,121,536,classic,12.96350359916687,True,,True,1.0,1.0,1.0,1,"Index(['3', '5', '10', '11', '14', '26', '27', '28', '30', '32',
       ...
       '279', '283', '284', '285', '286', '287', '289', '293', '295', '297'],
      dtype='object', length=105)",False,1000,True,2,38db24f9e2,1.0,1.0
./expes/v3_2021-02-05_di_300-prng-1-w1-p2,daily_issda-300,300,first-300,63,21,rng,num-start-21,21,536,classic,1000.6787307262421,False,,False,0,,,0,"Index(['6', '9', '10', '19', '25', '29', '34', '38', '41', '52', '60', '72',
       '76', '78', '81', '89', '92', '101', '106', '107', '115', '118', '119',
       '123', '135', '144', '147', '152', '157', '161', '162', '174', '177',
       '182', '183', '185', '189', '201', '203', '206', '208', '215', '216',
       '225', '231', '234', '237', '239', '240', '251', '252', '254', '257',
       '258', '262', '267', '272', '274', '279', '285', '290', '292', '296'],
      dtype='object')",True,1000,True,2,77dbbd65e2,0.0,0.0
./expes/v3_2021-02-05_di_300-prng-1-w1-p2,daily_issda-300,300,first-300,98,32,rng,num-start-51,51,536,classic,1001.5484936237335,False,,False,0,,,0,"Index(['1', '2', '3', '4', '5', '9', '10', '13', '14', '18', '21', '22', '23',
       '27', '28', '29', '33', '36', '42', '43', '44', '45', '46', '48', '53',
       '57', '58', '63', '68', '69', '71', '72', '75', '77', '81', '83', '87',
       '89', '96', '99', '102', '103', '104', '105', '108', '110', '114',
       '115', '122', '137', '138', '139', '144', '146', '150', '158', '167',
       '169', '170', '172', '174', '175', '178', '188', '192', '194', '195',
       '196', '197', '204', '206', '207', '211', '216', '217', '218', '222',
       '228', '232', '238', '252', '255', '257', '258', '259', '260', '265',
       '268', '276', '277', '284', '285', '287', '290', '294', '295', '297',
       '300'],
      dtype='object')",True,1000,True,2,e5c4369e73,0.0,0.0
./expes/v3_2021-02-05_di_300-prng-1-w1-p2,daily_issda-300,300,first-300,140,46,rng,num-start-1,1,536,classic,1.7901291847229004,False,,False,0.2940806366249648,0.2917117530251716,0.296449520224758,2,"Index(['2', '3', '8', '13', '17', '18', '19', '23', '24', '26',
       ...
       '278', '279', '282', '287', '291', '293', '295', '296', '299', '300'],
      dtype='object', length=140)",False,1000,True,2,825126936a,1.0,1.0
./expes/v3_2021-02-05_di_300-prng-1-w1-p2,daily_issda-300,300,first-300,140,46,rng,num-start-41,41,536,classic,1001.2280497550964,False,,False,0,,,0,"Index(['2', '7', '9', '11', '14', '16', '17', '18', '20', '23',
       ...
       '273', '277', '280', '286', '289', '292', '294', '297', '298', '300'],
      dtype='object', length=140)",True,1000,True,2,4beccc9eb6,0.0,0.0
./expes/v3_2021-02-05_di_300-prng-1-w1-p2,daily_issda-300,300,first-300,70,23,rng,num-start-41,41,536,classic,1001.1922318935394,False,,False,0,,,0,"Index(['3', '8', '17', '18', '19', '23', '34', '37', '39', '42', '50', '58',
       '69', '72', '77', '81', '83', '86', '90', '98', '100', '106', '115',
       '121', '123', '128', '135', '143', '146', '155', '156', '161', '167',
       '168', '179', '182', '185', '186', '188', '192', '193', '196', '197',
       '212', '213', '216', '220', '222', '224', '226', '227', '229', '231',
       '234', '237', '241', '248', '251', '252', '255', '257', '267', '274',
       '275', '282', '291', '293', '296', '299', '300'],
      dtype='object')",True,1000,True,2,6d706d55e5,0.0,0.0
./expes/v3_2021-02-05_di_300-prng-1-w1-p2,daily_issda-300,300,first-300,28,9,rng,num-start-161,161,536,classic,5.971573114395142,True,,True,1.0,1.0,1.0,1,"Index(['11', '14', '31', '35', '47', '53', '55', '80', '85', '89', '100',
       '110', '114', '121', '134', '135', '140', '142', '149', '156', '159',
       '185', '203', '206', '246', '267', '275', '282'],
      dtype='object')",False,1000,True,2,c13df27bcc,1.0,1.0
./expes/v3_2021-02-05_di_300-prng-1-w1-p2,daily_issda-300,300,first-300,84,28,rng,num-start-131,131,536,classic,5.010899543762207,True,,True,1.0,1.0,1.0,1,"Index(['6', '8', '9', '10', '19', '22', '25', '29', '33', '34', '38', '41',
       '48', '52', '60', '72', '73', '76', '78', '81', '85', '89', '92', '101',
       '106', '107', '115', '118', '119', '121', '123', '134', '135', '140',
       '144', '147', '148', '152', '157', '159', '160', '161', '162', '163',
       '173', '174', '177', '182', '183', '185', '189', '193', '199', '200',
       '201', '203', '206', '208', '215', '216', '225', '227', '231', '234',
       '237', '239', '240', '243', '244', '251', '252', '253', '254', '257',
       '258', '262', '267', '272', '274', '279', '285', '290', '292', '296'],
      dtype='object')",False,1000,True,2,be8d99f7ea,1.0,1.0
./expes/v3_2021-02-05_di_300-prng-1-w1-p2,daily_issda-300,300,first-300,91,30,rng,num-start-121,121,536,classic,5.472813606262207,True,,True,1.0,1.0,1.0,1,"Index(['2', '3', '5', '7', '12', '14', '15', '16', '18', '23', '33', '45',
       '49', '52', '53', '56', '61', '62', '67', '69', '84', '87', '88', '89',
       '96', '98', '103', '108', '111', '113', '114', '117', '118', '119',
       '120', '125', '131', '137', '138', '146', '149', '152', '156', '158',
       '163', '171', '177', '181', '188', '190', '192', '195', '196', '197',
       '200', '202', '207', '208', '213', '214', '217', '222', '225', '229',
       '231', '236', '241', '242', '246', '250', '251', '254', '256', '257',
       '258', '259', '260', '261', '263', '264', '266', '267', '271', '277',
       '278', '281', '284', '285', '292', '296', '297'],
      dtype='object')",False,1000,True,2,5bb8698203,1.0,1.0
./expes/v3_2021-02-05_di_300-prng-1-w1-p2,daily_issda-300,300,first-300,49,16,rng,num-start-41,41,536,classic,1001.2721416950226,False,,False,0,,,0,"Index(['9', '12', '23', '37', '38', '51', '54', '56', '59', '62', '69', '71',
       '76', '82', '99', '103', '104', '107', '120', '134', '138', '149',
       '154', '160', '167', '168', '178', '199', '200', '202', '203', '209',
       '211', '213', '217', '226', '234', '253', '258', '262', '267', '271',
       '278', '280', '292', '293', '296', '297', '300'],
      dtype='object')",True,1000,True,2,0c3556ca42,0.0,0.0
./expes/v3_2021-02-05_di_300-prng-1-w1-p2,daily_issda-300,300,first-300,42,14,rng,num-start-111,111,536,classic,4.140111684799194,True,,True,1.0,1.0,1.0,1,"Index(['3', '8', '16', '19', '22', '31', '33', '43', '44', '47', '49', '73',
       '81', '95', '96', '98', '101', '120', '124', '131', '143', '151', '156',
       '162', '168', '203', '209', '226', '229', '232', '235', '238', '239',
       '244', '256', '261', '263', '266', '271', '276', '283', '287'],
      dtype='object')",False,1000,True,2,8e6016e642,1.0,1.0
./expes/v3_2021-02-05_di_300-prng-1-w1-p2,daily_issda-300,300,first-300,21,7,rng,num-start-131,131,536,classic,4.7133307456970215,True,,True,1.0,1.0,1.0,1,"Index(['4', '21', '27', '42', '57', '68', '71', '81', '87', '96', '122', '137',
       '172', '174', '192', '195', '217', '232', '238', '258', '284'],
      dtype='object')",False,1000,True,2,1ba3bdaced,1.0,1.0
./expes/v3_2021-02-05_di_300-prng-1-w1-p2,daily_issda-300,300,first-300,140,46,rng,num-start-241,241,536,classic,8.646112203598022,True,,True,1.0,1.0,1.0,1,"Index(['1', '4', '7', '8', '9', '10', '11', '12', '15', '16',
       ...
       '277', '283', '284', '286', '287', '289', '292', '294', '295', '297'],
      dtype='object', length=140)",False,1000,True,2,a788095fbd,1.0,1.0
./expes/v3_2021-02-05_di_300-prng-1-w1-p2,daily_issda-300,300,first-300,49,16,rng,num-start-271,271,536,classic,9.157806396484375,True,,True,1.0,1.0,1.0,1,"Index(['1', '3', '7', '12', '15', '27', '34', '37', '53', '58', '65', '68',
       '72', '75', '81', '82', '85', '86', '94', '101', '102', '105', '108',
       '111', '127', '128', '131', '136', '144', '149', '153', '155', '161',
       '170', '184', '185', '191', '195', '197', '200', '209', '213', '228',
       '239', '241', '272', '277', '279', '294'],
      dtype='object')",False,1000,True,2,44bb590b96,1.0,1.0
./expes/v3_2021-02-05_di_300-prng-1-w1-p2,daily_issda-300,300,first-300,49,16,rng,num-start-241,241,536,classic,8.542620182037354,True,,True,1.0,1.0,1.0,1,"Index(['11', '16', '20', '23', '30', '33', '44', '45', '46', '50', '56', '59',
       '65', '71', '73', '99', '100', '107', '108', '117', '120', '121', '127',
       '133', '137', '174', '190', '193', '194', '195', '198', '200', '206',
       '207', '209', '233', '236', '243', '249', '250', '251', '254', '255',
       '260', '265', '267', '277', '294', '298'],
      dtype='object')",False,1000,True,2,bc97f7d3f8,1.0,1.0
./expes/v3_2021-02-05_di_300-prng-1-w1-p2,daily_issda-300,300,first-300,105,35,rng,num-start-221,221,536,classic,7.692102432250977,True,,True,1.0,1.0,1.0,1,"Index(['1', '2', '3', '5', '7', '12', '14', '15', '16', '18',
       ...
       '276', '277', '278', '281', '284', '285', '288', '292', '296', '297'],
      dtype='object', length=105)",False,1000,True,2,8abf451d5e,1.0,1.0
./expes/v3_2021-02-05_di_300-prng-1-w1-p2,daily_issda-300,300,first-300,91,30,rng,num-start-241,241,536,classic,8.342308759689331,True,,True,1.0,1.0,1.0,1,"Index(['7', '11', '14', '16', '18', '20', '23', '30', '33', '37', '44', '45',
       '46', '50', '56', '59', '60', '65', '70', '71', '73', '76', '77', '82',
       '83', '86', '88', '90', '99', '100', '102', '104', '107', '108', '113',
       '117', '120', '121', '125', '127', '131', '133', '137', '146', '147',
       '152', '153', '154', '159', '161', '174', '176', '177', '183', '190',
       '193', '194', '195', '198', '200', '203', '206', '207', '209', '214',
       '217', '219', '228', '233', '234', '236', '243', '249', '250', '251',
       '254', '255', '258', '260', '262', '265', '267', '271', '273', '277',
       '280', '286', '294', '297', '298', '300'],
      dtype='object')",False,1000,True,2,ab39e74478,1.0,1.0
./expes/v3_2021-02-05_di_300-prng-1-w1-p2,daily_issda-300,300,first-300,70,23,rng,num-start-241,241,536,classic,8.160115718841553,True,,True,1.0,1.0,1.0,1,"Index(['3', '10', '14', '26', '27', '30', '32', '33', '36', '42', '49', '57',
       '60', '64', '67', '71', '72', '73', '78', '88', '90', '99', '101',
       '108', '110', '123', '128', '129', '130', '137', '142', '143', '149',
       '156', '158', '159', '163', '164', '170', '171', '173', '179', '182',
       '185', '188', '191', '192', '197', '206', '208', '210', '213', '215',
       '222', '243', '245', '257', '260', '268', '270', '273', '277', '283',
       '284', '285', '286', '287', '293', '295', '297'],
      dtype='object')",False,1000,True,2,10790fc572,1.0,1.0
./expes/v3_2021-02-05_di_300-prng-1-w1-p2,daily_issda-300,300,first-300,126,42,rng,num-start-11,11,536,classic,1000.348105430603,False,,False,0,,,0,"Index(['2', '4', '5', '9', '12', '13', '14', '21', '23', '24',
       ...
       '271', '278', '280', '281', '288', '292', '293', '296', '297', '300'],
      dtype='object', length=126)",True,1000,True,2,5cf11e7740,0.0,0.0
./expes/v3_2021-02-05_di_300-prng-1-w1-p2,daily_issda-300,300,first-300,7,2,rng,num-start-141,141,536,classic,5.141892671585083,True,,True,1.0,1.0,1.0,1,"Index(['95', '98', '232', '239', '261', '263', '287'], dtype='object')",False,1000,True,2,9757a60678,1.0,1.0
./expes/v3_2021-02-05_di_300-prng-1-w1-p2,daily_issda-300,300,first-300,119,39,rng,num-start-101,101,536,classic,1003.1005823612213,False,,False,0,,,0,"Index(['1', '2', '3', '5', '7', '8', '9', '12', '14', '15',
       ...
       '281', '282', '283', '284', '285', '288', '292', '296', '297', '300'],
      dtype='object', length=119)",True,1000,True,2,aa54e208fa,0.0,0.0
./expes/v3_2021-02-05_di_300-prng-1-w1-p2,daily_issda-300,300,first-300,7,2,rng,num-start-251,251,536,classic,8.157721757888794,True,,True,1.0,1.0,1.0,1,"Index(['33', '61', '69', '131', '231', '254', '292'], dtype='object')",False,1000,True,2,ff1369d484,1.0,1.0
./expes/v3_2021-02-05_di_300-prng-1-w1-p2,daily_issda-300,300,first-300,14,4,rng,num-start-171,171,536,classic,5.864550828933716,True,,True,1.0,1.0,1.0,1,"Index(['6', '9', '19', '29', '60', '76', '81', '107', '123', '174', '183',
       '189', '239', '267'],
      dtype='object')",False,1000,True,2,23662339d0,1.0,1.0
./expes/v3_2021-02-05_di_300-prng-1-w1-p2,daily_issda-300,300,first-300,28,9,rng,num-start-131,131,536,classic,4.848024606704712,True,,True,1.0,1.0,1.0,1,"Index(['11', '16', '23', '44', '46', '65', '71', '99', '108', '117', '120',
       '127', '137', '190', '193', '200', '206', '207', '209', '233', '236',
       '243', '249', '250', '254', '260', '267', '294'],
      dtype='object')",False,1000,True,2,595bcd765b,1.0,1.0
./expes/v3_2021-02-05_di_300-prng-1-w1-p2,daily_issda-300,300,first-300,35,11,rng,num-start-31,31,536,classic,1000.955192565918,False,,False,0,,,0,"Index(['4', '61', '63', '87', '90', '93', '94', '101', '102', '103', '104',
       '111', '113', '121', '122', '123', '130', '136', '152', '154', '167',
       '172', '176', '178', '188', '208', '230', '235', '246', '251', '253',
       '260', '268', '276', '295'],
      dtype='object')",True,1000,True,2,5b4663bf17,0.0,0.0
./expes/v3_2021-02-05_di_300-prng-1-w1-p2,daily_issda-300,300,first-300,140,46,rng,num-start-21,21,536,classic,1000.6393094062805,False,,False,0,,,0,"Index(['1', '3', '7', '12', '14', '20', '21', '24', '25', '26',
       ...
       '290', '291', '293', '294', '295', '296', '297', '298', '299', '300'],
      dtype='object', length=140)",True,1000,True,2,d1237a3254,0.0,0.0
./expes/v3_2021-02-05_di_300-prng-1-w1-p2,daily_issda-300,300,first-300,7,2,rng,num-start-131,131,536,classic,4.82237696647644,True,,True,1.0,1.0,1.0,1,"Index(['90', '149', '156', '188', '213', '268', '277'], dtype='object')",False,1000,True,2,f1231b7a02,1.0,1.0
./expes/v3_2021-02-05_di_300-prng-1-w1-p2,daily_issda-300,300,first-300,105,35,rng,num-start-291,291,536,classic,10.844509840011597,True,,True,1.0,1.0,1.0,1,"Index(['1', '4', '7', '9', '10', '12', '15', '19', '24', '28',
       ...
       '269', '271', '276', '277', '284', '286', '287', '289', '294', '295'],
      dtype='object', length=105)",False,1000,True,2,de7b366edc,1.0,1.0
./expes/v3_2021-02-05_di_300-prng-1-w1-p2,daily_issda-300,300,first-300,21,7,rng,num-start-271,271,536,classic,9.0953528881073,True,,True,1.0,1.0,1.0,1,"Index(['20', '25', '30', '36', '38', '45', '47', '49', '78', '110', '124',
       '166', '188', '203', '215', '218', '223', '260', '275', '283', '299'],
      dtype='object')",False,1000,True,2,abb04b28d4,1.0,1.0
./expes/v3_2021-02-05_di_300-prng-1-w1-p2,daily_issda-300,300,first-300,91,30,rng,num-start-81,81,536,classic,1002.4706573486328,False,,False,0,,,0,"Index(['1', '8', '17', '20', '21', '32', '33', '36', '38', '42', '43', '46',
       '47', '48', '49', '51', '52', '56', '60', '64', '67', '72', '73', '76',
       '77', '95', '96', '97', '98', '105', '111', '112', '114', '121', '123',
       '124', '125', '129', '133', '134', '141', '142', '145', '148', '149',
       '150', '155', '156', '159', '162', '163', '164', '167', '170', '171',
       '182', '183', '184', '198', '201', '205', '208', '215', '216', '223',
       '227', '228', '230', '231', '242', '244', '245', '249', '251', '253',
       '259', '261', '262', '267', '268', '269', '273', '277', '279', '281',
       '283', '287', '291', '295', '297', '299'],
      dtype='object')",True,1000,True,2,7747bf4117,0.0,0.0
./expes/v3_2021-02-05_di_300-prng-1-w1-p2,daily_issda-300,300,first-300,28,9,rng,num-start-151,151,536,classic,5.781812906265259,True,,True,1.0,1.0,1.0,1,"Index(['11', '16', '23', '44', '46', '65', '71', '99', '108', '117', '120',
       '127', '137', '190', '193', '200', '206', '207', '209', '233', '236',
       '243', '249', '250', '254', '260', '267', '294'],
      dtype='object')",False,1000,True,2,29a48c0d14,1.0,1.0
./expes/v3_2021-02-05_di_300-prng-1-w1-p2,daily_issda-300,300,first-300,112,37,rng,num-start-251,251,536,classic,8.700391054153442,True,,True,1.0,1.0,1.0,1,"Index(['3', '4', '5', '6', '7', '8', '11', '12', '15', '16',
       ...
       '258', '262', '265', '268', '270', '277', '278', '289', '297', '299'],
      dtype='object', length=112)",False,1000,True,2,8ccdd4a762,1.0,1.0
./expes/v3_2021-02-05_di_300-prng-1-w1-p2,daily_issda-300,300,first-300,140,46,rng,num-start-101,101,536,classic,1002.9606533050537,False,,False,0,,,0,"Index(['1', '3', '5', '6', '8', '9', '10', '11', '16', '18',
       ...
       '283', '284', '287', '289', '290', '293', '295', '296', '299', '300'],
      dtype='object', length=140)",True,1000,True,2,db3eab17c0,0.0,0.0
