expe,clients,clients_size,clients_subset,agg_size,agg_size_pc,method,days,days_size,days_total,noise_method,time,valid,valid_sum,success,score_avg,score_min,score_max,nsols,oracle,wall_hit,wall_time,pooled,pool_size,uuid,optimal,valid_sums
./expes/v3_2021-02-05_di_300-prng-1-w1-p2,daily_issda-300,300,first-300,133,44,rng,num-start-11,11,536,classic,1000.48397397995,False,,False,0,,,0,"Index(['1', '4', '7', '8', '9', '10', '11', '12', '15', '16',
       ...
       '277', '283', '284', '286', '287', '289', '292', '294', '295', '297'],
      dtype='object', length=133)",True,1000,True,2,db98b0fd05,0.0,0.0
./expes/v3_2021-02-05_di_300-prng-1-w1-p2,daily_issda-300,300,first-300,140,46,rng,num-start-221,221,536,classic,10.313909769058228,True,,True,1.0,1.0,1.0,1,"Index(['1', '2', '3', '5', '7', '10', '12', '15', '17', '18',
       ...
       '274', '277', '279', '280', '281', '282', '287', '289', '294', '297'],
      dtype='object', length=140)",False,1000,True,2,004bb1a298,1.0,1.0
./expes/v3_2021-02-05_di_300-prng-1-w1-p2,daily_issda-300,300,first-300,126,42,rng,num-start-271,271,536,classic,12.97881293296814,True,,True,1.0,1.0,1.0,1,"Index(['2', '4', '5', '9', '12', '13', '14', '21', '23', '24',
       ...
       '271', '278', '280', '281', '288', '292', '293', '296', '297', '300'],
      dtype='object', length=126)",False,1000,True,2,e40a5690d5,1.0,1.0
./expes/v3_2021-02-05_di_300-prng-1-w1-p2,daily_issda-300,300,first-300,91,30,rng,num-start-151,151,536,classic,7.033363342285156,True,,True,1.0,1.0,1.0,1,"Index(['3', '8', '17', '18', '19', '23', '34', '37', '39', '41', '42', '50',
       '58', '62', '69', '72', '74', '77', '81', '82', '83', '85', '86', '90',
       '91', '92', '98', '100', '106', '115', '121', '123', '125', '126',
       '128', '135', '137', '141', '143', '146', '155', '156', '161', '164',
       '167', '168', '170', '178', '179', '182', '185', '186', '188', '192',
       '193', '196', '197', '200', '208', '212', '213', '216', '220', '222',
       '223', '224', '226', '227', '229', '230', '231', '234', '237', '241',
       '246', '248', '251', '252', '255', '257', '267', '268', '274', '275',
       '279', '282', '291', '293', '296', '299', '300'],
      dtype='object')",False,1000,True,2,878a88705a,1.0,1.0
./expes/v3_2021-02-05_di_300-prng-1-w1-p2,daily_issda-300,300,first-300,77,25,rng,num-start-291,291,536,classic,13.44440484046936,True,,True,1.0,1.0,1.0,1,"Index(['2', '5', '12', '14', '15', '16', '18', '23', '33', '45', '49', '52',
       '53', '56', '61', '62', '69', '84', '87', '88', '89', '96', '98', '108',
       '111', '113', '114', '118', '119', '120', '125', '131', '137', '146',
       '149', '152', '156', '158', '163', '171', '177', '188', '190', '192',
       '195', '196', '200', '202', '207', '213', '214', '217', '222', '225',
       '229', '231', '236', '241', '242', '246', '250', '251', '254', '256',
       '257', '258', '259', '260', '261', '267', '271', '278', '281', '284',
       '285', '292', '297'],
      dtype='object')",False,1000,True,2,9a772f3ddc,1.0,1.0
./expes/v3_2021-02-05_di_300-prng-1-w1-p2,daily_issda-300,300,first-300,105,35,rng,num-start-31,31,536,classic,1001.0802907943726,False,,False,0,,,0,"Index(['7', '11', '14', '16', '18', '20', '23', '30', '33', '36',
       ...
       '273', '277', '280', '286', '289', '292', '294', '297', '298', '300'],
      dtype='object', length=105)",True,1000,True,2,356f54a631,0.0,0.0
./expes/v3_2021-02-05_di_300-prng-1-w1-p2,daily_issda-300,300,first-300,56,18,rng,num-start-241,241,536,classic,10.39703917503357,True,,True,1.0,1.0,1.0,1,"Index(['4', '11', '14', '23', '31', '35', '45', '46', '47', '53', '55', '80',
       '83', '85', '89', '92', '100', '110', '114', '120', '121', '127', '128',
       '133', '134', '135', '140', '142', '144', '148', '149', '150', '154',
       '156', '157', '159', '160', '173', '185', '191', '199', '203', '206',
       '212', '217', '221', '232', '243', '246', '260', '261', '267', '275',
       '281', '282', '294'],
      dtype='object')",False,1000,True,2,ad62d0a3b5,1.0,1.0
./expes/v3_2021-02-05_di_300-prng-1-w1-p2,daily_issda-300,300,first-300,126,42,rng,num-start-91,91,536,classic,1003.0686869621277,False,,False,0,,,0,"Index(['2', '3', '8', '13', '17', '18', '19', '23', '26', '33',
       ...
       '278', '279', '282', '287', '291', '293', '295', '296', '299', '300'],
      dtype='object', length=126)",True,1000,True,2,34e9df0fc9,0.0,0.0
./expes/v3_2021-02-05_di_300-prng-1-w1-p2,daily_issda-300,300,first-300,105,35,rng,num-start-181,181,536,classic,8.042381286621094,True,,True,1.0,1.0,1.0,1,"Index(['4', '5', '10', '11', '14', '22', '23', '24', '31', '32',
       ...
       '266', '267', '274', '275', '281', '282', '286', '293', '294', '299'],
      dtype='object', length=105)",False,1000,True,2,003abd1668,1.0,1.0
./expes/v3_2021-02-05_di_300-prng-1-w1-p2,daily_issda-300,300,first-300,14,4,rng,num-start-211,211,536,classic,7.577335596084595,True,,True,1.0,1.0,1.0,1,"Index(['1', '6', '74', '117', '138', '141', '180', '192', '196', '236', '243',
       '248', '271', '286'],
      dtype='object')",False,1000,True,2,671a72ed90,1.0,1.0
./expes/v3_2021-02-05_di_300-prng-1-w1-p2,daily_issda-300,300,first-300,49,16,rng,num-start-71,71,536,classic,39.49125695228577,True,,True,1.0,1.0,1.0,1,"Index(['3', '8', '16', '19', '22', '31', '33', '36', '43', '44', '47', '49',
       '56', '73', '81', '95', '96', '98', '101', '118', '120', '124', '131',
       '143', '148', '149', '151', '156', '162', '168', '203', '206', '209',
       '226', '229', '232', '235', '238', '239', '244', '256', '261', '263',
       '266', '271', '276', '283', '287', '289'],
      dtype='object')",False,1000,True,2,bb134fe9d6,1.0,1.0
./expes/v3_2021-02-05_di_300-prng-1-w1-p2,daily_issda-300,300,first-300,133,44,rng,num-start-201,201,536,classic,9.674257755279541,True,,True,1.0,1.0,1.0,1,"Index(['3', '5', '6', '10', '11', '14', '15', '26', '27', '28',
       ...
       '284', '285', '286', '287', '289', '291', '293', '295', '296', '297'],
      dtype='object', length=133)",False,1000,True,2,b37ef9870f,1.0,1.0
./expes/v3_2021-02-05_di_300-prng-1-w1-p2,daily_issda-300,300,first-300,84,28,rng,num-start-101,101,536,classic,18.69693160057068,True,,True,1.0,1.0,1.0,1,"Index(['2', '4', '9', '12', '14', '23', '24', '35', '37', '38', '40', '47',
       '51', '52', '54', '56', '59', '62', '66', '69', '71', '76', '82', '88',
       '94', '99', '103', '104', '107', '108', '120', '126', '134', '135',
       '138', '146', '149', '151', '154', '155', '158', '160', '167', '168',
       '178', '189', '193', '199', '200', '202', '203', '207', '209', '211',
       '213', '216', '217', '220', '225', '226', '231', '232', '233', '234',
       '235', '237', '238', '239', '244', '246', '253', '257', '258', '262',
       '267', '271', '278', '280', '281', '292', '293', '296', '297', '300'],
      dtype='object')",False,1000,True,2,bb57000f8f,1.0,1.0
./expes/v3_2021-02-05_di_300-prng-1-w1-p2,daily_issda-300,300,first-300,56,18,rng,num-start-201,201,536,classic,8.750333070755005,True,,True,1.0,1.0,1.0,1,"Index(['7', '8', '15', '16', '19', '22', '33', '34', '50', '67', '69', '70',
       '78', '82', '84', '99', '112', '119', '120', '122', '133', '138', '144',
       '155', '168', '173', '180', '188', '190', '198', '199', '200', '203',
       '204', '209', '216', '219', '224', '228', '241', '243', '244', '254',
       '260', '268', '274', '277', '278', '279', '282', '283', '293', '294',
       '296', '298', '300'],
      dtype='object')",False,1000,True,2,99227900cb,1.0,1.0
./expes/v3_2021-02-05_di_300-prng-1-w1-p2,daily_issda-300,300,first-300,84,28,rng,num-start-101,101,536,classic,18.668283462524414,True,,True,1.0,1.0,1.0,1,"Index(['4', '11', '14', '23', '24', '31', '32', '35', '42', '45', '46', '47',
       '52', '53', '55', '63', '75', '80', '83', '85', '89', '91', '92', '95',
       '100', '101', '102', '104', '110', '114', '118', '120', '121', '122',
       '127', '128', '133', '134', '135', '140', '142', '143', '144', '148',
       '149', '150', '154', '156', '157', '159', '160', '165', '166', '170',
       '173', '176', '183', '185', '191', '199', '203', '206', '212', '217',
       '221', '224', '226', '232', '236', '237', '242', '243', '246', '260',
       '261', '266', '267', '274', '275', '281', '282', '286', '294', '299'],
      dtype='object')",False,1000,True,2,2430d37f77,1.0,1.0
./expes/v3_2021-02-05_di_300-prng-1-w1-p2,daily_issda-300,300,first-300,91,30,rng,num-start-261,261,536,classic,11.677852869033813,True,,True,1.0,1.0,1.0,1,"Index(['6', '10', '11', '15', '22', '35', '36', '38', '43', '46', '48', '49',
       '53', '55', '58', '59', '61', '63', '74', '77', '83', '85', '87', '93',
       '97', '100', '105', '112', '115', '121', '127', '131', '132', '134',
       '135', '137', '139', '141', '143', '144', '145', '150', '155', '156',
       '159', '162', '173', '178', '183', '184', '185', '187', '189', '196',
       '198', '199', '202', '204', '207', '208', '211', '214', '217', '218',
       '224', '225', '226', '231', '232', '234', '236', '239', '241', '242',
       '243', '246', '249', '250', '251', '257', '264', '265', '270', '272',
       '274', '283', '287', '292', '293', '297', '299'],
      dtype='object')",False,1000,True,2,adec305fdb,1.0,1.0
./expes/v3_2021-02-05_di_300-prng-1-w1-p2,daily_issda-300,300,first-300,84,28,rng,num-start-231,231,536,classic,9.852891445159912,True,,True,1.0,1.0,1.0,1,"Index(['2', '5', '7', '12', '14', '15', '16', '18', '23', '33', '45', '49',
       '52', '53', '56', '61', '62', '69', '84', '87', '88', '89', '96', '98',
       '103', '108', '111', '113', '114', '117', '118', '119', '120', '125',
       '131', '137', '146', '149', '152', '156', '158', '163', '171', '177',
       '188', '190', '192', '195', '196', '200', '202', '207', '208', '213',
       '214', '217', '222', '225', '229', '231', '236', '241', '242', '246',
       '250', '251', '254', '256', '257', '258', '259', '260', '261', '264',
       '267', '271', '277', '278', '281', '284', '285', '292', '296', '297'],
      dtype='object')",False,1000,True,2,ea8c765920,1.0,1.0
./expes/v3_2021-02-05_di_300-prng-1-w1-p2,daily_issda-300,300,first-300,77,25,rng,num-start-241,241,536,classic,10.467354774475098,True,,True,1.0,1.0,1.0,1,"Index(['1', '6', '10', '14', '15', '16', '17', '23', '27', '31', '32', '39',
       '43', '45', '47', '58', '59', '70', '74', '75', '84', '88', '92', '99',
       '103', '105', '108', '114', '115', '117', '121', '130', '134', '138',
       '141', '159', '161', '172', '173', '174', '180', '183', '186', '187',
       '189', '191', '192', '196', '197', '198', '199', '206', '208', '215',
       '217', '219', '221', '226', '228', '236', '241', '243', '245', '248',
       '257', '260', '261', '262', '263', '266', '271', '277', '278', '285',
       '286', '294', '296'],
      dtype='object')",False,1000,True,2,e980874bd9,1.0,1.0
./expes/v3_2021-02-05_di_300-prng-1-w1-p2,daily_issda-300,300,first-300,119,39,rng,num-start-281,281,536,classic,12.77518606185913,True,,True,1.0,1.0,1.0,1,"Index(['1', '3', '5', '6', '8', '9', '11', '16', '19', '20',
       ...
       '271', '276', '283', '284', '287', '289', '290', '295', '296', '299'],
      dtype='object', length=119)",False,1000,True,2,f174c0247a,1.0,1.0
./expes/v3_2021-02-05_di_300-prng-1-w1-p2,daily_issda-300,300,first-300,35,11,rng,num-start-241,241,536,classic,9.805414199829102,True,,True,1.0,1.0,1.0,1,"Index(['9', '12', '23', '37', '38', '51', '56', '59', '62', '76', '103', '104',
       '134', '138', '149', '154', '160', '167', '168', '178', '199', '202',
       '203', '211', '213', '217', '226', '234', '262', '267', '271', '278',
       '292', '297', '300'],
      dtype='object')",False,1000,True,2,7dd2dd4e9c,1.0,1.0
./expes/v3_2021-02-05_di_300-prng-1-w1-p2,daily_issda-300,300,first-300,84,28,rng,num-start-91,91,536,classic,29.275825023651123,True,,True,1.0,1.0,1.0,1,"Index(['4', '41', '45', '46', '48', '52', '59', '61', '63', '65', '67', '68',
       '69', '74', '75', '76', '78', '83', '87', '90', '93', '94', '98', '101',
       '102', '103', '104', '105', '106', '111', '113', '121', '122', '123',
       '128', '130', '133', '136', '139', '140', '145', '152', '154', '155',
       '156', '167', '172', '174', '176', '178', '181', '185', '188', '198',
       '202', '204', '205', '208', '209', '214', '224', '230', '235', '241',
       '245', '246', '251', '252', '253', '254', '257', '260', '263', '268',
       '270', '273', '274', '276', '279', '283', '291', '294', '295', '297'],
      dtype='object')",False,1000,True,2,7553641c6e,1.0,1.0
./expes/v3_2021-02-05_di_300-prng-1-w1-p2,daily_issda-300,300,first-300,133,44,rng,num-start-281,281,536,classic,12.938915014266968,True,,True,1.0,1.0,1.0,1,"Index(['3', '5', '6', '10', '11', '14', '15', '26', '27', '28',
       ...
       '284', '285', '286', '287', '289', '291', '293', '295', '296', '297'],
      dtype='object', length=133)",False,1000,True,2,ee8aa2a7b4,1.0,1.0
./expes/v3_2021-02-05_di_300-prng-1-w1-p2,daily_issda-300,300,first-300,140,46,rng,num-start-81,81,536,classic,1002.8602025508881,False,,False,0,,,0,"Index(['1', '2', '3', '5', '7', '8', '9', '12', '13', '14',
       ...
       '281', '282', '283', '284', '285', '288', '292', '296', '297', '300'],
      dtype='object', length=140)",True,1000,True,2,db6581f06f,0.0,0.0
./expes/v3_2021-02-05_di_300-prng-1-w1-p2,daily_issda-300,300,first-300,112,37,rng,num-start-211,211,536,classic,8.812719821929932,True,,True,1.0,1.0,1.0,1,"Index(['1', '2', '3', '5', '7', '10', '12', '15', '17', '19',
       ...
       '269', '272', '274', '277', '279', '280', '282', '289', '294', '297'],
      dtype='object', length=112)",False,1000,True,2,bbcbdb68fc,1.0,1.0
./expes/v3_2021-02-05_di_300-prng-1-w1-p2,daily_issda-300,300,first-300,28,9,rng,num-start-91,91,536,classic,3.692833662033081,True,,True,1.0,1.0,1.0,1,"Index(['21', '38', '49', '51', '52', '72', '76', '112', '129', '133', '145',
       '156', '159', '170', '182', '184', '198', '208', '216', '223', '242',
       '245', '249', '259', '262', '273', '287', '299'],
      dtype='object')",False,1000,True,2,067bac3981,1.0,1.0
./expes/v3_2021-02-05_di_300-prng-1-w1-p2,daily_issda-300,300,first-300,91,30,rng,num-start-51,51,536,classic,1001.6923797130585,False,,False,0,,,0,"Index(['4', '7', '8', '11', '15', '16', '17', '19', '22', '23', '24', '33',
       '34', '35', '40', '46', '50', '54', '56', '61', '64', '67', '69', '70',
       '78', '80', '82', '84', '99', '102', '109', '112', '119', '120', '121',
       '122', '133', '135', '137', '138', '143', '144', '146', '150', '151',
       '155', '159', '161', '168', '170', '173', '174', '177', '180', '188',
       '190', '194', '198', '199', '200', '203', '204', '209', '211', '213',
       '216', '219', '224', '228', '241', '243', '244', '247', '248', '254',
       '259', '260', '268', '274', '275', '277', '278', '279', '282', '283',
       '292', '293', '294', '296', '298', '300'],
      dtype='object')",True,1000,True,2,bf08fa6c52,0.0,0.0
./expes/v3_2021-02-05_di_300-prng-1-w1-p2,daily_issda-300,300,first-300,91,30,rng,num-start-151,151,536,classic,6.361400127410889,True,,True,1.0,1.0,1.0,1,"Index(['2', '4', '9', '12', '14', '23', '24', '35', '37', '38', '39', '40',
       '44', '47', '51', '52', '54', '56', '59', '62', '66', '69', '71', '76',
       '82', '88', '90', '94', '99', '103', '104', '107', '108', '120', '126',
       '134', '135', '138', '141', '146', '149', '151', '154', '155', '158',
       '160', '167', '168', '178', '189', '193', '199', '200', '202', '203',
       '207', '209', '211', '213', '216', '217', '220', '224', '225', '226',
       '231', '232', '233', '234', '235', '237', '238', '239', '240', '244',
       '246', '253', '257', '258', '259', '262', '267', '271', '278', '280',
       '281', '292', '293', '296', '297', '300'],
      dtype='object')",False,1000,True,2,9a24bf45d5,1.0,1.0
./expes/v3_2021-02-05_di_300-prng-1-w1-p2,daily_issda-300,300,first-300,7,2,rng,num-start-121,121,536,classic,4.613361835479736,True,,True,1.0,1.0,1.0,1,"Index(['25', '38', '49', '78', '166', '203', '275'], dtype='object')",False,1000,True,2,8ed4a2f618,1.0,1.0
./expes/v3_2021-02-05_di_300-prng-1-w1-p2,daily_issda-300,300,first-300,84,28,rng,num-start-1,1,536,classic,2.7127747535705566,False,,False,0.3771357561870037,0.3771357561870037,0.3771357561870037,2,"Index(['5', '13', '15', '19', '26', '29', '31', '39', '44', '47', '55', '70',
       '82', '83', '85', '86', '87', '89', '91', '94', '98', '107', '109',
       '114', '117', '119', '121', '128', '129', '137', '138', '140', '143',
       '156', '158', '159', '160', '164', '167', '175', '180', '182', '185',
       '186', '187', '188', '191', '195', '202', '205', '209', '213', '217',
       '221', '228', '229', '233', '234', '237', '239', '246', '250', '251',
       '256', '257', '258', '259', '260', '261', '262', '263', '264', '266',
       '268', '269', '270', '272', '279', '286', '287', '288', '291', '295',
       '298'],
      dtype='object')",False,1000,True,2,6b850ea76f,1.0,1.0
./expes/v3_2021-02-05_di_300-prng-1-w1-p2,daily_issda-300,300,first-300,133,44,rng,num-start-261,261,536,classic,11.612919569015503,True,,True,1.0,1.0,1.0,1,"Index(['3', '4', '5', '6', '7', '8', '11', '12', '15', '16',
       ...
       '268', '270', '274', '277', '278', '284', '289', '294', '297', '299'],
      dtype='object', length=133)",False,1000,True,2,248a458426,1.0,1.0
./expes/v3_2021-02-05_di_300-prng-1-w1-p2,daily_issda-300,300,first-300,14,4,rng,num-start-211,211,536,classic,8.243262767791748,True,,True,1.0,1.0,1.0,1,"Index(['8', '17', '18', '83', '106', '143', '220', '237', '248', '251', '252',
       '267', '293', '296'],
      dtype='object')",False,1000,True,2,bd10c9d7c0,1.0,1.0
./expes/v3_2021-02-05_di_300-prng-1-w1-p2,daily_issda-300,300,first-300,14,4,rng,num-start-41,41,536,classic,2.777326822280884,True,,True,1.0,1.0,1.0,1,"Index(['19', '29', '44', '47', '82', '87', '109', '129', '158', '185', '202',
       '221', '261', '298'],
      dtype='object')",False,1000,True,2,4aec56e904,1.0,1.0
./expes/v3_2021-02-05_di_300-prng-1-w1-p2,daily_issda-300,300,first-300,63,21,rng,num-start-41,41,536,classic,1001.4401278495789,False,,False,0,,,0,"Index(['4', '11', '14', '23', '24', '31', '35', '42', '45', '46', '47', '53',
       '55', '80', '83', '85', '89', '92', '100', '110', '114', '120', '121',
       '127', '128', '133', '134', '135', '140', '142', '144', '148', '149',
       '150', '154', '156', '157', '159', '160', '173', '176', '185', '191',
       '199', '203', '206', '212', '217', '221', '232', '237', '242', '243',
       '246', '260', '261', '266', '267', '274', '275', '281', '282', '294'],
      dtype='object')",True,1000,True,2,86d026724b,0.0,0.0
./expes/v3_2021-02-05_di_300-prng-1-w1-p2,daily_issda-300,300,first-300,42,14,rng,num-start-271,271,536,classic,10.966312646865845,True,,True,1.0,1.0,1.0,1,"Index(['9', '12', '23', '37', '38', '51', '56', '59', '62', '76', '82', '103',
       '104', '120', '134', '138', '149', '154', '160', '167', '168', '178',
       '199', '202', '203', '209', '211', '213', '217', '226', '234', '258',
       '262', '267', '271', '278', '280', '292', '293', '296', '297', '300'],
      dtype='object')",False,1000,True,2,cf6288df50,1.0,1.0
./expes/v3_2021-02-05_di_300-prng-1-w1-p2,daily_issda-300,300,first-300,63,21,rng,num-start-151,151,536,classic,6.734036207199097,True,,True,1.0,1.0,1.0,1,"Index(['11', '16', '20', '23', '30', '33', '44', '45', '46', '50', '56', '59',
       '65', '70', '71', '73', '76', '82', '99', '100', '107', '108', '117',
       '120', '121', '127', '133', '137', '147', '161', '174', '183', '190',
       '193', '194', '195', '198', '200', '206', '207', '209', '219', '228',
       '233', '234', '236', '243', '249', '250', '251', '254', '255', '258',
       '260', '265', '267', '273', '277', '286', '294', '297', '298', '300'],
      dtype='object')",False,1000,True,2,9d77f52b83,1.0,1.0
./expes/v3_2021-02-05_di_300-prng-1-w1-p2,daily_issda-300,300,first-300,56,18,rng,num-start-171,171,536,classic,7.3588032722473145,True,,True,1.0,1.0,1.0,1,"Index(['1', '8', '21', '32', '33', '38', '42', '47', '48', '49', '51', '52',
       '72', '73', '76', '98', '105', '112', '114', '123', '125', '129', '133',
       '134', '145', '156', '159', '162', '164', '167', '170', '171', '182',
       '184', '198', '205', '208', '216', '223', '227', '230', '242', '245',
       '249', '253', '259', '261', '262', '267', '273', '279', '281', '283',
       '287', '291', '299'],
      dtype='object')",False,1000,True,2,597e0f8835,1.0,1.0
./expes/v3_2021-02-05_di_300-prng-1-w1-p2,daily_issda-300,300,first-300,126,42,rng,num-start-211,211,536,classic,9.186301708221436,True,,True,1.0,1.0,1.0,1,"Index(['3', '5', '10', '11', '14', '15', '26', '27', '28', '30',
       ...
       '284', '285', '286', '287', '289', '291', '293', '295', '296', '297'],
      dtype='object', length=126)",False,1000,True,2,83a6cd32a2,1.0,1.0
./expes/v3_2021-02-05_di_300-prng-1-w1-p2,daily_issda-300,300,first-300,91,30,rng,num-start-91,91,536,classic,1003.107896566391,False,,False,0,,,0,"Index(['1', '8', '17', '20', '21', '32', '33', '36', '38', '42', '43', '46',
       '47', '48', '49', '51', '52', '56', '60', '64', '67', '72', '73', '76',
       '77', '95', '96', '97', '98', '105', '111', '112', '114', '121', '123',
       '124', '125', '129', '133', '134', '141', '142', '145', '148', '149',
       '150', '155', '156', '159', '162', '163', '164', '167', '170', '171',
       '182', '183', '184', '198', '201', '205', '208', '215', '216', '223',
       '227', '228', '230', '231', '242', '244', '245', '249', '251', '253',
       '259', '261', '262', '267', '268', '269', '273', '277', '279', '281',
       '283', '287', '291', '295', '297', '299'],
      dtype='object')",True,1000,True,2,bd845b6f12,0.0,0.0
./expes/v3_2021-02-05_di_300-prng-1-w1-p2,daily_issda-300,300,first-300,119,39,rng,num-start-161,161,536,classic,7.83352518081665,True,,True,1.0,1.0,1.0,1,"Index(['2', '3', '8', '17', '18', '19', '23', '26', '33', '34',
       ...
       '276', '278', '279', '282', '287', '291', '293', '296', '299', '300'],
      dtype='object', length=119)",False,1000,True,2,3447772854,1.0,1.0
./expes/v3_2021-02-05_di_300-prng-1-w1-p2,daily_issda-300,300,first-300,42,14,rng,num-start-71,71,536,classic,5.304187297821045,True,,True,1.0,1.0,1.0,1,"Index(['13', '15', '19', '29', '44', '47', '70', '82', '85', '87', '89', '91',
       '94', '109', '119', '121', '129', '138', '158', '164', '167', '182',
       '185', '187', '191', '195', '202', '213', '217', '221', '228', '229',
       '239', '258', '261', '262', '264', '269', '270', '279', '287', '298'],
      dtype='object')",False,1000,True,2,4c8232fb6d,1.0,1.0
./expes/v3_2021-02-05_di_300-prng-1-w1-p2,daily_issda-300,300,first-300,91,30,rng,num-start-171,171,536,classic,7.923766613006592,True,,True,1.0,1.0,1.0,1,"Index(['4', '7', '8', '11', '15', '16', '17', '19', '22', '23', '24', '33',
       '34', '35', '40', '46', '50', '54', '56', '61', '64', '67', '69', '70',
       '78', '80', '82', '84', '99', '102', '109', '112', '119', '120', '121',
       '122', '133', '135', '137', '138', '143', '144', '146', '150', '151',
       '155', '159', '161', '168', '170', '173', '174', '177', '180', '188',
       '190', '194', '198', '199', '200', '203', '204', '209', '211', '213',
       '216', '219', '224', '228', '241', '243', '244', '247', '248', '254',
       '259', '260', '268', '274', '275', '277', '278', '279', '282', '283',
       '292', '293', '294', '296', '298', '300'],
      dtype='object')",False,1000,True,2,d93de00661,1.0,1.0
./expes/v3_2021-02-05_di_300-prng-1-w1-p2,daily_issda-300,300,first-300,21,7,rng,num-start-181,181,536,classic,7.095240831375122,True,,True,1.0,1.0,1.0,1,"Index(['1', '6', '31', '74', '75', '84', '108', '117', '138', '141', '174',
       '180', '189', '192', '196', '226', '236', '243', '248', '271', '286'],
      dtype='object')",False,1000,True,2,498c65e61b,1.0,1.0
./expes/v3_2021-02-05_di_300-prng-1-w1-p2,daily_issda-300,300,first-300,56,18,rng,num-start-141,141,536,classic,6.2963035106658936,True,,True,1.0,1.0,1.0,1,"Index(['4', '52', '59', '61', '63', '68', '75', '83', '87', '90', '93', '94',
       '98', '101', '102', '103', '104', '106', '111', '113', '121', '122',
       '123', '130', '136', '139', '140', '145', '152', '154', '156', '167',
       '172', '176', '178', '188', '208', '209', '224', '230', '235', '245',
       '246', '251', '253', '254', '257', '260', '263', '268', '270', '276',
       '283', '291', '294', '295'],
      dtype='object')",False,1000,True,2,7e6f91e9be,1.0,1.0
./expes/v3_2021-02-05_di_300-prng-1-w1-p2,daily_issda-300,300,first-300,42,14,rng,num-start-41,41,536,classic,1001.3930852413177,False,,False,0,,,0,"Index(['1', '3', '7', '12', '15', '27', '37', '53', '58', '65', '68', '72',
       '81', '82', '85', '86', '94', '101', '102', '105', '108', '111', '127',
       '128', '131', '144', '149', '153', '161', '184', '191', '195', '197',
       '200', '209', '228', '239', '241', '272', '277', '279', '294'],
      dtype='object')",True,1000,True,2,0ba68c4c41,0.0,0.0
./expes/v3_2021-02-05_di_300-prng-1-w1-p2,daily_issda-300,300,first-300,84,28,rng,num-start-271,271,536,classic,11.586211442947388,True,,True,1.0,1.0,1.0,1,"Index(['2', '8', '16', '20', '22', '23', '37', '38', '44', '58', '61', '65',
       '67', '68', '70', '71', '72', '73', '76', '82', '85', '91', '92', '94',
       '96', '99', '100', '104', '109', '110', '116', '119', '120', '121',
       '122', '129', '130', '132', '133', '135', '142', '144', '149', '151',
       '152', '161', '175', '178', '180', '183', '184', '187', '188', '191',
       '192', '200', '203', '212', '218', '220', '221', '224', '226', '228',
       '230', '231', '236', '238', '250', '252', '255', '267', '268', '273',
       '275', '282', '284', '285', '289', '290', '292', '296', '298', '299'],
      dtype='object')",False,1000,True,2,9fc936e624,1.0,1.0
./expes/v3_2021-02-05_di_300-prng-1-w1-p2,daily_issda-300,300,first-300,112,37,rng,num-start-141,141,536,classic,6.961995601654053,True,,True,1.0,1.0,1.0,1,"Index(['1', '3', '5', '11', '13', '15', '16', '17', '19', '21',
       ...
       '270', '272', '279', '283', '286', '287', '288', '291', '295', '298'],
      dtype='object', length=112)",False,1000,True,2,4ab9610846,1.0,1.0
./expes/v3_2021-02-05_di_300-prng-1-w1-p2,daily_issda-300,300,first-300,70,23,rng,num-start-71,71,536,classic,1002.9458343982697,False,,False,0,,,0,"Index(['3', '4', '6', '7', '8', '11', '12', '15', '17', '23', '34', '41', '43',
       '45', '63', '73', '74', '79', '80', '85', '89', '113', '114', '115',
       '117', '119', '121', '122', '130', '133', '145', '146', '151', '152',
       '155', '156', '159', '163', '164', '172', '179', '186', '190', '192',
       '205', '208', '210', '214', '216', '217', '228', '229', '233', '234',
       '236', '238', '241', '244', '245', '247', '251', '252', '254', '256',
       '262', '265', '268', '277', '289', '297'],
      dtype='object')",True,1000,True,2,63344bc30a,0.0,0.0
./expes/v3_2021-02-05_di_300-prng-1-w1-p2,daily_issda-300,300,first-300,56,18,rng,num-start-271,271,536,classic,11.471757411956787,True,,True,1.0,1.0,1.0,1,"Index(['6', '9', '10', '19', '25', '29', '34', '38', '41', '52', '60', '72',
       '76', '78', '81', '89', '101', '106', '107', '115', '118', '119', '123',
       '135', '144', '147', '157', '161', '162', '174', '177', '182', '183',
       '185', '189', '201', '203', '208', '215', '216', '225', '231', '234',
       '237', '239', '240', '251', '252', '254', '262', '267', '272', '274',
       '290', '292', '296'],
      dtype='object')",False,1000,True,2,b9dae61ff6,1.0,1.0
./expes/v3_2021-02-05_di_300-prng-1-w1-p2,daily_issda-300,300,first-300,126,42,rng,num-start-201,201,536,classic,9.643603086471558,True,,True,1.0,1.0,1.0,1,"Index(['2', '3', '8', '16', '17', '19', '20', '22', '23', '24',
       ...
       '282', '284', '285', '287', '289', '290', '292', '296', '298', '299'],
      dtype='object', length=126)",False,1000,True,2,de15312f55,1.0,1.0
./expes/v3_2021-02-05_di_300-prng-1-w1-p2,daily_issda-300,300,first-300,56,18,rng,num-start-101,101,536,classic,4.353933811187744,True,,True,1.0,1.0,1.0,1,"Index(['2', '3', '4', '5', '9', '13', '21', '23', '27', '29', '33', '42', '43',
       '45', '53', '57', '58', '63', '68', '69', '71', '72', '81', '87', '96',
       '102', '103', '104', '105', '108', '115', '122', '137', '144', '150',
       '170', '172', '174', '175', '192', '194', '195', '197', '204', '211',
       '216', '217', '218', '232', '238', '252', '258', '260', '277', '284',
       '297'],
      dtype='object')",False,1000,True,2,38dd31613e,1.0,1.0
./expes/v3_2021-02-05_di_300-prng-1-w1-p2,daily_issda-300,300,first-300,14,4,rng,num-start-61,61,536,classic,2.521015167236328,True,,True,1.0,1.0,1.0,1,"Index(['47', '49', '73', '95', '96', '98', '156', '229', '232', '239', '244',
       '261', '263', '287'],
      dtype='object')",False,1000,True,2,fa81c54325,1.0,1.0
./expes/v3_2021-02-05_di_300-prng-1-w1-p2,daily_issda-300,300,first-300,7,2,rng,num-start-171,171,536,classic,6.889196157455444,True,,True,1.0,1.0,1.0,1,"Index(['25', '38', '49', '78', '166', '203', '275'], dtype='object')",False,1000,True,2,3423677941,1.0,1.0
./expes/v3_2021-02-05_di_300-prng-1-w1-p2,daily_issda-300,300,first-300,70,23,rng,num-start-191,191,536,classic,8.171865940093994,True,,True,1.0,1.0,1.0,1,"Index(['2', '3', '4', '5', '9', '13', '21', '22', '23', '27', '28', '29', '33',
       '36', '42', '43', '44', '45', '48', '53', '57', '58', '63', '68', '69',
       '71', '72', '75', '81', '87', '89', '96', '99', '102', '103', '104',
       '105', '108', '115', '122', '137', '139', '144', '150', '170', '172',
       '174', '175', '192', '194', '195', '197', '204', '211', '216', '217',
       '218', '232', '238', '252', '255', '257', '258', '260', '276', '277',
       '284', '285', '294', '297'],
      dtype='object')",False,1000,True,2,f88e0bf534,1.0,1.0
./expes/v3_2021-02-05_di_300-prng-1-w1-p2,daily_issda-300,300,first-300,119,39,rng,num-start-21,21,536,classic,1000.7445483207703,False,,False,0,,,0,"Index(['1', '2', '3', '5', '7', '10', '12', '15', '17', '19',
       ...
       '269', '272', '274', '277', '279', '280', '282', '289', '294', '297'],
      dtype='object', length=119)",True,1000,True,2,ff1b692c11,0.0,0.0
./expes/v3_2021-02-05_di_300-prng-1-w1-p2,daily_issda-300,300,first-300,84,28,rng,num-start-61,61,536,classic,1002.1447842121124,False,,False,0,,,0,"Index(['6', '10', '11', '15', '35', '36', '38', '43', '46', '48', '49', '53',
       '55', '58', '59', '61', '63', '74', '77', '83', '85', '87', '93', '100',
       '105', '112', '115', '121', '127', '131', '132', '134', '135', '137',
       '139', '141', '143', '144', '145', '150', '156', '159', '162', '173',
       '178', '183', '184', '185', '187', '189', '196', '198', '202', '204',
       '207', '208', '211', '214', '217', '218', '224', '225', '226', '231',
       '232', '234', '236', '239', '242', '243', '246', '249', '250', '251',
       '257', '264', '265', '270', '274', '283', '292', '293', '297', '299'],
      dtype='object')",True,1000,True,2,2e8e3a9120,0.0,0.0
./expes/v3_2021-02-05_di_300-prng-1-w1-p2,daily_issda-300,300,first-300,56,18,rng,num-start-241,241,536,classic,10.544088125228882,True,,True,1.0,1.0,1.0,1,"Index(['3', '10', '14', '26', '27', '30', '32', '36', '42', '57', '60', '64',
       '71', '72', '73', '78', '90', '101', '108', '110', '123', '128', '130',
       '137', '143', '149', '156', '159', '163', '170', '173', '182', '185',
       '188', '191', '192', '197', '206', '208', '210', '213', '215', '222',
       '243', '245', '257', '260', '268', '270', '273', '277', '283', '286',
       '287', '293', '297'],
      dtype='object')",False,1000,True,2,2f61358dd0,1.0,1.0
./expes/v3_2021-02-05_di_300-prng-1-w1-p2,daily_issda-300,300,first-300,49,16,rng,num-start-171,171,536,classic,7.101039886474609,True,,True,1.0,1.0,1.0,1,"Index(['1', '8', '21', '32', '33', '38', '48', '49', '51', '52', '72', '76',
       '98', '105', '112', '114', '123', '125', '129', '133', '134', '145',
       '156', '159', '162', '167', '170', '171', '182', '184', '198', '205',
       '208', '216', '223', '227', '242', '245', '249', '253', '259', '262',
       '267', '273', '281', '283', '287', '291', '299'],
      dtype='object')",False,1000,True,2,5182920174,1.0,1.0
./expes/v3_2021-02-05_di_300-prng-1-w1-p2,daily_issda-300,300,first-300,119,39,rng,num-start-181,181,536,classic,8.116001605987549,True,,True,1.0,1.0,1.0,1,"Index(['2', '5', '6', '8', '9', '10', '16', '19', '22', '23',
       ...
       '266', '267', '272', '274', '279', '281', '285', '290', '292', '296'],
      dtype='object', length=119)",False,1000,True,2,ad53c1fbca,1.0,1.0
./expes/v3_2021-02-05_di_300-prng-1-w1-p2,daily_issda-300,300,first-300,91,30,rng,num-start-151,151,536,classic,6.82532811164856,True,,True,1.0,1.0,1.0,1,"Index(['7', '11', '14', '16', '18', '20', '23', '30', '33', '37', '44', '45',
       '46', '50', '56', '59', '60', '65', '70', '71', '73', '76', '77', '82',
       '83', '86', '88', '90', '99', '100', '102', '104', '107', '108', '113',
       '117', '120', '121', '125', '127', '131', '133', '137', '146', '147',
       '152', '153', '154', '159', '161', '174', '176', '177', '183', '190',
       '193', '194', '195', '198', '200', '203', '206', '207', '209', '214',
       '217', '219', '228', '233', '234', '236', '243', '249', '250', '251',
       '254', '255', '258', '260', '262', '265', '267', '271', '273', '277',
       '280', '286', '294', '297', '298', '300'],
      dtype='object')",False,1000,True,2,477e9381ae,1.0,1.0
./expes/v3_2021-02-05_di_300-prng-1-w1-p2,daily_issda-300,300,first-300,14,4,rng,num-start-61,61,536,classic,2.6968231201171875,True,,True,1.0,1.0,1.0,1,"Index(['38', '55', '61', '127', '131', '135', '139', '150', '156', '202',
       '204', '231', '239', '270'],
      dtype='object')",False,1000,True,2,461875a4a8,1.0,1.0
./expes/v3_2021-02-05_di_300-prng-1-w1-p2,daily_issda-300,300,first-300,91,30,rng,num-start-41,41,536,classic,1001.3685908317566,False,,False,0,,,0,"Index(['6', '8', '9', '10', '19', '22', '23', '25', '29', '31', '32', '33',
       '34', '38', '41', '48', '52', '60', '72', '73', '76', '78', '81', '82',
       '85', '89', '92', '101', '106', '107', '115', '118', '119', '121',
       '123', '131', '134', '135', '140', '144', '147', '148', '152', '157',
       '159', '160', '161', '162', '163', '173', '174', '177', '182', '183',
       '185', '189', '193', '199', '200', '201', '203', '206', '208', '215',
       '216', '225', '227', '231', '234', '237', '239', '240', '243', '244',
       '247', '251', '252', '253', '254', '256', '257', '258', '262', '267',
       '272', '274', '279', '285', '290', '292', '296'],
      dtype='object')",True,1000,True,2,74167716c0,0.0,0.0
./expes/v3_2021-02-05_di_300-prng-1-w1-p2,daily_issda-300,300,first-300,28,9,rng,num-start-271,271,536,classic,10.505818605422974,True,,True,1.0,1.0,1.0,1,"Index(['15', '19', '29', '44', '47', '82', '85', '87', '109', '129', '138',
       '158', '164', '185', '187', '191', '195', '202', '217', '221', '228',
       '239', '258', '261', '270', '279', '287', '298'],
      dtype='object')",False,1000,True,2,30a3b4428f,1.0,1.0
./expes/v3_2021-02-05_di_300-prng-1-w1-p2,daily_issda-300,300,first-300,105,35,rng,num-start-71,71,536,classic,1002.4972977638245,False,,False,0,,,0,"Index(['5', '6', '8', '9', '10', '16', '19', '22', '23', '25',
       ...
       '262', '267', '272', '274', '279', '281', '285', '290', '292', '296'],
      dtype='object', length=105)",True,1000,True,2,09295e15e5,0.0,0.0
./expes/v3_2021-02-05_di_300-prng-1-w1-p2,daily_issda-300,300,first-300,119,39,rng,num-start-261,261,536,classic,11.437791109085083,True,,True,1.0,1.0,1.0,1,"Index(['1', '2', '3', '4', '5', '7', '9', '10', '13', '14',
       ...
       '276', '277', '284', '285', '287', '290', '294', '295', '297', '300'],
      dtype='object', length=119)",False,1000,True,2,b41ec53658,1.0,1.0
./expes/v3_2021-02-05_di_300-prng-1-w1-p2,daily_issda-300,300,first-300,84,28,rng,num-start-31,31,536,classic,1001.0915904045105,False,,False,0,,,0,"Index(['7', '11', '16', '18', '20', '23', '30', '33', '37', '44', '45', '46',
       '50', '56', '59', '65', '70', '71', '73', '76', '77', '82', '90', '99',
       '100', '102', '107', '108', '113', '117', '120', '121', '125', '127',
       '131', '133', '137', '146', '147', '152', '153', '159', '161', '174',
       '176', '177', '183', '190', '193', '194', '195', '198', '200', '203',
       '206', '207', '209', '214', '217', '219', '228', '233', '234', '236',
       '243', '249', '250', '251', '254', '255', '258', '260', '262', '265',
       '267', '271', '273', '277', '280', '286', '294', '297', '298', '300'],
      dtype='object')",True,1000,True,2,1e0219101a,0.0,0.0
./expes/v3_2021-02-05_di_300-prng-1-w1-p2,daily_issda-300,300,first-300,91,30,rng,num-start-231,231,536,classic,10.293217897415161,True,,True,1.0,1.0,1.0,1,"Index(['1', '6', '10', '14', '15', '16', '17', '19', '23', '27', '31', '32',
       '39', '40', '43', '45', '47', '53', '58', '59', '70', '74', '75', '84',
       '88', '92', '99', '103', '105', '107', '108', '113', '114', '115',
       '117', '121', '130', '134', '138', '141', '142', '145', '159', '161',
       '172', '173', '174', '177', '180', '183', '186', '187', '189', '191',
       '192', '196', '197', '198', '199', '206', '208', '215', '217', '219',
       '221', '222', '226', '228', '234', '236', '241', '243', '244', '245',
       '248', '256', '257', '260', '261', '262', '263', '264', '266', '271',
       '277', '278', '282', '285', '286', '294', '296'],
      dtype='object')",False,1000,True,2,737e012d5d,1.0,1.0
./expes/v3_2021-02-05_di_300-prng-1-w1-p2,daily_issda-300,300,first-300,63,21,rng,num-start-211,211,536,classic,8.910090208053589,True,,True,1.0,1.0,1.0,1,"Index(['3', '10', '14', '26', '27', '30', '32', '33', '36', '42', '57', '60',
       '64', '67', '71', '72', '73', '78', '90', '99', '101', '108', '110',
       '123', '128', '129', '130', '137', '142', '143', '149', '156', '159',
       '163', '170', '173', '182', '185', '188', '191', '192', '197', '206',
       '208', '210', '213', '215', '222', '243', '245', '257', '260', '268',
       '270', '273', '277', '283', '284', '285', '286', '287', '293', '297'],
      dtype='object')",False,1000,True,2,16f2654662,1.0,1.0
./expes/v3_2021-02-05_di_300-prng-1-w1-p2,daily_issda-300,300,first-300,42,14,rng,num-start-161,161,536,classic,6.58048415184021,True,,True,1.0,1.0,1.0,1,"Index(['7', '8', '16', '19', '22', '33', '34', '50', '67', '69', '70', '78',
       '82', '99', '112', '119', '120', '122', '133', '138', '155', '188',
       '190', '199', '200', '203', '204', '216', '219', '224', '228', '241',
       '243', '244', '254', '268', '277', '279', '282', '283', '296', '298'],
      dtype='object')",False,1000,True,2,1914eeb77c,1.0,1.0
./expes/v3_2021-02-05_di_300-prng-1-w1-p2,daily_issda-300,300,first-300,56,18,rng,num-start-231,231,536,classic,9.952306032180786,True,,True,1.0,1.0,1.0,1,"Index(['13', '15', '19', '29', '44', '47', '70', '82', '83', '85', '87', '89',
       '91', '94', '109', '119', '121', '128', '129', '138', '143', '158',
       '164', '167', '180', '182', '185', '186', '187', '191', '195', '202',
       '205', '213', '217', '221', '228', '229', '233', '237', '239', '251',
       '256', '257', '258', '261', '262', '264', '269', '270', '272', '279',
       '286', '287', '291', '298'],
      dtype='object')",False,1000,True,2,e3cca14578,1.0,1.0
./expes/v3_2021-02-05_di_300-prng-1-w1-p2,daily_issda-300,300,first-300,84,28,rng,num-start-71,71,536,classic,1002.4155251979828,False,,False,0,,,0,"Index(['2', '5', '7', '12', '14', '15', '16', '18', '23', '33', '45', '49',
       '52', '53', '56', '61', '62', '69', '84', '87', '88', '89', '96', '98',
       '103', '108', '111', '113', '114', '117', '118', '119', '120', '125',
       '131', '137', '146', '149', '152', '156', '158', '163', '171', '177',
       '188', '190', '192', '195', '196', '200', '202', '207', '208', '213',
       '214', '217', '222', '225', '229', '231', '236', '241', '242', '246',
       '250', '251', '254', '256', '257', '258', '259', '260', '261', '264',
       '267', '271', '277', '278', '281', '284', '285', '292', '296', '297'],
      dtype='object')",True,1000,True,2,d6508515b0,0.0,0.0
./expes/v3_2021-02-05_di_300-prng-1-w1-p2,daily_issda-300,300,first-300,133,44,rng,num-start-131,131,536,classic,7.89171838760376,True,,True,1.0,1.0,1.0,1,"Index(['3', '4', '5', '6', '10', '24', '30', '34', '40', '41',
       ...
       '283', '285', '286', '287', '290', '291', '293', '294', '295', '297'],
      dtype='object', length=133)",False,1000,True,2,fc4ce858b9,1.0,1.0
./expes/v3_2021-02-05_di_300-prng-1-w1-p2,daily_issda-300,300,first-300,77,25,rng,num-start-51,51,536,classic,1001.7059850692749,False,,False,0,,,0,"Index(['7', '8', '11', '15', '16', '19', '22', '23', '24', '33', '34', '35',
       '46', '50', '54', '61', '64', '67', '69', '70', '78', '82', '84', '99',
       '109', '112', '119', '120', '122', '133', '137', '138', '143', '144',
       '146', '151', '155', '168', '170', '173', '177', '180', '188', '190',
       '194', '198', '199', '200', '203', '204', '209', '211', '213', '216',
       '219', '224', '228', '241', '243', '244', '247', '248', '254', '260',
       '268', '274', '277', '278', '279', '282', '283', '292', '293', '294',
       '296', '298', '300'],
      dtype='object')",True,1000,True,2,c949696911,0.0,0.0
./expes/v3_2021-02-05_di_300-prng-1-w1-p2,daily_issda-300,300,first-300,28,9,rng,num-start-221,221,536,classic,8.138499975204468,True,,True,1.0,1.0,1.0,1,"Index(['6', '9', '19', '29', '60', '76', '81', '106', '107', '115', '118',
       '119', '123', '135', '144', '157', '161', '174', '177', '182', '183',
       '189', '201', '216', '239', '262', '267', '296'],
      dtype='object')",False,1000,True,2,1fd4cfe2bd,1.0,1.0
./expes/v3_2021-02-05_di_300-prng-1-w1-p2,daily_issda-300,300,first-300,119,39,rng,num-start-221,221,536,classic,9.180277824401855,True,,True,1.0,1.0,1.0,1,"Index(['2', '7', '9', '11', '14', '16', '17', '18', '20', '23',
       ...
       '273', '277', '280', '286', '289', '292', '294', '297', '298', '300'],
      dtype='object', length=119)",False,1000,True,2,b41367079e,1.0,1.0
./expes/v3_2021-02-05_di_300-prng-1-w1-p2,daily_issda-300,300,first-300,140,46,rng,num-start-51,51,536,classic,1001.7068214416504,False,,False,0,,,0,"Index(['2', '3', '5', '6', '8', '9', '10', '16', '19', '22',
       ...
       '282', '285', '286', '290', '292', '293', '295', '296', '297', '298'],
      dtype='object', length=140)",True,1000,True,2,6f94b0a8fe,0.0,0.0
./expes/v3_2021-02-05_di_300-prng-1-w1-p2,daily_issda-300,300,first-300,21,7,rng,num-start-131,131,536,classic,4.845872402191162,True,,True,1.0,1.0,1.0,1,"Index(['1', '12', '19', '42', '49', '75', '99', '102', '134', '140', '164',
       '192', '212', '241', '249', '251', '276', '277', '284', '289', '294'],
      dtype='object')",False,1000,True,2,c1e56bef8d,1.0,1.0
./expes/v3_2021-02-05_di_300-prng-1-w1-p2,daily_issda-300,300,first-300,105,35,rng,num-start-141,141,536,classic,11.228068590164185,True,,True,1.0,1.0,1.0,1,"Index(['1', '2', '3', '5', '7', '10', '12', '15', '17', '19',
       ...
       '263', '269', '272', '274', '277', '279', '280', '282', '294', '297'],
      dtype='object', length=105)",False,1000,True,2,c574be8951,1.0,1.0
./expes/v3_2021-02-05_di_300-prng-1-w1-p2,daily_issda-300,300,first-300,140,46,rng,num-start-241,241,536,classic,10.636686325073242,True,,True,1.0,1.0,1.0,1,"Index(['1', '3', '5', '6', '8', '9', '10', '11', '16', '18',
       ...
       '283', '284', '287', '289', '290', '293', '295', '296', '299', '300'],
      dtype='object', length=140)",False,1000,True,2,d6688cfc3c,1.0,1.0
./expes/v3_2021-02-05_di_300-prng-1-w1-p2,daily_issda-300,300,first-300,84,28,rng,num-start-211,211,536,classic,9.417008876800537,True,,True,1.0,1.0,1.0,1,"Index(['2', '5', '7', '12', '14', '15', '16', '18', '23', '33', '45', '49',
       '52', '53', '56', '61', '62', '69', '84', '87', '88', '89', '96', '98',
       '103', '108', '111', '113', '114', '117', '118', '119', '120', '125',
       '131', '137', '146', '149', '152', '156', '158', '163', '171', '177',
       '188', '190', '192', '195', '196', '200', '202', '207', '208', '213',
       '214', '217', '222', '225', '229', '231', '236', '241', '242', '246',
       '250', '251', '254', '256', '257', '258', '259', '260', '261', '264',
       '267', '271', '277', '278', '281', '284', '285', '292', '296', '297'],
      dtype='object')",False,1000,True,2,3e7aff0974,1.0,1.0
./expes/v3_2021-02-05_di_300-prng-1-w1-p2,daily_issda-300,300,first-300,35,11,rng,num-start-241,241,536,classic,9.473295211791992,True,,True,1.0,1.0,1.0,1,"Index(['11', '14', '31', '35', '45', '47', '53', '55', '80', '85', '89', '92',
       '100', '110', '114', '121', '128', '134', '135', '140', '142', '149',
       '156', '159', '173', '185', '191', '199', '203', '206', '246', '260',
       '267', '275', '282'],
      dtype='object')",False,1000,True,2,2c931b327b,1.0,1.0
./expes/v3_2021-02-05_di_300-prng-1-w1-p2,daily_issda-300,300,first-300,133,44,rng,num-start-221,221,536,classic,9.445055961608887,True,,True,1.0,1.0,1.0,1,"Index(['2', '3', '5', '6', '8', '9', '10', '16', '19', '22',
       ...
       '274', '279', '281', '285', '290', '292', '293', '295', '296', '298'],
      dtype='object', length=133)",False,1000,True,2,20f16a5439,1.0,1.0
./expes/v3_2021-02-05_di_300-prng-1-w1-p2,daily_issda-300,300,first-300,63,21,rng,num-start-281,281,536,classic,10.743252277374268,True,,True,1.0,1.0,1.0,1,"Index(['2', '3', '4', '5', '9', '13', '21', '23', '27', '29', '33', '36', '42',
       '43', '44', '45', '53', '57', '58', '63', '68', '69', '71', '72', '81',
       '87', '96', '99', '102', '103', '104', '105', '108', '115', '122',
       '137', '144', '150', '170', '172', '174', '175', '192', '194', '195',
       '197', '204', '211', '216', '217', '218', '232', '238', '252', '255',
       '257', '258', '260', '276', '277', '284', '294', '297'],
      dtype='object')",False,1000,True,2,20fcd94522,1.0,1.0
./expes/v3_2021-02-05_di_300-prng-1-w1-p2,daily_issda-300,300,first-300,105,35,rng,num-start-231,231,536,classic,10.336676120758057,True,,True,1.0,1.0,1.0,1,"Index(['1', '2', '3', '4', '5', '9', '10', '13', '14', '18',
       ...
       '276', '277', '284', '285', '287', '290', '294', '295', '297', '300'],
      dtype='object', length=105)",False,1000,True,2,0e43e4f8a7,1.0,1.0
./expes/v3_2021-02-05_di_300-prng-1-w1-p2,daily_issda-300,300,first-300,70,23,rng,num-start-181,181,536,classic,7.790759801864624,True,,True,1.0,1.0,1.0,1,"Index(['4', '41', '46', '48', '52', '59', '61', '63', '68', '75', '76', '78',
       '83', '87', '90', '93', '94', '98', '101', '102', '103', '104', '105',
       '106', '111', '113', '121', '122', '123', '128', '130', '133', '136',
       '139', '140', '145', '152', '154', '156', '167', '172', '174', '176',
       '178', '181', '188', '208', '209', '224', '230', '235', '241', '245',
       '246', '251', '252', '253', '254', '257', '260', '263', '268', '270',
       '274', '276', '279', '283', '291', '294', '295'],
      dtype='object')",False,1000,True,2,4f10a8c250,1.0,1.0
./expes/v3_2021-02-05_di_300-prng-1-w1-p2,daily_issda-300,300,first-300,49,16,rng,num-start-131,131,536,classic,5.5449604988098145,True,,True,1.0,1.0,1.0,1,"Index(['9', '12', '23', '37', '38', '51', '54', '56', '59', '62', '69', '71',
       '76', '82', '99', '103', '104', '107', '120', '134', '138', '149',
       '154', '160', '167', '168', '178', '199', '200', '202', '203', '209',
       '211', '213', '217', '226', '234', '253', '258', '262', '267', '271',
       '278', '280', '292', '293', '296', '297', '300'],
      dtype='object')",False,1000,True,2,828b0fe705,1.0,1.0
./expes/v3_2021-02-05_di_300-prng-1-w1-p2,daily_issda-300,300,first-300,7,2,rng,num-start-181,181,536,classic,6.795339584350586,True,,True,1.0,1.0,1.0,1,"Index(['15', '27', '128', '131', '184', '239', '272'], dtype='object')",False,1000,True,2,685cceb42a,1.0,1.0
./expes/v3_2021-02-05_di_300-prng-1-w1-p2,daily_issda-300,300,first-300,49,16,rng,num-start-271,271,536,classic,10.78972339630127,True,,True,1.0,1.0,1.0,1,"Index(['2', '3', '4', '13', '21', '23', '27', '29', '33', '42', '45', '53',
       '57', '58', '63', '68', '71', '72', '81', '87', '96', '102', '103',
       '105', '108', '115', '122', '137', '144', '150', '172', '174', '175',
       '192', '194', '195', '197', '204', '211', '216', '217', '218', '232',
       '238', '252', '258', '260', '284', '297'],
      dtype='object')",False,1000,True,2,52e7133b91,1.0,1.0
./expes/v3_2021-02-05_di_300-prng-1-w1-p2,daily_issda-300,300,first-300,84,28,rng,num-start-231,231,536,classic,10.321744441986084,True,,True,1.0,1.0,1.0,1,"Index(['1', '6', '10', '14', '15', '16', '17', '19', '23', '27', '31', '32',
       '39', '40', '43', '45', '47', '53', '58', '59', '70', '74', '75', '84',
       '88', '92', '99', '103', '105', '108', '113', '114', '115', '117',
       '121', '130', '134', '138', '141', '142', '159', '161', '172', '173',
       '174', '180', '183', '186', '187', '189', '191', '192', '196', '197',
       '198', '199', '206', '208', '215', '217', '219', '221', '222', '226',
       '228', '236', '241', '243', '245', '248', '257', '260', '261', '262',
       '263', '266', '271', '277', '278', '282', '285', '286', '294', '296'],
      dtype='object')",False,1000,True,2,2c3cc76956,1.0,1.0
./expes/v3_2021-02-05_di_300-prng-1-w1-p2,daily_issda-300,300,first-300,70,23,rng,num-start-11,11,536,classic,1000.4655182361603,False,,False,0,,,0,"Index(['1', '3', '8', '9', '16', '19', '22', '27', '31', '33', '35', '36',
       '38', '43', '44', '45', '47', '49', '56', '61', '73', '81', '95', '96',
       '98', '101', '102', '108', '110', '118', '120', '124', '131', '139',
       '143', '148', '149', '151', '156', '160', '162', '168', '171', '173',
       '193', '198', '203', '204', '206', '209', '210', '215', '226', '229',
       '232', '235', '238', '239', '241', '244', '256', '261', '263', '266',
       '271', '276', '283', '287', '289', '290'],
      dtype='object')",True,1000,True,2,8cbd199a7d,0.0,0.0
./expes/v3_2021-02-05_di_300-prng-1-w1-p2,daily_issda-300,300,first-300,119,39,rng,num-start-201,201,536,classic,9.202001333236694,True,,True,1.0,1.0,1.0,1,"Index(['1', '2', '3', '4', '5', '7', '9', '10', '13', '14',
       ...
       '276', '277', '284', '285', '287', '290', '294', '295', '297', '300'],
      dtype='object', length=119)",False,1000,True,2,423b254b9b,1.0,1.0
./expes/v3_2021-02-05_di_300-prng-1-w1-p2,daily_issda-300,300,first-300,14,4,rng,num-start-161,161,536,classic,6.2943689823150635,True,,True,1.0,1.0,1.0,1,"Index(['8', '17', '18', '83', '106', '143', '220', '237', '248', '251', '252',
       '267', '293', '296'],
      dtype='object')",False,1000,True,2,b4cf7a4afa,1.0,1.0
./expes/v3_2021-02-05_di_300-prng-1-w1-p2,daily_issda-300,300,first-300,112,37,rng,num-start-91,91,536,classic,1003.1992809772491,False,,False,0,,,0,"Index(['3', '4', '5', '6', '7', '8', '11', '12', '15', '16',
       ...
       '258', '262', '265', '268', '270', '277', '278', '289', '297', '299'],
      dtype='object', length=112)",True,1000,True,2,a0e357c539,0.0,0.0
./expes/v3_2021-02-05_di_300-prng-1-w1-p2,daily_issda-300,300,first-300,63,21,rng,num-start-71,71,536,classic,1002.359940290451,False,,False,0,,,0,"Index(['1', '3', '8', '9', '16', '19', '22', '27', '31', '33', '35', '36',
       '38', '43', '44', '47', '49', '56', '73', '81', '95', '96', '98', '101',
       '102', '108', '110', '118', '120', '124', '131', '143', '148', '149',
       '151', '156', '162', '168', '193', '198', '203', '204', '206', '209',
       '215', '226', '229', '232', '235', '238', '239', '241', '244', '256',
       '261', '263', '266', '271', '276', '283', '287', '289', '290'],
      dtype='object')",True,1000,True,2,9038a8334d,0.0,0.0
./expes/v3_2021-02-05_di_300-prng-1-w1-p2,daily_issda-300,300,first-300,35,11,rng,num-start-101,101,536,classic,4.268503427505493,True,,True,1.0,1.0,1.0,1,"Index(['21', '32', '38', '49', '51', '52', '72', '76', '105', '112', '129',
       '133', '134', '145', '156', '159', '162', '170', '182', '184', '198',
       '208', '216', '223', '227', '242', '245', '249', '259', '262', '267',
       '273', '283', '287', '299'],
      dtype='object')",False,1000,True,2,7b36a5e3ab,1.0,1.0
./expes/v3_2021-02-05_di_300-prng-1-w1-p2,daily_issda-300,300,first-300,140,46,rng,num-start-91,91,536,classic,1003.1113419532776,False,,False,0,,,0,"Index(['1', '6', '10', '11', '13', '15', '17', '18', '22', '27',
       ...
       '279', '280', '283', '284', '287', '288', '292', '293', '297', '299'],
      dtype='object', length=140)",True,1000,True,2,bb8bbffddc,0.0,0.0
./expes/v3_2021-02-05_di_300-prng-1-w1-p2,daily_issda-300,300,first-300,35,11,rng,num-start-181,181,536,classic,8.00133728981018,True,,True,1.0,1.0,1.0,1,"Index(['1', '12', '19', '24', '42', '46', '48', '49', '50', '75', '99', '101',
       '102', '103', '129', '134', '136', '140', '150', '164', '172', '186',
       '192', '210', '212', '218', '228', '241', '249', '251', '276', '277',
       '284', '289', '294'],
      dtype='object')",False,1000,True,2,486b12d990,1.0,1.0
./expes/v3_2021-02-05_di_300-prng-1-w1-p2,daily_issda-300,300,first-300,112,37,rng,num-start-31,31,536,classic,1001.2501466274261,False,,False,0,,,0,"Index(['4', '5', '10', '11', '14', '22', '23', '24', '29', '31',
       ...
       '266', '267', '274', '275', '281', '282', '286', '293', '294', '299'],
      dtype='object', length=112)",True,1000,True,2,8939213ea4,0.0,0.0
./expes/v3_2021-02-05_di_300-prng-1-w1-p2,daily_issda-300,300,first-300,91,30,rng,num-start-91,91,536,classic,12.46397089958191,True,,True,1.0,1.0,1.0,1,"Index(['1', '7', '9', '10', '12', '15', '19', '24', '28', '40', '42', '44',
       '46', '48', '49', '50', '60', '62', '64', '65', '71', '75', '87', '89',
       '95', '97', '99', '100', '101', '102', '103', '108', '115', '126',
       '129', '131', '132', '134', '136', '137', '138', '140', '149', '150',
       '156', '157', '160', '164', '169', '171', '172', '183', '185', '186',
       '192', '194', '195', '200', '204', '210', '211', '212', '216', '217',
       '218', '219', '221', '226', '228', '229', '232', '241', '242', '248',
       '249', '250', '251', '257', '258', '264', '265', '268', '269', '271',
       '276', '277', '284', '286', '289', '294', '295'],
      dtype='object')",False,1000,True,2,f09073b925,1.0,1.0
./expes/v3_2021-02-05_di_300-prng-1-w1-p2,daily_issda-300,300,first-300,21,7,rng,num-start-251,251,536,classic,9.456485509872437,True,,True,1.0,1.0,1.0,1,"Index(['1', '6', '31', '74', '75', '84', '108', '117', '138', '141', '174',
       '180', '189', '192', '196', '226', '236', '243', '248', '271', '286'],
      dtype='object')",False,1000,True,2,b487513d0b,1.0,1.0
./expes/v3_2021-02-05_di_300-prng-1-w1-p2,daily_issda-300,300,first-300,119,39,rng,num-start-91,91,536,classic,1003.2062149047852,False,,False,0,,,0,"Index(['1', '3', '5', '11', '13', '15', '16', '17', '19', '21',
       ...
       '270', '272', '279', '283', '286', '287', '288', '291', '295', '298'],
      dtype='object', length=119)",True,1000,True,2,1247da6a15,0.0,0.0
./expes/v3_2021-02-05_di_300-prng-1-w1-p2,daily_issda-300,300,first-300,105,35,rng,num-start-181,181,536,classic,8.611196517944336,True,,True,1.0,1.0,1.0,1,"Index(['5', '6', '8', '9', '10', '16', '19', '22', '23', '25',
       ...
       '262', '267', '272', '274', '279', '281', '285', '290', '292', '296'],
      dtype='object', length=105)",False,1000,True,2,86565acaf5,1.0,1.0
./expes/v3_2021-02-05_di_300-prng-1-w1-p2,daily_issda-300,300,first-300,42,14,rng,num-start-291,291,536,classic,12.270689249038696,True,,True,1.0,1.0,1.0,1,"Index(['9', '12', '23', '37', '38', '51', '56', '59', '62', '76', '82', '103',
       '104', '120', '134', '138', '149', '154', '160', '167', '168', '178',
       '199', '202', '203', '209', '211', '213', '217', '226', '234', '258',
       '262', '267', '271', '278', '280', '292', '293', '296', '297', '300'],
      dtype='object')",False,1000,True,2,c28dd95af1,1.0,1.0
./expes/v3_2021-02-05_di_300-prng-1-w1-p2,daily_issda-300,300,first-300,49,16,rng,num-start-101,101,536,classic,8.805759906768799,True,,True,1.0,1.0,1.0,1,"Index(['1', '6', '10', '27', '31', '32', '39', '43', '45', '47', '58', '70',
       '74', '75', '84', '88', '103', '108', '115', '117', '138', '141', '161',
       '173', '174', '180', '189', '192', '196', '197', '206', '208', '215',
       '217', '226', '228', '236', '241', '243', '245', '248', '260', '261',
       '263', '271', '277', '285', '286', '296'],
      dtype='object')",False,1000,True,2,d3bdfea0fc,1.0,1.0
./expes/v3_2021-02-05_di_300-prng-1-w1-p2,daily_issda-300,300,first-300,42,14,rng,num-start-61,61,536,classic,1002.0966641902924,False,,False,0,,,0,"Index(['3', '8', '17', '18', '23', '39', '69', '72', '83', '90', '100', '106',
       '121', '123', '128', '135', '143', '146', '156', '161', '168', '182',
       '185', '186', '188', '193', '196', '216', '220', '226', '231', '234',
       '237', '248', '251', '252', '267', '275', '282', '293', '296', '299'],
      dtype='object')",True,1000,True,2,9790d1908a,0.0,0.0
./expes/v3_2021-02-05_di_300-prng-1-w1-p2,daily_issda-300,300,first-300,84,28,rng,num-start-91,91,536,classic,79.98480153083801,True,,True,1.0,1.0,1.0,1,"Index(['3', '4', '5', '6', '7', '8', '11', '12', '15', '17', '23', '24', '25',
       '34', '37', '41', '43', '45', '48', '52', '59', '63', '73', '74', '79',
       '80', '85', '89', '92', '113', '114', '115', '117', '119', '121', '122',
       '123', '125', '130', '131', '133', '145', '146', '151', '152', '155',
       '156', '159', '163', '164', '172', '179', '186', '190', '192', '202',
       '205', '208', '210', '214', '216', '217', '228', '229', '233', '234',
       '236', '238', '241', '244', '245', '247', '251', '252', '254', '256',
       '262', '265', '268', '277', '278', '289', '297', '299'],
      dtype='object')",False,1000,True,2,2741967e7f,1.0,1.0
./expes/v3_2021-02-05_di_300-prng-1-w1-p2,daily_issda-300,300,first-300,56,18,rng,num-start-41,41,536,classic,1001.3957371711731,False,,False,0,,,0,"Index(['7', '8', '15', '16', '19', '22', '33', '34', '50', '67', '69', '70',
       '78', '82', '84', '99', '112', '119', '120', '122', '133', '138', '144',
       '155', '168', '173', '180', '188', '190', '198', '199', '200', '203',
       '204', '209', '216', '219', '224', '228', '241', '243', '244', '254',
       '260', '268', '274', '277', '278', '279', '282', '283', '293', '294',
       '296', '298', '300'],
      dtype='object')",True,1000,True,2,143a8f72ba,0.0,0.0
./expes/v3_2021-02-05_di_300-prng-1-w1-p2,daily_issda-300,300,first-300,21,7,rng,num-start-41,41,536,classic,3.575467586517334,True,,True,1.0,1.0,1.0,1,"Index(['12', '23', '56', '62', '76', '103', '104', '134', '138', '149', '160',
       '167', '168', '178', '202', '211', '262', '267', '271', '292', '300'],
      dtype='object')",False,1000,True,2,1cc1b3b91a,1.0,1.0
./expes/v3_2021-02-05_di_300-prng-1-w1-p2,daily_issda-300,300,first-300,119,39,rng,num-start-11,11,536,classic,1000.4333989620209,False,,False,0,,,0,"Index(['3', '4', '5', '10', '30', '34', '40', '41', '45', '46',
       ...
       '281', '283', '285', '286', '287', '291', '293', '294', '295', '297'],
      dtype='object', length=119)",True,1000,True,2,b723c5f0ab,0.0,0.0
./expes/v3_2021-02-05_di_300-prng-1-w1-p2,daily_issda-300,300,first-300,7,2,rng,num-start-131,131,536,classic,5.086392879486084,True,,True,1.0,1.0,1.0,1,"Index(['6', '74', '138', '180', '196', '243', '271'], dtype='object')",False,1000,True,2,c6c3471171,1.0,1.0
./expes/v3_2021-02-05_di_300-prng-1-w1-p2,daily_issda-300,300,first-300,63,21,rng,num-start-51,51,536,classic,1001.7712450027466,False,,False,0,,,0,"Index(['4', '11', '14', '23', '24', '31', '35', '42', '45', '46', '47', '53',
       '55', '80', '83', '85', '89', '92', '100', '110', '114', '120', '121',
       '127', '128', '133', '134', '135', '140', '142', '144', '148', '149',
       '150', '154', '156', '157', '159', '160', '173', '176', '185', '191',
       '199', '203', '206', '212', '217', '221', '232', '237', '242', '243',
       '246', '260', '261', '266', '267', '274', '275', '281', '282', '294'],
      dtype='object')",True,1000,True,2,170c7843b1,0.0,0.0
./expes/v3_2021-02-05_di_300-prng-1-w1-p2,daily_issda-300,300,first-300,70,23,rng,num-start-91,91,536,classic,7.6477742195129395,True,,True,1.0,1.0,1.0,1,"Index(['1', '7', '9', '12', '15', '19', '24', '42', '46', '48', '49', '50',
       '60', '62', '65', '71', '75', '87', '97', '99', '100', '101', '102',
       '103', '108', '115', '126', '129', '134', '136', '138', '140', '149',
       '150', '156', '157', '160', '164', '171', '172', '183', '185', '186',
       '192', '194', '195', '200', '210', '212', '218', '221', '228', '241',
       '248', '249', '250', '251', '257', '258', '264', '268', '269', '271',
       '276', '277', '284', '286', '289', '294', '295'],
      dtype='object')",False,1000,True,2,d9d2278485,1.0,1.0
./expes/v3_2021-02-05_di_300-prng-1-w1-p2,daily_issda-300,300,first-300,21,7,rng,num-start-121,121,536,classic,4.752230882644653,True,,True,1.0,1.0,1.0,1,"Index(['3', '6', '12', '73', '113', '114', '117', '122', '130', '133', '146',
       '152', '155', '159', '172', '186', '210', '214', '229', '241', '247'],
      dtype='object')",False,1000,True,2,127d9006eb,1.0,1.0
./expes/v3_2021-02-05_di_300-prng-1-w1-p2,daily_issda-300,300,first-300,119,39,rng,num-start-281,281,536,classic,12.629793643951416,True,,True,1.0,1.0,1.0,1,"Index(['2', '3', '8', '16', '17', '19', '20', '22', '23', '36',
       ...
       '282', '284', '285', '287', '289', '290', '292', '296', '298', '299'],
      dtype='object', length=119)",False,1000,True,2,e1035c0805,1.0,1.0
./expes/v3_2021-02-05_di_300-prng-1-w1-p2,daily_issda-300,300,first-300,28,9,rng,num-start-291,291,536,classic,11.842567205429077,True,,True,1.0,1.0,1.0,1,"Index(['3', '6', '11', '12', '15', '73', '79', '113', '114', '115', '117',
       '122', '130', '133', '146', '152', '155', '159', '172', '186', '210',
       '214', '216', '229', '234', '238', '241', '247'],
      dtype='object')",False,1000,True,2,ff5411b855,1.0,1.0
./expes/v3_2021-02-05_di_300-prng-1-w1-p2,daily_issda-300,300,first-300,84,28,rng,num-start-281,281,536,classic,12.62082028388977,True,,True,1.0,1.0,1.0,1,"Index(['6', '10', '11', '15', '35', '36', '38', '43', '46', '48', '49', '53',
       '55', '58', '59', '61', '63', '74', '77', '83', '85', '87', '93', '100',
       '105', '112', '115', '121', '127', '131', '132', '134', '135', '137',
       '139', '141', '143', '144', '145', '150', '156', '159', '162', '173',
       '178', '183', '184', '185', '187', '189', '196', '198', '202', '204',
       '207', '208', '211', '214', '217', '218', '224', '225', '226', '231',
       '232', '234', '236', '239', '242', '243', '246', '249', '250', '251',
       '257', '264', '265', '270', '274', '283', '292', '293', '297', '299'],
      dtype='object')",False,1000,True,2,daa3b1f6e8,1.0,1.0
./expes/v3_2021-02-05_di_300-prng-1-w1-p2,daily_issda-300,300,first-300,126,42,rng,num-start-261,261,536,classic,11.813695430755615,True,,True,1.0,1.0,1.0,1,"Index(['1', '3', '5', '6', '8', '9', '11', '16', '19', '20',
       ...
       '271', '276', '283', '284', '287', '289', '290', '295', '296', '299'],
      dtype='object', length=126)",False,1000,True,2,f4bf9b551b,1.0,1.0
./expes/v3_2021-02-05_di_300-prng-1-w1-p2,daily_issda-300,300,first-300,77,25,rng,num-start-211,211,536,classic,8.919148683547974,True,,True,1.0,1.0,1.0,1,"Index(['2', '5', '12', '14', '15', '16', '18', '23', '33', '45', '49', '52',
       '53', '56', '61', '62', '69', '84', '87', '88', '89', '96', '98', '108',
       '111', '113', '114', '118', '119', '120', '125', '131', '137', '146',
       '149', '152', '156', '158', '163', '171', '177', '188', '190', '192',
       '195', '196', '200', '202', '207', '213', '214', '217', '222', '225',
       '229', '231', '236', '241', '242', '246', '250', '251', '254', '256',
       '257', '258', '259', '260', '261', '267', '271', '278', '281', '284',
       '285', '292', '297'],
      dtype='object')",False,1000,True,2,4cb961f76e,1.0,1.0
./expes/v3_2021-02-05_di_300-prng-1-w1-p2,daily_issda-300,300,first-300,70,23,rng,num-start-141,141,536,classic,6.239899158477783,True,,True,1.0,1.0,1.0,1,"Index(['2', '8', '16', '23', '37', '38', '44', '61', '65', '67', '68', '70',
       '71', '72', '73', '76', '82', '91', '92', '96', '100', '104', '110',
       '116', '119', '120', '121', '122', '129', '130', '132', '133', '135',
       '142', '144', '149', '151', '161', '178', '180', '183', '187', '188',
       '191', '192', '200', '203', '212', '218', '220', '221', '224', '226',
       '228', '230', '231', '236', '238', '250', '252', '255', '267', '268',
       '273', '275', '282', '284', '289', '290', '296'],
      dtype='object')",False,1000,True,2,64c6f0783e,1.0,1.0
./expes/v3_2021-02-05_di_300-prng-1-w1-p2,daily_issda-300,300,first-300,28,9,rng,num-start-1,1,536,classic,0.8807590007781982,False,,False,0.5711278922002362,0.5672287325853695,0.5750270518151028,2,"Index(['15', '19', '29', '44', '47', '82', '85', '87', '109', '129', '138',
       '158', '164', '185', '187', '191', '195', '202', '217', '221', '228',
       '239', '258', '261', '270', '279', '287', '298'],
      dtype='object')",False,1000,True,2,9e6ac23845,1.0,1.0
./expes/v3_2021-02-05_di_300-prng-1-w1-p2,daily_issda-300,300,first-300,7,2,rng,num-start-71,71,536,classic,2.9196813106536865,True,,True,1.0,1.0,1.0,1,"Index(['4', '71', '96', '137', '174', '192', '238'], dtype='object')",False,1000,True,2,c26b453fe0,1.0,1.0
./expes/v3_2021-02-05_di_300-prng-1-w1-p2,daily_issda-300,300,first-300,91,30,rng,num-start-1,1,536,classic,1.8368568420410156,False,,False,0.3825523802019199,0.3771357561870037,0.3879690042168361,2,"Index(['1', '7', '9', '10', '12', '15', '19', '24', '28', '40', '42', '44',
       '46', '48', '49', '50', '60', '62', '64', '65', '71', '75', '87', '89',
       '95', '97', '99', '100', '101', '102', '103', '108', '115', '126',
       '129', '131', '132', '134', '136', '137', '138', '140', '149', '150',
       '156', '157', '160', '164', '169', '171', '172', '183', '185', '186',
       '192', '194', '195', '200', '204', '210', '211', '212', '216', '217',
       '218', '219', '221', '226', '228', '229', '232', '241', '242', '248',
       '249', '250', '251', '257', '258', '264', '265', '268', '269', '271',
       '276', '277', '284', '286', '289', '294', '295'],
      dtype='object')",False,1000,True,2,5c22dbfbe6,1.0,1.0
./expes/v3_2021-02-05_di_300-prng-1-w1-p2,daily_issda-300,300,first-300,70,23,rng,num-start-91,91,536,classic,10.323367834091187,True,,True,1.0,1.0,1.0,1,"Index(['11', '16', '20', '23', '30', '33', '37', '44', '45', '46', '50', '56',
       '59', '65', '70', '71', '73', '76', '77', '82', '99', '100', '102',
       '107', '108', '117', '120', '121', '127', '133', '137', '146', '147',
       '159', '161', '174', '183', '190', '193', '194', '195', '198', '200',
       '206', '207', '209', '219', '228', '233', '234', '236', '243', '249',
       '250', '251', '254', '255', '258', '260', '262', '265', '267', '271',
       '273', '277', '286', '294', '297', '298', '300'],
      dtype='object')",False,1000,True,2,545b827bb6,1.0,1.0
./expes/v3_2021-02-05_di_300-prng-1-w1-p2,daily_issda-300,300,first-300,28,9,rng,num-start-221,221,536,classic,8.573829889297485,True,,True,1.0,1.0,1.0,1,"Index(['7', '15', '27', '37', '53', '58', '65', '68', '72', '81', '82', '94',
       '111', '127', '128', '131', '144', '184', '191', '195', '200', '209',
       '228', '239', '241', '272', '279', '294'],
      dtype='object')",False,1000,True,2,d388cfd274,1.0,1.0
./expes/v3_2021-02-05_di_300-prng-1-w1-p2,daily_issda-300,300,first-300,70,23,rng,num-start-11,11,536,classic,1000.4068555831909,False,,False,0,,,0,"Index(['7', '8', '11', '15', '16', '19', '22', '33', '34', '35', '46', '50',
       '54', '64', '67', '69', '70', '78', '82', '84', '99', '109', '112',
       '119', '120', '122', '133', '137', '138', '144', '146', '151', '155',
       '168', '173', '177', '180', '188', '190', '198', '199', '200', '203',
       '204', '209', '211', '216', '219', '224', '228', '241', '243', '244',
       '247', '248', '254', '260', '268', '274', '277', '278', '279', '282',
       '283', '292', '293', '294', '296', '298', '300'],
      dtype='object')",True,1000,True,2,cc4fd05231,0.0,0.0
./expes/v3_2021-02-05_di_300-prng-1-w1-p2,daily_issda-300,300,first-300,133,44,rng,num-start-231,231,536,classic,9.69447922706604,True,,True,1.0,1.0,1.0,1,"Index(['2', '3', '8', '13', '17', '18', '19', '23', '24', '26',
       ...
       '278', '279', '282', '287', '291', '293', '295', '296', '299', '300'],
      dtype='object', length=133)",False,1000,True,2,cafc537490,1.0,1.0
./expes/v3_2021-02-05_di_300-prng-1-w1-p2,daily_issda-300,300,first-300,105,35,rng,num-start-201,201,536,classic,8.891483783721924,True,,True,1.0,1.0,1.0,1,"Index(['3', '4', '5', '10', '41', '45', '46', '48', '52', '59',
       ...
       '281', '283', '285', '286', '287', '291', '293', '294', '295', '297'],
      dtype='object', length=105)",False,1000,True,2,d517e4a33c,1.0,1.0
./expes/v3_2021-02-05_di_300-prng-1-w1-p2,daily_issda-300,300,first-300,140,46,rng,num-start-261,261,536,classic,12.959096431732178,True,,True,1.0,1.0,1.0,1,"Index(['3', '4', '5', '6', '7', '8', '11', '12', '15', '16',
       ...
       '270', '273', '274', '277', '278', '284', '289', '294', '297', '299'],
      dtype='object', length=140)",False,1000,True,2,fed27e3277,1.0,1.0
./expes/v3_2021-02-05_di_300-prng-1-w1-p2,daily_issda-300,300,first-300,77,25,rng,num-start-131,131,536,classic,6.393919467926025,True,,True,1.0,1.0,1.0,1,"Index(['5', '13', '15', '19', '29', '39', '44', '47', '55', '70', '82', '83',
       '85', '86', '87', '89', '91', '94', '98', '107', '109', '114', '119',
       '121', '128', '129', '138', '143', '156', '158', '159', '160', '164',
       '167', '175', '180', '182', '185', '186', '187', '188', '191', '195',
       '202', '205', '209', '213', '217', '221', '228', '229', '233', '234',
       '237', '239', '246', '250', '251', '256', '257', '258', '259', '260',
       '261', '262', '263', '264', '266', '269', '270', '272', '279', '286',
       '287', '288', '291', '298'],
      dtype='object')",False,1000,True,2,603f448fb7,1.0,1.0
./expes/v3_2021-02-05_di_300-prng-1-w1-p2,daily_issda-300,300,first-300,49,16,rng,num-start-1,1,536,classic,2.3021433353424072,False,,False,0.48277981876787324,0.4763135559909957,0.4892460815447508,2,"Index(['9', '12', '23', '37', '38', '51', '54', '56', '59', '62', '69', '71',
       '76', '82', '99', '103', '104', '107', '120', '134', '138', '149',
       '154', '160', '167', '168', '178', '199', '200', '202', '203', '209',
       '211', '213', '217', '226', '234', '253', '258', '262', '267', '271',
       '278', '280', '292', '293', '296', '297', '300'],
      dtype='object')",False,1000,True,2,1ad87a394d,1.0,1.0
./expes/v3_2021-02-05_di_300-prng-1-w1-p2,daily_issda-300,300,first-300,140,46,rng,num-start-21,21,536,classic,1000.963761806488,False,,False,0,,,0,"Index(['1', '7', '8', '9', '12', '14', '17', '19', '20', '21',
       ...
       '281', '283', '287', '288', '291', '292', '294', '295', '297', '299'],
      dtype='object', length=140)",True,1000,True,2,bdac896d2b,0.0,0.0
./expes/v3_2021-02-05_di_300-prng-1-w1-p2,daily_issda-300,300,first-300,119,39,rng,num-start-211,211,536,classic,9.039226293563843,True,,True,1.0,1.0,1.0,1,"Index(['2', '7', '9', '11', '14', '16', '17', '18', '20', '23',
       ...
       '273', '277', '280', '286', '289', '292', '294', '297', '298', '300'],
      dtype='object', length=119)",False,1000,True,2,4b14a3be04,1.0,1.0
./expes/v3_2021-02-05_di_300-prng-1-w1-p2,daily_issda-300,300,first-300,126,42,rng,num-start-51,51,536,classic,1001.6625099182129,False,,False,0,,,0,"Index(['3', '4', '5', '6', '7', '8', '11', '12', '15', '16',
       ...
       '265', '268', '270', '274', '277', '278', '289', '294', '297', '299'],
      dtype='object', length=126)",True,1000,True,2,46a2dbb494,0.0,0.0
./expes/v3_2021-02-05_di_300-prng-1-w1-p2,daily_issda-300,300,first-300,35,11,rng,num-start-271,271,536,classic,10.63517951965332,True,,True,1.0,1.0,1.0,1,"Index(['13', '15', '19', '29', '44', '47', '70', '82', '85', '87', '89', '91',
       '109', '119', '121', '129', '138', '158', '164', '167', '185', '187',
       '191', '195', '202', '217', '221', '228', '239', '258', '261', '270',
       '279', '287', '298'],
      dtype='object')",False,1000,True,2,e8f1ac85de,1.0,1.0
./expes/v3_2021-02-05_di_300-prng-1-w1-p2,daily_issda-300,300,first-300,70,23,rng,num-start-281,281,536,classic,11.561891794204712,True,,True,1.0,1.0,1.0,1,"Index(['1', '8', '21', '32', '33', '38', '42', '47', '48', '49', '51', '52',
       '56', '64', '72', '73', '76', '95', '97', '98', '105', '112', '114',
       '123', '124', '125', '129', '133', '134', '145', '148', '149', '150',
       '155', '156', '159', '162', '163', '164', '167', '170', '171', '182',
       '184', '198', '205', '208', '216', '223', '227', '228', '230', '242',
       '245', '249', '251', '253', '259', '261', '262', '267', '273', '277',
       '279', '281', '283', '287', '291', '295', '299'],
      dtype='object')",False,1000,True,2,af3fafbec9,1.0,1.0
./expes/v3_2021-02-05_di_300-prng-1-w1-p2,daily_issda-300,300,first-300,119,39,rng,num-start-71,71,536,classic,1002.2939827442169,False,,False,0,,,0,"Index(['2', '7', '9', '11', '14', '16', '17', '18', '20', '23',
       ...
       '273', '277', '280', '286', '289', '292', '294', '297', '298', '300'],
      dtype='object', length=119)",True,1000,True,2,08e6c51e70,0.0,0.0
./expes/v3_2021-02-05_di_300-prng-1-w1-p2,daily_issda-300,300,first-300,98,32,rng,num-start-201,201,536,classic,10.05723261833191,True,,True,1.0,1.0,1.0,1,"Index(['1', '8', '9', '17', '20', '21', '32', '33', '36', '38', '42', '43',
       '46', '47', '48', '49', '51', '52', '56', '60', '64', '67', '72', '73',
       '76', '77', '88', '95', '96', '97', '98', '105', '111', '112', '113',
       '114', '121', '123', '124', '125', '129', '133', '134', '139', '141',
       '142', '145', '148', '149', '150', '155', '156', '159', '162', '163',
       '164', '167', '170', '171', '172', '182', '183', '184', '191', '198',
       '201', '205', '208', '215', '216', '223', '227', '228', '230', '231',
       '242', '244', '245', '249', '250', '251', '253', '259', '261', '262',
       '267', '268', '269', '273', '277', '279', '281', '283', '287', '291',
       '295', '297', '299'],
      dtype='object')",False,1000,True,2,2d130ecf25,1.0,1.0
./expes/v3_2021-02-05_di_300-prng-1-w1-p2,daily_issda-300,300,first-300,133,44,rng,num-start-1,1,536,classic,1.9212737083435059,False,,False,0.303620745312041,0.30121940898357025,0.3060220816405117,2,"Index(['3', '5', '6', '10', '11', '14', '15', '26', '27', '28',
       ...
       '284', '285', '286', '287', '289', '291', '293', '295', '296', '297'],
      dtype='object', length=133)",False,1000,True,2,7ee1637614,1.0,1.0
./expes/v3_2021-02-05_di_300-prng-1-w1-p2,daily_issda-300,300,first-300,7,2,rng,num-start-231,231,536,classic,8.628101587295532,True,,True,1.0,1.0,1.0,1,"Index(['15', '27', '128', '131', '184', '239', '272'], dtype='object')",False,1000,True,2,550b421d05,1.0,1.0
./expes/v3_2021-02-05_di_300-prng-1-w1-p2,daily_issda-300,300,first-300,105,35,rng,num-start-101,101,536,classic,16.266201972961426,True,,True,1.0,1.0,1.0,1,"Index(['1', '4', '7', '9', '10', '12', '15', '19', '24', '28',
       ...
       '269', '271', '276', '277', '284', '286', '287', '289', '294', '295'],
      dtype='object', length=105)",False,1000,True,2,59121e79f8,1.0,1.0
./expes/v3_2021-02-05_di_300-prng-1-w1-p2,daily_issda-300,300,first-300,49,16,rng,num-start-31,31,536,classic,1001.1764597892761,False,,False,0,,,0,"Index(['3', '8', '16', '19', '22', '31', '33', '36', '43', '44', '47', '49',
       '56', '73', '81', '95', '96', '98', '101', '118', '120', '124', '131',
       '143', '148', '149', '151', '156', '162', '168', '203', '206', '209',
       '226', '229', '232', '235', '238', '239', '244', '256', '261', '263',
       '266', '271', '276', '283', '287', '289'],
      dtype='object')",True,1000,True,2,de4e16106a,0.0,0.0
./expes/v3_2021-02-05_di_300-prng-1-w1-p2,daily_issda-300,300,first-300,140,46,rng,num-start-171,171,536,classic,8.134513854980469,True,,True,1.0,1.0,1.0,1,"Index(['2', '3', '8', '16', '17', '18', '19', '20', '22', '23',
       ...
       '284', '285', '287', '289', '290', '292', '296', '298', '299', '300'],
      dtype='object', length=140)",False,1000,True,2,8eae4ae31a,1.0,1.0
./expes/v3_2021-02-05_di_300-prng-1-w1-p2,daily_issda-300,300,first-300,14,4,rng,num-start-1,1,536,classic,0.7920248508453369,False,,False,0.7051160876902057,0.7051160876902057,0.7051160876902057,2,"Index(['7', '34', '67', '99', '120', '122', '133', '190', '241', '243', '277',
       '279', '283', '298'],
      dtype='object')",False,1000,True,2,3a3ed0eac9,1.0,1.0
./expes/v3_2021-02-05_di_300-prng-1-w1-p2,daily_issda-300,300,first-300,63,21,rng,num-start-1,1,536,classic,2.6180622577667236,False,,False,0.4485310987448954,0.43336940242013733,0.46369279506965344,2,"Index(['1', '8', '21', '32', '33', '38', '42', '47', '48', '49', '51', '52',
       '56', '64', '72', '73', '76', '98', '105', '112', '114', '123', '125',
       '129', '133', '134', '145', '148', '150', '155', '156', '159', '162',
       '164', '167', '170', '171', '182', '184', '198', '205', '208', '216',
       '223', '227', '230', '242', '245', '249', '251', '253', '259', '261',
       '262', '267', '273', '277', '279', '281', '283', '287', '291', '299'],
      dtype='object')",False,1000,True,2,3377040d8b,1.0,1.0
./expes/v3_2021-02-05_di_300-prng-1-w1-p2,daily_issda-300,300,first-300,77,25,rng,num-start-191,191,536,classic,7.906123876571655,True,,True,1.0,1.0,1.0,1,"Index(['1', '3', '6', '8', '9', '16', '19', '22', '27', '31', '33', '35', '36',
       '38', '43', '44', '45', '47', '49', '52', '56', '61', '69', '73', '81',
       '91', '95', '96', '97', '98', '101', '102', '108', '110', '118', '120',
       '124', '127', '131', '139', '143', '148', '149', '151', '156', '160',
       '162', '168', '171', '173', '193', '198', '203', '204', '206', '209',
       '210', '215', '226', '229', '232', '235', '238', '239', '241', '244',
       '250', '256', '261', '263', '266', '271', '276', '283', '287', '289',
       '290'],
      dtype='object')",False,1000,True,2,70fdb1e35a,1.0,1.0
./expes/v3_2021-02-05_di_300-prng-1-w1-p2,daily_issda-300,300,first-300,91,30,rng,num-start-191,191,536,classic,9.074083089828491,True,,True,1.0,1.0,1.0,1,"Index(['1', '2', '3', '5', '7', '10', '12', '15', '19', '24', '27', '30', '34',
       '37', '47', '53', '56', '58', '61', '65', '68', '72', '75', '76', '81',
       '82', '85', '86', '91', '93', '94', '95', '101', '102', '105', '107',
       '108', '111', '126', '127', '128', '129', '131', '132', '136', '142',
       '144', '149', '152', '153', '155', '157', '159', '161', '162', '170',
       '174', '175', '177', '182', '184', '185', '186', '188', '189', '191',
       '193', '195', '197', '200', '207', '209', '213', '215', '222', '228',
       '232', '237', '239', '241', '242', '247', '263', '269', '272', '277',
       '279', '280', '282', '294', '297'],
      dtype='object')",False,1000,True,2,934f155972,1.0,1.0
./expes/v3_2021-02-05_di_300-prng-1-w1-p2,daily_issda-300,300,first-300,56,18,rng,num-start-11,11,536,classic,1000.4748890399933,False,,False,0,,,0,"Index(['4', '52', '59', '61', '63', '68', '75', '83', '87', '90', '93', '94',
       '98', '101', '102', '103', '104', '106', '111', '113', '121', '122',
       '123', '130', '136', '139', '140', '145', '152', '154', '156', '167',
       '172', '176', '178', '188', '208', '209', '224', '230', '235', '245',
       '246', '251', '253', '254', '257', '260', '263', '268', '270', '276',
       '283', '291', '294', '295'],
      dtype='object')",True,1000,True,2,f29b5ceb62,0.0,0.0
./expes/v3_2021-02-05_di_300-prng-1-w1-p2,daily_issda-300,300,first-300,70,23,rng,num-start-1,1,536,classic,2.4264395236968994,False,,False,0.3826236831258113,0.37178918392673455,0.39345818232488805,2,"Index(['1', '3', '8', '9', '16', '19', '22', '27', '31', '33', '35', '36',
       '38', '43', '44', '45', '47', '49', '56', '61', '73', '81', '95', '96',
       '98', '101', '102', '108', '110', '118', '120', '124', '131', '139',
       '143', '148', '149', '151', '156', '160', '162', '168', '171', '173',
       '193', '198', '203', '204', '206', '209', '210', '215', '226', '229',
       '232', '235', '238', '239', '241', '244', '256', '261', '263', '266',
       '271', '276', '283', '287', '289', '290'],
      dtype='object')",False,1000,True,2,d206e61960,1.0,1.0
./expes/v3_2021-02-05_di_300-prng-1-w1-p2,daily_issda-300,300,first-300,84,28,rng,num-start-191,191,536,classic,9.569908618927002,True,,True,1.0,1.0,1.0,1,"Index(['5', '13', '15', '19', '26', '29', '31', '39', '44', '47', '55', '70',
       '82', '83', '85', '86', '87', '89', '91', '94', '98', '107', '109',
       '114', '117', '119', '121', '128', '129', '137', '138', '140', '143',
       '156', '158', '159', '160', '164', '167', '175', '180', '182', '185',
       '186', '187', '188', '191', '195', '202', '205', '209', '213', '217',
       '221', '228', '229', '233', '234', '237', '239', '246', '250', '251',
       '256', '257', '258', '259', '260', '261', '262', '263', '264', '266',
       '268', '269', '270', '272', '279', '286', '287', '288', '291', '295',
       '298'],
      dtype='object')",False,1000,True,2,3cd4c0620e,1.0,1.0
./expes/v3_2021-02-05_di_300-prng-1-w1-p2,daily_issda-300,300,first-300,21,7,rng,num-start-271,271,536,classic,11.006173372268677,True,,True,1.0,1.0,1.0,1,"Index(['8', '16', '37', '44', '65', '67', '72', '76', '96', '110', '116',
       '119', '133', '135', '142', '149', '151', '221', '224', '231', '273'],
      dtype='object')",False,1000,True,2,dd11092420,1.0,1.0
./expes/v3_2021-02-05_di_300-prng-1-w1-p2,daily_issda-300,300,first-300,119,39,rng,num-start-31,31,536,classic,1001.1502158641815,False,,False,0,,,0,"Index(['2', '4', '5', '9', '12', '13', '14', '21', '23', '24',
       ...
       '271', '278', '280', '281', '288', '292', '293', '296', '297', '300'],
      dtype='object', length=119)",True,1000,True,2,968ea6b6a2,0.0,0.0
./expes/v3_2021-02-05_di_300-prng-1-w1-p2,daily_issda-300,300,first-300,140,46,rng,num-start-11,11,536,classic,1000.395975112915,False,,False,0,,,0,"Index(['1', '3', '5', '6', '8', '9', '10', '11', '16', '18',
       ...
       '283', '284', '287', '289', '290', '293', '295', '296', '299', '300'],
      dtype='object', length=140)",True,1000,True,2,b144ceecd1,0.0,0.0
