expe,clients,clients_size,clients_subset,agg_size,agg_size_pc,method,days,days_size,days_total,noise_method,time,valid,valid_sum,success,score_avg,score_min,score_max,nsols,oracle,wall_hit,wall_time,pooled,pool_size,uuid,optimal,valid_sums
./expes/v3_2021-02-05_di_300-prng-1-w1-p2,daily_issda-300,300,first-300,133,44,rng,num-start-251,251,536,classic,9.697909593582153,True,,True,1.0,1.0,1.0,1,"Index(['1', '2', '3', '5', '7', '10', '12', '15', '17', '19',
       ...
       '273', '274', '277', '279', '280', '281', '282', '289', '294', '297'],
      dtype='object', length=133)",False,1000,True,2,ac5781f90e,1.0,1.0
./expes/v3_2021-02-05_di_300-prng-1-w1-p2,daily_issda-300,300,first-300,7,2,rng,num-start-291,291,536,classic,9.51498007774353,True,,True,1.0,1.0,1.0,1,"Index(['63', '93', '102', '123', '172', '230', '251'], dtype='object')",False,1000,True,2,5be96ef64a,1.0,1.0
./expes/v3_2021-02-05_di_300-prng-1-w1-p2,daily_issda-300,300,first-300,140,46,rng,num-start-41,41,536,classic,1001.4134001731873,False,,False,0,,,0,"Index(['1', '2', '3', '5', '7', '10', '12', '15', '17', '18',
       ...
       '274', '277', '279', '280', '281', '282', '287', '289', '294', '297'],
      dtype='object', length=140)",True,1000,True,2,ba782eda66,0.0,0.0
./expes/v3_2021-02-05_di_300-prng-1-w1-p2,daily_issda-300,300,first-300,98,32,rng,num-start-11,11,536,classic,1000.3944029808044,False,,False,0,,,0,"Index(['4', '10', '11', '14', '22', '23', '24', '31', '32', '35', '40', '42',
       '43', '45', '46', '47', '52', '53', '55', '63', '70', '75', '79', '80',
       '83', '85', '89', '91', '92', '95', '99', '100', '101', '102', '104',
       '110', '114', '118', '120', '121', '122', '127', '128', '129', '133',
       '134', '135', '140', '142', '143', '144', '147', '148', '149', '150',
       '151', '154', '156', '157', '159', '160', '165', '166', '168', '170',
       '173', '176', '183', '185', '191', '196', '199', '203', '206', '211',
       '212', '217', '221', '224', '226', '228', '232', '236', '237', '242',
       '243', '246', '260', '261', '266', '267', '274', '275', '281', '282',
       '286', '294', '299'],
      dtype='object')",True,1000,True,2,bace4f4f7b,0.0,0.0
./expes/v3_2021-02-05_di_300-prng-1-w1-p2,daily_issda-300,300,first-300,84,28,rng,num-start-11,11,536,classic,1000.3800005912781,False,,False,0,,,0,"Index(['1', '3', '6', '8', '9', '11', '16', '19', '22', '27', '31', '33', '35',
       '36', '38', '43', '44', '45', '47', '49', '52', '56', '60', '61', '68',
       '69', '73', '81', '91', '95', '96', '97', '98', '101', '102', '108',
       '109', '110', '118', '120', '124', '127', '131', '139', '143', '148',
       '149', '151', '156', '160', '162', '168', '171', '173', '193', '197',
       '198', '203', '204', '206', '209', '210', '215', '216', '226', '229',
       '230', '232', '235', '238', '239', '241', '244', '250', '256', '261',
       '263', '266', '271', '276', '283', '287', '289', '290'],
      dtype='object')",True,1000,True,2,4da9c80130,0.0,0.0
./expes/v3_2021-02-05_di_300-prng-1-w1-p2,daily_issda-300,300,first-300,91,30,rng,num-start-171,171,536,classic,6.440535306930542,True,,True,1.0,1.0,1.0,1,"Index(['3', '4', '5', '6', '7', '8', '11', '12', '15', '17', '23', '24', '25',
       '34', '37', '41', '43', '45', '48', '52', '54', '59', '60', '63', '73',
       '74', '76', '79', '80', '85', '89', '92', '113', '114', '115', '117',
       '119', '121', '122', '123', '125', '126', '130', '131', '133', '138',
       '145', '146', '151', '152', '155', '156', '159', '163', '164', '172',
       '179', '186', '190', '192', '199', '202', '205', '208', '210', '214',
       '216', '217', '228', '229', '233', '234', '236', '238', '241', '244',
       '245', '247', '251', '252', '254', '256', '262', '265', '268', '270',
       '277', '278', '289', '297', '299'],
      dtype='object')",False,1000,True,2,412e37b5df,1.0,1.0
./expes/v3_2021-02-05_di_300-prng-1-w1-p2,daily_issda-300,300,first-300,56,18,rng,num-start-261,261,536,classic,9.524367332458496,True,,True,1.0,1.0,1.0,1,"Index(['3', '4', '6', '7', '8', '11', '12', '15', '23', '34', '43', '45', '73',
       '79', '80', '85', '89', '113', '114', '115', '117', '121', '122', '130',
       '133', '145', '146', '151', '152', '155', '156', '159', '163', '172',
       '179', '186', '192', '210', '214', '216', '217', '228', '229', '233',
       '234', '236', '238', '241', '247', '251', '252', '254', '265', '268',
       '289', '297'],
      dtype='object')",False,1000,True,2,5fb229cc6d,1.0,1.0
./expes/v3_2021-02-05_di_300-prng-1-w1-p2,daily_issda-300,300,first-300,21,7,rng,num-start-181,181,536,classic,6.729696035385132,True,,True,1.0,1.0,1.0,1,"Index(['14', '32', '57', '71', '72', '90', '128', '130', '143', '149', '156',
       '163', '188', '197', '206', '213', '215', '257', '268', '277', '283'],
      dtype='object')",False,1000,True,2,7451ede145,1.0,1.0
./expes/v3_2021-02-05_di_300-prng-1-w1-p2,daily_issda-300,300,first-300,77,25,rng,num-start-81,81,536,classic,1002.4770419597626,False,,False,0,,,0,"Index(['6', '10', '15', '35', '36', '38', '43', '46', '48', '49', '53', '55',
       '58', '59', '61', '63', '74', '77', '83', '85', '87', '93', '100',
       '105', '112', '115', '121', '127', '131', '132', '134', '135', '137',
       '139', '141', '143', '144', '145', '150', '156', '159', '162', '173',
       '184', '185', '187', '196', '198', '202', '204', '207', '211', '214',
       '218', '224', '225', '226', '231', '232', '234', '236', '239', '243',
       '246', '249', '250', '251', '257', '264', '265', '270', '274', '283',
       '292', '293', '297', '299'],
      dtype='object')",True,1000,True,2,3ed23a77b3,0.0,0.0
./expes/v3_2021-02-05_di_300-prng-1-w1-p2,daily_issda-300,300,first-300,63,21,rng,num-start-161,161,536,classic,5.709593057632446,True,,True,1.0,1.0,1.0,1,"Index(['7', '8', '15', '16', '19', '22', '33', '34', '50', '54', '64', '67',
       '69', '70', '78', '82', '84', '99', '109', '112', '119', '120', '122',
       '133', '137', '138', '144', '146', '155', '168', '173', '180', '188',
       '190', '198', '199', '200', '203', '204', '209', '216', '219', '224',
       '228', '241', '243', '244', '247', '254', '260', '268', '274', '277',
       '278', '279', '282', '283', '292', '293', '294', '296', '298', '300'],
      dtype='object')",False,1000,True,2,ab5f0d951f,1.0,1.0
./expes/v3_2021-02-05_di_300-prng-1-w1-p2,daily_issda-300,300,first-300,21,7,rng,num-start-91,91,536,classic,3.1178717613220215,True,,True,1.0,1.0,1.0,1,"Index(['1', '12', '19', '42', '49', '75', '99', '102', '134', '140', '164',
       '192', '212', '241', '249', '251', '276', '277', '284', '289', '294'],
      dtype='object')",False,1000,True,2,400dfdecaa,1.0,1.0
./expes/v3_2021-02-05_di_300-prng-1-w1-p2,daily_issda-300,300,first-300,7,2,rng,num-start-131,131,536,classic,4.515789747238159,True,,True,1.0,1.0,1.0,1,"Index(['21', '133', '198', '208', '216', '249', '262'], dtype='object')",False,1000,True,2,9dbb9b7a73,1.0,1.0
./expes/v3_2021-02-05_di_300-prng-1-w1-p2,daily_issda-300,300,first-300,84,28,rng,num-start-41,41,536,classic,1001.2597362995148,False,,False,0,,,0,"Index(['1', '3', '6', '8', '9', '11', '16', '19', '22', '27', '31', '33', '35',
       '36', '38', '43', '44', '45', '47', '49', '52', '56', '60', '61', '68',
       '69', '73', '81', '91', '95', '96', '97', '98', '101', '102', '108',
       '109', '110', '118', '120', '124', '127', '131', '139', '143', '148',
       '149', '151', '156', '160', '162', '168', '171', '173', '193', '197',
       '198', '203', '204', '206', '209', '210', '215', '216', '226', '229',
       '230', '232', '235', '238', '239', '241', '244', '250', '256', '261',
       '263', '266', '271', '276', '283', '287', '289', '290'],
      dtype='object')",True,1000,True,2,1c99cd8d62,0.0,0.0
./expes/v3_2021-02-05_di_300-prng-1-w1-p2,daily_issda-300,300,first-300,119,39,rng,num-start-11,11,536,classic,1000.3979930877686,False,,False,0,,,0,"Index(['1', '3', '5', '11', '13', '15', '16', '17', '19', '21',
       ...
       '270', '272', '279', '283', '286', '287', '288', '291', '295', '298'],
      dtype='object', length=119)",True,1000,True,2,94423f310e,0.0,0.0
./expes/v3_2021-02-05_di_300-prng-1-w1-p2,daily_issda-300,300,first-300,119,39,rng,num-start-31,31,536,classic,1000.9691245555878,False,,False,0,,,0,"Index(['2', '7', '9', '11', '14', '16', '17', '18', '20', '23',
       ...
       '273', '277', '280', '286', '289', '292', '294', '297', '298', '300'],
      dtype='object', length=119)",True,1000,True,2,5c7ef0f695,0.0,0.0
./expes/v3_2021-02-05_di_300-prng-1-w1-p2,daily_issda-300,300,first-300,14,4,rng,num-start-81,81,536,classic,2.843701124191284,True,,True,1.0,1.0,1.0,1,"Index(['20', '25', '30', '38', '45', '49', '78', '110', '166', '188', '203',
       '260', '275', '299'],
      dtype='object')",False,1000,True,2,b0ae22fd0c,1.0,1.0
./expes/v3_2021-02-05_di_300-prng-1-w1-p2,daily_issda-300,300,first-300,14,4,rng,num-start-121,121,536,classic,4.248237371444702,True,,True,1.0,1.0,1.0,1,"Index(['15', '33', '49', '61', '69', '108', '131', '195', '200', '231', '242',
       '250', '254', '292'],
      dtype='object')",False,1000,True,2,7d9e6cc28d,1.0,1.0
./expes/v3_2021-02-05_di_300-prng-1-w1-p2,daily_issda-300,300,first-300,112,37,rng,num-start-111,111,536,classic,10.11075234413147,True,,True,1.0,1.0,1.0,1,"Index(['2', '5', '6', '8', '9', '10', '16', '19', '22', '23',
       ...
       '266', '267', '272', '274', '279', '281', '285', '290', '292', '296'],
      dtype='object', length=112)",False,1000,True,2,8f88b8e2af,1.0,1.0
./expes/v3_2021-02-05_di_300-prng-1-w1-p2,daily_issda-300,300,first-300,112,37,rng,num-start-21,21,536,classic,1000.704621553421,False,,False,0,,,0,"Index(['3', '5', '10', '11', '14', '26', '27', '28', '30', '32',
       ...
       '279', '283', '284', '285', '286', '287', '289', '293', '295', '297'],
      dtype='object', length=112)",True,1000,True,2,5e1ba5a128,0.0,0.0
./expes/v3_2021-02-05_di_300-prng-1-w1-p2,daily_issda-300,300,first-300,105,35,rng,num-start-91,91,536,classic,1002.713653087616,False,,False,0,,,0,"Index(['1', '3', '5', '6', '8', '9', '11', '16', '19', '22',
       ...
       '266', '271', '276', '283', '287', '289', '290', '295', '296', '299'],
      dtype='object', length=105)",True,1000,True,2,d899aa9c7d,0.0,0.0
./expes/v3_2021-02-05_di_300-prng-1-w1-p2,daily_issda-300,300,first-300,14,4,rng,num-start-71,71,536,classic,2.509713888168335,True,,True,1.0,1.0,1.0,1,"Index(['4', '21', '42', '71', '87', '96', '137', '172', '174', '192', '195',
       '238', '258', '284'],
      dtype='object')",False,1000,True,2,632cf08c0f,1.0,1.0
./expes/v3_2021-02-05_di_300-prng-1-w1-p2,daily_issda-300,300,first-300,84,28,rng,num-start-81,81,536,classic,1002.4464223384857,False,,False,0,,,0,"Index(['1', '2', '3', '5', '7', '10', '12', '15', '19', '24', '27', '30', '34',
       '37', '53', '56', '58', '61', '65', '68', '72', '75', '81', '82', '85',
       '86', '91', '93', '94', '95', '101', '102', '105', '108', '111', '126',
       '127', '128', '129', '131', '132', '136', '144', '149', '152', '153',
       '155', '157', '159', '161', '162', '170', '174', '177', '182', '184',
       '185', '188', '189', '191', '193', '195', '197', '200', '207', '209',
       '213', '215', '222', '228', '232', '237', '239', '241', '242', '247',
       '263', '269', '272', '277', '279', '282', '294', '297'],
      dtype='object')",True,1000,True,2,4668cff439,0.0,0.0
./expes/v3_2021-02-05_di_300-prng-1-w1-p2,daily_issda-300,300,first-300,28,9,rng,num-start-111,111,536,classic,4.0703113079071045,True,,True,1.0,1.0,1.0,1,"Index(['3', '6', '11', '12', '15', '73', '79', '113', '114', '115', '117',
       '122', '130', '133', '146', '152', '155', '159', '172', '186', '210',
       '214', '216', '229', '234', '238', '241', '247'],
      dtype='object')",False,1000,True,2,296e3c9e7d,1.0,1.0
./expes/v3_2021-02-05_di_300-prng-1-w1-p2,daily_issda-300,300,first-300,35,11,rng,num-start-71,71,536,classic,9.164897203445435,True,,True,1.0,1.0,1.0,1,"Index(['9', '12', '23', '37', '38', '51', '56', '59', '62', '76', '103', '104',
       '134', '138', '149', '154', '160', '167', '168', '178', '199', '202',
       '203', '211', '213', '217', '226', '234', '262', '267', '271', '278',
       '292', '297', '300'],
      dtype='object')",False,1000,True,2,5683a8c8d9,1.0,1.0
./expes/v3_2021-02-05_di_300-prng-1-w1-p2,daily_issda-300,300,first-300,63,21,rng,num-start-111,111,536,classic,8.409302949905396,True,,True,1.0,1.0,1.0,1,"Index(['3', '8', '17', '18', '19', '23', '34', '37', '39', '42', '50', '58',
       '69', '72', '77', '81', '83', '90', '100', '106', '115', '121', '123',
       '128', '135', '143', '146', '155', '156', '161', '167', '168', '182',
       '185', '186', '188', '192', '193', '196', '197', '212', '216', '220',
       '224', '226', '231', '234', '237', '241', '248', '251', '252', '255',
       '257', '267', '274', '275', '282', '291', '293', '296', '299', '300'],
      dtype='object')",False,1000,True,2,08bcf2dc06,1.0,1.0
./expes/v3_2021-02-05_di_300-prng-1-w1-p2,daily_issda-300,300,first-300,35,11,rng,num-start-191,191,536,classic,7.148681640625,True,,True,1.0,1.0,1.0,1,"Index(['1', '12', '19', '24', '42', '46', '48', '49', '50', '75', '99', '101',
       '102', '103', '129', '134', '136', '140', '150', '164', '172', '186',
       '192', '210', '212', '218', '228', '241', '249', '251', '276', '277',
       '284', '289', '294'],
      dtype='object')",False,1000,True,2,be96e5cb86,1.0,1.0
./expes/v3_2021-02-05_di_300-prng-1-w1-p2,daily_issda-300,300,first-300,7,2,rng,num-start-141,141,536,classic,4.999112367630005,True,,True,1.0,1.0,1.0,1,"Index(['67', '76', '96', '116', '119', '133', '149'], dtype='object')",False,1000,True,2,bc44cb00be,1.0,1.0
./expes/v3_2021-02-05_di_300-prng-1-w1-p2,daily_issda-300,300,first-300,98,32,rng,num-start-181,181,536,classic,6.92587685585022,True,,True,1.0,1.0,1.0,1,"Index(['4', '10', '11', '14', '22', '23', '24', '31', '32', '35', '40', '42',
       '43', '45', '46', '47', '52', '53', '55', '63', '70', '75', '79', '80',
       '83', '85', '89', '91', '92', '95', '99', '100', '101', '102', '104',
       '110', '114', '118', '120', '121', '122', '127', '128', '129', '133',
       '134', '135', '140', '142', '143', '144', '147', '148', '149', '150',
       '151', '154', '156', '157', '159', '160', '165', '166', '168', '170',
       '173', '176', '183', '185', '191', '196', '199', '203', '206', '211',
       '212', '217', '221', '224', '226', '228', '232', '236', '237', '242',
       '243', '246', '260', '261', '266', '267', '274', '275', '281', '282',
       '286', '294', '299'],
      dtype='object')",False,1000,True,2,d5869d714b,1.0,1.0
./expes/v3_2021-02-05_di_300-prng-1-w1-p2,daily_issda-300,300,first-300,91,30,rng,num-start-271,271,536,classic,9.515050172805786,True,,True,1.0,1.0,1.0,1,"Index(['1', '2', '3', '4', '5', '9', '10', '13', '18', '21', '22', '23', '27',
       '28', '29', '33', '36', '42', '43', '44', '45', '48', '53', '57', '58',
       '63', '68', '69', '71', '72', '75', '77', '81', '83', '87', '89', '96',
       '99', '102', '103', '104', '105', '108', '110', '114', '115', '122',
       '137', '138', '139', '144', '150', '167', '169', '170', '172', '174',
       '175', '178', '188', '192', '194', '195', '197', '204', '206', '207',
       '211', '216', '217', '218', '222', '228', '232', '238', '252', '255',
       '257', '258', '259', '260', '268', '276', '277', '284', '285', '290',
       '294', '295', '297', '300'],
      dtype='object')",False,1000,True,2,5ea95863e6,1.0,1.0
./expes/v3_2021-02-05_di_300-prng-1-w1-p2,daily_issda-300,300,first-300,133,44,rng,num-start-251,251,536,classic,9.813416719436646,True,,True,1.0,1.0,1.0,1,"Index(['2', '4', '5', '9', '12', '13', '14', '21', '23', '24',
       ...
       '271', '278', '280', '281', '288', '292', '293', '296', '297', '300'],
      dtype='object', length=133)",False,1000,True,2,7ff3115ebd,1.0,1.0
./expes/v3_2021-02-05_di_300-prng-1-w1-p2,daily_issda-300,300,first-300,77,25,rng,num-start-281,281,536,classic,9.913503408432007,True,,True,1.0,1.0,1.0,1,"Index(['2', '8', '16', '20', '22', '23', '37', '38', '44', '61', '65', '67',
       '68', '70', '71', '72', '73', '76', '82', '91', '92', '96', '100',
       '104', '109', '110', '116', '119', '120', '121', '122', '129', '130',
       '132', '133', '135', '142', '144', '149', '151', '161', '178', '180',
       '183', '184', '187', '188', '191', '192', '200', '203', '212', '218',
       '220', '221', '224', '226', '228', '230', '231', '236', '238', '250',
       '252', '255', '267', '268', '273', '275', '282', '284', '289', '290',
       '292', '296', '298', '299'],
      dtype='object')",False,1000,True,2,a2b943303d,1.0,1.0
./expes/v3_2021-02-05_di_300-prng-1-w1-p2,daily_issda-300,300,first-300,91,30,rng,num-start-181,181,536,classic,7.178308963775635,True,,True,1.0,1.0,1.0,1,"Index(['1', '2', '3', '4', '5', '9', '10', '13', '18', '21', '22', '23', '27',
       '28', '29', '33', '36', '42', '43', '44', '45', '48', '53', '57', '58',
       '63', '68', '69', '71', '72', '75', '77', '81', '83', '87', '89', '96',
       '99', '102', '103', '104', '105', '108', '110', '114', '115', '122',
       '137', '138', '139', '144', '150', '167', '169', '170', '172', '174',
       '175', '178', '188', '192', '194', '195', '197', '204', '206', '207',
       '211', '216', '217', '218', '222', '228', '232', '238', '252', '255',
       '257', '258', '259', '260', '268', '276', '277', '284', '285', '290',
       '294', '295', '297', '300'],
      dtype='object')",False,1000,True,2,f9409801ed,1.0,1.0
./expes/v3_2021-02-05_di_300-prng-1-w1-p2,daily_issda-300,300,first-300,14,4,rng,num-start-121,121,536,classic,4.369117498397827,True,,True,1.0,1.0,1.0,1,"Index(['47', '49', '73', '95', '96', '98', '156', '229', '232', '239', '244',
       '261', '263', '287'],
      dtype='object')",False,1000,True,2,5a50f234f3,1.0,1.0
./expes/v3_2021-02-05_di_300-prng-1-w1-p2,daily_issda-300,300,first-300,91,30,rng,num-start-211,211,536,classic,7.4939939975738525,True,,True,1.0,1.0,1.0,1,"Index(['1', '3', '5', '6', '8', '9', '11', '16', '19', '22', '27', '31', '33',
       '35', '36', '38', '43', '44', '45', '47', '49', '52', '56', '60', '61',
       '68', '69', '73', '75', '81', '91', '95', '96', '97', '98', '101',
       '102', '108', '109', '110', '118', '120', '124', '127', '131', '133',
       '139', '143', '148', '149', '151', '156', '160', '162', '168', '169',
       '171', '173', '193', '197', '198', '202', '203', '204', '206', '209',
       '210', '215', '216', '226', '227', '229', '230', '232', '235', '238',
       '239', '241', '244', '250', '256', '261', '263', '266', '271', '276',
       '283', '287', '289', '290', '296'],
      dtype='object')",False,1000,True,2,c2b0c7e012,1.0,1.0
./expes/v3_2021-02-05_di_300-prng-1-w1-p2,daily_issda-300,300,first-300,84,28,rng,num-start-261,261,536,classic,9.081887245178223,True,,True,1.0,1.0,1.0,1,"Index(['3', '4', '5', '6', '7', '8', '11', '12', '15', '17', '23', '24', '25',
       '34', '37', '41', '43', '45', '48', '52', '59', '63', '73', '74', '79',
       '80', '85', '89', '92', '113', '114', '115', '117', '119', '121', '122',
       '123', '125', '130', '131', '133', '145', '146', '151', '152', '155',
       '156', '159', '163', '164', '172', '179', '186', '190', '192', '202',
       '205', '208', '210', '214', '216', '217', '228', '229', '233', '234',
       '236', '238', '241', '244', '245', '247', '251', '252', '254', '256',
       '262', '265', '268', '277', '278', '289', '297', '299'],
      dtype='object')",False,1000,True,2,2e4fb072fd,1.0,1.0
./expes/v3_2021-02-05_di_300-prng-1-w1-p2,daily_issda-300,300,first-300,70,23,rng,num-start-121,121,536,classic,11.900766849517822,True,,True,1.0,1.0,1.0,1,"Index(['3', '8', '17', '18', '19', '23', '34', '37', '39', '42', '50', '58',
       '69', '72', '77', '81', '83', '86', '90', '98', '100', '106', '115',
       '121', '123', '128', '135', '143', '146', '155', '156', '161', '167',
       '168', '179', '182', '185', '186', '188', '192', '193', '196', '197',
       '212', '213', '216', '220', '222', '224', '226', '227', '229', '231',
       '234', '237', '241', '248', '251', '252', '255', '257', '267', '274',
       '275', '282', '291', '293', '296', '299', '300'],
      dtype='object')",False,1000,True,2,896775f98c,1.0,1.0
./expes/v3_2021-02-05_di_300-prng-1-w1-p2,daily_issda-300,300,first-300,119,39,rng,num-start-131,131,536,classic,10.991199731826782,True,,True,1.0,1.0,1.0,1,"Index(['1', '2', '3', '5', '7', '8', '9', '12', '14', '15',
       ...
       '281', '282', '283', '284', '285', '288', '292', '296', '297', '300'],
      dtype='object', length=119)",False,1000,True,2,c65db8782f,1.0,1.0
./expes/v3_2021-02-05_di_300-prng-1-w1-p2,daily_issda-300,300,first-300,98,32,rng,num-start-221,221,536,classic,7.6151227951049805,True,,True,1.0,1.0,1.0,1,"Index(['1', '6', '10', '11', '13', '15', '18', '22', '35', '36', '38', '43',
       '46', '48', '49', '51', '53', '55', '58', '59', '61', '63', '74', '77',
       '83', '85', '87', '93', '97', '99', '100', '105', '112', '115', '121',
       '127', '131', '132', '134', '135', '137', '139', '141', '143', '144',
       '145', '150', '155', '156', '159', '160', '162', '173', '178', '183',
       '184', '185', '187', '189', '196', '198', '199', '202', '204', '207',
       '208', '211', '214', '217', '218', '224', '225', '226', '231', '232',
       '234', '236', '239', '241', '242', '243', '246', '249', '250', '251',
       '257', '260', '264', '265', '270', '272', '274', '283', '287', '292',
       '293', '297', '299'],
      dtype='object')",False,1000,True,2,22920f3982,1.0,1.0
./expes/v3_2021-02-05_di_300-prng-1-w1-p2,daily_issda-300,300,first-300,112,37,rng,num-start-161,161,536,classic,6.078614711761475,True,,True,1.0,1.0,1.0,1,"Index(['4', '6', '7', '8', '11', '12', '15', '16', '17', '19',
       ...
       '282', '283', '287', '292', '293', '294', '296', '297', '298', '300'],
      dtype='object', length=112)",False,1000,True,2,1fe8880586,1.0,1.0
./expes/v3_2021-02-05_di_300-prng-1-w1-p2,daily_issda-300,300,first-300,14,4,rng,num-start-81,81,536,classic,2.9330050945281982,True,,True,1.0,1.0,1.0,1,"Index(['23', '56', '62', '76', '103', '134', '149', '178', '202', '211', '262',
       '267', '271', '300'],
      dtype='object')",False,1000,True,2,2a6c5951a9,1.0,1.0
./expes/v3_2021-02-05_di_300-prng-1-w1-p2,daily_issda-300,300,first-300,63,21,rng,num-start-201,201,536,classic,8.355758428573608,True,,True,1.0,1.0,1.0,1,"Index(['13', '15', '19', '29', '44', '47', '70', '82', '83', '85', '86', '87',
       '89', '91', '94', '109', '114', '119', '121', '128', '129', '138',
       '143', '156', '158', '159', '164', '167', '180', '182', '185', '186',
       '187', '191', '195', '202', '205', '213', '217', '221', '228', '229',
       '233', '234', '237', '239', '246', '250', '251', '256', '257', '258',
       '261', '262', '264', '269', '270', '272', '279', '286', '287', '291',
       '298'],
      dtype='object')",False,1000,True,2,9eeed25bdb,1.0,1.0
./expes/v3_2021-02-05_di_300-prng-1-w1-p2,daily_issda-300,300,first-300,49,16,rng,num-start-271,271,536,classic,9.244441986083984,True,,True,1.0,1.0,1.0,1,"Index(['6', '15', '36', '38', '43', '49', '55', '58', '61', '63', '77', '83',
       '85', '93', '100', '105', '112', '115', '127', '131', '134', '135',
       '139', '141', '145', '150', '156', '162', '173', '184', '185', '187',
       '196', '202', '204', '207', '225', '231', '232', '239', '249', '250',
       '257', '264', '265', '270', '283', '297', '299'],
      dtype='object')",False,1000,True,2,c4e6f39e8e,1.0,1.0
./expes/v3_2021-02-05_di_300-prng-1-w1-p2,daily_issda-300,300,first-300,91,30,rng,num-start-91,91,536,classic,1002.7440445423126,False,,False,0,,,0,"Index(['5', '13', '15', '17', '19', '26', '29', '30', '31', '35', '39', '43',
       '44', '47', '55', '59', '70', '82', '83', '85', '86', '87', '89', '91',
       '94', '98', '107', '108', '109', '114', '117', '119', '121', '126',
       '128', '129', '137', '138', '140', '143', '156', '158', '159', '160',
       '164', '167', '175', '180', '182', '185', '186', '187', '188', '191',
       '195', '202', '205', '209', '213', '217', '221', '228', '229', '233',
       '234', '237', '239', '246', '250', '251', '256', '257', '258', '259',
       '260', '261', '262', '263', '264', '266', '268', '269', '270', '272',
       '279', '286', '287', '288', '291', '295', '298'],
      dtype='object')",True,1000,True,2,0f0c69609e,0.0,0.0
./expes/v3_2021-02-05_di_300-prng-1-w1-p2,daily_issda-300,300,first-300,70,23,rng,num-start-261,261,536,classic,9.803005933761597,True,,True,1.0,1.0,1.0,1,"Index(['2', '5', '12', '14', '15', '16', '18', '33', '45', '49', '52', '53',
       '56', '61', '62', '69', '84', '89', '96', '98', '108', '111', '113',
       '114', '118', '119', '120', '125', '131', '137', '146', '149', '152',
       '156', '163', '171', '177', '188', '190', '192', '195', '196', '200',
       '202', '207', '213', '214', '217', '222', '225', '229', '231', '236',
       '242', '246', '250', '251', '254', '256', '257', '259', '260', '261',
       '267', '271', '278', '281', '284', '285', '292'],
      dtype='object')",False,1000,True,2,e3bbea1e2c,1.0,1.0
./expes/v3_2021-02-05_di_300-prng-1-w1-p2,daily_issda-300,300,first-300,42,14,rng,num-start-131,131,536,classic,4.858654975891113,True,,True,1.0,1.0,1.0,1,"Index(['20', '24', '25', '26', '30', '31', '32', '36', '38', '45', '47', '49',
       '61', '64', '69', '74', '78', '93', '110', '114', '115', '124', '149',
       '158', '166', '188', '203', '204', '215', '218', '223', '260', '275',
       '277', '283', '286', '287', '290', '293', '296', '299', '300'],
      dtype='object')",False,1000,True,2,95098e3e04,1.0,1.0
./expes/v3_2021-02-05_di_300-prng-1-w1-p2,daily_issda-300,300,first-300,133,44,rng,num-start-291,291,536,classic,10.764927625656128,True,,True,1.0,1.0,1.0,1,"Index(['2', '3', '8', '13', '17', '18', '19', '23', '24', '26',
       ...
       '278', '279', '282', '287', '291', '293', '295', '296', '299', '300'],
      dtype='object', length=133)",False,1000,True,2,3a3e77b2aa,1.0,1.0
./expes/v3_2021-02-05_di_300-prng-1-w1-p2,daily_issda-300,300,first-300,21,7,rng,num-start-281,281,536,classic,9.379486560821533,True,,True,1.0,1.0,1.0,1,"Index(['12', '23', '56', '62', '76', '103', '104', '134', '138', '149', '160',
       '167', '168', '178', '202', '211', '262', '267', '271', '292', '300'],
      dtype='object')",False,1000,True,2,c3a33c1414,1.0,1.0
./expes/v3_2021-02-05_di_300-prng-1-w1-p2,daily_issda-300,300,first-300,70,23,rng,num-start-41,41,536,classic,1001.282684803009,False,,False,0,,,0,"Index(['1', '7', '9', '12', '15', '19', '24', '42', '46', '48', '49', '50',
       '60', '62', '65', '71', '75', '87', '97', '99', '100', '101', '102',
       '103', '108', '115', '126', '129', '134', '136', '138', '140', '149',
       '150', '156', '157', '160', '164', '171', '172', '183', '185', '186',
       '192', '194', '195', '200', '210', '212', '218', '221', '228', '241',
       '248', '249', '250', '251', '257', '258', '264', '268', '269', '271',
       '276', '277', '284', '286', '289', '294', '295'],
      dtype='object')",True,1000,True,2,d8850195ee,0.0,0.0
./expes/v3_2021-02-05_di_300-prng-1-w1-p2,daily_issda-300,300,first-300,140,46,rng,num-start-251,251,536,classic,9.16140627861023,True,,True,1.0,1.0,1.0,1,"Index(['1', '2', '3', '4', '5', '7', '8', '9', '10', '13',
       ...
       '277', '284', '285', '287', '288', '290', '294', '295', '297', '300'],
      dtype='object', length=140)",False,1000,True,2,91373e65c7,1.0,1.0
./expes/v3_2021-02-05_di_300-prng-1-w1-p2,daily_issda-300,300,first-300,28,9,rng,num-start-231,231,536,classic,8.264026403427124,True,,True,1.0,1.0,1.0,1,"Index(['4', '21', '27', '33', '42', '53', '57', '68', '71', '81', '87', '96',
       '105', '115', '122', '137', '150', '172', '174', '192', '195', '197',
       '217', '232', '238', '258', '260', '284'],
      dtype='object')",False,1000,True,2,2aba88a675,1.0,1.0
./expes/v3_2021-02-05_di_300-prng-1-w1-p2,daily_issda-300,300,first-300,112,37,rng,num-start-31,31,536,classic,1000.9858615398407,False,,False,0,,,0,"Index(['2', '3', '8', '16', '17', '19', '20', '22', '23', '36',
       ...
       '282', '284', '285', '287', '289', '290', '292', '296', '298', '299'],
      dtype='object', length=112)",True,1000,True,2,d3dadc0aeb,0.0,0.0
./expes/v3_2021-02-05_di_300-prng-1-w1-p2,daily_issda-300,300,first-300,7,2,rng,num-start-291,291,536,classic,9.855794906616211,True,,True,1.0,1.0,1.0,1,"Index(['23', '62', '103', '178', '202', '262', '267'], dtype='object')",False,1000,True,2,18b2890a9a,1.0,1.0
./expes/v3_2021-02-05_di_300-prng-1-w1-p2,daily_issda-300,300,first-300,140,46,rng,num-start-251,251,536,classic,8.808604001998901,True,,True,1.0,1.0,1.0,1,"Index(['1', '3', '5', '10', '11', '13', '15', '16', '17', '18',
       ...
       '272', '279', '283', '286', '287', '288', '291', '295', '298', '300'],
      dtype='object', length=140)",False,1000,True,2,32715993c7,1.0,1.0
./expes/v3_2021-02-05_di_300-prng-1-w1-p2,daily_issda-300,300,first-300,112,37,rng,num-start-171,171,536,classic,6.732026815414429,True,,True,1.0,1.0,1.0,1,"Index(['4', '5', '10', '11', '14', '22', '23', '24', '29', '31',
       ...
       '266', '267', '274', '275', '281', '282', '286', '293', '294', '299'],
      dtype='object', length=112)",False,1000,True,2,a8bc845737,1.0,1.0
./expes/v3_2021-02-05_di_300-prng-1-w1-p2,daily_issda-300,300,first-300,56,18,rng,num-start-151,151,536,classic,5.892969608306885,True,,True,1.0,1.0,1.0,1,"Index(['7', '8', '15', '16', '19', '22', '33', '34', '50', '67', '69', '70',
       '78', '82', '84', '99', '112', '119', '120', '122', '133', '138', '144',
       '155', '168', '173', '180', '188', '190', '198', '199', '200', '203',
       '204', '209', '216', '219', '224', '228', '241', '243', '244', '254',
       '260', '268', '274', '277', '278', '279', '282', '283', '293', '294',
       '296', '298', '300'],
      dtype='object')",False,1000,True,2,84cfafe7df,1.0,1.0
./expes/v3_2021-02-05_di_300-prng-1-w1-p2,daily_issda-300,300,first-300,119,39,rng,num-start-41,41,536,classic,1001.2395431995392,False,,False,0,,,0,"Index(['1', '2', '3', '5', '7', '8', '9', '12', '14', '15',
       ...
       '281', '282', '283', '284', '285', '288', '292', '296', '297', '300'],
      dtype='object', length=119)",True,1000,True,2,0978936a9a,0.0,0.0
./expes/v3_2021-02-05_di_300-prng-1-w1-p2,daily_issda-300,300,first-300,49,16,rng,num-start-271,271,536,classic,9.433262825012207,True,,True,1.0,1.0,1.0,1,"Index(['9', '12', '23', '37', '38', '51', '54', '56', '59', '62', '69', '71',
       '76', '82', '99', '103', '104', '107', '120', '134', '138', '149',
       '154', '160', '167', '168', '178', '199', '200', '202', '203', '209',
       '211', '213', '217', '226', '234', '253', '258', '262', '267', '271',
       '278', '280', '292', '293', '296', '297', '300'],
      dtype='object')",False,1000,True,2,88b4ceda7b,1.0,1.0
./expes/v3_2021-02-05_di_300-prng-1-w1-p2,daily_issda-300,300,first-300,28,9,rng,num-start-71,71,536,classic,5.178892612457275,True,,True,1.0,1.0,1.0,1,"Index(['11', '16', '23', '44', '46', '65', '71', '99', '108', '117', '120',
       '127', '137', '190', '193', '200', '206', '207', '209', '233', '236',
       '243', '249', '250', '254', '260', '267', '294'],
      dtype='object')",False,1000,True,2,ad7741e8ac,1.0,1.0
./expes/v3_2021-02-05_di_300-prng-1-w1-p2,daily_issda-300,300,first-300,35,11,rng,num-start-111,111,536,classic,4.180278062820435,True,,True,1.0,1.0,1.0,1,"Index(['14', '32', '36', '42', '57', '64', '71', '72', '73', '78', '90', '101',
       '108', '128', '130', '143', '149', '156', '159', '163', '170', '188',
       '197', '206', '210', '213', '215', '243', '257', '260', '268', '273',
       '277', '283', '287'],
      dtype='object')",False,1000,True,2,efde618e5d,1.0,1.0
./expes/v3_2021-02-05_di_300-prng-1-w1-p2,daily_issda-300,300,first-300,119,39,rng,num-start-101,101,536,classic,66.8428258895874,True,,True,1.0,1.0,1.0,1,"Index(['2', '3', '8', '16', '17', '19', '20', '22', '23', '36',
       ...
       '282', '284', '285', '287', '289', '290', '292', '296', '298', '299'],
      dtype='object', length=119)",False,1000,True,2,27472870ca,1.0,1.0
./expes/v3_2021-02-05_di_300-prng-1-w1-p2,daily_issda-300,300,first-300,63,21,rng,num-start-111,111,536,classic,4.122070789337158,True,,True,1.0,1.0,1.0,1,"Index(['11', '16', '20', '23', '30', '33', '44', '45', '46', '50', '56', '59',
       '65', '70', '71', '73', '76', '82', '99', '100', '107', '108', '117',
       '120', '121', '127', '133', '137', '147', '161', '174', '183', '190',
       '193', '194', '195', '198', '200', '206', '207', '209', '219', '228',
       '233', '234', '236', '243', '249', '250', '251', '254', '255', '258',
       '260', '265', '267', '273', '277', '286', '294', '297', '298', '300'],
      dtype='object')",False,1000,True,2,27fdb4f82d,1.0,1.0
./expes/v3_2021-02-05_di_300-prng-1-w1-p2,daily_issda-300,300,first-300,56,18,rng,num-start-91,91,536,classic,6.862050771713257,True,,True,1.0,1.0,1.0,1,"Index(['7', '8', '15', '16', '19', '22', '33', '34', '50', '67', '69', '70',
       '78', '82', '84', '99', '112', '119', '120', '122', '133', '138', '144',
       '155', '168', '173', '180', '188', '190', '198', '199', '200', '203',
       '204', '209', '216', '219', '224', '228', '241', '243', '244', '254',
       '260', '268', '274', '277', '278', '279', '282', '283', '293', '294',
       '296', '298', '300'],
      dtype='object')",False,1000,True,2,e448ac46bb,1.0,1.0
./expes/v3_2021-02-05_di_300-prng-1-w1-p2,daily_issda-300,300,first-300,126,42,rng,num-start-151,151,536,classic,5.809715032577515,True,,True,1.0,1.0,1.0,1,"Index(['2', '4', '5', '9', '12', '13', '14', '21', '23', '24',
       ...
       '271', '278', '280', '281', '288', '292', '293', '296', '297', '300'],
      dtype='object', length=126)",False,1000,True,2,d0ee222d87,1.0,1.0
./expes/v3_2021-02-05_di_300-prng-1-w1-p2,daily_issda-300,300,first-300,84,28,rng,num-start-281,281,536,classic,9.639660120010376,True,,True,1.0,1.0,1.0,1,"Index(['4', '11', '14', '23', '24', '31', '32', '35', '42', '45', '46', '47',
       '52', '53', '55', '63', '75', '80', '83', '85', '89', '91', '92', '95',
       '100', '101', '102', '104', '110', '114', '118', '120', '121', '122',
       '127', '128', '133', '134', '135', '140', '142', '143', '144', '148',
       '149', '150', '154', '156', '157', '159', '160', '165', '166', '170',
       '173', '176', '183', '185', '191', '199', '203', '206', '212', '217',
       '221', '224', '226', '232', '236', '237', '242', '243', '246', '260',
       '261', '266', '267', '274', '275', '281', '282', '286', '294', '299'],
      dtype='object')",False,1000,True,2,a48a6a0a18,1.0,1.0
./expes/v3_2021-02-05_di_300-prng-1-w1-p2,daily_issda-300,300,first-300,70,23,rng,num-start-101,101,536,classic,8.938484191894531,True,,True,1.0,1.0,1.0,1,"Index(['1', '7', '9', '12', '15', '19', '24', '42', '46', '48', '49', '50',
       '60', '62', '65', '71', '75', '87', '97', '99', '100', '101', '102',
       '103', '108', '115', '126', '129', '134', '136', '138', '140', '149',
       '150', '156', '157', '160', '164', '171', '172', '183', '185', '186',
       '192', '194', '195', '200', '210', '212', '218', '221', '228', '241',
       '248', '249', '250', '251', '257', '258', '264', '268', '269', '271',
       '276', '277', '284', '286', '289', '294', '295'],
      dtype='object')",False,1000,True,2,0d711b311e,1.0,1.0
./expes/v3_2021-02-05_di_300-prng-1-w1-p2,daily_issda-300,300,first-300,140,46,rng,num-start-11,11,536,classic,1000.3956460952759,False,,False,0,,,0,"Index(['3', '4', '5', '6', '10', '24', '30', '34', '39', '40',
       ...
       '283', '285', '286', '287', '290', '291', '293', '294', '295', '297'],
      dtype='object', length=140)",True,1000,True,2,712b9cc7f3,0.0,0.0
./expes/v3_2021-02-05_di_300-prng-1-w1-p2,daily_issda-300,300,first-300,21,7,rng,num-start-151,151,536,classic,5.376785516738892,True,,True,1.0,1.0,1.0,1,"Index(['2', '15', '33', '49', '53', '61', '69', '108', '118', '131', '137',
       '163', '195', '200', '222', '229', '231', '242', '250', '254', '292'],
      dtype='object')",False,1000,True,2,b03972b998,1.0,1.0
./expes/v3_2021-02-05_di_300-prng-1-w1-p2,daily_issda-300,300,first-300,91,30,rng,num-start-161,161,536,classic,6.23867392539978,True,,True,1.0,1.0,1.0,1,"Index(['1', '7', '9', '10', '12', '15', '19', '24', '28', '40', '42', '44',
       '46', '48', '49', '50', '60', '62', '64', '65', '71', '75', '87', '89',
       '95', '97', '99', '100', '101', '102', '103', '108', '115', '126',
       '129', '131', '132', '134', '136', '137', '138', '140', '149', '150',
       '156', '157', '160', '164', '169', '171', '172', '183', '185', '186',
       '192', '194', '195', '200', '204', '210', '211', '212', '216', '217',
       '218', '219', '221', '226', '228', '229', '232', '241', '242', '248',
       '249', '250', '251', '257', '258', '264', '265', '268', '269', '271',
       '276', '277', '284', '286', '289', '294', '295'],
      dtype='object')",False,1000,True,2,25a0d4c0e0,1.0,1.0
./expes/v3_2021-02-05_di_300-prng-1-w1-p2,daily_issda-300,300,first-300,14,4,rng,num-start-11,11,536,classic,1000.3684575557709,False,,False,0,,,0,"Index(['19', '29', '44', '47', '82', '87', '109', '129', '158', '185', '202',
       '221', '261', '298'],
      dtype='object')",True,1000,True,2,2184c6b93d,0.0,0.0
./expes/v3_2021-02-05_di_300-prng-1-w1-p2,daily_issda-300,300,first-300,126,42,rng,num-start-91,91,536,classic,1002.7784025669098,False,,False,0,,,0,"Index(['3', '7', '12', '20', '21', '24', '25', '26', '28', '30',
       ...
       '289', '290', '293', '294', '295', '296', '297', '298', '299', '300'],
      dtype='object', length=126)",True,1000,True,2,85b74cd602,0.0,0.0
./expes/v3_2021-02-05_di_300-prng-1-w1-p2,daily_issda-300,300,first-300,91,30,rng,num-start-171,171,536,classic,6.783623933792114,True,,True,1.0,1.0,1.0,1,"Index(['7', '11', '14', '16', '18', '20', '23', '30', '33', '37', '44', '45',
       '46', '50', '56', '59', '60', '65', '70', '71', '73', '76', '77', '82',
       '83', '86', '88', '90', '99', '100', '102', '104', '107', '108', '113',
       '117', '120', '121', '125', '127', '131', '133', '137', '146', '147',
       '152', '153', '154', '159', '161', '174', '176', '177', '183', '190',
       '193', '194', '195', '198', '200', '203', '206', '207', '209', '214',
       '217', '219', '228', '233', '234', '236', '243', '249', '250', '251',
       '254', '255', '258', '260', '262', '265', '267', '271', '273', '277',
       '280', '286', '294', '297', '298', '300'],
      dtype='object')",False,1000,True,2,15a238b2b8,1.0,1.0
./expes/v3_2021-02-05_di_300-prng-1-w1-p2,daily_issda-300,300,first-300,42,14,rng,num-start-191,191,536,classic,7.989457607269287,True,,True,1.0,1.0,1.0,1,"Index(['4', '59', '61', '63', '87', '90', '93', '94', '101', '102', '103',
       '104', '111', '113', '121', '122', '123', '130', '136', '139', '140',
       '152', '154', '156', '167', '172', '176', '178', '188', '208', '230',
       '235', '246', '251', '253', '260', '268', '270', '276', '283', '294',
       '295'],
      dtype='object')",False,1000,True,2,c9761569eb,1.0,1.0
./expes/v3_2021-02-05_di_300-prng-1-w1-p2,daily_issda-300,300,first-300,140,46,rng,num-start-31,31,536,classic,1001.0330300331116,False,,False,0,,,0,"Index(['1', '3', '7', '12', '14', '20', '21', '24', '25', '26',
       ...
       '290', '291', '293', '294', '295', '296', '297', '298', '299', '300'],
      dtype='object', length=140)",True,1000,True,2,e78c167792,0.0,0.0
./expes/v3_2021-02-05_di_300-prng-1-w1-p2,daily_issda-300,300,first-300,119,39,rng,num-start-141,141,536,classic,5.520642518997192,True,,True,1.0,1.0,1.0,1,"Index(['2', '3', '8', '16', '17', '19', '20', '22', '23', '36',
       ...
       '282', '284', '285', '287', '289', '290', '292', '296', '298', '299'],
      dtype='object', length=119)",False,1000,True,2,8a60f6bef9,1.0,1.0
./expes/v3_2021-02-05_di_300-prng-1-w1-p2,daily_issda-300,300,first-300,35,11,rng,num-start-191,191,536,classic,7.275220632553101,True,,True,1.0,1.0,1.0,1,"Index(['11', '16', '23', '33', '44', '46', '50', '59', '65', '71', '99', '108',
       '117', '120', '127', '133', '137', '190', '193', '194', '195', '198',
       '200', '206', '207', '209', '233', '236', '243', '249', '250', '254',
       '260', '267', '294'],
      dtype='object')",False,1000,True,2,c01d791f69,1.0,1.0
./expes/v3_2021-02-05_di_300-prng-1-w1-p2,daily_issda-300,300,first-300,56,18,rng,num-start-271,271,536,classic,9.096834659576416,True,,True,1.0,1.0,1.0,1,"Index(['2', '5', '12', '14', '15', '16', '18', '33', '49', '52', '53', '61',
       '62', '69', '96', '98', '108', '111', '113', '114', '118', '119', '120',
       '131', '137', '146', '149', '152', '156', '163', '171', '177', '195',
       '196', '200', '202', '214', '217', '222', '225', '229', '231', '236',
       '242', '246', '250', '254', '256', '257', '259', '260', '271', '278',
       '284', '285', '292'],
      dtype='object')",False,1000,True,2,90c86b483f,1.0,1.0
./expes/v3_2021-02-05_di_300-prng-1-w1-p2,daily_issda-300,300,first-300,112,37,rng,num-start-31,31,536,classic,1001.0244724750519,False,,False,0,,,0,"Index(['1', '4', '7', '9', '10', '12', '15', '16', '19', '24',
       ...
       '271', '276', '277', '284', '286', '287', '289', '292', '294', '295'],
      dtype='object', length=112)",True,1000,True,2,6b088b9177,0.0,0.0
./expes/v3_2021-02-05_di_300-prng-1-w1-p2,daily_issda-300,300,first-300,133,44,rng,num-start-61,61,536,classic,1001.8641083240509,False,,False,0,,,0,"Index(['1', '2', '3', '4', '5', '7', '8', '9', '10', '13',
       ...
       '277', '284', '285', '287', '288', '290', '294', '295', '297', '300'],
      dtype='object', length=133)",True,1000,True,2,348245879d,0.0,0.0
./expes/v3_2021-02-05_di_300-prng-1-w1-p2,daily_issda-300,300,first-300,84,28,rng,num-start-41,41,536,classic,1001.2625105381012,False,,False,0,,,0,"Index(['5', '13', '15', '19', '26', '29', '31', '39', '44', '47', '55', '70',
       '82', '83', '85', '86', '87', '89', '91', '94', '98', '107', '109',
       '114', '117', '119', '121', '128', '129', '137', '138', '140', '143',
       '156', '158', '159', '160', '164', '167', '175', '180', '182', '185',
       '186', '187', '188', '191', '195', '202', '205', '209', '213', '217',
       '221', '228', '229', '233', '234', '237', '239', '246', '250', '251',
       '256', '257', '258', '259', '260', '261', '262', '263', '264', '266',
       '268', '269', '270', '272', '279', '286', '287', '288', '291', '295',
       '298'],
      dtype='object')",True,1000,True,2,b5b10f7b49,0.0,0.0
./expes/v3_2021-02-05_di_300-prng-1-w1-p2,daily_issda-300,300,first-300,56,18,rng,num-start-191,191,536,classic,6.967280387878418,True,,True,1.0,1.0,1.0,1,"Index(['4', '11', '14', '23', '31', '35', '45', '46', '47', '53', '55', '80',
       '83', '85', '89', '92', '100', '110', '114', '120', '121', '127', '128',
       '133', '134', '135', '140', '142', '144', '148', '149', '150', '154',
       '156', '157', '159', '160', '173', '185', '191', '199', '203', '206',
       '212', '217', '221', '232', '243', '246', '260', '261', '267', '275',
       '281', '282', '294'],
      dtype='object')",False,1000,True,2,a9b32939b7,1.0,1.0
./expes/v3_2021-02-05_di_300-prng-1-w1-p2,daily_issda-300,300,first-300,98,32,rng,num-start-101,101,536,classic,7.979555368423462,True,,True,1.0,1.0,1.0,1,"Index(['1', '7', '9', '10', '12', '15', '19', '24', '28', '40', '42', '44',
       '46', '48', '49', '50', '60', '62', '64', '65', '71', '73', '75', '87',
       '89', '95', '97', '99', '100', '101', '102', '103', '108', '115', '126',
       '129', '131', '132', '134', '136', '137', '138', '140', '149', '150',
       '156', '157', '160', '164', '166', '169', '171', '172', '183', '185',
       '186', '192', '194', '195', '200', '204', '210', '211', '212', '216',
       '217', '218', '219', '221', '226', '228', '229', '232', '240', '241',
       '242', '244', '246', '248', '249', '250', '251', '252', '255', '257',
       '258', '264', '265', '268', '269', '271', '276', '277', '284', '286',
       '289', '294', '295'],
      dtype='object')",False,1000,True,2,9a67684092,1.0,1.0
./expes/v3_2021-02-05_di_300-prng-1-w1-p2,daily_issda-300,300,first-300,77,25,rng,num-start-71,71,536,classic,1002.1468937397003,False,,False,0,,,0,"Index(['1', '6', '10', '14', '15', '16', '17', '23', '27', '31', '32', '39',
       '43', '45', '47', '58', '59', '70', '74', '75', '84', '88', '92', '99',
       '103', '105', '108', '114', '115', '117', '121', '130', '134', '138',
       '141', '159', '161', '172', '173', '174', '180', '183', '186', '187',
       '189', '191', '192', '196', '197', '198', '199', '206', '208', '215',
       '217', '219', '221', '226', '228', '236', '241', '243', '245', '248',
       '257', '260', '261', '262', '263', '266', '271', '277', '278', '285',
       '286', '294', '296'],
      dtype='object')",True,1000,True,2,9e4a418c07,0.0,0.0
./expes/v3_2021-02-05_di_300-prng-1-w1-p2,daily_issda-300,300,first-300,133,44,rng,num-start-111,111,536,classic,152.47014379501343,True,,True,1.0,1.0,1.0,1,"Index(['2', '3', '8', '13', '17', '18', '19', '23', '24', '26',
       ...
       '278', '279', '282', '287', '291', '293', '295', '296', '299', '300'],
      dtype='object', length=133)",False,1000,True,2,76a66a899b,1.0,1.0
./expes/v3_2021-02-05_di_300-prng-1-w1-p2,daily_issda-300,300,first-300,105,35,rng,num-start-61,61,536,classic,1001.8508687019348,False,,False,0,,,0,"Index(['1', '6', '10', '11', '13', '15', '18', '22', '35', '36',
       ...
       '268', '270', '272', '274', '283', '287', '292', '293', '297', '299'],
      dtype='object', length=105)",True,1000,True,2,eaed36fbaa,0.0,0.0
./expes/v3_2021-02-05_di_300-prng-1-w1-p2,daily_issda-300,300,first-300,42,14,rng,num-start-151,151,536,classic,5.9708733558654785,True,,True,1.0,1.0,1.0,1,"Index(['10', '14', '27', '32', '36', '42', '57', '64', '71', '72', '73', '78',
       '90', '101', '108', '128', '130', '143', '149', '156', '159', '163',
       '170', '173', '182', '188', '191', '197', '206', '210', '213', '215',
       '222', '243', '257', '260', '268', '273', '277', '283', '287', '293'],
      dtype='object')",False,1000,True,2,dab33d75b7,1.0,1.0
./expes/v3_2021-02-05_di_300-prng-1-w1-p2,daily_issda-300,300,first-300,49,16,rng,num-start-271,271,536,classic,9.56832504272461,True,,True,1.0,1.0,1.0,1,"Index(['1', '12', '15', '19', '24', '42', '46', '48', '49', '50', '62', '75',
       '99', '100', '101', '102', '103', '126', '129', '134', '136', '140',
       '150', '156', '164', '172', '183', '185', '186', '192', '210', '212',
       '218', '221', '228', '241', '249', '250', '251', '257', '258', '264',
       '269', '276', '277', '284', '289', '294', '295'],
      dtype='object')",False,1000,True,2,35ece91d76,1.0,1.0
./expes/v3_2021-02-05_di_300-prng-1-w1-p2,daily_issda-300,300,first-300,21,7,rng,num-start-181,181,536,classic,6.805980443954468,True,,True,1.0,1.0,1.0,1,"Index(['20', '25', '30', '36', '38', '45', '47', '49', '78', '110', '124',
       '166', '188', '203', '215', '218', '223', '260', '275', '283', '299'],
      dtype='object')",False,1000,True,2,c43b63c2b3,1.0,1.0
./expes/v3_2021-02-05_di_300-prng-1-w1-p2,daily_issda-300,300,first-300,49,16,rng,num-start-61,61,536,classic,1001.944671869278,False,,False,0,,,0,"Index(['3', '8', '17', '18', '23', '34', '39', '69', '72', '81', '83', '90',
       '100', '106', '121', '123', '128', '135', '143', '146', '156', '161',
       '167', '168', '182', '185', '186', '188', '193', '196', '216', '220',
       '224', '226', '231', '234', '237', '241', '248', '251', '252', '257',
       '267', '275', '282', '293', '296', '299', '300'],
      dtype='object')",True,1000,True,2,fd798f2f28,0.0,0.0
./expes/v3_2021-02-05_di_300-prng-1-w1-p2,daily_issda-300,300,first-300,7,2,rng,num-start-291,291,536,classic,9.783729553222656,True,,True,1.0,1.0,1.0,1,"Index(['23', '44', '65', '99', '117', '190', '193'], dtype='object')",False,1000,True,2,031b6d4e95,1.0,1.0
./expes/v3_2021-02-05_di_300-prng-1-w1-p2,daily_issda-300,300,first-300,70,23,rng,num-start-261,261,536,classic,9.296029090881348,True,,True,1.0,1.0,1.0,1,"Index(['3', '4', '6', '7', '8', '11', '12', '15', '17', '23', '34', '41', '43',
       '45', '63', '73', '74', '79', '80', '85', '89', '113', '114', '115',
       '117', '119', '121', '122', '130', '133', '145', '146', '151', '152',
       '155', '156', '159', '163', '164', '172', '179', '186', '190', '192',
       '205', '208', '210', '214', '216', '217', '228', '229', '233', '234',
       '236', '238', '241', '244', '245', '247', '251', '252', '254', '256',
       '262', '265', '268', '277', '289', '297'],
      dtype='object')",False,1000,True,2,cb8e56bdeb,1.0,1.0
./expes/v3_2021-02-05_di_300-prng-1-w1-p2,daily_issda-300,300,first-300,7,2,rng,num-start-21,21,536,classic,1.1282503604888916,True,,True,1.0,1.0,1.0,1,"Index(['23', '44', '65', '99', '117', '190', '193'], dtype='object')",False,1000,True,2,150112edf9,1.0,1.0
./expes/v3_2021-02-05_di_300-prng-1-w1-p2,daily_issda-300,300,first-300,98,32,rng,num-start-121,121,536,classic,10.846513509750366,True,,True,1.0,1.0,1.0,1,"Index(['3', '5', '10', '11', '14', '26', '27', '28', '30', '32', '33', '36',
       '39', '42', '44', '48', '49', '57', '60', '64', '67', '71', '72', '73',
       '78', '83', '88', '90', '94', '99', '101', '102', '108', '109', '110',
       '116', '123', '124', '128', '129', '130', '133', '137', '140', '142',
       '143', '149', '156', '157', '158', '159', '160', '162', '163', '164',
       '170', '171', '172', '173', '179', '182', '185', '188', '191', '192',
       '197', '201', '206', '207', '208', '210', '213', '215', '222', '240',
       '243', '245', '246', '249', '257', '260', '268', '269', '270', '273',
       '275', '277', '278', '279', '283', '284', '285', '286', '287', '289',
       '293', '295', '297'],
      dtype='object')",False,1000,True,2,61a7faf12f,1.0,1.0
./expes/v3_2021-02-05_di_300-prng-1-w1-p2,daily_issda-300,300,first-300,140,46,rng,num-start-171,171,536,classic,7.0334343910217285,True,,True,1.0,1.0,1.0,1,"Index(['1', '2', '3', '5', '7', '8', '9', '12', '13', '14',
       ...
       '281', '282', '283', '284', '285', '288', '292', '296', '297', '300'],
      dtype='object', length=140)",False,1000,True,2,3e3c77383f,1.0,1.0
./expes/v3_2021-02-05_di_300-prng-1-w1-p2,daily_issda-300,300,first-300,98,32,rng,num-start-171,171,536,classic,6.449738264083862,True,,True,1.0,1.0,1.0,1,"Index(['5', '11', '13', '15', '17', '19', '21', '26', '29', '30', '31', '35',
       '39', '43', '44', '47', '55', '59', '66', '70', '81', '82', '83', '85',
       '86', '87', '89', '91', '94', '95', '98', '107', '108', '109', '114',
       '117', '119', '121', '126', '128', '129', '131', '137', '138', '140',
       '143', '156', '158', '159', '160', '164', '167', '175', '180', '182',
       '185', '186', '187', '188', '191', '192', '195', '202', '205', '209',
       '213', '217', '221', '228', '229', '233', '234', '237', '239', '246',
       '250', '251', '256', '257', '258', '259', '260', '261', '262', '263',
       '264', '266', '268', '269', '270', '272', '279', '286', '287', '288',
       '291', '295', '298'],
      dtype='object')",False,1000,True,2,c6d64d3e50,1.0,1.0
./expes/v3_2021-02-05_di_300-prng-1-w1-p2,daily_issda-300,300,first-300,91,30,rng,num-start-11,11,536,classic,1000.3883349895477,False,,False,0,,,0,"Index(['3', '8', '17', '18', '19', '23', '34', '37', '39', '41', '42', '50',
       '58', '62', '69', '72', '74', '77', '81', '82', '83', '85', '86', '90',
       '91', '92', '98', '100', '106', '115', '121', '123', '125', '126',
       '128', '135', '137', '141', '143', '146', '155', '156', '161', '164',
       '167', '168', '170', '178', '179', '182', '185', '186', '188', '192',
       '193', '196', '197', '200', '208', '212', '213', '216', '220', '222',
       '223', '224', '226', '227', '229', '230', '231', '234', '237', '241',
       '246', '248', '251', '252', '255', '257', '267', '268', '274', '275',
       '279', '282', '291', '293', '296', '299', '300'],
      dtype='object')",True,1000,True,2,555d6349a1,0.0,0.0
./expes/v3_2021-02-05_di_300-prng-1-w1-p2,daily_issda-300,300,first-300,112,37,rng,num-start-281,281,536,classic,9.918538331985474,True,,True,1.0,1.0,1.0,1,"Index(['1', '2', '3', '5', '7', '10', '12', '15', '17', '19',
       ...
       '269', '272', '274', '277', '279', '280', '282', '289', '294', '297'],
      dtype='object', length=112)",False,1000,True,2,c3ae35e259,1.0,1.0
./expes/v3_2021-02-05_di_300-prng-1-w1-p2,daily_issda-300,300,first-300,98,32,rng,num-start-41,41,536,classic,1001.2849810123444,False,,False,0,,,0,"Index(['5', '6', '8', '9', '10', '19', '22', '23', '25', '29', '31', '32',
       '33', '34', '38', '41', '42', '44', '48', '52', '60', '72', '73', '76',
       '78', '81', '82', '85', '89', '92', '101', '106', '107', '115', '118',
       '119', '121', '123', '131', '134', '135', '140', '144', '147', '148',
       '152', '157', '159', '160', '161', '162', '163', '171', '173', '174',
       '177', '182', '183', '185', '189', '193', '195', '199', '200', '201',
       '203', '206', '208', '215', '216', '223', '225', '227', '230', '231',
       '234', '237', '239', '240', '243', '244', '247', '251', '252', '253',
       '254', '256', '257', '258', '262', '267', '272', '274', '279', '285',
       '290', '292', '296'],
      dtype='object')",True,1000,True,2,73412b99e2,0.0,0.0
./expes/v3_2021-02-05_di_300-prng-1-w1-p2,daily_issda-300,300,first-300,140,46,rng,num-start-31,31,536,classic,1001.0385181903839,False,,False,0,,,0,"Index(['3', '4', '5', '6', '7', '8', '11', '12', '15', '16',
       ...
       '270', '273', '274', '277', '278', '284', '289', '294', '297', '299'],
      dtype='object', length=140)",True,1000,True,2,052b1411ab,0.0,0.0
./expes/v3_2021-02-05_di_300-prng-1-w1-p2,daily_issda-300,300,first-300,84,28,rng,num-start-201,201,536,classic,8.096256256103516,True,,True,1.0,1.0,1.0,1,"Index(['1', '2', '3', '5', '7', '10', '12', '15', '19', '24', '27', '30', '34',
       '37', '53', '56', '58', '61', '65', '68', '72', '75', '81', '82', '85',
       '86', '91', '93', '94', '95', '101', '102', '105', '108', '111', '126',
       '127', '128', '129', '131', '132', '136', '144', '149', '152', '153',
       '155', '157', '159', '161', '162', '170', '174', '177', '182', '184',
       '185', '188', '189', '191', '193', '195', '197', '200', '207', '209',
       '213', '215', '222', '228', '232', '237', '239', '241', '242', '247',
       '263', '269', '272', '277', '279', '282', '294', '297'],
      dtype='object')",False,1000,True,2,94c7a364f2,1.0,1.0
./expes/v3_2021-02-05_di_300-prng-1-w1-p2,daily_issda-300,300,first-300,49,16,rng,num-start-61,61,536,classic,1001.8535215854645,False,,False,0,,,0,"Index(['2', '5', '12', '14', '15', '16', '33', '49', '52', '53', '61', '62',
       '69', '96', '98', '108', '111', '113', '114', '118', '119', '120',
       '131', '137', '149', '152', '163', '171', '177', '195', '196', '200',
       '214', '217', '222', '225', '229', '231', '236', '242', '250', '254',
       '257', '260', '271', '278', '284', '285', '292'],
      dtype='object')",True,1000,True,2,1395b07bea,0.0,0.0
./expes/v3_2021-02-05_di_300-prng-1-w1-p2,daily_issda-300,300,first-300,91,30,rng,num-start-181,181,536,classic,6.729223728179932,True,,True,1.0,1.0,1.0,1,"Index(['1', '7', '9', '10', '12', '15', '19', '24', '28', '40', '42', '44',
       '46', '48', '49', '50', '60', '62', '64', '65', '71', '75', '87', '89',
       '95', '97', '99', '100', '101', '102', '103', '108', '115', '126',
       '129', '131', '132', '134', '136', '137', '138', '140', '149', '150',
       '156', '157', '160', '164', '169', '171', '172', '183', '185', '186',
       '192', '194', '195', '200', '204', '210', '211', '212', '216', '217',
       '218', '219', '221', '226', '228', '229', '232', '241', '242', '248',
       '249', '250', '251', '257', '258', '264', '265', '268', '269', '271',
       '276', '277', '284', '286', '289', '294', '295'],
      dtype='object')",False,1000,True,2,18b12dde30,1.0,1.0
./expes/v3_2021-02-05_di_300-prng-1-w1-p2,daily_issda-300,300,first-300,35,11,rng,num-start-191,191,536,classic,6.54583740234375,True,,True,1.0,1.0,1.0,1,"Index(['4', '21', '23', '27', '33', '42', '45', '53', '57', '68', '71', '81',
       '87', '96', '105', '108', '115', '122', '137', '144', '150', '172',
       '174', '175', '192', '195', '197', '204', '216', '217', '232', '238',
       '258', '260', '284'],
      dtype='object')",False,1000,True,2,62a96899f8,1.0,1.0
./expes/v3_2021-02-05_di_300-prng-1-w1-p2,daily_issda-300,300,first-300,63,21,rng,num-start-71,71,536,classic,1002.130334854126,False,,False,0,,,0,"Index(['3', '4', '6', '7', '8', '11', '12', '15', '23', '34', '41', '43', '45',
       '63', '73', '74', '79', '80', '85', '89', '113', '114', '115', '117',
       '119', '121', '122', '130', '133', '145', '146', '151', '152', '155',
       '156', '159', '163', '172', '179', '186', '192', '208', '210', '214',
       '216', '217', '228', '229', '233', '234', '236', '238', '241', '244',
       '247', '251', '252', '254', '256', '265', '268', '289', '297'],
      dtype='object')",True,1000,True,2,69c94f960e,0.0,0.0
./expes/v3_2021-02-05_di_300-prng-1-w1-p2,daily_issda-300,300,first-300,14,4,rng,num-start-121,121,536,classic,5.069801092147827,True,,True,1.0,1.0,1.0,1,"Index(['15', '27', '58', '81', '127', '128', '131', '184', '191', '195', '239',
       '241', '272', '279'],
      dtype='object')",False,1000,True,2,ca5fdd5b46,1.0,1.0
./expes/v3_2021-02-05_di_300-prng-1-w1-p2,daily_issda-300,300,first-300,112,37,rng,num-start-251,251,536,classic,9.168224811553955,True,,True,1.0,1.0,1.0,1,"Index(['2', '5', '6', '8', '9', '10', '16', '19', '22', '23',
       ...
       '266', '267', '272', '274', '279', '281', '285', '290', '292', '296'],
      dtype='object', length=112)",False,1000,True,2,1193fa58fb,1.0,1.0
./expes/v3_2021-02-05_di_300-prng-1-w1-p2,daily_issda-300,300,first-300,35,11,rng,num-start-211,211,536,classic,7.224915504455566,True,,True,1.0,1.0,1.0,1,"Index(['4', '61', '63', '87', '90', '93', '94', '101', '102', '103', '104',
       '111', '113', '121', '122', '123', '130', '136', '152', '154', '167',
       '172', '176', '178', '188', '208', '230', '235', '246', '251', '253',
       '260', '268', '276', '295'],
      dtype='object')",False,1000,True,2,534174a2a6,1.0,1.0
./expes/v3_2021-02-05_di_300-prng-1-w1-p2,daily_issda-300,300,first-300,84,28,rng,num-start-141,141,536,classic,5.603486061096191,True,,True,1.0,1.0,1.0,1,"Index(['6', '8', '9', '10', '19', '22', '25', '29', '33', '34', '38', '41',
       '48', '52', '60', '72', '73', '76', '78', '81', '85', '89', '92', '101',
       '106', '107', '115', '118', '119', '121', '123', '134', '135', '140',
       '144', '147', '148', '152', '157', '159', '160', '161', '162', '163',
       '173', '174', '177', '182', '183', '185', '189', '193', '199', '200',
       '201', '203', '206', '208', '215', '216', '225', '227', '231', '234',
       '237', '239', '240', '243', '244', '251', '252', '253', '254', '257',
       '258', '262', '267', '272', '274', '279', '285', '290', '292', '296'],
      dtype='object')",False,1000,True,2,c0c8183f57,1.0,1.0
./expes/v3_2021-02-05_di_300-prng-1-w1-p2,daily_issda-300,300,first-300,98,32,rng,num-start-281,281,536,classic,10.107506036758423,True,,True,1.0,1.0,1.0,1,"Index(['3', '5', '10', '11', '14', '26', '27', '28', '30', '32', '33', '36',
       '39', '42', '44', '48', '49', '57', '60', '64', '67', '71', '72', '73',
       '78', '83', '88', '90', '94', '99', '101', '102', '108', '109', '110',
       '116', '123', '124', '128', '129', '130', '133', '137', '140', '142',
       '143', '149', '156', '157', '158', '159', '160', '162', '163', '164',
       '170', '171', '172', '173', '179', '182', '185', '188', '191', '192',
       '197', '201', '206', '207', '208', '210', '213', '215', '222', '240',
       '243', '245', '246', '249', '257', '260', '268', '269', '270', '273',
       '275', '277', '278', '279', '283', '284', '285', '286', '287', '289',
       '293', '295', '297'],
      dtype='object')",False,1000,True,2,b63c5103af,1.0,1.0
./expes/v3_2021-02-05_di_300-prng-1-w1-p2,daily_issda-300,300,first-300,119,39,rng,num-start-21,21,536,classic,1000.6854112148285,False,,False,0,,,0,"Index(['1', '2', '3', '4', '5', '7', '9', '10', '13', '14',
       ...
       '276', '277', '284', '285', '287', '290', '294', '295', '297', '300'],
      dtype='object', length=119)",True,1000,True,2,4e27721569,0.0,0.0
./expes/v3_2021-02-05_di_300-prng-1-w1-p2,daily_issda-300,300,first-300,35,11,rng,num-start-81,81,536,classic,5.136951208114624,True,,True,1.0,1.0,1.0,1,"Index(['1', '6', '10', '31', '32', '39', '45', '47', '74', '75', '84', '103',
       '108', '115', '117', '138', '141', '173', '174', '180', '189', '192',
       '196', '208', '217', '226', '228', '236', '243', '248', '261', '263',
       '271', '286', '296'],
      dtype='object')",False,1000,True,2,0f94032ded,1.0,1.0
./expes/v3_2021-02-05_di_300-prng-1-w1-p2,daily_issda-300,300,first-300,126,42,rng,num-start-71,71,536,classic,1002.134379863739,False,,False,0,,,0,"Index(['2', '3', '8', '16', '17', '19', '20', '22', '23', '24',
       ...
       '282', '284', '285', '287', '289', '290', '292', '296', '298', '299'],
      dtype='object', length=126)",True,1000,True,2,e7030ac3b8,0.0,0.0
./expes/v3_2021-02-05_di_300-prng-1-w1-p2,daily_issda-300,300,first-300,77,25,rng,num-start-61,61,536,classic,1001.9004948139191,False,,False,0,,,0,"Index(['3', '4', '5', '6', '7', '8', '11', '12', '15', '17', '23', '34', '37',
       '41', '43', '45', '48', '52', '63', '73', '74', '79', '80', '85', '89',
       '113', '114', '115', '117', '119', '121', '122', '125', '130', '133',
       '145', '146', '151', '152', '155', '156', '159', '163', '164', '172',
       '179', '186', '190', '192', '202', '205', '208', '210', '214', '216',
       '217', '228', '229', '233', '234', '236', '238', '241', '244', '245',
       '247', '251', '252', '254', '256', '262', '265', '268', '277', '278',
       '289', '297'],
      dtype='object')",True,1000,True,2,99d922b7ff,0.0,0.0
./expes/v3_2021-02-05_di_300-prng-1-w1-p2,daily_issda-300,300,first-300,91,30,rng,num-start-71,71,536,classic,1002.1490840911865,False,,False,0,,,0,"Index(['1', '8', '17', '20', '21', '32', '33', '36', '38', '42', '43', '46',
       '47', '48', '49', '51', '52', '56', '60', '64', '67', '72', '73', '76',
       '77', '95', '96', '97', '98', '105', '111', '112', '114', '121', '123',
       '124', '125', '129', '133', '134', '141', '142', '145', '148', '149',
       '150', '155', '156', '159', '162', '163', '164', '167', '170', '171',
       '182', '183', '184', '198', '201', '205', '208', '215', '216', '223',
       '227', '228', '230', '231', '242', '244', '245', '249', '251', '253',
       '259', '261', '262', '267', '268', '269', '273', '277', '279', '281',
       '283', '287', '291', '295', '297', '299'],
      dtype='object')",True,1000,True,2,331a6504e9,0.0,0.0
./expes/v3_2021-02-05_di_300-prng-1-w1-p2,daily_issda-300,300,first-300,91,30,rng,num-start-41,41,536,classic,1001.2745051383972,False,,False,0,,,0,"Index(['4', '7', '8', '11', '15', '16', '17', '19', '22', '23', '24', '33',
       '34', '35', '40', '46', '50', '54', '56', '61', '64', '67', '69', '70',
       '78', '80', '82', '84', '99', '102', '109', '112', '119', '120', '121',
       '122', '133', '135', '137', '138', '143', '144', '146', '150', '151',
       '155', '159', '161', '168', '170', '173', '174', '177', '180', '188',
       '190', '194', '198', '199', '200', '203', '204', '209', '211', '213',
       '216', '219', '224', '228', '241', '243', '244', '247', '248', '254',
       '259', '260', '268', '274', '275', '277', '278', '279', '282', '283',
       '292', '293', '294', '296', '298', '300'],
      dtype='object')",True,1000,True,2,00532ab580,0.0,0.0
./expes/v3_2021-02-05_di_300-prng-1-w1-p2,daily_issda-300,300,first-300,98,32,rng,num-start-11,11,536,classic,1000.38157081604,False,,False,0,,,0,"Index(['5', '6', '8', '9', '10', '19', '22', '23', '25', '29', '31', '32',
       '33', '34', '38', '41', '42', '44', '48', '52', '60', '72', '73', '76',
       '78', '81', '82', '85', '89', '92', '101', '106', '107', '115', '118',
       '119', '121', '123', '131', '134', '135', '140', '144', '147', '148',
       '152', '157', '159', '160', '161', '162', '163', '171', '173', '174',
       '177', '182', '183', '185', '189', '193', '195', '199', '200', '201',
       '203', '206', '208', '215', '216', '223', '225', '227', '230', '231',
       '234', '237', '239', '240', '243', '244', '247', '251', '252', '253',
       '254', '256', '257', '258', '262', '267', '272', '274', '279', '285',
       '290', '292', '296'],
      dtype='object')",True,1000,True,2,a4d3a04610,0.0,0.0
