expe,clients,clients_size,clients_subset,agg_size,agg_size_pc,method,days,days_size,days_total,noise_method,time,valid,valid_sum,success,score_avg,score_min,score_max,nsols,oracle,wall_hit,wall_time,pooled,pool_size,uuid,optimal,valid_sums
./expes/v3_2021-02-05_di_300-prng-1-w1-p2,daily_issda-300,300,first-300,56,18,rng,num-start-11,11,536,classic,1000.6659464836121,False,,False,0,,,0,"Index(['4', '9', '12', '23', '37', '38', '51', '54', '56', '59', '62', '69',
       '71', '76', '82', '99', '103', '104', '107', '120', '134', '138', '149',
       '154', '160', '167', '168', '178', '189', '199', '200', '202', '203',
       '209', '211', '213', '217', '226', '233', '234', '235', '246', '253',
       '257', '258', '262', '267', '271', '278', '280', '281', '292', '293',
       '296', '297', '300'],
      dtype='object')",True,1000,True,2,3120403c01,0.0,0.0
./expes/v3_2021-02-05_di_300-prng-1-w1-p2,daily_issda-300,300,first-300,77,25,rng,num-start-231,231,536,classic,8.235333681106567,True,,True,1.0,1.0,1.0,1,"Index(['7', '11', '16', '20', '23', '30', '33', '37', '44', '45', '46', '50',
       '56', '59', '65', '70', '71', '73', '76', '77', '82', '99', '100',
       '102', '107', '108', '113', '117', '120', '121', '125', '127', '133',
       '137', '146', '147', '152', '159', '161', '174', '176', '177', '183',
       '190', '193', '194', '195', '198', '200', '206', '207', '209', '219',
       '228', '233', '234', '236', '243', '249', '250', '251', '254', '255',
       '258', '260', '262', '265', '267', '271', '273', '277', '280', '286',
       '294', '297', '298', '300'],
      dtype='object')",False,1000,True,2,94294480fb,1.0,1.0
./expes/v3_2021-02-05_di_300-prng-1-w1-p2,daily_issda-300,300,first-300,126,42,rng,num-start-31,31,536,classic,1000.9166045188904,False,,False,0,,,0,"Index(['2', '3', '8', '13', '17', '18', '19', '23', '26', '33',
       ...
       '278', '279', '282', '287', '291', '293', '295', '296', '299', '300'],
      dtype='object', length=126)",True,1000,True,2,7d41f6d479,0.0,0.0
./expes/v3_2021-02-05_di_300-prng-1-w1-p2,daily_issda-300,300,first-300,21,7,rng,num-start-271,271,536,classic,8.680305242538452,True,,True,1.0,1.0,1.0,1,"Index(['15', '19', '29', '44', '47', '82', '87', '109', '129', '138', '158',
       '185', '187', '191', '202', '221', '228', '258', '261', '279', '298'],
      dtype='object')",False,1000,True,2,169e1230ef,1.0,1.0
./expes/v3_2021-02-05_di_300-prng-1-w1-p2,daily_issda-300,300,first-300,140,46,rng,num-start-291,291,536,classic,10.261531352996826,True,,True,1.0,1.0,1.0,1,"Index(['3', '4', '5', '6', '10', '24', '30', '34', '39', '40',
       ...
       '283', '285', '286', '287', '290', '291', '293', '294', '295', '297'],
      dtype='object', length=140)",False,1000,True,2,cd8b89d8ff,1.0,1.0
./expes/v3_2021-02-05_di_300-prng-1-w1-p2,daily_issda-300,300,first-300,56,18,rng,num-start-151,151,536,classic,5.480231046676636,True,,True,1.0,1.0,1.0,1,"Index(['1', '8', '21', '32', '33', '38', '42', '47', '48', '49', '51', '52',
       '72', '73', '76', '98', '105', '112', '114', '123', '125', '129', '133',
       '134', '145', '156', '159', '162', '164', '167', '170', '171', '182',
       '184', '198', '205', '208', '216', '223', '227', '230', '242', '245',
       '249', '253', '259', '261', '262', '267', '273', '279', '281', '283',
       '287', '291', '299'],
      dtype='object')",False,1000,True,2,0cd1a6f160,1.0,1.0
./expes/v3_2021-02-05_di_300-prng-1-w1-p2,daily_issda-300,300,first-300,63,21,rng,num-start-11,11,536,classic,1000.3461136817932,False,,False,0,,,0,"Index(['11', '16', '20', '23', '30', '33', '44', '45', '46', '50', '56', '59',
       '65', '70', '71', '73', '76', '82', '99', '100', '107', '108', '117',
       '120', '121', '127', '133', '137', '147', '161', '174', '183', '190',
       '193', '194', '195', '198', '200', '206', '207', '209', '219', '228',
       '233', '234', '236', '243', '249', '250', '251', '254', '255', '258',
       '260', '265', '267', '273', '277', '286', '294', '297', '298', '300'],
      dtype='object')",True,1000,True,2,0231017e84,0.0,0.0
./expes/v3_2021-02-05_di_300-prng-1-w1-p2,daily_issda-300,300,first-300,119,39,rng,num-start-221,221,536,classic,7.911985397338867,True,,True,1.0,1.0,1.0,1,"Index(['2', '5', '6', '8', '9', '10', '16', '19', '22', '23',
       ...
       '266', '267', '272', '274', '279', '281', '285', '290', '292', '296'],
      dtype='object', length=119)",False,1000,True,2,287d9f2b37,1.0,1.0
./expes/v3_2021-02-05_di_300-prng-1-w1-p2,daily_issda-300,300,first-300,112,37,rng,num-start-221,221,536,classic,7.714402675628662,True,,True,1.0,1.0,1.0,1,"Index(['1', '4', '7', '9', '10', '12', '15', '16', '19', '24',
       ...
       '271', '276', '277', '284', '286', '287', '289', '292', '294', '295'],
      dtype='object', length=112)",False,1000,True,2,8c3fa91238,1.0,1.0
./expes/v3_2021-02-05_di_300-prng-1-w1-p2,daily_issda-300,300,first-300,63,21,rng,num-start-181,181,536,classic,6.799904823303223,True,,True,1.0,1.0,1.0,1,"Index(['11', '16', '20', '23', '30', '33', '44', '45', '46', '50', '56', '59',
       '65', '70', '71', '73', '76', '82', '99', '100', '107', '108', '117',
       '120', '121', '127', '133', '137', '147', '161', '174', '183', '190',
       '193', '194', '195', '198', '200', '206', '207', '209', '219', '228',
       '233', '234', '236', '243', '249', '250', '251', '254', '255', '258',
       '260', '265', '267', '273', '277', '286', '294', '297', '298', '300'],
      dtype='object')",False,1000,True,2,4f34a79db7,1.0,1.0
./expes/v3_2021-02-05_di_300-prng-1-w1-p2,daily_issda-300,300,first-300,56,18,rng,num-start-21,21,536,classic,1000.7171940803528,False,,False,0,,,0,"Index(['6', '15', '36', '38', '43', '46', '48', '49', '53', '55', '58', '59',
       '61', '63', '77', '83', '85', '93', '100', '105', '112', '115', '127',
       '131', '134', '135', '139', '141', '143', '144', '145', '150', '156',
       '162', '173', '184', '185', '187', '196', '202', '204', '207', '211',
       '225', '231', '232', '239', '249', '250', '257', '264', '265', '270',
       '283', '297', '299'],
      dtype='object')",True,1000,True,2,8883cd7eb9,0.0,0.0
./expes/v3_2021-02-05_di_300-prng-1-w1-p2,daily_issda-300,300,first-300,28,9,rng,num-start-251,251,536,classic,8.689655542373657,True,,True,1.0,1.0,1.0,1,"Index(['12', '23', '37', '38', '51', '56', '59', '62', '76', '103', '104',
       '134', '138', '149', '160', '167', '168', '178', '199', '202', '211',
       '234', '262', '267', '271', '278', '292', '300'],
      dtype='object')",False,1000,True,2,48a2c42b69,1.0,1.0
./expes/v3_2021-02-05_di_300-prng-1-w1-p2,daily_issda-300,300,first-300,133,44,rng,num-start-81,81,536,classic,1002.4032759666443,False,,False,0,,,0,"Index(['1', '6', '10', '11', '13', '15', '17', '18', '22', '27',
       ...
       '279', '280', '283', '284', '287', '288', '292', '293', '297', '299'],
      dtype='object', length=133)",True,1000,True,2,bc9fe79705,0.0,0.0
./expes/v3_2021-02-05_di_300-prng-1-w1-p2,daily_issda-300,300,first-300,133,44,rng,num-start-281,281,536,classic,9.844639539718628,True,,True,1.0,1.0,1.0,1,"Index(['3', '7', '12', '20', '21', '24', '25', '26', '28', '30',
       ...
       '289', '290', '293', '294', '295', '296', '297', '298', '299', '300'],
      dtype='object', length=133)",False,1000,True,2,c394987f0a,1.0,1.0
./expes/v3_2021-02-05_di_300-prng-1-w1-p2,daily_issda-300,300,first-300,14,4,rng,num-start-141,141,536,classic,4.968466520309448,True,,True,1.0,1.0,1.0,1,"Index(['15', '27', '58', '81', '127', '128', '131', '184', '191', '195', '239',
       '241', '272', '279'],
      dtype='object')",False,1000,True,2,80ef6d9504,1.0,1.0
./expes/v3_2021-02-05_di_300-prng-1-w1-p2,daily_issda-300,300,first-300,28,9,rng,num-start-191,191,536,classic,6.888559341430664,True,,True,1.0,1.0,1.0,1,"Index(['8', '17', '18', '23', '39', '72', '83', '90', '106', '128', '135',
       '143', '146', '156', '168', '182', '185', '196', '216', '220', '234',
       '237', '248', '251', '252', '267', '293', '296'],
      dtype='object')",False,1000,True,2,51de11be64,1.0,1.0
./expes/v3_2021-02-05_di_300-prng-1-w1-p2,daily_issda-300,300,first-300,35,11,rng,num-start-61,61,536,classic,25.085973262786865,True,,True,1.0,1.0,1.0,1,"Index(['9', '12', '23', '37', '38', '51', '56', '59', '62', '76', '103', '104',
       '134', '138', '149', '154', '160', '167', '168', '178', '199', '202',
       '203', '211', '213', '217', '226', '234', '262', '267', '271', '278',
       '292', '297', '300'],
      dtype='object')",False,1000,True,2,4fe387dd29,1.0,1.0
./expes/v3_2021-02-05_di_300-prng-1-w1-p2,daily_issda-300,300,first-300,28,9,rng,num-start-121,121,536,classic,4.390560626983643,True,,True,1.0,1.0,1.0,1,"Index(['6', '9', '19', '29', '60', '76', '81', '106', '107', '115', '118',
       '119', '123', '135', '144', '157', '161', '174', '177', '182', '183',
       '189', '201', '216', '239', '262', '267', '296'],
      dtype='object')",False,1000,True,2,cc7bdd3e76,1.0,1.0
./expes/v3_2021-02-05_di_300-prng-1-w1-p2,daily_issda-300,300,first-300,112,37,rng,num-start-281,281,536,classic,9.721066951751709,True,,True,1.0,1.0,1.0,1,"Index(['1', '4', '7', '9', '10', '12', '15', '16', '19', '24',
       ...
       '271', '276', '277', '284', '286', '287', '289', '292', '294', '295'],
      dtype='object', length=112)",False,1000,True,2,18d55efd28,1.0,1.0
./expes/v3_2021-02-05_di_300-prng-1-w1-p2,daily_issda-300,300,first-300,140,46,rng,num-start-101,101,536,classic,1003.0110905170441,False,,False,0,,,0,"Index(['3', '4', '5', '6', '7', '8', '11', '12', '15', '16',
       ...
       '270', '273', '274', '277', '278', '284', '289', '294', '297', '299'],
      dtype='object', length=140)",True,1000,True,2,76a8de5c1a,0.0,0.0
./expes/v3_2021-02-05_di_300-prng-1-w1-p2,daily_issda-300,300,first-300,21,7,rng,num-start-91,91,536,classic,3.211027145385742,True,,True,1.0,1.0,1.0,1,"Index(['7', '34', '67', '78', '99', '119', '120', '122', '133', '190', '200',
       '204', '241', '243', '244', '268', '277', '279', '282', '283', '298'],
      dtype='object')",False,1000,True,2,5f2e1fe8ee,1.0,1.0
./expes/v3_2021-02-05_di_300-prng-1-w1-p2,daily_issda-300,300,first-300,77,25,rng,num-start-131,131,536,classic,8.991297006607056,True,,True,1.0,1.0,1.0,1,"Index(['1', '6', '10', '14', '15', '16', '17', '23', '27', '31', '32', '39',
       '43', '45', '47', '58', '59', '70', '74', '75', '84', '88', '92', '99',
       '103', '105', '108', '114', '115', '117', '121', '130', '134', '138',
       '141', '159', '161', '172', '173', '174', '180', '183', '186', '187',
       '189', '191', '192', '196', '197', '198', '199', '206', '208', '215',
       '217', '219', '221', '226', '228', '236', '241', '243', '245', '248',
       '257', '260', '261', '262', '263', '266', '271', '277', '278', '285',
       '286', '294', '296'],
      dtype='object')",False,1000,True,2,ae580d09a8,1.0,1.0
./expes/v3_2021-02-05_di_300-prng-1-w1-p2,daily_issda-300,300,first-300,133,44,rng,num-start-31,31,536,classic,1000.962809085846,False,,False,0,,,0,"Index(['1', '4', '7', '8', '9', '10', '11', '12', '15', '16',
       ...
       '277', '283', '284', '286', '287', '289', '292', '294', '295', '297'],
      dtype='object', length=133)",True,1000,True,2,581b6114d1,0.0,0.0
./expes/v3_2021-02-05_di_300-prng-1-w1-p2,daily_issda-300,300,first-300,70,23,rng,num-start-241,241,536,classic,8.5303795337677,True,,True,1.0,1.0,1.0,1,"Index(['3', '4', '6', '7', '8', '11', '12', '15', '17', '23', '34', '41', '43',
       '45', '63', '73', '74', '79', '80', '85', '89', '113', '114', '115',
       '117', '119', '121', '122', '130', '133', '145', '146', '151', '152',
       '155', '156', '159', '163', '164', '172', '179', '186', '190', '192',
       '205', '208', '210', '214', '216', '217', '228', '229', '233', '234',
       '236', '238', '241', '244', '245', '247', '251', '252', '254', '256',
       '262', '265', '268', '277', '289', '297'],
      dtype='object')",False,1000,True,2,34a90abee3,1.0,1.0
./expes/v3_2021-02-05_di_300-prng-1-w1-p2,daily_issda-300,300,first-300,133,44,rng,num-start-21,21,536,classic,1000.6718857288361,False,,False,0,,,0,"Index(['1', '3', '5', '10', '11', '13', '15', '16', '17', '18',
       ...
       '272', '279', '283', '286', '287', '288', '291', '295', '298', '300'],
      dtype='object', length=133)",True,1000,True,2,84772b8a78,0.0,0.0
./expes/v3_2021-02-05_di_300-prng-1-w1-p2,daily_issda-300,300,first-300,140,46,rng,num-start-211,211,536,classic,7.3860344886779785,True,,True,1.0,1.0,1.0,1,"Index(['1', '3', '5', '10', '11', '13', '15', '16', '17', '18',
       ...
       '272', '279', '283', '286', '287', '288', '291', '295', '298', '300'],
      dtype='object', length=140)",False,1000,True,2,384ea2ae82,1.0,1.0
./expes/v3_2021-02-05_di_300-prng-1-w1-p2,daily_issda-300,300,first-300,140,46,rng,num-start-211,211,536,classic,7.567904710769653,True,,True,1.0,1.0,1.0,1,"Index(['2', '3', '8', '16', '17', '18', '19', '20', '22', '23',
       ...
       '284', '285', '287', '289', '290', '292', '296', '298', '299', '300'],
      dtype='object', length=140)",False,1000,True,2,1ef5ae5329,1.0,1.0
./expes/v3_2021-02-05_di_300-prng-1-w1-p2,daily_issda-300,300,first-300,42,14,rng,num-start-211,211,536,classic,7.465459585189819,True,,True,1.0,1.0,1.0,1,"Index(['3', '8', '16', '19', '22', '31', '33', '43', '44', '47', '49', '73',
       '81', '95', '96', '98', '101', '120', '124', '131', '143', '151', '156',
       '162', '168', '203', '209', '226', '229', '232', '235', '238', '239',
       '244', '256', '261', '263', '266', '271', '276', '283', '287'],
      dtype='object')",False,1000,True,2,95244d46a9,1.0,1.0
./expes/v3_2021-02-05_di_300-prng-1-w1-p2,daily_issda-300,300,first-300,140,46,rng,num-start-111,111,536,classic,48.41337513923645,True,,True,1.0,1.0,1.0,1,"Index(['1', '3', '7', '12', '14', '20', '21', '24', '25', '26',
       ...
       '290', '291', '293', '294', '295', '296', '297', '298', '299', '300'],
      dtype='object', length=140)",False,1000,True,2,e05cfa14d0,1.0,1.0
./expes/v3_2021-02-05_di_300-prng-1-w1-p2,daily_issda-300,300,first-300,28,9,rng,num-start-151,151,536,classic,5.4156763553619385,True,,True,1.0,1.0,1.0,1,"Index(['14', '32', '57', '64', '71', '72', '78', '90', '101', '108', '128',
       '130', '143', '149', '156', '163', '170', '188', '197', '206', '213',
       '215', '257', '268', '273', '277', '283', '287'],
      dtype='object')",False,1000,True,2,204ca7fc8d,1.0,1.0
./expes/v3_2021-02-05_di_300-prng-1-w1-p2,daily_issda-300,300,first-300,21,7,rng,num-start-21,21,536,classic,1001.1914556026459,False,,False,0,,,0,"Index(['38', '55', '61', '77', '115', '127', '131', '134', '135', '139', '150',
       '156', '162', '184', '185', '202', '204', '231', '239', '265', '270'],
      dtype='object')",True,1000,True,2,9cbaaf7855,0.0,0.0
./expes/v3_2021-02-05_di_300-prng-1-w1-p2,daily_issda-300,300,first-300,84,28,rng,num-start-91,91,536,classic,28.910890817642212,True,,True,1.0,1.0,1.0,1,"Index(['20', '21', '24', '25', '26', '30', '31', '32', '33', '34', '36', '38',
       '40', '42', '45', '47', '48', '49', '50', '53', '61', '64', '69', '74',
       '78', '85', '93', '97', '106', '110', '114', '115', '124', '125', '128',
       '139', '148', '149', '154', '158', '159', '161', '166', '175', '176',
       '180', '186', '188', '191', '203', '204', '215', '216', '218', '219',
       '223', '230', '233', '234', '239', '243', '251', '254', '255', '260',
       '263', '269', '273', '275', '277', '281', '283', '286', '287', '289',
       '290', '293', '294', '295', '296', '297', '298', '299', '300'],
      dtype='object')",False,1000,True,2,a40455d21b,1.0,1.0
./expes/v3_2021-02-05_di_300-prng-1-w1-p2,daily_issda-300,300,first-300,105,35,rng,num-start-291,291,536,classic,10.705069065093994,True,,True,1.0,1.0,1.0,1,"Index(['1', '2', '3', '5', '7', '10', '12', '15', '17', '19',
       ...
       '263', '269', '272', '274', '277', '279', '280', '282', '294', '297'],
      dtype='object', length=105)",False,1000,True,2,74608a90ea,1.0,1.0
./expes/v3_2021-02-05_di_300-prng-1-w1-p2,daily_issda-300,300,first-300,63,21,rng,num-start-191,191,536,classic,7.211613893508911,True,,True,1.0,1.0,1.0,1,"Index(['1', '7', '9', '12', '15', '19', '24', '42', '46', '48', '49', '50',
       '60', '62', '71', '75', '87', '97', '99', '100', '101', '102', '103',
       '108', '115', '126', '129', '134', '136', '138', '140', '150', '156',
       '160', '164', '171', '172', '183', '185', '186', '192', '195', '210',
       '212', '218', '221', '228', '241', '248', '249', '250', '251', '257',
       '258', '264', '268', '269', '276', '277', '284', '289', '294', '295'],
      dtype='object')",False,1000,True,2,3abd369bf7,1.0,1.0
./expes/v3_2021-02-05_di_300-prng-1-w1-p2,daily_issda-300,300,first-300,126,42,rng,num-start-171,171,536,classic,6.8725690841674805,True,,True,1.0,1.0,1.0,1,"Index(['3', '7', '12', '20', '21', '24', '25', '26', '28', '30',
       ...
       '289', '290', '293', '294', '295', '296', '297', '298', '299', '300'],
      dtype='object', length=126)",False,1000,True,2,0a871985b4,1.0,1.0
./expes/v3_2021-02-05_di_300-prng-1-w1-p2,daily_issda-300,300,first-300,63,21,rng,num-start-41,41,536,classic,1001.2241561412811,False,,False,0,,,0,"Index(['13', '15', '19', '29', '44', '47', '70', '82', '83', '85', '86', '87',
       '89', '91', '94', '109', '114', '119', '121', '128', '129', '138',
       '143', '156', '158', '159', '164', '167', '180', '182', '185', '186',
       '187', '191', '195', '202', '205', '213', '217', '221', '228', '229',
       '233', '234', '237', '239', '246', '250', '251', '256', '257', '258',
       '261', '262', '264', '269', '270', '272', '279', '286', '287', '291',
       '298'],
      dtype='object')",True,1000,True,2,2280a00fc6,0.0,0.0
./expes/v3_2021-02-05_di_300-prng-1-w1-p2,daily_issda-300,300,first-300,7,2,rng,num-start-171,171,536,classic,5.77990460395813,True,,True,1.0,1.0,1.0,1,"Index(['6', '74', '138', '180', '196', '243', '271'], dtype='object')",False,1000,True,2,1fc02306db,1.0,1.0
./expes/v3_2021-02-05_di_300-prng-1-w1-p2,daily_issda-300,300,first-300,35,11,rng,num-start-221,221,536,classic,7.635054111480713,True,,True,1.0,1.0,1.0,1,"Index(['14', '32', '36', '42', '57', '64', '71', '72', '73', '78', '90', '101',
       '108', '128', '130', '143', '149', '156', '159', '163', '170', '188',
       '197', '206', '210', '213', '215', '243', '257', '260', '268', '273',
       '277', '283', '287'],
      dtype='object')",False,1000,True,2,2af3b0a147,1.0,1.0
./expes/v3_2021-02-05_di_300-prng-1-w1-p2,daily_issda-300,300,first-300,49,16,rng,num-start-201,201,536,classic,7.345725059509277,True,,True,1.0,1.0,1.0,1,"Index(['13', '15', '19', '29', '44', '47', '70', '82', '83', '85', '87', '89',
       '91', '94', '109', '119', '121', '128', '129', '138', '158', '164',
       '167', '182', '185', '186', '187', '191', '195', '202', '205', '213',
       '217', '221', '228', '229', '237', '239', '251', '258', '261', '262',
       '264', '269', '270', '272', '279', '287', '298'],
      dtype='object')",False,1000,True,2,2780bc4a49,1.0,1.0
./expes/v3_2021-02-05_di_300-prng-1-w1-p2,daily_issda-300,300,first-300,112,37,rng,num-start-201,201,536,classic,7.605785608291626,True,,True,1.0,1.0,1.0,1,"Index(['3', '4', '5', '10', '30', '41', '45', '46', '48', '52',
       ...
       '281', '283', '285', '286', '287', '291', '293', '294', '295', '297'],
      dtype='object', length=112)",False,1000,True,2,1e7ccb67f4,1.0,1.0
./expes/v3_2021-02-05_di_300-prng-1-w1-p2,daily_issda-300,300,first-300,105,35,rng,num-start-181,181,536,classic,6.866271734237671,True,,True,1.0,1.0,1.0,1,"Index(['1', '3', '5', '6', '8', '9', '11', '16', '19', '22',
       ...
       '266', '271', '276', '283', '287', '289', '290', '295', '296', '299'],
      dtype='object', length=105)",False,1000,True,2,85210d6dca,1.0,1.0
./expes/v3_2021-02-05_di_300-prng-1-w1-p2,daily_issda-300,300,first-300,119,39,rng,num-start-211,211,536,classic,7.800023317337036,True,,True,1.0,1.0,1.0,1,"Index(['1', '8', '9', '12', '14', '17', '19', '20', '21', '24',
       ...
       '277', '279', '281', '283', '287', '291', '294', '295', '297', '299'],
      dtype='object', length=119)",False,1000,True,2,45d98a33d5,1.0,1.0
./expes/v3_2021-02-05_di_300-prng-1-w1-p2,daily_issda-300,300,first-300,28,9,rng,num-start-131,131,536,classic,4.741740703582764,True,,True,1.0,1.0,1.0,1,"Index(['8', '16', '19', '22', '31', '33', '47', '49', '73', '81', '95', '96',
       '98', '124', '156', '168', '203', '226', '229', '232', '238', '239',
       '244', '261', '263', '271', '276', '287'],
      dtype='object')",False,1000,True,2,2027640aa3,1.0,1.0
./expes/v3_2021-02-05_di_300-prng-1-w1-p2,daily_issda-300,300,first-300,126,42,rng,num-start-121,121,536,classic,15.082143783569336,True,,True,1.0,1.0,1.0,1,"Index(['2', '3', '8', '13', '17', '18', '19', '23', '26', '33',
       ...
       '278', '279', '282', '287', '291', '293', '295', '296', '299', '300'],
      dtype='object', length=126)",False,1000,True,2,5fcace503c,1.0,1.0
./expes/v3_2021-02-05_di_300-prng-1-w1-p2,daily_issda-300,300,first-300,84,28,rng,num-start-81,81,536,classic,1002.4879319667816,False,,False,0,,,0,"Index(['1', '3', '6', '8', '9', '11', '16', '19', '22', '27', '31', '33', '35',
       '36', '38', '43', '44', '45', '47', '49', '52', '56', '60', '61', '68',
       '69', '73', '81', '91', '95', '96', '97', '98', '101', '102', '108',
       '109', '110', '118', '120', '124', '127', '131', '139', '143', '148',
       '149', '151', '156', '160', '162', '168', '171', '173', '193', '197',
       '198', '203', '204', '206', '209', '210', '215', '216', '226', '229',
       '230', '232', '235', '238', '239', '241', '244', '250', '256', '261',
       '263', '266', '271', '276', '283', '287', '289', '290'],
      dtype='object')",True,1000,True,2,f969fbd746,0.0,0.0
./expes/v3_2021-02-05_di_300-prng-1-w1-p2,daily_issda-300,300,first-300,49,16,rng,num-start-121,121,536,classic,4.4402406215667725,True,,True,1.0,1.0,1.0,1,"Index(['1', '12', '15', '19', '24', '42', '46', '48', '49', '50', '62', '75',
       '99', '100', '101', '102', '103', '126', '129', '134', '136', '140',
       '150', '156', '164', '172', '183', '185', '186', '192', '210', '212',
       '218', '221', '228', '241', '249', '250', '251', '257', '258', '264',
       '269', '276', '277', '284', '289', '294', '295'],
      dtype='object')",False,1000,True,2,0b47fd8fdc,1.0,1.0
./expes/v3_2021-02-05_di_300-prng-1-w1-p2,daily_issda-300,300,first-300,91,30,rng,num-start-261,261,536,classic,9.360398530960083,True,,True,1.0,1.0,1.0,1,"Index(['6', '8', '9', '10', '19', '22', '23', '25', '29', '31', '32', '33',
       '34', '38', '41', '48', '52', '60', '72', '73', '76', '78', '81', '82',
       '85', '89', '92', '101', '106', '107', '115', '118', '119', '121',
       '123', '131', '134', '135', '140', '144', '147', '148', '152', '157',
       '159', '160', '161', '162', '163', '173', '174', '177', '182', '183',
       '185', '189', '193', '199', '200', '201', '203', '206', '208', '215',
       '216', '225', '227', '231', '234', '237', '239', '240', '243', '244',
       '247', '251', '252', '253', '254', '256', '257', '258', '262', '267',
       '272', '274', '279', '285', '290', '292', '296'],
      dtype='object')",False,1000,True,2,ce6db2e552,1.0,1.0
./expes/v3_2021-02-05_di_300-prng-1-w1-p2,daily_issda-300,300,first-300,98,32,rng,num-start-121,121,536,classic,8.69986081123352,True,,True,1.0,1.0,1.0,1,"Index(['4', '10', '11', '14', '22', '23', '24', '31', '32', '35', '40', '42',
       '43', '45', '46', '47', '52', '53', '55', '63', '70', '75', '79', '80',
       '83', '85', '89', '91', '92', '95', '99', '100', '101', '102', '104',
       '110', '114', '118', '120', '121', '122', '127', '128', '129', '133',
       '134', '135', '140', '142', '143', '144', '147', '148', '149', '150',
       '151', '154', '156', '157', '159', '160', '165', '166', '168', '170',
       '173', '176', '183', '185', '191', '196', '199', '203', '206', '211',
       '212', '217', '221', '224', '226', '228', '232', '236', '237', '242',
       '243', '246', '260', '261', '266', '267', '274', '275', '281', '282',
       '286', '294', '299'],
      dtype='object')",False,1000,True,2,b3bc8a7f37,1.0,1.0
./expes/v3_2021-02-05_di_300-prng-1-w1-p2,daily_issda-300,300,first-300,70,23,rng,num-start-291,291,536,classic,10.18769359588623,True,,True,1.0,1.0,1.0,1,"Index(['3', '4', '6', '7', '8', '11', '12', '15', '17', '23', '34', '41', '43',
       '45', '63', '73', '74', '79', '80', '85', '89', '113', '114', '115',
       '117', '119', '121', '122', '130', '133', '145', '146', '151', '152',
       '155', '156', '159', '163', '164', '172', '179', '186', '190', '192',
       '205', '208', '210', '214', '216', '217', '228', '229', '233', '234',
       '236', '238', '241', '244', '245', '247', '251', '252', '254', '256',
       '262', '265', '268', '277', '289', '297'],
      dtype='object')",False,1000,True,2,9b5c20fd7a,1.0,1.0
./expes/v3_2021-02-05_di_300-prng-1-w1-p2,daily_issda-300,300,first-300,91,30,rng,num-start-251,251,536,classic,9.241641283035278,True,,True,1.0,1.0,1.0,1,"Index(['6', '10', '11', '15', '22', '35', '36', '38', '43', '46', '48', '49',
       '53', '55', '58', '59', '61', '63', '74', '77', '83', '85', '87', '93',
       '97', '100', '105', '112', '115', '121', '127', '131', '132', '134',
       '135', '137', '139', '141', '143', '144', '145', '150', '155', '156',
       '159', '162', '173', '178', '183', '184', '185', '187', '189', '196',
       '198', '199', '202', '204', '207', '208', '211', '214', '217', '218',
       '224', '225', '226', '231', '232', '234', '236', '239', '241', '242',
       '243', '246', '249', '250', '251', '257', '264', '265', '270', '272',
       '274', '283', '287', '292', '293', '297', '299'],
      dtype='object')",False,1000,True,2,2bb5a9a0b5,1.0,1.0
./expes/v3_2021-02-05_di_300-prng-1-w1-p2,daily_issda-300,300,first-300,28,9,rng,num-start-281,281,536,classic,10.019675254821777,True,,True,1.0,1.0,1.0,1,"Index(['6', '9', '19', '29', '60', '76', '81', '106', '107', '115', '118',
       '119', '123', '135', '144', '157', '161', '174', '177', '182', '183',
       '189', '201', '216', '239', '262', '267', '296'],
      dtype='object')",False,1000,True,2,2d443857a2,1.0,1.0
./expes/v3_2021-02-05_di_300-prng-1-w1-p2,daily_issda-300,300,first-300,21,7,rng,num-start-71,71,536,classic,2.5246312618255615,True,,True,1.0,1.0,1.0,1,"Index(['6', '9', '19', '29', '60', '76', '81', '106', '107', '118', '123',
       '135', '144', '174', '177', '182', '183', '189', '201', '239', '267'],
      dtype='object')",False,1000,True,2,0c63c4e0ba,1.0,1.0
./expes/v3_2021-02-05_di_300-prng-1-w1-p2,daily_issda-300,300,first-300,84,28,rng,num-start-131,131,536,classic,4.973772764205933,True,,True,1.0,1.0,1.0,1,"Index(['1', '7', '9', '12', '15', '19', '24', '28', '40', '42', '44', '46',
       '48', '49', '50', '60', '62', '65', '71', '75', '87', '89', '95', '97',
       '99', '100', '101', '102', '103', '108', '115', '126', '129', '134',
       '136', '137', '138', '140', '149', '150', '156', '157', '160', '164',
       '171', '172', '183', '185', '186', '192', '194', '195', '200', '204',
       '210', '212', '217', '218', '219', '221', '226', '228', '229', '232',
       '241', '242', '248', '249', '250', '251', '257', '258', '264', '265',
       '268', '269', '271', '276', '277', '284', '286', '289', '294', '295'],
      dtype='object')",False,1000,True,2,f2520b9bba,1.0,1.0
./expes/v3_2021-02-05_di_300-prng-1-w1-p2,daily_issda-300,300,first-300,56,18,rng,num-start-231,231,536,classic,7.963074684143066,True,,True,1.0,1.0,1.0,1,"Index(['3', '10', '14', '26', '27', '30', '32', '36', '42', '57', '60', '64',
       '71', '72', '73', '78', '90', '101', '108', '110', '123', '128', '130',
       '137', '143', '149', '156', '159', '163', '170', '173', '182', '185',
       '188', '191', '192', '197', '206', '208', '210', '213', '215', '222',
       '243', '245', '257', '260', '268', '270', '273', '277', '283', '286',
       '287', '293', '297'],
      dtype='object')",False,1000,True,2,c5c558ef8c,1.0,1.0
./expes/v3_2021-02-05_di_300-prng-1-w1-p2,daily_issda-300,300,first-300,70,23,rng,num-start-21,21,536,classic,1000.6892244815826,False,,False,0,,,0,"Index(['6', '15', '36', '38', '43', '46', '48', '49', '53', '55', '58', '59',
       '61', '63', '77', '83', '85', '87', '93', '100', '105', '112', '115',
       '121', '127', '131', '132', '134', '135', '139', '141', '143', '144',
       '145', '150', '156', '159', '162', '173', '184', '185', '187', '196',
       '198', '202', '204', '207', '211', '214', '218', '224', '225', '231',
       '232', '234', '236', '239', '243', '246', '249', '250', '251', '257',
       '264', '265', '270', '274', '283', '297', '299'],
      dtype='object')",True,1000,True,2,8019c8d50e,0.0,0.0
./expes/v3_2021-02-05_di_300-prng-1-w1-p2,daily_issda-300,300,first-300,119,39,rng,num-start-251,251,536,classic,9.23414158821106,True,,True,1.0,1.0,1.0,1,"Index(['1', '3', '5', '6', '8', '9', '11', '16', '19', '20',
       ...
       '271', '276', '283', '284', '287', '289', '290', '295', '296', '299'],
      dtype='object', length=119)",False,1000,True,2,6cccc8405a,1.0,1.0
./expes/v3_2021-02-05_di_300-prng-1-w1-p2,daily_issda-300,300,first-300,91,30,rng,num-start-281,281,536,classic,10.463058233261108,True,,True,1.0,1.0,1.0,1,"Index(['5', '13', '15', '17', '19', '26', '29', '30', '31', '35', '39', '43',
       '44', '47', '55', '59', '70', '82', '83', '85', '86', '87', '89', '91',
       '94', '98', '107', '108', '109', '114', '117', '119', '121', '126',
       '128', '129', '137', '138', '140', '143', '156', '158', '159', '160',
       '164', '167', '175', '180', '182', '185', '186', '187', '188', '191',
       '195', '202', '205', '209', '213', '217', '221', '228', '229', '233',
       '234', '237', '239', '246', '250', '251', '256', '257', '258', '259',
       '260', '261', '262', '263', '264', '266', '268', '269', '270', '272',
       '279', '286', '287', '288', '291', '295', '298'],
      dtype='object')",False,1000,True,2,a910cf46ec,1.0,1.0
./expes/v3_2021-02-05_di_300-prng-1-w1-p2,daily_issda-300,300,first-300,119,39,rng,num-start-41,41,536,classic,1001.323233127594,False,,False,0,,,0,"Index(['1', '3', '5', '6', '8', '9', '11', '16', '19', '20',
       ...
       '271', '276', '283', '284', '287', '289', '290', '295', '296', '299'],
      dtype='object', length=119)",True,1000,True,2,5733110f5d,0.0,0.0
./expes/v3_2021-02-05_di_300-prng-1-w1-p2,daily_issda-300,300,first-300,133,44,rng,num-start-171,171,536,classic,7.182195663452148,True,,True,1.0,1.0,1.0,1,"Index(['1', '2', '4', '5', '6', '10', '13', '14', '15', '16',
       ...
       '270', '271', '277', '278', '280', '282', '285', '286', '294', '296'],
      dtype='object', length=133)",False,1000,True,2,0e45816e20,1.0,1.0
./expes/v3_2021-02-05_di_300-prng-1-w1-p2,daily_issda-300,300,first-300,112,37,rng,num-start-251,251,536,classic,9.291852235794067,True,,True,1.0,1.0,1.0,1,"Index(['4', '5', '10', '11', '14', '22', '23', '24', '29', '31',
       ...
       '266', '267', '274', '275', '281', '282', '286', '293', '294', '299'],
      dtype='object', length=112)",False,1000,True,2,409de60791,1.0,1.0
./expes/v3_2021-02-05_di_300-prng-1-w1-p2,daily_issda-300,300,first-300,42,14,rng,num-start-61,61,536,classic,6.989423036575317,True,,True,1.0,1.0,1.0,1,"Index(['1', '12', '15', '19', '24', '42', '46', '48', '49', '50', '75', '99',
       '100', '101', '102', '103', '129', '134', '136', '140', '150', '164',
       '172', '185', '186', '192', '210', '212', '218', '228', '241', '249',
       '250', '251', '258', '264', '276', '277', '284', '289', '294', '295'],
      dtype='object')",False,1000,True,2,6d548dc875,1.0,1.0
./expes/v3_2021-02-05_di_300-prng-1-w1-p2,daily_issda-300,300,first-300,21,7,rng,num-start-21,21,536,classic,1000.7411019802094,False,,False,0,,,0,"Index(['3', '6', '12', '73', '113', '114', '117', '122', '130', '133', '146',
       '152', '155', '159', '172', '186', '210', '214', '229', '241', '247'],
      dtype='object')",True,1000,True,2,0942ef4d27,0.0,0.0
./expes/v3_2021-02-05_di_300-prng-1-w1-p2,daily_issda-300,300,first-300,91,30,rng,num-start-51,51,536,classic,1001.582808971405,False,,False,0,,,0,"Index(['1', '8', '17', '20', '21', '32', '33', '36', '38', '42', '43', '46',
       '47', '48', '49', '51', '52', '56', '60', '64', '67', '72', '73', '76',
       '77', '95', '96', '97', '98', '105', '111', '112', '114', '121', '123',
       '124', '125', '129', '133', '134', '141', '142', '145', '148', '149',
       '150', '155', '156', '159', '162', '163', '164', '167', '170', '171',
       '182', '183', '184', '198', '201', '205', '208', '215', '216', '223',
       '227', '228', '230', '231', '242', '244', '245', '249', '251', '253',
       '259', '261', '262', '267', '268', '269', '273', '277', '279', '281',
       '283', '287', '291', '295', '297', '299'],
      dtype='object')",True,1000,True,2,82673b2f62,0.0,0.0
./expes/v3_2021-02-05_di_300-prng-1-w1-p2,daily_issda-300,300,first-300,28,9,rng,num-start-111,111,536,classic,3.980750322341919,True,,True,1.0,1.0,1.0,1,"Index(['8', '16', '19', '22', '31', '33', '47', '49', '73', '81', '95', '96',
       '98', '124', '156', '168', '203', '226', '229', '232', '238', '239',
       '244', '261', '263', '271', '276', '287'],
      dtype='object')",False,1000,True,2,7d50154179,1.0,1.0
./expes/v3_2021-02-05_di_300-prng-1-w1-p2,daily_issda-300,300,first-300,49,16,rng,num-start-61,61,536,classic,1001.8145105838776,False,,False,0,,,0,"Index(['11', '16', '20', '23', '30', '33', '44', '45', '46', '50', '56', '59',
       '65', '71', '73', '99', '100', '107', '108', '117', '120', '121', '127',
       '133', '137', '174', '190', '193', '194', '195', '198', '200', '206',
       '207', '209', '233', '236', '243', '249', '250', '251', '254', '255',
       '260', '265', '267', '277', '294', '298'],
      dtype='object')",True,1000,True,2,5af018979a,0.0,0.0
./expes/v3_2021-02-05_di_300-prng-1-w1-p2,daily_issda-300,300,first-300,63,21,rng,num-start-71,71,536,classic,1002.1502330303192,False,,False,0,,,0,"Index(['13', '15', '19', '29', '44', '47', '70', '82', '83', '85', '86', '87',
       '89', '91', '94', '109', '114', '119', '121', '128', '129', '138',
       '143', '156', '158', '159', '164', '167', '180', '182', '185', '186',
       '187', '191', '195', '202', '205', '213', '217', '221', '228', '229',
       '233', '234', '237', '239', '246', '250', '251', '256', '257', '258',
       '261', '262', '264', '269', '270', '272', '279', '286', '287', '291',
       '298'],
      dtype='object')",True,1000,True,2,82e854600a,0.0,0.0
./expes/v3_2021-02-05_di_300-prng-1-w1-p2,daily_issda-300,300,first-300,133,44,rng,num-start-291,291,536,classic,9.707633256912231,True,,True,1.0,1.0,1.0,1,"Index(['1', '4', '7', '8', '9', '10', '11', '12', '15', '16',
       ...
       '277', '283', '284', '286', '287', '289', '292', '294', '295', '297'],
      dtype='object', length=133)",False,1000,True,2,dd21ff1721,1.0,1.0
./expes/v3_2021-02-05_di_300-prng-1-w1-p2,daily_issda-300,300,first-300,21,7,rng,num-start-81,81,536,classic,2.858870267868042,True,,True,1.0,1.0,1.0,1,"Index(['1', '6', '31', '74', '75', '84', '108', '117', '138', '141', '174',
       '180', '189', '192', '196', '226', '236', '243', '248', '271', '286'],
      dtype='object')",False,1000,True,2,0b4e543666,1.0,1.0
./expes/v3_2021-02-05_di_300-prng-1-w1-p2,daily_issda-300,300,first-300,105,35,rng,num-start-121,121,536,classic,5.946971893310547,True,,True,1.0,1.0,1.0,1,"Index(['1', '2', '3', '5', '7', '12', '14', '15', '16', '18',
       ...
       '276', '277', '278', '281', '284', '285', '288', '292', '296', '297'],
      dtype='object', length=105)",False,1000,True,2,a32ee7dcf3,1.0,1.0
./expes/v3_2021-02-05_di_300-prng-1-w1-p2,daily_issda-300,300,first-300,42,14,rng,num-start-151,151,536,classic,5.441302061080933,True,,True,1.0,1.0,1.0,1,"Index(['8', '16', '37', '44', '61', '65', '67', '70', '72', '76', '91', '92',
       '96', '104', '110', '116', '119', '120', '132', '133', '135', '142',
       '149', '151', '161', '178', '183', '187', '220', '221', '224', '226',
       '228', '230', '231', '250', '268', '273', '275', '282', '284', '289'],
      dtype='object')",False,1000,True,2,239bea5ea6,1.0,1.0
./expes/v3_2021-02-05_di_300-prng-1-w1-p2,daily_issda-300,300,first-300,28,9,rng,num-start-241,241,536,classic,8.203429937362671,True,,True,1.0,1.0,1.0,1,"Index(['8', '16', '37', '44', '65', '67', '72', '76', '96', '110', '116',
       '119', '120', '132', '133', '135', '142', '149', '151', '183', '220',
       '221', '224', '231', '250', '273', '282', '289'],
      dtype='object')",False,1000,True,2,d8b4b5a8f5,1.0,1.0
./expes/v3_2021-02-05_di_300-prng-1-w1-p2,daily_issda-300,300,first-300,140,46,rng,num-start-161,161,536,classic,6.455794811248779,True,,True,1.0,1.0,1.0,1,"Index(['2', '3', '8', '16', '17', '18', '19', '20', '22', '23',
       ...
       '284', '285', '287', '289', '290', '292', '296', '298', '299', '300'],
      dtype='object', length=140)",False,1000,True,2,abcc96a2a8,1.0,1.0
./expes/v3_2021-02-05_di_300-prng-1-w1-p2,daily_issda-300,300,first-300,21,7,rng,num-start-31,31,536,classic,502.07905101776123,True,,True,1.0,1.0,1.0,1,"Index(['4', '21', '27', '42', '57', '68', '71', '81', '87', '96', '122', '137',
       '172', '174', '192', '195', '217', '232', '238', '258', '284'],
      dtype='object')",False,1000,True,2,34652882b2,1.0,1.0
./expes/v3_2021-02-05_di_300-prng-1-w1-p2,daily_issda-300,300,first-300,42,14,rng,num-start-121,121,536,classic,4.686587572097778,True,,True,1.0,1.0,1.0,1,"Index(['4', '59', '61', '63', '87', '90', '93', '94', '101', '102', '103',
       '104', '111', '113', '121', '122', '123', '130', '136', '139', '140',
       '152', '154', '156', '167', '172', '176', '178', '188', '208', '230',
       '235', '246', '251', '253', '260', '268', '270', '276', '283', '294',
       '295'],
      dtype='object')",False,1000,True,2,3731286a3a,1.0,1.0
./expes/v3_2021-02-05_di_300-prng-1-w1-p2,daily_issda-300,300,first-300,133,44,rng,num-start-261,261,536,classic,9.295207023620605,True,,True,1.0,1.0,1.0,1,"Index(['2', '4', '5', '9', '12', '13', '14', '21', '23', '24',
       ...
       '271', '278', '280', '281', '288', '292', '293', '296', '297', '300'],
      dtype='object', length=133)",False,1000,True,2,064ff08068,1.0,1.0
./expes/v3_2021-02-05_di_300-prng-1-w1-p2,daily_issda-300,300,first-300,140,46,rng,num-start-61,61,536,classic,1001.8512942790985,False,,False,0,,,0,"Index(['1', '7', '8', '9', '12', '14', '17', '19', '20', '21',
       ...
       '281', '283', '287', '288', '291', '292', '294', '295', '297', '299'],
      dtype='object', length=140)",True,1000,True,2,011908811c,0.0,0.0
./expes/v3_2021-02-05_di_300-prng-1-w1-p2,daily_issda-300,300,first-300,21,7,rng,num-start-281,281,536,classic,9.016775846481323,True,,True,1.0,1.0,1.0,1,"Index(['6', '9', '19', '29', '60', '76', '81', '106', '107', '118', '123',
       '135', '144', '174', '177', '182', '183', '189', '201', '239', '267'],
      dtype='object')",False,1000,True,2,eeac267b09,1.0,1.0
./expes/v3_2021-02-05_di_300-prng-1-w1-p2,daily_issda-300,300,first-300,105,35,rng,num-start-121,121,536,classic,9.317580699920654,True,,True,1.0,1.0,1.0,1,"Index(['1', '3', '5', '11', '13', '15', '17', '19', '21', '23',
       ...
       '269', '270', '272', '279', '286', '287', '288', '291', '295', '298'],
      dtype='object', length=105)",False,1000,True,2,1f7877887d,1.0,1.0
./expes/v3_2021-02-05_di_300-prng-1-w1-p2,daily_issda-300,300,first-300,133,44,rng,num-start-71,71,536,classic,1002.1608150005341,False,,False,0,,,0,"Index(['1', '2', '4', '5', '6', '10', '13', '14', '15', '16',
       ...
       '270', '271', '277', '278', '280', '282', '285', '286', '294', '296'],
      dtype='object', length=133)",True,1000,True,2,cdeb4bcf3e,0.0,0.0
./expes/v3_2021-02-05_di_300-prng-1-w1-p2,daily_issda-300,300,first-300,91,30,rng,num-start-61,61,536,classic,1001.8747596740723,False,,False,0,,,0,"Index(['7', '11', '14', '16', '18', '20', '23', '30', '33', '37', '44', '45',
       '46', '50', '56', '59', '60', '65', '70', '71', '73', '76', '77', '82',
       '83', '86', '88', '90', '99', '100', '102', '104', '107', '108', '113',
       '117', '120', '121', '125', '127', '131', '133', '137', '146', '147',
       '152', '153', '154', '159', '161', '174', '176', '177', '183', '190',
       '193', '194', '195', '198', '200', '203', '206', '207', '209', '214',
       '217', '219', '228', '233', '234', '236', '243', '249', '250', '251',
       '254', '255', '258', '260', '262', '265', '267', '271', '273', '277',
       '280', '286', '294', '297', '298', '300'],
      dtype='object')",True,1000,True,2,03ef5af0a5,0.0,0.0
./expes/v3_2021-02-05_di_300-prng-1-w1-p2,daily_issda-300,300,first-300,98,32,rng,num-start-271,271,536,classic,9.755183219909668,True,,True,1.0,1.0,1.0,1,"Index(['3', '5', '10', '11', '14', '26', '27', '28', '30', '32', '33', '36',
       '39', '42', '44', '48', '49', '57', '60', '64', '67', '71', '72', '73',
       '78', '83', '88', '90', '94', '99', '101', '102', '108', '109', '110',
       '116', '123', '124', '128', '129', '130', '133', '137', '140', '142',
       '143', '149', '156', '157', '158', '159', '160', '162', '163', '164',
       '170', '171', '172', '173', '179', '182', '185', '188', '191', '192',
       '197', '201', '206', '207', '208', '210', '213', '215', '222', '240',
       '243', '245', '246', '249', '257', '260', '268', '269', '270', '273',
       '275', '277', '278', '279', '283', '284', '285', '286', '287', '289',
       '293', '295', '297'],
      dtype='object')",False,1000,True,2,0641761747,1.0,1.0
./expes/v3_2021-02-05_di_300-prng-1-w1-p2,daily_issda-300,300,first-300,98,32,rng,num-start-161,161,536,classic,6.362632751464844,True,,True,1.0,1.0,1.0,1,"Index(['12', '20', '21', '24', '25', '26', '30', '31', '32', '33', '34', '36',
       '38', '40', '42', '45', '47', '48', '49', '50', '53', '60', '61', '64',
       '67', '69', '74', '78', '85', '87', '93', '97', '106', '110', '112',
       '114', '115', '124', '125', '127', '128', '139', '146', '148', '149',
       '154', '158', '159', '161', '166', '175', '176', '178', '180', '182',
       '186', '188', '191', '198', '201', '203', '204', '215', '216', '218',
       '219', '223', '229', '230', '233', '234', '237', '239', '243', '251',
       '253', '254', '255', '260', '263', '269', '273', '275', '277', '281',
       '283', '286', '287', '289', '290', '293', '294', '295', '296', '297',
       '298', '299', '300'],
      dtype='object')",False,1000,True,2,61fa2cd905,1.0,1.0
./expes/v3_2021-02-05_di_300-prng-1-w1-p2,daily_issda-300,300,first-300,21,7,rng,num-start-131,131,536,classic,4.642997980117798,True,,True,1.0,1.0,1.0,1,"Index(['2', '15', '33', '49', '53', '61', '69', '108', '118', '131', '137',
       '163', '195', '200', '222', '229', '231', '242', '250', '254', '292'],
      dtype='object')",False,1000,True,2,e2ce278ddc,1.0,1.0
./expes/v3_2021-02-05_di_300-prng-1-w1-p2,daily_issda-300,300,first-300,98,32,rng,num-start-101,101,536,classic,1003.0757768154144,True,,False,1.0,1.0,1.0,1,"Index(['3', '8', '17', '18', '19', '23', '33', '34', '37', '39', '41', '42',
       '50', '58', '62', '69', '72', '74', '77', '81', '82', '83', '85', '86',
       '90', '91', '92', '98', '100', '106', '115', '121', '123', '124', '125',
       '126', '128', '135', '137', '140', '141', '143', '146', '155', '156',
       '161', '164', '167', '168', '170', '178', '179', '182', '185', '186',
       '188', '192', '193', '196', '197', '200', '206', '208', '212', '213',
       '216', '220', '222', '223', '224', '226', '227', '229', '230', '231',
       '234', '237', '241', '246', '248', '251', '252', '254', '255', '256',
       '257', '267', '268', '269', '274', '275', '279', '282', '291', '293',
       '296', '299', '300'],
      dtype='object')",True,1000,True,2,1d8495f05a,0.0,1.0
./expes/v3_2021-02-05_di_300-prng-1-w1-p2,daily_issda-300,300,first-300,35,11,rng,num-start-271,271,536,classic,9.285543203353882,True,,True,1.0,1.0,1.0,1,"Index(['14', '32', '36', '42', '57', '64', '71', '72', '73', '78', '90', '101',
       '108', '128', '130', '143', '149', '156', '159', '163', '170', '188',
       '197', '206', '210', '213', '215', '243', '257', '260', '268', '273',
       '277', '283', '287'],
      dtype='object')",False,1000,True,2,4a0bccac91,1.0,1.0
./expes/v3_2021-02-05_di_300-prng-1-w1-p2,daily_issda-300,300,first-300,35,11,rng,num-start-281,281,536,classic,9.11989688873291,True,,True,1.0,1.0,1.0,1,"Index(['1', '6', '10', '31', '32', '39', '45', '47', '74', '75', '84', '103',
       '108', '115', '117', '138', '141', '173', '174', '180', '189', '192',
       '196', '208', '217', '226', '228', '236', '243', '248', '261', '263',
       '271', '286', '296'],
      dtype='object')",False,1000,True,2,3fa5da1602,1.0,1.0
./expes/v3_2021-02-05_di_300-prng-1-w1-p2,daily_issda-300,300,first-300,119,39,rng,num-start-211,211,536,classic,7.71533989906311,True,,True,1.0,1.0,1.0,1,"Index(['1', '2', '3', '5', '7', '10', '12', '15', '17', '19',
       ...
       '269', '272', '274', '277', '279', '280', '282', '289', '294', '297'],
      dtype='object', length=119)",False,1000,True,2,a7173f2841,1.0,1.0
./expes/v3_2021-02-05_di_300-prng-1-w1-p2,daily_issda-300,300,first-300,21,7,rng,num-start-91,91,536,classic,3.439112424850464,True,,True,1.0,1.0,1.0,1,"Index(['1', '6', '31', '74', '75', '84', '108', '117', '138', '141', '174',
       '180', '189', '192', '196', '226', '236', '243', '248', '271', '286'],
      dtype='object')",False,1000,True,2,f58cd657ae,1.0,1.0
./expes/v3_2021-02-05_di_300-prng-1-w1-p2,daily_issda-300,300,first-300,77,25,rng,num-start-271,271,536,classic,9.081023216247559,True,,True,1.0,1.0,1.0,1,"Index(['1', '3', '6', '8', '9', '16', '19', '22', '27', '31', '33', '35', '36',
       '38', '43', '44', '45', '47', '49', '52', '56', '61', '69', '73', '81',
       '91', '95', '96', '97', '98', '101', '102', '108', '110', '118', '120',
       '124', '127', '131', '139', '143', '148', '149', '151', '156', '160',
       '162', '168', '171', '173', '193', '198', '203', '204', '206', '209',
       '210', '215', '226', '229', '232', '235', '238', '239', '241', '244',
       '250', '256', '261', '263', '266', '271', '276', '283', '287', '289',
       '290'],
      dtype='object')",False,1000,True,2,ceb8b96a38,1.0,1.0
./expes/v3_2021-02-05_di_300-prng-1-w1-p2,daily_issda-300,300,first-300,84,28,rng,num-start-181,181,536,classic,6.5636231899261475,True,,True,1.0,1.0,1.0,1,"Index(['3', '4', '5', '6', '7', '8', '11', '12', '15', '17', '23', '24', '25',
       '34', '37', '41', '43', '45', '48', '52', '59', '63', '73', '74', '79',
       '80', '85', '89', '92', '113', '114', '115', '117', '119', '121', '122',
       '123', '125', '130', '131', '133', '145', '146', '151', '152', '155',
       '156', '159', '163', '164', '172', '179', '186', '190', '192', '202',
       '205', '208', '210', '214', '216', '217', '228', '229', '233', '234',
       '236', '238', '241', '244', '245', '247', '251', '252', '254', '256',
       '262', '265', '268', '277', '278', '289', '297', '299'],
      dtype='object')",False,1000,True,2,8c986ffaef,1.0,1.0
./expes/v3_2021-02-05_di_300-prng-1-w1-p2,daily_issda-300,300,first-300,42,14,rng,num-start-221,221,536,classic,7.43694806098938,True,,True,1.0,1.0,1.0,1,"Index(['1', '8', '21', '32', '38', '48', '49', '51', '52', '72', '76', '105',
       '112', '129', '133', '134', '145', '156', '159', '162', '170', '171',
       '182', '184', '198', '205', '208', '216', '223', '227', '242', '245',
       '249', '253', '259', '262', '267', '273', '281', '283', '287', '299'],
      dtype='object')",False,1000,True,2,7e8de218c7,1.0,1.0
./expes/v3_2021-02-05_di_300-prng-1-w1-p2,daily_issda-300,300,first-300,112,37,rng,num-start-211,211,536,classic,7.013352632522583,True,,True,1.0,1.0,1.0,1,"Index(['1', '4', '7', '9', '10', '12', '15', '16', '19', '24',
       ...
       '271', '276', '277', '284', '286', '287', '289', '292', '294', '295'],
      dtype='object', length=112)",False,1000,True,2,592120eed8,1.0,1.0
./expes/v3_2021-02-05_di_300-prng-1-w1-p2,daily_issda-300,300,first-300,98,32,rng,num-start-111,111,536,classic,9.855540037155151,True,,True,1.0,1.0,1.0,1,"Index(['2', '4', '5', '9', '12', '14', '23', '24', '35', '37', '38', '39',
       '40', '44', '47', '51', '52', '54', '56', '58', '59', '62', '65', '66',
       '69', '71', '76', '79', '82', '88', '90', '94', '99', '103', '104',
       '107', '108', '120', '126', '134', '135', '138', '141', '146', '147',
       '149', '151', '154', '155', '158', '160', '167', '168', '178', '189',
       '193', '199', '200', '202', '203', '207', '209', '211', '213', '216',
       '217', '220', '221', '224', '225', '226', '231', '232', '233', '234',
       '235', '237', '238', '239', '240', '241', '244', '246', '253', '257',
       '258', '259', '262', '267', '271', '278', '280', '281', '292', '293',
       '296', '297', '300'],
      dtype='object')",False,1000,True,2,f604a93fda,1.0,1.0
./expes/v3_2021-02-05_di_300-prng-1-w1-p2,daily_issda-300,300,first-300,14,4,rng,num-start-171,171,536,classic,5.832437038421631,True,,True,1.0,1.0,1.0,1,"Index(['4', '21', '42', '71', '87', '96', '137', '172', '174', '192', '195',
       '238', '258', '284'],
      dtype='object')",False,1000,True,2,b772334c11,1.0,1.0
./expes/v3_2021-02-05_di_300-prng-1-w1-p2,daily_issda-300,300,first-300,70,23,rng,num-start-141,141,536,classic,5.187629699707031,True,,True,1.0,1.0,1.0,1,"Index(['2', '3', '4', '5', '9', '13', '21', '22', '23', '27', '28', '29', '33',
       '36', '42', '43', '44', '45', '48', '53', '57', '58', '63', '68', '69',
       '71', '72', '75', '81', '87', '89', '96', '99', '102', '103', '104',
       '105', '108', '115', '122', '137', '139', '144', '150', '170', '172',
       '174', '175', '192', '194', '195', '197', '204', '211', '216', '217',
       '218', '232', '238', '252', '255', '257', '258', '260', '276', '277',
       '284', '285', '294', '297'],
      dtype='object')",False,1000,True,2,0fc3dddbe9,1.0,1.0
./expes/v3_2021-02-05_di_300-prng-1-w1-p2,daily_issda-300,300,first-300,140,46,rng,num-start-181,181,536,classic,6.957166433334351,True,,True,1.0,1.0,1.0,1,"Index(['1', '4', '7', '8', '9', '10', '11', '12', '15', '16',
       ...
       '277', '283', '284', '286', '287', '289', '292', '294', '295', '297'],
      dtype='object', length=140)",False,1000,True,2,624d9dbe41,1.0,1.0
./expes/v3_2021-02-05_di_300-prng-1-w1-p2,daily_issda-300,300,first-300,140,46,rng,num-start-271,271,536,classic,9.356817722320557,True,,True,1.0,1.0,1.0,1,"Index(['1', '4', '7', '8', '9', '10', '11', '12', '15', '16',
       ...
       '277', '283', '284', '286', '287', '289', '292', '294', '295', '297'],
      dtype='object', length=140)",False,1000,True,2,77ceaf4ac8,1.0,1.0
./expes/v3_2021-02-05_di_300-prng-1-w1-p2,daily_issda-300,300,first-300,112,37,rng,num-start-71,71,536,classic,1002.1122364997864,False,,False,0,,,0,"Index(['1', '6', '10', '11', '13', '15', '17', '18', '22', '35',
       ...
       '270', '272', '274', '283', '287', '288', '292', '293', '297', '299'],
      dtype='object', length=112)",True,1000,True,2,6cfaf681a0,0.0,0.0
./expes/v3_2021-02-05_di_300-prng-1-w1-p2,daily_issda-300,300,first-300,49,16,rng,num-start-221,221,536,classic,7.415129899978638,True,,True,1.0,1.0,1.0,1,"Index(['6', '9', '10', '19', '29', '34', '41', '60', '72', '76', '81', '89',
       '101', '106', '107', '115', '118', '119', '123', '135', '144', '147',
       '157', '161', '162', '174', '177', '182', '183', '185', '189', '201',
       '208', '215', '216', '225', '231', '234', '237', '239', '251', '252',
       '262', '267', '272', '274', '290', '292', '296'],
      dtype='object')",False,1000,True,2,b3765747d5,1.0,1.0
./expes/v3_2021-02-05_di_300-prng-1-w1-p2,daily_issda-300,300,first-300,84,28,rng,num-start-1,1,536,classic,2.169503688812256,False,,False,0.37983218894741627,0.3771357561870037,0.38252862170782886,2,"Index(['4', '7', '8', '11', '15', '16', '19', '22', '23', '24', '33', '34',
       '35', '40', '46', '50', '54', '56', '61', '64', '67', '69', '70', '78',
       '82', '84', '99', '109', '112', '119', '120', '121', '122', '133',
       '137', '138', '143', '144', '146', '151', '155', '159', '168', '170',
       '173', '177', '180', '188', '190', '194', '198', '199', '200', '203',
       '204', '209', '211', '213', '216', '219', '224', '228', '241', '243',
       '244', '247', '248', '254', '259', '260', '268', '274', '275', '277',
       '278', '279', '282', '283', '292', '293', '294', '296', '298', '300'],
      dtype='object')",False,1000,True,2,f79b4fe36b,1.0,1.0
./expes/v3_2021-02-05_di_300-prng-1-w1-p2,daily_issda-300,300,first-300,112,37,rng,num-start-21,21,536,classic,1000.6682803630829,False,,False,0,,,0,"Index(['1', '3', '5', '6', '8', '9', '11', '16', '19', '22',
       ...
       '271', '276', '283', '284', '287', '289', '290', '295', '296', '299'],
      dtype='object', length=112)",True,1000,True,2,63b9e69daa,0.0,0.0
./expes/v3_2021-02-05_di_300-prng-1-w1-p2,daily_issda-300,300,first-300,7,2,rng,num-start-131,131,536,classic,4.556987762451172,True,,True,1.0,1.0,1.0,1,"Index(['15', '27', '128', '131', '184', '239', '272'], dtype='object')",False,1000,True,2,1942c4a5c2,1.0,1.0
./expes/v3_2021-02-05_di_300-prng-1-w1-p2,daily_issda-300,300,first-300,105,35,rng,num-start-61,61,536,classic,1001.8355684280396,False,,False,0,,,0,"Index(['2', '3', '8', '17', '18', '19', '23', '33', '34', '37',
       ...
       '276', '278', '279', '282', '287', '291', '293', '296', '299', '300'],
      dtype='object', length=105)",True,1000,True,2,46db2460e9,0.0,0.0
./expes/v3_2021-02-05_di_300-prng-1-w1-p2,daily_issda-300,300,first-300,119,39,rng,num-start-251,251,536,classic,9.337674856185913,True,,True,1.0,1.0,1.0,1,"Index(['1', '4', '5', '6', '10', '13', '14', '15', '16', '17',
       ...
       '270', '271', '277', '278', '280', '282', '285', '286', '294', '296'],
      dtype='object', length=119)",False,1000,True,2,e37cb97d0f,1.0,1.0
./expes/v3_2021-02-05_di_300-prng-1-w1-p2,daily_issda-300,300,first-300,35,11,rng,num-start-31,31,536,classic,1001.120768070221,False,,False,0,,,0,"Index(['7', '8', '16', '22', '33', '34', '67', '69', '78', '82', '99', '119',
       '120', '122', '133', '138', '155', '188', '190', '199', '200', '203',
       '204', '219', '228', '241', '243', '244', '268', '277', '279', '282',
       '283', '296', '298'],
      dtype='object')",True,1000,True,2,079865604e,0.0,0.0
./expes/v3_2021-02-05_di_300-prng-1-w1-p2,daily_issda-300,300,first-300,140,46,rng,num-start-121,121,536,classic,15.647045850753784,True,,True,1.0,1.0,1.0,1,"Index(['3', '4', '5', '6', '7', '8', '11', '12', '15', '16',
       ...
       '270', '273', '274', '277', '278', '284', '289', '294', '297', '299'],
      dtype='object', length=140)",False,1000,True,2,7f94b2eb53,1.0,1.0
./expes/v3_2021-02-05_di_300-prng-1-w1-p2,daily_issda-300,300,first-300,21,7,rng,num-start-211,211,536,classic,7.087437391281128,True,,True,1.0,1.0,1.0,1,"Index(['20', '25', '30', '36', '38', '45', '47', '49', '78', '110', '124',
       '166', '188', '203', '215', '218', '223', '260', '275', '283', '299'],
      dtype='object')",False,1000,True,2,0839bcefdf,1.0,1.0
./expes/v3_2021-02-05_di_300-prng-1-w1-p2,daily_issda-300,300,first-300,63,21,rng,num-start-21,21,536,classic,1000.7446806430817,False,,False,0,,,0,"Index(['2', '5', '12', '14', '15', '16', '18', '33', '49', '52', '53', '61',
       '62', '69', '89', '96', '98', '108', '111', '113', '114', '118', '119',
       '120', '125', '131', '137', '146', '149', '152', '156', '163', '171',
       '177', '188', '192', '195', '196', '200', '202', '207', '213', '214',
       '217', '222', '225', '229', '231', '236', '242', '246', '250', '254',
       '256', '257', '259', '260', '271', '278', '281', '284', '285', '292'],
      dtype='object')",True,1000,True,2,20b54a05b1,0.0,0.0
./expes/v3_2021-02-05_di_300-prng-1-w1-p2,daily_issda-300,300,first-300,126,42,rng,num-start-191,191,536,classic,7.325775861740112,True,,True,1.0,1.0,1.0,1,"Index(['3', '7', '12', '20', '21', '24', '25', '26', '28', '30',
       ...
       '289', '290', '293', '294', '295', '296', '297', '298', '299', '300'],
      dtype='object', length=126)",False,1000,True,2,b01c04316d,1.0,1.0
./expes/v3_2021-02-05_di_300-prng-1-w1-p2,daily_issda-300,300,first-300,112,37,rng,num-start-11,11,536,classic,1000.3749225139618,False,,False,0,,,0,"Index(['3', '4', '5', '10', '30', '41', '45', '46', '48', '52',
       ...
       '281', '283', '285', '286', '287', '291', '293', '294', '295', '297'],
      dtype='object', length=112)",True,1000,True,2,3b468b6565,0.0,0.0
./expes/v3_2021-02-05_di_300-prng-1-w1-p2,daily_issda-300,300,first-300,7,2,rng,num-start-261,261,536,classic,8.381308317184448,True,,True,1.0,1.0,1.0,1,"Index(['47', '53', '80', '121', '156', '203', '246'], dtype='object')",False,1000,True,2,eeb3092ced,1.0,1.0
./expes/v3_2021-02-05_di_300-prng-1-w1-p2,daily_issda-300,300,first-300,77,25,rng,num-start-61,61,536,classic,1001.848069190979,False,,False,0,,,0,"Index(['6', '9', '10', '19', '25', '29', '34', '38', '41', '52', '60', '72',
       '73', '76', '78', '81', '85', '89', '92', '101', '106', '107', '115',
       '118', '119', '121', '123', '135', '140', '144', '147', '152', '157',
       '159', '160', '161', '162', '163', '173', '174', '177', '182', '183',
       '185', '189', '199', '200', '201', '203', '206', '208', '215', '216',
       '225', '227', '231', '234', '237', '239', '240', '243', '244', '251',
       '252', '253', '254', '257', '258', '262', '267', '272', '274', '279',
       '285', '290', '292', '296'],
      dtype='object')",True,1000,True,2,5a7d6e3942,0.0,0.0
./expes/v3_2021-02-05_di_300-prng-1-w1-p2,daily_issda-300,300,first-300,91,30,rng,num-start-281,281,536,classic,10.166682243347168,True,,True,1.0,1.0,1.0,1,"Index(['2', '8', '16', '20', '22', '23', '36', '37', '38', '44', '48', '58',
       '61', '65', '67', '68', '70', '71', '72', '73', '76', '82', '85', '86',
       '91', '92', '94', '96', '99', '100', '104', '109', '110', '116', '119',
       '120', '121', '122', '129', '130', '132', '133', '135', '142', '144',
       '149', '151', '152', '160', '161', '175', '176', '178', '180', '183',
       '184', '187', '188', '191', '192', '200', '203', '212', '218', '220',
       '221', '224', '226', '228', '230', '231', '236', '238', '250', '252',
       '255', '267', '268', '270', '273', '275', '279', '282', '284', '285',
       '289', '290', '292', '296', '298', '299'],
      dtype='object')",False,1000,True,2,1d6c1640a2,1.0,1.0
./expes/v3_2021-02-05_di_300-prng-1-w1-p2,daily_issda-300,300,first-300,35,11,rng,num-start-291,291,536,classic,9.775467872619629,True,,True,1.0,1.0,1.0,1,"Index(['11', '16', '23', '33', '44', '46', '50', '59', '65', '71', '99', '108',
       '117', '120', '127', '133', '137', '190', '193', '194', '195', '198',
       '200', '206', '207', '209', '233', '236', '243', '249', '250', '254',
       '260', '267', '294'],
      dtype='object')",False,1000,True,2,66232da2a7,1.0,1.0
./expes/v3_2021-02-05_di_300-prng-1-w1-p2,daily_issda-300,300,first-300,133,44,rng,num-start-141,141,536,classic,7.762588977813721,True,,True,1.0,1.0,1.0,1,"Index(['2', '4', '5', '9', '12', '13', '14', '21', '23', '24',
       ...
       '271', '278', '280', '281', '288', '292', '293', '296', '297', '300'],
      dtype='object', length=133)",False,1000,True,2,5e0f55753a,1.0,1.0
./expes/v3_2021-02-05_di_300-prng-1-w1-p2,daily_issda-300,300,first-300,21,7,rng,num-start-71,71,536,classic,2.990516424179077,True,,True,1.0,1.0,1.0,1,"Index(['8', '16', '37', '44', '65', '67', '72', '76', '96', '110', '116',
       '119', '133', '135', '142', '149', '151', '221', '224', '231', '273'],
      dtype='object')",False,1000,True,2,63e075465e,1.0,1.0
./expes/v3_2021-02-05_di_300-prng-1-w1-p2,daily_issda-300,300,first-300,84,28,rng,num-start-91,91,536,classic,1002.7252352237701,False,,False,0,,,0,"Index(['6', '10', '11', '15', '35', '36', '38', '43', '46', '48', '49', '53',
       '55', '58', '59', '61', '63', '74', '77', '83', '85', '87', '93', '100',
       '105', '112', '115', '121', '127', '131', '132', '134', '135', '137',
       '139', '141', '143', '144', '145', '150', '156', '159', '162', '173',
       '178', '183', '184', '185', '187', '189', '196', '198', '202', '204',
       '207', '208', '211', '214', '217', '218', '224', '225', '226', '231',
       '232', '234', '236', '239', '242', '243', '246', '249', '250', '251',
       '257', '264', '265', '270', '274', '283', '292', '293', '297', '299'],
      dtype='object')",True,1000,True,2,45b501c0ea,0.0,0.0
./expes/v3_2021-02-05_di_300-prng-1-w1-p2,daily_issda-300,300,first-300,63,21,rng,num-start-121,121,536,classic,5.285481691360474,True,,True,1.0,1.0,1.0,1,"Index(['1', '8', '21', '32', '33', '38', '42', '47', '48', '49', '51', '52',
       '56', '64', '72', '73', '76', '98', '105', '112', '114', '123', '125',
       '129', '133', '134', '145', '148', '150', '155', '156', '159', '162',
       '164', '167', '170', '171', '182', '184', '198', '205', '208', '216',
       '223', '227', '230', '242', '245', '249', '251', '253', '259', '261',
       '262', '267', '273', '277', '279', '281', '283', '287', '291', '299'],
      dtype='object')",False,1000,True,2,a5358c7fa9,1.0,1.0
./expes/v3_2021-02-05_di_300-prng-1-w1-p2,daily_issda-300,300,first-300,42,14,rng,num-start-61,61,536,classic,1001.8917691707611,True,,False,1.0,1.0,1.0,1,"Index(['13', '15', '19', '29', '44', '47', '70', '82', '85', '87', '89', '91',
       '94', '109', '119', '121', '129', '138', '158', '164', '167', '182',
       '185', '187', '191', '195', '202', '213', '217', '221', '228', '229',
       '239', '258', '261', '262', '264', '269', '270', '279', '287', '298'],
      dtype='object')",True,1000,True,2,89a28f22f8,0.0,1.0
./expes/v3_2021-02-05_di_300-prng-1-w1-p2,daily_issda-300,300,first-300,21,7,rng,num-start-11,11,536,classic,1000.3784818649292,False,,False,0,,,0,"Index(['20', '25', '30', '36', '38', '45', '47', '49', '78', '110', '124',
       '166', '188', '203', '215', '218', '223', '260', '275', '283', '299'],
      dtype='object')",True,1000,True,2,723abd6b47,0.0,0.0
./expes/v3_2021-02-05_di_300-prng-1-w1-p2,daily_issda-300,300,first-300,126,42,rng,num-start-131,131,536,classic,5.6390745639801025,True,,True,1.0,1.0,1.0,1,"Index(['2', '3', '8', '16', '17', '19', '20', '22', '23', '24',
       ...
       '282', '284', '285', '287', '289', '290', '292', '296', '298', '299'],
      dtype='object', length=126)",False,1000,True,2,a035ac0566,1.0,1.0
./expes/v3_2021-02-05_di_300-prng-1-w1-p2,daily_issda-300,300,first-300,7,2,rng,num-start-41,41,536,classic,1.4962773323059082,True,,True,1.0,1.0,1.0,1,"Index(['4', '71', '96', '137', '174', '192', '238'], dtype='object')",False,1000,True,2,12ae47718f,1.0,1.0
./expes/v3_2021-02-05_di_300-prng-1-w1-p2,daily_issda-300,300,first-300,119,39,rng,num-start-81,81,536,classic,1002.3658366203308,False,,False,0,,,0,"Index(['3', '4', '5', '10', '30', '34', '40', '41', '45', '46',
       ...
       '281', '283', '285', '286', '287', '291', '293', '294', '295', '297'],
      dtype='object', length=119)",True,1000,True,2,8302681a1f,0.0,0.0
./expes/v3_2021-02-05_di_300-prng-1-w1-p2,daily_issda-300,300,first-300,91,30,rng,num-start-281,281,536,classic,9.640908479690552,True,,True,1.0,1.0,1.0,1,"Index(['7', '11', '14', '16', '18', '20', '23', '30', '33', '37', '44', '45',
       '46', '50', '56', '59', '60', '65', '70', '71', '73', '76', '77', '82',
       '83', '86', '88', '90', '99', '100', '102', '104', '107', '108', '113',
       '117', '120', '121', '125', '127', '131', '133', '137', '146', '147',
       '152', '153', '154', '159', '161', '174', '176', '177', '183', '190',
       '193', '194', '195', '198', '200', '203', '206', '207', '209', '214',
       '217', '219', '228', '233', '234', '236', '243', '249', '250', '251',
       '254', '255', '258', '260', '262', '265', '267', '271', '273', '277',
       '280', '286', '294', '297', '298', '300'],
      dtype='object')",False,1000,True,2,c5757f21f9,1.0,1.0
./expes/v3_2021-02-05_di_300-prng-1-w1-p2,daily_issda-300,300,first-300,126,42,rng,num-start-111,111,536,classic,672.1434645652771,True,,True,1.0,1.0,1.0,1,"Index(['2', '3', '8', '13', '17', '18', '19', '23', '26', '33',
       ...
       '278', '279', '282', '287', '291', '293', '295', '296', '299', '300'],
      dtype='object', length=126)",False,1000,True,2,c5fc569681,1.0,1.0
./expes/v3_2021-02-05_di_300-prng-1-w1-p2,daily_issda-300,300,first-300,63,21,rng,num-start-251,251,536,classic,8.416879415512085,True,,True,1.0,1.0,1.0,1,"Index(['1', '3', '8', '9', '16', '19', '22', '27', '31', '33', '35', '36',
       '38', '43', '44', '47', '49', '56', '73', '81', '95', '96', '98', '101',
       '102', '108', '110', '118', '120', '124', '131', '143', '148', '149',
       '151', '156', '162', '168', '193', '198', '203', '204', '206', '209',
       '215', '226', '229', '232', '235', '238', '239', '241', '244', '256',
       '261', '263', '266', '271', '276', '283', '287', '289', '290'],
      dtype='object')",False,1000,True,2,5eb2915f20,1.0,1.0
./expes/v3_2021-02-05_di_300-prng-1-w1-p2,daily_issda-300,300,first-300,63,21,rng,num-start-11,11,536,classic,1000.3622601032257,False,,False,0,,,0,"Index(['4', '46', '52', '59', '61', '63', '68', '75', '83', '87', '90', '93',
       '94', '98', '101', '102', '103', '104', '106', '111', '113', '121',
       '122', '123', '130', '133', '136', '139', '140', '145', '152', '154',
       '156', '167', '172', '174', '176', '178', '188', '208', '209', '224',
       '230', '235', '241', '245', '246', '251', '252', '253', '254', '257',
       '260', '263', '268', '270', '274', '276', '279', '283', '291', '294',
       '295'],
      dtype='object')",True,1000,True,2,0ca61b4c62,0.0,0.0
./expes/v3_2021-02-05_di_300-prng-1-w1-p2,daily_issda-300,300,first-300,112,37,rng,num-start-41,41,536,classic,1001.2001180648804,False,,False,0,,,0,"Index(['4', '6', '7', '8', '11', '12', '15', '16', '17', '19',
       ...
       '282', '283', '287', '292', '293', '294', '296', '297', '298', '300'],
      dtype='object', length=112)",True,1000,True,2,84e1f15fe9,0.0,0.0
