expe,clients,clients_size,clients_subset,agg_size,agg_size_pc,method,days,days_size,days_total,noise_method,time,valid,valid_sum,success,score_avg,score_min,score_max,nsols,oracle,wall_hit,wall_time,pooled,pool_size,uuid,optimal,valid_sums
./expes/v3_2021-02-09_hi_2000-prng-1-w5-p100,30_issda-2000,2000,first-2000,400,20,rng,num-start-11,11,25726,classic,5002.32371711731,False,,False,0,,,0,"Index(['5', '6', '15', '18', '34', '35', '39', '45', '47', '51',
       ...
       '1960', '1963', '1970', '1973', '1977', '1981', '1983', '1987', '1989',
       '1993'],
      dtype='object', length=400)",True,5000,True,100,facc35d02b,0.0,0.0
./expes/v3_2021-02-09_hi_2000-prng-1-w5-p100,30_issda-2000,2000,first-2000,300,15,rng,num-start-15300,15300,25726,classic,8063.430929899216,True,,False,1.0,1.0,1.0,1,"Index(['6', '10', '19', '24', '31', '32', '35', '36', '39', '59',
       ...
       '1935', '1936', '1938', '1942', '1965', '1967', '1971', '1977', '1982',
       '2000'],
      dtype='object', length=300)",True,5000,True,100,9b4030773b,0.0,1.0
./expes/v3_2021-02-09_hi_2000-prng-1-w5-p100,30_issda-2000,2000,first-2000,650,32,rng,num-start-4800,4800,25726,classic,3382.530214071274,True,,True,1.0,1.0,1.0,1,"Index(['2', '7', '8', '11', '12', '14', '15', '17', '18', '20',
       ...
       '1975', '1976', '1980', '1982', '1984', '1985', '1988', '1997', '1998',
       '2000'],
      dtype='object', length=650)",False,5000,True,100,14cefc015a,1.0,1.0
./expes/v3_2021-02-09_hi_2000-prng-1-w5-p100,30_issda-2000,2000,first-2000,500,25,rng,num-start-4800,4800,25726,classic,2788.584703683853,True,,True,1.0,1.0,1.0,1,"Index(['7', '10', '14', '25', '28', '35', '41', '46', '47', '53',
       ...
       '1961', '1964', '1971', '1977', '1978', '1981', '1983', '1987', '1993',
       '1997'],
      dtype='object', length=500)",False,5000,True,100,fc15207d77,1.0,1.0
