expe,clients,clients_size,clients_subset,agg_size,agg_size_pc,method,days,days_size,days_total,noise_method,time,valid,valid_sum,success,score_avg,score_min,score_max,nsols,oracle,wall_hit,wall_time,pooled,pool_size,uuid,optimal,valid_sums
./expes/v3_2021-02-09_hi_2000-prng-1-w5-p100,30_issda-2000,2000,first-2000,550,27,rng,num-start-161,161,25726,classic,5031.103894710541,False,,False,0,,,0,"Index(['4', '8', '10', '11', '15', '16', '24', '27', '32', '37',
       ...
       '1973', '1975', '1976', '1978', '1985', '1989', '1990', '1991', '1993',
       '1997'],
      dtype='object', length=550)",True,5000,True,100,688e6e28b1,0.0,0.0
./expes/v3_2021-02-09_hi_2000-prng-1-w5-p100,30_issda-2000,2000,first-2000,150,7,rng,num-start-61,61,25726,classic,5011.700587272644,False,,False,0,,,0,"Index(['4', '7', '11', '19', '27', '38', '45', '47', '60', '96',
       ...
       '1945', '1955', '1957', '1967', '1970', '1977', '1980', '1984', '1992',
       '1998'],
      dtype='object', length=150)",True,5000,True,100,053f1e2d64,0.0,0.0
./expes/v3_2021-02-09_hi_2000-prng-1-w5-p100,30_issda-2000,2000,first-2000,250,12,rng,num-start-7800,7800,25726,classic,4692.537513256073,True,,True,1.0,1.0,1.0,1,"Index(['4', '9', '18', '44', '49', '50', '52', '57', '64', '66',
       ...
       '1933', '1942', '1945', '1955', '1956', '1958', '1961', '1964', '1970',
       '1989'],
      dtype='object', length=250)",False,5000,True,100,28a34ced27,1.0,1.0
./expes/v3_2021-02-09_hi_2000-prng-1-w5-p100,30_issda-2000,2000,first-2000,600,30,rng,num-start-51,51,25726,classic,5010.986836194992,False,,False,0,,,0,"Index(['5', '7', '8', '9', '11', '12', '20', '24', '27', '30',
       ...
       '1958', '1963', '1965', '1970', '1982', '1983', '1987', '1989', '1990',
       '1996'],
      dtype='object', length=600)",True,5000,True,100,92c486a65f,0.0,0.0
./expes/v3_2021-02-09_hi_2000-prng-1-w5-p100,30_issda-2000,2000,first-2000,250,12,rng,num-start-131,131,25726,classic,5026.218463897705,False,,False,0,,,0,"Index(['15', '24', '27', '32', '42', '44', '46', '56', '59', '64',
       ...
       '1944', '1956', '1961', '1964', '1973', '1975', '1976', '1978', '1990',
       '1993'],
      dtype='object', length=250)",True,5000,True,100,23394ab8c2,0.0,0.0
./expes/v3_2021-02-09_hi_2000-prng-1-w5-p100,30_issda-2000,2000,first-2000,500,25,rng,num-start-4800,4800,25726,classic,3332.023721933365,True,,True,1.0,1.0,1.0,1,"Index(['1', '3', '4', '5', '7', '19', '26', '28', '29', '30',
       ...
       '1969', '1973', '1974', '1978', '1980', '1982', '1983', '1988', '1996',
       '2000'],
      dtype='object', length=500)",False,5000,True,100,79c818fd49,1.0,1.0
./expes/v3_2021-02-09_hi_2000-prng-1-w5-p100,30_issda-2000,2000,first-2000,600,30,rng,num-start-7800,7800,25726,classic,5851.836915969849,True,,True,1.0,1.0,1.0,1,"Index(['4', '8', '13', '14', '16', '18', '23', '26', '27', '35',
       ...
       '1968', '1971', '1972', '1975', '1978', '1982', '1989', '1990', '1992',
       '2000'],
      dtype='object', length=600)",False,5000,True,100,404af7dd98,1.0,1.0
