expe,clients,clients_size,clients_subset,agg_size,method,days,days_size,days_total,time,valid,valid_sum,success,nsols,wall_hit,wall_time,pooled,valid_sums
./expes/v2_2020-12-01_dh_3000-prng-1,30_issda_2000,2000,rng-2000,501,rng,num-start-4001,4001,25726,1481.566568851471,False,,False,1,True,1000,True,0.0
./expes/v2_2020-12-01_dh_3000-prng-1,30_issda_2000,2000,rng-2000,1,rng,num-start-5001,5001,25726,649.43177485466,True,,True,1,False,1000,True,1.0
./expes/v2_2020-12-01_dh_3000-prng-1,30_issda_2000,2000,rng-2000,1,rng,num-start-8001,8001,25726,1037.1337368488312,True,,True,1,False,1000,True,1.0
./expes/v2_2020-12-01_dh_3000-prng-1,30_issda_2000,2000,rng-2000,1001,rng,num-start-3001,3001,25726,1389.3713419437408,False,,False,1,True,1000,True,0.0
./expes/v2_2020-12-01_dh_3000-prng-1,30_issda_2000,2000,rng-2000,1501,rng,num-start-2001,2001,25726,1247.3840656280518,False,,False,1,True,1000,True,0.0
./expes/v2_2020-12-01_dh_3000-prng-1,30_issda_2000,2000,rng-2000,1001,rng,num-start-13001,13001,25726,2670.9409885406494,False,,False,1,True,1000,True,0.0
./expes/v2_2020-12-01_dh_3000-prng-1,30_issda_2000,2000,rng-2000,1,rng,num-start-12001,12001,25726,1543.193526983261,True,,True,1,False,1000,True,1.0
./expes/v2_2020-12-01_dh_3000-prng-1,30_issda_2000,2000,rng-2000,1501,rng,num-start-6001,6001,25726,1736.312347650528,False,,False,1,True,1000,True,0.0
./expes/v2_2020-12-01_dh_3000-prng-1,30_issda_2000,2000,rng-2000,1,rng,num-start-2001,2001,25726,257.9149241447449,True,,True,1,False,1000,True,1.0
./expes/v2_2020-12-01_dh_3000-prng-1,30_issda_2000,2000,rng-2000,1501,rng,num-start-4001,4001,25726,1514.4001994132996,False,,False,1,True,1000,True,0.0
./expes/v2_2020-12-01_dh_3000-prng-1,30_issda_2000,2000,rng-2000,501,rng,num-start-8001,8001,25726,2004.592809677124,False,,False,1,True,1000,True,0.0
./expes/v2_2020-12-01_dh_3000-prng-1,30_issda_2000,2000,rng-2000,1,rng,num-start-2001,2001,25726,256.0136470794678,True,,True,1,False,1000,True,1.0
./expes/v2_2020-12-01_dh_3000-prng-1,30_issda_2000,2000,rng-2000,1001,rng,num-start-1001,1001,25726,1124.9383704662323,False,,False,1,True,1000,True,0.0
./expes/v2_2020-12-01_dh_3000-prng-1,30_issda_2000,2000,rng-2000,501,rng,num-start-12001,12001,25726,2529.5873141288757,False,,False,1,True,1000,True,0.0
./expes/v2_2020-12-01_dh_3000-prng-1,30_issda_2000,2000,rng-2000,1,rng,num-start-11001,11001,25726,1411.0949358940125,True,,True,1,False,1000,True,1.0
./expes/v2_2020-12-01_dh_3000-prng-1,30_issda_2000,2000,rng-2000,1,rng,num-start-4001,4001,25726,518.3233044147491,True,,True,1,False,1000,True,1.0
./expes/v2_2020-12-01_dh_3000-prng-1,30_issda_2000,2000,rng-2000,501,rng,num-start-12001,12001,25726,2543.950966358185,False,,False,1,True,1000,True,0.0
./expes/v2_2020-12-01_dh_3000-prng-1,30_issda_2000,2000,rng-2000,501,rng,num-start-5001,5001,25726,1630.7273197174072,False,,False,1,True,1000,True,0.0
./expes/v2_2020-12-01_dh_3000-prng-1,30_issda_2000,2000,rng-2000,1001,rng,num-start-6001,6001,25726,1767.3036005496979,False,,False,1,True,1000,True,0.0
./expes/v2_2020-12-01_dh_3000-prng-1,30_issda_2000,2000,rng-2000,1501,rng,num-start-1,1,25726,0.26892828941345215,False,,False,2,False,1000,True,1.0
./expes/v2_2020-12-01_dh_3000-prng-1,30_issda_2000,2000,rng-2000,1501,rng,num-start-12001,12001,25726,2553.73451423645,False,,False,1,True,1000,True,0.0
./expes/v2_2020-12-01_dh_3000-prng-1,30_issda_2000,2000,rng-2000,1,rng,num-start-14001,14001,25726,1750.587728023529,True,,True,1,False,1000,True,1.0
./expes/v2_2020-12-01_dh_3000-prng-1,30_issda_2000,2000,rng-2000,1001,rng,num-start-6001,6001,25726,1765.9320652484894,False,,False,1,True,1000,True,0.0
./expes/v2_2020-12-01_dh_3000-prng-1,30_issda_2000,2000,rng-2000,501,rng,num-start-10001,10001,25726,2273.9972393512726,False,,False,1,True,1000,True,0.0
./expes/v2_2020-12-01_dh_3000-prng-1,30_issda_2000,2000,rng-2000,1001,rng,num-start-10001,10001,25726,2314.726557970047,False,,False,1,True,1000,True,0.0
