,expe,clients,clients_size,clients_subset,agg_size,agg_size_pc,method,days,days_size,days_total,noise_method,time,valid,valid_sum,success,score_avg,score_min,score_max,nsols,oracle,wall_hit,wall_time,pooled,pool_size,optimal,valid_sums,uuid
0,./expes/v3_2021-01-29_di_300-prng-1-w1-p100,daily_issda-300,300,first-300,14,4,rng,num-start-231,231,536,classic,7.826191902160644,True,,True,1.0,1.0,1.0,1,"Index(['63', '93', '94', '101', '102', '123', '136', '152', '172', '230',
       '235', '246', '251', '253'],
      dtype='object')",False,1000,True,100,1.0,1.0,6db1bf5002
1,./expes/v3_2021-01-29_di_300-prng-1-w1-p100,daily_issda-300,300,first-300,126,42,rng,num-start-51,51,536,classic,1001.60174202919,False,,False,0.0,,,0,"Index(['1', '2', '3', '5', '7', '8', '9', '12', '14', '15',
       ...
       '281', '282', '283', '284', '285', '288', '292', '296', '297', '300'],
      dtype='object', length=126)",True,1000,True,100,0.0,0.0,4cfbfd5411
2,./expes/v3_2021-01-29_di_300-prng-1-w1-p100,daily_issda-300,300,first-300,42,14,rng,num-start-121,121,536,classic,4.447013378143311,True,,True,1.0,1.0,1.0,1,"Index(['4', '11', '14', '31', '35', '45', '46', '47', '53', '55', '80', '85',
       '89', '92', '100', '110', '114', '121', '127', '128', '134', '135',
       '140', '142', '144', '149', '154', '156', '159', '173', '185', '191',
       '199', '203', '206', '243', '246', '260', '267', '275', '281', '282'],
      dtype='object')",False,1000,True,100,1.0,1.0,48334351cf
3,./expes/v3_2021-01-29_di_300-prng-1-w1-p100,daily_issda-300,300,first-300,126,42,rng,num-start-141,141,536,classic,9.622838020324709,True,,True,1.0,1.0,1.0,1,"Index(['1', '3', '5', '6', '8', '9', '11', '16', '19', '20',
       ...
       '271', '276', '283', '284', '287', '289', '290', '295', '296', '299'],
      dtype='object', length=126)",False,1000,True,100,1.0,1.0,abd5170528
4,./expes/v3_2021-01-29_di_300-prng-1-w1-p100,daily_issda-300,300,first-300,84,28,rng,num-start-111,111,536,classic,7.814813137054443,True,,True,1.0,1.0,1.0,1,"Index(['6', '10', '11', '15', '35', '36', '38', '43', '46', '48', '49', '53',
       '55', '58', '59', '61', '63', '74', '77', '83', '85', '87', '93', '100',
       '105', '112', '115', '121', '127', '131', '132', '134', '135', '137',
       '139', '141', '143', '144', '145', '150', '156', '159', '162', '173',
       '178', '183', '184', '185', '187', '189', '196', '198', '202', '204',
       '207', '208', '211', '214', '217', '218', '224', '225', '226', '231',
       '232', '234', '236', '239', '242', '243', '246', '249', '250', '251',
       '257', '264', '265', '270', '274', '283', '292', '293', '297', '299'],
      dtype='object')",False,1000,True,100,1.0,1.0,fa8ed17b26
5,./expes/v3_2021-01-29_di_300-prng-1-w1-p100,daily_issda-300,300,first-300,84,28,rng,num-start-31,31,536,classic,1001.004154920578,False,,False,0.0,,,0,"Index(['20', '21', '24', '25', '26', '30', '31', '32', '33', '34', '36', '38',
       '40', '42', '45', '47', '48', '49', '50', '53', '61', '64', '69', '74',
       '78', '85', '93', '97', '106', '110', '114', '115', '124', '125', '128',
       '139', '148', '149', '154', '158', '159', '161', '166', '175', '176',
       '180', '186', '188', '191', '203', '204', '215', '216', '218', '219',
       '223', '230', '233', '234', '239', '243', '251', '254', '255', '260',
       '263', '269', '273', '275', '277', '281', '283', '286', '287', '289',
       '290', '293', '294', '295', '296', '297', '298', '299', '300'],
      dtype='object')",True,1000,True,100,0.0,0.0,d041e5b2fb
6,./expes/v3_2021-01-29_di_300-prng-1-w1-p100,daily_issda-300,300,first-300,14,4,rng,num-start-241,241,536,classic,8.305469751358032,True,,True,1.0,1.0,1.0,1,"Index(['15', '33', '49', '61', '69', '108', '131', '195', '200', '231', '242',
       '250', '254', '292'],
      dtype='object')",False,1000,True,100,1.0,1.0,7f05df9052
7,./expes/v3_2021-01-29_di_300-prng-1-w1-p100,daily_issda-300,300,first-300,28,9,rng,num-start-51,51,536,classic,4.668158054351807,True,,True,1.0,1.0,1.0,1,"Index(['14', '32', '57', '64', '71', '72', '78', '90', '101', '108', '128',
       '130', '143', '149', '156', '163', '170', '188', '197', '206', '213',
       '215', '257', '268', '273', '277', '283', '287'],
      dtype='object')",False,1000,True,100,1.0,1.0,69afb94890
8,./expes/v3_2021-01-29_di_300-prng-1-w1-p100,daily_issda-300,300,first-300,112,37,rng,num-start-71,71,536,classic,1002.2422831058502,False,,False,0.0,,,0,"Index(['2', '4', '5', '9', '12', '13', '14', '21', '23', '24',
       ...
       '269', '271', '278', '280', '281', '292', '293', '296', '297', '300'],
      dtype='object', length=112)",True,1000,True,100,0.0,0.0,2ec6e2ec55
9,./expes/v3_2021-01-29_di_300-prng-1-w1-p100,daily_issda-300,300,first-300,133,44,rng,num-start-131,131,536,classic,4.898802042007446,True,,True,1.0,1.0,1.0,1,"Index(['1', '2', '3', '4', '5', '7', '8', '9', '10', '13',
       ...
       '277', '284', '285', '287', '288', '290', '294', '295', '297', '300'],
      dtype='object', length=133)",False,1000,True,100,1.0,1.0,31c02369e2
10,./expes/v3_2021-01-29_di_300-prng-1-w1-p100,daily_issda-300,300,first-300,63,21,rng,num-start-11,11,536,classic,1000.3602197170258,False,,False,0.0,,,0,"Index(['2', '4', '9', '12', '14', '23', '37', '38', '47', '51', '54', '56',
       '59', '62', '69', '71', '76', '82', '94', '99', '103', '104', '107',
       '120', '126', '134', '138', '149', '154', '160', '167', '168', '178',
       '189', '199', '200', '202', '203', '209', '211', '213', '217', '220',
       '226', '233', '234', '235', '239', '246', '253', '257', '258', '262',
       '267', '271', '278', '280', '281', '292', '293', '296', '297', '300'],
      dtype='object')",True,1000,True,100,0.0,0.0,91b1f250ac
11,./expes/v3_2021-01-29_di_300-prng-1-w1-p100,daily_issda-300,300,first-300,49,16,rng,num-start-161,161,536,classic,5.981212615966797,True,,True,1.0,1.0,1.0,1,"Index(['13', '15', '19', '29', '44', '47', '70', '82', '83', '85', '87', '89',
       '91', '94', '109', '119', '121', '128', '129', '138', '158', '164',
       '167', '182', '185', '186', '187', '191', '195', '202', '205', '213',
       '217', '221', '228', '229', '237', '239', '251', '258', '261', '262',
       '264', '269', '270', '272', '279', '287', '298'],
      dtype='object')",False,1000,True,100,1.0,1.0,1b0ca25812
12,./expes/v3_2021-01-29_di_300-prng-1-w1-p100,daily_issda-300,300,first-300,98,32,rng,num-start-221,221,536,classic,8.042712211608887,True,,True,1.0,1.0,1.0,1,"Index(['3', '4', '5', '10', '41', '45', '46', '48', '52', '59', '61', '63',
       '65', '67', '68', '69', '74', '75', '76', '78', '83', '84', '87', '90',
       '93', '94', '98', '101', '102', '103', '104', '105', '106', '111',
       '113', '121', '122', '123', '128', '130', '132', '133', '136', '139',
       '140', '145', '152', '154', '155', '156', '167', '172', '174', '176',
       '178', '181', '185', '188', '198', '202', '204', '205', '208', '209',
       '214', '217', '219', '223', '224', '230', '235', '241', '245', '246',
       '251', '252', '253', '254', '257', '260', '263', '264', '268', '270',
       '273', '274', '276', '278', '279', '281', '283', '285', '287', '291',
       '293', '294', '295', '297'],
      dtype='object')",False,1000,True,100,1.0,1.0,64aaa4f98f
13,./expes/v3_2021-01-29_di_300-prng-1-w1-p100,daily_issda-300,300,first-300,77,25,rng,num-start-81,81,536,classic,1002.4679992198944,False,,False,0.0,,,0,"Index(['7', '11', '16', '20', '23', '30', '33', '37', '44', '45', '46', '50',
       '56', '59', '65', '70', '71', '73', '76', '77', '82', '99', '100',
       '102', '107', '108', '113', '117', '120', '121', '125', '127', '133',
       '137', '146', '147', '152', '159', '161', '174', '176', '177', '183',
       '190', '193', '194', '195', '198', '200', '206', '207', '209', '219',
       '228', '233', '234', '236', '243', '249', '250', '251', '254', '255',
       '258', '260', '262', '265', '267', '271', '273', '277', '280', '286',
       '294', '297', '298', '300'],
      dtype='object')",True,1000,True,100,0.0,0.0,dfe912195f
14,./expes/v3_2021-01-29_di_300-prng-1-w1-p100,daily_issda-300,300,first-300,35,11,rng,num-start-281,281,536,classic,9.109481811523438,True,,True,1.0,1.0,1.0,1,"Index(['20', '24', '25', '26', '30', '31', '32', '36', '38', '45', '47', '49',
       '64', '69', '78', '110', '114', '115', '124', '149', '166', '188',
       '203', '204', '215', '218', '223', '260', '275', '283', '286', '290',
       '296', '299', '300'],
      dtype='object')",False,1000,True,100,1.0,1.0,16a0979adf
15,./expes/v3_2021-01-29_di_300-prng-1-w1-p100,daily_issda-300,300,first-300,7,2,rng,num-start-271,271,536,classic,8.906288385391235,True,,True,1.0,1.0,1.0,1,"Index(['8', '17', '106', '220', '248', '293', '296'], dtype='object')",False,1000,True,100,1.0,1.0,8b8a1a0b05
16,./expes/v3_2021-01-29_di_300-prng-1-w1-p100,daily_issda-300,300,first-300,140,46,rng,num-start-91,91,536,classic,1002.734584569931,False,,False,0.0,,,0,"Index(['1', '7', '8', '9', '12', '14', '17', '19', '20', '21',
       ...
       '281', '283', '287', '288', '291', '292', '294', '295', '297', '299'],
      dtype='object', length=140)",True,1000,True,100,0.0,0.0,fbf05161ca
17,./expes/v3_2021-01-29_di_300-prng-1-w1-p100,daily_issda-300,300,first-300,140,46,rng,num-start-201,201,536,classic,8.633003234863281,True,,True,1.0,1.0,1.0,1,"Index(['3', '4', '5', '6', '7', '8', '11', '12', '15', '16',
       ...
       '270', '273', '274', '277', '278', '284', '289', '294', '297', '299'],
      dtype='object', length=140)",False,1000,True,100,1.0,1.0,f3e98d2b00
18,./expes/v3_2021-01-29_di_300-prng-1-w1-p100,daily_issda-300,300,first-300,14,4,rng,num-start-1,1,536,classic,586.496354341507,False,,True,0.7049656690526811,0.6939845021084181,0.7413696999440642,10000,"Index(['8', '17', '18', '83', '106', '143', '220', '237', '248', '251', '252',
       '267', '293', '296'],
      dtype='object')",False,1000,True,100,1.0,1.0,de992d1d7f
19,./expes/v3_2021-01-29_di_300-prng-1-w1-p100,daily_issda-300,300,first-300,7,2,rng,num-start-161,161,536,classic,5.419329643249512,True,,True,1.0,1.0,1.0,1,"Index(['63', '93', '102', '123', '172', '230', '251'], dtype='object')",False,1000,True,100,1.0,1.0,3c99c31d5e
20,./expes/v3_2021-01-29_di_300-prng-1-w1-p100,daily_issda-300,300,first-300,21,7,rng,num-start-231,231,536,classic,7.270032167434692,True,,True,1.0,1.0,1.0,1,"Index(['1', '6', '31', '74', '75', '84', '108', '117', '138', '141', '174',
       '180', '189', '192', '196', '226', '236', '243', '248', '271', '286'],
      dtype='object')",False,1000,True,100,1.0,1.0,cb9eee3767
21,./expes/v3_2021-01-29_di_300-prng-1-w1-p100,daily_issda-300,300,first-300,7,2,rng,num-start-71,71,536,classic,2.355296850204468,True,,True,1.0,1.0,1.0,1,"Index(['6', '74', '138', '180', '196', '243', '271'], dtype='object')",False,1000,True,100,1.0,1.0,3859409c83
22,./expes/v3_2021-01-29_di_300-prng-1-w1-p100,daily_issda-300,300,first-300,21,7,rng,num-start-41,41,536,classic,8.942744493484497,True,,True,1.0,1.0,1.0,1,"Index(['7', '15', '27', '53', '58', '81', '94', '111', '127', '128', '131',
       '144', '184', '191', '195', '209', '239', '241', '272', '279', '294'],
      dtype='object')",False,1000,True,100,1.0,1.0,83fa32b4ac
23,./expes/v3_2021-01-29_di_300-prng-1-w1-p100,daily_issda-300,300,first-300,105,35,rng,num-start-21,21,536,classic,1000.708991765976,False,,False,0.0,,,0,"Index(['2', '3', '8', '17', '18', '19', '23', '33', '34', '37',
       ...
       '276', '278', '279', '282', '287', '291', '293', '296', '299', '300'],
      dtype='object', length=105)",True,1000,True,100,0.0,0.0,d2600a6e1f
24,./expes/v3_2021-01-29_di_300-prng-1-w1-p100,daily_issda-300,300,first-300,56,18,rng,num-start-1,1,536,classic,515.8174357414246,False,,True,0.4465278713084218,0.4159305488678427,0.4892460815447508,10000,"Index(['8', '16', '37', '38', '44', '61', '65', '67', '68', '70', '72', '76',
       '91', '92', '96', '100', '104', '110', '116', '119', '120', '121',
       '130', '132', '133', '135', '142', '144', '149', '151', '161', '178',
       '183', '187', '188', '191', '203', '220', '221', '224', '226', '228',
       '230', '231', '236', '238', '250', '252', '268', '273', '275', '282',
       '284', '289', '290', '296'],
      dtype='object')",False,1000,True,100,1.0,1.0,2bfbc4758a
25,./expes/v3_2021-01-29_di_300-prng-1-w1-p100,daily_issda-300,300,first-300,98,32,rng,num-start-131,131,536,classic,5.436438798904419,True,,True,1.0,1.0,1.0,1,"Index(['2', '3', '5', '7', '12', '14', '15', '16', '18', '23', '29', '33',
       '45', '49', '52', '53', '56', '61', '62', '67', '69', '84', '87', '88',
       '89', '96', '98', '103', '106', '108', '111', '113', '114', '117',
       '118', '119', '120', '125', '131', '137', '138', '146', '149', '152',
       '156', '158', '163', '171', '177', '181', '187', '188', '190', '192',
       '195', '196', '197', '200', '202', '207', '208', '212', '213', '214',
       '217', '219', '222', '225', '229', '231', '236', '241', '242', '246',
       '247', '250', '251', '254', '256', '257', '258', '259', '260', '261',
       '263', '264', '266', '267', '271', '277', '278', '281', '284', '285',
       '288', '292', '296', '297'],
      dtype='object')",False,1000,True,100,1.0,1.0,3af5100640
26,./expes/v3_2021-01-29_di_300-prng-1-w1-p100,daily_issda-300,300,first-300,105,35,rng,num-start-181,181,536,classic,7.092665433883667,True,,True,1.0,1.0,1.0,1,"Index(['1', '3', '5', '6', '8', '9', '11', '16', '19', '22',
       ...
       '266', '271', '276', '283', '287', '289', '290', '295', '296', '299'],
      dtype='object', length=105)",False,1000,True,100,1.0,1.0,ecc79327b3
27,./expes/v3_2021-01-29_di_300-prng-1-w1-p100,daily_issda-300,300,first-300,126,42,rng,num-start-151,151,536,classic,5.447341680526733,True,,True,1.0,1.0,1.0,1,"Index(['1', '2', '3', '4', '5', '7', '8', '9', '10', '13',
       ...
       '276', '277', '284', '285', '287', '290', '294', '295', '297', '300'],
      dtype='object', length=126)",False,1000,True,100,1.0,1.0,e108cc68c5
28,./expes/v3_2021-01-29_di_300-prng-1-w1-p100,daily_issda-300,300,first-300,7,2,rng,num-start-11,11,536,classic,318.89339447021484,True,,True,1.0,1.0,1.0,1,"Index(['38', '55', '127', '131', '139', '150', '270'], dtype='object')",False,1000,True,100,1.0,1.0,e066820bdf
29,./expes/v3_2021-01-29_di_300-prng-1-w1-p100,daily_issda-300,300,first-300,84,28,rng,num-start-181,181,536,classic,7.122081995010376,True,,True,1.0,1.0,1.0,1,"Index(['4', '11', '14', '23', '24', '31', '32', '35', '42', '45', '46', '47',
       '52', '53', '55', '63', '75', '80', '83', '85', '89', '91', '92', '95',
       '100', '101', '102', '104', '110', '114', '118', '120', '121', '122',
       '127', '128', '133', '134', '135', '140', '142', '143', '144', '148',
       '149', '150', '154', '156', '157', '159', '160', '165', '166', '170',
       '173', '176', '183', '185', '191', '199', '203', '206', '212', '217',
       '221', '224', '226', '232', '236', '237', '242', '243', '246', '260',
       '261', '266', '267', '274', '275', '281', '282', '286', '294', '299'],
      dtype='object')",False,1000,True,100,1.0,1.0,ebd6babdad
30,./expes/v3_2021-01-29_di_300-prng-1-w1-p100,daily_issda-300,300,first-300,140,46,rng,num-start-281,281,536,classic,10.12735676765442,True,,True,1.0,1.0,1.0,1,"Index(['1', '3', '7', '12', '14', '20', '21', '24', '25', '26',
       ...
       '290', '291', '293', '294', '295', '296', '297', '298', '299', '300'],
      dtype='object', length=140)",False,1000,True,100,1.0,1.0,dbdfc70e05
31,./expes/v3_2021-01-29_di_300-prng-1-w1-p100,daily_issda-300,300,first-300,119,39,rng,num-start-161,161,536,classic,6.053261280059815,True,,True,1.0,1.0,1.0,1,"Index(['3', '7', '12', '20', '21', '24', '25', '26', '30', '31',
       ...
       '289', '290', '293', '294', '295', '296', '297', '298', '299', '300'],
      dtype='object', length=119)",False,1000,True,100,1.0,1.0,13a0a7aa87
32,./expes/v3_2021-01-29_di_300-prng-1-w1-p100,daily_issda-300,300,first-300,119,39,rng,num-start-51,51,536,classic,1001.512442111969,False,,False,0.0,,,0,"Index(['2', '3', '8', '17', '18', '19', '23', '26', '33', '34',
       ...
       '276', '278', '279', '282', '287', '291', '293', '296', '299', '300'],
      dtype='object', length=119)",True,1000,True,100,0.0,0.0,103fbf40c3
33,./expes/v3_2021-01-29_di_300-prng-1-w1-p100,daily_issda-300,300,first-300,98,32,rng,num-start-41,41,536,classic,1001.292364358902,False,,False,0.0,,,0,"Index(['5', '6', '8', '9', '10', '19', '22', '23', '25', '29', '31', '32',
       '33', '34', '38', '41', '42', '44', '48', '52', '60', '72', '73', '76',
       '78', '81', '82', '85', '89', '92', '101', '106', '107', '115', '118',
       '119', '121', '123', '131', '134', '135', '140', '144', '147', '148',
       '152', '157', '159', '160', '161', '162', '163', '171', '173', '174',
       '177', '182', '183', '185', '189', '193', '195', '199', '200', '201',
       '203', '206', '208', '215', '216', '223', '225', '227', '230', '231',
       '234', '237', '239', '240', '243', '244', '247', '251', '252', '253',
       '254', '256', '257', '258', '262', '267', '272', '274', '279', '285',
       '290', '292', '296'],
      dtype='object')",True,1000,True,100,0.0,0.0,16be1fe9aa
34,./expes/v3_2021-01-29_di_300-prng-1-w1-p100,daily_issda-300,300,first-300,105,35,rng,num-start-201,201,536,classic,7.483091115951538,True,,True,1.0,1.0,1.0,1,"Index(['4', '5', '10', '11', '14', '22', '23', '24', '31', '32',
       ...
       '266', '267', '274', '275', '281', '282', '286', '293', '294', '299'],
      dtype='object', length=105)",False,1000,True,100,1.0,1.0,41b4543938
35,./expes/v3_2021-01-29_di_300-prng-1-w1-p100,daily_issda-300,300,first-300,112,37,rng,num-start-151,151,536,classic,5.623677015304565,True,,True,1.0,1.0,1.0,1,"Index(['2', '4', '5', '9', '12', '13', '14', '21', '23', '24',
       ...
       '269', '271', '278', '280', '281', '292', '293', '296', '297', '300'],
      dtype='object', length=112)",False,1000,True,100,1.0,1.0,1a5e6cf333
36,./expes/v3_2021-01-29_di_300-prng-1-w1-p100,daily_issda-300,300,first-300,21,7,rng,num-start-281,281,536,classic,9.066605567932127,True,,True,1.0,1.0,1.0,1,"Index(['38', '55', '61', '77', '115', '127', '131', '134', '135', '139', '150',
       '156', '162', '184', '185', '202', '204', '231', '239', '265', '270'],
      dtype='object')",False,1000,True,100,1.0,1.0,2560390fa1
37,./expes/v3_2021-01-29_di_300-prng-1-w1-p100,daily_issda-300,300,first-300,70,23,rng,num-start-291,291,536,classic,9.818694353103638,True,,True,1.0,1.0,1.0,1,"Index(['20', '24', '25', '26', '30', '31', '32', '33', '36', '38', '42', '45',
       '47', '49', '50', '53', '61', '64', '69', '74', '78', '85', '93', '97',
       '106', '110', '114', '115', '124', '125', '128', '148', '149', '154',
       '158', '161', '166', '176', '186', '188', '191', '203', '204', '215',
       '218', '219', '223', '230', '233', '239', '254', '255', '260', '263',
       '269', '273', '275', '277', '281', '283', '286', '287', '289', '290',
       '293', '295', '296', '298', '299', '300'],
      dtype='object')",False,1000,True,100,1.0,1.0,0feee3b544
38,./expes/v3_2021-01-29_di_300-prng-1-w1-p100,daily_issda-300,300,first-300,119,39,rng,num-start-131,131,536,classic,10.32914400100708,True,,True,1.0,1.0,1.0,1,"Index(['3', '4', '5', '6', '7', '8', '11', '12', '15', '16',
       ...
       '262', '265', '268', '270', '277', '278', '289', '294', '297', '299'],
      dtype='object', length=119)",False,1000,True,100,1.0,1.0,1166e3c1c0
39,./expes/v3_2021-01-29_di_300-prng-1-w1-p100,daily_issda-300,300,first-300,140,46,rng,num-start-131,131,536,classic,9.567577600479126,True,,True,1.0,1.0,1.0,1,"Index(['1', '3', '7', '12', '14', '20', '21', '24', '25', '26',
       ...
       '290', '291', '293', '294', '295', '296', '297', '298', '299', '300'],
      dtype='object', length=140)",False,1000,True,100,1.0,1.0,37e626555f
40,./expes/v3_2021-01-29_di_300-prng-1-w1-p100,daily_issda-300,300,first-300,14,4,rng,num-start-151,151,536,classic,5.472243547439575,True,,True,1.0,1.0,1.0,1,"Index(['14', '57', '90', '128', '130', '143', '149', '156', '188', '197',
       '213', '215', '268', '277'],
      dtype='object')",False,1000,True,100,1.0,1.0,21bc7af463
41,./expes/v3_2021-01-29_di_300-prng-1-w1-p100,daily_issda-300,300,first-300,126,42,rng,num-start-81,81,536,classic,1002.4176244735718,False,,False,0.0,,,0,"Index(['1', '3', '5', '11', '13', '15', '16', '17', '19', '21',
       ...
       '272', '279', '283', '286', '287', '288', '291', '295', '298', '300'],
      dtype='object', length=126)",True,1000,True,100,0.0,0.0,fd83033f6c
42,./expes/v3_2021-01-29_di_300-prng-1-w1-p100,daily_issda-300,300,first-300,63,21,rng,num-start-1,1,536,classic,541.3459076881409,False,,True,0.4272994075916401,0.3825286217078288,0.4699656097482935,10000,"Index(['1', '7', '9', '12', '15', '19', '24', '42', '46', '48', '49', '50',
       '60', '62', '71', '75', '87', '97', '99', '100', '101', '102', '103',
       '108', '115', '126', '129', '134', '136', '138', '140', '150', '156',
       '160', '164', '171', '172', '183', '185', '186', '192', '195', '210',
       '212', '218', '221', '228', '241', '248', '249', '250', '251', '257',
       '258', '264', '268', '269', '276', '277', '284', '289', '294', '295'],
      dtype='object')",False,1000,True,100,1.0,1.0,098465489b
43,./expes/v3_2021-01-29_di_300-prng-1-w1-p100,daily_issda-300,300,first-300,28,9,rng,num-start-61,61,536,classic,4.006164312362671,True,,True,1.0,1.0,1.0,1,"Index(['15', '19', '29', '44', '47', '82', '85', '87', '109', '129', '138',
       '158', '164', '185', '187', '191', '195', '202', '217', '221', '228',
       '239', '258', '261', '270', '279', '287', '298'],
      dtype='object')",False,1000,True,100,1.0,1.0,c07d70cd37
44,./expes/v3_2021-01-29_di_300-prng-1-w1-p100,daily_issda-300,300,first-300,35,11,rng,num-start-81,81,536,classic,5.114054441452026,True,,True,1.0,1.0,1.0,1,"Index(['1', '3', '7', '15', '27', '37', '53', '58', '65', '68', '72', '81',
       '82', '85', '86', '94', '108', '111', '127', '128', '131', '144', '149',
       '161', '184', '191', '195', '200', '209', '228', '239', '241', '272',
       '279', '294'],
      dtype='object')",False,1000,True,100,1.0,1.0,92b6b8e333
45,./expes/v3_2021-01-29_di_300-prng-1-w1-p100,daily_issda-300,300,first-300,84,28,rng,num-start-221,221,536,classic,7.374790191650391,True,,True,1.0,1.0,1.0,1,"Index(['20', '21', '24', '25', '26', '30', '31', '32', '33', '34', '36', '38',
       '40', '42', '45', '47', '48', '49', '50', '53', '61', '64', '69', '74',
       '78', '85', '93', '97', '106', '110', '114', '115', '124', '125', '128',
       '139', '148', '149', '154', '158', '159', '161', '166', '175', '176',
       '180', '186', '188', '191', '203', '204', '215', '216', '218', '219',
       '223', '230', '233', '234', '239', '243', '251', '254', '255', '260',
       '263', '269', '273', '275', '277', '281', '283', '286', '287', '289',
       '290', '293', '294', '295', '296', '297', '298', '299', '300'],
      dtype='object')",False,1000,True,100,1.0,1.0,c440c87ef9
46,./expes/v3_2021-01-29_di_300-prng-1-w1-p100,daily_issda-300,300,first-300,21,7,rng,num-start-221,221,536,classic,7.092238903045654,True,,True,1.0,1.0,1.0,1,"Index(['8', '22', '33', '47', '49', '73', '81', '95', '96', '98', '156', '203',
       '229', '232', '239', '244', '261', '263', '271', '276', '287'],
      dtype='object')",False,1000,True,100,1.0,1.0,8acfe4eefd
47,./expes/v3_2021-01-29_di_300-prng-1-w1-p100,daily_issda-300,300,first-300,28,9,rng,num-start-1,1,536,classic,432.4000132083893,False,,True,0.5916224921639281,0.5750270518151028,0.6252090883909414,10000,"Index(['21', '38', '49', '51', '52', '72', '76', '112', '129', '133', '145',
       '156', '159', '170', '182', '184', '198', '208', '216', '223', '242',
       '245', '249', '259', '262', '273', '287', '299'],
      dtype='object')",False,1000,True,100,1.0,1.0,c2c5778c08
48,./expes/v3_2021-01-29_di_300-prng-1-w1-p100,daily_issda-300,300,first-300,56,18,rng,num-start-91,91,536,classic,7.90605354309082,True,,True,1.0,1.0,1.0,1,"Index(['3', '8', '17', '18', '19', '23', '34', '37', '39', '69', '72', '81',
       '83', '90', '100', '106', '115', '121', '123', '128', '135', '143',
       '146', '155', '156', '161', '167', '168', '182', '185', '186', '188',
       '193', '196', '212', '216', '220', '224', '226', '231', '234', '237',
       '241', '248', '251', '252', '255', '257', '267', '274', '275', '282',
       '293', '296', '299', '300'],
      dtype='object')",False,1000,True,100,1.0,1.0,9bbea4f303
49,./expes/v3_2021-01-29_di_300-prng-1-w1-p100,daily_issda-300,300,first-300,133,44,rng,num-start-291,291,536,classic,10.498864889144896,True,,True,1.0,1.0,1.0,1,"Index(['2', '4', '5', '9', '12', '13', '14', '21', '23', '24',
       ...
       '271', '278', '280', '281', '288', '292', '293', '296', '297', '300'],
      dtype='object', length=133)",False,1000,True,100,1.0,1.0,863922a0ed
50,./expes/v3_2021-01-29_di_300-prng-1-w1-p100,daily_issda-300,300,first-300,126,42,rng,num-start-201,201,536,classic,7.286227703094482,True,,True,1.0,1.0,1.0,1,"Index(['2', '3', '8', '16', '17', '19', '20', '22', '23', '24',
       ...
       '282', '284', '285', '287', '289', '290', '292', '296', '298', '299'],
      dtype='object', length=126)",False,1000,True,100,1.0,1.0,3b9a984382
51,./expes/v3_2021-01-29_di_300-prng-1-w1-p100,daily_issda-300,300,first-300,7,2,rng,num-start-271,271,536,classic,8.679369926452637,True,,True,1.0,1.0,1.0,1,"Index(['4', '71', '96', '137', '174', '192', '238'], dtype='object')",False,1000,True,100,1.0,1.0,3ad169458e
52,./expes/v3_2021-01-29_di_300-prng-1-w1-p100,daily_issda-300,300,first-300,28,9,rng,num-start-31,31,536,classic,1001.0740208625792,False,,False,0.0,,,0,"Index(['8', '17', '18', '23', '39', '72', '83', '90', '106', '128', '135',
       '143', '146', '156', '168', '182', '185', '196', '216', '220', '234',
       '237', '248', '251', '252', '267', '293', '296'],
      dtype='object')",True,1000,True,100,0.0,0.0,a2da30ba91
53,./expes/v3_2021-01-29_di_300-prng-1-w1-p100,daily_issda-300,300,first-300,91,30,rng,num-start-191,191,536,classic,7.150116443634033,True,,True,1.0,1.0,1.0,1,"Index(['12', '20', '21', '24', '25', '26', '30', '31', '32', '33', '34', '36',
       '38', '40', '42', '45', '47', '48', '49', '50', '53', '61', '64', '69',
       '74', '78', '85', '93', '97', '106', '110', '114', '115', '124', '125',
       '128', '139', '146', '148', '149', '154', '158', '159', '161', '166',
       '175', '176', '178', '180', '182', '186', '188', '191', '198', '203',
       '204', '215', '216', '218', '219', '223', '229', '230', '233', '234',
       '237', '239', '243', '251', '254', '255', '260', '263', '269', '273',
       '275', '277', '281', '283', '286', '287', '289', '290', '293', '294',
       '295', '296', '297', '298', '299', '300'],
      dtype='object')",False,1000,True,100,1.0,1.0,acb31fed26
54,./expes/v3_2021-01-29_di_300-prng-1-w1-p100,daily_issda-300,300,first-300,105,35,rng,num-start-241,241,536,classic,8.707745552062988,True,,True,1.0,1.0,1.0,1,"Index(['3', '4', '5', '10', '41', '45', '46', '48', '52', '59',
       ...
       '281', '283', '285', '286', '287', '291', '293', '294', '295', '297'],
      dtype='object', length=105)",False,1000,True,100,1.0,1.0,210b519868
55,./expes/v3_2021-01-29_di_300-prng-1-w1-p100,daily_issda-300,300,first-300,126,42,rng,num-start-231,231,536,classic,8.572711706161499,True,,True,1.0,1.0,1.0,1,"Index(['3', '4', '5', '6', '7', '8', '11', '12', '15', '16',
       ...
       '265', '268', '270', '274', '277', '278', '289', '294', '297', '299'],
      dtype='object', length=126)",False,1000,True,100,1.0,1.0,3dacda1a13
56,./expes/v3_2021-01-29_di_300-prng-1-w1-p100,daily_issda-300,300,first-300,42,14,rng,num-start-121,121,536,classic,4.259503602981567,True,,True,1.0,1.0,1.0,1,"Index(['1', '8', '21', '32', '38', '48', '49', '51', '52', '72', '76', '105',
       '112', '129', '133', '134', '145', '156', '159', '162', '170', '171',
       '182', '184', '198', '205', '208', '216', '223', '227', '242', '245',
       '249', '253', '259', '262', '267', '273', '281', '283', '287', '299'],
      dtype='object')",False,1000,True,100,1.0,1.0,a3c801fd2a
57,./expes/v3_2021-01-29_di_300-prng-1-w1-p100,daily_issda-300,300,first-300,35,11,rng,num-start-211,211,536,classic,6.917018413543701,True,,True,1.0,1.0,1.0,1,"Index(['1', '3', '7', '15', '27', '37', '53', '58', '65', '68', '72', '81',
       '82', '85', '86', '94', '108', '111', '127', '128', '131', '144', '149',
       '161', '184', '191', '195', '200', '209', '228', '239', '241', '272',
       '279', '294'],
      dtype='object')",False,1000,True,100,1.0,1.0,d98adb76bd
58,./expes/v3_2021-01-29_di_300-prng-1-w1-p100,daily_issda-300,300,first-300,112,37,rng,num-start-281,281,536,classic,9.736727237701416,True,,True,1.0,1.0,1.0,1,"Index(['1', '2', '3', '4', '5', '9', '10', '13', '14', '16',
       ...
       '276', '277', '284', '285', '287', '290', '294', '295', '297', '300'],
      dtype='object', length=112)",False,1000,True,100,1.0,1.0,eb45d168a9
59,./expes/v3_2021-01-29_di_300-prng-1-w1-p100,daily_issda-300,300,first-300,56,18,rng,num-start-281,281,536,classic,9.51880407333374,True,,True,1.0,1.0,1.0,1,"Index(['3', '8', '17', '18', '19', '23', '34', '37', '39', '69', '72', '81',
       '83', '90', '100', '106', '115', '121', '123', '128', '135', '143',
       '146', '155', '156', '161', '167', '168', '182', '185', '186', '188',
       '193', '196', '212', '216', '220', '224', '226', '231', '234', '237',
       '241', '248', '251', '252', '255', '257', '267', '274', '275', '282',
       '293', '296', '299', '300'],
      dtype='object')",False,1000,True,100,1.0,1.0,6c6b30cdf2
60,./expes/v3_2021-01-29_di_300-prng-1-w1-p100,daily_issda-300,300,first-300,91,30,rng,num-start-31,31,536,classic,1000.9116954803468,False,,False,0.0,,,0,"Index(['3', '8', '17', '18', '19', '23', '34', '37', '39', '41', '42', '50',
       '58', '62', '69', '72', '74', '77', '81', '82', '83', '85', '86', '90',
       '91', '92', '98', '100', '106', '115', '121', '123', '125', '126',
       '128', '135', '137', '141', '143', '146', '155', '156', '161', '164',
       '167', '168', '170', '178', '179', '182', '185', '186', '188', '192',
       '193', '196', '197', '200', '208', '212', '213', '216', '220', '222',
       '223', '224', '226', '227', '229', '230', '231', '234', '237', '241',
       '246', '248', '251', '252', '255', '257', '267', '268', '274', '275',
       '279', '282', '291', '293', '296', '299', '300'],
      dtype='object')",True,1000,True,100,0.0,0.0,1a24d84c74
61,./expes/v3_2021-01-29_di_300-prng-1-w1-p100,daily_issda-300,300,first-300,98,32,rng,num-start-1,1,536,classic,462.17500710487366,False,,True,0.3524229220941692,0.3157285445459792,0.3989974930352399,10000,"Index(['1', '7', '9', '10', '12', '15', '19', '24', '28', '40', '42', '44',
       '46', '48', '49', '50', '60', '62', '64', '65', '71', '73', '75', '87',
       '89', '95', '97', '99', '100', '101', '102', '103', '108', '115', '126',
       '129', '131', '132', '134', '136', '137', '138', '140', '149', '150',
       '156', '157', '160', '164', '166', '169', '171', '172', '183', '185',
       '186', '192', '194', '195', '200', '204', '210', '211', '212', '216',
       '217', '218', '219', '221', '226', '228', '229', '232', '240', '241',
       '242', '244', '246', '248', '249', '250', '251', '252', '255', '257',
       '258', '264', '265', '268', '269', '271', '276', '277', '284', '286',
       '289', '294', '295'],
      dtype='object')",False,1000,True,100,1.0,1.0,f9143f7df4
62,./expes/v3_2021-01-29_di_300-prng-1-w1-p100,daily_issda-300,300,first-300,84,28,rng,num-start-241,241,536,classic,8.244782447814941,True,,True,1.0,1.0,1.0,1,"Index(['20', '21', '24', '25', '26', '30', '31', '32', '33', '34', '36', '38',
       '40', '42', '45', '47', '48', '49', '50', '53', '61', '64', '69', '74',
       '78', '85', '93', '97', '106', '110', '114', '115', '124', '125', '128',
       '139', '148', '149', '154', '158', '159', '161', '166', '175', '176',
       '180', '186', '188', '191', '203', '204', '215', '216', '218', '219',
       '223', '230', '233', '234', '239', '243', '251', '254', '255', '260',
       '263', '269', '273', '275', '277', '281', '283', '286', '287', '289',
       '290', '293', '294', '295', '296', '297', '298', '299', '300'],
      dtype='object')",False,1000,True,100,1.0,1.0,5e4327f860
63,./expes/v3_2021-01-29_di_300-prng-1-w1-p100,daily_issda-300,300,first-300,126,42,rng,num-start-251,251,536,classic,8.914397239685059,True,,True,1.0,1.0,1.0,1,"Index(['1', '2', '3', '5', '7', '10', '12', '15', '17', '19',
       ...
       '272', '273', '274', '277', '279', '280', '282', '289', '294', '297'],
      dtype='object', length=126)",False,1000,True,100,1.0,1.0,729265292d
64,./expes/v3_2021-01-29_di_300-prng-1-w1-p100,daily_issda-300,300,first-300,133,44,rng,num-start-181,181,536,classic,6.619143009185791,True,,True,1.0,1.0,1.0,1,"Index(['1', '4', '7', '8', '9', '10', '11', '12', '15', '16',
       ...
       '277', '283', '284', '286', '287', '289', '292', '294', '295', '297'],
      dtype='object', length=133)",False,1000,True,100,1.0,1.0,a1fda29fcf
65,./expes/v3_2021-01-29_di_300-prng-1-w1-p100,daily_issda-300,300,first-300,133,44,rng,num-start-61,61,536,classic,1001.8570730686188,False,,False,0.0,,,0,"Index(['2', '7', '9', '11', '14', '16', '17', '18', '20', '23',
       ...
       '273', '277', '280', '286', '289', '292', '294', '297', '298', '300'],
      dtype='object', length=133)",True,1000,True,100,0.0,0.0,95a8bed8f1
66,./expes/v3_2021-01-29_di_300-prng-1-w1-p100,daily_issda-300,300,first-300,49,16,rng,num-start-111,111,536,classic,4.0605878829956055,True,,True,1.0,1.0,1.0,1,"Index(['20', '24', '25', '26', '30', '31', '32', '33', '36', '38', '45', '47',
       '49', '50', '53', '61', '64', '69', '74', '78', '93', '97', '110',
       '114', '115', '124', '149', '158', '166', '188', '191', '203', '204',
       '215', '218', '223', '260', '275', '277', '281', '283', '286', '287',
       '290', '293', '296', '298', '299', '300'],
      dtype='object')",False,1000,True,100,1.0,1.0,1306d7e91f
67,./expes/v3_2021-01-29_di_300-prng-1-w1-p100,daily_issda-300,300,first-300,21,7,rng,num-start-271,271,536,classic,8.530489206314087,True,,True,1.0,1.0,1.0,1,"Index(['3', '6', '12', '73', '113', '114', '117', '122', '130', '133', '146',
       '152', '155', '159', '172', '186', '210', '214', '229', '241', '247'],
      dtype='object')",False,1000,True,100,1.0,1.0,ce17eed27f
68,./expes/v3_2021-01-29_di_300-prng-1-w1-p100,daily_issda-300,300,first-300,56,18,rng,num-start-91,91,536,classic,3.8594040870666495,True,,True,1.0,1.0,1.0,1,"Index(['4', '52', '59', '61', '63', '68', '75', '83', '87', '90', '93', '94',
       '98', '101', '102', '103', '104', '106', '111', '113', '121', '122',
       '123', '130', '136', '139', '140', '145', '152', '154', '156', '167',
       '172', '176', '178', '188', '208', '209', '224', '230', '235', '245',
       '246', '251', '253', '254', '257', '260', '263', '268', '270', '276',
       '283', '291', '294', '295'],
      dtype='object')",False,1000,True,100,1.0,1.0,0bdf5d5409
69,./expes/v3_2021-01-29_di_300-prng-1-w1-p100,daily_issda-300,300,first-300,49,16,rng,num-start-161,161,536,classic,5.976619720458984,True,,True,1.0,1.0,1.0,1,"Index(['9', '12', '23', '37', '38', '51', '54', '56', '59', '62', '69', '71',
       '76', '82', '99', '103', '104', '107', '120', '134', '138', '149',
       '154', '160', '167', '168', '178', '199', '200', '202', '203', '209',
       '211', '213', '217', '226', '234', '253', '258', '262', '267', '271',
       '278', '280', '292', '293', '296', '297', '300'],
      dtype='object')",False,1000,True,100,1.0,1.0,03304d9aec
70,./expes/v3_2021-01-29_di_300-prng-1-w1-p100,daily_issda-300,300,first-300,133,44,rng,num-start-231,231,536,classic,8.078172445297241,True,,True,1.0,1.0,1.0,1,"Index(['2', '7', '9', '11', '14', '16', '17', '18', '20', '23',
       ...
       '273', '277', '280', '286', '289', '292', '294', '297', '298', '300'],
      dtype='object', length=133)",False,1000,True,100,1.0,1.0,c8037d54e9
71,./expes/v3_2021-01-29_di_300-prng-1-w1-p100,daily_issda-300,300,first-300,126,42,rng,num-start-231,231,536,classic,7.849857568740845,True,,True,1.0,1.0,1.0,1,"Index(['2', '5', '6', '8', '9', '10', '16', '19', '22', '23',
       ...
       '267', '272', '274', '279', '281', '285', '290', '292', '295', '296'],
      dtype='object', length=126)",False,1000,True,100,1.0,1.0,04821e57ce
72,./expes/v3_2021-01-29_di_300-prng-1-w1-p100,daily_issda-300,300,first-300,140,46,rng,num-start-241,241,536,classic,8.820754766464233,True,,True,1.0,1.0,1.0,1,"Index(['2', '3', '5', '6', '8', '9', '10', '16', '19', '22',
       ...
       '282', '285', '286', '290', '292', '293', '295', '296', '297', '298'],
      dtype='object', length=140)",False,1000,True,100,1.0,1.0,8b37108e1c
73,./expes/v3_2021-01-29_di_300-prng-1-w1-p100,daily_issda-300,300,first-300,56,18,rng,num-start-161,161,536,classic,5.725613594055176,True,,True,1.0,1.0,1.0,1,"Index(['2', '3', '4', '5', '9', '13', '21', '23', '27', '29', '33', '42', '43',
       '45', '53', '57', '58', '63', '68', '69', '71', '72', '81', '87', '96',
       '102', '103', '104', '105', '108', '115', '122', '137', '144', '150',
       '170', '172', '174', '175', '192', '194', '195', '197', '204', '211',
       '216', '217', '218', '232', '238', '252', '258', '260', '277', '284',
       '297'],
      dtype='object')",False,1000,True,100,1.0,1.0,5c491cf849
74,./expes/v3_2021-01-29_di_300-prng-1-w1-p100,daily_issda-300,300,first-300,21,7,rng,num-start-111,111,536,classic,3.911912441253662,True,,True,1.0,1.0,1.0,1,"Index(['6', '9', '19', '29', '60', '76', '81', '106', '107', '118', '123',
       '135', '144', '174', '177', '182', '183', '189', '201', '239', '267'],
      dtype='object')",False,1000,True,100,1.0,1.0,a5fb08771c
75,./expes/v3_2021-01-29_di_300-prng-1-w1-p100,daily_issda-300,300,first-300,77,25,rng,num-start-251,251,536,classic,8.861216068267822,True,,True,1.0,1.0,1.0,1,"Index(['6', '9', '10', '19', '25', '29', '34', '38', '41', '52', '60', '72',
       '73', '76', '78', '81', '85', '89', '92', '101', '106', '107', '115',
       '118', '119', '121', '123', '135', '140', '144', '147', '152', '157',
       '159', '160', '161', '162', '163', '173', '174', '177', '182', '183',
       '185', '189', '199', '200', '201', '203', '206', '208', '215', '216',
       '225', '227', '231', '234', '237', '239', '240', '243', '244', '251',
       '252', '253', '254', '257', '258', '262', '267', '272', '274', '279',
       '285', '290', '292', '296'],
      dtype='object')",False,1000,True,100,1.0,1.0,1e8b900568
76,./expes/v3_2021-01-29_di_300-prng-1-w1-p100,daily_issda-300,300,first-300,28,9,rng,num-start-151,151,536,classic,5.848842144012451,True,,True,1.0,1.0,1.0,1,"Index(['7', '15', '27', '37', '53', '58', '65', '68', '72', '81', '82', '94',
       '111', '127', '128', '131', '144', '184', '191', '195', '200', '209',
       '228', '239', '241', '272', '279', '294'],
      dtype='object')",False,1000,True,100,1.0,1.0,f70e075e79
77,./expes/v3_2021-01-29_di_300-prng-1-w1-p100,daily_issda-300,300,first-300,35,11,rng,num-start-61,61,536,classic,4.273402214050293,True,,True,1.0,1.0,1.0,1,"Index(['20', '24', '25', '26', '30', '31', '32', '36', '38', '45', '47', '49',
       '64', '69', '78', '110', '114', '115', '124', '149', '166', '188',
       '203', '204', '215', '218', '223', '260', '275', '283', '286', '290',
       '296', '299', '300'],
      dtype='object')",False,1000,True,100,1.0,1.0,ef5995a501
78,./expes/v3_2021-01-29_di_300-prng-1-w1-p100,daily_issda-300,300,first-300,14,4,rng,num-start-291,291,536,classic,10.391887664794922,True,,True,1.0,1.0,1.0,1,"Index(['47', '49', '73', '95', '96', '98', '156', '229', '232', '239', '244',
       '261', '263', '287'],
      dtype='object')",False,1000,True,100,1.0,1.0,b074ca6306
79,./expes/v3_2021-01-29_di_300-prng-1-w1-p100,daily_issda-300,300,first-300,56,18,rng,num-start-171,171,536,classic,6.287925481796265,True,,True,1.0,1.0,1.0,1,"Index(['7', '8', '15', '16', '19', '22', '33', '34', '50', '67', '69', '70',
       '78', '82', '84', '99', '112', '119', '120', '122', '133', '138', '144',
       '155', '168', '173', '180', '188', '190', '198', '199', '200', '203',
       '204', '209', '216', '219', '224', '228', '241', '243', '244', '254',
       '260', '268', '274', '277', '278', '279', '282', '283', '293', '294',
       '296', '298', '300'],
      dtype='object')",False,1000,True,100,1.0,1.0,d0746cfdb0
80,./expes/v3_2021-01-29_di_300-prng-1-w1-p100,daily_issda-300,300,first-300,119,39,rng,num-start-261,261,536,classic,9.872606992721558,True,,True,1.0,1.0,1.0,1,"Index(['1', '3', '5', '6', '8', '9', '11', '16', '19', '20',
       ...
       '271', '276', '283', '284', '287', '289', '290', '295', '296', '299'],
      dtype='object', length=119)",False,1000,True,100,1.0,1.0,bc3cb1fc8e
81,./expes/v3_2021-01-29_di_300-prng-1-w1-p100,daily_issda-300,300,first-300,49,16,rng,num-start-291,291,536,classic,9.529031038284302,True,,True,1.0,1.0,1.0,1,"Index(['3', '4', '6', '11', '12', '15', '23', '43', '45', '73', '79', '80',
       '89', '113', '114', '115', '117', '121', '122', '130', '133', '145',
       '146', '151', '152', '155', '156', '159', '163', '172', '179', '186',
       '192', '210', '214', '216', '217', '229', '234', '236', '238', '241',
       '247', '251', '254', '265', '268', '289', '297'],
      dtype='object')",False,1000,True,100,1.0,1.0,563c60d4c6
82,./expes/v3_2021-01-29_di_300-prng-1-w1-p100,daily_issda-300,300,first-300,140,46,rng,num-start-281,281,536,classic,10.13193964958191,True,,True,1.0,1.0,1.0,1,"Index(['2', '4', '5', '9', '12', '13', '14', '17', '21', '23',
       ...
       '278', '280', '281', '284', '288', '292', '293', '296', '297', '300'],
      dtype='object', length=140)",False,1000,True,100,1.0,1.0,b26a64dbba
83,./expes/v3_2021-01-29_di_300-prng-1-w1-p100,daily_issda-300,300,first-300,133,44,rng,num-start-221,221,536,classic,7.642231702804565,True,,True,1.0,1.0,1.0,1,"Index(['1', '7', '8', '9', '12', '14', '17', '19', '20', '21',
       ...
       '279', '281', '283', '287', '291', '292', '294', '295', '297', '299'],
      dtype='object', length=133)",False,1000,True,100,1.0,1.0,0ffeb4dc64
84,./expes/v3_2021-01-29_di_300-prng-1-w1-p100,daily_issda-300,300,first-300,7,2,rng,num-start-71,71,536,classic,2.504430294036865,True,,True,1.0,1.0,1.0,1,"Index(['95', '98', '232', '239', '261', '263', '287'], dtype='object')",False,1000,True,100,1.0,1.0,9da3da1f86
85,./expes/v3_2021-01-29_di_300-prng-1-w1-p100,daily_issda-300,300,first-300,126,42,rng,num-start-81,81,536,classic,1002.3908622264862,False,,False,0.0,,,0,"Index(['2', '7', '9', '11', '14', '16', '17', '18', '20', '23',
       ...
       '273', '277', '280', '286', '289', '292', '294', '297', '298', '300'],
      dtype='object', length=126)",True,1000,True,100,0.0,0.0,8ee067e6eb
86,./expes/v3_2021-01-29_di_300-prng-1-w1-p100,daily_issda-300,300,first-300,77,25,rng,num-start-251,251,536,classic,8.40197205543518,True,,True,1.0,1.0,1.0,1,"Index(['1', '7', '9', '12', '15', '19', '24', '28', '40', '42', '46', '48',
       '49', '50', '60', '62', '65', '71', '75', '87', '95', '97', '99', '100',
       '101', '102', '103', '108', '115', '126', '129', '134', '136', '138',
       '140', '149', '150', '156', '157', '160', '164', '171', '172', '183',
       '185', '186', '192', '194', '195', '200', '204', '210', '212', '217',
       '218', '221', '226', '228', '229', '241', '248', '249', '250', '251',
       '257', '258', '264', '268', '269', '271', '276', '277', '284', '286',
       '289', '294', '295'],
      dtype='object')",False,1000,True,100,1.0,1.0,70351cc917
87,./expes/v3_2021-01-29_di_300-prng-1-w1-p100,daily_issda-300,300,first-300,98,32,rng,num-start-31,31,536,classic,1000.9711673259736,False,,False,0.0,,,0,"Index(['1', '8', '9', '17', '20', '21', '32', '33', '36', '38', '42', '43',
       '46', '47', '48', '49', '51', '52', '56', '60', '64', '67', '72', '73',
       '76', '77', '88', '95', '96', '97', '98', '105', '111', '112', '113',
       '114', '121', '123', '124', '125', '129', '133', '134', '139', '141',
       '142', '145', '148', '149', '150', '155', '156', '159', '162', '163',
       '164', '167', '170', '171', '172', '182', '183', '184', '191', '198',
       '201', '205', '208', '215', '216', '223', '227', '228', '230', '231',
       '242', '244', '245', '249', '250', '251', '253', '259', '261', '262',
       '267', '268', '269', '273', '277', '279', '281', '283', '287', '291',
       '295', '297', '299'],
      dtype='object')",True,1000,True,100,0.0,0.0,6a291190d2
88,./expes/v3_2021-01-29_di_300-prng-1-w1-p100,daily_issda-300,300,first-300,7,2,rng,num-start-101,101,536,classic,3.511890172958374,True,,True,1.0,1.0,1.0,1,"Index(['1', '19', '42', '75', '134', '249', '294'], dtype='object')",False,1000,True,100,1.0,1.0,1d1c76d664
89,./expes/v3_2021-01-29_di_300-prng-1-w1-p100,daily_issda-300,300,first-300,91,30,rng,num-start-281,281,536,classic,10.460795402526855,True,,True,1.0,1.0,1.0,1,"Index(['7', '11', '14', '16', '18', '20', '23', '30', '33', '37', '44', '45',
       '46', '50', '56', '59', '60', '65', '70', '71', '73', '76', '77', '82',
       '83', '86', '88', '90', '99', '100', '102', '104', '107', '108', '113',
       '117', '120', '121', '125', '127', '131', '133', '137', '146', '147',
       '152', '153', '154', '159', '161', '174', '176', '177', '183', '190',
       '193', '194', '195', '198', '200', '203', '206', '207', '209', '214',
       '217', '219', '228', '233', '234', '236', '243', '249', '250', '251',
       '254', '255', '258', '260', '262', '265', '267', '271', '273', '277',
       '280', '286', '294', '297', '298', '300'],
      dtype='object')",False,1000,True,100,1.0,1.0,cdfa6011f5
90,./expes/v3_2021-01-29_di_300-prng-1-w1-p100,daily_issda-300,300,first-300,70,23,rng,num-start-251,251,536,classic,8.801711082458496,True,,True,1.0,1.0,1.0,1,"Index(['1', '8', '21', '32', '33', '38', '42', '47', '48', '49', '51', '52',
       '56', '64', '72', '73', '76', '95', '97', '98', '105', '112', '114',
       '123', '124', '125', '129', '133', '134', '145', '148', '149', '150',
       '155', '156', '159', '162', '163', '164', '167', '170', '171', '182',
       '184', '198', '205', '208', '216', '223', '227', '228', '230', '242',
       '245', '249', '251', '253', '259', '261', '262', '267', '273', '277',
       '279', '281', '283', '287', '291', '295', '299'],
      dtype='object')",False,1000,True,100,1.0,1.0,e6a63b4228
91,./expes/v3_2021-01-29_di_300-prng-1-w1-p100,daily_issda-300,300,first-300,42,14,rng,num-start-251,251,536,classic,8.630961179733276,True,,True,1.0,1.0,1.0,1,"Index(['6', '9', '19', '29', '34', '41', '60', '76', '81', '106', '107', '115',
       '118', '119', '123', '135', '144', '157', '161', '162', '174', '177',
       '182', '183', '185', '189', '201', '208', '215', '216', '225', '231',
       '234', '237', '239', '251', '252', '262', '267', '290', '292', '296'],
      dtype='object')",False,1000,True,100,1.0,1.0,005361d5cf
92,./expes/v3_2021-01-29_di_300-prng-1-w1-p100,daily_issda-300,300,first-300,14,4,rng,num-start-151,151,536,classic,5.793541431427002,True,,True,1.0,1.0,1.0,1,"Index(['16', '23', '44', '65', '71', '99', '108', '117', '127', '190', '193',
       '206', '236', '260'],
      dtype='object')",False,1000,True,100,1.0,1.0,daef3582f4
93,./expes/v3_2021-01-29_di_300-prng-1-w1-p100,daily_issda-300,300,first-300,28,9,rng,num-start-21,21,536,classic,1000.6531221866608,False,,False,0.0,,,0,"Index(['21', '38', '49', '51', '52', '72', '76', '112', '129', '133', '145',
       '156', '159', '170', '182', '184', '198', '208', '216', '223', '242',
       '245', '249', '259', '262', '273', '287', '299'],
      dtype='object')",True,1000,True,100,0.0,0.0,89562628c8
94,./expes/v3_2021-01-29_di_300-prng-1-w1-p100,daily_issda-300,300,first-300,63,21,rng,num-start-161,161,536,classic,5.822093725204468,True,,True,1.0,1.0,1.0,1,"Index(['2', '5', '12', '14', '15', '16', '18', '33', '49', '52', '53', '61',
       '62', '69', '89', '96', '98', '108', '111', '113', '114', '118', '119',
       '120', '125', '131', '137', '146', '149', '152', '156', '163', '171',
       '177', '188', '192', '195', '196', '200', '202', '207', '213', '214',
       '217', '222', '225', '229', '231', '236', '242', '246', '250', '254',
       '256', '257', '259', '260', '271', '278', '281', '284', '285', '292'],
      dtype='object')",False,1000,True,100,1.0,1.0,195241a912
95,./expes/v3_2021-01-29_di_300-prng-1-w1-p100,daily_issda-300,300,first-300,7,2,rng,num-start-1,1,536,classic,354.38864493370056,False,,True,0.7850971972821554,0.7836143662926848,0.8171207610101362,10000,"Index(['23', '44', '65', '99', '117', '190', '193'], dtype='object')",False,1000,True,100,1.0,1.0,cc1f78b117
96,./expes/v3_2021-01-29_di_300-prng-1-w1-p100,daily_issda-300,300,first-300,70,23,rng,num-start-221,221,536,classic,8.572811603546143,True,,True,1.0,1.0,1.0,1,"Index(['20', '24', '25', '26', '30', '31', '32', '33', '36', '38', '42', '45',
       '47', '49', '50', '53', '61', '64', '69', '74', '78', '85', '93', '97',
       '106', '110', '114', '115', '124', '125', '128', '148', '149', '154',
       '158', '161', '166', '176', '186', '188', '191', '203', '204', '215',
       '218', '219', '223', '230', '233', '239', '254', '255', '260', '263',
       '269', '273', '275', '277', '281', '283', '286', '287', '289', '290',
       '293', '295', '296', '298', '299', '300'],
      dtype='object')",False,1000,True,100,1.0,1.0,6b81a70fc9
97,./expes/v3_2021-01-29_di_300-prng-1-w1-p100,daily_issda-300,300,first-300,84,28,rng,num-start-41,41,536,classic,1001.2567648887634,False,,False,0.0,,,0,"Index(['20', '21', '24', '25', '26', '30', '31', '32', '33', '34', '36', '38',
       '40', '42', '45', '47', '48', '49', '50', '53', '61', '64', '69', '74',
       '78', '85', '93', '97', '106', '110', '114', '115', '124', '125', '128',
       '139', '148', '149', '154', '158', '159', '161', '166', '175', '176',
       '180', '186', '188', '191', '203', '204', '215', '216', '218', '219',
       '223', '230', '233', '234', '239', '243', '251', '254', '255', '260',
       '263', '269', '273', '275', '277', '281', '283', '286', '287', '289',
       '290', '293', '294', '295', '296', '297', '298', '299', '300'],
      dtype='object')",True,1000,True,100,0.0,0.0,0d9f01eef8
98,./expes/v3_2021-01-29_di_300-prng-1-w1-p100,daily_issda-300,300,first-300,126,42,rng,num-start-31,31,536,classic,1000.9545364379884,False,,False,0.0,,,0,"Index(['1', '8', '9', '12', '14', '17', '19', '20', '21', '24',
       ...
       '279', '281', '283', '287', '291', '292', '294', '295', '297', '299'],
      dtype='object', length=126)",True,1000,True,100,0.0,0.0,c5fc2e0a7e
99,./expes/v3_2021-01-29_di_300-prng-1-w1-p100,daily_issda-300,300,first-300,49,16,rng,num-start-111,111,536,classic,4.065680980682373,True,,True,1.0,1.0,1.0,1,"Index(['1', '3', '7', '12', '15', '27', '34', '37', '53', '58', '65', '68',
       '72', '75', '81', '82', '85', '86', '94', '101', '102', '105', '108',
       '111', '127', '128', '131', '136', '144', '149', '153', '155', '161',
       '170', '184', '185', '191', '195', '197', '200', '209', '213', '228',
       '239', '241', '272', '277', '279', '294'],
      dtype='object')",False,1000,True,100,1.0,1.0,fddadb0abb
100,./expes/v3_2021-01-29_di_300-prng-1-w1-p100,daily_issda-300,300,first-300,112,37,rng,num-start-181,181,536,classic,6.96399998664856,True,,True,1.0,1.0,1.0,1,"Index(['1', '3', '5', '11', '13', '15', '16', '17', '19', '21',
       ...
       '270', '272', '279', '283', '286', '287', '288', '291', '295', '298'],
      dtype='object', length=112)",False,1000,True,100,1.0,1.0,6693579aa2
101,./expes/v3_2021-01-29_di_300-prng-1-w1-p100,daily_issda-300,300,first-300,133,44,rng,num-start-121,121,536,classic,20.23573064804077,True,,True,1.0,1.0,1.0,1,"Index(['3', '5', '6', '10', '11', '14', '15', '26', '27', '28',
       ...
       '284', '285', '286', '287', '289', '291', '293', '295', '296', '297'],
      dtype='object', length=133)",False,1000,True,100,1.0,1.0,6a36f8ff3c
102,./expes/v3_2021-01-29_di_300-prng-1-w1-p100,daily_issda-300,300,first-300,140,46,rng,num-start-101,101,536,classic,1003.076506137848,False,,False,0.0,,,0,"Index(['1', '6', '10', '11', '13', '15', '17', '18', '22', '27',
       ...
       '279', '280', '283', '284', '287', '288', '292', '293', '297', '299'],
      dtype='object', length=140)",True,1000,True,100,0.0,0.0,5a488bb26b
103,./expes/v3_2021-01-29_di_300-prng-1-w1-p100,daily_issda-300,300,first-300,98,32,rng,num-start-231,231,536,classic,7.952232837677002,True,,True,1.0,1.0,1.0,1,"Index(['1', '6', '10', '11', '13', '15', '18', '22', '35', '36', '38', '43',
       '46', '48', '49', '51', '53', '55', '58', '59', '61', '63', '74', '77',
       '83', '85', '87', '93', '97', '99', '100', '105', '112', '115', '121',
       '127', '131', '132', '134', '135', '137', '139', '141', '143', '144',
       '145', '150', '155', '156', '159', '160', '162', '173', '178', '183',
       '184', '185', '187', '189', '196', '198', '199', '202', '204', '207',
       '208', '211', '214', '217', '218', '224', '225', '226', '231', '232',
       '234', '236', '239', '241', '242', '243', '246', '249', '250', '251',
       '257', '260', '264', '265', '270', '272', '274', '283', '287', '292',
       '293', '297', '299'],
      dtype='object')",False,1000,True,100,1.0,1.0,c8bb90a4c4
104,./expes/v3_2021-01-29_di_300-prng-1-w1-p100,daily_issda-300,300,first-300,70,23,rng,num-start-211,211,536,classic,7.544420480728149,True,,True,1.0,1.0,1.0,1,"Index(['2', '3', '4', '5', '9', '13', '21', '22', '23', '27', '28', '29', '33',
       '36', '42', '43', '44', '45', '48', '53', '57', '58', '63', '68', '69',
       '71', '72', '75', '81', '87', '89', '96', '99', '102', '103', '104',
       '105', '108', '115', '122', '137', '139', '144', '150', '170', '172',
       '174', '175', '192', '194', '195', '197', '204', '211', '216', '217',
       '218', '232', '238', '252', '255', '257', '258', '260', '276', '277',
       '284', '285', '294', '297'],
      dtype='object')",False,1000,True,100,1.0,1.0,58f4bbc57e
105,./expes/v3_2021-01-29_di_300-prng-1-w1-p100,daily_issda-300,300,first-300,112,37,rng,num-start-41,41,536,classic,1001.2368638515472,False,,False,0.0,,,0,"Index(['1', '2', '3', '5', '7', '10', '12', '15', '17', '19',
       ...
       '269', '272', '274', '277', '279', '280', '282', '289', '294', '297'],
      dtype='object', length=112)",True,1000,True,100,0.0,0.0,828c257e0e
106,./expes/v3_2021-01-29_di_300-prng-1-w1-p100,daily_issda-300,300,first-300,63,21,rng,num-start-281,281,536,classic,9.222607612609863,True,,True,1.0,1.0,1.0,1,"Index(['1', '6', '10', '16', '27', '31', '32', '39', '43', '45', '47', '58',
       '59', '70', '74', '75', '84', '88', '99', '103', '108', '115', '117',
       '121', '130', '134', '138', '141', '159', '161', '172', '173', '174',
       '180', '183', '186', '187', '189', '191', '192', '196', '197', '198',
       '206', '208', '215', '217', '226', '228', '236', '241', '243', '245',
       '248', '260', '261', '263', '271', '277', '278', '285', '286', '296'],
      dtype='object')",False,1000,True,100,1.0,1.0,4ae82786fd
107,./expes/v3_2021-01-29_di_300-prng-1-w1-p100,daily_issda-300,300,first-300,21,7,rng,num-start-221,221,536,classic,7.325862884521484,True,,True,1.0,1.0,1.0,1,"Index(['38', '55', '61', '77', '115', '127', '131', '134', '135', '139', '150',
       '156', '162', '184', '185', '202', '204', '231', '239', '265', '270'],
      dtype='object')",False,1000,True,100,1.0,1.0,197e04231a
108,./expes/v3_2021-01-29_di_300-prng-1-w1-p100,daily_issda-300,300,first-300,56,18,rng,num-start-91,91,536,classic,9.14392638206482,True,,True,1.0,1.0,1.0,1,"Index(['4', '11', '14', '23', '31', '35', '45', '46', '47', '53', '55', '80',
       '83', '85', '89', '92', '100', '110', '114', '120', '121', '127', '128',
       '133', '134', '135', '140', '142', '144', '148', '149', '150', '154',
       '156', '157', '159', '160', '173', '185', '191', '199', '203', '206',
       '212', '217', '221', '232', '243', '246', '260', '261', '267', '275',
       '281', '282', '294'],
      dtype='object')",False,1000,True,100,1.0,1.0,0d50e37c98
109,./expes/v3_2021-01-29_di_300-prng-1-w1-p100,daily_issda-300,300,first-300,70,23,rng,num-start-291,291,536,classic,9.920393228530884,True,,True,1.0,1.0,1.0,1,"Index(['1', '3', '8', '9', '16', '19', '22', '27', '31', '33', '35', '36',
       '38', '43', '44', '45', '47', '49', '56', '61', '73', '81', '95', '96',
       '98', '101', '102', '108', '110', '118', '120', '124', '131', '139',
       '143', '148', '149', '151', '156', '160', '162', '168', '171', '173',
       '193', '198', '203', '204', '206', '209', '210', '215', '226', '229',
       '232', '235', '238', '239', '241', '244', '256', '261', '263', '266',
       '271', '276', '283', '287', '289', '290'],
      dtype='object')",False,1000,True,100,1.0,1.0,d7dd1283f3
110,./expes/v3_2021-01-29_di_300-prng-1-w1-p100,daily_issda-300,300,first-300,28,9,rng,num-start-201,201,536,classic,7.194675445556641,True,,True,1.0,1.0,1.0,1,"Index(['8', '17', '18', '23', '39', '72', '83', '90', '106', '128', '135',
       '143', '146', '156', '168', '182', '185', '196', '216', '220', '234',
       '237', '248', '251', '252', '267', '293', '296'],
      dtype='object')",False,1000,True,100,1.0,1.0,e717c8536f
111,./expes/v3_2021-01-29_di_300-prng-1-w1-p100,daily_issda-300,300,first-300,126,42,rng,num-start-251,251,536,classic,9.054293394088743,True,,True,1.0,1.0,1.0,1,"Index(['2', '7', '9', '11', '14', '16', '17', '18', '20', '23',
       ...
       '273', '277', '280', '286', '289', '292', '294', '297', '298', '300'],
      dtype='object', length=126)",False,1000,True,100,1.0,1.0,b237a05958
112,./expes/v3_2021-01-29_di_300-prng-1-w1-p100,daily_issda-300,300,first-300,119,39,rng,num-start-41,41,536,classic,1001.2586584091188,False,,False,0.0,,,0,"Index(['1', '4', '7', '8', '9', '10', '12', '15', '16', '19',
       ...
       '271', '276', '277', '284', '286', '287', '289', '292', '294', '295'],
      dtype='object', length=119)",True,1000,True,100,0.0,0.0,2b9c6e485d
113,./expes/v3_2021-01-29_di_300-prng-1-w1-p100,daily_issda-300,300,first-300,91,30,rng,num-start-11,11,536,classic,1000.4035184383392,False,,False,0.0,,,0,"Index(['1', '2', '3', '5', '7', '10', '12', '15', '19', '24', '27', '30', '34',
       '37', '47', '53', '56', '58', '61', '65', '68', '72', '75', '76', '81',
       '82', '85', '86', '91', '93', '94', '95', '101', '102', '105', '107',
       '108', '111', '126', '127', '128', '129', '131', '132', '136', '142',
       '144', '149', '152', '153', '155', '157', '159', '161', '162', '170',
       '174', '175', '177', '182', '184', '185', '186', '188', '189', '191',
       '193', '195', '197', '200', '207', '209', '213', '215', '222', '228',
       '232', '237', '239', '241', '242', '247', '263', '269', '272', '277',
       '279', '280', '282', '294', '297'],
      dtype='object')",True,1000,True,100,0.0,0.0,cd2d1b42b9
114,./expes/v3_2021-01-29_di_300-prng-1-w1-p100,daily_issda-300,300,first-300,84,28,rng,num-start-201,201,536,classic,7.785142421722412,True,,True,1.0,1.0,1.0,1,"Index(['1', '2', '3', '5', '7', '10', '12', '15', '19', '24', '27', '30', '34',
       '37', '53', '56', '58', '61', '65', '68', '72', '75', '81', '82', '85',
       '86', '91', '93', '94', '95', '101', '102', '105', '108', '111', '126',
       '127', '128', '129', '131', '132', '136', '144', '149', '152', '153',
       '155', '157', '159', '161', '162', '170', '174', '177', '182', '184',
       '185', '188', '189', '191', '193', '195', '197', '200', '207', '209',
       '213', '215', '222', '228', '232', '237', '239', '241', '242', '247',
       '263', '269', '272', '277', '279', '282', '294', '297'],
      dtype='object')",False,1000,True,100,1.0,1.0,a0b42c2b0e
115,./expes/v3_2021-01-29_di_300-prng-1-w1-p100,daily_issda-300,300,first-300,84,28,rng,num-start-241,241,536,classic,8.500038862228394,True,,True,1.0,1.0,1.0,1,"Index(['4', '41', '45', '46', '48', '52', '59', '61', '63', '65', '67', '68',
       '69', '74', '75', '76', '78', '83', '87', '90', '93', '94', '98', '101',
       '102', '103', '104', '105', '106', '111', '113', '121', '122', '123',
       '128', '130', '133', '136', '139', '140', '145', '152', '154', '155',
       '156', '167', '172', '174', '176', '178', '181', '185', '188', '198',
       '202', '204', '205', '208', '209', '214', '224', '230', '235', '241',
       '245', '246', '251', '252', '253', '254', '257', '260', '263', '268',
       '270', '273', '274', '276', '279', '283', '291', '294', '295', '297'],
      dtype='object')",False,1000,True,100,1.0,1.0,cafaff0e15
116,./expes/v3_2021-01-29_di_300-prng-1-w1-p100,daily_issda-300,300,first-300,56,18,rng,num-start-51,51,536,classic,1001.5415909290314,False,,False,0.0,,,0,"Index(['1', '6', '10', '16', '27', '31', '32', '39', '43', '45', '47', '58',
       '70', '74', '75', '84', '88', '99', '103', '108', '115', '117', '134',
       '138', '141', '161', '173', '174', '180', '183', '186', '189', '192',
       '196', '197', '198', '206', '208', '215', '217', '226', '228', '236',
       '241', '243', '245', '248', '260', '261', '263', '271', '277', '278',
       '285', '286', '296'],
      dtype='object')",True,1000,True,100,0.0,0.0,36e9381d78
117,./expes/v3_2021-01-29_di_300-prng-1-w1-p100,daily_issda-300,300,first-300,77,25,rng,num-start-281,281,536,classic,9.733148574829102,True,,True,1.0,1.0,1.0,1,"Index(['1', '8', '17', '21', '32', '33', '36', '38', '42', '46', '47', '48',
       '49', '51', '52', '56', '64', '67', '72', '73', '76', '77', '95', '96',
       '97', '98', '105', '112', '114', '123', '124', '125', '129', '133',
       '134', '145', '148', '149', '150', '155', '156', '159', '162', '163',
       '164', '167', '170', '171', '182', '184', '198', '205', '208', '216',
       '223', '227', '228', '230', '242', '244', '245', '249', '251', '253',
       '259', '261', '262', '267', '273', '277', '279', '281', '283', '287',
       '291', '295', '299'],
      dtype='object')",False,1000,True,100,1.0,1.0,57e41f823d
118,./expes/v3_2021-01-29_di_300-prng-1-w1-p100,daily_issda-300,300,first-300,112,37,rng,num-start-211,211,536,classic,7.58560585975647,True,,True,1.0,1.0,1.0,1,"Index(['3', '4', '5', '6', '7', '8', '11', '12', '15', '16',
       ...
       '258', '262', '265', '268', '270', '277', '278', '289', '297', '299'],
      dtype='object', length=112)",False,1000,True,100,1.0,1.0,d2b9c49f09
119,./expes/v3_2021-01-29_di_300-prng-1-w1-p100,daily_issda-300,300,first-300,77,25,rng,num-start-241,241,536,classic,8.763586521148682,True,,True,1.0,1.0,1.0,1,"Index(['6', '9', '10', '19', '25', '29', '34', '38', '41', '52', '60', '72',
       '73', '76', '78', '81', '85', '89', '92', '101', '106', '107', '115',
       '118', '119', '121', '123', '135', '140', '144', '147', '152', '157',
       '159', '160', '161', '162', '163', '173', '174', '177', '182', '183',
       '185', '189', '199', '200', '201', '203', '206', '208', '215', '216',
       '225', '227', '231', '234', '237', '239', '240', '243', '244', '251',
       '252', '253', '254', '257', '258', '262', '267', '272', '274', '279',
       '285', '290', '292', '296'],
      dtype='object')",False,1000,True,100,1.0,1.0,298031e1ef
120,./expes/v3_2021-01-29_di_300-prng-1-w1-p100,daily_issda-300,300,first-300,21,7,rng,num-start-81,81,536,classic,3.039239883422852,True,,True,1.0,1.0,1.0,1,"Index(['8', '22', '33', '47', '49', '73', '81', '95', '96', '98', '156', '203',
       '229', '232', '239', '244', '261', '263', '271', '276', '287'],
      dtype='object')",False,1000,True,100,1.0,1.0,9540546bbc
121,./expes/v3_2021-01-29_di_300-prng-1-w1-p100,daily_issda-300,300,first-300,7,2,rng,num-start-151,151,536,classic,5.257099390029907,True,,True,1.0,1.0,1.0,1,"Index(['15', '27', '128', '131', '184', '239', '272'], dtype='object')",False,1000,True,100,1.0,1.0,ab8e8cc4de
122,./expes/v3_2021-01-29_di_300-prng-1-w1-p100,daily_issda-300,300,first-300,56,18,rng,num-start-121,121,536,classic,4.503964424133301,True,,True,1.0,1.0,1.0,1,"Index(['2', '3', '4', '5', '9', '13', '21', '23', '27', '29', '33', '42', '43',
       '45', '53', '57', '58', '63', '68', '69', '71', '72', '81', '87', '96',
       '102', '103', '104', '105', '108', '115', '122', '137', '144', '150',
       '170', '172', '174', '175', '192', '194', '195', '197', '204', '211',
       '216', '217', '218', '232', '238', '252', '258', '260', '277', '284',
       '297'],
      dtype='object')",False,1000,True,100,1.0,1.0,a01123355e
123,./expes/v3_2021-01-29_di_300-prng-1-w1-p100,daily_issda-300,300,first-300,14,4,rng,num-start-71,71,536,classic,2.560070753097534,True,,True,1.0,1.0,1.0,1,"Index(['11', '31', '35', '47', '53', '80', '114', '121', '149', '156', '203',
       '206', '246', '282'],
      dtype='object')",False,1000,True,100,1.0,1.0,e605620987
124,./expes/v3_2021-01-29_di_300-prng-1-w1-p100,daily_issda-300,300,first-300,35,11,rng,num-start-1,1,536,classic,411.39347410202026,False,,True,0.5432369571337983,0.5161470136760733,0.5829711718858506,10000,"Index(['14', '32', '36', '42', '57', '64', '71', '72', '73', '78', '90', '101',
       '108', '128', '130', '143', '149', '156', '159', '163', '170', '188',
       '197', '206', '210', '213', '215', '243', '257', '260', '268', '273',
       '277', '283', '287'],
      dtype='object')",False,1000,True,100,1.0,1.0,876852dc6c
125,./expes/v3_2021-01-29_di_300-prng-1-w1-p100,daily_issda-300,300,first-300,70,23,rng,num-start-181,181,536,classic,6.609286308288574,True,,True,1.0,1.0,1.0,1,"Index(['13', '15', '19', '29', '44', '47', '70', '82', '83', '85', '86', '87',
       '89', '91', '94', '107', '109', '114', '119', '121', '128', '129',
       '138', '143', '156', '158', '159', '160', '164', '167', '180', '182',
       '185', '186', '187', '191', '195', '202', '205', '209', '213', '217',
       '221', '228', '229', '233', '234', '237', '239', '246', '250', '251',
       '256', '257', '258', '259', '260', '261', '262', '264', '266', '269',
       '270', '272', '279', '286', '287', '288', '291', '298'],
      dtype='object')",False,1000,True,100,1.0,1.0,b2fa6dc10a
126,./expes/v3_2021-01-29_di_300-prng-1-w1-p100,daily_issda-300,300,first-300,42,14,rng,num-start-31,31,536,classic,1001.102548122406,False,,False,0.0,,,0,"Index(['6', '15', '36', '38', '43', '49', '55', '58', '61', '63', '77', '83',
       '85', '93', '105', '115', '127', '131', '134', '135', '139', '141',
       '150', '156', '162', '173', '184', '185', '187', '196', '202', '204',
       '207', '225', '231', '239', '250', '265', '270', '283', '297', '299'],
      dtype='object')",True,1000,True,100,0.0,0.0,caa7a468e1
127,./expes/v3_2021-01-29_di_300-prng-1-w1-p100,daily_issda-300,300,first-300,56,18,rng,num-start-141,141,536,classic,4.932498931884766,True,,True,1.0,1.0,1.0,1,"Index(['1', '12', '15', '19', '24', '42', '46', '48', '49', '50', '60', '62',
       '71', '75', '99', '100', '101', '102', '103', '115', '126', '129',
       '134', '136', '138', '140', '150', '156', '160', '164', '172', '183',
       '185', '186', '192', '195', '210', '212', '218', '221', '228', '241',
       '248', '249', '250', '251', '257', '258', '264', '269', '276', '277',
       '284', '289', '294', '295'],
      dtype='object')",False,1000,True,100,1.0,1.0,070d78aa6b
128,./expes/v3_2021-01-29_di_300-prng-1-w1-p100,daily_issda-300,300,first-300,98,32,rng,num-start-251,251,536,classic,8.651273012161255,True,,True,1.0,1.0,1.0,1,"Index(['2', '8', '16', '19', '20', '22', '23', '36', '37', '38', '40', '44',
       '48', '58', '61', '63', '65', '67', '68', '70', '71', '72', '73', '76',
       '82', '85', '86', '91', '92', '94', '96', '99', '100', '104', '109',
       '110', '116', '119', '120', '121', '122', '129', '130', '132', '133',
       '135', '138', '142', '144', '149', '151', '152', '155', '160', '161',
       '175', '176', '178', '180', '183', '184', '187', '188', '191', '192',
       '200', '203', '209', '212', '218', '220', '221', '224', '226', '228',
       '230', '231', '236', '238', '241', '250', '252', '255', '267', '268',
       '270', '273', '275', '279', '282', '284', '285', '289', '290', '292',
       '296', '298', '299'],
      dtype='object')",False,1000,True,100,1.0,1.0,a1f732a1bb
129,./expes/v3_2021-01-29_di_300-prng-1-w1-p100,daily_issda-300,300,first-300,91,30,rng,num-start-21,21,536,classic,1000.670858860016,False,,False,0.0,,,0,"Index(['2', '8', '16', '20', '22', '23', '36', '37', '38', '44', '48', '58',
       '61', '65', '67', '68', '70', '71', '72', '73', '76', '82', '85', '86',
       '91', '92', '94', '96', '99', '100', '104', '109', '110', '116', '119',
       '120', '121', '122', '129', '130', '132', '133', '135', '142', '144',
       '149', '151', '152', '160', '161', '175', '176', '178', '180', '183',
       '184', '187', '188', '191', '192', '200', '203', '212', '218', '220',
       '221', '224', '226', '228', '230', '231', '236', '238', '250', '252',
       '255', '267', '268', '270', '273', '275', '279', '282', '284', '285',
       '289', '290', '292', '296', '298', '299'],
      dtype='object')",True,1000,True,100,0.0,0.0,471245a66d
130,./expes/v3_2021-01-29_di_300-prng-1-w1-p100,daily_issda-300,300,first-300,56,18,rng,num-start-151,151,536,classic,5.6085593700408936,True,,True,1.0,1.0,1.0,1,"Index(['1', '3', '8', '9', '16', '19', '22', '27', '31', '33', '35', '36',
       '43', '44', '47', '49', '56', '73', '81', '95', '96', '98', '101',
       '108', '110', '118', '120', '124', '131', '143', '148', '149', '151',
       '156', '162', '168', '198', '203', '206', '209', '226', '229', '232',
       '235', '238', '239', '244', '256', '261', '263', '266', '271', '276',
       '283', '287', '289'],
      dtype='object')",False,1000,True,100,1.0,1.0,9d657534cd
131,./expes/v3_2021-01-29_di_300-prng-1-w1-p100,daily_issda-300,300,first-300,7,2,rng,num-start-261,261,536,classic,8.61381459236145,True,,True,1.0,1.0,1.0,1,"Index(['117', '146', '186', '214', '229', '241', '247'], dtype='object')",False,1000,True,100,1.0,1.0,d5a7265798
132,./expes/v3_2021-01-29_di_300-prng-1-w1-p100,daily_issda-300,300,first-300,14,4,rng,num-start-271,271,536,classic,8.757989883422852,True,,True,1.0,1.0,1.0,1,"Index(['8', '17', '18', '83', '106', '143', '220', '237', '248', '251', '252',
       '267', '293', '296'],
      dtype='object')",False,1000,True,100,1.0,1.0,f7db765527
133,./expes/v3_2021-01-29_di_300-prng-1-w1-p100,daily_issda-300,300,first-300,14,4,rng,num-start-91,91,536,classic,3.193081855773926,True,,True,1.0,1.0,1.0,1,"Index(['6', '9', '19', '29', '60', '76', '81', '107', '123', '174', '183',
       '189', '239', '267'],
      dtype='object')",False,1000,True,100,1.0,1.0,d724af1909
134,./expes/v3_2021-01-29_di_300-prng-1-w1-p100,daily_issda-300,300,first-300,98,32,rng,num-start-91,91,536,classic,1002.7117178440094,False,,False,0.0,,,0,"Index(['1', '8', '9', '17', '20', '21', '32', '33', '36', '38', '42', '43',
       '46', '47', '48', '49', '51', '52', '56', '60', '64', '67', '72', '73',
       '76', '77', '88', '95', '96', '97', '98', '105', '111', '112', '113',
       '114', '121', '123', '124', '125', '129', '133', '134', '139', '141',
       '142', '145', '148', '149', '150', '155', '156', '159', '162', '163',
       '164', '167', '170', '171', '172', '182', '183', '184', '191', '198',
       '201', '205', '208', '215', '216', '223', '227', '228', '230', '231',
       '242', '244', '245', '249', '250', '251', '253', '259', '261', '262',
       '267', '268', '269', '273', '277', '279', '281', '283', '287', '291',
       '295', '297', '299'],
      dtype='object')",True,1000,True,100,0.0,0.0,c22d5be856
135,./expes/v3_2021-01-29_di_300-prng-1-w1-p100,daily_issda-300,300,first-300,126,42,rng,num-start-11,11,536,classic,1000.3856751918792,False,,False,0.0,,,0,"Index(['1', '2', '3', '5', '7', '10', '12', '15', '17', '19',
       ...
       '272', '273', '274', '277', '279', '280', '282', '289', '294', '297'],
      dtype='object', length=126)",True,1000,True,100,0.0,0.0,9fddf23c06
136,./expes/v3_2021-01-29_di_300-prng-1-w1-p100,daily_issda-300,300,first-300,133,44,rng,num-start-51,51,536,classic,1001.5786640644072,False,,False,0.0,,,0,"Index(['1', '7', '8', '9', '12', '14', '17', '19', '20', '21',
       ...
       '279', '281', '283', '287', '291', '292', '294', '295', '297', '299'],
      dtype='object', length=133)",True,1000,True,100,0.0,0.0,3deaddd643
137,./expes/v3_2021-01-29_di_300-prng-1-w1-p100,daily_issda-300,300,first-300,133,44,rng,num-start-111,111,536,classic,9.267630577087402,True,,True,1.0,1.0,1.0,1,"Index(['2', '3', '5', '6', '8', '9', '10', '16', '19', '22',
       ...
       '274', '279', '281', '285', '290', '292', '293', '295', '296', '298'],
      dtype='object', length=133)",False,1000,True,100,1.0,1.0,277ff8f437
138,./expes/v3_2021-01-29_di_300-prng-1-w1-p100,daily_issda-300,300,first-300,84,28,rng,num-start-11,11,536,classic,1000.3949778079988,False,,False,0.0,,,0,"Index(['2', '5', '7', '12', '14', '15', '16', '18', '23', '33', '45', '49',
       '52', '53', '56', '61', '62', '69', '84', '87', '88', '89', '96', '98',
       '103', '108', '111', '113', '114', '117', '118', '119', '120', '125',
       '131', '137', '146', '149', '152', '156', '158', '163', '171', '177',
       '188', '190', '192', '195', '196', '200', '202', '207', '208', '213',
       '214', '217', '222', '225', '229', '231', '236', '241', '242', '246',
       '250', '251', '254', '256', '257', '258', '259', '260', '261', '264',
       '267', '271', '277', '278', '281', '284', '285', '292', '296', '297'],
      dtype='object')",True,1000,True,100,0.0,0.0,d6f79b6b67
139,./expes/v3_2021-01-29_di_300-prng-1-w1-p100,daily_issda-300,300,first-300,63,21,rng,num-start-291,291,536,classic,9.860373973846436,True,,True,1.0,1.0,1.0,1,"Index(['1', '2', '3', '7', '10', '12', '15', '27', '30', '34', '37', '53',
       '58', '65', '68', '72', '75', '81', '82', '85', '86', '91', '94', '95',
       '101', '102', '105', '108', '111', '127', '128', '131', '132', '136',
       '144', '149', '153', '155', '157', '159', '161', '162', '170', '174',
       '182', '184', '185', '191', '195', '197', '200', '207', '209', '213',
       '228', '239', '241', '242', '247', '272', '277', '279', '294'],
      dtype='object')",False,1000,True,100,1.0,1.0,0a4fa9e537
140,./expes/v3_2021-01-29_di_300-prng-1-w1-p100,daily_issda-300,300,first-300,119,39,rng,num-start-201,201,536,classic,7.434831142425537,True,,True,1.0,1.0,1.0,1,"Index(['1', '4', '5', '6', '10', '13', '14', '15', '16', '17',
       ...
       '270', '271', '277', '278', '280', '282', '285', '286', '294', '296'],
      dtype='object', length=119)",False,1000,True,100,1.0,1.0,478df1cd87
141,./expes/v3_2021-01-29_di_300-prng-1-w1-p100,daily_issda-300,300,first-300,98,32,rng,num-start-141,141,536,classic,10.863154649734495,True,,True,1.0,1.0,1.0,1,"Index(['4', '10', '11', '14', '22', '23', '24', '31', '32', '35', '40', '42',
       '43', '45', '46', '47', '52', '53', '55', '63', '70', '75', '79', '80',
       '83', '85', '89', '91', '92', '95', '99', '100', '101', '102', '104',
       '110', '114', '118', '120', '121', '122', '127', '128', '129', '133',
       '134', '135', '140', '142', '143', '144', '147', '148', '149', '150',
       '151', '154', '156', '157', '159', '160', '165', '166', '168', '170',
       '173', '176', '183', '185', '191', '196', '199', '203', '206', '211',
       '212', '217', '221', '224', '226', '228', '232', '236', '237', '242',
       '243', '246', '260', '261', '266', '267', '274', '275', '281', '282',
       '286', '294', '299'],
      dtype='object')",False,1000,True,100,1.0,1.0,4a99550a25
142,./expes/v3_2021-01-29_di_300-prng-1-w1-p100,daily_issda-300,300,first-300,35,11,rng,num-start-261,261,536,classic,8.596095085144043,True,,True,1.0,1.0,1.0,1,"Index(['14', '32', '36', '42', '57', '64', '71', '72', '73', '78', '90', '101',
       '108', '128', '130', '143', '149', '156', '159', '163', '170', '188',
       '197', '206', '210', '213', '215', '243', '257', '260', '268', '273',
       '277', '283', '287'],
      dtype='object')",False,1000,True,100,1.0,1.0,0e10b1e3e4
143,./expes/v3_2021-01-29_di_300-prng-1-w1-p100,daily_issda-300,300,first-300,126,42,rng,num-start-141,141,536,classic,9.968567848205566,True,,True,1.0,1.0,1.0,1,"Index(['3', '4', '5', '6', '7', '8', '11', '12', '15', '16',
       ...
       '265', '268', '270', '274', '277', '278', '289', '294', '297', '299'],
      dtype='object', length=126)",False,1000,True,100,1.0,1.0,bb813ee48e
144,./expes/v3_2021-01-29_di_300-prng-1-w1-p100,daily_issda-300,300,first-300,63,21,rng,num-start-31,31,536,classic,1001.0123784542084,False,,False,0.0,,,0,"Index(['1', '3', '8', '9', '16', '19', '22', '27', '31', '33', '35', '36',
       '38', '43', '44', '47', '49', '56', '73', '81', '95', '96', '98', '101',
       '102', '108', '110', '118', '120', '124', '131', '143', '148', '149',
       '151', '156', '162', '168', '193', '198', '203', '204', '206', '209',
       '215', '226', '229', '232', '235', '238', '239', '241', '244', '256',
       '261', '263', '266', '271', '276', '283', '287', '289', '290'],
      dtype='object')",True,1000,True,100,0.0,0.0,209d4ee8ea
145,./expes/v3_2021-01-29_di_300-prng-1-w1-p100,daily_issda-300,300,first-300,91,30,rng,num-start-51,51,536,classic,1001.6159071922302,False,,False,0.0,,,0,"Index(['7', '11', '14', '16', '18', '20', '23', '30', '33', '37', '44', '45',
       '46', '50', '56', '59', '60', '65', '70', '71', '73', '76', '77', '82',
       '83', '86', '88', '90', '99', '100', '102', '104', '107', '108', '113',
       '117', '120', '121', '125', '127', '131', '133', '137', '146', '147',
       '152', '153', '154', '159', '161', '174', '176', '177', '183', '190',
       '193', '194', '195', '198', '200', '203', '206', '207', '209', '214',
       '217', '219', '228', '233', '234', '236', '243', '249', '250', '251',
       '254', '255', '258', '260', '262', '265', '267', '271', '273', '277',
       '280', '286', '294', '297', '298', '300'],
      dtype='object')",True,1000,True,100,0.0,0.0,8955097831
146,./expes/v3_2021-01-29_di_300-prng-1-w1-p100,daily_issda-300,300,first-300,133,44,rng,num-start-191,191,536,classic,6.925306081771851,True,,True,1.0,1.0,1.0,1,"Index(['1', '3', '5', '6', '8', '9', '11', '16', '19', '20',
       ...
       '276', '283', '284', '287', '289', '290', '293', '295', '296', '299'],
      dtype='object', length=133)",False,1000,True,100,1.0,1.0,2c65f65105
147,./expes/v3_2021-01-29_di_300-prng-1-w1-p100,daily_issda-300,300,first-300,105,35,rng,num-start-11,11,536,classic,1000.3476161956788,False,,False,0.0,,,0,"Index(['3', '4', '5', '10', '41', '45', '46', '48', '52', '59',
       ...
       '281', '283', '285', '286', '287', '291', '293', '294', '295', '297'],
      dtype='object', length=105)",True,1000,True,100,0.0,0.0,8cca7402d1
148,./expes/v3_2021-01-29_di_300-prng-1-w1-p100,daily_issda-300,300,first-300,112,37,rng,num-start-41,41,536,classic,1001.2800598144532,False,,False,0.0,,,0,"Index(['4', '5', '10', '11', '14', '22', '23', '24', '29', '31',
       ...
       '266', '267', '274', '275', '281', '282', '286', '293', '294', '299'],
      dtype='object', length=112)",True,1000,True,100,0.0,0.0,aad5e5073f
149,./expes/v3_2021-01-29_di_300-prng-1-w1-p100,daily_issda-300,300,first-300,49,16,rng,num-start-161,161,536,classic,5.866171836853027,True,,True,1.0,1.0,1.0,1,"Index(['1', '8', '21', '32', '33', '38', '48', '49', '51', '52', '72', '76',
       '98', '105', '112', '114', '123', '125', '129', '133', '134', '145',
       '156', '159', '162', '167', '170', '171', '182', '184', '198', '205',
       '208', '216', '223', '227', '242', '245', '249', '253', '259', '262',
       '267', '273', '281', '283', '287', '291', '299'],
      dtype='object')",False,1000,True,100,1.0,1.0,728242a9cb
150,./expes/v3_2021-01-29_di_300-prng-1-w1-p100,daily_issda-300,300,first-300,105,35,rng,num-start-201,201,536,classic,7.180269002914429,True,,True,1.0,1.0,1.0,1,"Index(['3', '5', '10', '11', '14', '26', '27', '28', '30', '32',
       ...
       '279', '283', '284', '285', '286', '287', '289', '293', '295', '297'],
      dtype='object', length=105)",False,1000,True,100,1.0,1.0,13a3ff2479
151,./expes/v3_2021-01-29_di_300-prng-1-w1-p100,daily_issda-300,300,first-300,56,18,rng,num-start-21,21,536,classic,1000.7044076919556,False,,False,0.0,,,0,"Index(['3', '8', '17', '18', '19', '23', '34', '37', '39', '69', '72', '81',
       '83', '90', '100', '106', '115', '121', '123', '128', '135', '143',
       '146', '155', '156', '161', '167', '168', '182', '185', '186', '188',
       '193', '196', '212', '216', '220', '224', '226', '231', '234', '237',
       '241', '248', '251', '252', '255', '257', '267', '274', '275', '282',
       '293', '296', '299', '300'],
      dtype='object')",True,1000,True,100,0.0,0.0,75e9a40df2
152,./expes/v3_2021-01-29_di_300-prng-1-w1-p100,daily_issda-300,300,first-300,119,39,rng,num-start-71,71,536,classic,1002.0957250595092,False,,False,0.0,,,0,"Index(['4', '5', '10', '11', '14', '19', '21', '22', '23', '24',
       ...
       '271', '274', '275', '280', '281', '282', '286', '293', '294', '299'],
      dtype='object', length=119)",True,1000,True,100,0.0,0.0,ccdba6831b
153,./expes/v3_2021-01-29_di_300-prng-1-w1-p100,daily_issda-300,300,first-300,140,46,rng,num-start-251,251,536,classic,9.243651628494264,True,,True,1.0,1.0,1.0,1,"Index(['1', '3', '5', '6', '8', '9', '10', '11', '16', '18',
       ...
       '283', '284', '287', '289', '290', '293', '295', '296', '299', '300'],
      dtype='object', length=140)",False,1000,True,100,1.0,1.0,15f0a3193a
154,./expes/v3_2021-01-29_di_300-prng-1-w1-p100,daily_issda-300,300,first-300,7,2,rng,num-start-121,121,536,classic,4.396572589874268,True,,True,1.0,1.0,1.0,1,"Index(['23', '62', '103', '178', '202', '262', '267'], dtype='object')",False,1000,True,100,1.0,1.0,ce8549e4bd
155,./expes/v3_2021-01-29_di_300-prng-1-w1-p100,daily_issda-300,300,first-300,126,42,rng,num-start-251,251,536,classic,9.237364053726196,True,,True,1.0,1.0,1.0,1,"Index(['4', '6', '7', '8', '11', '12', '14', '15', '16', '17',
       ...
       '282', '283', '287', '292', '293', '294', '296', '297', '298', '300'],
      dtype='object', length=126)",False,1000,True,100,1.0,1.0,f3e138f791
156,./expes/v3_2021-01-29_di_300-prng-1-w1-p100,daily_issda-300,300,first-300,49,16,rng,num-start-21,21,536,classic,1000.6548800468444,False,,False,0.0,,,0,"Index(['3', '4', '6', '11', '12', '15', '23', '43', '45', '73', '79', '80',
       '89', '113', '114', '115', '117', '121', '122', '130', '133', '145',
       '146', '151', '152', '155', '156', '159', '163', '172', '179', '186',
       '192', '210', '214', '216', '217', '229', '234', '236', '238', '241',
       '247', '251', '254', '265', '268', '289', '297'],
      dtype='object')",True,1000,True,100,0.0,0.0,cda7d77ccd
157,./expes/v3_2021-01-29_di_300-prng-1-w1-p100,daily_issda-300,300,first-300,28,9,rng,num-start-211,211,536,classic,6.649981737136841,True,,True,1.0,1.0,1.0,1,"Index(['2', '5', '12', '14', '15', '16', '33', '49', '53', '61', '69', '108',
       '111', '118', '131', '137', '163', '195', '196', '200', '222', '229',
       '231', '242', '250', '254', '278', '292'],
      dtype='object')",False,1000,True,100,1.0,1.0,850cccdaf2
158,./expes/v3_2021-01-29_di_300-prng-1-w1-p100,daily_issda-300,300,first-300,49,16,rng,num-start-51,51,536,classic,1001.520700454712,False,,False,0.0,,,0,"Index(['2', '5', '12', '14', '15', '16', '33', '49', '52', '53', '61', '62',
       '69', '96', '98', '108', '111', '113', '114', '118', '119', '120',
       '131', '137', '149', '152', '163', '171', '177', '195', '196', '200',
       '214', '217', '222', '225', '229', '231', '236', '242', '250', '254',
       '257', '260', '271', '278', '284', '285', '292'],
      dtype='object')",True,1000,True,100,0.0,0.0,8238266685
